{
  "id": 5505046,
  "isIf3": true,
  "type": 0,
  "contentType": 0,
  "originalX": 0,
  "originalY": 0,
  "originalWidth": 501,
  "originalHeight": 324,
  "widthMode": 0,
  "heightMode": 0,
  "xPositionMode": 0,
  "yPositionMode": 0,
  "parentId": 5505025,
  "isHidden": false,
  "scrollWidth": 0,
  "scrollHeight": 0,
  "noClickThrough": false,
  "spriteId": -1,
  "textureId": 0,
  "spriteTiling": false,
  "opacity": 0,
  "borderType": 0,
  "shadowColor": 0,
  "flippedVertically": false,
  "flippedHorizontally": false,
  "modelType": 1,
  "modelId": -1,
  "offsetX2d": 0,
  "offsetY2d": 0,
  "rotationX": 0,
  "rotationY": 0,
  "rotationZ": 0,
  "modelZoom": 100,
  "animation": -1,
  "orthogonal": false,
  "modelHeightOverride": 0,
  "fontId": -1,
  "text": "",
  "lineHeight": 0,
  "xTextAlignment": 0,
  "yTextAlignment": 0,
  "textShadowed": false,
  "textColor": 0,
  "filled": false,
  "lineWidth": 1,
  "lineDirection": false,
  "clickMask": 0,
  "name": "",
  "dragDeadZone": 0,
  "dragDeadTime": 0,
  "dragRenderBehavior": false,
  "targetVerb": "",
  "onLoadListener": [
    7067,
    5505076,
    5505048,
    5505049,
    5505050,
    5505051,
    5505052,
    5505054,
    5505055,
    5505056,
    5505057,
    5505058,
    5505060,
    5505061,
    5505062,
    5505063,
    5505065,
    5505066,
    5505077,
    5505078
  ],
  "hasListener": true,
  "menuType": 0,
  "hoveredSiblingId": 0,
  "xPitch": 0,
  "yPitch": 0,
  "alternateText": "",
  "alternateTextColor": 0,
  "hoveredTextColor": 0,
  "alternateHoveredTextColor": 0,
  "alternateSpriteId": -1,
  "alternateModelId": -1,
  "alternateAnimation": -1,
  "spellName": "",
  "tooltip": "Ok"
}