{
  "id": 27787268,
  "isIf3": false,
  "type": 4,
  "contentType": 0,
  "originalX": 239,
  "originalY": 37,
  "originalWidth": 32,
  "originalHeight": 32,
  "widthMode": 0,
  "heightMode": 0,
  "xPositionMode": 0,
  "yPositionMode": 0,
  "parentId": -1,
  "isHidden": false,
  "scrollWidth": 0,
  "scrollHeight": 0,
  "noClickThrough": false,
  "spriteId": -1,
  "textureId": 0,
  "spriteTiling": false,
  "opacity": 0,
  "borderType": 0,
  "shadowColor": 0,
  "flippedVertically": false,
  "flippedHorizontally": false,
  "modelType": 1,
  "modelId": -1,
  "offsetX2d": 0,
  "offsetY2d": 0,
  "rotationX": 0,
  "rotationY": 0,
  "rotationZ": 0,
  "modelZoom": 100,
  "animation": -1,
  "orthogonal": false,
  "modelHeightOverride": 0,
  "fontId": 647,
  "text": "THE GODFATHER<br>ATTACKED US.<br> WE HAVE<br>FLED TO SAFETY.<br> IF YOU ARE LOYAL TO <br> HER MAJESTY, FIND<br>US BY USING<br>COORDINATES<br>AIR DLR DJQ AJS",
  "lineHeight": 29,
  "xTextAlignment": 1,
  "yTextAlignment": 0,
  "textShadowed": true,
  "textColor": 10000006,
  "filled": false,
  "lineWidth": 1,
  "lineDirection": false,
  "clickMask": 0,
  "name": "",
  "dragDeadZone": 0,
  "dragDeadTime": 0,
  "dragRenderBehavior": false,
  "targetVerb": "",
  "hasListener": false,
  "menuType": 0,
  "hoveredSiblingId": -1,
  "xPitch": 0,
  "yPitch": 0,
  "alternateText": "",
  "alternateTextColor": 0,
  "hoveredTextColor": 0,
  "alternateHoveredTextColor": 0,
  "alternateSpriteId": -1,
  "alternateModelId": -1,
  "alternateAnimation": -1,
  "spellName": "",
  "tooltip": "Ok"
}