{
  "id": 32636932,
  "isIf3": true,
  "type": 4,
  "contentType": 0,
  "originalX": -1,
  "originalY": -1,
  "originalWidth": 340,
  "originalHeight": 175,
  "widthMode": 0,
  "heightMode": 0,
  "xPositionMode": 1,
  "yPositionMode": 1,
  "parentId": -1,
  "isHidden": false,
  "scrollWidth": 0,
  "scrollHeight": 0,
  "noClickThrough": false,
  "spriteId": -1,
  "textureId": 0,
  "spriteTiling": false,
  "opacity": 0,
  "borderType": 0,
  "shadowColor": 0,
  "flippedVertically": false,
  "flippedHorizontally": false,
  "modelType": 1,
  "modelId": -1,
  "offsetX2d": 0,
  "offsetY2d": 0,
  "rotationX": 0,
  "rotationY": 0,
  "rotationZ": 0,
  "modelZoom": 100,
  "animation": -1,
  "orthogonal": false,
  "modelHeightOverride": 0,
  "fontId": 497,
  "text": "Kaleef<br><br>Your mission is to relieve our agent inside Menaphos. We know of a tunnel beneath the Temple of the Lesser Gods you can use to bypass the lockdown. Be vigilant of traps and the hostile natives. They're about as welcoming as the Menaphites, only slightly better looking.<br><br>Os",
  "lineHeight": 17,
  "xTextAlignment": 1,
  "yTextAlignment": 0,
  "textShadowed": false,
  "textColor": 787460,
  "filled": false,
  "lineWidth": 1,
  "lineDirection": false,
  "clickMask": 0,
  "name": "",
  "dragDeadZone": 0,
  "dragDeadTime": 0,
  "dragRenderBehavior": false,
  "targetVerb": "",
  "hasListener": false,
  "menuType": 0,
  "hoveredSiblingId": 0,
  "xPitch": 0,
  "yPitch": 0,
  "alternateText": "",
  "alternateTextColor": 0,
  "hoveredTextColor": 0,
  "alternateHoveredTextColor": 0,
  "alternateSpriteId": -1,
  "alternateModelId": -1,
  "alternateAnimation": -1,
  "spellName": "",
  "tooltip": "Ok"
}