{
  "id": 10223620,
  "isIf3": true,
  "type": 4,
  "contentType": 0,
  "originalX": 0,
  "originalY": 0,
  "originalWidth": 0,
  "originalHeight": 90,
  "widthMode": 1,
  "heightMode": 0,
  "xPositionMode": 1,
  "yPositionMode": 0,
  "parentId": 10223619,
  "isHidden": false,
  "scrollWidth": 0,
  "scrollHeight": 0,
  "noClickThrough": false,
  "spriteId": -1,
  "textureId": 0,
  "spriteTiling": false,
  "opacity": 0,
  "borderType": 0,
  "shadowColor": 0,
  "flippedVertically": false,
  "flippedHorizontally": false,
  "modelType": 1,
  "modelId": -1,
  "offsetX2d": 0,
  "offsetY2d": 0,
  "rotationX": 0,
  "rotationY": 0,
  "rotationZ": 0,
  "modelZoom": 100,
  "animation": -1,
  "orthogonal": false,
  "modelHeightOverride": 0,
  "fontId": 495,
  "text": "This form is for reporting <col=ffffff>game bugs</col> to the testing staff. Please ensure your bug can be verified in the <col=ffffff>Official Old School RuneScape Client</col> before reporting it.<br><br>For issues on <col=ffffff>account recovery</col>, <col=ffffff>billing</col>, or <col=ffffff>offenses</col>, the Support team will be better placed to help you.",
  "lineHeight": 0,
  "xTextAlignment": 0,
  "yTextAlignment": 0,
  "textShadowed": true,
  "textColor": 16750623,
  "filled": false,
  "lineWidth": 1,
  "lineDirection": false,
  "clickMask": 0,
  "name": "",
  "dragDeadZone": 0,
  "dragDeadTime": 0,
  "dragRenderBehavior": false,
  "targetVerb": "",
  "hasListener": false,
  "menuType": 0,
  "hoveredSiblingId": 0,
  "xPitch": 0,
  "yPitch": 0,
  "alternateText": "",
  "alternateTextColor": 0,
  "hoveredTextColor": 0,
  "alternateHoveredTextColor": 0,
  "alternateSpriteId": -1,
  "alternateModelId": -1,
  "alternateAnimation": -1,
  "spellName": "",
  "tooltip": "Ok"
}