{
  "id": 1085,
  "name": "Mithril plateskirt",
  "examine": "Designer leg protection.",
  "resizeX": 128,
  "resizeY": 128,
  "resizeZ": 128,
  "xan2d": 620,
  "yan2d": 0,
  "zan2d": 0,
  "cost": 2600,
  "isTradeable": true,
  "stackable": 0,
  "inventoryModel": 2542,
  "wearPos1": 7,
  "wearPos2": 0,
  "wearPos3": 0,
  "members": false,
  "colorFind": [
    61,
    25238
  ],
  "colorReplace": [
    -22239,
    -22254
  ],
  "zoom2d": 1100,
  "xOffset2d": 5,
  "yOffset2d": 5,
  "ambient": 0,
  "contrast": 0,
  "options": [
    null,
    null,
    "Take",
    null,
    null
  ],
  "interfaceOptions": [
    null,
    "Wear",
    null,
    null,
    "Drop"
  ],
  "maleModel0": 266,
  "maleModel1": -1,
  "maleModel2": -1,
  "maleOffset": 0,
  "maleHeadModel": -1,
  "maleHeadModel2": -1,
  "femaleModel0": 430,
  "femaleModel1": -1,
  "femaleModel2": -1,
  "femaleOffset": 0,
  "femaleHeadModel": -1,
  "femaleHeadModel2": -1,
  "category": 8,
  "notedID": 1086,
  "notedTemplate": -1,
  "team": 0,
  "weight": 7257,
  "shiftClickDropIndex": -2,
  "boughtId": -1,
  "boughtTemplateId": -1,
  "placeholderId": 14178,
  "placeholderTemplateId": -1
}