{
  "id": 10881,
  "name": "Gold satchel",
  "examine": "I can keep my grub in here!",
  "resizeX": 128,
  "resizeY": 128,
  "resizeZ": 128,
  "xan2d": 235,
  "yan2d": 249,
  "zan2d": 0,
  "cost": 100,
  "isTradeable": false,
  "stackable": 0,
  "inventoryModel": 22575,
  "wearPos1": 5,
  "wearPos2": 0,
  "wearPos3": 0,
  "members": true,
  "colorFind": [
    -25375,
    -26399,
    -28443,
    -27533
  ],
  "colorReplace": [
    7973,
    8877,
    9781,
    9661
  ],
  "zoom2d": 854,
  "xOffset2d": 3,
  "yOffset2d": -32,
  "ambient": 0,
  "contrast": 0,
  "options": [
    null,
    null,
    "Take",
    null,
    null
  ],
  "interfaceOptions": [
    "Inspect",
    "Wear",
    null,
    "Empty",
    "Drop"
  ],
  "maleModel0": 22608,
  "maleModel1": -1,
  "maleModel2": -1,
  "maleOffset": 0,
  "maleHeadModel": -1,
  "maleHeadModel2": -1,
  "femaleModel0": 22608,
  "femaleModel1": -1,
  "femaleModel2": -1,
  "femaleOffset": 6,
  "femaleHeadModel": -1,
  "femaleHeadModel2": -1,
  "category": 143,
  "notedID": -1,
  "notedTemplate": -1,
  "team": 0,
  "weight": 150,
  "shiftClickDropIndex": -2,
  "boughtId": -1,
  "boughtTemplateId": -1,
  "placeholderId": 16597,
  "placeholderTemplateId": -1
}