{
  "id": 1095,
  "name": "Leather chaps",
  "examine": "Better than no armour!",
  "resizeX": 128,
  "resizeY": 128,
  "resizeZ": 128,
  "xan2d": 488,
  "yan2d": 0,
  "zan2d": 224,
  "cost": 20,
  "isTradeable": true,
  "stackable": 0,
  "inventoryModel": 2555,
  "wearPos1": 7,
  "wearPos2": 0,
  "wearPos3": 0,
  "members": false,
  "zoom2d": 1720,
  "xOffset2d": 7,
  "yOffset2d": 5,
  "ambient": 0,
  "contrast": 0,
  "options": [
    null,
    null,
    "Take",
    null,
    null
  ],
  "interfaceOptions": [
    null,
    "Wear",
    null,
    null,
    "Drop"
  ],
  "maleModel0": 262,
  "maleModel1": -1,
  "maleModel2": -1,
  "maleOffset": 0,
  "maleHeadModel": -1,
  "maleHeadModel2": -1,
  "femaleModel0": 425,
  "femaleModel1": -1,
  "femaleModel2": -1,
  "femaleOffset": 0,
  "femaleHeadModel": -1,
  "femaleHeadModel2": -1,
  "category": 8,
  "notedID": 1096,
  "notedTemplate": -1,
  "team": 0,
  "weight": 2721,
  "shiftClickDropIndex": -2,
  "boughtId": -1,
  "boughtTemplateId": -1,
  "placeholderId": 14184,
  "placeholderTemplateId": -1
}