{
  "id": 1105,
  "name": "Steel chainbody",
  "examine": "A series of connected metal rings.",
  "resizeX": 128,
  "resizeY": 128,
  "resizeZ": 128,
  "xan2d": 576,
  "yan2d": 0,
  "zan2d": 0,
  "cost": 750,
  "isTradeable": true,
  "stackable": 0,
  "inventoryModel": 2558,
  "wearPos1": 4,
  "wearPos2": 0,
  "wearPos3": 0,
  "members": false,
  "zoom2d": 1100,
  "xOffset2d": 0,
  "yOffset2d": 0,
  "ambient": 0,
  "contrast": 0,
  "options": [
    null,
    null,
    "Take",
    null,
    null
  ],
  "interfaceOptions": [
    null,
    "Wear",
    null,
    null,
    "Drop"
  ],
  "maleModel0": 301,
  "maleModel1": -1,
  "maleModel2": -1,
  "maleOffset": 0,
  "maleHeadModel": -1,
  "maleHeadModel2": -1,
  "femaleModel0": 464,
  "femaleModel1": -1,
  "femaleModel2": -1,
  "femaleOffset": 0,
  "femaleHeadModel": -1,
  "femaleHeadModel2": -1,
  "category": 7,
  "notedID": 1106,
  "notedTemplate": -1,
  "team": 0,
  "weight": 6803,
  "shiftClickDropIndex": -2,
  "boughtId": -1,
  "boughtTemplateId": -1,
  "placeholderId": 14094,
  "placeholderTemplateId": -1
}