{
  "id": 11087,
  "name": "Ruby bracelet",
  "examine": "I wonder if this is valuable.",
  "resizeX": 128,
  "resizeY": 128,
  "resizeZ": 128,
  "xan2d": 382,
  "yan2d": 155,
  "zan2d": 1818,
  "cost": 1,
  "isTradeable": false,
  "stackable": 0,
  "inventoryModel": 24566,
  "wearPos1": 9,
  "wearPos2": 0,
  "wearPos3": 0,
  "members": false,
  "colorFind": [
    -22464
  ],
  "colorReplace": [
    931
  ],
  "zoom2d": 659,
  "xOffset2d": -4,
  "yOffset2d": 13,
  "ambient": 0,
  "contrast": 0,
  "options": [
    null,
    null,
    "Take",
    null,
    null
  ],
  "interfaceOptions": [
    null,
    null,
    null,
    null,
    "Drop"
  ],
  "maleModel0": 24558,
  "maleModel1": -1,
  "maleModel2": -1,
  "maleOffset": 0,
  "maleHeadModel": -1,
  "maleHeadModel2": -1,
  "femaleModel0": 24564,
  "femaleModel1": -1,
  "femaleModel2": -1,
  "femaleOffset": 0,
  "femaleHeadModel": -1,
  "femaleHeadModel2": -1,
  "category": 0,
  "notedID": -1,
  "notedTemplate": -1,
  "team": 0,
  "weight": 250,
  "shiftClickDropIndex": -2,
  "boughtId": -1,
  "boughtTemplateId": -1,
  "placeholderId": -1,
  "placeholderTemplateId": -1
}