{
  "id": 11167,
  "name": "Phoenix crossbow",
  "examine": "Former property of the Phoenix Gang.",
  "resizeX": 128,
  "resizeY": 128,
  "resizeZ": 128,
  "xan2d": 332,
  "yan2d": 1132,
  "zan2d": 0,
  "cost": 4,
  "isTradeable": false,
  "stackable": 0,
  "inventoryModel": 16876,
  "wearPos1": 3,
  "wearPos2": 0,
  "wearPos3": 0,
  "members": false,
  "colorFind": [
    5656,
    7446,
    5409
  ],
  "colorReplace": [
    5652,
    5297,
    -22506
  ],
  "zoom2d": 1030,
  "xOffset2d": -1,
  "yOffset2d": 0,
  "ambient": 0,
  "contrast": 0,
  "options": [
    null,
    null,
    "Take",
    null,
    null
  ],
  "interfaceOptions": [
    null,
    "Wield",
    null,
    "Inspect",
    "Drop"
  ],
  "maleModel0": 16846,
  "maleModel1": -1,
  "maleModel2": -1,
  "maleOffset": 0,
  "maleHeadModel": -1,
  "maleHeadModel2": -1,
  "femaleModel0": 42622,
  "femaleModel1": -1,
  "femaleModel2": -1,
  "femaleOffset": 0,
  "femaleHeadModel": -1,
  "femaleHeadModel2": -1,
  "category": 37,
  "notedID": 11168,
  "notedTemplate": -1,
  "team": 0,
  "weight": 3628,
  "shiftClickDropIndex": -2,
  "boughtId": -1,
  "boughtTemplateId": -1,
  "placeholderId": 17870,
  "placeholderTemplateId": -1,
  "params": {
    "23": 1
  }
}