{
  "id": 11335,
  "name": "Dragon full helm",
  "examine": "Protects your head and looks impressive too.",
  "resizeX": 128,
  "resizeY": 128,
  "resizeZ": 128,
  "xan2d": 135,
  "yan2d": 123,
  "zan2d": 0,
  "cost": 150000,
  "isTradeable": true,
  "stackable": 0,
  "inventoryModel": 26662,
  "wearPos1": 0,
  "wearPos2": 8,
  "wearPos3": 11,
  "members": true,
  "colorFind": [
    10314,
    10306
  ],
  "colorReplace": [
    -22417,
    -22431
  ],
  "zoom2d": 789,
  "xOffset2d": -1,
  "yOffset2d": 0,
  "ambient": 0,
  "contrast": 0,
  "options": [
    null,
    null,
    "Take",
    null,
    null
  ],
  "interfaceOptions": [
    null,
    "Wear",
    null,
    null,
    "Drop"
  ],
  "maleModel0": 19861,
  "maleModel1": -1,
  "maleModel2": -1,
  "maleOffset": 0,
  "maleHeadModel": 26660,
  "maleHeadModel2": -1,
  "femaleModel0": 254,
  "femaleModel1": -1,
  "femaleModel2": -1,
  "femaleOffset": 0,
  "femaleHeadModel": 26660,
  "femaleHeadModel2": -1,
  "category": 2,
  "notedID": 11336,
  "notedTemplate": -1,
  "team": 0,
  "weight": 2000,
  "shiftClickDropIndex": -2,
  "boughtId": -1,
  "boughtTemplateId": -1,
  "placeholderId": 15584,
  "placeholderTemplateId": -1,
  "params": {
    "1564": 0,
    "436": 60,
    "434": 1
  }
}