{
  "id": 11375,
  "name": "Adamant hasta",
  "examine": "An adamant-tipped, one-handed hasta.",
  "resizeX": 128,
  "resizeY": 128,
  "resizeZ": 128,
  "xan2d": 2047,
  "yan2d": 1923,
  "zan2d": 318,
  "cost": 2080,
  "isTradeable": true,
  "stackable": 0,
  "inventoryModel": 26665,
  "wearPos1": 3,
  "wearPos2": 0,
  "wearPos3": 0,
  "members": true,
  "colorFind": [
    72,
    59,
    33,
    5652
  ],
  "colorReplace": [
    21675,
    21662,
    21782,
    3226
  ],
  "zoom2d": 1762,
  "xOffset2d": 5,
  "yOffset2d": -4,
  "ambient": 0,
  "contrast": 0,
  "options": [
    null,
    null,
    "Take",
    null,
    null
  ],
  "interfaceOptions": [
    null,
    "Wield",
    null,
    null,
    "Drop"
  ],
  "maleModel0": 26653,
  "maleModel1": -1,
  "maleModel2": -1,
  "maleOffset": 0,
  "maleHeadModel": -1,
  "maleHeadModel2": -1,
  "femaleModel0": 42647,
  "femaleModel1": -1,
  "femaleModel2": -1,
  "femaleOffset": 0,
  "femaleHeadModel": -1,
  "femaleHeadModel2": -1,
  "category": 36,
  "notedID": 11376,
  "notedTemplate": -1,
  "team": 0,
  "weight": 2721,
  "shiftClickDropIndex": -2,
  "boughtId": -1,
  "boughtTemplateId": -1,
  "placeholderId": 15558,
  "placeholderTemplateId": -1
}