{
  "id": 1169,
  "name": "Coif",
  "examine": "Light weight head protection.",
  "resizeX": 128,
  "resizeY": 128,
  "resizeZ": 128,
  "xan2d": 108,
  "yan2d": 300,
  "zan2d": 0,
  "cost": 200,
  "isTradeable": true,
  "stackable": 0,
  "inventoryModel": 2541,
  "wearPos1": 0,
  "wearPos2": 8,
  "wearPos3": 0,
  "members": false,
  "zoom2d": 610,
  "xOffset2d": 3,
  "yOffset2d": -5,
  "ambient": 0,
  "contrast": 0,
  "options": [
    null,
    null,
    "Take",
    null,
    null
  ],
  "interfaceOptions": [
    null,
    "Wear",
    null,
    null,
    "Drop"
  ],
  "maleModel0": 220,
  "maleModel1": -1,
  "maleModel2": -1,
  "maleOffset": 0,
  "maleHeadModel": 32,
  "maleHeadModel2": 63,
  "femaleModel0": 396,
  "femaleModel1": -1,
  "femaleModel2": -1,
  "femaleOffset": 0,
  "femaleHeadModel": 90,
  "femaleHeadModel2": 120,
  "category": 2,
  "notedID": 1170,
  "notedTemplate": -1,
  "team": 0,
  "weight": 907,
  "shiftClickDropIndex": -2,
  "boughtId": -1,
  "boughtTemplateId": -1,
  "placeholderId": 14152,
  "placeholderTemplateId": -1,
  "params": {
    "1564": 0,
    "436": 20,
    "434": 4
  }
}