{
  "id": 1173,
  "name": "Bronze sq shield",
  "examine": "A medium square shield.",
  "resizeX": 128,
  "resizeY": 128,
  "resizeZ": 128,
  "xan2d": 268,
  "yan2d": 60,
  "zan2d": 0,
  "cost": 48,
  "isTradeable": true,
  "stackable": 0,
  "inventoryModel": 2720,
  "wearPos1": 5,
  "wearPos2": 0,
  "wearPos3": 0,
  "members": false,
  "colorFind": [
    57
  ],
  "colorReplace": [
    5652
  ],
  "zoom2d": 1410,
  "xOffset2d": 2,
  "yOffset2d": 174,
  "ambient": 0,
  "contrast": 0,
  "options": [
    null,
    null,
    "Take",
    null,
    null
  ],
  "interfaceOptions": [
    null,
    "Wield",
    null,
    null,
    "Drop"
  ],
  "maleModel0": 541,
  "maleModel1": -1,
  "maleModel2": -1,
  "maleOffset": 0,
  "maleHeadModel": -1,
  "maleHeadModel2": -1,
  "femaleModel0": 541,
  "femaleModel1": -1,
  "femaleModel2": -1,
  "femaleOffset": 6,
  "femaleHeadModel": -1,
  "femaleHeadModel2": -1,
  "category": 18,
  "notedID": 1174,
  "notedTemplate": -1,
  "team": 0,
  "weight": 3628,
  "shiftClickDropIndex": -2,
  "boughtId": -1,
  "boughtTemplateId": -1,
  "placeholderId": 14115,
  "placeholderTemplateId": -1
}