{
  "id": 11889,
  "name": "Zamorakian hasta",
  "examine": "An evil one-handed spear.",
  "resizeX": 128,
  "resizeY": 128,
  "resizeZ": 128,
  "xan2d": 1257,
  "yan2d": 512,
  "zan2d": 0,
  "cost": 300000,
  "isTradeable": true,
  "stackable": 0,
  "inventoryModel": 28038,
  "wearPos1": 3,
  "wearPos2": 0,
  "wearPos3": 0,
  "members": true,
  "colorFind": [
    78
  ],
  "colorReplace": [
    41
  ],
  "zoom2d": 1900,
  "xOffset2d": 0,
  "yOffset2d": -4,
  "ambient": 0,
  "contrast": 0,
  "options": [
    null,
    null,
    "Take",
    null,
    null
  ],
  "interfaceOptions": [
    null,
    "Wield",
    null,
    null,
    "Drop"
  ],
  "maleModel0": 27654,
  "maleModel1": -1,
  "maleModel2": -1,
  "maleOffset": 0,
  "maleHeadModel": -1,
  "maleHeadModel2": -1,
  "femaleModel0": 39550,
  "femaleModel1": -1,
  "femaleModel2": -1,
  "femaleOffset": 0,
  "femaleHeadModel": -1,
  "femaleHeadModel2": -1,
  "category": 36,
  "notedID": 11890,
  "notedTemplate": -1,
  "team": 0,
  "weight": 3000,
  "shiftClickDropIndex": -2,
  "boughtId": -1,
  "boughtTemplateId": -1,
  "placeholderId": 18351,
  "placeholderTemplateId": -1,
  "params": {
    "41": 1,
    "434": 0,
    "1564": 3,
    "436": 70
  }
}