{
  "id": 11907,
  "name": "Trident of the seas",
  "examine": "A weapon from the deep.",
  "resizeX": 128,
  "resizeY": 128,
  "resizeZ": 128,
  "xan2d": 1535,
  "yan2d": 1778,
  "zan2d": 108,
  "cost": 68500,
  "isTradeable": false,
  "stackable": 0,
  "inventoryModel": 28232,
  "wearPos1": 3,
  "wearPos2": 0,
  "wearPos3": 0,
  "members": true,
  "zoom2d": 2421,
  "xOffset2d": -7,
  "yOffset2d": 8,
  "ambient": 0,
  "contrast": 0,
  "options": [
    null,
    null,
    "Take",
    null,
    null
  ],
  "interfaceOptions": [
    null,
    "Wield",
    "Check",
    "Uncharge",
    "Drop"
  ],
  "maleModel0": 28230,
  "maleModel1": -1,
  "maleModel2": -1,
  "maleOffset": 0,
  "maleHeadModel": -1,
  "maleHeadModel2": -1,
  "femaleModel0": 39549,
  "femaleModel1": -1,
  "femaleModel2": -1,
  "femaleOffset": 0,
  "femaleHeadModel": -1,
  "femaleHeadModel2": -1,
  "category": 1,
  "notedID": -1,
  "notedTemplate": -1,
  "team": 0,
  "weight": 1814,
  "shiftClickDropIndex": -2,
  "boughtId": -1,
  "boughtTemplateId": -1,
  "placeholderId": -1,
  "placeholderTemplateId": -1,
  "params": {
    "436": 75,
    "434": 6,
    "451": "Check"
  }
}