{
  "id": 11934,
  "name": "Raw dark crab",
  "examine": "I should try cooking this.",
  "resizeX": 128,
  "resizeY": 128,
  "resizeZ": 128,
  "xan2d": 222,
  "yan2d": 1805,
  "zan2d": 0,
  "cost": 325,
  "isTradeable": true,
  "stackable": 0,
  "inventoryModel": 28251,
  "wearPos1": 0,
  "wearPos2": 0,
  "wearPos3": 0,
  "members": true,
  "zoom2d": 1300,
  "xOffset2d": 14,
  "yOffset2d": 25,
  "ambient": -25,
  "contrast": 0,
  "options": [
    null,
    null,
    "Take",
    null,
    null
  ],
  "interfaceOptions": [
    null,
    null,
    null,
    null,
    "Drop"
  ],
  "maleModel0": -1,
  "maleModel1": -1,
  "maleModel2": -1,
  "maleOffset": 0,
  "maleHeadModel": -1,
  "maleHeadModel2": -1,
  "femaleModel0": -1,
  "femaleModel1": -1,
  "femaleModel2": -1,
  "femaleOffset": 0,
  "femaleHeadModel": -1,
  "femaleHeadModel2": -1,
  "category": 57,
  "notedID": 11935,
  "notedTemplate": -1,
  "team": 0,
  "weight": 350,
  "shiftClickDropIndex": -2,
  "boughtId": -1,
  "boughtTemplateId": -1,
  "placeholderId": 18271,
  "placeholderTemplateId": -1
}