{
  "id": 11930,
  "name": "Odium shard 3",
  "examine": "A broken shield piece.",
  "resizeX": 128,
  "resizeY": 128,
  "resizeZ": 128,
  "xan2d": 0,
  "yan2d": 504,
  "zan2d": 1643,
  "cost": 31000,
  "isTradeable": true,
  "stackable": 0,
  "inventoryModel": 28316,
  "wearPos1": 0,
  "wearPos2": 0,
  "wearPos3": 0,
  "members": true,
  "colorFind": [
    908
  ],
  "colorReplace": [
    15252
  ],
  "zoom2d": 1000,
  "xOffset2d": 11,
  "yOffset2d": -18,
  "ambient": 15,
  "contrast": 35,
  "options": [
    null,
    null,
    "Take",
    null,
    null
  ],
  "interfaceOptions": [
    null,
    null,
    null,
    null,
    "Drop"
  ],
  "maleModel0": -1,
  "maleModel1": -1,
  "maleModel2": -1,
  "maleOffset": 0,
  "maleHeadModel": -1,
  "maleHeadModel2": -1,
  "femaleModel0": -1,
  "femaleModel1": -1,
  "femaleModel2": -1,
  "femaleOffset": 0,
  "femaleHeadModel": -1,
  "femaleHeadModel2": -1,
  "category": 18,
  "notedID": 11947,
  "notedTemplate": -1,
  "team": 0,
  "weight": 907,
  "shiftClickDropIndex": -2,
  "boughtId": -1,
  "boughtTemplateId": -1,
  "placeholderId": 18267,
  "placeholderTemplateId": -1
}