{
  "id": 11972,
  "name": "Combat bracelet(6)",
  "examine": "A handy way to get around.",
  "resizeX": 128,
  "resizeY": 128,
  "resizeZ": 128,
  "xan2d": 184,
  "yan2d": 1909,
  "zan2d": 0,
  "cost": 21040,
  "isTradeable": true,
  "stackable": 0,
  "inventoryModel": 24566,
  "wearPos1": 9,
  "wearPos2": 0,
  "wearPos3": 0,
  "members": true,
  "colorFind": [
    -22464
  ],
  "colorReplace": [
    -14425
  ],
  "zoom2d": 659,
  "xOffset2d": 0,
  "yOffset2d": -7,
  "ambient": 0,
  "contrast": 0,
  "options": [
    null,
    null,
    "Take",
    null,
    null
  ],
  "interfaceOptions": [
    null,
    "Wear",
    null,
    "Rub",
    "Drop"
  ],
  "maleModel0": 24558,
  "maleModel1": -1,
  "maleModel2": -1,
  "maleOffset": 0,
  "maleHeadModel": -1,
  "maleHeadModel2": -1,
  "femaleModel0": 24564,
  "femaleModel1": -1,
  "femaleModel2": -1,
  "femaleOffset": 0,
  "femaleHeadModel": -1,
  "femaleHeadModel2": -1,
  "category": 830,
  "notedID": 11973,
  "notedTemplate": -1,
  "team": 0,
  "weight": 250,
  "shiftClickDropIndex": -2,
  "boughtId": -1,
  "boughtTemplateId": -1,
  "placeholderId": 21451,
  "placeholderTemplateId": -1,
  "params": {
    "258": 8,
    "451": "Warriors' Guild",
    "452": "Champions' Guild",
    "453": "Monastery",
    "454": "Ranging Guild"
  }
}