{
  "id": 11988,
  "name": "Ring of wealth (1)",
  "examine": "An enchanted ring with one teleport charge.",
  "resizeX": 128,
  "resizeY": 128,
  "resizeZ": 128,
  "xan2d": 322,
  "yan2d": 135,
  "zan2d": 2024,
  "cost": 17625,
  "isTradeable": false,
  "stackable": 0,
  "inventoryModel": 2677,
  "wearPos1": 12,
  "wearPos2": 0,
  "wearPos3": 0,
  "members": true,
  "colorFind": [
    127
  ],
  "colorReplace": [
    -14425
  ],
  "zoom2d": 830,
  "xOffset2d": 4,
  "yOffset2d": -12,
  "ambient": 0,
  "contrast": 0,
  "options": [
    null,
    null,
    "Take",
    null,
    null
  ],
  "interfaceOptions": [
    null,
    "Wear",
    "Features",
    "Rub",
    "Drop"
  ],
  "maleModel0": -1,
  "maleModel1": -1,
  "maleModel2": -1,
  "maleOffset": 0,
  "maleHeadModel": -1,
  "maleHeadModel2": -1,
  "femaleModel0": -1,
  "femaleModel1": -1,
  "femaleModel2": -1,
  "femaleOffset": 0,
  "femaleHeadModel": -1,
  "femaleHeadModel2": -1,
  "category": 656,
  "notedID": 11989,
  "notedTemplate": -1,
  "team": 0,
  "weight": 6,
  "shiftClickDropIndex": -2,
  "boughtId": -1,
  "boughtTemplateId": -1,
  "placeholderId": 21457,
  "placeholderTemplateId": -1,
  "params": {
    "258": 14,
    "451": "Miscellania",
    "452": "Grand Exchange",
    "453": "Falador",
    "454": "Dondakan",
    "455": "Boss Log",
    "456": "Coin Collection"
  }
}