{
  "id": 1215,
  "name": "Dragon dagger",
  "examine": "A powerful dagger.",
  "resizeX": 128,
  "resizeY": 128,
  "resizeZ": 128,
  "xan2d": 472,
  "yan2d": 1276,
  "zan2d": 0,
  "cost": 30000,
  "isTradeable": true,
  "stackable": 0,
  "inventoryModel": 2718,
  "wearPos1": 3,
  "wearPos2": 0,
  "wearPos3": 0,
  "members": true,
  "colorFind": [
    22459
  ],
  "colorReplace": [
    924
  ],
  "zoom2d": 760,
  "xOffset2d": 0,
  "yOffset2d": -4,
  "ambient": 0,
  "contrast": 0,
  "options": [
    null,
    null,
    "Take",
    null,
    null
  ],
  "interfaceOptions": [
    null,
    "Wield",
    null,
    null,
    "Drop"
  ],
  "maleModel0": 539,
  "maleModel1": -1,
  "maleModel2": -1,
  "maleOffset": 0,
  "maleHeadModel": -1,
  "maleHeadModel2": -1,
  "femaleModel0": 42626,
  "femaleModel1": -1,
  "femaleModel2": -1,
  "femaleOffset": 0,
  "femaleHeadModel": -1,
  "femaleHeadModel2": -1,
  "category": 25,
  "notedID": 1216,
  "notedTemplate": -1,
  "team": 0,
  "weight": 453,
  "shiftClickDropIndex": -2,
  "boughtId": -1,
  "boughtTemplateId": -1,
  "placeholderId": 14640,
  "placeholderTemplateId": -1,
  "params": {
    "1564": 3,
    "436": 60,
    "434": 0
  }
}