{
  "id": 12265,
  "name": "Bandos robe top",
  "examine": "Bandos Vestments.",
  "resizeX": 128,
  "resizeY": 128,
  "resizeZ": 128,
  "xan2d": 476,
  "yan2d": 0,
  "zan2d": 0,
  "cost": 7000,
  "isTradeable": true,
  "stackable": 0,
  "inventoryModel": 28722,
  "wearPos1": 4,
  "wearPos2": 6,
  "wearPos3": 0,
  "members": true,
  "colorFind": [
    916,
    908,
    307
  ],
  "colorReplace": [
    -21612,
    -21620,
    -22221
  ],
  "zoom2d": 1190,
  "xOffset2d": 0,
  "yOffset2d": 0,
  "ambient": 0,
  "contrast": 0,
  "options": [
    null,
    null,
    "Take",
    null,
    null
  ],
  "interfaceOptions": [
    null,
    "Wear",
    null,
    null,
    "Drop"
  ],
  "maleModel0": 28533,
  "maleModel1": 28523,
  "maleModel2": -1,
  "maleOffset": 0,
  "maleHeadModel": -1,
  "maleHeadModel2": -1,
  "femaleModel0": 28605,
  "femaleModel1": 28596,
  "femaleModel2": -1,
  "femaleOffset": 0,
  "femaleHeadModel": -1,
  "femaleHeadModel2": -1,
  "category": 7,
  "notedID": 12266,
  "notedTemplate": -1,
  "team": 0,
  "weight": 1800,
  "shiftClickDropIndex": -2,
  "boughtId": -1,
  "boughtTemplateId": -1,
  "placeholderId": 15873,
  "placeholderTemplateId": -1
}