{
  "id": 12353,
  "name": "Monocle",
  "examine": "Hmm, shallow and pedantic.",
  "resizeX": 128,
  "resizeY": 128,
  "resizeZ": 128,
  "xan2d": 350,
  "yan2d": 0,
  "zan2d": 0,
  "cost": 1200,
  "isTradeable": true,
  "stackable": 0,
  "inventoryModel": 28720,
  "wearPos1": 0,
  "wearPos2": 0,
  "wearPos3": 0,
  "members": true,
  "zoom2d": 400,
  "xOffset2d": 0,
  "yOffset2d": 4,
  "ambient": 0,
  "contrast": 0,
  "options": [
    null,
    null,
    "Take",
    null,
    null
  ],
  "interfaceOptions": [
    null,
    "Wear",
    null,
    null,
    "Drop"
  ],
  "maleModel0": 28507,
  "maleModel1": -1,
  "maleModel2": -1,
  "maleOffset": 0,
  "maleHeadModel": 28756,
  "maleHeadModel2": -1,
  "femaleModel0": 28507,
  "femaleModel1": -1,
  "femaleModel2": -1,
  "femaleOffset": 0,
  "femaleHeadModel": 28782,
  "femaleHeadModel2": -1,
  "category": 0,
  "notedID": 12354,
  "notedTemplate": -1,
  "team": 0,
  "weight": 1,
  "shiftClickDropIndex": -2,
  "boughtId": -1,
  "boughtTemplateId": -1,
  "placeholderId": 15917,
  "placeholderTemplateId": -1
}