{
  "id": 12397,
  "name": "Royal crown",
  "examine": "Who said I'd never be royal?",
  "resizeX": 128,
  "resizeY": 128,
  "resizeZ": 128,
  "xan2d": 40,
  "yan2d": 54,
  "zan2d": 0,
  "cost": 6000,
  "isTradeable": true,
  "stackable": 0,
  "inventoryModel": 28659,
  "wearPos1": 0,
  "wearPos2": 0,
  "wearPos3": 0,
  "members": true,
  "zoom2d": 463,
  "xOffset2d": 1,
  "yOffset2d": -1,
  "ambient": 0,
  "contrast": 0,
  "options": [
    null,
    null,
    "Take",
    null,
    null
  ],
  "interfaceOptions": [
    null,
    "Wear",
    null,
    null,
    "Drop"
  ],
  "maleModel0": 1808,
  "maleModel1": -1,
  "maleModel2": -1,
  "maleOffset": 0,
  "maleHeadModel": 28769,
  "maleHeadModel2": -1,
  "femaleModel0": 1808,
  "femaleModel1": -1,
  "femaleModel2": -1,
  "femaleOffset": 0,
  "femaleHeadModel": 28798,
  "femaleHeadModel2": -1,
  "category": 0,
  "notedID": 12398,
  "notedTemplate": -1,
  "team": 0,
  "weight": 453,
  "shiftClickDropIndex": -2,
  "boughtId": -1,
  "boughtTemplateId": -1,
  "placeholderId": 15937,
  "placeholderTemplateId": -1
}