{
  "id": 12414,
  "name": "Dragon chainbody (g)",
  "examine": "A series of connected metal rings with gold trim.",
  "resizeX": 128,
  "resizeY": 128,
  "resizeZ": 128,
  "xan2d": 568,
  "yan2d": 0,
  "zan2d": 0,
  "cost": 250000,
  "isTradeable": false,
  "stackable": 0,
  "inventoryModel": 28712,
  "wearPos1": 4,
  "wearPos2": 6,
  "wearPos3": 0,
  "members": true,
  "zoom2d": 1100,
  "xOffset2d": 0,
  "yOffset2d": 2,
  "ambient": 0,
  "contrast": 0,
  "options": [
    null,
    null,
    "Take",
    null,
    null
  ],
  "interfaceOptions": [
    null,
    "Wear",
    null,
    null,
    "Dismantle"
  ],
  "maleModel0": 28540,
  "maleModel1": 156,
  "maleModel2": -1,
  "maleOffset": 0,
  "maleHeadModel": -1,
  "maleHeadModel2": -1,
  "femaleModel0": 28614,
  "femaleModel1": 337,
  "femaleModel2": -1,
  "femaleOffset": 0,
  "femaleHeadModel": -1,
  "femaleHeadModel2": -1,
  "category": 7,
  "notedID": -1,
  "notedTemplate": -1,
  "team": 0,
  "weight": 6803,
  "shiftClickDropIndex": -2,
  "boughtId": -1,
  "boughtTemplateId": -1,
  "placeholderId": 15951,
  "placeholderTemplateId": -1,
  "params": {
    "258": 33
  }
}