{
  "id": 12421,
  "name": "Light infinity bottoms",
  "examine": "Mystical robes with a light recolour.",
  "resizeX": 128,
  "resizeY": 128,
  "resizeZ": 128,
  "xan2d": 304,
  "yan2d": 0,
  "zan2d": 0,
  "cost": 90000,
  "isTradeable": false,
  "stackable": 0,
  "inventoryModel": 10585,
  "wearPos1": 7,
  "wearPos2": 0,
  "wearPos3": 0,
  "members": true,
  "colorFind": [
    695,
    -9559,
    24512,
    -19520,
    -7220
  ],
  "colorReplace": [
    107,
    7114,
    6622,
    6253,
    7114
  ],
  "zoom2d": 1760,
  "xOffset2d": 0,
  "yOffset2d": 30,
  "ambient": 0,
  "contrast": 0,
  "options": [
    null,
    null,
    "Take",
    null,
    null
  ],
  "interfaceOptions": [
    null,
    "Wear",
    null,
    null,
    "Dismantle"
  ],
  "maleModel0": 10686,
  "maleModel1": -1,
  "maleModel2": -1,
  "maleOffset": 0,
  "maleHeadModel": -1,
  "maleHeadModel2": -1,
  "femaleModel0": 10693,
  "femaleModel1": -1,
  "femaleModel2": -1,
  "femaleOffset": 0,
  "femaleHeadModel": -1,
  "femaleHeadModel2": -1,
  "category": 10,
  "notedID": -1,
  "notedTemplate": -1,
  "team": 0,
  "weight": 1814,
  "shiftClickDropIndex": -2,
  "boughtId": -1,
  "boughtTemplateId": -1,
  "placeholderId": 15958,
  "placeholderTemplateId": -1
}