{
  "id": 12428,
  "name": "Penguin mask",
  "examine": "Thankfully this doesn't reset every week.",
  "resizeX": 128,
  "resizeY": 128,
  "resizeZ": 128,
  "xan2d": 539,
  "yan2d": 417,
  "zan2d": 0,
  "cost": 1200,
  "isTradeable": true,
  "stackable": 0,
  "inventoryModel": 28674,
  "wearPos1": 0,
  "wearPos2": 8,
  "wearPos3": 0,
  "members": true,
  "zoom2d": 1032,
  "xOffset2d": 8,
  "yOffset2d": 0,
  "ambient": 0,
  "contrast": 0,
  "options": [
    null,
    null,
    "Take",
    null,
    null
  ],
  "interfaceOptions": [
    null,
    "Wear",
    null,
    null,
    "Drop"
  ],
  "maleModel0": 54279,
  "maleModel1": -1,
  "maleModel2": -1,
  "maleOffset": 0,
  "maleHeadModel": 28753,
  "maleHeadModel2": -1,
  "femaleModel0": 54255,
  "femaleModel1": -1,
  "femaleModel2": -1,
  "femaleOffset": 0,
  "femaleHeadModel": 28778,
  "femaleHeadModel2": -1,
  "category": 0,
  "notedID": 12429,
  "notedTemplate": -1,
  "team": 0,
  "weight": 1814,
  "shiftClickDropIndex": -2,
  "boughtId": -1,
  "boughtTemplateId": -1,
  "placeholderId": 15962,
  "placeholderTemplateId": -1
}