{
  "id": 12434,
  "name": "Top hat & monocle",
  "examine": "Like a sir.",
  "resizeX": 128,
  "resizeY": 128,
  "resizeZ": 128,
  "xan2d": 498,
  "yan2d": 0,
  "zan2d": 175,
  "cost": 4000,
  "isTradeable": true,
  "stackable": 0,
  "inventoryModel": 28697,
  "wearPos1": 0,
  "wearPos2": 0,
  "wearPos3": 0,
  "members": true,
  "zoom2d": 905,
  "xOffset2d": 0,
  "yOffset2d": 12,
  "ambient": 0,
  "contrast": 0,
  "options": [
    null,
    null,
    "Take",
    null,
    null
  ],
  "interfaceOptions": [
    null,
    "Wear",
    null,
    null,
    "Drop"
  ],
  "maleModel0": 28518,
  "maleModel1": -1,
  "maleModel2": -1,
  "maleOffset": 0,
  "maleHeadModel": 28771,
  "maleHeadModel2": -1,
  "femaleModel0": 28588,
  "femaleModel1": -1,
  "femaleModel2": -1,
  "femaleOffset": 0,
  "femaleHeadModel": 28793,
  "femaleHeadModel2": -1,
  "category": 0,
  "notedID": 12435,
  "notedTemplate": -1,
  "team": 0,
  "weight": 1360,
  "shiftClickDropIndex": -2,
  "boughtId": -1,
  "boughtTemplateId": -1,
  "placeholderId": 15965,
  "placeholderTemplateId": -1
}