{
  "id": 12488,
  "name": "Bandos kiteshield",
  "examine": "Rune kiteshield in the colours of Bandos.",
  "resizeX": 128,
  "resizeY": 128,
  "resizeZ": 128,
  "xan2d": 344,
  "yan2d": 1104,
  "zan2d": 0,
  "cost": 54400,
  "isTradeable": true,
  "stackable": 0,
  "inventoryModel": 2339,
  "wearPos1": 5,
  "wearPos2": 0,
  "wearPos3": 0,
  "members": false,
  "colorFind": [
    61,
    7054,
    57
  ],
  "colorReplace": [
    -29403,
    7845,
    7845
  ],
  "zoom2d": 1560,
  "xOffset2d": -6,
  "yOffset2d": -14,
  "ambient": 0,
  "contrast": 0,
  "options": [
    null,
    null,
    "Take",
    null,
    null
  ],
  "interfaceOptions": [
    null,
    "Wear",
    null,
    null,
    "Drop"
  ],
  "maleModel0": 486,
  "maleModel1": -1,
  "maleModel2": -1,
  "maleOffset": 4,
  "maleHeadModel": -1,
  "maleHeadModel2": -1,
  "femaleModel0": 486,
  "femaleModel1": -1,
  "femaleModel2": -1,
  "femaleOffset": 6,
  "femaleHeadModel": -1,
  "femaleHeadModel2": -1,
  "category": 18,
  "notedID": 12489,
  "notedTemplate": -1,
  "team": 0,
  "weight": 5443,
  "shiftClickDropIndex": -2,
  "boughtId": -1,
  "boughtTemplateId": -1,
  "placeholderId": 15819,
  "placeholderTemplateId": -1
}