{
  "id": 1249,
  "name": "Dragon spear",
  "examine": "A dragon tipped spear.",
  "resizeX": 128,
  "resizeY": 128,
  "resizeZ": 128,
  "xan2d": 1960,
  "yan2d": 112,
  "zan2d": 144,
  "cost": 62400,
  "isTradeable": true,
  "stackable": 0,
  "inventoryModel": 2482,
  "wearPos1": 3,
  "wearPos2": 5,
  "wearPos3": 0,
  "members": true,
  "colorFind": [
    22457
  ],
  "colorReplace": [
    924
  ],
  "zoom2d": 1490,
  "xOffset2d": 7,
  "yOffset2d": -4,
  "ambient": 0,
  "contrast": 0,
  "options": [
    null,
    null,
    "Take",
    null,
    null
  ],
  "interfaceOptions": [
    null,
    "Wield",
    null,
    null,
    "Drop"
  ],
  "maleModel0": 505,
  "maleModel1": -1,
  "maleModel2": -1,
  "maleOffset": 0,
  "maleHeadModel": -1,
  "maleHeadModel2": -1,
  "femaleModel0": 505,
  "femaleModel1": -1,
  "femaleModel2": -1,
  "femaleOffset": 6,
  "femaleHeadModel": -1,
  "femaleHeadModel2": -1,
  "category": 36,
  "notedID": 1250,
  "notedTemplate": -1,
  "team": 0,
  "weight": 2267,
  "shiftClickDropIndex": -2,
  "boughtId": -1,
  "boughtTemplateId": -1,
  "placeholderId": 14774,
  "placeholderTemplateId": -1,
  "params": {
    "434": 0,
    "258": 46,
    "1564": 3,
    "436": 60
  }
}