{
  "id": 12518,
  "name": "Green dragon mask",
  "examine": "Do I look scary?",
  "resizeX": 128,
  "resizeY": 128,
  "resizeZ": 128,
  "xan2d": 202,
  "yan2d": 121,
  "zan2d": 81,
  "cost": 10000,
  "isTradeable": true,
  "stackable": 0,
  "inventoryModel": 28739,
  "wearPos1": 0,
  "wearPos2": 8,
  "wearPos3": 11,
  "members": true,
  "colorFind": [
    127,
    -27417,
    -27221
  ],
  "colorReplace": [
    22049,
    21910,
    25484
  ],
  "zoom2d": 905,
  "xOffset2d": -1,
  "yOffset2d": 22,
  "ambient": 0,
  "contrast": 0,
  "options": [
    null,
    null,
    "Take",
    null,
    null
  ],
  "interfaceOptions": [
    null,
    "Wear",
    null,
    null,
    "Drop"
  ],
  "maleModel0": 28508,
  "maleModel1": -1,
  "maleModel2": -1,
  "maleOffset": 0,
  "maleHeadModel": 28749,
  "maleHeadModel2": -1,
  "femaleModel0": 28552,
  "femaleModel1": -1,
  "femaleModel2": -1,
  "femaleOffset": 0,
  "femaleHeadModel": 28779,
  "femaleHeadModel2": -1,
  "category": 0,
  "notedID": 12519,
  "notedTemplate": -1,
  "team": 0,
  "weight": 2267,
  "shiftClickDropIndex": -2,
  "boughtId": -1,
  "boughtTemplateId": -1,
  "placeholderId": 15994,
  "placeholderTemplateId": -1
}