{
  "id": 12797,
  "name": "Dragon pickaxe",
  "examine": "If rocks could feel fear, they'd fear this while admiring its beauty.",
  "resizeX": 128,
  "resizeY": 128,
  "resizeZ": 128,
  "xan2d": 512,
  "yan2d": 929,
  "zan2d": 0,
  "cost": 97960,
  "isTradeable": false,
  "stackable": 0,
  "inventoryModel": 9597,
  "wearPos1": 3,
  "wearPos2": 0,
  "wearPos3": 0,
  "members": true,
  "zoom2d": 1663,
  "xOffset2d": 3,
  "yOffset2d": -1,
  "ambient": 0,
  "contrast": 0,
  "options": [
    null,
    null,
    "Take",
    null,
    null
  ],
  "interfaceOptions": [
    null,
    "Wield",
    null,
    null,
    "Revert"
  ],
  "maleModel0": 8962,
  "maleModel1": -1,
  "maleModel2": -1,
  "maleOffset": 0,
  "maleHeadModel": -1,
  "maleHeadModel2": -1,
  "femaleModel0": 8962,
  "femaleModel1": -1,
  "femaleModel2": -1,
  "femaleOffset": 6,
  "femaleHeadModel": -1,
  "femaleHeadModel2": -1,
  "category": 67,
  "notedID": -1,
  "notedTemplate": -1,
  "team": 0,
  "weight": 2400,
  "shiftClickDropIndex": -2,
  "boughtId": -1,
  "boughtTemplateId": -1,
  "placeholderId": 14767,
  "placeholderTemplateId": -1,
  "params": {
    "258": 21,
    "23": 61
  }
}