{
  "id": 12829,
  "name": "Spirit shield",
  "examine": "An ethereal shield.",
  "resizeX": 128,
  "resizeY": 128,
  "resizeZ": 128,
  "xan2d": 396,
  "yan2d": 1118,
  "zan2d": 0,
  "cost": 70000,
  "isTradeable": true,
  "stackable": 0,
  "inventoryModel": 11308,
  "wearPos1": 5,
  "wearPos2": 0,
  "wearPos3": 0,
  "members": true,
  "zoom2d": 1600,
  "xOffset2d": 1,
  "yOffset2d": 29,
  "ambient": 0,
  "contrast": 0,
  "options": [
    null,
    null,
    "Take",
    null,
    null
  ],
  "interfaceOptions": [
    null,
    "Wield",
    null,
    null,
    "Drop"
  ],
  "maleModel0": 11049,
  "maleModel1": -1,
  "maleModel2": -1,
  "maleOffset": 0,
  "maleHeadModel": -1,
  "maleHeadModel2": -1,
  "femaleModel0": 35758,
  "femaleModel1": -1,
  "femaleModel2": -1,
  "femaleOffset": 0,
  "femaleHeadModel": -1,
  "femaleHeadModel2": -1,
  "category": 18,
  "notedID": 12830,
  "notedTemplate": -1,
  "team": 0,
  "weight": 2000,
  "shiftClickDropIndex": -2,
  "boughtId": -1,
  "boughtTemplateId": -1,
  "placeholderId": 15337,
  "placeholderTemplateId": -1,
  "params": {
    "434": 1,
    "435": 5,
    "1564": 5,
    "436": 45,
    "437": 55
  }
}