{
  "id": 12825,
  "name": "Arcane spirit shield",
  "examine": "An ethereal shield with an arcane sigil attached to it.",
  "resizeX": 128,
  "resizeY": 128,
  "resizeZ": 128,
  "xan2d": 396,
  "yan2d": 27,
  "zan2d": 0,
  "cost": 2000000,
  "isTradeable": true,
  "stackable": 0,
  "inventoryModel": 11310,
  "wearPos1": 5,
  "wearPos2": 0,
  "wearPos3": 0,
  "members": true,
  "zoom2d": 1600,
  "xOffset2d": 4,
  "yOffset2d": 13,
  "ambient": 0,
  "contrast": 0,
  "options": [
    null,
    null,
    "Take",
    null,
    null
  ],
  "interfaceOptions": [
    null,
    "Wield",
    null,
    null,
    "Drop"
  ],
  "maleModel0": 11050,
  "maleModel1": -1,
  "maleModel2": -1,
  "maleOffset": 0,
  "maleHeadModel": -1,
  "maleHeadModel2": -1,
  "femaleModel0": 35756,
  "femaleModel1": -1,
  "femaleModel2": -1,
  "femaleOffset": 0,
  "femaleHeadModel": -1,
  "femaleHeadModel2": -1,
  "category": 18,
  "notedID": 12826,
  "notedTemplate": -1,
  "team": 0,
  "weight": 2000,
  "shiftClickDropIndex": -2,
  "boughtId": -1,
  "boughtTemplateId": -1,
  "placeholderId": 15335,
  "placeholderTemplateId": -1,
  "params": {
    "434": 1,
    "435": 5,
    "436": 75,
    "437": 70,
    "613": 65,
    "191": 6
  }
}