{
  "id": 12855,
  "name": "Hunter's honour",
  "examine": "Go forth, bold and proud.",
  "resizeX": 128,
  "resizeY": 128,
  "resizeZ": 128,
  "xan2d": 108,
  "yan2d": 215,
  "zan2d": 1993,
  "cost": 1,
  "isTradeable": false,
  "stackable": 0,
  "inventoryModel": 21826,
  "wearPos1": 0,
  "wearPos2": 0,
  "wearPos3": 0,
  "members": true,
  "zoom2d": 1000,
  "xOffset2d": 1,
  "yOffset2d": -15,
  "ambient": 0,
  "contrast": 0,
  "options": [
    null,
    null,
    "Take",
    null,
    null
  ],
  "interfaceOptions": [
    null,
    "Wear",
    null,
    null,
    "Destroy"
  ],
  "maleModel0": 21828,
  "maleModel1": -1,
  "maleModel2": -1,
  "maleOffset": 0,
  "maleHeadModel": 21833,
  "maleHeadModel2": -1,
  "femaleModel0": 21831,
  "femaleModel1": -1,
  "femaleModel2": -1,
  "femaleOffset": 0,
  "femaleHeadModel": 21833,
  "femaleHeadModel2": -1,
  "category": 265,
  "notedID": -1,
  "notedTemplate": -1,
  "team": 0,
  "weight": 10,
  "shiftClickDropIndex": -2,
  "boughtId": -1,
  "boughtTemplateId": -1,
  "placeholderId": 15100,
  "placeholderTemplateId": -1,
  "params": {
    "295": 1
  }
}