{
  "id": 12892,
  "name": "Antisanta mask",
  "examine": "He sees you when you're sleeping.",
  "resizeX": 128,
  "resizeY": 128,
  "resizeZ": 128,
  "xan2d": 512,
  "yan2d": 0,
  "zan2d": 1966,
  "cost": 0,
  "isTradeable": false,
  "stackable": 0,
  "inventoryModel": 29030,
  "wearPos1": 0,
  "wearPos2": 8,
  "wearPos3": 11,
  "members": false,
  "zoom2d": 653,
  "xOffset2d": 0,
  "yOffset2d": 0,
  "ambient": 0,
  "contrast": 0,
  "options": [
    null,
    null,
    "Take",
    null,
    null
  ],
  "interfaceOptions": [
    null,
    "Wear",
    null,
    null,
    "Destroy"
  ],
  "maleModel0": 54282,
  "maleModel1": -1,
  "maleModel2": -1,
  "maleOffset": 0,
  "maleHeadModel": 29015,
  "maleHeadModel2": -1,
  "femaleModel0": 54258,
  "femaleModel1": -1,
  "femaleModel2": -1,
  "femaleOffset": 0,
  "femaleHeadModel": 29018,
  "femaleHeadModel2": -1,
  "category": 0,
  "notedID": -1,
  "notedTemplate": -1,
  "team": 0,
  "weight": 300,
  "shiftClickDropIndex": -2,
  "boughtId": -1,
  "boughtTemplateId": -1,
  "placeholderId": 18139,
  "placeholderTemplateId": -1
}