{
  "id": 12902,
  "name": "Toxic staff (uncharged)",
  "examine": "It needs to be charged with Zulrah's scales.",
  "resizeX": 128,
  "resizeY": 128,
  "resizeZ": 128,
  "xan2d": 512,
  "yan2d": 1010,
  "zan2d": 229,
  "cost": 1000006,
  "isTradeable": true,
  "stackable": 0,
  "inventoryModel": 19225,
  "wearPos1": 3,
  "wearPos2": 0,
  "wearPos3": 0,
  "members": true,
  "colorFind": [
    17467
  ],
  "colorReplace": [
    21947
  ],
  "zoom2d": 2150,
  "xOffset2d": 0,
  "yOffset2d": 0,
  "ambient": 0,
  "contrast": 0,
  "options": [
    null,
    null,
    "Take",
    null,
    null
  ],
  "interfaceOptions": [
    null,
    "Wield",
    null,
    "Dismantle",
    "Drop"
  ],
  "maleModel0": 14404,
  "maleModel1": -1,
  "maleModel2": -1,
  "maleOffset": 0,
  "maleHeadModel": -1,
  "maleHeadModel2": -1,
  "femaleModel0": 39628,
  "femaleModel1": -1,
  "femaleModel2": -1,
  "femaleOffset": 0,
  "femaleHeadModel": -1,
  "femaleHeadModel2": -1,
  "category": 1,
  "notedID": 12903,
  "notedTemplate": -1,
  "team": 0,
  "weight": 1500,
  "shiftClickDropIndex": -2,
  "boughtId": -1,
  "boughtTemplateId": -1,
  "placeholderId": -1,
  "placeholderTemplateId": -1,
  "params": {
    "41": 1,
    "1737": 1,
    "434": 0,
    "435": 6,
    "436": 75,
    "437": 75
  }
}