{
  "id": 1297,
  "name": "Black longsword",
  "examine": "A razor sharp longsword.",
  "resizeX": 128,
  "resizeY": 128,
  "resizeZ": 128,
  "xan2d": 100,
  "yan2d": 1348,
  "zan2d": 96,
  "cost": 960,
  "isTradeable": true,
  "stackable": 0,
  "inventoryModel": 2602,
  "wearPos1": 3,
  "wearPos2": 0,
  "wearPos3": 0,
  "members": false,
  "colorFind": [
    61
  ],
  "colorReplace": [
    0
  ],
  "zoom2d": 860,
  "xOffset2d": -13,
  "yOffset2d": -2,
  "ambient": 0,
  "contrast": 0,
  "options": [
    null,
    null,
    "Take",
    null,
    null
  ],
  "interfaceOptions": [
    null,
    "Wield",
    null,
    null,
    "Drop"
  ],
  "maleModel0": 518,
  "maleModel1": -1,
  "maleModel2": -1,
  "maleOffset": 0,
  "maleHeadModel": -1,
  "maleHeadModel2": -1,
  "femaleModel0": 518,
  "femaleModel1": -1,
  "femaleModel2": -1,
  "femaleOffset": 6,
  "femaleHeadModel": -1,
  "femaleHeadModel2": -1,
  "category": 21,
  "notedID": 1298,
  "notedTemplate": -1,
  "team": 0,
  "weight": 1814,
  "shiftClickDropIndex": -2,
  "boughtId": -1,
  "boughtTemplateId": -1,
  "placeholderId": 14740,
  "placeholderTemplateId": -1
}