{
  "id": 1317,
  "name": "Adamant 2h sword",
  "examine": "A two handed sword.",
  "resizeX": 128,
  "resizeY": 128,
  "resizeZ": 128,
  "xan2d": 204,
  "yan2d": 1396,
  "zan2d": 0,
  "cost": 6400,
  "isTradeable": true,
  "stackable": 0,
  "inventoryModel": 2754,
  "wearPos1": 3,
  "wearPos2": 5,
  "wearPos3": 0,
  "members": false,
  "colorFind": [
    61
  ],
  "colorReplace": [
    21662
  ],
  "zoom2d": 1380,
  "xOffset2d": 3,
  "yOffset2d": -9,
  "ambient": 0,
  "contrast": 0,
  "options": [
    null,
    null,
    "Take",
    null,
    null
  ],
  "interfaceOptions": [
    null,
    "Wield",
    null,
    null,
    "Drop"
  ],
  "maleModel0": 546,
  "maleModel1": -1,
  "maleModel2": -1,
  "maleOffset": 0,
  "maleHeadModel": -1,
  "maleHeadModel2": -1,
  "femaleModel0": 546,
  "femaleModel1": -1,
  "femaleModel2": -1,
  "femaleOffset": 6,
  "femaleHeadModel": -1,
  "femaleHeadModel2": -1,
  "category": 61,
  "notedID": 1318,
  "notedTemplate": -1,
  "team": 0,
  "weight": 4082,
  "shiftClickDropIndex": -2,
  "boughtId": -1,
  "boughtTemplateId": -1,
  "placeholderId": 14750,
  "placeholderTemplateId": -1
}