{
  "id": 13241,
  "name": "Infernal axe",
  "examine": "A very powerful, fiery hatchet.",
  "resizeX": 128,
  "resizeY": 128,
  "resizeZ": 128,
  "xan2d": 512,
  "yan2d": 1212,
  "zan2d": 916,
  "cost": 99801,
  "isTradeable": false,
  "stackable": 0,
  "inventoryModel": 29395,
  "wearPos1": 3,
  "wearPos2": 0,
  "wearPos3": 0,
  "members": true,
  "zoom2d": 1663,
  "xOffset2d": 7,
  "yOffset2d": 16,
  "ambient": 0,
  "contrast": 0,
  "options": [
    null,
    null,
    "Take",
    null,
    null
  ],
  "interfaceOptions": [
    null,
    "Wield",
    "Check",
    null,
    "Drop"
  ],
  "maleModel0": 29259,
  "maleModel1": -1,
  "maleModel2": -1,
  "maleOffset": 0,
  "maleHeadModel": -1,
  "maleHeadModel2": -1,
  "femaleModel0": 29259,
  "femaleModel1": -1,
  "femaleModel2": -1,
  "femaleOffset": 6,
  "femaleHeadModel": -1,
  "femaleHeadModel2": -1,
  "category": 35,
  "notedID": -1,
  "notedTemplate": -1,
  "team": 0,
  "weight": 1814,
  "shiftClickDropIndex": -2,
  "boughtId": -1,
  "boughtTemplateId": -1,
  "placeholderId": 14028,
  "placeholderTemplateId": -1,
  "params": {
    "258": 35,
    "23": 61,
    "451": "Check"
  }
}