{
  "id": 13363,
  "name": "Shayzien boots (2)",
  "examine": "Dress like a tier 2 Shayzien soldier.",
  "resizeX": 128,
  "resizeY": 128,
  "resizeZ": 128,
  "xan2d": 201,
  "yan2d": 423,
  "zan2d": 0,
  "cost": 35,
  "isTradeable": false,
  "stackable": 0,
  "inventoryModel": 30987,
  "wearPos1": 10,
  "wearPos2": 0,
  "wearPos3": 0,
  "members": true,
  "zoom2d": 653,
  "xOffset2d": 7,
  "yOffset2d": -16,
  "ambient": 0,
  "contrast": 0,
  "options": [
    null,
    null,
    "Take",
    null,
    null
  ],
  "interfaceOptions": [
    null,
    "Wear",
    null,
    null,
    "Drop"
  ],
  "maleModel0": 29780,
  "maleModel1": -1,
  "maleModel2": -1,
  "maleOffset": 0,
  "maleHeadModel": -1,
  "maleHeadModel2": -1,
  "femaleModel0": 29816,
  "femaleModel1": -1,
  "femaleModel2": -1,
  "femaleOffset": 0,
  "femaleHeadModel": -1,
  "femaleHeadModel2": -1,
  "category": 17,
  "notedID": -1,
  "notedTemplate": -1,
  "team": 0,
  "weight": 1360,
  "shiftClickDropIndex": -2,
  "boughtId": -1,
  "boughtTemplateId": -1,
  "placeholderId": 18440,
  "placeholderTemplateId": -1
}