{
  "id": 13375,
  "name": "Shayzien greaves (4)",
  "examine": "Dress like a tier 4 Shayzien soldier.",
  "resizeX": 128,
  "resizeY": 128,
  "resizeZ": 128,
  "xan2d": 560,
  "yan2d": 225,
  "zan2d": 0,
  "cost": 65,
  "isTradeable": false,
  "stackable": 0,
  "inventoryModel": 30991,
  "wearPos1": 7,
  "wearPos2": 0,
  "wearPos3": 0,
  "members": true,
  "zoom2d": 1537,
  "xOffset2d": 5,
  "yOffset2d": 4,
  "ambient": 0,
  "contrast": 0,
  "options": [
    null,
    null,
    "Take",
    null,
    null
  ],
  "interfaceOptions": [
    null,
    "Wear",
    null,
    null,
    "Drop"
  ],
  "maleModel0": 29705,
  "maleModel1": -1,
  "maleModel2": -1,
  "maleOffset": 0,
  "maleHeadModel": -1,
  "maleHeadModel2": -1,
  "femaleModel0": 29795,
  "femaleModel1": -1,
  "femaleModel2": -1,
  "femaleOffset": 0,
  "femaleHeadModel": -1,
  "femaleHeadModel2": -1,
  "category": 8,
  "notedID": -1,
  "notedTemplate": -1,
  "team": 0,
  "weight": 9071,
  "shiftClickDropIndex": -2,
  "boughtId": -1,
  "boughtTemplateId": -1,
  "placeholderId": 18452,
  "placeholderTemplateId": -1
}