{
  "id": 13385,
  "name": "Xerician hat",
  "examine": "The forgotten magicks of Xeric imbue this garment with a little power.",
  "resizeX": 128,
  "resizeY": 128,
  "resizeZ": 128,
  "xan2d": 78,
  "yan2d": 36,
  "zan2d": 0,
  "cost": 60,
  "isTradeable": true,
  "stackable": 0,
  "inventoryModel": 30079,
  "wearPos1": 0,
  "wearPos2": 0,
  "wearPos3": 0,
  "members": true,
  "colorFind": [
    -25295,
    -25183,
    -25303,
    6435,
    5404
  ],
  "colorReplace": [
    15252,
    17296,
    18316,
    17296,
    18316
  ],
  "zoom2d": 716,
  "xOffset2d": 4,
  "yOffset2d": -1,
  "ambient": 0,
  "contrast": 0,
  "options": [
    null,
    null,
    "Take",
    null,
    null
  ],
  "interfaceOptions": [
    null,
    "Wear",
    null,
    null,
    "Drop"
  ],
  "maleModel0": 9604,
  "maleModel1": -1,
  "maleModel2": -1,
  "maleOffset": 0,
  "maleHeadModel": 9600,
  "maleHeadModel2": -1,
  "femaleModel0": 9608,
  "femaleModel1": -1,
  "femaleModel2": -1,
  "femaleOffset": 0,
  "femaleHeadModel": 9601,
  "femaleHeadModel2": -1,
  "category": 10,
  "notedID": 13386,
  "notedTemplate": -1,
  "team": 0,
  "weight": 200,
  "shiftClickDropIndex": -2,
  "boughtId": -1,
  "boughtTemplateId": -1,
  "placeholderId": 18461,
  "placeholderTemplateId": -1,
  "params": {
    "434": 6,
    "435": 1,
    "1564": 0,
    "436": 20,
    "437": 10
  }
}