{
  "id": 13434,
  "name": "Stolen pendant",
  "examine": "Somebody is going to miss this.",
  "resizeX": 128,
  "resizeY": 128,
  "resizeZ": 128,
  "xan2d": 520,
  "yan2d": 1899,
  "zan2d": 1943,
  "cost": 1,
  "isTradeable": false,
  "stackable": 0,
  "inventoryModel": 25931,
  "wearPos1": 0,
  "wearPos2": 0,
  "wearPos3": 0,
  "members": true,
  "colorFind": [
    29140,
    29004,
    28996,
    7104
  ],
  "colorReplace": [
    -562,
    -1592,
    -2748,
    -11151
  ],
  "zoom2d": 1895,
  "xOffset2d": 0,
  "yOffset2d": 0,
  "ambient": 15,
  "contrast": 15,
  "options": [
    null,
    null,
    "Take",
    null,
    null
  ],
  "interfaceOptions": [
    null,
    null,
    null,
    null,
    "Destroy"
  ],
  "maleModel0": -1,
  "maleModel1": -1,
  "maleModel2": -1,
  "maleOffset": 0,
  "maleHeadModel": -1,
  "maleHeadModel2": -1,
  "femaleModel0": -1,
  "femaleModel1": -1,
  "femaleModel2": -1,
  "femaleOffset": 0,
  "femaleHeadModel": -1,
  "femaleHeadModel2": -1,
  "category": 891,
  "notedID": -1,
  "notedTemplate": -1,
  "team": 0,
  "weight": 50,
  "shiftClickDropIndex": -2,
  "boughtId": -1,
  "boughtTemplateId": -1,
  "placeholderId": -1,
  "placeholderTemplateId": -1,
  "params": {
    "295": 1,
    "59": 1
  }
}