{
  "id": 13432,
  "name": "Sandworms pack",
  "examine": "A pack containing 100 sets of sandworms.",
  "resizeX": 128,
  "resizeY": 128,
  "resizeZ": 128,
  "xan2d": 0,
  "yan2d": 2047,
  "zan2d": 0,
  "cost": 9000,
  "isTradeable": false,
  "stackable": 0,
  "inventoryModel": 21846,
  "wearPos1": 0,
  "wearPos2": 0,
  "wearPos3": 0,
  "members": false,
  "colorFind": [
    5584,
    5592,
    5444,
    7112
  ],
  "colorReplace": [
    5805,
    3619,
    5805,
    580
  ],
  "zoom2d": 1411,
  "xOffset2d": -3,
  "yOffset2d": -3,
  "ambient": 0,
  "contrast": 0,
  "options": [
    null,
    null,
    "Take",
    null,
    null
  ],
  "interfaceOptions": [
    "Open",
    null,
    null,
    null,
    "Drop"
  ],
  "maleModel0": -1,
  "maleModel1": -1,
  "maleModel2": -1,
  "maleOffset": 0,
  "maleHeadModel": -1,
  "maleHeadModel2": -1,
  "femaleModel0": -1,
  "femaleModel1": -1,
  "femaleModel2": -1,
  "femaleOffset": 0,
  "femaleHeadModel": -1,
  "femaleHeadModel2": -1,
  "category": 720,
  "notedID": 13433,
  "notedTemplate": -1,
  "team": 0,
  "weight": 300,
  "shiftClickDropIndex": -2,
  "boughtId": -1,
  "boughtTemplateId": -1,
  "placeholderId": 18480,
  "placeholderTemplateId": -1
}