{
  "id": 13443,
  "name": "Burnt anglerfish",
  "examine": "Oops!",
  "resizeX": 128,
  "resizeY": 128,
  "resizeZ": 128,
  "xan2d": 763,
  "yan2d": 723,
  "zan2d": 295,
  "cost": 1,
  "isTradeable": false,
  "stackable": 0,
  "inventoryModel": 30965,
  "wearPos1": 0,
  "wearPos2": 0,
  "wearPos3": 0,
  "members": true,
  "colorFind": [
    7054,
    6930,
    6682,
    6558,
    6806
  ],
  "colorReplace": [
    16,
    20,
    21522,
    11146,
    -22510
  ],
  "zoom2d": 1852,
  "xOffset2d": -8,
  "yOffset2d": -24,
  "ambient": 0,
  "contrast": 0,
  "options": [
    null,
    null,
    "Take",
    null,
    null
  ],
  "interfaceOptions": [
    null,
    null,
    null,
    null,
    "Drop"
  ],
  "maleModel0": -1,
  "maleModel1": -1,
  "maleModel2": -1,
  "maleOffset": 0,
  "maleHeadModel": -1,
  "maleHeadModel2": -1,
  "femaleModel0": -1,
  "femaleModel1": -1,
  "femaleModel2": -1,
  "femaleOffset": 0,
  "femaleHeadModel": -1,
  "femaleHeadModel2": -1,
  "category": 116,
  "notedID": 13444,
  "notedTemplate": -1,
  "team": 0,
  "weight": 400,
  "shiftClickDropIndex": -2,
  "boughtId": -1,
  "boughtTemplateId": -1,
  "placeholderId": -1,
  "placeholderTemplateId": -1
}