{
  "id": 1345,
  "name": "Adamant warhammer",
  "examine": "I don't think it's intended for joinery.",
  "resizeX": 128,
  "resizeY": 128,
  "resizeZ": 128,
  "xan2d": 344,
  "yan2d": 456,
  "zan2d": 0,
  "cost": 4120,
  "isTradeable": true,
  "stackable": 0,
  "inventoryModel": 2731,
  "wearPos1": 3,
  "wearPos2": 0,
  "wearPos3": 0,
  "members": false,
  "colorFind": [
    61
  ],
  "colorReplace": [
    21662
  ],
  "zoom2d": 1050,
  "xOffset2d": 3,
  "yOffset2d": 3,
  "ambient": 0,
  "contrast": 0,
  "options": [
    null,
    null,
    "Take",
    null,
    null
  ],
  "interfaceOptions": [
    null,
    "Wield",
    null,
    null,
    "Drop"
  ],
  "maleModel0": 542,
  "maleModel1": -1,
  "maleModel2": -1,
  "maleOffset": 0,
  "maleHeadModel": -1,
  "maleHeadModel2": -1,
  "femaleModel0": 42616,
  "femaleModel1": -1,
  "femaleModel2": -1,
  "femaleOffset": 0,
  "femaleHeadModel": -1,
  "femaleHeadModel2": -1,
  "category": 26,
  "notedID": 1346,
  "notedTemplate": -1,
  "team": 0,
  "weight": 2041,
  "shiftClickDropIndex": -2,
  "boughtId": -1,
  "boughtTemplateId": -1,
  "placeholderId": 14726,
  "placeholderTemplateId": -1
}