{
  "id": 1407,
  "name": "Mystic earth staff",
  "examine": "It's a slightly magical stick.",
  "resizeX": 128,
  "resizeY": 128,
  "resizeZ": 128,
  "xan2d": 148,
  "yan2d": 1400,
  "zan2d": 0,
  "cost": 42500,
  "isTradeable": true,
  "stackable": 0,
  "inventoryModel": 2810,
  "wearPos1": 3,
  "wearPos2": 0,
  "wearPos3": 0,
  "members": true,
  "colorFind": [
    -22419
  ],
  "colorReplace": [
    3501
  ],
  "zoom2d": 1490,
  "xOffset2d": -5,
  "yOffset2d": 2,
  "ambient": 0,
  "contrast": 0,
  "options": [
    null,
    null,
    "Take",
    null,
    null
  ],
  "interfaceOptions": [
    null,
    "Wield",
    null,
    null,
    "Drop"
  ],
  "maleModel0": 534,
  "maleModel1": 567,
  "maleModel2": -1,
  "maleOffset": 0,
  "maleHeadModel": -1,
  "maleHeadModel2": -1,
  "femaleModel0": 39602,
  "femaleModel1": 39629,
  "femaleModel2": -1,
  "femaleOffset": 0,
  "femaleHeadModel": -1,
  "femaleHeadModel2": -1,
  "category": 1,
  "notedID": 1408,
  "notedTemplate": -1,
  "team": 0,
  "weight": 2267,
  "shiftClickDropIndex": -2,
  "boughtId": -1,
  "boughtTemplateId": -1,
  "placeholderId": 14690,
  "placeholderTemplateId": -1
}