{
  "id": 1603,
  "name": "Ruby",
  "examine": "This looks valuable.",
  "resizeX": 128,
  "resizeY": 128,
  "resizeZ": 128,
  "xan2d": 368,
  "yan2d": 220,
  "zan2d": 1860,
  "cost": 1000,
  "isTradeable": true,
  "stackable": 0,
  "inventoryModel": 2586,
  "wearPos1": 0,
  "wearPos2": 0,
  "wearPos3": 0,
  "members": false,
  "colorFind": [
    127
  ],
  "colorReplace": [
    931
  ],
  "zoom2d": 780,
  "xOffset2d": -5,
  "yOffset2d": 7,
  "ambient": 0,
  "contrast": 0,
  "options": [
    null,
    null,
    "Take",
    null,
    null
  ],
  "interfaceOptions": [
    null,
    null,
    null,
    null,
    "Drop"
  ],
  "maleModel0": 516,
  "maleModel1": -1,
  "maleModel2": -1,
  "maleOffset": 0,
  "maleHeadModel": -1,
  "maleHeadModel2": -1,
  "femaleModel0": 516,
  "femaleModel1": -1,
  "femaleModel2": -1,
  "femaleOffset": 6,
  "femaleHeadModel": -1,
  "femaleHeadModel2": -1,
  "category": 0,
  "notedID": 1604,
  "notedTemplate": -1,
  "team": 0,
  "weight": 2,
  "shiftClickDropIndex": -2,
  "boughtId": -1,
  "boughtTemplateId": -1,
  "placeholderId": 16307,
  "placeholderTemplateId": -1
}