{
  "id": 1683,
  "name": "Dragonstone amulet (u)",
  "examine": "It needs a string so I can wear it.",
  "resizeX": 128,
  "resizeY": 128,
  "resizeZ": 128,
  "xan2d": 304,
  "yan2d": 100,
  "zan2d": 0,
  "cost": 17625,
  "isTradeable": true,
  "stackable": 0,
  "inventoryModel": 2550,
  "wearPos1": 0,
  "wearPos2": 0,
  "wearPos3": 0,
  "members": true,
  "colorFind": [
    127
  ],
  "colorReplace": [
    -14425
  ],
  "zoom2d": 370,
  "xOffset2d": 8,
  "yOffset2d": 106,
  "ambient": 0,
  "contrast": 0,
  "options": [
    null,
    null,
    "Take",
    null,
    null
  ],
  "interfaceOptions": [
    null,
    null,
    null,
    null,
    "Drop"
  ],
  "maleModel0": -1,
  "maleModel1": -1,
  "maleModel2": -1,
  "maleOffset": 0,
  "maleHeadModel": -1,
  "maleHeadModel2": -1,
  "femaleModel0": -1,
  "femaleModel1": -1,
  "femaleModel2": -1,
  "femaleOffset": 0,
  "femaleHeadModel": -1,
  "femaleHeadModel2": -1,
  "category": 0,
  "notedID": 1684,
  "notedTemplate": -1,
  "team": 0,
  "weight": 4,
  "shiftClickDropIndex": -2,
  "boughtId": -1,
  "boughtTemplateId": -1,
  "placeholderId": 16339,
  "placeholderTemplateId": -1
}