{
  "id": 1698,
  "name": "Ruby amulet",
  "examine": "I wonder if I can get this enchanted.",
  "resizeX": 128,
  "resizeY": 128,
  "resizeZ": 128,
  "xan2d": 471,
  "yan2d": 1926,
  "zan2d": 0,
  "cost": 2025,
  "isTradeable": true,
  "stackable": 0,
  "inventoryModel": 2796,
  "wearPos1": 2,
  "wearPos2": 0,
  "wearPos3": 0,
  "members": false,
  "colorFind": [
    127,
    5916,
    4882
  ],
  "colorReplace": [
    960,
    127,
    127
  ],
  "zoom2d": 700,
  "xOffset2d": -5,
  "yOffset2d": 18,
  "ambient": 0,
  "contrast": 0,
  "options": [
    null,
    null,
    "Take",
    null,
    null
  ],
  "interfaceOptions": [
    null,
    "Wear",
    null,
    null,
    "Drop"
  ],
  "maleModel0": 290,
  "maleModel1": -1,
  "maleModel2": -1,
  "maleOffset": 0,
  "maleHeadModel": -1,
  "maleHeadModel2": -1,
  "femaleModel0": 454,
  "femaleModel1": -1,
  "femaleModel2": -1,
  "femaleOffset": 0,
  "femaleHeadModel": -1,
  "femaleHeadModel2": -1,
  "category": 0,
  "notedID": 1699,
  "notedTemplate": -1,
  "team": 0,
  "weight": 7,
  "shiftClickDropIndex": -2,
  "boughtId": -1,
  "boughtTemplateId": -1,
  "placeholderId": 16343,
  "placeholderTemplateId": -1
}