{
  "id": 19649,
  "name": "Red slayer helmet (i)",
  "examine": "You really don't want to wear it inside-out.",
  "resizeX": 128,
  "resizeY": 128,
  "resizeZ": 128,
  "xan2d": 30,
  "yan2d": 1773,
  "zan2d": 0,
  "cost": 90000,
  "isTradeable": false,
  "stackable": 0,
  "inventoryModel": 42708,
  "wearPos1": 0,
  "wearPos2": 8,
  "wearPos3": 11,
  "members": true,
  "zoom2d": 779,
  "xOffset2d": -4,
  "yOffset2d": -3,
  "ambient": 0,
  "contrast": 0,
  "options": [
    null,
    null,
    "Take",
    null,
    null
  ],
  "interfaceOptions": [
    null,
    "Wear",
    "Check",
    "Disassemble",
    "Drop"
  ],
  "maleModel0": 42674,
  "maleModel1": -1,
  "maleModel2": -1,
  "maleOffset": 0,
  "maleHeadModel": 42694,
  "maleHeadModel2": -1,
  "femaleModel0": 42689,
  "femaleModel1": -1,
  "femaleModel2": -1,
  "femaleOffset": 0,
  "femaleHeadModel": 42694,
  "femaleHeadModel2": -1,
  "category": 2,
  "notedID": -1,
  "notedTemplate": -1,
  "team": 0,
  "weight": 2267,
  "shiftClickDropIndex": -2,
  "boughtId": -1,
  "boughtTemplateId": -1,
  "placeholderId": 19650,
  "placeholderTemplateId": -1,
  "params": {
    "385": 1,
    "258": 13,
    "453": "Check",
    "454": "Partner",
    "455": "Log"
  }
}