{
  "id": 20020,
  "name": "Lesser demon mask",
  "examine": "Evil.",
  "resizeX": 128,
  "resizeY": 128,
  "resizeZ": 128,
  "xan2d": 246,
  "yan2d": 1859,
  "zan2d": 0,
  "cost": 4000,
  "isTradeable": true,
  "stackable": 0,
  "inventoryModel": 31977,
  "wearPos1": 0,
  "wearPos2": 8,
  "wearPos3": 11,
  "members": true,
  "zoom2d": 912,
  "xOffset2d": 1,
  "yOffset2d": -58,
  "ambient": 0,
  "contrast": 0,
  "options": [
    null,
    null,
    "Take",
    null,
    null
  ],
  "interfaceOptions": [
    null,
    "Wear",
    null,
    null,
    "Drop"
  ],
  "maleModel0": 31755,
  "maleModel1": -1,
  "maleModel2": -1,
  "maleOffset": 0,
  "maleHeadModel": 31928,
  "maleHeadModel2": -1,
  "femaleModel0": 31838,
  "femaleModel1": -1,
  "femaleModel2": -1,
  "femaleOffset": 0,
  "femaleHeadModel": 31928,
  "femaleHeadModel2": -1,
  "category": 0,
  "notedID": 20021,
  "notedTemplate": -1,
  "team": 0,
  "weight": 800,
  "shiftClickDropIndex": -2,
  "boughtId": -1,
  "boughtTemplateId": -1,
  "placeholderId": 20022,
  "placeholderTemplateId": -1
}