{
  "id": 20053,
  "name": "Half moon spectacles",
  "examine": "The two halfs would surely make a full moon?",
  "resizeX": 128,
  "resizeY": 128,
  "resizeZ": 128,
  "xan2d": 121,
  "yan2d": 2047,
  "zan2d": 0,
  "cost": 19450,
  "isTradeable": true,
  "stackable": 0,
  "inventoryModel": 31955,
  "wearPos1": 0,
  "wearPos2": 0,
  "wearPos3": 0,
  "members": true,
  "zoom2d": 463,
  "xOffset2d": 0,
  "yOffset2d": 4,
  "ambient": 0,
  "contrast": 0,
  "options": [
    null,
    null,
    "Take",
    null,
    null
  ],
  "interfaceOptions": [
    null,
    "Wear",
    null,
    null,
    "Drop"
  ],
  "maleModel0": 31791,
  "maleModel1": -1,
  "maleModel2": -1,
  "maleOffset": 0,
  "maleHeadModel": 31941,
  "maleHeadModel2": -1,
  "femaleModel0": 31861,
  "femaleModel1": -1,
  "femaleModel2": -1,
  "femaleOffset": 0,
  "femaleHeadModel": 31941,
  "femaleHeadModel2": -1,
  "category": 0,
  "notedID": 20054,
  "notedTemplate": -1,
  "team": 0,
  "weight": 50,
  "shiftClickDropIndex": -2,
  "boughtId": -1,
  "boughtTemplateId": -1,
  "placeholderId": 20055,
  "placeholderTemplateId": -1
}