{
  "id": 20128,
  "name": "Hood of darkness",
  "examine": "A dark power is woven into this hood.",
  "resizeX": 128,
  "resizeY": 128,
  "resizeZ": 128,
  "xan2d": 500,
  "yan2d": 0,
  "zan2d": 0,
  "cost": 10000,
  "isTradeable": true,
  "stackable": 0,
  "inventoryModel": 31969,
  "wearPos1": 0,
  "wearPos2": 8,
  "wearPos3": 0,
  "members": true,
  "zoom2d": 905,
  "xOffset2d": 0,
  "yOffset2d": 7,
  "ambient": 0,
  "contrast": 0,
  "options": [
    null,
    null,
    "Take",
    null,
    null
  ],
  "interfaceOptions": [
    null,
    "Wear",
    null,
    null,
    "Drop"
  ],
  "maleModel0": 31752,
  "maleModel1": -1,
  "maleModel2": -1,
  "maleOffset": 0,
  "maleHeadModel": 31935,
  "maleHeadModel2": -1,
  "femaleModel0": 31836,
  "femaleModel1": -1,
  "femaleModel2": -1,
  "femaleOffset": 0,
  "femaleHeadModel": 31935,
  "femaleHeadModel2": -1,
  "category": 10,
  "notedID": 20129,
  "notedTemplate": -1,
  "team": 0,
  "weight": 453,
  "shiftClickDropIndex": -2,
  "boughtId": -1,
  "boughtTemplateId": -1,
  "placeholderId": 20130,
  "placeholderTemplateId": -1
}