{
  "id": 20125,
  "name": "Shayzien hood",
  "examine": "A rare hood from Shayzien.",
  "resizeX": 128,
  "resizeY": 128,
  "resizeZ": 128,
  "xan2d": 108,
  "yan2d": 0,
  "zan2d": 0,
  "cost": 1,
  "isTradeable": true,
  "stackable": 0,
  "inventoryModel": 31999,
  "wearPos1": 0,
  "wearPos2": 8,
  "wearPos3": 0,
  "members": true,
  "colorFind": [
    22461,
    22441,
    960,
    939,
    -21571
  ],
  "colorReplace": [
    920,
    916,
    16,
    8,
    920
  ],
  "zoom2d": 716,
  "xOffset2d": 0,
  "yOffset2d": 3,
  "ambient": 0,
  "contrast": 0,
  "options": [
    null,
    null,
    "Take",
    null,
    null
  ],
  "interfaceOptions": [
    null,
    "Wear",
    null,
    null,
    "Drop"
  ],
  "maleModel0": 31751,
  "maleModel1": -1,
  "maleModel2": -1,
  "maleOffset": 0,
  "maleHeadModel": 31932,
  "maleHeadModel2": -1,
  "femaleModel0": 31826,
  "femaleModel1": -1,
  "femaleModel2": -1,
  "femaleOffset": 0,
  "femaleHeadModel": 31951,
  "femaleHeadModel2": -1,
  "category": 0,
  "notedID": 20126,
  "notedTemplate": -1,
  "team": 0,
  "weight": 100,
  "shiftClickDropIndex": -2,
  "boughtId": -1,
  "boughtTemplateId": -1,
  "placeholderId": 20127,
  "placeholderTemplateId": -1
}