{
  "id": 20166,
  "name": "Wooden shield (g)",
  "examine": "An epic wooden shield with a golden trim.",
  "resizeX": 128,
  "resizeY": 128,
  "resizeZ": 128,
  "xan2d": 328,
  "yan2d": 32,
  "zan2d": 0,
  "cost": 20,
  "isTradeable": true,
  "stackable": 0,
  "inventoryModel": 2601,
  "wearPos1": 5,
  "wearPos2": 0,
  "wearPos3": 0,
  "members": false,
  "colorFind": [
    61,
    7054
  ],
  "colorReplace": [
    5784,
    7114
  ],
  "zoom2d": 1390,
  "xOffset2d": 3,
  "yOffset2d": 40,
  "ambient": 0,
  "contrast": 0,
  "options": [
    null,
    null,
    "Take",
    null,
    null
  ],
  "interfaceOptions": [
    null,
    "Wield",
    null,
    null,
    "Drop"
  ],
  "maleModel0": 517,
  "maleModel1": -1,
  "maleModel2": -1,
  "maleOffset": 0,
  "maleHeadModel": -1,
  "maleHeadModel2": -1,
  "femaleModel0": 517,
  "femaleModel1": -1,
  "femaleModel2": -1,
  "femaleOffset": 6,
  "femaleHeadModel": -1,
  "femaleHeadModel2": -1,
  "category": 18,
  "notedID": 20167,
  "notedTemplate": -1,
  "team": 0,
  "weight": 2267,
  "shiftClickDropIndex": -2,
  "boughtId": -1,
  "boughtTemplateId": -1,
  "placeholderId": 20168,
  "placeholderTemplateId": -1
}