{
  "id": 20217,
  "name": "Team cape i",
  "examine": "Ooohhh look at the dirty colours...",
  "resizeX": 128,
  "resizeY": 128,
  "resizeZ": 128,
  "xan2d": 364,
  "yan2d": 992,
  "zan2d": 0,
  "cost": 50,
  "isTradeable": true,
  "stackable": 0,
  "inventoryModel": 32011,
  "wearPos1": 1,
  "wearPos2": 0,
  "wearPos3": 0,
  "members": false,
  "zoom2d": 2130,
  "xOffset2d": 3,
  "yOffset2d": 12,
  "ambient": 0,
  "contrast": 0,
  "options": [
    null,
    null,
    "Take",
    null,
    null
  ],
  "interfaceOptions": [
    null,
    "Wear",
    null,
    null,
    "Drop"
  ],
  "maleModel0": 31770,
  "maleModel1": -1,
  "maleModel2": -1,
  "maleOffset": 0,
  "maleHeadModel": -1,
  "maleHeadModel2": -1,
  "femaleModel0": 31770,
  "femaleModel1": -1,
  "femaleModel2": -1,
  "femaleOffset": 3,
  "femaleHeadModel": -1,
  "femaleHeadModel2": -1,
  "category": 560,
  "notedID": 20218,
  "notedTemplate": -1,
  "team": 53,
  "weight": 453,
  "shiftClickDropIndex": -2,
  "boughtId": -1,
  "boughtTemplateId": -1,
  "placeholderId": 20219,
  "placeholderTemplateId": -1,
  "params": {
    "258": 19
  }
}