{
  "id": 2030,
  "name": "Premade choc s'dy",
  "examine": "A premade Chocolate Saturday.",
  "resizeX": 128,
  "resizeY": 128,
  "resizeZ": 128,
  "xan2d": 180,
  "yan2d": 1964,
  "zan2d": 0,
  "cost": 30,
  "isTradeable": true,
  "stackable": 0,
  "inventoryModel": 17115,
  "wearPos1": 0,
  "wearPos2": 0,
  "wearPos3": 0,
  "members": true,
  "colorFind": [
    -27725,
    10357
  ],
  "colorReplace": [
    7075,
    7983
  ],
  "zoom2d": 789,
  "xOffset2d": -1,
  "yOffset2d": -7,
  "ambient": 0,
  "contrast": 0,
  "options": [
    null,
    null,
    "Take",
    null,
    null
  ],
  "interfaceOptions": [
    "Drink",
    null,
    null,
    null,
    "Drop"
  ],
  "maleModel0": -1,
  "maleModel1": -1,
  "maleModel2": -1,
  "maleOffset": 0,
  "maleHeadModel": -1,
  "maleHeadModel2": -1,
  "femaleModel0": -1,
  "femaleModel1": -1,
  "femaleModel2": -1,
  "femaleOffset": 0,
  "femaleHeadModel": -1,
  "femaleHeadModel2": -1,
  "category": 83,
  "notedID": 2031,
  "notedTemplate": -1,
  "team": 0,
  "weight": 450,
  "shiftClickDropIndex": -2,
  "boughtId": -1,
  "boughtTemplateId": -1,
  "placeholderId": 19065,
  "placeholderTemplateId": -1,
  "params": {
    "468": 44
  }
}