{
  "id": 20401,
  "name": "Yew shortbow",
  "examine": "A shortbow made out of yew, still effective.",
  "resizeX": 128,
  "resizeY": 128,
  "resizeZ": 128,
  "xan2d": 508,
  "yan2d": 124,
  "zan2d": 0,
  "cost": 20,
  "isTradeable": false,
  "stackable": 0,
  "inventoryModel": 2562,
  "wearPos1": 3,
  "wearPos2": 5,
  "wearPos3": 0,
  "members": false,
  "colorFind": [
    6674
  ],
  "colorReplace": [
    9135
  ],
  "zoom2d": 1200,
  "xOffset2d": 7,
  "yOffset2d": 2,
  "ambient": 0,
  "contrast": 0,
  "options": [
    null,
    null,
    "Take",
    null,
    null
  ],
  "interfaceOptions": [
    null,
    "Wield",
    null,
    null,
    "Drop"
  ],
  "maleModel0": 512,
  "maleModel1": -1,
  "maleModel2": -1,
  "maleOffset": 0,
  "maleHeadModel": -1,
  "maleHeadModel2": -1,
  "femaleModel0": 512,
  "femaleModel1": -1,
  "femaleModel2": -1,
  "femaleOffset": 6,
  "femaleHeadModel": -1,
  "femaleHeadModel2": -1,
  "category": 64,
  "notedID": -1,
  "notedTemplate": -1,
  "team": 0,
  "weight": 1360,
  "shiftClickDropIndex": -2,
  "boughtId": -1,
  "boughtTemplateId": -1,
  "placeholderId": -1,
  "placeholderTemplateId": -1,
  "params": {
    "59": 1,
    "403": 1,
    "1564": 3,
    "23": 1,
    "295": 1
  }
}