{
  "id": 20433,
  "name": "Evil chicken feet",
  "examine": "Perfect for crossing the road in an evil manner.",
  "resizeX": 128,
  "resizeY": 128,
  "resizeZ": 128,
  "xan2d": 127,
  "yan2d": 1931,
  "zan2d": 0,
  "cost": 1,
  "isTradeable": true,
  "stackable": 0,
  "inventoryModel": 23997,
  "wearPos1": 10,
  "wearPos2": 0,
  "wearPos3": 0,
  "members": true,
  "colorFind": [
    7104,
    103,
    7114
  ],
  "colorReplace": [
    681,
    0,
    565
  ],
  "zoom2d": 848,
  "xOffset2d": -4,
  "yOffset2d": -5,
  "ambient": 15,
  "contrast": 15,
  "options": [
    null,
    null,
    "Take",
    null,
    null
  ],
  "interfaceOptions": [
    null,
    "Wear",
    null,
    null,
    "Drop"
  ],
  "maleModel0": 24033,
  "maleModel1": -1,
  "maleModel2": -1,
  "maleOffset": 0,
  "maleHeadModel": -1,
  "maleHeadModel2": -1,
  "femaleModel0": 24045,
  "femaleModel1": -1,
  "femaleModel2": -1,
  "femaleOffset": 0,
  "femaleHeadModel": -1,
  "femaleHeadModel2": -1,
  "category": 0,
  "notedID": 20434,
  "notedTemplate": -1,
  "team": 0,
  "weight": 250,
  "shiftClickDropIndex": -2,
  "boughtId": -1,
  "boughtTemplateId": -1,
  "placeholderId": 20435,
  "placeholderTemplateId": -1
}