{
  "id": 20517,
  "name": "Elder chaos top",
  "examine": "The robes worn by the dangerous elder druids.",
  "resizeX": 128,
  "resizeY": 128,
  "resizeZ": 128,
  "xan2d": 553,
  "yan2d": 0,
  "zan2d": 0,
  "cost": 800,
  "isTradeable": true,
  "stackable": 0,
  "inventoryModel": 32067,
  "wearPos1": 4,
  "wearPos2": 6,
  "wearPos3": 0,
  "members": true,
  "colorFind": [
    127
  ],
  "colorReplace": [
    929
  ],
  "zoom2d": 1503,
  "xOffset2d": -1,
  "yOffset2d": 3,
  "ambient": 0,
  "contrast": 0,
  "options": [
    null,
    null,
    "Take",
    null,
    null
  ],
  "interfaceOptions": [
    null,
    "Wear",
    null,
    null,
    "Drop"
  ],
  "maleModel0": 32063,
  "maleModel1": 28286,
  "maleModel2": -1,
  "maleOffset": 0,
  "maleHeadModel": -1,
  "maleHeadModel2": -1,
  "femaleModel0": 32066,
  "femaleModel1": 32065,
  "femaleModel2": -1,
  "femaleOffset": 0,
  "femaleHeadModel": -1,
  "femaleHeadModel2": -1,
  "category": 10,
  "notedID": 20518,
  "notedTemplate": -1,
  "team": 0,
  "weight": 200,
  "shiftClickDropIndex": -2,
  "boughtId": -1,
  "boughtTemplateId": -1,
  "placeholderId": 20519,
  "placeholderTemplateId": -1,
  "params": {
    "41": 1,
    "434": 6,
    "1564": 4,
    "436": 40
  }
}