{
  "id": 20562,
  "name": "Mystic hat",
  "examine": "A magical hat.",
  "resizeX": 128,
  "resizeY": 128,
  "resizeZ": 128,
  "xan2d": 208,
  "yan2d": 220,
  "zan2d": 0,
  "cost": 10,
  "isTradeable": false,
  "stackable": 0,
  "inventoryModel": 5040,
  "wearPos1": 0,
  "wearPos2": 0,
  "wearPos3": 0,
  "members": false,
  "zoom2d": 980,
  "xOffset2d": 0,
  "yOffset2d": -18,
  "ambient": 0,
  "contrast": 0,
  "options": [
    null,
    null,
    "Take",
    null,
    null
  ],
  "interfaceOptions": [
    null,
    "Wear",
    null,
    null,
    "Drop"
  ],
  "maleModel0": 5027,
  "maleModel1": -1,
  "maleModel2": -1,
  "maleOffset": 0,
  "maleHeadModel": 4950,
  "maleHeadModel2": -1,
  "femaleModel0": 5033,
  "femaleModel1": -1,
  "femaleModel2": -1,
  "femaleOffset": 0,
  "femaleHeadModel": 4951,
  "femaleHeadModel2": -1,
  "category": 10,
  "notedID": -1,
  "notedTemplate": -1,
  "team": 0,
  "weight": 453,
  "shiftClickDropIndex": -2,
  "boughtId": -1,
  "boughtTemplateId": -1,
  "placeholderId": -1,
  "placeholderTemplateId": -1,
  "params": {
    "59": 1,
    "403": 1,
    "1564": 0,
    "295": 1
  }
}