{
  "id": 20568,
  "name": "Splitbark helm",
  "examine": "A wooden helmet.",
  "resizeX": 128,
  "resizeY": 128,
  "resizeZ": 128,
  "xan2d": 272,
  "yan2d": 200,
  "zan2d": 0,
  "cost": 20,
  "isTradeable": false,
  "stackable": 0,
  "inventoryModel": 4129,
  "wearPos1": 0,
  "wearPos2": 0,
  "wearPos3": 0,
  "members": false,
  "zoom2d": 1040,
  "xOffset2d": -2,
  "yOffset2d": -59,
  "ambient": 0,
  "contrast": 0,
  "options": [
    null,
    null,
    "Take",
    null,
    null
  ],
  "interfaceOptions": [
    null,
    "Wear",
    null,
    null,
    "Drop"
  ],
  "maleModel0": 4115,
  "maleModel1": -1,
  "maleModel2": -1,
  "maleOffset": 0,
  "maleHeadModel": 4110,
  "maleHeadModel2": -1,
  "femaleModel0": 4121,
  "femaleModel1": -1,
  "femaleModel2": -1,
  "femaleOffset": 0,
  "femaleHeadModel": 4111,
  "femaleHeadModel2": -1,
  "category": 2,
  "notedID": -1,
  "notedTemplate": -1,
  "team": 0,
  "weight": 907,
  "shiftClickDropIndex": -2,
  "boughtId": -1,
  "boughtTemplateId": -1,
  "placeholderId": -1,
  "placeholderTemplateId": -1,
  "params": {
    "59": 1,
    "403": 1,
    "1564": 0,
    "295": 1
  }
}