{
  "id": 21018,
  "name": "Ancestral hat",
  "examine": "The hat of a powerful sorceress from a bygone era.",
  "resizeX": 128,
  "resizeY": 128,
  "resizeZ": 128,
  "xan2d": 118,
  "yan2d": 10,
  "zan2d": 0,
  "cost": 45000,
  "isTradeable": true,
  "stackable": 0,
  "inventoryModel": 32794,
  "wearPos1": 0,
  "wearPos2": 8,
  "wearPos3": 0,
  "members": true,
  "zoom2d": 1236,
  "xOffset2d": 0,
  "yOffset2d": -12,
  "ambient": 0,
  "contrast": 0,
  "options": [
    null,
    null,
    "Take",
    null,
    null
  ],
  "interfaceOptions": [
    null,
    "Wear",
    null,
    null,
    "Drop"
  ],
  "maleModel0": 32655,
  "maleModel1": -1,
  "maleModel2": -1,
  "maleOffset": 0,
  "maleHeadModel": 32774,
  "maleHeadModel2": -1,
  "femaleModel0": 32663,
  "femaleModel1": -1,
  "femaleModel2": -1,
  "femaleOffset": 0,
  "femaleHeadModel": 34263,
  "femaleHeadModel2": -1,
  "category": 10,
  "notedID": 21019,
  "notedTemplate": -1,
  "team": 0,
  "weight": 453,
  "shiftClickDropIndex": -2,
  "boughtId": -1,
  "boughtTemplateId": -1,
  "placeholderId": 21020,
  "placeholderTemplateId": -1,
  "params": {
    "434": 6,
    "435": 1,
    "1564": 0,
    "436": 75,
    "437": 65
  }
}