{
  "id": 21090,
  "name": "Opal necklace",
  "examine": "I wonder if this is valuable.",
  "resizeX": 128,
  "resizeY": 128,
  "resizeZ": 128,
  "xan2d": 280,
  "yan2d": 1990,
  "zan2d": 0,
  "cost": 1050,
  "isTradeable": true,
  "stackable": 0,
  "inventoryModel": 2506,
  "wearPos1": 2,
  "wearPos2": 0,
  "wearPos3": 0,
  "members": true,
  "colorFind": [
    9152,
    41
  ],
  "colorReplace": [
    103,
    10465
  ],
  "zoom2d": 400,
  "xOffset2d": -1,
  "yOffset2d": 100,
  "ambient": 0,
  "contrast": 0,
  "options": [
    null,
    null,
    "Take",
    null,
    null
  ],
  "interfaceOptions": [
    null,
    "Wear",
    null,
    null,
    "Drop"
  ],
  "maleModel0": 281,
  "maleModel1": -1,
  "maleModel2": -1,
  "maleOffset": 0,
  "maleHeadModel": -1,
  "maleHeadModel2": -1,
  "femaleModel0": 445,
  "femaleModel1": -1,
  "femaleModel2": -1,
  "femaleOffset": 0,
  "femaleHeadModel": -1,
  "femaleHeadModel2": -1,
  "category": 0,
  "notedID": 21091,
  "notedTemplate": -1,
  "team": 0,
  "weight": 10,
  "shiftClickDropIndex": -2,
  "boughtId": -1,
  "boughtTemplateId": -1,
  "placeholderId": 21092,
  "placeholderTemplateId": -1,
  "params": {
    "436": 16,
    "434": 12
  }
}