{
  "id": 21140,
  "name": "Efaritay's aid",
  "examine": "Aids the user against vampyres.",
  "resizeX": 128,
  "resizeY": 128,
  "resizeZ": 128,
  "xan2d": 322,
  "yan2d": 135,
  "zan2d": 2024,
  "cost": 1425,
  "isTradeable": true,
  "stackable": 0,
  "inventoryModel": 2677,
  "wearPos1": 12,
  "wearPos2": 0,
  "wearPos3": 0,
  "members": true,
  "colorFind": [
    9152,
    127
  ],
  "colorReplace": [
    103,
    -4160
  ],
  "zoom2d": 830,
  "xOffset2d": 4,
  "yOffset2d": -12,
  "ambient": 0,
  "contrast": 0,
  "options": [
    null,
    null,
    "Take",
    null,
    null
  ],
  "interfaceOptions": [
    null,
    "Wear",
    "Check",
    "Break",
    "Drop"
  ],
  "maleModel0": -1,
  "maleModel1": -1,
  "maleModel2": -1,
  "maleOffset": 0,
  "maleHeadModel": -1,
  "maleHeadModel2": -1,
  "femaleModel0": -1,
  "femaleModel1": -1,
  "femaleModel2": -1,
  "femaleOffset": 0,
  "femaleHeadModel": -1,
  "femaleHeadModel2": -1,
  "category": 656,
  "notedID": 21141,
  "notedTemplate": -1,
  "team": 0,
  "weight": 6,
  "shiftClickDropIndex": -2,
  "boughtId": -1,
  "boughtTemplateId": -1,
  "placeholderId": 21142,
  "placeholderTemplateId": -1,
  "params": {
    "451": "Check"
  }
}