{
  "id": 21177,
  "name": "Expeditious bracelet",
  "examine": "Allows one slayer kill to count as two.",
  "resizeX": 128,
  "resizeY": 128,
  "resizeZ": 128,
  "xan2d": 184,
  "yan2d": 1909,
  "zan2d": 0,
  "cost": 1150,
  "isTradeable": true,
  "stackable": 0,
  "inventoryModel": 24566,
  "wearPos1": 9,
  "wearPos2": 0,
  "wearPos3": 0,
  "members": true,
  "colorFind": [
    9152,
    8119,
    -22464
  ],
  "colorReplace": [
    103,
    94,
    10465
  ],
  "zoom2d": 659,
  "xOffset2d": 0,
  "yOffset2d": -7,
  "ambient": 0,
  "contrast": 0,
  "options": [
    null,
    null,
    "Take",
    null,
    null
  ],
  "interfaceOptions": [
    null,
    "Wear",
    "Check",
    "Break",
    "Drop"
  ],
  "maleModel0": 24558,
  "maleModel1": -1,
  "maleModel2": -1,
  "maleOffset": 0,
  "maleHeadModel": -1,
  "maleHeadModel2": -1,
  "femaleModel0": 24564,
  "femaleModel1": -1,
  "femaleModel2": -1,
  "femaleOffset": 0,
  "femaleHeadModel": -1,
  "femaleHeadModel2": -1,
  "category": 0,
  "notedID": 21178,
  "notedTemplate": -1,
  "team": 0,
  "weight": 250,
  "shiftClickDropIndex": -2,
  "boughtId": -1,
  "boughtTemplateId": -1,
  "placeholderId": 21179,
  "placeholderTemplateId": -1,
  "params": {
    "451": "Check"
  }
}