{
  "id": 21257,
  "name": "Slayer's enchantment",
  "examine": "The parchment contains a spell invented by Slayer Masters in ancient times.",
  "resizeX": 128,
  "resizeY": 128,
  "resizeZ": 128,
  "xan2d": 221,
  "yan2d": 1921,
  "zan2d": 0,
  "cost": 1200,
  "isTradeable": true,
  "stackable": 1,
  "inventoryModel": 18403,
  "wearPos1": 0,
  "wearPos2": 0,
  "wearPos3": 0,
  "members": true,
  "colorFind": [
    6348,
    6352,
    6356,
    49
  ],
  "colorReplace": [
    7475,
    7349,
    6455,
    103
  ],
  "zoom2d": 1806,
  "xOffset2d": 0,
  "yOffset2d": 0,
  "ambient": 0,
  "contrast": 0,
  "options": [
    null,
    null,
    "Take",
    null,
    null
  ],
  "interfaceOptions": [
    null,
    null,
    null,
    null,
    "Drop"
  ],
  "maleModel0": -1,
  "maleModel1": -1,
  "maleModel2": -1,
  "maleOffset": 0,
  "maleHeadModel": -1,
  "maleHeadModel2": -1,
  "femaleModel0": -1,
  "femaleModel1": -1,
  "femaleModel2": -1,
  "femaleOffset": 0,
  "femaleHeadModel": -1,
  "femaleHeadModel2": -1,
  "category": 0,
  "notedID": -1,
  "notedTemplate": -1,
  "team": 0,
  "weight": 0,
  "shiftClickDropIndex": -2,
  "boughtId": -1,
  "boughtTemplateId": -1,
  "placeholderId": 21258,
  "placeholderTemplateId": -1
}