{
  "id": 21434,
  "name": "Wilderness cape",
  "examine": "A cape worn by fighters in the Wilderness Wars.",
  "resizeX": 128,
  "resizeY": 128,
  "resizeZ": 128,
  "xan2d": 304,
  "yan2d": 996,
  "zan2d": 0,
  "cost": 1,
  "isTradeable": false,
  "stackable": 0,
  "inventoryModel": 5610,
  "wearPos1": 1,
  "wearPos2": 0,
  "wearPos3": 0,
  "members": false,
  "colorFind": [
    7756,
    7845,
    939
  ],
  "colorReplace": [
    17825,
    18004,
    22443
  ],
  "zoom2d": 1770,
  "xOffset2d": -5,
  "yOffset2d": 4,
  "ambient": 0,
  "contrast": 0,
  "options": [
    null,
    null,
    "Take",
    null,
    null
  ],
  "interfaceOptions": [
    null,
    "Wear",
    null,
    null,
    "Drop"
  ],
  "maleModel0": 5590,
  "maleModel1": 33196,
  "maleModel2": -1,
  "maleOffset": 0,
  "maleHeadModel": -1,
  "maleHeadModel2": -1,
  "femaleModel0": 5600,
  "femaleModel1": 33196,
  "femaleModel2": -1,
  "femaleOffset": 0,
  "femaleHeadModel": -1,
  "femaleHeadModel2": -1,
  "category": 560,
  "notedID": -1,
  "notedTemplate": -1,
  "team": 1,
  "weight": 453,
  "shiftClickDropIndex": -2,
  "boughtId": -1,
  "boughtTemplateId": -1,
  "placeholderId": -1,
  "placeholderTemplateId": -1,
  "params": {
    "451": "Commune"
  }
}