{
  "id": 21701,
  "name": "Tzhaar water rune pack",
  "examine": "A pack containing 100 water runes.",
  "resizeX": 128,
  "resizeY": 128,
  "resizeZ": 128,
  "xan2d": 0,
  "yan2d": 2047,
  "zan2d": 0,
  "cost": 430,
  "isTradeable": false,
  "stackable": 0,
  "inventoryModel": 5465,
  "wearPos1": 0,
  "wearPos2": 0,
  "wearPos3": 0,
  "members": true,
  "colorFind": [
    5444,
    5584
  ],
  "colorReplace": [
    86,
    99
  ],
  "zoom2d": 1411,
  "xOffset2d": -3,
  "yOffset2d": -3,
  "ambient": 0,
  "contrast": 0,
  "options": [
    null,
    null,
    "Take",
    null,
    null
  ],
  "interfaceOptions": [
    "Open",
    null,
    null,
    null,
    "Drop"
  ],
  "maleModel0": -1,
  "maleModel1": -1,
  "maleModel2": -1,
  "maleOffset": 0,
  "maleHeadModel": -1,
  "maleHeadModel2": -1,
  "femaleModel0": -1,
  "femaleModel1": -1,
  "femaleModel2": -1,
  "femaleOffset": 0,
  "femaleHeadModel": -1,
  "femaleHeadModel2": -1,
  "category": 720,
  "notedID": 21702,
  "notedTemplate": -1,
  "team": 0,
  "weight": 4535,
  "shiftClickDropIndex": -2,
  "boughtId": -1,
  "boughtTemplateId": -1,
  "placeholderId": 21703,
  "placeholderTemplateId": -1
}