{
  "id": 21838,
  "name": "Shaman mask",
  "examine": "The mask worn by ogre shamans.",
  "resizeX": 128,
  "resizeY": 128,
  "resizeZ": 128,
  "xan2d": 135,
  "yan2d": 162,
  "zan2d": 0,
  "cost": 8000,
  "isTradeable": true,
  "stackable": 0,
  "inventoryModel": 34417,
  "wearPos1": 0,
  "wearPos2": 8,
  "wearPos3": 0,
  "members": false,
  "zoom2d": 968,
  "xOffset2d": 7,
  "yOffset2d": -4,
  "ambient": 0,
  "contrast": 0,
  "options": [
    null,
    null,
    "Take",
    null,
    null
  ],
  "interfaceOptions": [
    null,
    "Wear",
    null,
    null,
    "Drop"
  ],
  "maleModel0": 34268,
  "maleModel1": -1,
  "maleModel2": -1,
  "maleOffset": 0,
  "maleHeadModel": 34412,
  "maleHeadModel2": 63,
  "femaleModel0": 34287,
  "femaleModel1": -1,
  "femaleModel2": -1,
  "femaleOffset": 0,
  "femaleHeadModel": 34412,
  "femaleHeadModel2": 120,
  "category": 2,
  "notedID": 21839,
  "notedTemplate": -1,
  "team": 0,
  "weight": 2721,
  "shiftClickDropIndex": -2,
  "boughtId": -1,
  "boughtTemplateId": -1,
  "placeholderId": 21840,
  "placeholderTemplateId": -1
}