{
  "id": 21892,
  "name": "Dragon platebody",
  "examine": "Provides excellent protection.",
  "resizeX": 128,
  "resizeY": 128,
  "resizeZ": 128,
  "xan2d": 488,
  "yan2d": 0,
  "zan2d": 0,
  "cost": 2000000,
  "isTradeable": true,
  "stackable": 0,
  "inventoryModel": 35103,
  "wearPos1": 4,
  "wearPos2": 6,
  "wearPos3": 0,
  "members": true,
  "zoom2d": 1250,
  "xOffset2d": -1,
  "yOffset2d": 0,
  "ambient": 0,
  "contrast": 0,
  "options": [
    null,
    null,
    "Take",
    null,
    null
  ],
  "interfaceOptions": [
    null,
    "Wear",
    null,
    null,
    "Drop"
  ],
  "maleModel0": 34630,
  "maleModel1": -1,
  "maleModel2": -1,
  "maleOffset": 0,
  "maleHeadModel": -1,
  "maleHeadModel2": -1,
  "femaleModel0": 34645,
  "femaleModel1": -1,
  "femaleModel2": -1,
  "femaleOffset": 0,
  "femaleHeadModel": -1,
  "femaleHeadModel2": -1,
  "category": 7,
  "notedID": 21893,
  "notedTemplate": -1,
  "team": 0,
  "weight": 11339,
  "shiftClickDropIndex": -2,
  "boughtId": -1,
  "boughtTemplateId": -1,
  "placeholderId": 21894,
  "placeholderTemplateId": -1,
  "params": {
    "1564": 4,
    "436": 60,
    "434": 1
  }
}