{
  "id": 21948,
  "name": "Dragonstone dragon bolts (e)",
  "examine": "Enchanted Dragon crossbow bolts, tipped with dragonstone. Double dragon!",
  "resizeX": 128,
  "resizeY": 128,
  "resizeZ": 128,
  "xan2d": 477,
  "yan2d": 117,
  "zan2d": 0,
  "cost": 1150,
  "isTradeable": true,
  "stackable": 1,
  "inventoryModel": 16856,
  "wearPos1": 13,
  "wearPos2": 0,
  "wearPos3": 0,
  "members": true,
  "colorFind": [
    5537,
    5532,
    5652,
    5656,
    10465
  ],
  "colorReplace": [
    689,
    1833,
    681,
    557,
    -14784
  ],
  "zoom2d": 720,
  "xOffset2d": 3,
  "yOffset2d": 5,
  "ambient": 0,
  "contrast": 0,
  "countCo": [
    2,
    3,
    4,
    5,
    0,
    0,
    0,
    0,
    0,
    0
  ],
  "countObj": [
    1691,
    6566,
    19504,
    1668,
    0,
    0,
    0,
    0,
    0,
    0
  ],
  "options": [
    null,
    null,
    "Take",
    null,
    null
  ],
  "interfaceOptions": [
    null,
    "Wield",
    null,
    null,
    "Drop"
  ],
  "maleModel0": -1,
  "maleModel1": -1,
  "maleModel2": -1,
  "maleOffset": 0,
  "maleHeadModel": -1,
  "maleHeadModel2": -1,
  "femaleModel0": -1,
  "femaleModel1": -1,
  "femaleModel2": -1,
  "femaleOffset": 0,
  "femaleHeadModel": -1,
  "femaleHeadModel2": -1,
  "category": 63,
  "notedID": -1,
  "notedTemplate": -1,
  "team": 0,
  "weight": 0,
  "shiftClickDropIndex": -2,
  "boughtId": -1,
  "boughtTemplateId": -1,
  "placeholderId": 21949,
  "placeholderTemplateId": -1,
  "params": {
    "434": 4,
    "436": 64,
    "23": 64,
    "1562": 5,
    "1563": 64,
    "1564": 13,
    "604": 68
  }
}