{
  "id": 22195,
  "name": "Mahogany bird house",
  "examine": "Feed and catch the birds by placing this in the right spot.",
  "resizeX": 128,
  "resizeY": 128,
  "resizeZ": 128,
  "xan2d": 94,
  "yan2d": 162,
  "zan2d": 0,
  "cost": 5,
  "isTradeable": true,
  "stackable": 0,
  "inventoryModel": 33584,
  "wearPos1": 0,
  "wearPos2": 0,
  "wearPos3": 0,
  "members": true,
  "colorFind": [
    6443,
    5413,
    6689,
    6682,
    5652
  ],
  "colorReplace": [
    6585,
    4758,
    3604,
    5006,
    2576
  ],
  "zoom2d": 2494,
  "xOffset2d": 1,
  "yOffset2d": -16,
  "ambient": 0,
  "contrast": 0,
  "options": [
    null,
    null,
    "Take",
    null,
    null
  ],
  "interfaceOptions": [
    null,
    null,
    null,
    null,
    "Drop"
  ],
  "maleModel0": -1,
  "maleModel1": -1,
  "maleModel2": -1,
  "maleOffset": 0,
  "maleHeadModel": -1,
  "maleHeadModel2": -1,
  "femaleModel0": -1,
  "femaleModel1": -1,
  "femaleModel2": -1,
  "femaleOffset": 0,
  "femaleHeadModel": -1,
  "femaleHeadModel2": -1,
  "category": 1141,
  "notedID": 22196,
  "notedTemplate": -1,
  "team": 0,
  "weight": 453,
  "shiftClickDropIndex": -2,
  "boughtId": -1,
  "boughtTemplateId": -1,
  "placeholderId": 22197,
  "placeholderTemplateId": -1,
  "params": {
    "436": 50,
    "434": 12
  }
}