{
  "id": 22257,
  "name": "Maple shield",
  "examine": "A solid maple shield.",
  "resizeX": 128,
  "resizeY": 128,
  "resizeZ": 128,
  "xan2d": 328,
  "yan2d": 32,
  "zan2d": 0,
  "cost": 320,
  "isTradeable": true,
  "stackable": 0,
  "inventoryModel": 34493,
  "wearPos1": 5,
  "wearPos2": 0,
  "wearPos3": 0,
  "members": true,
  "colorFind": [
    8111,
    8107,
    5545,
    4515
  ],
  "colorReplace": [
    2250,
    2242,
    6034,
    7054
  ],
  "zoom2d": 1390,
  "xOffset2d": 3,
  "yOffset2d": 40,
  "ambient": 0,
  "contrast": 0,
  "options": [
    null,
    null,
    "Take",
    null,
    null
  ],
  "interfaceOptions": [
    null,
    "Wield",
    null,
    null,
    "Drop"
  ],
  "maleModel0": 34489,
  "maleModel1": -1,
  "maleModel2": -1,
  "maleOffset": 0,
  "maleHeadModel": -1,
  "maleHeadModel2": -1,
  "femaleModel0": 34489,
  "femaleModel1": -1,
  "femaleModel2": -1,
  "femaleOffset": 6,
  "femaleHeadModel": -1,
  "femaleHeadModel2": -1,
  "category": 18,
  "notedID": 22258,
  "notedTemplate": -1,
  "team": 0,
  "weight": 3175,
  "shiftClickDropIndex": -2,
  "boughtId": -1,
  "boughtTemplateId": -1,
  "placeholderId": 22259,
  "placeholderTemplateId": -1
}