{
  "id": 22284,
  "name": "Black d'hide shield",
  "examine": "A solid redwood shield covered in black dragon leather.",
  "resizeX": 128,
  "resizeY": 128,
  "resizeZ": 128,
  "xan2d": 328,
  "yan2d": 32,
  "zan2d": 0,
  "cost": 28334,
  "isTradeable": true,
  "stackable": 0,
  "inventoryModel": 34495,
  "wearPos1": 5,
  "wearPos2": 0,
  "wearPos3": 0,
  "members": true,
  "colorFind": [
    10413,
    10524,
    10518,
    8846,
    9098,
    20
  ],
  "colorReplace": [
    16,
    8,
    0,
    3992,
    3988,
    -29403
  ],
  "zoom2d": 1390,
  "xOffset2d": 3,
  "yOffset2d": 40,
  "ambient": 0,
  "contrast": 0,
  "options": [
    null,
    null,
    "Take",
    null,
    null
  ],
  "interfaceOptions": [
    null,
    "Wield",
    null,
    null,
    "Drop"
  ],
  "maleModel0": 34490,
  "maleModel1": -1,
  "maleModel2": -1,
  "maleOffset": 0,
  "maleHeadModel": -1,
  "maleHeadModel2": -1,
  "femaleModel0": 34490,
  "femaleModel1": -1,
  "femaleModel2": -1,
  "femaleOffset": 6,
  "femaleHeadModel": -1,
  "femaleHeadModel2": -1,
  "category": 18,
  "notedID": 22285,
  "notedTemplate": -1,
  "team": 0,
  "weight": 8000,
  "shiftClickDropIndex": -2,
  "boughtId": -1,
  "boughtTemplateId": -1,
  "placeholderId": 22286,
  "placeholderTemplateId": -1
}