{
  "id": 22547,
  "name": "Craw's bow (u)",
  "examine": "This bow once belonged to a formidable follower of Armadyl.",
  "resizeX": 128,
  "resizeY": 128,
  "resizeZ": 128,
  "xan2d": 1463,
  "yan2d": 510,
  "zan2d": 835,
  "cost": 120000,
  "isTradeable": true,
  "stackable": 0,
  "inventoryModel": 35777,
  "wearPos1": 3,
  "wearPos2": 5,
  "wearPos3": 0,
  "members": true,
  "zoom2d": 1979,
  "xOffset2d": -1,
  "yOffset2d": -3,
  "ambient": 0,
  "contrast": 0,
  "options": [
    null,
    null,
    "Take",
    null,
    null
  ],
  "interfaceOptions": [
    null,
    "Wield",
    "Dismantle",
    null,
    "Drop"
  ],
  "maleModel0": 35768,
  "maleModel1": -1,
  "maleModel2": -1,
  "maleOffset": 0,
  "maleHeadModel": -1,
  "maleHeadModel2": -1,
  "femaleModel0": 35768,
  "femaleModel1": -1,
  "femaleModel2": -1,
  "femaleOffset": 6,
  "femaleHeadModel": -1,
  "femaleHeadModel2": -1,
  "category": 106,
  "notedID": 22548,
  "notedTemplate": -1,
  "team": 0,
  "weight": 3175,
  "shiftClickDropIndex": -2,
  "boughtId": -1,
  "boughtTemplateId": -1,
  "placeholderId": 22549,
  "placeholderTemplateId": -1,
  "params": {
    "1733": "Craw's bow",
    "23": 60
  }
}