{
  "id": 22552,
  "name": "Thammaron's sceptre (u)",
  "examine": "A mighty sceptre used in long forgotten battles.",
  "resizeX": 128,
  "resizeY": 128,
  "resizeZ": 128,
  "xan2d": 400,
  "yan2d": 1020,
  "zan2d": 0,
  "cost": 120000,
  "isTradeable": true,
  "stackable": 0,
  "inventoryModel": 35776,
  "wearPos1": 3,
  "wearPos2": 0,
  "wearPos3": 0,
  "members": true,
  "zoom2d": 2105,
  "xOffset2d": 0,
  "yOffset2d": 0,
  "ambient": 0,
  "contrast": 0,
  "options": [
    null,
    null,
    "Take",
    null,
    null
  ],
  "interfaceOptions": [
    null,
    "Wield",
    "Dismantle",
    "Swap",
    "Drop"
  ],
  "maleModel0": 35772,
  "maleModel1": -1,
  "maleModel2": -1,
  "maleOffset": 0,
  "maleHeadModel": -1,
  "maleHeadModel2": -1,
  "femaleModel0": 35772,
  "femaleModel1": -1,
  "femaleModel2": -1,
  "femaleOffset": 0,
  "femaleHeadModel": -1,
  "femaleHeadModel2": -1,
  "category": 1,
  "notedID": 22553,
  "notedTemplate": -1,
  "team": 0,
  "weight": 198,
  "shiftClickDropIndex": -2,
  "boughtId": -1,
  "boughtTemplateId": -1,
  "placeholderId": 22554,
  "placeholderTemplateId": -1,
  "params": {
    "1733": "Thammaron's Sceptre (u)",
    "41": 1,
    "23": 60
  }
}