{
  "id": 22684,
  "name": "Eek",
  "examine": "She's a keen spinner of webs.",
  "resizeX": 128,
  "resizeY": 128,
  "resizeZ": 128,
  "xan2d": 1520,
  "yan2d": 1769,
  "zan2d": 0,
  "cost": 0,
  "isTradeable": false,
  "stackable": 0,
  "inventoryModel": 24613,
  "wearPos1": 3,
  "wearPos2": 0,
  "wearPos3": 0,
  "members": false,
  "zoom2d": 1284,
  "xOffset2d": 7,
  "yOffset2d": -3,
  "ambient": 0,
  "contrast": 0,
  "options": [
    null,
    null,
    "Take",
    null,
    null
  ],
  "interfaceOptions": [
    null,
    "Hold",
    "Talk-to",
    null,
    "Destroy"
  ],
  "maleModel0": 36034,
  "maleModel1": -1,
  "maleModel2": -1,
  "maleOffset": 0,
  "maleHeadModel": -1,
  "maleHeadModel2": -1,
  "femaleModel0": 36033,
  "femaleModel1": -1,
  "femaleModel2": -1,
  "femaleOffset": 6,
  "femaleHeadModel": -1,
  "femaleHeadModel2": -1,
  "category": 55,
  "notedID": -1,
  "notedTemplate": -1,
  "team": 0,
  "weight": 70,
  "shiftClickDropIndex": -2,
  "boughtId": -1,
  "boughtTemplateId": -1,
  "placeholderId": 22685,
  "placeholderTemplateId": -1,
  "params": {
    "451": "Talk-to"
  }
}