{
  "id": 22943,
  "name": "Rada's blessing 2",
  "examine": "A blessing scroll from distant lands.",
  "resizeX": 128,
  "resizeY": 128,
  "resizeZ": 128,
  "xan2d": 264,
  "yan2d": 1716,
  "zan2d": 0,
  "cost": 0,
  "isTradeable": false,
  "stackable": 0,
  "inventoryModel": 36107,
  "wearPos1": 13,
  "wearPos2": 0,
  "wearPos3": 0,
  "members": true,
  "zoom2d": 1246,
  "xOffset2d": -7,
  "yOffset2d": 54,
  "ambient": 0,
  "contrast": 0,
  "options": [
    null,
    null,
    "Take",
    null,
    null
  ],
  "interfaceOptions": [
    null,
    "Equip",
    "Kourend Woodland",
    null,
    "Drop"
  ],
  "maleModel0": -1,
  "maleModel1": -1,
  "maleModel2": -1,
  "maleOffset": 0,
  "maleHeadModel": -1,
  "maleHeadModel2": -1,
  "femaleModel0": -1,
  "femaleModel1": -1,
  "femaleModel2": -1,
  "femaleOffset": 0,
  "femaleHeadModel": -1,
  "femaleHeadModel2": -1,
  "category": 0,
  "notedID": -1,
  "notedTemplate": -1,
  "team": 0,
  "weight": 453,
  "shiftClickDropIndex": -2,
  "boughtId": -1,
  "boughtTemplateId": -1,
  "placeholderId": 22944,
  "placeholderTemplateId": -1,
  "params": {
    "451": "Kourend Woodland"
  }
}