{
  "id": 2303,
  "name": "1/2 pineapple pizza",
  "examine": "Half of this pineapple pizza has been eaten.",
  "resizeX": 128,
  "resizeY": 128,
  "resizeZ": 128,
  "xan2d": 272,
  "yan2d": 1848,
  "zan2d": 0,
  "cost": 50,
  "isTradeable": false,
  "stackable": 0,
  "inventoryModel": 4414,
  "wearPos1": 0,
  "wearPos2": 0,
  "wearPos3": 0,
  "members": true,
  "colorFind": [
    10665,
    82,
    926
  ],
  "colorReplace": [
    7488,
    9152,
    937
  ],
  "zoom2d": 880,
  "xOffset2d": 8,
  "yOffset2d": 14,
  "ambient": 0,
  "contrast": 0,
  "options": [
    null,
    null,
    "Take",
    null,
    null
  ],
  "interfaceOptions": [
    "Eat",
    null,
    null,
    null,
    "Drop"
  ],
  "maleModel0": -1,
  "maleModel1": -1,
  "maleModel2": -1,
  "maleOffset": 0,
  "maleHeadModel": -1,
  "maleHeadModel2": -1,
  "femaleModel0": -1,
  "femaleModel1": -1,
  "femaleModel2": -1,
  "femaleOffset": 0,
  "femaleHeadModel": -1,
  "femaleHeadModel2": -1,
  "category": 132,
  "notedID": 2304,
  "notedTemplate": -1,
  "team": 0,
  "weight": 450,
  "shiftClickDropIndex": -2,
  "boughtId": -1,
  "boughtTemplateId": -1,
  "placeholderId": 19141,
  "placeholderTemplateId": -1
}