{
  "id": 23291,
  "name": "Bear feet",
  "examine": "Vicious bear slippers.",
  "resizeX": 128,
  "resizeY": 128,
  "resizeZ": 128,
  "xan2d": 68,
  "yan2d": 141,
  "zan2d": 0,
  "cost": 1000,
  "isTradeable": true,
  "stackable": 0,
  "inventoryModel": 37193,
  "wearPos1": 10,
  "wearPos2": 0,
  "wearPos3": 0,
  "members": false,
  "zoom2d": 750,
  "xOffset2d": 0,
  "yOffset2d": 3,
  "ambient": 0,
  "contrast": 0,
  "options": [
    null,
    null,
    "Take",
    null,
    null
  ],
  "interfaceOptions": [
    null,
    "Wear",
    null,
    null,
    "Drop"
  ],
  "maleModel0": 37040,
  "maleModel1": -1,
  "maleModel2": -1,
  "maleOffset": 0,
  "maleHeadModel": -1,
  "maleHeadModel2": -1,
  "femaleModel0": 37073,
  "femaleModel1": -1,
  "femaleModel2": -1,
  "femaleOffset": 0,
  "femaleHeadModel": -1,
  "femaleHeadModel2": -1,
  "category": 0,
  "notedID": 23292,
  "notedTemplate": -1,
  "team": 0,
  "weight": 200,
  "shiftClickDropIndex": -2,
  "boughtId": -1,
  "boughtTemplateId": -1,
  "placeholderId": 23293,
  "placeholderTemplateId": -1
}