{
  "id": 23360,
  "name": "Ham joint",
  "examine": "A delicious joint of ham.",
  "resizeX": 128,
  "resizeY": 128,
  "resizeZ": 128,
  "xan2d": 1694,
  "yan2d": 152,
  "zan2d": 983,
  "cost": 1500,
  "isTradeable": true,
  "stackable": 0,
  "inventoryModel": 37206,
  "wearPos1": 3,
  "wearPos2": 0,
  "wearPos3": 0,
  "members": false,
  "zoom2d": 1277,
  "xOffset2d": 5,
  "yOffset2d": -9,
  "ambient": 0,
  "contrast": 0,
  "options": [
    null,
    null,
    "Take",
    null,
    null
  ],
  "interfaceOptions": [
    null,
    "Wield",
    null,
    null,
    "Drop"
  ],
  "maleModel0": 37084,
  "maleModel1": -1,
  "maleModel2": -1,
  "maleOffset": 0,
  "maleHeadModel": -1,
  "maleHeadModel2": -1,
  "femaleModel0": 37077,
  "femaleModel1": -1,
  "femaleModel2": -1,
  "femaleOffset": 0,
  "femaleHeadModel": -1,
  "femaleHeadModel2": -1,
  "category": 26,
  "notedID": 23361,
  "notedTemplate": -1,
  "team": 0,
  "weight": 2000,
  "shiftClickDropIndex": -2,
  "boughtId": -1,
  "boughtTemplateId": -1,
  "placeholderId": 23362,
  "placeholderTemplateId": -1
}