{
  "id": 23404,
  "name": "Adamant platebody (h5)",
  "examine": "Adamant platebody with a heraldic design.",
  "resizeX": 128,
  "resizeY": 128,
  "resizeZ": 128,
  "xan2d": 488,
  "yan2d": 0,
  "zan2d": 0,
  "cost": 16640,
  "isTradeable": true,
  "stackable": 0,
  "inventoryModel": 37160,
  "wearPos1": 4,
  "wearPos2": 6,
  "wearPos3": 0,
  "members": false,
  "colorFind": [
    61,
    53,
    127,
    111,
    11187,
    935
  ],
  "colorReplace": [
    21662,
    21658,
    24644,
    24635,
    18343,
    -21827
  ],
  "zoom2d": 1250,
  "xOffset2d": -1,
  "yOffset2d": 0,
  "ambient": 0,
  "contrast": 0,
  "options": [
    null,
    null,
    "Take",
    null,
    null
  ],
  "interfaceOptions": [
    null,
    "Wear",
    null,
    null,
    "Drop"
  ],
  "maleModel0": 37037,
  "maleModel1": -1,
  "maleModel2": -1,
  "maleOffset": 0,
  "maleHeadModel": -1,
  "maleHeadModel2": -1,
  "femaleModel0": 37064,
  "femaleModel1": -1,
  "femaleModel2": -1,
  "femaleOffset": 0,
  "femaleHeadModel": -1,
  "femaleHeadModel2": -1,
  "category": 7,
  "notedID": 23405,
  "notedTemplate": -1,
  "team": 0,
  "weight": 11339,
  "shiftClickDropIndex": -2,
  "boughtId": -1,
  "boughtTemplateId": -1,
  "placeholderId": 23406,
  "placeholderTemplateId": -1
}