{
  "id": 23471,
  "name": "Collector icon",
  "examine": "An icon.",
  "resizeX": 128,
  "resizeY": 128,
  "resizeZ": 128,
  "xan2d": 553,
  "yan2d": 0,
  "zan2d": 0,
  "cost": 1,
  "isTradeable": false,
  "stackable": 0,
  "inventoryModel": 20578,
  "wearPos1": 11,
  "wearPos2": 0,
  "wearPos3": 0,
  "members": false,
  "colorFind": [
    22439
  ],
  "colorReplace": [
    11200
  ],
  "zoom2d": 1114,
  "xOffset2d": 34,
  "yOffset2d": -28,
  "ambient": 0,
  "contrast": 0,
  "options": [
    null,
    null,
    "Take",
    null,
    null
  ],
  "interfaceOptions": [
    null,
    "Equip",
    null,
    null,
    "Drop"
  ],
  "maleModel0": 250,
  "maleModel1": 19259,
  "maleModel2": -1,
  "maleOffset": 0,
  "maleHeadModel": -1,
  "maleHeadModel2": -1,
  "femaleModel0": 460,
  "femaleModel1": 20518,
  "femaleModel2": -1,
  "femaleOffset": 0,
  "femaleHeadModel": -1,
  "femaleHeadModel2": -1,
  "category": 1318,
  "notedID": -1,
  "notedTemplate": -1,
  "team": 0,
  "weight": 1,
  "shiftClickDropIndex": -2,
  "boughtId": -1,
  "boughtTemplateId": -1,
  "placeholderId": -1,
  "placeholderTemplateId": -1,
  "params": {
    "59": 1
  }
}