{
  "id": 23510,
  "name": "Tattered moon page",
  "examine": "A torn page detailing the religion of Ranul. Now where is the book?",
  "resizeX": 128,
  "resizeY": 128,
  "resizeZ": 128,
  "xan2d": 403,
  "yan2d": 1033,
  "zan2d": 0,
  "cost": 1,
  "isTradeable": false,
  "stackable": 1,
  "inventoryModel": 15040,
  "wearPos1": 0,
  "wearPos2": 0,
  "wearPos3": 0,
  "members": true,
  "colorFind": [
    5551,
    6682
  ],
  "colorReplace": [
    920,
    786
  ],
  "zoom2d": 976,
  "xOffset2d": 0,
  "yOffset2d": 20,
  "ambient": 0,
  "contrast": 0,
  "options": [
    null,
    null,
    "Take",
    null,
    null
  ],
  "interfaceOptions": [
    null,
    null,
    null,
    null,
    "Drop"
  ],
  "maleModel0": -1,
  "maleModel1": -1,
  "maleModel2": -1,
  "maleOffset": 0,
  "maleHeadModel": -1,
  "maleHeadModel2": -1,
  "femaleModel0": -1,
  "femaleModel1": -1,
  "femaleModel2": -1,
  "femaleOffset": 0,
  "femaleHeadModel": -1,
  "femaleHeadModel2": -1,
  "category": 0,
  "notedID": -1,
  "notedTemplate": -1,
  "team": 0,
  "weight": 0,
  "shiftClickDropIndex": -2,
  "boughtId": -1,
  "boughtTemplateId": -1,
  "placeholderId": 23511,
  "placeholderTemplateId": -1
}