{
  "id": 2365,
  "name": "'perfect' gold bar",
  "examine": "It's a bar of 'perfect' gold.",
  "resizeX": 128,
  "resizeY": 128,
  "resizeZ": 128,
  "xan2d": 196,
  "yan2d": 1180,
  "zan2d": 0,
  "cost": 300,
  "isTradeable": false,
  "stackable": 0,
  "inventoryModel": 2408,
  "wearPos1": 0,
  "wearPos2": 0,
  "wearPos3": 0,
  "members": true,
  "colorFind": [
    7062
  ],
  "colorReplace": [
    8128
  ],
  "zoom2d": 820,
  "xOffset2d": 1,
  "yOffset2d": -8,
  "ambient": -15,
  "contrast": 0,
  "options": [
    null,
    null,
    "Take",
    null,
    null
  ],
  "interfaceOptions": [
    null,
    null,
    null,
    null,
    "Drop"
  ],
  "maleModel0": -1,
  "maleModel1": -1,
  "maleModel2": -1,
  "maleOffset": 0,
  "maleHeadModel": -1,
  "maleHeadModel2": -1,
  "femaleModel0": -1,
  "femaleModel1": -1,
  "femaleModel2": -1,
  "femaleOffset": 0,
  "femaleHeadModel": -1,
  "femaleHeadModel2": -1,
  "category": 151,
  "notedID": -1,
  "notedTemplate": -1,
  "team": 0,
  "weight": 1814,
  "shiftClickDropIndex": -2,
  "boughtId": -1,
  "boughtTemplateId": -1,
  "placeholderId": 13894,
  "placeholderTemplateId": -1,
  "params": {
    "436": 40,
    "434": 13
  }
}