{
  "id": 23677,
  "name": "Dragon pickaxe (or)",
  "examine": "A dragon pickaxe infused with a fragment of Zalcano.",
  "resizeX": 128,
  "resizeY": 128,
  "resizeZ": 128,
  "xan2d": 720,
  "yan2d": 1124,
  "zan2d": 0,
  "cost": 97960,
  "isTradeable": false,
  "stackable": 0,
  "inventoryModel": 37977,
  "wearPos1": 3,
  "wearPos2": 0,
  "wearPos3": 0,
  "members": true,
  "zoom2d": 1407,
  "xOffset2d": -5,
  "yOffset2d": 0,
  "ambient": 0,
  "contrast": 0,
  "options": [
    null,
    null,
    "Take",
    null,
    null
  ],
  "interfaceOptions": [
    null,
    "Wield",
    null,
    null,
    "Revert"
  ],
  "maleModel0": 38278,
  "maleModel1": -1,
  "maleModel2": -1,
  "maleOffset": 0,
  "maleHeadModel": -1,
  "maleHeadModel2": -1,
  "femaleModel0": 38272,
  "femaleModel1": -1,
  "femaleModel2": -1,
  "femaleOffset": 0,
  "femaleHeadModel": -1,
  "femaleHeadModel2": -1,
  "category": 67,
  "notedID": -1,
  "notedTemplate": -1,
  "team": 0,
  "weight": 2400,
  "shiftClickDropIndex": -2,
  "boughtId": -1,
  "boughtTemplateId": -1,
  "placeholderId": 23678,
  "placeholderTemplateId": -1,
  "params": {
    "258": 21,
    "23": 61
  }
}