{
  "id": 23680,
  "name": "Crystal pickaxe",
  "examine": "If rocks could feel fear, they'd fear this.",
  "resizeX": 128,
  "resizeY": 128,
  "resizeZ": 128,
  "xan2d": 302,
  "yan2d": 1143,
  "zan2d": 0,
  "cost": 520000,
  "isTradeable": false,
  "stackable": 0,
  "inventoryModel": 38746,
  "wearPos1": 3,
  "wearPos2": 0,
  "wearPos3": 0,
  "members": true,
  "zoom2d": 1454,
  "xOffset2d": -6,
  "yOffset2d": -1,
  "ambient": 0,
  "contrast": 0,
  "options": [
    null,
    null,
    "Take",
    null,
    null
  ],
  "interfaceOptions": [
    null,
    "Wield",
    "Check",
    "Revert",
    "Drop"
  ],
  "maleModel0": 38271,
  "maleModel1": -1,
  "maleModel2": -1,
  "maleOffset": 0,
  "maleHeadModel": -1,
  "maleHeadModel2": -1,
  "femaleModel0": 38275,
  "femaleModel1": -1,
  "femaleModel2": -1,
  "femaleOffset": 0,
  "femaleHeadModel": -1,
  "femaleHeadModel2": -1,
  "category": 67,
  "notedID": -1,
  "notedTemplate": -1,
  "team": 0,
  "weight": 1360,
  "shiftClickDropIndex": -2,
  "boughtId": -1,
  "boughtTemplateId": -1,
  "placeholderId": 23681,
  "placeholderTemplateId": -1,
  "params": {
    "258": 21,
    "23": 71,
    "451": "Check"
  }
}