{
  "id": 23787,
  "name": "Ardougne knight platebody",
  "examine": "A platebody worn by the Knights of Ardougne.",
  "resizeX": 128,
  "resizeY": 128,
  "resizeZ": 128,
  "xan2d": 488,
  "yan2d": 0,
  "zan2d": 0,
  "cost": 2000,
  "isTradeable": false,
  "stackable": 0,
  "inventoryModel": 38564,
  "wearPos1": 4,
  "wearPos2": 6,
  "wearPos3": 0,
  "members": true,
  "colorFind": [
    11187,
    -11139
  ],
  "colorReplace": [
    -11351,
    -17472
  ],
  "zoom2d": 1350,
  "xOffset2d": -1,
  "yOffset2d": 4,
  "ambient": 0,
  "contrast": 0,
  "options": [
    null,
    null,
    "Take",
    null,
    null
  ],
  "interfaceOptions": [
    null,
    "Wear",
    null,
    null,
    "Drop"
  ],
  "maleModel0": 313,
  "maleModel1": 164,
  "maleModel2": 3330,
  "maleOffset": 0,
  "maleHeadModel": -1,
  "maleHeadModel2": -1,
  "femaleModel0": 38232,
  "femaleModel1": 344,
  "femaleModel2": -1,
  "femaleOffset": 0,
  "femaleHeadModel": -1,
  "femaleHeadModel2": -1,
  "category": 7,
  "notedID": -1,
  "notedTemplate": -1,
  "team": 0,
  "weight": 9979,
  "shiftClickDropIndex": -2,
  "boughtId": -1,
  "boughtTemplateId": -1,
  "placeholderId": 23788,
  "placeholderTemplateId": -1
}