{
  "id": 23925,
  "name": "Crystal crown",
  "examine": "A crown fit for the most wealthy of elves.",
  "resizeX": 128,
  "resizeY": 128,
  "resizeZ": 128,
  "xan2d": 111,
  "yan2d": 207,
  "zan2d": 0,
  "cost": 250000000,
  "isTradeable": false,
  "stackable": 0,
  "inventoryModel": 37945,
  "wearPos1": 0,
  "wearPos2": 0,
  "wearPos3": 0,
  "members": true,
  "colorFind": [
    25536
  ],
  "colorReplace": [
    -25929
  ],
  "zoom2d": 912,
  "xOffset2d": -8,
  "yOffset2d": 3,
  "ambient": 0,
  "contrast": 0,
  "options": [
    null,
    null,
    "Take",
    null,
    null
  ],
  "interfaceOptions": [
    null,
    "Wear",
    null,
    null,
    "Drop"
  ],
  "maleModel0": 38085,
  "maleModel1": -1,
  "maleModel2": -1,
  "maleOffset": 0,
  "maleHeadModel": 38620,
  "maleHeadModel2": -1,
  "femaleModel0": 38220,
  "femaleModel1": -1,
  "femaleModel2": -1,
  "femaleOffset": 0,
  "femaleHeadModel": 38698,
  "femaleHeadModel2": -1,
  "category": 2,
  "notedID": -1,
  "notedTemplate": -1,
  "team": 0,
  "weight": 300,
  "shiftClickDropIndex": -2,
  "boughtId": -1,
  "boughtTemplateId": -1,
  "placeholderId": 23926,
  "placeholderTemplateId": -1,
  "params": {
    "295": 1
  }
}