{
  "id": 23979,
  "name": "Crystal legs",
  "examine": "A bright, shiny set of leg armour.",
  "resizeX": 128,
  "resizeY": 128,
  "resizeZ": 128,
  "xan2d": 444,
  "yan2d": 0,
  "zan2d": 0,
  "cost": 1000000,
  "isTradeable": false,
  "stackable": 0,
  "inventoryModel": 38765,
  "wearPos1": 7,
  "wearPos2": 0,
  "wearPos3": 0,
  "members": true,
  "colorFind": [
    61,
    41,
    57
  ],
  "colorReplace": [
    99,
    82,
    99
  ],
  "zoom2d": 2168,
  "xOffset2d": 0,
  "yOffset2d": 0,
  "ambient": 0,
  "contrast": 0,
  "options": [
    null,
    null,
    "Take",
    null,
    null
  ],
  "interfaceOptions": [
    null,
    "Wear",
    "Check",
    "Revert",
    "Drop"
  ],
  "maleModel0": 38079,
  "maleModel1": -1,
  "maleModel2": -1,
  "maleOffset": 0,
  "maleHeadModel": -1,
  "maleHeadModel2": -1,
  "femaleModel0": 38203,
  "femaleModel1": -1,
  "femaleModel2": -1,
  "femaleOffset": 0,
  "femaleHeadModel": -1,
  "femaleHeadModel2": -1,
  "category": 8,
  "notedID": -1,
  "notedTemplate": -1,
  "team": 0,
  "weight": 1000,
  "shiftClickDropIndex": -2,
  "boughtId": -1,
  "boughtTemplateId": -1,
  "placeholderId": 23980,
  "placeholderTemplateId": -1,
  "params": {
    "434": 1,
    "435": 16,
    "451": "Check",
    "1564": 7,
    "436": 70,
    "437": 50
  }
}