{
  "id": 23973,
  "name": "Crystal helm (inactive)",
  "examine": "This helmet shines bright, like a diamond.",
  "resizeX": 128,
  "resizeY": 128,
  "resizeZ": 128,
  "xan2d": 157,
  "yan2d": 103,
  "zan2d": 13,
  "cost": 500000,
  "isTradeable": false,
  "stackable": 0,
  "inventoryModel": 38761,
  "wearPos1": 0,
  "wearPos2": 8,
  "wearPos3": 11,
  "members": true,
  "colorFind": [
    61
  ],
  "colorReplace": [
    99
  ],
  "zoom2d": 716,
  "xOffset2d": 0,
  "yOffset2d": 3,
  "ambient": -30,
  "contrast": 0,
  "options": [
    null,
    null,
    "Take",
    null,
    null
  ],
  "interfaceOptions": [
    null,
    "Wear",
    null,
    "Revert",
    "Drop"
  ],
  "maleModel0": 38029,
  "maleModel1": -1,
  "maleModel2": -1,
  "maleOffset": 0,
  "maleHeadModel": 38627,
  "maleHeadModel2": -1,
  "femaleModel0": 38162,
  "femaleModel1": -1,
  "femaleModel2": -1,
  "femaleOffset": 0,
  "femaleHeadModel": 38632,
  "femaleHeadModel2": -1,
  "category": 2,
  "notedID": -1,
  "notedTemplate": -1,
  "team": 0,
  "weight": 500,
  "shiftClickDropIndex": -2,
  "boughtId": -1,
  "boughtTemplateId": -1,
  "placeholderId": 23974,
  "placeholderTemplateId": -1
}