{
  "id": 24015,
  "name": "Elven top",
  "examine": "Clothing from the elven city of Prifddinas.",
  "resizeX": 128,
  "resizeY": 128,
  "resizeZ": 128,
  "xan2d": 536,
  "yan2d": 0,
  "zan2d": 0,
  "cost": 5000,
  "isTradeable": true,
  "stackable": 0,
  "inventoryModel": 38749,
  "wearPos1": 4,
  "wearPos2": 6,
  "wearPos3": 0,
  "members": false,
  "colorFind": [
    27204,
    10151,
    -3250
  ],
  "colorReplace": [
    -27558,
    -27558,
    -27541
  ],
  "zoom2d": 1158,
  "xOffset2d": 1,
  "yOffset2d": 5,
  "ambient": 0,
  "contrast": 0,
  "options": [
    null,
    null,
    "Take",
    null,
    null
  ],
  "interfaceOptions": [
    null,
    "Wear",
    null,
    null,
    "Drop"
  ],
  "maleModel0": 38097,
  "maleModel1": -1,
  "maleModel2": -1,
  "maleOffset": 0,
  "maleHeadModel": -1,
  "maleHeadModel2": -1,
  "femaleModel0": 38234,
  "femaleModel1": -1,
  "femaleModel2": -1,
  "femaleOffset": 0,
  "femaleHeadModel": -1,
  "femaleHeadModel2": -1,
  "category": 0,
  "notedID": 24016,
  "notedTemplate": -1,
  "team": 0,
  "weight": 907,
  "shiftClickDropIndex": -2,
  "boughtId": -1,
  "boughtTemplateId": -1,
  "placeholderId": 24017,
  "placeholderTemplateId": -1
}