{
  "id": 2417,
  "name": "Zamorak staff",
  "examine": "A magical staff imbued with the power of Zamorak.",
  "resizeX": 128,
  "resizeY": 128,
  "resizeZ": 128,
  "xan2d": 240,
  "yan2d": 916,
  "zan2d": 0,
  "cost": 80000,
  "isTradeable": false,
  "stackable": 0,
  "inventoryModel": 2749,
  "wearPos1": 3,
  "wearPos2": 0,
  "wearPos3": 0,
  "members": true,
  "zoom2d": 1480,
  "xOffset2d": -12,
  "yOffset2d": 50,
  "ambient": 0,
  "contrast": 0,
  "options": [
    null,
    null,
    "Take",
    null,
    null
  ],
  "interfaceOptions": [
    null,
    "Wield",
    null,
    null,
    "Drop"
  ],
  "maleModel0": 544,
  "maleModel1": -1,
  "maleModel2": -1,
  "maleOffset": 0,
  "maleHeadModel": -1,
  "maleHeadModel2": -1,
  "femaleModel0": 544,
  "femaleModel1": -1,
  "femaleModel2": -1,
  "femaleOffset": 6,
  "femaleHeadModel": -1,
  "femaleHeadModel2": -1,
  "category": 1,
  "notedID": -1,
  "notedTemplate": -1,
  "team": 0,
  "weight": 2267,
  "shiftClickDropIndex": -2,
  "boughtId": -1,
  "boughtTemplateId": -1,
  "placeholderId": 15620,
  "placeholderTemplateId": -1,
  "params": {
    "41": 1,
    "434": 6,
    "1564": 3,
    "436": 60
  }
}