{
  "id": 24186,
  "name": "Avernic defender (l)",
  "examine": "A defensive weapon.",
  "resizeX": 128,
  "resizeY": 128,
  "resizeZ": 128,
  "xan2d": 498,
  "yan2d": 256,
  "zan2d": 2047,
  "cost": 2500000,
  "isTradeable": false,
  "stackable": 0,
  "inventoryModel": 35745,
  "wearPos1": 5,
  "wearPos2": 0,
  "wearPos3": 0,
  "members": true,
  "zoom2d": 717,
  "xOffset2d": 8,
  "yOffset2d": 8,
  "ambient": 0,
  "contrast": 0,
  "options": [
    null,
    null,
    "Take",
    null,
    null
  ],
  "interfaceOptions": [
    null,
    "Wield",
    null,
    "Dismantle",
    "Drop"
  ],
  "maleModel0": 35376,
  "maleModel1": -1,
  "maleModel2": -1,
  "maleOffset": 0,
  "maleHeadModel": -1,
  "maleHeadModel2": -1,
  "femaleModel0": 35377,
  "femaleModel1": -1,
  "femaleModel2": -1,
  "femaleOffset": 0,
  "femaleHeadModel": -1,
  "femaleHeadModel2": -1,
  "category": 494,
  "notedID": -1,
  "notedTemplate": -1,
  "team": 0,
  "weight": 453,
  "shiftClickDropIndex": -2,
  "boughtId": -1,
  "boughtTemplateId": -1,
  "placeholderId": -1,
  "placeholderTemplateId": -1,
  "params": {
    "258": 27
  }
}