{
  "id": 24195,
  "name": "Bandos halo",
  "examine": "Halo with the protection of Bandos.",
  "resizeX": 128,
  "resizeY": 128,
  "resizeZ": 128,
  "xan2d": 288,
  "yan2d": 141,
  "zan2d": 0,
  "cost": 1000,
  "isTradeable": false,
  "stackable": 0,
  "inventoryModel": 38830,
  "wearPos1": 0,
  "wearPos2": 0,
  "wearPos3": 0,
  "members": true,
  "zoom2d": 550,
  "xOffset2d": 0,
  "yOffset2d": 18,
  "ambient": 0,
  "contrast": 0,
  "options": [
    null,
    null,
    "Take",
    null,
    null
  ],
  "interfaceOptions": [
    null,
    "Wear",
    null,
    null,
    "Drop"
  ],
  "maleModel0": 38814,
  "maleModel1": -1,
  "maleModel2": -1,
  "maleOffset": 0,
  "maleHeadModel": 38842,
  "maleHeadModel2": -1,
  "femaleModel0": 38822,
  "femaleModel1": -1,
  "femaleModel2": -1,
  "femaleOffset": 0,
  "femaleHeadModel": 38842,
  "femaleHeadModel2": -1,
  "category": 2,
  "notedID": -1,
  "notedTemplate": -1,
  "team": 0,
  "weight": 300,
  "shiftClickDropIndex": -2,
  "boughtId": -1,
  "boughtTemplateId": -1,
  "placeholderId": 24196,
  "placeholderTemplateId": -1
}