{
  "id": 24238,
  "name": "Imbued saradomin max cape (broken)",
  "examine": "The cape worn by only the most experienced players. This one is broken.",
  "resizeX": 128,
  "resizeY": 128,
  "resizeZ": 128,
  "xan2d": 687,
  "yan2d": 27,
  "zan2d": 0,
  "cost": 99000,
  "isTradeable": false,
  "stackable": 0,
  "inventoryModel": 29630,
  "wearPos1": 0,
  "wearPos2": 0,
  "wearPos3": 0,
  "members": true,
  "colorFind": [
    668,
    675,
    784,
    815,
    673
  ],
  "colorReplace": [
    115,
    115,
    115,
    -21612,
    -21612
  ],
  "zoom2d": 2232,
  "xOffset2d": 0,
  "yOffset2d": -5,
  "ambient": -25,
  "contrast": 0,
  "options": [
    null,
    null,
    "Take",
    null,
    null
  ],
  "interfaceOptions": [
    null,
    null,
    null,
    null,
    "Drop"
  ],
  "maleModel0": -1,
  "maleModel1": -1,
  "maleModel2": -1,
  "maleOffset": 0,
  "maleHeadModel": -1,
  "maleHeadModel2": -1,
  "femaleModel0": -1,
  "femaleModel1": -1,
  "femaleModel2": -1,
  "femaleOffset": 0,
  "femaleHeadModel": -1,
  "femaleHeadModel2": -1,
  "category": 27,
  "notedID": -1,
  "notedTemplate": -1,
  "team": 0,
  "weight": 453,
  "shiftClickDropIndex": -2,
  "boughtId": -1,
  "boughtTemplateId": -1,
  "placeholderId": 24239,
  "placeholderTemplateId": -1,
  "params": {
    "295": 1
  }
}