{
  "id": 24315,
  "name": "Spookier hood",
  "examine": "A spooky hood cut from a bedsheet!",
  "resizeX": 128,
  "resizeY": 128,
  "resizeZ": 128,
  "xan2d": 396,
  "yan2d": 2045,
  "zan2d": 0,
  "cost": 1,
  "isTradeable": false,
  "stackable": 0,
  "inventoryModel": 38922,
  "wearPos1": 0,
  "wearPos2": 8,
  "wearPos3": 11,
  "members": false,
  "colorFind": [
    -32682,
    6331
  ],
  "colorReplace": [
    27088,
    27088
  ],
  "zoom2d": 600,
  "xOffset2d": 0,
  "yOffset2d": 0,
  "ambient": 0,
  "contrast": 0,
  "options": [
    null,
    null,
    "Take",
    null,
    null
  ],
  "interfaceOptions": [
    null,
    "Wear",
    null,
    null,
    "Destroy"
  ],
  "maleModel0": 38928,
  "maleModel1": -1,
  "maleModel2": -1,
  "maleOffset": 0,
  "maleHeadModel": 5204,
  "maleHeadModel2": -1,
  "femaleModel0": 38931,
  "femaleModel1": -1,
  "femaleModel2": -1,
  "femaleOffset": 0,
  "femaleHeadModel": 5204,
  "femaleHeadModel2": -1,
  "category": 0,
  "notedID": -1,
  "notedTemplate": -1,
  "team": 0,
  "weight": 500,
  "shiftClickDropIndex": -2,
  "boughtId": -1,
  "boughtTemplateId": -1,
  "placeholderId": 24316,
  "placeholderTemplateId": -1,
  "params": {
    "295": 1
  }
}