{
  "id": 24413,
  "name": "Twisted banner",
  "examine": "A banner showcasing the colours of Leagues I - Twisted.",
  "resizeX": 128,
  "resizeY": 128,
  "resizeZ": 128,
  "xan2d": 269,
  "yan2d": 270,
  "zan2d": 0,
  "cost": 1000,
  "isTradeable": true,
  "stackable": 0,
  "inventoryModel": 39037,
  "wearPos1": 3,
  "wearPos2": 0,
  "wearPos3": 0,
  "members": true,
  "zoom2d": 1676,
  "xOffset2d": -2,
  "yOffset2d": -4,
  "ambient": 30,
  "contrast": 0,
  "options": [
    null,
    null,
    "Take",
    null,
    null
  ],
  "interfaceOptions": [
    null,
    "Wield",
    null,
    null,
    "Drop"
  ],
  "maleModel0": 38984,
  "maleModel1": -1,
  "maleModel2": -1,
  "maleOffset": 0,
  "maleHeadModel": -1,
  "maleHeadModel2": -1,
  "femaleModel0": 38986,
  "femaleModel1": -1,
  "femaleModel2": -1,
  "femaleOffset": 0,
  "femaleHeadModel": -1,
  "femaleHeadModel2": -1,
  "category": 42,
  "notedID": 24459,
  "notedTemplate": -1,
  "team": 0,
  "weight": 2267,
  "shiftClickDropIndex": -2,
  "boughtId": -1,
  "boughtTemplateId": -1,
  "placeholderId": 24414,
  "placeholderTemplateId": -1,
  "params": {
    "916": 1,
    "295": 1
  }
}