{
  "id": 24420,
  "name": "Inquisitor's hauberk",
  "examine": "The hauberk of the turncloak justiciar.",
  "resizeX": 128,
  "resizeY": 128,
  "resizeZ": 128,
  "xan2d": 568,
  "yan2d": 0,
  "zan2d": 0,
  "cost": 1000000,
  "isTradeable": true,
  "stackable": 0,
  "inventoryModel": 39076,
  "wearPos1": 4,
  "wearPos2": 6,
  "wearPos3": 0,
  "members": true,
  "zoom2d": 1228,
  "xOffset2d": 0,
  "yOffset2d": 0,
  "ambient": 0,
  "contrast": 0,
  "options": [
    null,
    null,
    "Take",
    null,
    null
  ],
  "interfaceOptions": [
    null,
    "Wear",
    null,
    null,
    "Drop"
  ],
  "maleModel0": 39051,
  "maleModel1": -1,
  "maleModel2": -1,
  "maleOffset": 0,
  "maleHeadModel": -1,
  "maleHeadModel2": -1,
  "femaleModel0": 39054,
  "femaleModel1": -1,
  "femaleModel2": -1,
  "femaleOffset": 0,
  "femaleHeadModel": -1,
  "femaleHeadModel2": -1,
  "category": 7,
  "notedID": 24502,
  "notedTemplate": -1,
  "team": 0,
  "weight": 9979,
  "shiftClickDropIndex": -2,
  "boughtId": -1,
  "boughtTemplateId": -1,
  "placeholderId": 24503,
  "placeholderTemplateId": -1,
  "params": {
    "434": 1,
    "435": 2,
    "436": 30,
    "437": 70,
    "41": 1,
    "155": 5,
    "1564": 4
  }
}