{
  "id": 24595,
  "name": "Blighted karambwan",
  "examine": "A nutritious octopus, now blighted so it can be eaten only in the Wilderness.",
  "resizeX": 128,
  "resizeY": 128,
  "resizeZ": 128,
  "xan2d": 388,
  "yan2d": 56,
  "zan2d": 0,
  "cost": 60,
  "isTradeable": true,
  "stackable": 0,
  "inventoryModel": 3860,
  "wearPos1": 0,
  "wearPos2": 0,
  "wearPos3": 0,
  "members": true,
  "colorFind": [
    17818
  ],
  "colorReplace": [
    9313
  ],
  "zoom2d": 1800,
  "xOffset2d": 0,
  "yOffset2d": 7,
  "ambient": -30,
  "contrast": 0,
  "options": [
    null,
    null,
    "Take",
    null,
    null
  ],
  "interfaceOptions": [
    "Eat",
    null,
    null,
    null,
    "Drop"
  ],
  "maleModel0": -1,
  "maleModel1": -1,
  "maleModel2": -1,
  "maleOffset": 0,
  "maleHeadModel": -1,
  "maleHeadModel2": -1,
  "femaleModel0": -1,
  "femaleModel1": -1,
  "femaleModel2": -1,
  "femaleOffset": 0,
  "femaleHeadModel": -1,
  "femaleHeadModel2": -1,
  "category": 58,
  "notedID": 24596,
  "notedTemplate": -1,
  "team": 0,
  "weight": 650,
  "shiftClickDropIndex": -2,
  "boughtId": -1,
  "boughtTemplateId": -1,
  "placeholderId": 24597,
  "placeholderTemplateId": -1
}