{
  "id": 24680,
  "name": "Vyre noble shoes",
  "examine": "Lets you dress like a vampyre noble.",
  "resizeX": 128,
  "resizeY": 128,
  "resizeZ": 128,
  "xan2d": 290,
  "yan2d": 1863,
  "zan2d": 373,
  "cost": 100,
  "isTradeable": false,
  "stackable": 0,
  "inventoryModel": 18025,
  "wearPos1": 10,
  "wearPos2": 0,
  "wearPos3": 0,
  "members": true,
  "zoom2d": 848,
  "xOffset2d": -1,
  "yOffset2d": 48,
  "ambient": 0,
  "contrast": 0,
  "options": [
    null,
    null,
    "Take",
    null,
    null
  ],
  "interfaceOptions": [
    null,
    "Wear",
    null,
    null,
    "Drop"
  ],
  "maleModel0": 39761,
  "maleModel1": -1,
  "maleModel2": -1,
  "maleOffset": 0,
  "maleHeadModel": -1,
  "maleHeadModel2": -1,
  "femaleModel0": 39783,
  "femaleModel1": -1,
  "femaleModel2": -1,
  "femaleOffset": 0,
  "femaleHeadModel": -1,
  "femaleHeadModel2": -1,
  "category": 1427,
  "notedID": -1,
  "notedTemplate": -1,
  "team": 0,
  "weight": 907,
  "shiftClickDropIndex": -2,
  "boughtId": -1,
  "boughtTemplateId": -1,
  "placeholderId": 24681,
  "placeholderTemplateId": -1
}