{
  "id": 24785,
  "name": "Cooked mystery meat",
  "examine": "I don't want to think about what kind of meat it is.",
  "resizeX": 128,
  "resizeY": 128,
  "resizeZ": 128,
  "xan2d": 308,
  "yan2d": 176,
  "zan2d": 0,
  "cost": 4,
  "isTradeable": true,
  "stackable": 0,
  "inventoryModel": 2760,
  "wearPos1": 0,
  "wearPos2": 0,
  "wearPos3": 0,
  "members": true,
  "colorFind": [
    127,
    947
  ],
  "colorReplace": [
    9125,
    7062
  ],
  "zoom2d": 560,
  "xOffset2d": 1,
  "yOffset2d": 3,
  "ambient": 0,
  "contrast": 0,
  "options": [
    null,
    null,
    "Take",
    null,
    null
  ],
  "interfaceOptions": [
    "Eat",
    null,
    null,
    null,
    "Drop"
  ],
  "maleModel0": -1,
  "maleModel1": -1,
  "maleModel2": -1,
  "maleOffset": 0,
  "maleHeadModel": -1,
  "maleHeadModel2": -1,
  "femaleModel0": -1,
  "femaleModel1": -1,
  "femaleModel2": -1,
  "femaleOffset": 0,
  "femaleHeadModel": -1,
  "femaleHeadModel2": -1,
  "category": 5,
  "notedID": 24786,
  "notedTemplate": -1,
  "team": 0,
  "weight": 340,
  "shiftClickDropIndex": -2,
  "boughtId": -1,
  "boughtTemplateId": -1,
  "placeholderId": 24787,
  "placeholderTemplateId": -1
}