{
  "id": 24780,
  "name": "Amulet of blood fury",
  "examine": "A very powerful onyx amulet, imbued with blood magic.",
  "resizeX": 128,
  "resizeY": 128,
  "resizeZ": 128,
  "xan2d": 424,
  "yan2d": 68,
  "zan2d": 0,
  "cost": 402000,
  "isTradeable": false,
  "stackable": 0,
  "inventoryModel": 39659,
  "wearPos1": 2,
  "wearPos2": 0,
  "wearPos3": 0,
  "members": true,
  "zoom2d": 620,
  "xOffset2d": 1,
  "yOffset2d": 16,
  "ambient": 0,
  "contrast": 0,
  "options": [
    null,
    null,
    "Take",
    null,
    null
  ],
  "interfaceOptions": [
    null,
    "Wear",
    null,
    "Check",
    "Revert"
  ],
  "maleModel0": 39765,
  "maleModel1": -1,
  "maleModel2": -1,
  "maleOffset": 0,
  "maleHeadModel": -1,
  "maleHeadModel2": -1,
  "femaleModel0": 39785,
  "femaleModel1": -1,
  "femaleModel2": -1,
  "femaleOffset": 0,
  "femaleHeadModel": -1,
  "femaleHeadModel2": -1,
  "category": 0,
  "notedID": -1,
  "notedTemplate": -1,
  "team": 0,
  "weight": 20,
  "shiftClickDropIndex": -2,
  "boughtId": -1,
  "boughtTemplateId": -1,
  "placeholderId": 24781,
  "placeholderTemplateId": -1,
  "params": {
    "451": "Check"
  }
}