{
  "id": 24808,
  "name": "Vyre noble dress bottom",
  "examine": "Lets you dress like a vampyre noble.",
  "resizeX": 128,
  "resizeY": 128,
  "resizeZ": 128,
  "xan2d": 358,
  "yan2d": 30,
  "zan2d": 1872,
  "cost": 5000,
  "isTradeable": false,
  "stackable": 0,
  "inventoryModel": 39665,
  "wearPos1": 7,
  "wearPos2": 0,
  "wearPos3": 0,
  "members": true,
  "colorFind": [
    -31794,
    -21554,
    -16469
  ],
  "colorReplace": [
    790,
    788,
    784
  ],
  "zoom2d": 1820,
  "xOffset2d": 0,
  "yOffset2d": 11,
  "ambient": 0,
  "contrast": 0,
  "options": [
    null,
    null,
    "Take",
    null,
    null
  ],
  "interfaceOptions": [
    null,
    "Wear",
    null,
    null,
    "Drop"
  ],
  "maleModel0": 39757,
  "maleModel1": -1,
  "maleModel2": -1,
  "maleOffset": 0,
  "maleHeadModel": -1,
  "maleHeadModel2": -1,
  "femaleModel0": 39777,
  "femaleModel1": -1,
  "femaleModel2": -1,
  "femaleOffset": 0,
  "femaleHeadModel": -1,
  "femaleHeadModel2": -1,
  "category": 1434,
  "notedID": -1,
  "notedTemplate": -1,
  "team": 0,
  "weight": 907,
  "shiftClickDropIndex": -2,
  "boughtId": -1,
  "boughtTemplateId": -1,
  "placeholderId": 24809,
  "placeholderTemplateId": -1
}