{
  "id": 24844,
  "name": "Ring of endurance (uncharged)",
  "examine": "I wonder if this ring helps with...",
  "resizeX": 128,
  "resizeY": 128,
  "resizeZ": 128,
  "xan2d": 379,
  "yan2d": 1905,
  "zan2d": 0,
  "cost": 64000,
  "isTradeable": true,
  "stackable": 0,
  "inventoryModel": 39668,
  "wearPos1": 12,
  "wearPos2": 0,
  "wearPos3": 0,
  "members": true,
  "zoom2d": 934,
  "xOffset2d": -2,
  "yOffset2d": -11,
  "ambient": 0,
  "contrast": 0,
  "options": [
    null,
    null,
    "Take",
    null,
    null
  ],
  "interfaceOptions": [
    null,
    "Wear",
    null,
    null,
    "Drop"
  ],
  "maleModel0": -1,
  "maleModel1": -1,
  "maleModel2": -1,
  "maleOffset": 0,
  "maleHeadModel": -1,
  "maleHeadModel2": -1,
  "femaleModel0": -1,
  "femaleModel1": -1,
  "femaleModel2": -1,
  "femaleOffset": 0,
  "femaleHeadModel": -1,
  "femaleHeadModel2": -1,
  "category": 1431,
  "notedID": 24845,
  "notedTemplate": -1,
  "team": 0,
  "weight": 6,
  "shiftClickDropIndex": -2,
  "boughtId": -1,
  "boughtTemplateId": -1,
  "placeholderId": 24846,
  "placeholderTemplateId": -1,
  "params": {
    "40": 1
  }
}