{
  "id": 24951,
  "name": "Ourania teleport",
  "examine": "A teleport to the Ourania cave.",
  "resizeX": 128,
  "resizeY": 128,
  "resizeZ": 128,
  "xan2d": 373,
  "yan2d": 0,
  "zan2d": 0,
  "cost": 1,
  "isTradeable": true,
  "stackable": 1,
  "inventoryModel": 40903,
  "wearPos1": 0,
  "wearPos2": 0,
  "wearPos3": 0,
  "members": true,
  "colorFind": [
    22430,
    -25689,
    -26705
  ],
  "colorReplace": [
    -21952,
    10816,
    9174
  ],
  "zoom2d": 465,
  "xOffset2d": 0,
  "yOffset2d": -1,
  "ambient": 0,
  "contrast": 0,
  "options": [
    null,
    null,
    "Take",
    null,
    null
  ],
  "interfaceOptions": [
    "Break",
    null,
    null,
    null,
    "Drop"
  ],
  "maleModel0": -1,
  "maleModel1": -1,
  "maleModel2": -1,
  "maleOffset": 0,
  "maleHeadModel": -1,
  "maleHeadModel2": -1,
  "femaleModel0": -1,
  "femaleModel1": -1,
  "femaleModel2": -1,
  "femaleOffset": 0,
  "femaleHeadModel": -1,
  "femaleHeadModel2": -1,
  "category": 0,
  "notedID": -1,
  "notedTemplate": -1,
  "team": 0,
  "weight": 0,
  "shiftClickDropIndex": -2,
  "boughtId": -1,
  "boughtTemplateId": -1,
  "placeholderId": 24952,
  "placeholderTemplateId": -1,
  "params": {
    "608": 20759
  }
}