{
  "id": 25025,
  "name": "Trailblazer boots (t2)",
  "examine": "The boots of a trailblazer relic hunter.",
  "resizeX": 128,
  "resizeY": 128,
  "resizeZ": 128,
  "xan2d": 152,
  "yan2d": 160,
  "zan2d": 0,
  "cost": 15000,
  "isTradeable": true,
  "stackable": 0,
  "inventoryModel": 41075,
  "wearPos1": 10,
  "wearPos2": 0,
  "wearPos3": 0,
  "members": true,
  "zoom2d": 770,
  "xOffset2d": 1,
  "yOffset2d": -6,
  "ambient": 0,
  "contrast": 0,
  "options": [
    null,
    null,
    "Take",
    null,
    null
  ],
  "interfaceOptions": [
    null,
    "Wear",
    null,
    null,
    "Drop"
  ],
  "maleModel0": 40929,
  "maleModel1": -1,
  "maleModel2": -1,
  "maleOffset": 0,
  "maleHeadModel": -1,
  "maleHeadModel2": -1,
  "femaleModel0": 40949,
  "femaleModel1": -1,
  "femaleModel2": -1,
  "femaleOffset": 0,
  "femaleHeadModel": -1,
  "femaleHeadModel2": -1,
  "category": 0,
  "notedID": 25026,
  "notedTemplate": -1,
  "team": 0,
  "weight": 340,
  "shiftClickDropIndex": -2,
  "boughtId": -1,
  "boughtTemplateId": -1,
  "placeholderId": 25027,
  "placeholderTemplateId": -1,
  "params": {
    "916": 2,
    "295": 1
  }
}