{
  "id": 25336,
  "name": "Gnome child mask",
  "examine": "The smile of childlike innocence.",
  "resizeX": 128,
  "resizeY": 128,
  "resizeZ": 128,
  "xan2d": 512,
  "yan2d": 0,
  "zan2d": 1906,
  "cost": 0,
  "isTradeable": false,
  "stackable": 0,
  "inventoryModel": 41656,
  "wearPos1": 0,
  "wearPos2": 8,
  "wearPos3": 11,
  "members": false,
  "zoom2d": 625,
  "xOffset2d": 0,
  "yOffset2d": -7,
  "ambient": 0,
  "contrast": 0,
  "options": [
    null,
    null,
    "Take",
    null,
    null
  ],
  "interfaceOptions": [
    null,
    "Wear",
    null,
    null,
    "Destroy"
  ],
  "maleModel0": 41516,
  "maleModel1": -1,
  "maleModel2": -1,
  "maleOffset": 0,
  "maleHeadModel": 41625,
  "maleHeadModel2": -1,
  "femaleModel0": 41525,
  "femaleModel1": -1,
  "femaleModel2": -1,
  "femaleOffset": 0,
  "femaleHeadModel": 41625,
  "femaleHeadModel2": -1,
  "category": 0,
  "notedID": -1,
  "notedTemplate": -1,
  "team": 0,
  "weight": 250,
  "shiftClickDropIndex": -2,
  "boughtId": -1,
  "boughtTemplateId": -1,
  "placeholderId": 25337,
  "placeholderTemplateId": -1
}