{
  "id": 25369,
  "name": "Infernal pickaxe (uncharged)",
  "examine": "A formerly powerful, fiery pickaxe in the colours of the Trailblazer League.",
  "resizeX": 128,
  "resizeY": 128,
  "resizeZ": 128,
  "xan2d": 386,
  "yan2d": 1095,
  "zan2d": 0,
  "cost": 97950,
  "isTradeable": false,
  "stackable": 0,
  "inventoryModel": 41067,
  "wearPos1": 3,
  "wearPos2": 0,
  "wearPos3": 0,
  "members": true,
  "zoom2d": 1454,
  "xOffset2d": -1,
  "yOffset2d": -2,
  "ambient": 0,
  "contrast": 0,
  "options": [
    null,
    null,
    "Take",
    null,
    null
  ],
  "interfaceOptions": [
    null,
    "Wield",
    null,
    "Revert",
    "Drop"
  ],
  "maleModel0": 40965,
  "maleModel1": -1,
  "maleModel2": -1,
  "maleOffset": 0,
  "maleHeadModel": -1,
  "maleHeadModel2": -1,
  "femaleModel0": 40964,
  "femaleModel1": -1,
  "femaleModel2": -1,
  "femaleOffset": 0,
  "femaleHeadModel": -1,
  "femaleHeadModel2": -1,
  "category": 67,
  "notedID": -1,
  "notedTemplate": -1,
  "team": 0,
  "weight": 2400,
  "shiftClickDropIndex": -2,
  "boughtId": -1,
  "boughtTemplateId": -1,
  "placeholderId": 25370,
  "placeholderTemplateId": -1,
  "params": {
    "258": 21,
    "23": 61,
    "295": 1
  }
}