{
  "id": 25470,
  "name": "Open steel coffin",
  "examine": "Can store up to 8 shade remains.",
  "resizeX": 128,
  "resizeY": 128,
  "resizeZ": 128,
  "xan2d": 209,
  "yan2d": 1985,
  "zan2d": 0,
  "cost": 1,
  "isTradeable": false,
  "stackable": 0,
  "inventoryModel": 41778,
  "wearPos1": 1,
  "wearPos2": 0,
  "wearPos3": 0,
  "members": true,
  "colorFind": [
    7991,
    8111
  ],
  "colorReplace": [
    61,
    41
  ],
  "zoom2d": 2000,
  "xOffset2d": 0,
  "yOffset2d": 0,
  "ambient": 0,
  "contrast": 0,
  "options": [
    null,
    null,
    "Take",
    null,
    null
  ],
  "interfaceOptions": [
    "Fill",
    "Wear",
    "Configure",
    "Close",
    "Destroy"
  ],
  "maleModel0": 41734,
  "maleModel1": -1,
  "maleModel2": -1,
  "maleOffset": 0,
  "maleHeadModel": -1,
  "maleHeadModel2": -1,
  "femaleModel0": 41750,
  "femaleModel1": -1,
  "femaleModel2": -1,
  "femaleOffset": 0,
  "femaleHeadModel": -1,
  "femaleHeadModel2": -1,
  "category": 1498,
  "notedID": -1,
  "notedTemplate": -1,
  "team": 0,
  "weight": 1000,
  "shiftClickDropIndex": -2,
  "boughtId": -1,
  "boughtTemplateId": -1,
  "placeholderId": -1,
  "placeholderTemplateId": -1,
  "params": {
    "1152": 8,
    "451": "Fill",
    "452": "Configure",
    "453": "Close",
    "295": 1
  }
}