{
  "id": 25539,
  "name": "Celestial ring (uncharged)",
  "examine": "A ring forged in the heart of a shooting star. It provides some useful mining boosts.",
  "resizeX": 128,
  "resizeY": 128,
  "resizeZ": 128,
  "xan2d": 277,
  "yan2d": 1944,
  "zan2d": 0,
  "cost": 2000,
  "isTradeable": false,
  "stackable": 0,
  "inventoryModel": 41594,
  "wearPos1": 12,
  "wearPos2": 0,
  "wearPos3": 0,
  "members": true,
  "zoom2d": 934,
  "xOffset2d": 0,
  "yOffset2d": -11,
  "ambient": 0,
  "contrast": 0,
  "options": [
    null,
    null,
    "Take",
    null,
    null
  ],
  "interfaceOptions": [
    null,
    "Wear",
    "Charge",
    null,
    "Drop"
  ],
  "maleModel0": -1,
  "maleModel1": -1,
  "maleModel2": -1,
  "maleOffset": 0,
  "maleHeadModel": -1,
  "maleHeadModel2": -1,
  "femaleModel0": -1,
  "femaleModel1": -1,
  "femaleModel2": -1,
  "femaleOffset": 0,
  "femaleHeadModel": -1,
  "femaleHeadModel2": -1,
  "category": 1494,
  "notedID": -1,
  "notedTemplate": -1,
  "team": 0,
  "weight": 6,
  "shiftClickDropIndex": -2,
  "boughtId": -1,
  "boughtTemplateId": -1,
  "placeholderId": 25540,
  "placeholderTemplateId": -1,
  "params": {
    "295": 1
  }
}