{
  "id": 25533,
  "name": "Soft clay pack",
  "examine": "A pack containing 100 pieces of soft clay.",
  "resizeX": 128,
  "resizeY": 128,
  "resizeZ": 128,
  "xan2d": 0,
  "yan2d": 2047,
  "zan2d": 0,
  "cost": 150,
  "isTradeable": false,
  "stackable": 0,
  "inventoryModel": 21843,
  "wearPos1": 0,
  "wearPos2": 0,
  "wearPos3": 0,
  "members": true,
  "colorFind": [
    5584,
    5592,
    5444
  ],
  "colorReplace": [
    5805,
    3619,
    5805
  ],
  "zoom2d": 1411,
  "xOffset2d": -3,
  "yOffset2d": -3,
  "ambient": 0,
  "contrast": 0,
  "options": [
    null,
    null,
    "Take",
    null,
    null
  ],
  "interfaceOptions": [
    "Open",
    null,
    null,
    null,
    "Drop"
  ],
  "maleModel0": -1,
  "maleModel1": -1,
  "maleModel2": -1,
  "maleOffset": 0,
  "maleHeadModel": -1,
  "maleHeadModel2": -1,
  "femaleModel0": -1,
  "femaleModel1": -1,
  "femaleModel2": -1,
  "femaleOffset": 0,
  "femaleHeadModel": -1,
  "femaleHeadModel2": -1,
  "category": 720,
  "notedID": -1,
  "notedTemplate": -1,
  "team": 0,
  "weight": 4535,
  "shiftClickDropIndex": -2,
  "boughtId": -1,
  "boughtTemplateId": -1,
  "placeholderId": 25534,
  "placeholderTemplateId": -1,
  "params": {
    "295": 1
  }
}