{
  "id": 25576,
  "name": "Tome of water (empty)",
  "examine": "An ancient tome containing the secrets of water magic.",
  "resizeX": 128,
  "resizeY": 128,
  "resizeZ": 128,
  "xan2d": 244,
  "yan2d": 116,
  "zan2d": 0,
  "cost": 19500,
  "isTradeable": true,
  "stackable": 0,
  "inventoryModel": 41965,
  "wearPos1": 5,
  "wearPos2": 0,
  "wearPos3": 0,
  "members": true,
  "colorFind": [
    -21630
  ],
  "colorReplace": [
    -32649
  ],
  "zoom2d": 830,
  "xOffset2d": 1,
  "yOffset2d": -21,
  "ambient": 0,
  "contrast": 0,
  "options": [
    null,
    null,
    "Take",
    null,
    null
  ],
  "interfaceOptions": [
    null,
    "Wield",
    null,
    "Pages",
    "Drop"
  ],
  "maleModel0": 41810,
  "maleModel1": -1,
  "maleModel2": -1,
  "maleOffset": 0,
  "maleHeadModel": -1,
  "maleHeadModel2": -1,
  "femaleModel0": 41810,
  "femaleModel1": -1,
  "femaleModel2": -1,
  "femaleOffset": 6,
  "femaleHeadModel": -1,
  "femaleHeadModel2": -1,
  "category": 1500,
  "notedID": 25577,
  "notedTemplate": -1,
  "team": 0,
  "weight": 1000,
  "shiftClickDropIndex": -2,
  "boughtId": -1,
  "boughtTemplateId": -1,
  "placeholderId": -1,
  "placeholderTemplateId": -1,
  "params": {
    "295": 1,
    "451": "Pages"
  }
}