{
  "id": 25582,
  "name": "Fish barrel",
  "examine": "Like stashing fish in a barrel.",
  "resizeX": 128,
  "resizeY": 128,
  "resizeZ": 128,
  "xan2d": 94,
  "yan2d": 182,
  "zan2d": 0,
  "cost": 720,
  "isTradeable": false,
  "stackable": 0,
  "inventoryModel": 41951,
  "wearPos1": 0,
  "wearPos2": 0,
  "wearPos3": 0,
  "members": true,
  "zoom2d": 1842,
  "xOffset2d": 0,
  "yOffset2d": -1,
  "ambient": 0,
  "contrast": 0,
  "options": [
    null,
    null,
    "Take",
    null,
    null
  ],
  "interfaceOptions": [
    "Fill",
    "Check",
    "Open",
    null,
    "Destroy"
  ],
  "maleModel0": -1,
  "maleModel1": -1,
  "maleModel2": -1,
  "maleOffset": 0,
  "maleHeadModel": -1,
  "maleHeadModel2": -1,
  "femaleModel0": -1,
  "femaleModel1": -1,
  "femaleModel2": -1,
  "femaleOffset": 0,
  "femaleHeadModel": -1,
  "femaleHeadModel2": -1,
  "category": 1501,
  "notedID": -1,
  "notedTemplate": -1,
  "team": 0,
  "weight": 1390,
  "shiftClickDropIndex": -2,
  "boughtId": -1,
  "boughtTemplateId": -1,
  "placeholderId": 25583,
  "placeholderTemplateId": -1,
  "params": {
    "595": "Empty",
    "295": 1
  }
}