{
  "id": 25644,
  "name": "Imcando hammer",
  "examine": "It's good for holding and hitting things!",
  "resizeX": 128,
  "resizeY": 128,
  "resizeZ": 128,
  "xan2d": 1454,
  "yan2d": 1030,
  "zan2d": 1044,
  "cost": 1,
  "isTradeable": false,
  "stackable": 0,
  "inventoryModel": 42149,
  "wearPos1": 3,
  "wearPos2": 0,
  "wearPos3": 0,
  "members": true,
  "zoom2d": 1217,
  "xOffset2d": -5,
  "yOffset2d": 5,
  "ambient": 0,
  "contrast": 0,
  "options": [
    null,
    null,
    "Take",
    null,
    null
  ],
  "interfaceOptions": [
    null,
    "Wield",
    "Swap",
    null,
    "Drop"
  ],
  "maleModel0": 42016,
  "maleModel1": -1,
  "maleModel2": -1,
  "maleOffset": 0,
  "maleHeadModel": -1,
  "maleHeadModel2": -1,
  "femaleModel0": 42015,
  "femaleModel1": -1,
  "femaleModel2": -1,
  "femaleOffset": 0,
  "femaleHeadModel": -1,
  "femaleHeadModel2": -1,
  "category": 26,
  "notedID": -1,
  "notedTemplate": -1,
  "team": 0,
  "weight": 2000,
  "shiftClickDropIndex": -2,
  "boughtId": -1,
  "boughtTemplateId": -1,
  "placeholderId": 25645,
  "placeholderTemplateId": -1,
  "params": {
    "453": "Swap"
  }
}