{
  "id": 25670,
  "name": "Raw catfish",
  "examine": "This needs to be prepared on the preparation table.",
  "resizeX": 128,
  "resizeY": 128,
  "resizeZ": 128,
  "xan2d": 247,
  "yan2d": 339,
  "zan2d": 0,
  "cost": 5,
  "isTradeable": false,
  "stackable": 0,
  "inventoryModel": 42173,
  "wearPos1": 0,
  "wearPos2": 0,
  "wearPos3": 0,
  "members": true,
  "zoom2d": 2017,
  "xOffset2d": 8,
  "yOffset2d": -57,
  "ambient": 0,
  "contrast": 0,
  "options": [
    null,
    null,
    "Take",
    null,
    null
  ],
  "interfaceOptions": [
    null,
    null,
    null,
    null,
    "Drop"
  ],
  "maleModel0": -1,
  "maleModel1": -1,
  "maleModel2": -1,
  "maleOffset": 0,
  "maleHeadModel": -1,
  "maleHeadModel2": -1,
  "femaleModel0": -1,
  "femaleModel1": -1,
  "femaleModel2": -1,
  "femaleOffset": 0,
  "femaleHeadModel": -1,
  "femaleHeadModel2": -1,
  "category": 360,
  "notedID": -1,
  "notedTemplate": -1,
  "team": 0,
  "weight": 120,
  "shiftClickDropIndex": -2,
  "boughtId": -1,
  "boughtTemplateId": -1,
  "placeholderId": 25671,
  "placeholderTemplateId": -1,
  "params": {
    "295": 1
  }
}