{
  "id": 25719,
  "name": "Clan cloak",
  "examine": "Shows your clan's colours.",
  "resizeX": 128,
  "resizeY": 128,
  "resizeZ": 128,
  "xan2d": 512,
  "yan2d": 1953,
  "zan2d": 0,
  "cost": 1,
  "isTradeable": false,
  "stackable": 0,
  "inventoryModel": 42204,
  "wearPos1": 1,
  "wearPos2": 0,
  "wearPos3": 0,
  "members": false,
  "colorFind": [
    59,
    41
  ],
  "colorReplace": [
    -27417,
    -27434
  ],
  "textureFind": [
    13,
    14
  ],
  "textureReplace": [
    88,
    12
  ],
  "zoom2d": 2237,
  "xOffset2d": 2,
  "yOffset2d": -1,
  "ambient": 0,
  "contrast": 0,
  "options": [
    null,
    null,
    "Take",
    null,
    null
  ],
  "interfaceOptions": [
    null,
    "Wear",
    null,
    null,
    "Destroy"
  ],
  "maleModel0": 42208,
  "maleModel1": -1,
  "maleModel2": -1,
  "maleOffset": 0,
  "maleHeadModel": -1,
  "maleHeadModel2": -1,
  "femaleModel0": 42211,
  "femaleModel1": -1,
  "femaleModel2": -1,
  "femaleOffset": 0,
  "femaleHeadModel": -1,
  "femaleHeadModel2": -1,
  "category": 1546,
  "notedID": -1,
  "notedTemplate": -1,
  "team": 0,
  "weight": 320,
  "shiftClickDropIndex": -2,
  "boughtId": -1,
  "boughtTemplateId": -1,
  "placeholderId": -1,
  "placeholderTemplateId": -1,
  "params": {
    "295": 1
  }
}