{
  "id": 25726,
  "name": "Clan vexillum",
  "examine": "While this is equipped, you'll see an option for recruiting people into your clan.",
  "resizeX": 128,
  "resizeY": 128,
  "resizeZ": 128,
  "xan2d": 471,
  "yan2d": 5,
  "zan2d": 0,
  "cost": 1,
  "isTradeable": false,
  "stackable": 0,
  "inventoryModel": 42203,
  "wearPos1": 3,
  "wearPos2": 5,
  "wearPos3": 0,
  "members": false,
  "colorFind": [
    59,
    41
  ],
  "colorReplace": [
    13223,
    13214
  ],
  "textureFind": [
    13,
    14
  ],
  "textureReplace": [
    88,
    12
  ],
  "zoom2d": 2469,
  "xOffset2d": -5,
  "yOffset2d": 5,
  "ambient": 0,
  "contrast": 0,
  "options": [
    null,
    null,
    "Take",
    null,
    null
  ],
  "interfaceOptions": [
    null,
    "Wield",
    null,
    null,
    "Destroy"
  ],
  "maleModel0": 42207,
  "maleModel1": -1,
  "maleModel2": -1,
  "maleOffset": 2,
  "maleHeadModel": -1,
  "maleHeadModel2": -1,
  "femaleModel0": 42207,
  "femaleModel1": -1,
  "femaleModel2": -1,
  "femaleOffset": 2,
  "femaleHeadModel": -1,
  "femaleHeadModel2": -1,
  "category": 42,
  "notedID": -1,
  "notedTemplate": -1,
  "team": 0,
  "weight": 1814,
  "shiftClickDropIndex": -2,
  "boughtId": -1,
  "boughtTemplateId": -1,
  "placeholderId": -1,
  "placeholderTemplateId": -1,
  "params": {
    "295": 1
  }
}