{
  "id": 25890,
  "name": "Bow of faerdhinen (c)",
  "examine": "A magical elven bow, corrupted through the addition of too many shards.",
  "resizeX": 128,
  "resizeY": 128,
  "resizeZ": 128,
  "xan2d": 561,
  "yan2d": 15,
  "zan2d": 0,
  "cost": 5000000,
  "isTradeable": false,
  "stackable": 0,
  "inventoryModel": 42605,
  "wearPos1": 3,
  "wearPos2": 5,
  "wearPos3": 0,
  "members": true,
  "colorFind": [
    -32535,
    -32541
  ],
  "colorReplace": [
    21947,
    21958
  ],
  "zoom2d": 2000,
  "xOffset2d": -1,
  "yOffset2d": 4,
  "ambient": 0,
  "contrast": 0,
  "options": [
    null,
    null,
    "Take",
    null,
    null
  ],
  "interfaceOptions": [
    null,
    "Wield",
    null,
    "Uncharge",
    "Drop"
  ],
  "maleModel0": 42602,
  "maleModel1": -1,
  "maleModel2": -1,
  "maleOffset": 0,
  "maleHeadModel": -1,
  "maleHeadModel2": -1,
  "femaleModel0": 42602,
  "femaleModel1": -1,
  "femaleModel2": -1,
  "femaleOffset": 6,
  "femaleHeadModel": -1,
  "femaleHeadModel2": -1,
  "category": 106,
  "notedID": -1,
  "notedTemplate": -1,
  "team": 0,
  "weight": 1500,
  "shiftClickDropIndex": -2,
  "boughtId": -1,
  "boughtTemplateId": -1,
  "placeholderId": 25891,
  "placeholderTemplateId": -1,
  "params": {
    "258": 20,
    "434": 4,
    "435": 16,
    "436": 80,
    "437": 70,
    "23": 80
  }
}