{
  "id": 261,
  "name": "Avantoe",
  "examine": "A useful herb.",
  "resizeX": 128,
  "resizeY": 128,
  "resizeZ": 128,
  "xan2d": 376,
  "yan2d": 1588,
  "zan2d": 0,
  "cost": 48,
  "isTradeable": true,
  "stackable": 0,
  "inventoryModel": 2364,
  "wearPos1": 0,
  "wearPos2": 0,
  "wearPos3": 0,
  "members": true,
  "colorFind": [
    22418,
    22428
  ],
  "colorReplace": [
    24342,
    25360
  ],
  "zoom2d": 700,
  "xOffset2d": 4,
  "yOffset2d": 0,
  "ambient": 0,
  "contrast": 0,
  "options": [
    null,
    null,
    "Take",
    null,
    null
  ],
  "interfaceOptions": [
    null,
    null,
    null,
    null,
    "Drop"
  ],
  "maleModel0": -1,
  "maleModel1": -1,
  "maleModel2": -1,
  "maleOffset": 0,
  "maleHeadModel": -1,
  "maleHeadModel2": -1,
  "femaleModel0": -1,
  "femaleModel1": -1,
  "femaleModel2": -1,
  "femaleOffset": 0,
  "femaleHeadModel": -1,
  "femaleHeadModel2": -1,
  "category": 774,
  "notedID": 262,
  "notedTemplate": -1,
  "team": 0,
  "weight": 7,
  "shiftClickDropIndex": -2,
  "boughtId": -1,
  "boughtTemplateId": -1,
  "placeholderId": 15221,
  "placeholderTemplateId": -1
}