{
  "id": 26164,
  "name": "Group ironman platebody",
  "examine": "A platebody representing your group of five.",
  "resizeX": 128,
  "resizeY": 128,
  "resizeZ": 128,
  "xan2d": 488,
  "yan2d": 0,
  "zan2d": 0,
  "cost": 0,
  "isTradeable": false,
  "stackable": 0,
  "inventoryModel": 42982,
  "wearPos1": 4,
  "wearPos2": 6,
  "wearPos3": 0,
  "members": false,
  "zoom2d": 1250,
  "xOffset2d": -1,
  "yOffset2d": 0,
  "ambient": 0,
  "contrast": 0,
  "options": [
    null,
    null,
    "Take",
    null,
    null
  ],
  "interfaceOptions": [
    null,
    "Wear",
    null,
    null,
    "Destroy"
  ],
  "maleModel0": 42938,
  "maleModel1": 42937,
  "maleModel2": -1,
  "maleOffset": 0,
  "maleHeadModel": -1,
  "maleHeadModel2": -1,
  "femaleModel0": 42955,
  "femaleModel1": 42952,
  "femaleModel2": -1,
  "femaleOffset": 0,
  "femaleHeadModel": -1,
  "femaleHeadModel2": -1,
  "category": 7,
  "notedID": -1,
  "notedTemplate": -1,
  "team": 0,
  "weight": 4535,
  "shiftClickDropIndex": -2,
  "boughtId": -1,
  "boughtTemplateId": -1,
  "placeholderId": 26165,
  "placeholderTemplateId": -1
}