{
  "id": 2623,
  "name": "Rune platebody (t)",
  "examine": "Rune platebody with trim.",
  "resizeX": 128,
  "resizeY": 128,
  "resizeZ": 128,
  "xan2d": 452,
  "yan2d": 0,
  "zan2d": 0,
  "cost": 65000,
  "isTradeable": true,
  "stackable": 0,
  "inventoryModel": 2378,
  "wearPos1": 4,
  "wearPos2": 6,
  "wearPos3": 0,
  "members": false,
  "colorFind": [
    61,
    41,
    24
  ],
  "colorReplace": [
    -29403,
    -28266,
    -27310
  ],
  "zoom2d": 1180,
  "xOffset2d": -1,
  "yOffset2d": -1,
  "ambient": 0,
  "contrast": 0,
  "options": [
    null,
    null,
    "Take",
    null,
    null
  ],
  "interfaceOptions": [
    null,
    "Wear",
    null,
    null,
    "Drop"
  ],
  "maleModel0": 3379,
  "maleModel1": 164,
  "maleModel2": -1,
  "maleOffset": 0,
  "maleHeadModel": -1,
  "maleHeadModel2": -1,
  "femaleModel0": 3383,
  "femaleModel1": 344,
  "femaleModel2": -1,
  "femaleOffset": 0,
  "femaleHeadModel": -1,
  "femaleHeadModel2": -1,
  "category": 7,
  "notedID": 2624,
  "notedTemplate": -1,
  "team": 0,
  "weight": 9979,
  "shiftClickDropIndex": -2,
  "boughtId": -1,
  "boughtTemplateId": -1,
  "placeholderId": 15790,
  "placeholderTemplateId": -1
}