{
  "id": 26231,
  "name": "Nihil shard",
  "examine": "An ancient magical shard.",
  "resizeX": 128,
  "resizeY": 128,
  "resizeZ": 128,
  "xan2d": 316,
  "yan2d": 626,
  "zan2d": 0,
  "cost": 5000,
  "isTradeable": true,
  "stackable": 1,
  "inventoryModel": 39672,
  "wearPos1": 0,
  "wearPos2": 0,
  "wearPos3": 0,
  "members": true,
  "colorFind": [
    966,
    926
  ],
  "colorReplace": [
    -14642,
    -14409
  ],
  "zoom2d": 1020,
  "xOffset2d": 7,
  "yOffset2d": 13,
  "ambient": 0,
  "contrast": 0,
  "options": [
    null,
    null,
    "Take",
    null,
    null
  ],
  "interfaceOptions": [
    null,
    null,
    null,
    null,
    "Drop"
  ],
  "maleModel0": -1,
  "maleModel1": -1,
  "maleModel2": -1,
  "maleOffset": 0,
  "maleHeadModel": -1,
  "maleHeadModel2": -1,
  "femaleModel0": -1,
  "femaleModel1": -1,
  "femaleModel2": -1,
  "femaleOffset": 0,
  "femaleHeadModel": -1,
  "femaleHeadModel2": -1,
  "category": 0,
  "notedID": -1,
  "notedTemplate": -1,
  "team": 0,
  "weight": 0,
  "shiftClickDropIndex": -2,
  "boughtId": -1,
  "boughtTemplateId": -1,
  "placeholderId": 26232,
  "placeholderTemplateId": -1
}