{
  "id": 26247,
  "name": "Pumpkin pie",
  "examine": "The best pumpkin pie in Gielinor",
  "resizeX": 128,
  "resizeY": 128,
  "resizeZ": 128,
  "xan2d": 192,
  "yan2d": 104,
  "zan2d": 0,
  "cost": 12,
  "isTradeable": false,
  "stackable": 0,
  "inventoryModel": 2767,
  "wearPos1": 0,
  "wearPos2": 0,
  "wearPos3": 0,
  "members": false,
  "colorFind": [
    8670,
    5006,
    61
  ],
  "colorReplace": [
    5689,
    3623,
    4416
  ],
  "zoom2d": 950,
  "xOffset2d": 0,
  "yOffset2d": -9,
  "ambient": 0,
  "contrast": 0,
  "options": [
    null,
    null,
    "Take",
    null,
    null
  ],
  "interfaceOptions": [
    null,
    null,
    null,
    null,
    "Drop"
  ],
  "maleModel0": -1,
  "maleModel1": -1,
  "maleModel2": -1,
  "maleOffset": 0,
  "maleHeadModel": -1,
  "maleHeadModel2": -1,
  "femaleModel0": -1,
  "femaleModel1": -1,
  "femaleModel2": -1,
  "femaleOffset": 0,
  "femaleHeadModel": -1,
  "femaleHeadModel2": -1,
  "category": 129,
  "notedID": -1,
  "notedTemplate": -1,
  "team": 0,
  "weight": 450,
  "shiftClickDropIndex": -2,
  "boughtId": -1,
  "boughtTemplateId": -1,
  "placeholderId": 26249,
  "placeholderTemplateId": -1,
  "params": {
    "59": 1,
    "295": 1
  }
}