{
  "id": 26322,
  "name": "Secret santa present (black)",
  "examine": "A present. Looks like it can be delivered somewhere.",
  "resizeX": 128,
  "resizeY": 128,
  "resizeZ": 128,
  "xan2d": 193,
  "yan2d": 1768,
  "zan2d": 0,
  "cost": 1,
  "isTradeable": false,
  "stackable": 0,
  "inventoryModel": 43103,
  "wearPos1": 5,
  "wearPos2": 0,
  "wearPos3": 0,
  "members": false,
  "colorFind": [
    834,
    827,
    823,
    817
  ],
  "colorReplace": [
    24,
    18,
    12,
    8
  ],
  "zoom2d": 824,
  "xOffset2d": 0,
  "yOffset2d": -13,
  "ambient": 0,
  "contrast": 0,
  "options": [
    null,
    null,
    "Take",
    null,
    null
  ],
  "interfaceOptions": [
    null,
    "Wield",
    "Read-tag",
    "Change-colour",
    "Destroy"
  ],
  "maleModel0": 39557,
  "maleModel1": -1,
  "maleModel2": -1,
  "maleOffset": 0,
  "maleHeadModel": -1,
  "maleHeadModel2": -1,
  "femaleModel0": 39557,
  "femaleModel1": -1,
  "femaleModel2": -1,
  "femaleOffset": 0,
  "femaleHeadModel": -1,
  "femaleHeadModel2": -1,
  "category": 0,
  "notedID": -1,
  "notedTemplate": -1,
  "team": 0,
  "weight": 1,
  "shiftClickDropIndex": -2,
  "boughtId": -1,
  "boughtTemplateId": -1,
  "placeholderId": 26323,
  "placeholderTemplateId": -1,
  "params": {
    "452": "Change-colour",
    "451": "Read-tag",
    "295": 1
  }
}