{
  "id": 26473,
  "name": "Void mage helm (or)",
  "examine": "A mage helm plucked from the shattered abyss.",
  "resizeX": 128,
  "resizeY": 128,
  "resizeZ": 128,
  "xan2d": 429,
  "yan2d": 1660,
  "zan2d": 0,
  "cost": 9851,
  "isTradeable": false,
  "stackable": 0,
  "inventoryModel": 43447,
  "wearPos1": 0,
  "wearPos2": 8,
  "wearPos3": 0,
  "members": true,
  "zoom2d": 919,
  "xOffset2d": 1,
  "yOffset2d": 5,
  "ambient": 0,
  "contrast": 0,
  "options": [
    null,
    null,
    "Take",
    null,
    null
  ],
  "interfaceOptions": [
    null,
    "Wear",
    "Dismantle",
    null,
    "Drop"
  ],
  "maleModel0": 230,
  "maleModel1": 43268,
  "maleModel2": -1,
  "maleOffset": 0,
  "maleHeadModel": 63,
  "maleHeadModel2": 43405,
  "femaleModel0": 403,
  "femaleModel1": 43299,
  "femaleModel2": -1,
  "femaleOffset": 0,
  "femaleHeadModel": 120,
  "femaleHeadModel2": 43405,
  "category": 2,
  "notedID": -1,
  "notedTemplate": -1,
  "team": 0,
  "weight": 453,
  "shiftClickDropIndex": -2,
  "boughtId": -1,
  "boughtTemplateId": -1,
  "placeholderId": 26474,
  "placeholderTemplateId": -1,
  "params": {
    "42": 1
  }
}