{
  "id": 26486,
  "name": "Rune crossbow (or)",
  "examine": "A weapon plucked from the shattered abyss.",
  "resizeX": 128,
  "resizeY": 128,
  "resizeZ": 128,
  "xan2d": 432,
  "yan2d": 258,
  "zan2d": 0,
  "cost": 16200,
  "isTradeable": false,
  "stackable": 0,
  "inventoryModel": 43430,
  "wearPos1": 3,
  "wearPos2": 0,
  "wearPos3": 0,
  "members": true,
  "colorFind": [
    6447,
    6443,
    6439,
    5656,
    5652,
    5904
  ],
  "colorReplace": [
    6806,
    7054,
    5002,
    -29395,
    -29403,
    -29284
  ],
  "zoom2d": 926,
  "xOffset2d": 0,
  "yOffset2d": 8,
  "ambient": 0,
  "contrast": 0,
  "options": [
    null,
    null,
    "Take",
    null,
    null
  ],
  "interfaceOptions": [
    null,
    "Wield",
    null,
    null,
    "Dismantle"
  ],
  "maleModel0": 43324,
  "maleModel1": -1,
  "maleModel2": -1,
  "maleOffset": 0,
  "maleHeadModel": -1,
  "maleHeadModel2": -1,
  "femaleModel0": 43319,
  "femaleModel1": -1,
  "femaleModel2": -1,
  "femaleOffset": 0,
  "femaleHeadModel": -1,
  "femaleHeadModel2": -1,
  "category": 37,
  "notedID": -1,
  "notedTemplate": -1,
  "team": 0,
  "weight": 6000,
  "shiftClickDropIndex": -2,
  "boughtId": -1,
  "boughtTemplateId": -1,
  "placeholderId": 26487,
  "placeholderTemplateId": -1,
  "params": {
    "258": 37,
    "23": 61
  }
}