{
  "id": 26494,
  "name": "Book of war (or)",
  "examine": "The short book of the wisdom of Bandos, plucked from the shattered abyss.",
  "resizeX": 128,
  "resizeY": 128,
  "resizeZ": 128,
  "xan2d": 244,
  "yan2d": 116,
  "zan2d": 0,
  "cost": 200,
  "isTradeable": false,
  "stackable": 0,
  "inventoryModel": 43432,
  "wearPos1": 5,
  "wearPos2": 0,
  "wearPos3": 0,
  "members": true,
  "colorFind": [
    29491,
    -22370,
    29101,
    29235,
    29093,
    -22380
  ],
  "colorReplace": [
    11976,
    8478,
    11953,
    11957,
    11943,
    8472
  ],
  "zoom2d": 830,
  "xOffset2d": 1,
  "yOffset2d": -21,
  "ambient": 0,
  "contrast": 0,
  "options": [
    null,
    null,
    "Take",
    null,
    null
  ],
  "interfaceOptions": [
    null,
    "Wield",
    "Preach",
    null,
    "Dismantle"
  ],
  "maleModel0": 43317,
  "maleModel1": -1,
  "maleModel2": -1,
  "maleOffset": 0,
  "maleHeadModel": -1,
  "maleHeadModel2": -1,
  "femaleModel0": 43323,
  "femaleModel1": -1,
  "femaleModel2": -1,
  "femaleOffset": 0,
  "femaleHeadModel": -1,
  "femaleHeadModel2": -1,
  "category": 0,
  "notedID": -1,
  "notedTemplate": -1,
  "team": 0,
  "weight": 1000,
  "shiftClickDropIndex": -2,
  "boughtId": -1,
  "boughtTemplateId": -1,
  "placeholderId": 26495,
  "placeholderTemplateId": -1,
  "params": {
    "258": 7,
    "451": "Read",
    "295": 1
  }
}