{
  "id": 26511,
  "name": "Shattered relics adamant trophy",
  "examine": "An Adamant trophy for competing in Leagues III - Shattered Relics",
  "resizeX": 128,
  "resizeY": 128,
  "resizeZ": 128,
  "xan2d": 69,
  "yan2d": 186,
  "zan2d": 0,
  "cost": 1,
  "isTradeable": false,
  "stackable": 0,
  "inventoryModel": 41102,
  "wearPos1": 3,
  "wearPos2": 5,
  "wearPos3": 0,
  "members": true,
  "colorFind": [
    -17060,
    -16595,
    -16618,
    -13376,
    -13649
  ],
  "colorReplace": [
    29646,
    3371,
    -22386,
    -22367,
    -22374
  ],
  "zoom2d": 1360,
  "xOffset2d": 0,
  "yOffset2d": 0,
  "ambient": 0,
  "contrast": 0,
  "options": [
    null,
    null,
    "Take",
    null,
    null
  ],
  "interfaceOptions": [
    null,
    "Wear",
    null,
    null,
    "Destroy"
  ],
  "maleModel0": 40967,
  "maleModel1": -1,
  "maleModel2": -1,
  "maleOffset": 0,
  "maleHeadModel": -1,
  "maleHeadModel2": -1,
  "femaleModel0": 40967,
  "femaleModel1": -1,
  "femaleModel2": -1,
  "femaleOffset": 6,
  "femaleHeadModel": -1,
  "femaleHeadModel2": -1,
  "category": 55,
  "notedID": -1,
  "notedTemplate": -1,
  "team": 0,
  "weight": 1500,
  "shiftClickDropIndex": -2,
  "boughtId": -1,
  "boughtTemplateId": -1,
  "placeholderId": 26512,
  "placeholderTemplateId": -1,
  "params": {
    "451": "Trophy Emote",
    "916": 3,
    "917": 15575,
    "918": 5,
    "295": 1
  }
}