{
  "id": 26602,
  "name": "Osman's report",
  "examine": "Osman's trade report for Ali Morrisane.",
  "resizeX": 128,
  "resizeY": 128,
  "resizeZ": 128,
  "xan2d": 380,
  "yan2d": 120,
  "zan2d": 0,
  "cost": 1,
  "isTradeable": true,
  "stackable": 0,
  "inventoryModel": 2675,
  "wearPos1": 0,
  "wearPos2": 0,
  "wearPos3": 0,
  "members": false,
  "colorFind": [
    7070,
    10351,
    960
  ],
  "colorReplace": [
    5679,
    8534,
    1847
  ],
  "zoom2d": 1040,
  "xOffset2d": 1,
  "yOffset2d": 7,
  "ambient": 0,
  "contrast": 0,
  "options": [
    null,
    null,
    "Take",
    null,
    null
  ],
  "interfaceOptions": [
    "Read",
    null,
    null,
    null,
    "Destroy"
  ],
  "maleModel0": -1,
  "maleModel1": -1,
  "maleModel2": -1,
  "maleOffset": 0,
  "maleHeadModel": -1,
  "maleHeadModel2": -1,
  "femaleModel0": -1,
  "femaleModel1": -1,
  "femaleModel2": -1,
  "femaleOffset": 0,
  "femaleHeadModel": -1,
  "femaleHeadModel2": -1,
  "category": 0,
  "notedID": 26603,
  "notedTemplate": -1,
  "team": 0,
  "weight": 5,
  "shiftClickDropIndex": -2,
  "boughtId": -1,
  "boughtTemplateId": -1,
  "placeholderId": 26604,
  "placeholderTemplateId": -1
}