{
  "id": 26708,
  "name": "Dragon claws (or)",
  "examine": "A set of pretty fighting claws.",
  "resizeX": 128,
  "resizeY": 128,
  "resizeZ": 128,
  "xan2d": 349,
  "yan2d": 15,
  "zan2d": 0,
  "cost": 205000,
  "isTradeable": false,
  "stackable": 0,
  "inventoryModel": 45115,
  "wearPos1": 3,
  "wearPos2": 5,
  "wearPos3": 0,
  "members": true,
  "colorFind": [
    929
  ],
  "colorReplace": [
    17366
  ],
  "zoom2d": 1014,
  "xOffset2d": 0,
  "yOffset2d": 9,
  "ambient": 0,
  "contrast": 0,
  "options": [
    null,
    null,
    "Take",
    null,
    null
  ],
  "interfaceOptions": [
    null,
    "Wield",
    null,
    null,
    "Dismantle"
  ],
  "maleModel0": 45006,
  "maleModel1": -1,
  "maleModel2": -1,
  "maleOffset": 0,
  "maleHeadModel": -1,
  "maleHeadModel2": -1,
  "femaleModel0": 45006,
  "femaleModel1": -1,
  "femaleModel2": -1,
  "femaleOffset": 6,
  "femaleHeadModel": -1,
  "femaleHeadModel2": -1,
  "category": 65,
  "notedID": -1,
  "notedTemplate": -1,
  "team": 0,
  "weight": 907,
  "shiftClickDropIndex": -2,
  "boughtId": -1,
  "boughtTemplateId": -1,
  "placeholderId": 27093,
  "placeholderTemplateId": -1
}