{
  "id": 26768,
  "name": "Archers ring (i)",
  "examine": "A fabled ring that improves the wearer's skill with a bow...",
  "resizeX": 128,
  "resizeY": 128,
  "resizeZ": 128,
  "xan2d": 332,
  "yan2d": 1904,
  "zan2d": 0,
  "cost": 10000,
  "isTradeable": false,
  "stackable": 0,
  "inventoryModel": 21848,
  "wearPos1": 12,
  "wearPos2": 0,
  "wearPos3": 0,
  "members": true,
  "zoom2d": 630,
  "xOffset2d": 4,
  "yOffset2d": -14,
  "ambient": 0,
  "contrast": 0,
  "options": [
    null,
    null,
    "Take",
    null,
    null
  ],
  "interfaceOptions": [
    null,
    "Wear",
    null,
    "Uncharge",
    "Drop"
  ],
  "maleModel0": -1,
  "maleModel1": -1,
  "maleModel2": -1,
  "maleOffset": 0,
  "maleHeadModel": -1,
  "maleHeadModel2": -1,
  "femaleModel0": -1,
  "femaleModel1": -1,
  "femaleModel2": -1,
  "femaleOffset": 0,
  "femaleHeadModel": -1,
  "femaleHeadModel2": -1,
  "category": 0,
  "notedID": -1,
  "notedTemplate": -1,
  "team": 0,
  "weight": 4,
  "shiftClickDropIndex": -2,
  "boughtId": -1,
  "boughtTemplateId": -1,
  "placeholderId": 27136,
  "placeholderTemplateId": -1
}