{
  "id": 26811,
  "name": "Abyssal red dye",
  "examine": "A strange red dye made from abyssal materials.",
  "resizeX": 128,
  "resizeY": 128,
  "resizeZ": 128,
  "xan2d": 124,
  "yan2d": 1920,
  "zan2d": 0,
  "cost": 3000,
  "isTradeable": false,
  "stackable": 0,
  "inventoryModel": 39657,
  "wearPos1": 0,
  "wearPos2": 0,
  "wearPos3": 0,
  "members": true,
  "colorFind": [
    939,
    547,
    278
  ],
  "colorReplace": [
    -4181,
    -5597,
    -6890
  ],
  "zoom2d": 760,
  "xOffset2d": 0,
  "yOffset2d": 1,
  "ambient": 0,
  "contrast": 0,
  "options": [
    null,
    null,
    "Take",
    null,
    null
  ],
  "interfaceOptions": [
    null,
    null,
    null,
    null,
    "Drop"
  ],
  "maleModel0": -1,
  "maleModel1": -1,
  "maleModel2": -1,
  "maleOffset": 0,
  "maleHeadModel": -1,
  "maleHeadModel2": -1,
  "femaleModel0": -1,
  "femaleModel1": -1,
  "femaleModel2": -1,
  "femaleOffset": 0,
  "femaleHeadModel": -1,
  "femaleHeadModel2": -1,
  "category": 0,
  "notedID": -1,
  "notedTemplate": -1,
  "team": 0,
  "weight": 20,
  "shiftClickDropIndex": -2,
  "boughtId": -1,
  "boughtTemplateId": -1,
  "placeholderId": 26812,
  "placeholderTemplateId": -1,
  "params": {
    "295": 1
  }
}