{
  "id": 26824,
  "name": "Abyssal lantern (normal logs)",
  "examine": "A lantern containing power from the Abyss. It's been lit with some logs.",
  "resizeX": 128,
  "resizeY": 128,
  "resizeZ": 128,
  "xan2d": 78,
  "yan2d": 722,
  "zan2d": 0,
  "cost": 100,
  "isTradeable": false,
  "stackable": 0,
  "inventoryModel": 43977,
  "wearPos1": 5,
  "wearPos2": 0,
  "wearPos3": 0,
  "members": true,
  "colorFind": [
    -11810,
    -11328
  ],
  "colorReplace": [
    6697,
    5066
  ],
  "zoom2d": 1180,
  "xOffset2d": 0,
  "yOffset2d": -2,
  "ambient": 0,
  "contrast": 0,
  "options": [
    null,
    null,
    "Take",
    null,
    null
  ],
  "interfaceOptions": [
    null,
    "Wield",
    "Extinguish",
    "Inspect",
    "Destroy"
  ],
  "maleModel0": 43909,
  "maleModel1": 43906,
  "maleModel2": -1,
  "maleOffset": 0,
  "maleHeadModel": -1,
  "maleHeadModel2": -1,
  "femaleModel0": 43907,
  "femaleModel1": 43905,
  "femaleModel2": -1,
  "femaleOffset": 0,
  "femaleHeadModel": -1,
  "femaleHeadModel2": -1,
  "category": 1612,
  "notedID": -1,
  "notedTemplate": -1,
  "team": 0,
  "weight": 500,
  "shiftClickDropIndex": -2,
  "boughtId": -1,
  "boughtTemplateId": -1,
  "placeholderId": 26825,
  "placeholderTemplateId": -1,
  "params": {
    "436": 1,
    "1642": 2097,
    "295": 1
  }
}