{
  "id": 26860,
  "name": "Robe top of the eye (red)",
  "examine": "The perfect robe top for runecrafting.",
  "resizeX": 128,
  "resizeY": 128,
  "resizeZ": 128,
  "xan2d": 532,
  "yan2d": 0,
  "zan2d": 0,
  "cost": 350,
  "isTradeable": false,
  "stackable": 0,
  "inventoryModel": 44102,
  "wearPos1": 4,
  "wearPos2": 6,
  "wearPos3": 0,
  "members": true,
  "colorFind": [
    10295,
    10291,
    9137,
    5045
  ],
  "colorReplace": [
    24,
    20,
    933,
    -3170
  ],
  "zoom2d": 1414,
  "xOffset2d": 0,
  "yOffset2d": 14,
  "ambient": 0,
  "contrast": 0,
  "options": [
    null,
    null,
    "Take",
    null,
    null
  ],
  "interfaceOptions": [
    null,
    "Wear",
    "Revert",
    null,
    "Drop"
  ],
  "maleModel0": 43894,
  "maleModel1": 43893,
  "maleModel2": -1,
  "maleOffset": 0,
  "maleHeadModel": -1,
  "maleHeadModel2": -1,
  "femaleModel0": 43903,
  "femaleModel1": 43902,
  "femaleModel2": -1,
  "femaleOffset": 0,
  "femaleHeadModel": -1,
  "femaleHeadModel2": -1,
  "category": 1613,
  "notedID": -1,
  "notedTemplate": -1,
  "team": 0,
  "weight": 600,
  "shiftClickDropIndex": -2,
  "boughtId": -1,
  "boughtTemplateId": -1,
  "placeholderId": 26861,
  "placeholderTemplateId": -1,
  "params": {
    "1600": 1,
    "295": 1
  }
}