{
  "id": 26920,
  "name": "Big bucket of camel milk",
  "examine": "It's a big ol' bucket, full of camel milk.",
  "resizeX": 200,
  "resizeY": 200,
  "resizeZ": 200,
  "xan2d": 205,
  "yan2d": 1556,
  "zan2d": 0,
  "cost": 6,
  "isTradeable": false,
  "stackable": 0,
  "inventoryModel": 2504,
  "wearPos1": 0,
  "wearPos2": 0,
  "wearPos3": 0,
  "members": false,
  "colorFind": [
    -25702
  ],
  "colorReplace": [
    127
  ],
  "zoom2d": 1415,
  "xOffset2d": 0,
  "yOffset2d": -29,
  "ambient": 0,
  "contrast": 0,
  "options": [
    null,
    null,
    "Take",
    null,
    null
  ],
  "interfaceOptions": [
    null,
    null,
    "Drink",
    "Empty",
    "Destroy"
  ],
  "maleModel0": -1,
  "maleModel1": -1,
  "maleModel2": -1,
  "maleOffset": 0,
  "maleHeadModel": -1,
  "maleHeadModel2": -1,
  "femaleModel0": -1,
  "femaleModel1": -1,
  "femaleModel2": -1,
  "femaleOffset": 0,
  "femaleHeadModel": -1,
  "femaleHeadModel2": -1,
  "category": 0,
  "notedID": -1,
  "notedTemplate": -1,
  "team": 0,
  "weight": 4400,
  "shiftClickDropIndex": -2,
  "boughtId": -1,
  "boughtTemplateId": -1,
  "placeholderId": -1,
  "placeholderTemplateId": -1,
  "params": {
    "295": 1,
    "59": 1
  }
}