{
  "id": 26937,
  "name": "Easter hat",
  "examine": "A nice easter hat.",
  "resizeX": 128,
  "resizeY": 128,
  "resizeZ": 128,
  "xan2d": 177,
  "yan2d": 1947,
  "zan2d": 0,
  "cost": 70,
  "isTradeable": false,
  "stackable": 0,
  "inventoryModel": 44157,
  "wearPos1": 0,
  "wearPos2": 0,
  "wearPos3": 0,
  "members": false,
  "zoom2d": 1404,
  "xOffset2d": 2,
  "yOffset2d": -23,
  "ambient": 0,
  "contrast": 0,
  "options": [
    null,
    null,
    "Take",
    null,
    null
  ],
  "interfaceOptions": [
    null,
    "Wear",
    null,
    null,
    "Destroy"
  ],
  "maleModel0": 44138,
  "maleModel1": -1,
  "maleModel2": -1,
  "maleOffset": 0,
  "maleHeadModel": 44159,
  "maleHeadModel2": -1,
  "femaleModel0": 44139,
  "femaleModel1": -1,
  "femaleModel2": -1,
  "femaleOffset": 0,
  "femaleHeadModel": 44160,
  "femaleHeadModel2": -1,
  "category": 0,
  "notedID": -1,
  "notedTemplate": -1,
  "team": 0,
  "weight": 500,
  "shiftClickDropIndex": -2,
  "boughtId": -1,
  "boughtTemplateId": -1,
  "placeholderId": 26938,
  "placeholderTemplateId": -1,
  "params": {
    "295": 1
  }
}