{
  "id": 27169,
  "name": "Berserker helm",
  "examine": "This helmet is worn by berserkers.",
  "resizeX": 128,
  "resizeY": 128,
  "resizeZ": 128,
  "xan2d": 24,
  "yan2d": 120,
  "zan2d": 0,
  "cost": 1,
  "isTradeable": false,
  "stackable": 0,
  "inventoryModel": 4276,
  "wearPos1": 0,
  "wearPos2": 8,
  "wearPos3": 0,
  "members": false,
  "zoom2d": 890,
  "xOffset2d": 2,
  "yOffset2d": 0,
  "ambient": 0,
  "contrast": 0,
  "options": [
    null,
    null,
    "Take",
    null,
    null
  ],
  "interfaceOptions": [
    null,
    "Wear",
    null,
    null,
    "Drop"
  ],
  "maleModel0": 215,
  "maleModel1": 4222,
  "maleModel2": 4219,
  "maleOffset": 0,
  "maleHeadModel": 4210,
  "maleHeadModel2": 4212,
  "femaleModel0": 391,
  "femaleModel1": 4230,
  "femaleModel2": 4228,
  "femaleOffset": 0,
  "femaleHeadModel": 4216,
  "femaleHeadModel2": 4212,
  "category": 2,
  "notedID": -1,
  "notedTemplate": -1,
  "team": 0,
  "weight": 2721,
  "shiftClickDropIndex": -2,
  "boughtId": -1,
  "boughtTemplateId": -1,
  "placeholderId": -1,
  "placeholderTemplateId": -1,
  "params": {
    "59": 1,
    "403": 1,
    "1564": 0,
    "295": 1
  }
}