{
  "id": 27253,
  "name": "Elidinis' ward (or)",
  "examine": "A fortified ward once used by Elidinis herself.",
  "resizeX": 128,
  "resizeY": 128,
  "resizeZ": 128,
  "xan2d": 571,
  "yan2d": 1825,
  "zan2d": 0,
  "cost": 5850000,
  "isTradeable": false,
  "stackable": 0,
  "inventoryModel": 46486,
  "wearPos1": 5,
  "wearPos2": 0,
  "wearPos3": 0,
  "members": true,
  "zoom2d": 1368,
  "xOffset2d": 3,
  "yOffset2d": 3,
  "ambient": 12,
  "contrast": 35,
  "options": [
    null,
    null,
    "Take",
    null,
    null
  ],
  "interfaceOptions": [
    null,
    "Wield",
    "Dismantle",
    null,
    "Drop"
  ],
  "maleModel0": 45280,
  "maleModel1": -1,
  "maleModel2": -1,
  "maleOffset": 0,
  "maleHeadModel": -1,
  "maleHeadModel2": -1,
  "femaleModel0": 45283,
  "femaleModel1": -1,
  "femaleModel2": -1,
  "femaleOffset": 0,
  "femaleHeadModel": -1,
  "femaleHeadModel2": -1,
  "category": 18,
  "notedID": -1,
  "notedTemplate": -1,
  "team": 0,
  "weight": 3708,
  "shiftClickDropIndex": -2,
  "boughtId": -1,
  "boughtTemplateId": -1,
  "placeholderId": 27254,
  "placeholderTemplateId": -1,
  "params": {
    "434": 6,
    "435": 1,
    "436": 80,
    "437": 80,
    "613": 80,
    "191": 5
  }
}