{
  "id": 27469,
  "name": "Treat cauldron",
  "examine": "Perfect for collecting treats while Trick-or-Treating!",
  "resizeX": 128,
  "resizeY": 128,
  "resizeZ": 128,
  "xan2d": 15,
  "yan2d": 2036,
  "zan2d": 0,
  "cost": 1,
  "isTradeable": false,
  "stackable": 0,
  "inventoryModel": 46736,
  "wearPos1": 5,
  "wearPos2": 0,
  "wearPos3": 0,
  "members": false,
  "colorFind": [
    4027,
    4019
  ],
  "colorReplace": [
    -7788,
    -7912
  ],
  "zoom2d": 880,
  "xOffset2d": 0,
  "yOffset2d": 0,
  "ambient": 0,
  "contrast": 0,
  "options": [
    null,
    null,
    "Take",
    null,
    null
  ],
  "interfaceOptions": [
    null,
    "Wield",
    "Check",
    "Change",
    "Destroy"
  ],
  "maleModel0": 46651,
  "maleModel1": -1,
  "maleModel2": -1,
  "maleOffset": 0,
  "maleHeadModel": -1,
  "maleHeadModel2": -1,
  "femaleModel0": 46651,
  "femaleModel1": -1,
  "femaleModel2": -1,
  "femaleOffset": 6,
  "femaleHeadModel": -1,
  "femaleHeadModel2": -1,
  "category": 1718,
  "notedID": -1,
  "notedTemplate": -1,
  "team": 0,
  "weight": 100,
  "shiftClickDropIndex": -2,
  "boughtId": -1,
  "boughtTemplateId": -1,
  "placeholderId": 27470,
  "placeholderTemplateId": -1,
  "params": {
    "451": "Check",
    "452": "Change",
    "453": "Accept trick-or-treat",
    "454": "Emote",
    "295": 1
  }
}