{
  "id": 27483,
  "name": "Terrifying charm",
  "examine": "Anyone who wears this must be terrifying.",
  "resizeX": 128,
  "resizeY": 128,
  "resizeZ": 128,
  "xan2d": 534,
  "yan2d": 114,
  "zan2d": 0,
  "cost": 0,
  "isTradeable": false,
  "stackable": 0,
  "inventoryModel": 46708,
  "wearPos1": 13,
  "wearPos2": 0,
  "wearPos3": 0,
  "members": false,
  "zoom2d": 1280,
  "xOffset2d": 4,
  "yOffset2d": -9,
  "ambient": 30,
  "contrast": 20,
  "options": [
    null,
    null,
    "Take",
    null,
    null
  ],
  "interfaceOptions": [
    null,
    "Equip",
    "Check",
    null,
    "Destroy"
  ],
  "maleModel0": -1,
  "maleModel1": -1,
  "maleModel2": -1,
  "maleOffset": 0,
  "maleHeadModel": -1,
  "maleHeadModel2": -1,
  "femaleModel0": -1,
  "femaleModel1": -1,
  "femaleModel2": -1,
  "femaleOffset": 0,
  "femaleHeadModel": -1,
  "femaleHeadModel2": -1,
  "category": 0,
  "notedID": -1,
  "notedTemplate": -1,
  "team": 0,
  "weight": 90,
  "shiftClickDropIndex": -2,
  "boughtId": -1,
  "boughtTemplateId": -1,
  "placeholderId": 27484,
  "placeholderTemplateId": -1,
  "params": {
    "451": "Check",
    "295": 1
  }
}