{
  "id": 27553,
  "name": "Ghommal's avernic defender 6 (l)",
  "examine": "A defensive weapon with prestigious ornamentation.",
  "resizeX": 128,
  "resizeY": 128,
  "resizeZ": 128,
  "xan2d": 317,
  "yan2d": 210,
  "zan2d": 0,
  "cost": 2500000,
  "isTradeable": false,
  "stackable": 0,
  "inventoryModel": 46791,
  "wearPos1": 5,
  "wearPos2": 0,
  "wearPos3": 0,
  "members": true,
  "zoom2d": 700,
  "xOffset2d": 5,
  "yOffset2d": 40,
  "ambient": 0,
  "contrast": 0,
  "options": [
    null,
    null,
    "Take",
    null,
    null
  ],
  "interfaceOptions": [
    null,
    "Wield",
    "Destinations",
    "Dismantle",
    "Drop"
  ],
  "maleModel0": 46800,
  "maleModel1": -1,
  "maleModel2": -1,
  "maleOffset": 0,
  "maleHeadModel": -1,
  "maleHeadModel2": -1,
  "femaleModel0": 46795,
  "femaleModel1": -1,
  "femaleModel2": -1,
  "femaleOffset": 0,
  "femaleHeadModel": -1,
  "femaleHeadModel2": -1,
  "category": 494,
  "notedID": -1,
  "notedTemplate": -1,
  "team": 0,
  "weight": 453,
  "shiftClickDropIndex": -2,
  "boughtId": -1,
  "boughtTemplateId": -1,
  "placeholderId": -1,
  "placeholderTemplateId": -1,
  "params": {
    "452": "Mor Ul Rek",
    "258": 27,
    "451": "Trollheim"
  }
}