{
  "id": 27564,
  "name": "Santa's list",
  "examine": "Be sure to check it twice.",
  "resizeX": 128,
  "resizeY": 128,
  "resizeZ": 128,
  "xan2d": 424,
  "yan2d": 983,
  "zan2d": 0,
  "cost": 1,
  "isTradeable": false,
  "stackable": 0,
  "inventoryModel": 46945,
  "wearPos1": 1,
  "wearPos2": 0,
  "wearPos3": 0,
  "members": false,
  "zoom2d": 2012,
  "xOffset2d": 3,
  "yOffset2d": 3,
  "ambient": 0,
  "contrast": 0,
  "options": [
    null,
    null,
    "Take",
    null,
    null
  ],
  "interfaceOptions": [
    null,
    "Wear",
    "Check",
    null,
    "Destroy"
  ],
  "maleModel0": 46835,
  "maleModel1": -1,
  "maleModel2": -1,
  "maleOffset": 0,
  "maleHeadModel": -1,
  "maleHeadModel2": -1,
  "femaleModel0": 46852,
  "femaleModel1": -1,
  "femaleModel2": -1,
  "femaleOffset": 0,
  "femaleHeadModel": -1,
  "femaleHeadModel2": -1,
  "category": 0,
  "notedID": -1,
  "notedTemplate": -1,
  "team": 0,
  "weight": 3,
  "shiftClickDropIndex": -2,
  "boughtId": -1,
  "boughtTemplateId": -1,
  "placeholderId": 27565,
  "placeholderTemplateId": -1,
  "params": {
    "451": "Check",
    "295": 1
  }
}