{
  "id": 27612,
  "name": "Venator bow (uncharged)",
  "examine": "A bow used by hunters from a forgotten empire.",
  "resizeX": 128,
  "resizeY": 128,
  "resizeZ": 128,
  "xan2d": 720,
  "yan2d": 1509,
  "zan2d": 0,
  "cost": 750000,
  "isTradeable": true,
  "stackable": 0,
  "inventoryModel": 47097,
  "wearPos1": 3,
  "wearPos2": 5,
  "wearPos3": 0,
  "members": true,
  "zoom2d": 1382,
  "xOffset2d": 5,
  "yOffset2d": -3,
  "ambient": 0,
  "contrast": 0,
  "options": [
    null,
    null,
    "Take",
    null,
    null
  ],
  "interfaceOptions": [
    null,
    "Wield",
    null,
    null,
    "Drop"
  ],
  "maleModel0": 46961,
  "maleModel1": -1,
  "maleModel2": -1,
  "maleOffset": 0,
  "maleHeadModel": -1,
  "maleHeadModel2": -1,
  "femaleModel0": 46960,
  "femaleModel1": -1,
  "femaleModel2": -1,
  "femaleOffset": 0,
  "femaleHeadModel": -1,
  "femaleHeadModel2": -1,
  "category": 64,
  "notedID": 27613,
  "notedTemplate": -1,
  "team": 0,
  "weight": 4500,
  "shiftClickDropIndex": -2,
  "boughtId": -1,
  "boughtTemplateId": -1,
  "placeholderId": -1,
  "placeholderTemplateId": -1,
  "params": {
    "1562": 3,
    "434": 4,
    "1563": 80,
    "1564": 3,
    "436": 80,
    "23": 80
  }
}