{
  "id": 27657,
  "name": "Ursine chainmace (u)",
  "examine": "An ancient and peculiar chainmace, corrupted by the power of Callisto.",
  "resizeX": 128,
  "resizeY": 128,
  "resizeZ": 128,
  "xan2d": 1495,
  "yan2d": 256,
  "zan2d": 0,
  "cost": 175000,
  "isTradeable": true,
  "stackable": 0,
  "inventoryModel": 47413,
  "wearPos1": 3,
  "wearPos2": 0,
  "wearPos3": 0,
  "members": true,
  "zoom2d": 1351,
  "xOffset2d": 8,
  "yOffset2d": -14,
  "ambient": 0,
  "contrast": 0,
  "options": [
    null,
    null,
    "Take",
    null,
    null
  ],
  "interfaceOptions": [
    null,
    "Wield",
    "Dismantle",
    null,
    "Drop"
  ],
  "maleModel0": 47213,
  "maleModel1": -1,
  "maleModel2": -1,
  "maleOffset": 0,
  "maleHeadModel": -1,
  "maleHeadModel2": -1,
  "femaleModel0": 47213,
  "femaleModel1": -1,
  "femaleModel2": -1,
  "femaleOffset": 6,
  "femaleHeadModel": -1,
  "femaleHeadModel2": -1,
  "category": 39,
  "notedID": 27658,
  "notedTemplate": -1,
  "team": 0,
  "weight": 2000,
  "shiftClickDropIndex": -2,
  "boughtId": -1,
  "boughtTemplateId": -1,
  "placeholderId": 27659,
  "placeholderTemplateId": -1,
  "params": {
    "1733": "Ursine chainmace",
    "41": 1,
    "23": 70
  }
}