{
  "id": 27673,
  "name": "Skull of vet'ion",
  "examine": "The skull of an oathbound warrior. Severed from its body, it still maintains some power.",
  "resizeX": 128,
  "resizeY": 128,
  "resizeZ": 128,
  "xan2d": 240,
  "yan2d": 114,
  "zan2d": 0,
  "cost": 80000,
  "isTradeable": true,
  "stackable": 0,
  "inventoryModel": 47417,
  "wearPos1": 0,
  "wearPos2": 0,
  "wearPos3": 0,
  "members": true,
  "zoom2d": 1151,
  "xOffset2d": 3,
  "yOffset2d": -93,
  "ambient": 0,
  "contrast": 0,
  "options": [
    null,
    null,
    "Take",
    null,
    null
  ],
  "interfaceOptions": [
    null,
    null,
    null,
    null,
    "Drop"
  ],
  "maleModel0": -1,
  "maleModel1": -1,
  "maleModel2": -1,
  "maleOffset": 0,
  "maleHeadModel": -1,
  "maleHeadModel2": -1,
  "femaleModel0": -1,
  "femaleModel1": -1,
  "femaleModel2": -1,
  "femaleOffset": 0,
  "femaleHeadModel": -1,
  "femaleHeadModel2": -1,
  "category": 0,
  "notedID": 27674,
  "notedTemplate": -1,
  "team": 0,
  "weight": 2000,
  "shiftClickDropIndex": -2,
  "boughtId": -1,
  "boughtTemplateId": -1,
  "placeholderId": 27675,
  "placeholderTemplateId": -1,
  "params": {
    "1733": "Skull of Vet'ion"
  }
}