{
  "id": 27709,
  "name": "Crystal body",
  "examine": "Sturdier than it looks.",
  "resizeX": 128,
  "resizeY": 128,
  "resizeZ": 128,
  "xan2d": 488,
  "yan2d": 0,
  "zan2d": 0,
  "cost": 1500000,
  "isTradeable": false,
  "stackable": 0,
  "inventoryModel": 38766,
  "wearPos1": 4,
  "wearPos2": 6,
  "wearPos3": 0,
  "members": true,
  "colorFind": [
    -27417,
    -27423,
    -32479,
    -32484,
    -32725,
    -32593
  ],
  "colorReplace": [
    111,
    99,
    57,
    51,
    45,
    66
  ],
  "zoom2d": 1284,
  "xOffset2d": -1,
  "yOffset2d": 5,
  "ambient": 0,
  "contrast": 0,
  "options": [
    null,
    null,
    "Take",
    null,
    null
  ],
  "interfaceOptions": [
    null,
    "Wear",
    "Check",
    "Revert",
    "Drop"
  ],
  "maleModel0": 38101,
  "maleModel1": -1,
  "maleModel2": -1,
  "maleOffset": 0,
  "maleHeadModel": -1,
  "maleHeadModel2": -1,
  "femaleModel0": 38237,
  "femaleModel1": -1,
  "femaleModel2": -1,
  "femaleOffset": 0,
  "femaleHeadModel": -1,
  "femaleHeadModel2": -1,
  "category": 7,
  "notedID": -1,
  "notedTemplate": -1,
  "team": 0,
  "weight": 2000,
  "shiftClickDropIndex": -2,
  "boughtId": -1,
  "boughtTemplateId": -1,
  "placeholderId": 27710,
  "placeholderTemplateId": -1,
  "params": {
    "434": 1,
    "435": 16,
    "451": "Check",
    "1564": 4,
    "436": 70,
    "437": 50
  }
}