{
  "id": 27818,
  "name": "Gnome child plush",
  "examine": "An adorable plushy based on a familiar face!",
  "resizeX": 128,
  "resizeY": 128,
  "resizeZ": 128,
  "xan2d": 162,
  "yan2d": 1885,
  "zan2d": 2027,
  "cost": 1,
  "isTradeable": false,
  "stackable": 0,
  "inventoryModel": 47519,
  "wearPos1": 5,
  "wearPos2": 0,
  "wearPos3": 0,
  "members": false,
  "zoom2d": 888,
  "xOffset2d": 1,
  "yOffset2d": -4,
  "ambient": 0,
  "contrast": 0,
  "options": [
    null,
    null,
    "Take",
    null,
    null
  ],
  "interfaceOptions": [
    null,
    "Wield",
    null,
    "Change-style",
    "Destroy"
  ],
  "maleModel0": 47447,
  "maleModel1": -1,
  "maleModel2": -1,
  "maleOffset": 0,
  "maleHeadModel": -1,
  "maleHeadModel2": -1,
  "femaleModel0": 47448,
  "femaleModel1": -1,
  "femaleModel2": -1,
  "femaleOffset": 0,
  "femaleHeadModel": -1,
  "femaleHeadModel2": -1,
  "category": 1751,
  "notedID": -1,
  "notedTemplate": -1,
  "team": 0,
  "weight": 1,
  "shiftClickDropIndex": -2,
  "boughtId": -1,
  "boughtTemplateId": -1,
  "placeholderId": -1,
  "placeholderTemplateId": -1,
  "params": {
    "295": 1,
    "451": "Change-style"
  }
}