{
  "id": 27822,
  "name": "Oldschool jumper",
  "examine": "A cosy piece of Oldschool memorabilia!",
  "resizeX": 128,
  "resizeY": 128,
  "resizeZ": 128,
  "xan2d": 539,
  "yan2d": 0,
  "zan2d": 0,
  "cost": 1,
  "isTradeable": false,
  "stackable": 0,
  "inventoryModel": 47503,
  "wearPos1": 4,
  "wearPos2": 6,
  "wearPos3": 0,
  "members": false,
  "zoom2d": 1217,
  "xOffset2d": 1,
  "yOffset2d": 1,
  "ambient": 0,
  "contrast": 0,
  "options": [
    null,
    null,
    "Take",
    null,
    null
  ],
  "interfaceOptions": [
    null,
    "Wear",
    null,
    "Change-style",
    "Destroy"
  ],
  "maleModel0": 47434,
  "maleModel1": -1,
  "maleModel2": -1,
  "maleOffset": 0,
  "maleHeadModel": -1,
  "maleHeadModel2": -1,
  "femaleModel0": 47440,
  "femaleModel1": -1,
  "femaleModel2": -1,
  "femaleOffset": 0,
  "femaleHeadModel": -1,
  "femaleHeadModel2": -1,
  "category": 1752,
  "notedID": -1,
  "notedTemplate": -1,
  "team": 0,
  "weight": 300,
  "shiftClickDropIndex": -2,
  "boughtId": -1,
  "boughtTemplateId": -1,
  "placeholderId": 27830,
  "placeholderTemplateId": -1,
  "params": {
    "295": 1,
    "451": "Change-style"
  }
}