{
  "id": 27837,
  "name": "Morrigan's leather body (bh)",
  "examine": "A powerful leather body.",
  "resizeX": 128,
  "resizeY": 128,
  "resizeZ": 128,
  "xan2d": 548,
  "yan2d": 2,
  "zan2d": 0,
  "cost": 500000,
  "isTradeable": false,
  "stackable": 0,
  "inventoryModel": 35985,
  "wearPos1": 4,
  "wearPos2": 6,
  "wearPos3": 0,
  "members": true,
  "zoom2d": 1312,
  "xOffset2d": 0,
  "yOffset2d": 1,
  "ambient": 25,
  "contrast": 0,
  "options": [
    null,
    null,
    "Take",
    null,
    null
  ],
  "interfaceOptions": [
    null,
    "Wear",
    "Uncharge",
    null,
    "Drop"
  ],
  "maleModel0": 35954,
  "maleModel1": -1,
  "maleModel2": -1,
  "maleOffset": 0,
  "maleHeadModel": -1,
  "maleHeadModel2": -1,
  "femaleModel0": 35963,
  "femaleModel1": -1,
  "femaleModel2": -1,
  "femaleOffset": 0,
  "femaleHeadModel": -1,
  "femaleHeadModel2": -1,
  "category": 7,
  "notedID": -1,
  "notedTemplate": -1,
  "team": 0,
  "weight": 6803,
  "shiftClickDropIndex": -2,
  "boughtId": -1,
  "boughtTemplateId": -1,
  "placeholderId": 27942,
  "placeholderTemplateId": -1,
  "params": {
    "1733": "Morrigan's Leather Body",
    "295": 1
  }
}