{
  "id": 27904,
  "name": "Vesta's longsword (bh)",
  "examine": "A powerful longsword.",
  "resizeX": 128,
  "resizeY": 128,
  "resizeZ": 128,
  "xan2d": 306,
  "yan2d": 1511,
  "zan2d": 0,
  "cost": 300000,
  "isTradeable": false,
  "stackable": 0,
  "inventoryModel": 35995,
  "wearPos1": 3,
  "wearPos2": 0,
  "wearPos3": 0,
  "members": true,
  "zoom2d": 1744,
  "xOffset2d": 1,
  "yOffset2d": 3,
  "ambient": 25,
  "contrast": 0,
  "options": [
    null,
    null,
    "Take",
    null,
    null
  ],
  "interfaceOptions": [
    null,
    "Wield",
    "Uncharge",
    null,
    "Drop"
  ],
  "maleModel0": 35969,
  "maleModel1": -1,
  "maleModel2": -1,
  "maleOffset": 0,
  "maleHeadModel": -1,
  "maleHeadModel2": -1,
  "femaleModel0": 35969,
  "femaleModel1": -1,
  "femaleModel2": -1,
  "femaleOffset": 6,
  "femaleHeadModel": -1,
  "femaleHeadModel2": -1,
  "category": 21,
  "notedID": -1,
  "notedTemplate": -1,
  "team": 0,
  "weight": 1814,
  "shiftClickDropIndex": -2,
  "boughtId": -1,
  "boughtTemplateId": -1,
  "placeholderId": 27905,
  "placeholderTemplateId": -1,
  "params": {
    "1733": "Vesta's Longsword",
    "295": 1
  }
}