{
  "id": 28009,
  "name": "Esoteric emblem (tier 7)",
  "examine": "An emblem from ancient times.",
  "resizeX": 128,
  "resizeY": 128,
  "resizeZ": 128,
  "xan2d": 0,
  "yan2d": 2047,
  "zan2d": 0,
  "cost": 506,
  "isTradeable": false,
  "stackable": 0,
  "inventoryModel": 3678,
  "wearPos1": 0,
  "wearPos2": 0,
  "wearPos3": 0,
  "members": true,
  "colorFind": [
    -24170,
    -22244,
    20,
    12,
    0,
    -22260
  ],
  "colorReplace": [
    547,
    538,
    532,
    528,
    522,
    262
  ],
  "zoom2d": 1280,
  "xOffset2d": 1,
  "yOffset2d": -7,
  "ambient": 15,
  "contrast": 5,
  "options": [
    null,
    null,
    "Take",
    null,
    null
  ],
  "interfaceOptions": [
    null,
    null,
    null,
    null,
    "Destroy"
  ],
  "maleModel0": -1,
  "maleModel1": -1,
  "maleModel2": -1,
  "maleOffset": 0,
  "maleHeadModel": -1,
  "maleHeadModel2": -1,
  "femaleModel0": -1,
  "femaleModel1": -1,
  "femaleModel2": -1,
  "femaleOffset": 0,
  "femaleHeadModel": -1,
  "femaleHeadModel2": -1,
  "category": 1768,
  "notedID": -1,
  "notedTemplate": -1,
  "team": 0,
  "weight": 100,
  "shiftClickDropIndex": -2,
  "boughtId": -1,
  "boughtTemplateId": -1,
  "placeholderId": 28010,
  "placeholderTemplateId": -1,
  "params": {
    "295": 1
  }
}