{
  "id": 28021,
  "name": "Dragon dagger (p)(cr)",
  "examine": "A powerful dagger.",
  "resizeX": 128,
  "resizeY": 128,
  "resizeZ": 128,
  "xan2d": 472,
  "yan2d": 1276,
  "zan2d": 0,
  "cost": 25000,
  "isTradeable": false,
  "stackable": 0,
  "inventoryModel": 48077,
  "wearPos1": 3,
  "wearPos2": 0,
  "wearPos3": 0,
  "members": true,
  "zoom2d": 760,
  "xOffset2d": 0,
  "yOffset2d": -4,
  "ambient": 0,
  "contrast": 0,
  "options": [
    null,
    null,
    "Take",
    null,
    null
  ],
  "interfaceOptions": [
    null,
    "Wield",
    null,
    null,
    "Dismantle"
  ],
  "maleModel0": 48021,
  "maleModel1": -1,
  "maleModel2": -1,
  "maleOffset": 0,
  "maleHeadModel": -1,
  "maleHeadModel2": -1,
  "femaleModel0": 48007,
  "femaleModel1": -1,
  "femaleModel2": -1,
  "femaleOffset": 0,
  "femaleHeadModel": -1,
  "femaleHeadModel2": -1,
  "category": 25,
  "notedID": -1,
  "notedTemplate": -1,
  "team": 0,
  "weight": 453,
  "shiftClickDropIndex": -2,
  "boughtId": -1,
  "boughtTemplateId": -1,
  "placeholderId": 28022,
  "placeholderTemplateId": -1,
  "params": {
    "295": 1
  }
}