{
  "id": 28033,
  "name": "Dragon longsword (cr)",
  "examine": "A very powerful sword.",
  "resizeX": 128,
  "resizeY": 128,
  "resizeZ": 128,
  "xan2d": 400,
  "yan2d": 360,
  "zan2d": 0,
  "cost": 101000,
  "isTradeable": false,
  "stackable": 0,
  "inventoryModel": 48074,
  "wearPos1": 3,
  "wearPos2": 0,
  "wearPos3": 0,
  "members": true,
  "zoom2d": 1570,
  "xOffset2d": 0,
  "yOffset2d": -5,
  "ambient": 0,
  "contrast": 0,
  "options": [
    null,
    null,
    "Take",
    null,
    null
  ],
  "interfaceOptions": [
    null,
    "Wield",
    null,
    null,
    "Dismantle"
  ],
  "maleModel0": 48022,
  "maleModel1": -1,
  "maleModel2": -1,
  "maleOffset": 0,
  "maleHeadModel": -1,
  "maleHeadModel2": -1,
  "femaleModel0": 48011,
  "femaleModel1": -1,
  "femaleModel2": -1,
  "femaleOffset": 0,
  "femaleHeadModel": -1,
  "femaleHeadModel2": -1,
  "category": 21,
  "notedID": -1,
  "notedTemplate": -1,
  "team": 0,
  "weight": 1814,
  "shiftClickDropIndex": -2,
  "boughtId": -1,
  "boughtTemplateId": -1,
  "placeholderId": 28034,
  "placeholderTemplateId": -1,
  "params": {
    "434": 0,
    "1564": 3,
    "436": 60,
    "295": 1
  }
}