{
  "id": 28043,
  "name": "Dragon spear (p)(cr)",
  "examine": "A poisoned dragon-tipped spear.",
  "resizeX": 128,
  "resizeY": 128,
  "resizeZ": 128,
  "xan2d": 1852,
  "yan2d": 13,
  "zan2d": 108,
  "cost": 63400,
  "isTradeable": false,
  "stackable": 0,
  "inventoryModel": 48066,
  "wearPos1": 3,
  "wearPos2": 5,
  "wearPos3": 0,
  "members": true,
  "zoom2d": 1579,
  "xOffset2d": 1,
  "yOffset2d": -3,
  "ambient": 0,
  "contrast": 0,
  "options": [
    null,
    null,
    "Take",
    null,
    null
  ],
  "interfaceOptions": [
    null,
    "Wield",
    null,
    null,
    "Dismantle"
  ],
  "maleModel0": 48014,
  "maleModel1": -1,
  "maleModel2": -1,
  "maleOffset": 0,
  "maleHeadModel": -1,
  "maleHeadModel2": -1,
  "femaleModel0": 48013,
  "femaleModel1": -1,
  "femaleModel2": -1,
  "femaleOffset": 0,
  "femaleHeadModel": -1,
  "femaleHeadModel2": -1,
  "category": 36,
  "notedID": -1,
  "notedTemplate": -1,
  "team": 0,
  "weight": 2267,
  "shiftClickDropIndex": -2,
  "boughtId": -1,
  "boughtTemplateId": -1,
  "placeholderId": 28044,
  "placeholderTemplateId": -1,
  "params": {
    "295": 1
  }
}