{
  "id": 28067,
  "name": "Fighter torso (or)",
  "examine": "A Penance Fighter torso armour.",
  "resizeX": 128,
  "resizeY": 128,
  "resizeZ": 128,
  "xan2d": 495,
  "yan2d": 2038,
  "zan2d": 0,
  "cost": 65006,
  "isTradeable": false,
  "stackable": 0,
  "inventoryModel": 48055,
  "wearPos1": 4,
  "wearPos2": 6,
  "wearPos3": 0,
  "members": true,
  "zoom2d": 1151,
  "xOffset2d": 1,
  "yOffset2d": 1,
  "ambient": 0,
  "contrast": 0,
  "options": [
    null,
    null,
    "Take",
    null,
    null
  ],
  "interfaceOptions": [
    null,
    "Wear",
    null,
    null,
    "Dismantle"
  ],
  "maleModel0": 47971,
  "maleModel1": -1,
  "maleModel2": -1,
  "maleOffset": 0,
  "maleHeadModel": -1,
  "maleHeadModel2": -1,
  "femaleModel0": 47988,
  "femaleModel1": -1,
  "femaleModel2": -1,
  "femaleOffset": 0,
  "femaleHeadModel": -1,
  "femaleHeadModel2": -1,
  "category": 7,
  "notedID": -1,
  "notedTemplate": -1,
  "team": 0,
  "weight": 4000,
  "shiftClickDropIndex": -2,
  "boughtId": -1,
  "boughtTemplateId": -1,
  "placeholderId": 28068,
  "placeholderTemplateId": -1,
  "params": {
    "434": 1,
    "258": 41,
    "1564": 4,
    "436": 40,
    "295": 1
  }
}