{
  "id": 28094,
  "name": "Bounty crate (tier 7)",
  "examine": "Contains a lot of coins and supplies.",
  "resizeX": 128,
  "resizeY": 128,
  "resizeZ": 128,
  "xan2d": 235,
  "yan2d": 1779,
  "zan2d": 0,
  "cost": 500,
  "isTradeable": false,
  "stackable": 0,
  "inventoryModel": 48130,
  "wearPos1": 0,
  "wearPos2": 0,
  "wearPos3": 0,
  "members": true,
  "colorFind": [
    5549,
    5532,
    5656,
    5772,
    103,
    937
  ],
  "colorReplace": [
    33,
    22,
    16,
    8,
    697,
    697
  ],
  "zoom2d": 2500,
  "xOffset2d": 0,
  "yOffset2d": -59,
  "ambient": 10,
  "contrast": 10,
  "options": [
    null,
    null,
    "Take",
    null,
    null
  ],
  "interfaceOptions": [
    "Open",
    null,
    null,
    null,
    "Drop"
  ],
  "maleModel0": -1,
  "maleModel1": -1,
  "maleModel2": -1,
  "maleOffset": 0,
  "maleHeadModel": -1,
  "maleHeadModel2": -1,
  "femaleModel0": -1,
  "femaleModel1": -1,
  "femaleModel2": -1,
  "femaleOffset": 0,
  "femaleHeadModel": -1,
  "femaleHeadModel2": -1,
  "category": 0,
  "notedID": -1,
  "notedTemplate": -1,
  "team": 0,
  "weight": 1285,
  "shiftClickDropIndex": -2,
  "boughtId": -1,
  "boughtTemplateId": -1,
  "placeholderId": 28095,
  "placeholderTemplateId": -1,
  "params": {
    "295": 1
  }
}