{
  "id": 28114,
  "name": "Colourful scarf",
  "examine": "A scarf woven from spare rainbow strands; emblazoned with a heart.",
  "resizeX": 128,
  "resizeY": 128,
  "resizeZ": 128,
  "xan2d": 550,
  "yan2d": 1818,
  "zan2d": 0,
  "cost": 80,
  "isTradeable": false,
  "stackable": 0,
  "inventoryModel": 48140,
  "wearPos1": 2,
  "wearPos2": 0,
  "wearPos3": 0,
  "members": false,
  "zoom2d": 1663,
  "xOffset2d": -1,
  "yOffset2d": 3,
  "ambient": 0,
  "contrast": 0,
  "options": [
    null,
    null,
    "Take",
    null,
    null
  ],
  "interfaceOptions": [
    null,
    "Wear",
    "Change-style",
    null,
    "Destroy"
  ],
  "maleModel0": 48104,
  "maleModel1": -1,
  "maleModel2": -1,
  "maleOffset": 0,
  "maleHeadModel": -1,
  "maleHeadModel2": -1,
  "femaleModel0": 48116,
  "femaleModel1": -1,
  "femaleModel2": -1,
  "femaleOffset": 0,
  "femaleHeadModel": -1,
  "femaleHeadModel2": -1,
  "category": 1771,
  "notedID": -1,
  "notedTemplate": -1,
  "team": 0,
  "weight": 10,
  "shiftClickDropIndex": -2,
  "boughtId": -1,
  "boughtTemplateId": -1,
  "placeholderId": -1,
  "placeholderTemplateId": -1,
  "params": {
    "451": "Change-style",
    "295": 1
  }
}