{
  "id": 28142,
  "name": "Open log basket",
  "examine": "A lumberjack's favourite tool, other than an axe, of course.",
  "resizeX": 128,
  "resizeY": 128,
  "resizeZ": 128,
  "xan2d": 342,
  "yan2d": 115,
  "zan2d": 0,
  "cost": 720,
  "isTradeable": false,
  "stackable": 0,
  "inventoryModel": 48234,
  "wearPos1": 1,
  "wearPos2": 0,
  "wearPos3": 0,
  "members": true,
  "zoom2d": 888,
  "xOffset2d": -1,
  "yOffset2d": -1,
  "ambient": 15,
  "contrast": 20,
  "options": [
    null,
    null,
    "Take",
    null,
    null
  ],
  "interfaceOptions": [
    "Fill",
    "Wear",
    "Check",
    "Close",
    "Destroy"
  ],
  "maleModel0": 48168,
  "maleModel1": -1,
  "maleModel2": -1,
  "maleOffset": 0,
  "maleHeadModel": -1,
  "maleHeadModel2": -1,
  "femaleModel0": 48177,
  "femaleModel1": -1,
  "femaleModel2": -1,
  "femaleOffset": 0,
  "femaleHeadModel": -1,
  "femaleHeadModel2": -1,
  "category": 1776,
  "notedID": -1,
  "notedTemplate": -1,
  "team": 0,
  "weight": 1390,
  "shiftClickDropIndex": -2,
  "boughtId": -1,
  "boughtTemplateId": -1,
  "placeholderId": -1,
  "placeholderTemplateId": -1,
  "params": {
    "1792": 1,
    "595": "Empty",
    "451": "Fill",
    "452": "Check",
    "453": "Close",
    "295": 1,
    "1784": "The log basket allows you to carry more logs. When opened logs will automatically be deposited into it. The log basket can be combined with the forestry kit to make a single equipable item when used with the sturdy harness."
  }
}