{
  "id": 28146,
  "name": "Log brace",
  "examine": "With some rope, adamantite bars and steel nails, I can create a sturdy harness.",
  "resizeX": 128,
  "resizeY": 128,
  "resizeZ": 128,
  "xan2d": 361,
  "yan2d": 2042,
  "zan2d": 0,
  "cost": 3000,
  "isTradeable": true,
  "stackable": 0,
  "inventoryModel": 49887,
  "wearPos1": 0,
  "wearPos2": 0,
  "wearPos3": 0,
  "members": true,
  "zoom2d": 822,
  "xOffset2d": -1,
  "yOffset2d": 23,
  "ambient": 0,
  "contrast": 0,
  "options": [
    null,
    null,
    "Take",
    null,
    null
  ],
  "interfaceOptions": [
    null,
    null,
    null,
    null,
    "Drop"
  ],
  "maleModel0": -1,
  "maleModel1": -1,
  "maleModel2": -1,
  "maleOffset": 0,
  "maleHeadModel": -1,
  "maleHeadModel2": -1,
  "femaleModel0": -1,
  "femaleModel1": -1,
  "femaleModel2": -1,
  "femaleOffset": 0,
  "femaleHeadModel": -1,
  "femaleHeadModel2": -1,
  "category": 0,
  "notedID": 28147,
  "notedTemplate": -1,
  "team": 0,
  "weight": 907,
  "shiftClickDropIndex": -2,
  "boughtId": -1,
  "boughtTemplateId": -1,
  "placeholderId": 28148,
  "placeholderTemplateId": -1,
  "params": {
    "1784": "The log brace is used to make the sturdy harness. Which allows the forestry kit and log basket to be combined into one tool. You will also need:<br><br>45 Nails<br>2 Rope<br>3 Adamantite bars<br><br>75 Smithing<br>75 Woodcutting"
  }
}