{
  "id": 28173,
  "name": "Forestry hat",
  "examine": "You'll certainly be alright wearing this.",
  "resizeX": 128,
  "resizeY": 128,
  "resizeZ": 128,
  "xan2d": 105,
  "yan2d": 1886,
  "zan2d": 0,
  "cost": 50,
  "isTradeable": false,
  "stackable": 0,
  "inventoryModel": 48232,
  "wearPos1": 0,
  "wearPos2": 8,
  "wearPos3": 0,
  "members": true,
  "zoom2d": 789,
  "xOffset2d": -3,
  "yOffset2d": -3,
  "ambient": 0,
  "contrast": 0,
  "options": [
    null,
    null,
    "Take",
    null,
    null
  ],
  "interfaceOptions": [
    null,
    "Wear",
    null,
    null,
    "Drop"
  ],
  "maleModel0": 48166,
  "maleModel1": -1,
  "maleModel2": -1,
  "maleOffset": 0,
  "maleHeadModel": 48266,
  "maleHeadModel2": -1,
  "femaleModel0": 48174,
  "femaleModel1": -1,
  "femaleModel2": -1,
  "femaleOffset": 0,
  "femaleHeadModel": 48267,
  "femaleHeadModel2": -1,
  "category": 1780,
  "notedID": -1,
  "notedTemplate": -1,
  "team": 0,
  "weight": 453,
  "shiftClickDropIndex": -2,
  "boughtId": -1,
  "boughtTemplateId": -1,
  "placeholderId": 28174,
  "placeholderTemplateId": -1,
  "params": {
    "1784": "This hat enhances your learning speed in the woodcutting skill, increasing woodcutting XP by 0.4% while worn. An extra 0.5% boost is given if all four parts of the lumberjack or forestry outfit are equipped.",
    "1793": 1
  }
}