{
  "id": 28211,
  "name": "Adamant felling axe",
  "examine": "A powerful felling axe.",
  "resizeX": 128,
  "resizeY": 128,
  "resizeZ": 128,
  "xan2d": 409,
  "yan2d": 1421,
  "zan2d": 0,
  "cost": 1280,
  "isTradeable": true,
  "stackable": 0,
  "inventoryModel": 48193,
  "wearPos1": 3,
  "wearPos2": 5,
  "wearPos3": 0,
  "members": true,
  "colorFind": [
    61,
    97
  ],
  "colorReplace": [
    21662,
    21665
  ],
  "zoom2d": 1444,
  "xOffset2d": -4,
  "yOffset2d": 7,
  "ambient": 0,
  "contrast": 0,
  "options": [
    null,
    null,
    "Take",
    null,
    null
  ],
  "interfaceOptions": [
    null,
    "Wield",
    null,
    null,
    "Drop"
  ],
  "maleModel0": 48185,
  "maleModel1": -1,
  "maleModel2": -1,
  "maleOffset": 0,
  "maleHeadModel": -1,
  "maleHeadModel2": -1,
  "femaleModel0": 48186,
  "femaleModel1": -1,
  "femaleModel2": -1,
  "femaleOffset": 0,
  "femaleHeadModel": -1,
  "femaleHeadModel2": -1,
  "category": 35,
  "notedID": 28212,
  "notedTemplate": -1,
  "team": 0,
  "weight": 1814,
  "shiftClickDropIndex": -2,
  "boughtId": -1,
  "boughtTemplateId": -1,
  "placeholderId": 28213,
  "placeholderTemplateId": -1,
  "params": {
    "23": 31
  }
}