{
  "id": 28258,
  "name": "Sanguine torva platelegs",
  "examine": "An ancient warrior's platelegs.",
  "resizeX": 128,
  "resizeY": 128,
  "resizeZ": 128,
  "xan2d": 566,
  "yan2d": 0,
  "zan2d": 0,
  "cost": 400000,
  "isTradeable": false,
  "stackable": 0,
  "inventoryModel": 48973,
  "wearPos1": 7,
  "wearPos2": 0,
  "wearPos3": 0,
  "members": true,
  "zoom2d": 1678,
  "xOffset2d": 0,
  "yOffset2d": 7,
  "ambient": 10,
  "contrast": 0,
  "options": [
    null,
    null,
    "Take",
    null,
    null
  ],
  "interfaceOptions": [
    null,
    "Wear",
    null,
    null,
    "Revert"
  ],
  "maleModel0": 48302,
  "maleModel1": -1,
  "maleModel2": -1,
  "maleOffset": 0,
  "maleHeadModel": -1,
  "maleHeadModel2": -1,
  "femaleModel0": 48309,
  "femaleModel1": -1,
  "femaleModel2": -1,
  "femaleOffset": 0,
  "femaleHeadModel": -1,
  "femaleHeadModel2": -1,
  "category": 8,
  "notedID": -1,
  "notedTemplate": -1,
  "team": 0,
  "weight": 9071,
  "shiftClickDropIndex": -2,
  "boughtId": -1,
  "boughtTemplateId": -1,
  "placeholderId": 28259,
  "placeholderTemplateId": -1,
  "params": {
    "436": 80,
    "434": 1
  }
}