{
  "id": 28262,
  "name": "Ice ancient sceptre",
  "examine": "A very old and powerful stick, enhanced with the power of ice magic.",
  "resizeX": 120,
  "resizeY": 120,
  "resizeZ": 120,
  "xan2d": 1650,
  "yan2d": 2020,
  "zan2d": 13,
  "cost": 200000,
  "isTradeable": false,
  "stackable": 0,
  "inventoryModel": 47186,
  "wearPos1": 3,
  "wearPos2": 0,
  "wearPos3": 0,
  "members": true,
  "zoom2d": 1546,
  "xOffset2d": 3,
  "yOffset2d": 0,
  "ambient": 0,
  "contrast": 0,
  "options": [
    null,
    null,
    "Take",
    null,
    null
  ],
  "interfaceOptions": [
    null,
    "Wield",
    "Dismantle",
    null,
    "Drop"
  ],
  "maleModel0": 46959,
  "maleModel1": -1,
  "maleModel2": -1,
  "maleOffset": 0,
  "maleHeadModel": -1,
  "maleHeadModel2": -1,
  "femaleModel0": 46957,
  "femaleModel1": -1,
  "femaleModel2": -1,
  "femaleOffset": 0,
  "femaleHeadModel": -1,
  "femaleHeadModel2": -1,
  "category": 1,
  "notedID": -1,
  "notedTemplate": -1,
  "team": 0,
  "weight": 2267,
  "shiftClickDropIndex": -2,
  "boughtId": -1,
  "boughtTemplateId": -1,
  "placeholderId": 28263,
  "placeholderTemplateId": -1,
  "params": {
    "1564": 3,
    "295": 1
  }
}