{
  "id": 28321,
  "name": "Eye of the duke",
  "examine": "It's still moving...",
  "resizeX": 128,
  "resizeY": 128,
  "resizeZ": 128,
  "xan2d": 660,
  "yan2d": 842,
  "zan2d": 0,
  "cost": 50000,
  "isTradeable": false,
  "stackable": 0,
  "inventoryModel": 49421,
  "wearPos1": 0,
  "wearPos2": 0,
  "wearPos3": 0,
  "members": true,
  "zoom2d": 712,
  "xOffset2d": 1,
  "yOffset2d": -2,
  "ambient": 0,
  "contrast": 0,
  "options": [
    null,
    null,
    "Take",
    null,
    null
  ],
  "interfaceOptions": [
    "Inspect",
    null,
    null,
    null,
    "Drop"
  ],
  "maleModel0": -1,
  "maleModel1": -1,
  "maleModel2": -1,
  "maleOffset": 0,
  "maleHeadModel": -1,
  "maleHeadModel2": -1,
  "femaleModel0": -1,
  "femaleModel1": -1,
  "femaleModel2": -1,
  "femaleOffset": 0,
  "femaleHeadModel": -1,
  "femaleHeadModel2": -1,
  "category": 1792,
  "notedID": -1,
  "notedTemplate": -1,
  "team": 0,
  "weight": 1,
  "shiftClickDropIndex": -2,
  "boughtId": -1,
  "boughtTemplateId": -1,
  "placeholderId": 28322,
  "placeholderTemplateId": -1
}