{
  "id": 28354,
  "name": "Resper-holos poison",
  "examine": "A nasty fungal poison.",
  "resizeX": 128,
  "resizeY": 128,
  "resizeZ": 128,
  "xan2d": 195,
  "yan2d": 1561,
  "zan2d": 0,
  "cost": 200,
  "isTradeable": false,
  "stackable": 0,
  "inventoryModel": 48966,
  "wearPos1": 0,
  "wearPos2": 0,
  "wearPos3": 0,
  "members": true,
  "colorFind": [
    -20171,
    -19915,
    -19921
  ],
  "colorReplace": [
    -18119,
    -17865,
    -17873
  ],
  "zoom2d": 757,
  "xOffset2d": 0,
  "yOffset2d": -5,
  "ambient": 30,
  "contrast": 30,
  "options": [
    null,
    null,
    "Take",
    null,
    null
  ],
  "interfaceOptions": [
    null,
    null,
    null,
    null,
    "Destroy"
  ],
  "maleModel0": -1,
  "maleModel1": -1,
  "maleModel2": -1,
  "maleOffset": 0,
  "maleHeadModel": -1,
  "maleHeadModel2": -1,
  "femaleModel0": -1,
  "femaleModel1": -1,
  "femaleModel2": -1,
  "femaleOffset": 0,
  "femaleHeadModel": -1,
  "femaleHeadModel2": -1,
  "category": 1795,
  "notedID": -1,
  "notedTemplate": -1,
  "team": 0,
  "weight": 50,
  "shiftClickDropIndex": -2,
  "boughtId": -1,
  "boughtTemplateId": -1,
  "placeholderId": -1,
  "placeholderTemplateId": -1,
  "params": {
    "295": 1,
    "59": 1
  }
}