{
  "id": 28537,
  "name": "Corrupted armadyl godsword",
  "examine": "A beautiful, heavy sword.",
  "resizeX": 128,
  "resizeY": 128,
  "resizeZ": 128,
  "xan2d": 498,
  "yan2d": 484,
  "zan2d": 0,
  "cost": 250000,
  "isTradeable": true,
  "stackable": 0,
  "inventoryModel": 49502,
  "wearPos1": 3,
  "wearPos2": 5,
  "wearPos3": 0,
  "members": true,
  "zoom2d": 1957,
  "xOffset2d": -1,
  "yOffset2d": -1,
  "ambient": 0,
  "contrast": 0,
  "options": [
    null,
    null,
    "Take",
    null,
    null
  ],
  "interfaceOptions": [
    null,
    "Wield",
    null,
    null,
    "Drop"
  ],
  "maleModel0": 49469,
  "maleModel1": -1,
  "maleModel2": -1,
  "maleOffset": 2,
  "maleHeadModel": -1,
  "maleHeadModel2": -1,
  "femaleModel0": 49470,
  "femaleModel1": -1,
  "femaleModel2": -1,
  "femaleOffset": 0,
  "femaleHeadModel": -1,
  "femaleHeadModel2": -1,
  "category": 61,
  "notedID": 28538,
  "notedTemplate": -1,
  "team": 0,
  "weight": 10000,
  "shiftClickDropIndex": -2,
  "boughtId": -1,
  "boughtTemplateId": -1,
  "placeholderId": 28539,
  "placeholderTemplateId": -1,
  "params": {
    "568": 3,
    "434": 0,
    "1564": 3,
    "436": 65
  }
}