{
  "id": 28547,
  "name": "Corrupted tumeken's shadow",
  "examine": "An ancient staff created using a higher power.",
  "resizeX": 128,
  "resizeY": 128,
  "resizeZ": 128,
  "xan2d": 465,
  "yan2d": 1481,
  "zan2d": 290,
  "cost": 250000,
  "isTradeable": false,
  "stackable": 0,
  "inventoryModel": 49498,
  "wearPos1": 3,
  "wearPos2": 5,
  "wearPos3": 0,
  "members": true,
  "zoom2d": 1960,
  "xOffset2d": -11,
  "yOffset2d": 16,
  "ambient": 0,
  "contrast": 0,
  "options": [
    null,
    null,
    "Take",
    null,
    null
  ],
  "interfaceOptions": [
    null,
    "Wield",
    "Check",
    "Charge",
    "Uncharge"
  ],
  "maleModel0": 49479,
  "maleModel1": -1,
  "maleModel2": -1,
  "maleOffset": 0,
  "maleHeadModel": -1,
  "maleHeadModel2": -1,
  "femaleModel0": 49480,
  "femaleModel1": -1,
  "femaleModel2": -1,
  "femaleOffset": 0,
  "femaleHeadModel": -1,
  "femaleHeadModel2": -1,
  "category": 1,
  "notedID": -1,
  "notedTemplate": -1,
  "team": 0,
  "weight": 5000,
  "shiftClickDropIndex": -2,
  "boughtId": -1,
  "boughtTemplateId": -1,
  "placeholderId": 28548,
  "placeholderTemplateId": -1,
  "params": {
    "568": 3,
    "434": 6,
    "451": "Check",
    "436": 75
  }
}