{
  "id": 28545,
  "name": "Corrupted scythe of vitur (uncharged)",
  "examine": "A powerful scythe. It is currently uncharged.",
  "resizeX": 128,
  "resizeY": 128,
  "resizeZ": 128,
  "xan2d": 327,
  "yan2d": 23,
  "zan2d": 0,
  "cost": 250000,
  "isTradeable": true,
  "stackable": 0,
  "inventoryModel": 49501,
  "wearPos1": 3,
  "wearPos2": 5,
  "wearPos3": 0,
  "members": true,
  "zoom2d": 2105,
  "xOffset2d": 1,
  "yOffset2d": 17,
  "ambient": 0,
  "contrast": 0,
  "options": [
    null,
    null,
    "Take",
    null,
    null
  ],
  "interfaceOptions": [
    null,
    "Wield",
    null,
    null,
    "Drop"
  ],
  "maleModel0": 49475,
  "maleModel1": -1,
  "maleModel2": -1,
  "maleOffset": 0,
  "maleHeadModel": -1,
  "maleHeadModel2": -1,
  "femaleModel0": 49477,
  "femaleModel1": -1,
  "femaleModel2": -1,
  "femaleOffset": 0,
  "femaleHeadModel": -1,
  "femaleHeadModel2": -1,
  "category": 1193,
  "notedID": 28546,
  "notedTemplate": -1,
  "team": 0,
  "weight": 3175,
  "shiftClickDropIndex": -2,
  "boughtId": -1,
  "boughtTemplateId": -1,
  "placeholderId": -1,
  "placeholderTemplateId": -1,
  "params": {
    "568": 3
  }
}