{
  "id": 28577,
  "name": "Crystal chime",
  "examine": "It makes a sound.",
  "resizeX": 128,
  "resizeY": 128,
  "resizeZ": 128,
  "xan2d": 445,
  "yan2d": 201,
  "zan2d": 0,
  "cost": 3000,
  "isTradeable": false,
  "stackable": 0,
  "inventoryModel": 49784,
  "wearPos1": 3,
  "wearPos2": 5,
  "wearPos3": 0,
  "members": true,
  "zoom2d": 919,
  "xOffset2d": 5,
  "yOffset2d": 4,
  "ambient": 0,
  "contrast": 0,
  "options": [
    null,
    null,
    "Take",
    null,
    null
  ],
  "interfaceOptions": [
    null,
    null,
    null,
    "Ring",
    "Destroy"
  ],
  "maleModel0": 49523,
  "maleModel1": 49524,
  "maleModel2": -1,
  "maleOffset": 0,
  "maleHeadModel": -1,
  "maleHeadModel2": -1,
  "femaleModel0": 49523,
  "femaleModel1": 49524,
  "femaleModel2": -1,
  "femaleOffset": 6,
  "femaleHeadModel": -1,
  "femaleHeadModel2": -1,
  "category": 0,
  "notedID": -1,
  "notedTemplate": -1,
  "team": 0,
  "weight": 1000,
  "shiftClickDropIndex": -2,
  "boughtId": -1,
  "boughtTemplateId": -1,
  "placeholderId": 28578,
  "placeholderTemplateId": -1,
  "params": {
    "295": 1
  }
}