{
  "id": 28682,
  "name": "Dinh's blazing bulwark",
  "examine": "Hot to the touch.",
  "resizeX": 128,
  "resizeY": 128,
  "resizeZ": 128,
  "xan2d": 402,
  "yan2d": 1409,
  "zan2d": 0,
  "cost": 560000,
  "isTradeable": false,
  "stackable": 0,
  "inventoryModel": 50016,
  "wearPos1": 3,
  "wearPos2": 5,
  "wearPos3": 0,
  "members": true,
  "zoom2d": 2276,
  "xOffset2d": 0,
  "yOffset2d": 14,
  "ambient": 0,
  "contrast": 0,
  "options": [
    null,
    null,
    "Take",
    null,
    null
  ],
  "interfaceOptions": [
    null,
    "Wear",
    null,
    "Revert",
    "Drop"
  ],
  "maleModel0": 49982,
  "maleModel1": -1,
  "maleModel2": -1,
  "maleOffset": 0,
  "maleHeadModel": -1,
  "maleHeadModel2": -1,
  "femaleModel0": 49982,
  "femaleModel1": -1,
  "femaleModel2": -1,
  "femaleOffset": 6,
  "femaleHeadModel": -1,
  "femaleHeadModel2": -1,
  "category": 1014,
  "notedID": -1,
  "notedTemplate": -1,
  "team": 0,
  "weight": 30000,
  "shiftClickDropIndex": -2,
  "boughtId": -1,
  "boughtTemplateId": -1,
  "placeholderId": 28683,
  "placeholderTemplateId": -1,
  "params": {
    "434": 0,
    "435": 1,
    "1564": 3,
    "436": 75,
    "437": 75
  }
}