{
  "id": 28748,
  "name": "Trailblazer reloaded torch",
  "examine": "The torch of a Trailblazer Reloaded Relic Hunter.",
  "resizeX": 128,
  "resizeY": 128,
  "resizeZ": 128,
  "xan2d": 816,
  "yan2d": 474,
  "zan2d": 0,
  "cost": 15000,
  "isTradeable": true,
  "stackable": 0,
  "inventoryModel": 50015,
  "wearPos1": 3,
  "wearPos2": 0,
  "wearPos3": 0,
  "members": true,
  "zoom2d": 1053,
  "xOffset2d": 0,
  "yOffset2d": 0,
  "ambient": 0,
  "contrast": 0,
  "options": [
    null,
    null,
    "Take",
    null,
    null
  ],
  "interfaceOptions": [
    null,
    "Wield",
    null,
    null,
    "Drop"
  ],
  "maleModel0": 49978,
  "maleModel1": -1,
  "maleModel2": -1,
  "maleOffset": 0,
  "maleHeadModel": -1,
  "maleHeadModel2": -1,
  "femaleModel0": 49979,
  "femaleModel1": -1,
  "femaleModel2": -1,
  "femaleOffset": 0,
  "femaleHeadModel": -1,
  "femaleHeadModel2": -1,
  "category": 39,
  "notedID": 28749,
  "notedTemplate": -1,
  "team": 0,
  "weight": 1814,
  "shiftClickDropIndex": -2,
  "boughtId": -1,
  "boughtTemplateId": -1,
  "placeholderId": 28750,
  "placeholderTemplateId": -1,
  "params": {
    "451": "Trailblazer Relic Emote",
    "452": "Trailblazer Area Emote",
    "916": 4,
    "295": 1
  }
}