{
  "id": 29045,
  "name": "Blood moon tassets",
  "examine": "The tassets of the Blood Moon.",
  "resizeX": 128,
  "resizeY": 128,
  "resizeZ": 128,
  "xan2d": 559,
  "yan2d": 0,
  "zan2d": 0,
  "cost": 289910,
  "isTradeable": false,
  "stackable": 0,
  "inventoryModel": 52246,
  "wearPos1": 7,
  "wearPos2": 0,
  "wearPos3": 0,
  "members": true,
  "zoom2d": 1678,
  "xOffset2d": 0,
  "yOffset2d": 3,
  "ambient": 10,
  "contrast": 0,
  "options": [
    null,
    null,
    "Take",
    null,
    null
  ],
  "interfaceOptions": [
    null,
    "Wear",
    "Check",
    null,
    "Drop"
  ],
  "maleModel0": 50859,
  "maleModel1": -1,
  "maleModel2": -1,
  "maleOffset": 0,
  "maleHeadModel": -1,
  "maleHeadModel2": -1,
  "femaleModel0": 51053,
  "femaleModel1": -1,
  "femaleModel2": -1,
  "femaleOffset": 0,
  "femaleHeadModel": -1,
  "femaleHeadModel2": -1,
  "category": 8,
  "notedID": -1,
  "notedTemplate": -1,
  "team": 0,
  "weight": 4082,
  "shiftClickDropIndex": -2,
  "boughtId": -1,
  "boughtTemplateId": -1,
  "placeholderId": 29046,
  "placeholderTemplateId": -1,
  "params": {
    "434": 1,
    "435": 2,
    "451": "Check",
    "1564": 7,
    "436": 50,
    "437": 75
  }
}