{
  "id": 29090,
  "name": "Calcified moth",
  "examine": "A fossilised moth infused with dwarven magic.",
  "resizeX": 128,
  "resizeY": 128,
  "resizeZ": 128,
  "xan2d": 448,
  "yan2d": 2045,
  "zan2d": 0,
  "cost": 10000,
  "isTradeable": true,
  "stackable": 1,
  "inventoryModel": 52168,
  "wearPos1": 0,
  "wearPos2": 0,
  "wearPos3": 0,
  "members": true,
  "colorFind": [
    5400,
    -32738,
    5392
  ],
  "colorReplace": [
    5173,
    -32729,
    -32742
  ],
  "zoom2d": 720,
  "xOffset2d": -6,
  "yOffset2d": 8,
  "ambient": 0,
  "contrast": 0,
  "countCo": [
    2,
    3,
    4,
    5,
    25,
    0,
    0,
    0,
    0,
    0
  ],
  "countObj": [
    29093,
    29094,
    29095,
    29096,
    29097,
    0,
    0,
    0,
    0,
    0
  ],
  "options": [
    null,
    null,
    "Take",
    null,
    null
  ],
  "interfaceOptions": [
    "Crush",
    null,
    null,
    null,
    "Drop"
  ],
  "maleModel0": -1,
  "maleModel1": -1,
  "maleModel2": -1,
  "maleOffset": 0,
  "maleHeadModel": -1,
  "maleHeadModel2": -1,
  "femaleModel0": -1,
  "femaleModel1": -1,
  "femaleModel2": -1,
  "femaleOffset": 0,
  "femaleHeadModel": -1,
  "femaleHeadModel2": -1,
  "category": 0,
  "notedID": -1,
  "notedTemplate": -1,
  "team": 0,
  "weight": 0,
  "shiftClickDropIndex": -2,
  "boughtId": -1,
  "boughtTemplateId": -1,
  "placeholderId": 29091,
  "placeholderTemplateId": -1,
  "params": {
    "295": 1
  }
}