{
  "id": 29140,
  "name": "Cooked sunlight antelope",
  "examine": "Mmm, this looks tasty.",
  "resizeX": 128,
  "resizeY": 128,
  "resizeZ": 128,
  "xan2d": 128,
  "yan2d": 77,
  "zan2d": 0,
  "cost": 4,
  "isTradeable": true,
  "stackable": 0,
  "inventoryModel": 52223,
  "wearPos1": 0,
  "wearPos2": 0,
  "wearPos3": 0,
  "members": true,
  "colorFind": [
    1573,
    1451,
    5345
  ],
  "colorReplace": [
    4387,
    4391,
    5314
  ],
  "zoom2d": 1584,
  "xOffset2d": 3,
  "yOffset2d": -4,
  "ambient": 0,
  "contrast": 0,
  "options": [
    null,
    null,
    "Take",
    null,
    null
  ],
  "interfaceOptions": [
    "Eat",
    null,
    null,
    null,
    "Drop"
  ],
  "maleModel0": -1,
  "maleModel1": -1,
  "maleModel2": -1,
  "maleOffset": 0,
  "maleHeadModel": -1,
  "maleHeadModel2": -1,
  "femaleModel0": -1,
  "femaleModel1": -1,
  "femaleModel2": -1,
  "femaleOffset": 0,
  "femaleHeadModel": -1,
  "femaleHeadModel2": -1,
  "category": 5,
  "notedID": 29141,
  "notedTemplate": -1,
  "team": 0,
  "weight": 283,
  "shiftClickDropIndex": -2,
  "boughtId": -1,
  "boughtTemplateId": -1,
  "placeholderId": 29142,
  "placeholderTemplateId": -1
}