{
  "id": 29253,
  "name": "Enhanced quetzal whistle blueprint",
  "examine": "An enhanced blueprint for a quetzal whistle.",
  "resizeX": 128,
  "resizeY": 128,
  "resizeZ": 128,
  "xan2d": 541,
  "yan2d": 108,
  "zan2d": 0,
  "cost": 5000,
  "isTradeable": true,
  "stackable": 0,
  "inventoryModel": 52202,
  "wearPos1": 0,
  "wearPos2": 0,
  "wearPos3": 0,
  "members": true,
  "zoom2d": 1645,
  "xOffset2d": 0,
  "yOffset2d": 2,
  "ambient": 20,
  "contrast": 0,
  "options": [
    null,
    null,
    "Take",
    null,
    null
  ],
  "interfaceOptions": [
    "Check",
    "Craft",
    null,
    null,
    "Drop"
  ],
  "maleModel0": -1,
  "maleModel1": -1,
  "maleModel2": -1,
  "maleOffset": 0,
  "maleHeadModel": -1,
  "maleHeadModel2": -1,
  "femaleModel0": -1,
  "femaleModel1": -1,
  "femaleModel2": -1,
  "femaleOffset": 0,
  "femaleHeadModel": -1,
  "femaleHeadModel2": -1,
  "category": 0,
  "notedID": 29254,
  "notedTemplate": -1,
  "team": 0,
  "weight": 4,
  "shiftClickDropIndex": -2,
  "boughtId": -1,
  "boughtTemplateId": -1,
  "placeholderId": 29255,
  "placeholderTemplateId": -1
}