{
  "id": 29321,
  "name": "Apatura's note",
  "examine": "Should I be reading this?",
  "resizeX": 128,
  "resizeY": 128,
  "resizeZ": 128,
  "xan2d": 440,
  "yan2d": 176,
  "zan2d": 0,
  "cost": 6,
  "isTradeable": false,
  "stackable": 0,
  "inventoryModel": 2600,
  "wearPos1": 0,
  "wearPos2": 0,
  "wearPos3": 0,
  "members": true,
  "zoom2d": 1086,
  "xOffset2d": 1,
  "yOffset2d": 6,
  "ambient": 0,
  "contrast": 0,
  "options": [
    null,
    null,
    "Take",
    null,
    null
  ],
  "interfaceOptions": [
    "Read",
    null,
    null,
    null,
    "Destroy"
  ],
  "maleModel0": -1,
  "maleModel1": -1,
  "maleModel2": -1,
  "maleOffset": 0,
  "maleHeadModel": -1,
  "maleHeadModel2": -1,
  "femaleModel0": -1,
  "femaleModel1": -1,
  "femaleModel2": -1,
  "femaleOffset": 0,
  "femaleHeadModel": -1,
  "femaleHeadModel2": -1,
  "category": 0,
  "notedID": -1,
  "notedTemplate": -1,
  "team": 0,
  "weight": 4,
  "shiftClickDropIndex": -2,
  "boughtId": -1,
  "boughtTemplateId": -1,
  "placeholderId": 29322,
  "placeholderTemplateId": -1
}