{
  "id": 29376,
  "name": "Dagannoth bones",
  "examine": "Bones blessed at an exposed altar.",
  "resizeX": 128,
  "resizeY": 128,
  "resizeZ": 128,
  "xan2d": 240,
  "yan2d": 528,
  "zan2d": 0,
  "cost": 150,
  "isTradeable": false,
  "stackable": 0,
  "inventoryModel": 2768,
  "wearPos1": 0,
  "wearPos2": 0,
  "wearPos3": 0,
  "members": true,
  "colorFind": [
    127
  ],
  "colorReplace": [
    10295
  ],
  "zoom2d": 1830,
  "xOffset2d": 0,
  "yOffset2d": 0,
  "ambient": 15,
  "contrast": 0,
  "options": [
    null,
    null,
    "Take",
    null,
    null
  ],
  "interfaceOptions": [
    "Break-down",
    null,
    null,
    null,
    "Drop"
  ],
  "maleModel0": -1,
  "maleModel1": -1,
  "maleModel2": -1,
  "maleOffset": 0,
  "maleHeadModel": -1,
  "maleHeadModel2": -1,
  "femaleModel0": -1,
  "femaleModel1": -1,
  "femaleModel2": -1,
  "femaleOffset": 0,
  "femaleHeadModel": -1,
  "femaleHeadModel2": -1,
  "category": 1923,
  "notedID": -1,
  "notedTemplate": -1,
  "team": 0,
  "weight": 1500,
  "shiftClickDropIndex": -2,
  "boughtId": -1,
  "boughtTemplateId": -1,
  "placeholderId": 29377,
  "placeholderTemplateId": -1
}