{
  "id": 29378,
  "name": "Sun-kissed bones",
  "examine": "These bones have been left out a little too long.",
  "resizeX": 128,
  "resizeY": 128,
  "resizeZ": 128,
  "xan2d": 159,
  "yan2d": 1679,
  "zan2d": 0,
  "cost": 160,
  "isTradeable": false,
  "stackable": 0,
  "inventoryModel": 10349,
  "wearPos1": 0,
  "wearPos2": 0,
  "wearPos3": 0,
  "members": true,
  "colorFind": [
    -25506,
    -24362,
    -24374
  ],
  "colorReplace": [
    10401,
    10392,
    10512
  ],
  "zoom2d": 2293,
  "xOffset2d": 0,
  "yOffset2d": -5,
  "ambient": 0,
  "contrast": 0,
  "options": [
    null,
    null,
    "Take",
    null,
    null
  ],
  "interfaceOptions": [
    "Break-down",
    null,
    null,
    null,
    "Drop"
  ],
  "maleModel0": -1,
  "maleModel1": -1,
  "maleModel2": -1,
  "maleOffset": 0,
  "maleHeadModel": -1,
  "maleHeadModel2": -1,
  "femaleModel0": -1,
  "femaleModel1": -1,
  "femaleModel2": -1,
  "femaleOffset": 0,
  "femaleHeadModel": -1,
  "femaleHeadModel2": -1,
  "category": 1923,
  "notedID": 29379,
  "notedTemplate": -1,
  "team": 0,
  "weight": 1800,
  "shiftClickDropIndex": -2,
  "boughtId": -1,
  "boughtTemplateId": -1,
  "placeholderId": 29380,
  "placeholderTemplateId": -1
}