{
  "id": 29458,
  "name": "Adamant seeds",
  "examine": "Magical seeds in an adamant case.",
  "resizeX": 128,
  "resizeY": 128,
  "resizeZ": 128,
  "xan2d": 240,
  "yan2d": 676,
  "zan2d": 0,
  "cost": 300,
  "isTradeable": true,
  "stackable": 1,
  "inventoryModel": 2381,
  "wearPos1": 0,
  "wearPos2": 0,
  "wearPos3": 0,
  "members": true,
  "colorFind": [
    -22248,
    9123,
    8090
  ],
  "colorReplace": [
    21712,
    21673,
    21662
  ],
  "zoom2d": 920,
  "xOffset2d": 7,
  "yOffset2d": 39,
  "ambient": 0,
  "contrast": 0,
  "options": [
    null,
    null,
    "Take",
    null,
    null
  ],
  "interfaceOptions": [
    "Plant",
    null,
    null,
    null,
    "Drop"
  ],
  "maleModel0": -1,
  "maleModel1": -1,
  "maleModel2": -1,
  "maleOffset": 0,
  "maleHeadModel": -1,
  "maleHeadModel2": -1,
  "femaleModel0": -1,
  "femaleModel1": -1,
  "femaleModel2": -1,
  "femaleOffset": 0,
  "femaleHeadModel": -1,
  "femaleHeadModel2": -1,
  "category": 2004,
  "notedID": -1,
  "notedTemplate": -1,
  "team": 0,
  "weight": 0,
  "shiftClickDropIndex": -2,
  "boughtId": -1,
  "boughtTemplateId": -1,
  "placeholderId": 29459,
  "placeholderTemplateId": -1
}