{
  "id": 29464,
  "name": "Large meat pouch (open)",
  "examine": "A large pouch for carrying raw meat.",
  "resizeX": 128,
  "resizeY": 128,
  "resizeZ": 128,
  "xan2d": 74,
  "yan2d": 1988,
  "zan2d": 0,
  "cost": 7500,
  "isTradeable": false,
  "stackable": 0,
  "inventoryModel": 3180,
  "wearPos1": 0,
  "wearPos2": 0,
  "wearPos3": 0,
  "members": true,
  "colorFind": [
    6569,
    6689
  ],
  "colorReplace": [
    5667,
    5784
  ],
  "zoom2d": 760,
  "xOffset2d": 0,
  "yOffset2d": 0,
  "ambient": 0,
  "contrast": 0,
  "options": [
    null,
    null,
    "Take",
    null,
    null
  ],
  "interfaceOptions": [
    "Fill",
    "Empty",
    "Check",
    "Close",
    "Destroy"
  ],
  "maleModel0": -1,
  "maleModel1": -1,
  "maleModel2": -1,
  "maleOffset": 0,
  "maleHeadModel": -1,
  "maleHeadModel2": -1,
  "femaleModel0": -1,
  "femaleModel1": -1,
  "femaleModel2": -1,
  "femaleOffset": 0,
  "femaleHeadModel": -1,
  "femaleHeadModel2": -1,
  "category": 1921,
  "notedID": -1,
  "notedTemplate": -1,
  "team": 0,
  "weight": 1000,
  "shiftClickDropIndex": 1,
  "boughtId": -1,
  "boughtTemplateId": -1,
  "placeholderId": 29465,
  "placeholderTemplateId": -1,
  "params": {
    "595": "Empty"
  }
}