{
  "id": 29486,
  "name": "Cursed amulet of magic",
  "examine": "An cursed amulet of magic.",
  "resizeX": 128,
  "resizeY": 128,
  "resizeZ": 128,
  "xan2d": 424,
  "yan2d": 68,
  "zan2d": 0,
  "cost": 900,
  "isTradeable": true,
  "stackable": 0,
  "inventoryModel": 2796,
  "wearPos1": 2,
  "wearPos2": 0,
  "wearPos3": 0,
  "members": false,
  "colorFind": [
    127,
    5916,
    4882
  ],
  "colorReplace": [
    -12834,
    127,
    127
  ],
  "zoom2d": 620,
  "xOffset2d": 1,
  "yOffset2d": 16,
  "ambient": 0,
  "contrast": 0,
  "options": [
    null,
    null,
    "Take",
    null,
    null
  ],
  "interfaceOptions": [
    null,
    "Wear",
    null,
    null,
    "Drop"
  ],
  "maleModel0": 290,
  "maleModel1": -1,
  "maleModel2": -1,
  "maleOffset": 0,
  "maleHeadModel": -1,
  "maleHeadModel2": -1,
  "femaleModel0": 454,
  "femaleModel1": -1,
  "femaleModel2": -1,
  "femaleOffset": 0,
  "femaleHeadModel": -1,
  "femaleHeadModel2": -1,
  "category": 0,
  "notedID": 29487,
  "notedTemplate": -1,
  "team": 0,
  "weight": 10,
  "shiftClickDropIndex": -2,
  "boughtId": -1,
  "boughtTemplateId": -1,
  "placeholderId": 29488,
  "placeholderTemplateId": -1
}