{
  "id": 2955,
  "name": "Moonlight mead",
  "examine": "A foul smelling brew.",
  "resizeX": 128,
  "resizeY": 128,
  "resizeZ": 128,
  "xan2d": 140,
  "yan2d": 1904,
  "zan2d": 0,
  "cost": 5,
  "isTradeable": true,
  "stackable": 0,
  "inventoryModel": 2491,
  "wearPos1": 0,
  "wearPos2": 0,
  "wearPos3": 0,
  "members": true,
  "colorFind": [
    7091,
    7116
  ],
  "colorReplace": [
    10324,
    10328
  ],
  "zoom2d": 660,
  "xOffset2d": -3,
  "yOffset2d": 2,
  "ambient": 0,
  "contrast": 0,
  "options": [
    null,
    null,
    "Take",
    null,
    null
  ],
  "interfaceOptions": [
    "Drink",
    null,
    null,
    null,
    "Drop"
  ],
  "maleModel0": -1,
  "maleModel1": -1,
  "maleModel2": -1,
  "maleOffset": 0,
  "maleHeadModel": -1,
  "maleHeadModel2": -1,
  "femaleModel0": -1,
  "femaleModel1": -1,
  "femaleModel2": -1,
  "femaleOffset": 0,
  "femaleHeadModel": -1,
  "femaleHeadModel2": -1,
  "category": 0,
  "notedID": 2956,
  "notedTemplate": -1,
  "team": 0,
  "weight": 550,
  "shiftClickDropIndex": -2,
  "boughtId": -1,
  "boughtTemplateId": -1,
  "placeholderId": 19160,
  "placeholderTemplateId": -1,
  "params": {
    "468": 44
  }
}