{
  "id": 29599,
  "name": "Corrupted dark bow",
  "examine": "A bow from an even darker dimension.",
  "resizeX": 128,
  "resizeY": 128,
  "resizeZ": 128,
  "xan2d": 591,
  "yan2d": 1034,
  "zan2d": 0,
  "cost": 250000,
  "isTradeable": true,
  "stackable": 0,
  "inventoryModel": 54205,
  "wearPos1": 3,
  "wearPos2": 5,
  "wearPos3": 0,
  "members": true,
  "zoom2d": 2128,
  "xOffset2d": 0,
  "yOffset2d": 0,
  "ambient": 0,
  "contrast": 0,
  "options": [
    null,
    null,
    "Take",
    null,
    null
  ],
  "interfaceOptions": [
    null,
    "Wield",
    null,
    null,
    "Drop"
  ],
  "maleModel0": 54213,
  "maleModel1": -1,
  "maleModel2": -1,
  "maleOffset": 0,
  "maleHeadModel": -1,
  "maleHeadModel2": -1,
  "femaleModel0": 54212,
  "femaleModel1": -1,
  "femaleModel2": -1,
  "femaleOffset": 0,
  "femaleHeadModel": -1,
  "femaleHeadModel2": -1,
  "category": 64,
  "notedID": 29600,
  "notedTemplate": -1,
  "team": 0,
  "weight": 1814,
  "shiftClickDropIndex": -2,
  "boughtId": -1,
  "boughtTemplateId": -1,
  "placeholderId": 29601,
  "placeholderTemplateId": -1,
  "params": {
    "434": 4,
    "436": 50,
    "23": 60,
    "568": 3,
    "1562": 3,
    "1563": 60,
    "1564": 3
  }
}