{
  "id": 2961,
  "name": "Silver sickle",
  "examine": "It's a silver sickle.",
  "resizeX": 128,
  "resizeY": 128,
  "resizeZ": 128,
  "xan2d": 604,
  "yan2d": 948,
  "zan2d": 0,
  "cost": 175,
  "isTradeable": true,
  "stackable": 0,
  "inventoryModel": 3566,
  "wearPos1": 3,
  "wearPos2": 0,
  "wearPos3": 0,
  "members": true,
  "zoom2d": 980,
  "xOffset2d": -4,
  "yOffset2d": 2,
  "ambient": 0,
  "contrast": 0,
  "options": [
    null,
    null,
    "Take",
    null,
    null
  ],
  "interfaceOptions": [
    null,
    "Wield",
    null,
    null,
    "Drop"
  ],
  "maleModel0": 3604,
  "maleModel1": -1,
  "maleModel2": -1,
  "maleOffset": 0,
  "maleHeadModel": -1,
  "maleHeadModel2": -1,
  "femaleModel0": 3604,
  "femaleModel1": -1,
  "femaleModel2": -1,
  "femaleOffset": 6,
  "femaleHeadModel": -1,
  "femaleHeadModel2": -1,
  "category": 21,
  "notedID": 2962,
  "notedTemplate": -1,
  "team": 0,
  "weight": 1587,
  "shiftClickDropIndex": -2,
  "boughtId": -1,
  "boughtTemplateId": -1,
  "placeholderId": 16991,
  "placeholderTemplateId": -1,
  "params": {
    "436": 18,
    "434": 12
  }
}