{
  "id": 29840,
  "name": "Eclipse moon chestplate",
  "examine": "The chestplate of the Eclipse Moon.",
  "resizeX": 128,
  "resizeY": 128,
  "resizeZ": 128,
  "xan2d": 552,
  "yan2d": 0,
  "zan2d": 0,
  "cost": 100,
  "isTradeable": false,
  "stackable": 0,
  "inventoryModel": 52238,
  "wearPos1": 4,
  "wearPos2": 6,
  "wearPos3": 0,
  "members": false,
  "zoom2d": 1104,
  "xOffset2d": -1,
  "yOffset2d": 0,
  "ambient": 20,
  "contrast": 0,
  "options": [
    null,
    null,
    "Take",
    null,
    null
  ],
  "interfaceOptions": [
    null,
    "Wear",
    null,
    null,
    "Drop"
  ],
  "maleModel0": 50901,
  "maleModel1": -1,
  "maleModel2": -1,
  "maleOffset": 0,
  "maleHeadModel": -1,
  "maleHeadModel2": -1,
  "femaleModel0": 51102,
  "femaleModel1": -1,
  "femaleModel2": -1,
  "femaleOffset": 0,
  "femaleHeadModel": -1,
  "femaleHeadModel2": -1,
  "category": 7,
  "notedID": -1,
  "notedTemplate": -1,
  "team": 0,
  "weight": 3000,
  "shiftClickDropIndex": -2,
  "boughtId": -1,
  "boughtTemplateId": -1,
  "placeholderId": -1,
  "placeholderTemplateId": -1,
  "params": {
    "434": 1,
    "435": 4,
    "403": 1,
    "436": 50,
    "437": 75,
    "295": 1,
    "59": 1,
    "1564": 4
  }
}