{
  "id": 29976,
  "name": "Prescription goggles",
  "examine": "Safety first!",
  "resizeX": 128,
  "resizeY": 128,
  "resizeZ": 128,
  "xan2d": 240,
  "yan2d": 1982,
  "zan2d": 0,
  "cost": 320,
  "isTradeable": false,
  "stackable": 0,
  "inventoryModel": 54946,
  "wearPos1": 0,
  "wearPos2": 0,
  "wearPos3": 0,
  "members": true,
  "zoom2d": 650,
  "xOffset2d": 5,
  "yOffset2d": 22,
  "ambient": 0,
  "contrast": 0,
  "options": [
    null,
    null,
    "Take",
    null,
    null
  ],
  "interfaceOptions": [
    null,
    "Wear",
    "Change",
    null,
    "Drop"
  ],
  "maleModel0": 55213,
  "maleModel1": -1,
  "maleModel2": -1,
  "maleOffset": 0,
  "maleHeadModel": 54422,
  "maleHeadModel2": -1,
  "femaleModel0": 55072,
  "femaleModel1": -1,
  "femaleModel2": -1,
  "femaleOffset": 0,
  "femaleHeadModel": 54371,
  "femaleHeadModel2": -1,
  "category": 0,
  "notedID": -1,
  "notedTemplate": -1,
  "team": 0,
  "weight": 1020,
  "shiftClickDropIndex": -2,
  "boughtId": -1,
  "boughtTemplateId": -1,
  "placeholderId": 29977,
  "placeholderTemplateId": -1,
  "params": {
    "295": 1
  }
}