{
  "id": 29990,
  "name": "Alchemist's amulet",
  "examine": "Useful when making potions - has the chance of giving an extra dose.",
  "resizeX": 128,
  "resizeY": 128,
  "resizeZ": 128,
  "xan2d": 499,
  "yan2d": 167,
  "zan2d": 0,
  "cost": 1050,
  "isTradeable": false,
  "stackable": 0,
  "inventoryModel": 54569,
  "wearPos1": 2,
  "wearPos2": 0,
  "wearPos3": 0,
  "members": true,
  "zoom2d": 620,
  "xOffset2d": 0,
  "yOffset2d": 1,
  "ambient": 0,
  "contrast": 0,
  "options": [
    null,
    null,
    "Take",
    null,
    null
  ],
  "interfaceOptions": [
    null,
    "Wear",
    "Check",
    "Charge",
    "Uncharge"
  ],
  "maleModel0": 55162,
  "maleModel1": -1,
  "maleModel2": -1,
  "maleOffset": 0,
  "maleHeadModel": -1,
  "maleHeadModel2": -1,
  "femaleModel0": 55024,
  "femaleModel1": -1,
  "femaleModel2": -1,
  "femaleOffset": 0,
  "femaleHeadModel": -1,
  "femaleHeadModel2": -1,
  "category": 987,
  "notedID": -1,
  "notedTemplate": -1,
  "team": 0,
  "weight": 7,
  "shiftClickDropIndex": -2,
  "boughtId": -1,
  "boughtTemplateId": -1,
  "placeholderId": 29991,
  "placeholderTemplateId": -1,
  "params": {
    "1784": "Useful when making potions - has the chance of giving an extra dose. Amulets of chemistry can be used on this amulet to give it 10 charges for each one. <col=ffffff>Upon purchasing this amulet, you will also recieve 50 free charges.</col>",
    "295": 1,
    "451": "Check"
  }
}