{
  "id": 29996,
  "name": "Reagent pouch",
  "examine": "A pouch for storing herblore potion ingredients.",
  "resizeX": 128,
  "resizeY": 128,
  "resizeZ": 128,
  "xan2d": 195,
  "yan2d": 1832,
  "zan2d": 0,
  "cost": 100,
  "isTradeable": false,
  "stackable": 0,
  "inventoryModel": 54571,
  "wearPos1": 0,
  "wearPos2": 0,
  "wearPos3": 0,
  "members": true,
  "zoom2d": 1232,
  "xOffset2d": -1,
  "yOffset2d": -47,
  "ambient": 10,
  "contrast": 10,
  "options": [
    null,
    null,
    "Take",
    null,
    null
  ],
  "interfaceOptions": [
    "Fill",
    "Open",
    "Empty",
    "Check",
    "Destroy"
  ],
  "maleModel0": -1,
  "maleModel1": -1,
  "maleModel2": -1,
  "maleOffset": 0,
  "maleHeadModel": -1,
  "maleHeadModel2": -1,
  "femaleModel0": -1,
  "femaleModel1": -1,
  "femaleModel2": -1,
  "femaleOffset": 0,
  "femaleHeadModel": -1,
  "femaleHeadModel2": -1,
  "category": 2062,
  "notedID": -1,
  "notedTemplate": -1,
  "team": 0,
  "weight": 2000,
  "shiftClickDropIndex": 2,
  "boughtId": -1,
  "boughtTemplateId": -1,
  "placeholderId": 29997,
  "placeholderTemplateId": -1,
  "params": {
    "595": "Use",
    "295": 1
  }
}