{
  "id": 30002,
  "name": "Pre-pot device (disassembled)",
  "examine": "Can be assembled to consume multiple potions.",
  "resizeX": 128,
  "resizeY": 128,
  "resizeZ": 128,
  "xan2d": 162,
  "yan2d": 101,
  "zan2d": 0,
  "cost": 1000,
  "isTradeable": true,
  "stackable": 0,
  "inventoryModel": 54554,
  "wearPos1": 0,
  "wearPos2": 0,
  "wearPos3": 0,
  "members": true,
  "colorFind": [
    10576,
    -22318,
    338,
    23760,
    7357
  ],
  "colorReplace": [
    -32684,
    -32684,
    -32684,
    -32684,
    -32684
  ],
  "zoom2d": 1450,
  "xOffset2d": -1,
  "yOffset2d": -20,
  "ambient": -10,
  "contrast": 15,
  "options": [
    null,
    null,
    "Take",
    null,
    null
  ],
  "interfaceOptions": [
    "Assemble",
    null,
    null,
    null,
    "Drop"
  ],
  "maleModel0": -1,
  "maleModel1": -1,
  "maleModel2": -1,
  "maleOffset": 0,
  "maleHeadModel": -1,
  "maleHeadModel2": -1,
  "femaleModel0": -1,
  "femaleModel1": -1,
  "femaleModel2": -1,
  "femaleOffset": 0,
  "femaleHeadModel": -1,
  "femaleHeadModel2": -1,
  "category": 2064,
  "notedID": 30003,
  "notedTemplate": -1,
  "team": 0,
  "weight": 453,
  "shiftClickDropIndex": -2,
  "boughtId": -1,
  "boughtTemplateId": -1,
  "placeholderId": 30004,
  "placeholderTemplateId": -1,
  "params": {
    "1784": "An item that can be freely assembled to allow you to consume many potions in a single action, such as combat boosting potions."
  }
}