{
  "id": 30082,
  "name": "Hueycoatl hide vambraces",
  "examine": "Made from real Huey hide!",
  "resizeX": 128,
  "resizeY": 128,
  "resizeZ": 128,
  "xan2d": 337,
  "yan2d": 1784,
  "zan2d": 2047,
  "cost": 4320,
  "isTradeable": true,
  "stackable": 0,
  "inventoryModel": 54583,
  "wearPos1": 9,
  "wearPos2": 0,
  "wearPos3": 0,
  "members": true,
  "zoom2d": 691,
  "xOffset2d": -3,
  "yOffset2d": 13,
  "ambient": 0,
  "contrast": 0,
  "options": [
    null,
    null,
    "Take",
    null,
    null
  ],
  "interfaceOptions": [
    null,
    "Wear",
    null,
    null,
    "Drop"
  ],
  "maleModel0": 55258,
  "maleModel1": -1,
  "maleModel2": -1,
  "maleOffset": 0,
  "maleHeadModel": -1,
  "maleHeadModel2": -1,
  "femaleModel0": 55119,
  "femaleModel1": -1,
  "femaleModel2": -1,
  "femaleOffset": 0,
  "femaleHeadModel": -1,
  "femaleHeadModel2": -1,
  "category": 16,
  "notedID": 30083,
  "notedTemplate": -1,
  "team": 0,
  "weight": 283,
  "shiftClickDropIndex": -2,
  "boughtId": -1,
  "boughtTemplateId": -1,
  "placeholderId": 30084,
  "placeholderTemplateId": -1,
  "params": {
    "1564": 9,
    "436": 70,
    "434": 4
  }
}