{
  "id": 30113,
  "name": "Nasty token",
  "examine": "A nasty little token.",
  "resizeX": 128,
  "resizeY": 128,
  "resizeZ": 128,
  "xan2d": 304,
  "yan2d": 54,
  "zan2d": 0,
  "cost": 123,
  "isTradeable": false,
  "stackable": 0,
  "inventoryModel": 2484,
  "wearPos1": 0,
  "wearPos2": 0,
  "wearPos3": 0,
  "members": true,
  "colorFind": [
    8128,
    8128
  ],
  "colorReplace": [
    14261,
    14251
  ],
  "zoom2d": 400,
  "xOffset2d": 16,
  "yOffset2d": 23,
  "ambient": 0,
  "contrast": 0,
  "options": [
    null,
    null,
    "Take",
    null,
    null
  ],
  "interfaceOptions": [
    null,
    null,
    null,
    null,
    "Drop"
  ],
  "maleModel0": -1,
  "maleModel1": -1,
  "maleModel2": -1,
  "maleOffset": 0,
  "maleHeadModel": -1,
  "maleHeadModel2": -1,
  "femaleModel0": -1,
  "femaleModel1": -1,
  "femaleModel2": -1,
  "femaleOffset": 0,
  "femaleHeadModel": -1,
  "femaleHeadModel2": -1,
  "category": 2069,
  "notedID": -1,
  "notedTemplate": -1,
  "team": 0,
  "weight": 13507,
  "shiftClickDropIndex": -2,
  "boughtId": -1,
  "boughtTemplateId": -1,
  "placeholderId": -1,
  "placeholderTemplateId": -1,
  "params": {
    "295": 1
  }
}