{
  "id": 3053,
  "name": "Lava battlestaff",
  "examine": "It's a slightly magical stick.",
  "resizeX": 128,
  "resizeY": 128,
  "resizeZ": 128,
  "xan2d": 148,
  "yan2d": 1400,
  "zan2d": 0,
  "cost": 17000,
  "isTradeable": true,
  "stackable": 0,
  "inventoryModel": 3666,
  "wearPos1": 3,
  "wearPos2": 0,
  "wearPos3": 0,
  "members": true,
  "colorFind": [
    127
  ],
  "colorReplace": [
    6104
  ],
  "zoom2d": 1490,
  "xOffset2d": -5,
  "yOffset2d": 2,
  "ambient": 0,
  "contrast": 0,
  "options": [
    null,
    null,
    "Take",
    null,
    null
  ],
  "interfaceOptions": [
    null,
    "Wield",
    null,
    null,
    "Drop"
  ],
  "maleModel0": 534,
  "maleModel1": 3665,
  "maleModel2": -1,
  "maleOffset": 0,
  "maleHeadModel": -1,
  "maleHeadModel2": -1,
  "femaleModel0": 534,
  "femaleModel1": 3665,
  "femaleModel2": -1,
  "femaleOffset": 6,
  "femaleHeadModel": -1,
  "femaleHeadModel2": -1,
  "category": 1,
  "notedID": 3055,
  "notedTemplate": -1,
  "team": 0,
  "weight": 2267,
  "shiftClickDropIndex": -2,
  "boughtId": -1,
  "boughtTemplateId": -1,
  "placeholderId": 14693,
  "placeholderTemplateId": -1,
  "params": {
    "258": 25
  }
}