{
  "id": 3331,
  "name": "Ochre snelm",
  "examine": "A muddy yellow snail shell helmet.",
  "resizeX": 128,
  "resizeY": 128,
  "resizeZ": 128,
  "xan2d": 312,
  "yan2d": 1976,
  "zan2d": 0,
  "cost": 300,
  "isTradeable": true,
  "stackable": 0,
  "inventoryModel": 4106,
  "wearPos1": 0,
  "wearPos2": 0,
  "wearPos3": 0,
  "members": true,
  "colorFind": [
    6466,
    6457,
    6577,
    6697
  ],
  "colorReplace": [
    8772,
    8759,
    8759,
    8772
  ],
  "zoom2d": 730,
  "xOffset2d": 3,
  "yOffset2d": 11,
  "ambient": 0,
  "contrast": 0,
  "options": [
    null,
    null,
    "Take",
    null,
    null
  ],
  "interfaceOptions": [
    null,
    "Wear",
    null,
    null,
    "Drop"
  ],
  "maleModel0": 4099,
  "maleModel1": -1,
  "maleModel2": -1,
  "maleOffset": 0,
  "maleHeadModel": 4095,
  "maleHeadModel2": -1,
  "femaleModel0": 4101,
  "femaleModel1": -1,
  "femaleModel2": -1,
  "femaleOffset": 0,
  "femaleHeadModel": 4097,
  "femaleHeadModel2": -1,
  "category": 2,
  "notedID": 3332,
  "notedTemplate": -1,
  "team": 0,
  "weight": 2000,
  "shiftClickDropIndex": -2,
  "boughtId": -1,
  "boughtTemplateId": -1,
  "placeholderId": 18857,
  "placeholderTemplateId": -1
}