{
  "id": 3347,
  "name": "Blamish red shell",
  "examine": "A large red and black blamish snail shell, looks protective.",
  "resizeX": 128,
  "resizeY": 128,
  "resizeZ": 128,
  "xan2d": 232,
  "yan2d": 1732,
  "zan2d": 0,
  "cost": 150,
  "isTradeable": true,
  "stackable": 0,
  "inventoryModel": 4104,
  "wearPos1": 0,
  "wearPos2": 0,
  "wearPos3": 0,
  "members": true,
  "colorFind": [
    6466,
    6457,
    6577,
    6697
  ],
  "colorReplace": [
    16,
    551,
    551,
    16
  ],
  "zoom2d": 1130,
  "xOffset2d": 0,
  "yOffset2d": -89,
  "ambient": 0,
  "contrast": 0,
  "options": [
    null,
    null,
    "Take",
    null,
    null
  ],
  "interfaceOptions": [
    null,
    null,
    null,
    null,
    "Drop"
  ],
  "maleModel0": -1,
  "maleModel1": -1,
  "maleModel2": -1,
  "maleOffset": 0,
  "maleHeadModel": -1,
  "maleHeadModel2": -1,
  "femaleModel0": -1,
  "femaleModel1": -1,
  "femaleModel2": -1,
  "femaleOffset": 0,
  "femaleHeadModel": -1,
  "femaleHeadModel2": -1,
  "category": 3,
  "notedID": 3348,
  "notedTemplate": -1,
  "team": 0,
  "weight": 10000,
  "shiftClickDropIndex": -2,
  "boughtId": -1,
  "boughtTemplateId": -1,
  "placeholderId": 18865,
  "placeholderTemplateId": -1
}