{
  "id": 3803,
  "name": "Beer tankard",
  "examine": "Frothy and alcoholic.",
  "resizeX": 128,
  "resizeY": 128,
  "resizeZ": 128,
  "xan2d": 132,
  "yan2d": 76,
  "zan2d": 0,
  "cost": 20,
  "isTradeable": true,
  "stackable": 0,
  "inventoryModel": 4274,
  "wearPos1": 0,
  "wearPos2": 0,
  "wearPos3": 0,
  "members": true,
  "zoom2d": 670,
  "xOffset2d": -4,
  "yOffset2d": 1,
  "ambient": 0,
  "contrast": 0,
  "options": [
    null,
    null,
    "Take",
    null,
    null
  ],
  "interfaceOptions": [
    "Drink",
    null,
    null,
    null,
    "Drop"
  ],
  "maleModel0": 4396,
  "maleModel1": -1,
  "maleModel2": -1,
  "maleOffset": 0,
  "maleHeadModel": -1,
  "maleHeadModel2": -1,
  "femaleModel0": 4396,
  "femaleModel1": -1,
  "femaleModel2": -1,
  "femaleOffset": 0,
  "femaleHeadModel": -1,
  "femaleHeadModel2": -1,
  "category": 0,
  "notedID": 3804,
  "notedTemplate": -1,
  "team": 0,
  "weight": 550,
  "shiftClickDropIndex": -2,
  "boughtId": -1,
  "boughtTemplateId": -1,
  "placeholderId": 16782,
  "placeholderTemplateId": -1,
  "params": {
    "468": 44
  }
}