{
  "id": 4001,
  "name": "Hardy gout tuber",
  "examine": "A hardy gout tuber.",
  "resizeX": 128,
  "resizeY": 128,
  "resizeZ": 128,
  "xan2d": 192,
  "yan2d": 384,
  "zan2d": 1964,
  "cost": 5,
  "isTradeable": false,
  "stackable": 0,
  "inventoryModel": 8859,
  "wearPos1": 0,
  "wearPos2": 0,
  "wearPos3": 0,
  "members": false,
  "colorFind": [
    6705,
    7725,
    9769,
    11819,
    13871,
    10467
  ],
  "colorReplace": [
    7591,
    8739,
    12833,
    13861,
    16937,
    13532
  ],
  "zoom2d": 2500,
  "xOffset2d": 0,
  "yOffset2d": -30,
  "ambient": 0,
  "contrast": 0,
  "options": [
    null,
    null,
    "Take",
    null,
    null
  ],
  "interfaceOptions": [
    null,
    null,
    null,
    null,
    "Drop"
  ],
  "maleModel0": -1,
  "maleModel1": -1,
  "maleModel2": -1,
  "maleOffset": 0,
  "maleHeadModel": -1,
  "maleHeadModel2": -1,
  "femaleModel0": -1,
  "femaleModel1": -1,
  "femaleModel2": -1,
  "femaleOffset": 0,
  "femaleHeadModel": -1,
  "femaleHeadModel2": -1,
  "category": 561,
  "notedID": -1,
  "notedTemplate": -1,
  "team": 0,
  "weight": 100,
  "shiftClickDropIndex": -2,
  "boughtId": -1,
  "boughtTemplateId": -1,
  "placeholderId": -1,
  "placeholderTemplateId": -1
}