{
  "id": 4333,
  "name": "Team-10 cape",
  "examine": "Ooohhh look at the pretty colours...",
  "resizeX": 128,
  "resizeY": 128,
  "resizeZ": 128,
  "xan2d": 304,
  "yan2d": 996,
  "zan2d": 0,
  "cost": 50,
  "isTradeable": true,
  "stackable": 0,
  "inventoryModel": 5605,
  "wearPos1": 1,
  "wearPos2": 0,
  "wearPos3": 0,
  "members": false,
  "colorFind": [
    7756,
    7845
  ],
  "colorReplace": [
    -2837,
    -2519
  ],
  "zoom2d": 1770,
  "xOffset2d": -5,
  "yOffset2d": 4,
  "ambient": 0,
  "contrast": 0,
  "options": [
    null,
    null,
    "Take",
    null,
    null
  ],
  "interfaceOptions": [
    null,
    "Wear",
    null,
    null,
    "Drop"
  ],
  "maleModel0": 5585,
  "maleModel1": -1,
  "maleModel2": -1,
  "maleOffset": 0,
  "maleHeadModel": -1,
  "maleHeadModel2": -1,
  "femaleModel0": 5595,
  "femaleModel1": -1,
  "femaleModel2": -1,
  "femaleOffset": 0,
  "femaleHeadModel": -1,
  "femaleHeadModel2": -1,
  "category": 560,
  "notedID": 4334,
  "notedTemplate": -1,
  "team": 10,
  "weight": 453,
  "shiftClickDropIndex": -2,
  "boughtId": -1,
  "boughtTemplateId": -1,
  "placeholderId": 18294,
  "placeholderTemplateId": -1,
  "params": {
    "258": 19
  }
}