{
  "id": 442,
  "name": "Silver ore",
  "examine": "This needs refining.",
  "resizeX": 128,
  "resizeY": 128,
  "resizeZ": 128,
  "xan2d": 368,
  "yan2d": 1576,
  "zan2d": 0,
  "cost": 75,
  "isTradeable": true,
  "stackable": 0,
  "inventoryModel": 2748,
  "wearPos1": 0,
  "wearPos2": 0,
  "wearPos3": 0,
  "members": false,
  "colorFind": [
    7062,
    45
  ],
  "colorReplace": [
    -22440,
    -22440
  ],
  "zoom2d": 1400,
  "xOffset2d": 1,
  "yOffset2d": 15,
  "ambient": 0,
  "contrast": 0,
  "options": [
    null,
    null,
    "Take",
    null,
    null
  ],
  "interfaceOptions": [
    null,
    null,
    null,
    null,
    "Drop"
  ],
  "maleModel0": -1,
  "maleModel1": -1,
  "maleModel2": -1,
  "maleOffset": 0,
  "maleHeadModel": -1,
  "maleHeadModel2": -1,
  "femaleModel0": -1,
  "femaleModel1": -1,
  "femaleModel2": -1,
  "femaleOffset": 0,
  "femaleHeadModel": -1,
  "femaleHeadModel2": -1,
  "category": 91,
  "notedID": 443,
  "notedTemplate": -1,
  "team": 0,
  "weight": 2267,
  "shiftClickDropIndex": -2,
  "boughtId": -1,
  "boughtTemplateId": -1,
  "placeholderId": 16236,
  "placeholderTemplateId": -1,
  "params": {
    "123": 1
  }
}