{
  "id": 4436,
  "name": "Airtight pot",
  "examine": "This is pretty well sealed.",
  "resizeX": 128,
  "resizeY": 128,
  "resizeZ": 128,
  "xan2d": 112,
  "yan2d": 8,
  "zan2d": 0,
  "cost": 10,
  "isTradeable": true,
  "stackable": 0,
  "inventoryModel": 5641,
  "wearPos1": 0,
  "wearPos2": 0,
  "wearPos3": 0,
  "members": true,
  "colorFind": [
    6445,
    6453
  ],
  "colorReplace": [
    4899,
    4775
  ],
  "zoom2d": 990,
  "xOffset2d": -1,
  "yOffset2d": 2,
  "ambient": 0,
  "contrast": 0,
  "options": [
    null,
    null,
    "Take",
    null,
    null
  ],
  "interfaceOptions": [
    "Open",
    null,
    null,
    null,
    "Drop"
  ],
  "maleModel0": -1,
  "maleModel1": -1,
  "maleModel2": -1,
  "maleOffset": 0,
  "maleHeadModel": -1,
  "maleHeadModel2": -1,
  "femaleModel0": -1,
  "femaleModel1": -1,
  "femaleModel2": -1,
  "femaleOffset": 0,
  "femaleHeadModel": -1,
  "femaleHeadModel2": -1,
  "category": 0,
  "notedID": 4437,
  "notedTemplate": -1,
  "team": 0,
  "weight": 595,
  "shiftClickDropIndex": -2,
  "boughtId": -1,
  "boughtTemplateId": -1,
  "placeholderId": 17697,
  "placeholderTemplateId": -1
}