{
  "id": 4722,
  "name": "Dharok's platelegs",
  "examine": "Dharok the Wretched's plate leg armour.",
  "resizeX": 128,
  "resizeY": 128,
  "resizeZ": 128,
  "xan2d": 456,
  "yan2d": 0,
  "zan2d": 0,
  "cost": 275000,
  "isTradeable": true,
  "stackable": 0,
  "inventoryModel": 6581,
  "wearPos1": 7,
  "wearPos2": 0,
  "wearPos3": 0,
  "members": true,
  "colorFind": [
    10394,
    10388
  ],
  "colorReplace": [
    10512,
    10760
  ],
  "zoom2d": 1660,
  "xOffset2d": 1,
  "yOffset2d": 1,
  "ambient": 0,
  "contrast": 0,
  "options": [
    null,
    null,
    "Take",
    null,
    null
  ],
  "interfaceOptions": [
    null,
    "Wear",
    "Check",
    null,
    "Drop"
  ],
  "maleModel0": 6660,
  "maleModel1": -1,
  "maleModel2": -1,
  "maleOffset": 0,
  "maleHeadModel": -1,
  "maleHeadModel2": -1,
  "femaleModel0": 6692,
  "femaleModel1": -1,
  "femaleModel2": -1,
  "femaleOffset": 0,
  "femaleHeadModel": -1,
  "femaleHeadModel2": -1,
  "category": 8,
  "notedID": 4723,
  "notedTemplate": -1,
  "team": 0,
  "weight": 9071,
  "shiftClickDropIndex": -2,
  "boughtId": -1,
  "boughtTemplateId": -1,
  "placeholderId": 15697,
  "placeholderTemplateId": -1,
  "params": {
    "434": 1,
    "451": "Check",
    "1564": 7,
    "436": 70
  }
}