{
  "id": 4747,
  "name": "Torag's hammers",
  "examine": "Torag the Corrupted's twin hammers.",
  "resizeX": 128,
  "resizeY": 128,
  "resizeZ": 128,
  "xan2d": 272,
  "yan2d": 1212,
  "zan2d": 0,
  "cost": 160000,
  "isTradeable": true,
  "stackable": 0,
  "inventoryModel": 6591,
  "wearPos1": 3,
  "wearPos2": 5,
  "wearPos3": 0,
  "members": true,
  "zoom2d": 1620,
  "xOffset2d": -16,
  "yOffset2d": -9,
  "ambient": 0,
  "contrast": 0,
  "options": [
    null,
    null,
    "Take",
    null,
    null
  ],
  "interfaceOptions": [
    null,
    "Wield",
    "Check",
    null,
    "Drop"
  ],
  "maleModel0": 6707,
  "maleModel1": -1,
  "maleModel2": -1,
  "maleOffset": 0,
  "maleHeadModel": -1,
  "maleHeadModel2": -1,
  "femaleModel0": 39633,
  "femaleModel1": -1,
  "femaleModel2": -1,
  "femaleOffset": 0,
  "femaleHeadModel": -1,
  "femaleHeadModel2": -1,
  "category": 26,
  "notedID": 4748,
  "notedTemplate": -1,
  "team": 0,
  "weight": 3628,
  "shiftClickDropIndex": -2,
  "boughtId": -1,
  "boughtTemplateId": -1,
  "placeholderId": 15701,
  "placeholderTemplateId": -1,
  "params": {
    "434": 0,
    "435": 2,
    "451": "Check",
    "1564": 3,
    "436": 70,
    "437": 70
  }
}