{
  "id": 4830,
  "name": "Fayrg bones",
  "examine": "Ancient ogre bones from the ogre burial tomb.",
  "resizeX": 128,
  "resizeY": 128,
  "resizeZ": 128,
  "xan2d": 224,
  "yan2d": 104,
  "zan2d": 0,
  "cost": 1,
  "isTradeable": true,
  "stackable": 0,
  "inventoryModel": 6779,
  "wearPos1": 0,
  "wearPos2": 0,
  "wearPos3": 0,
  "members": true,
  "colorFind": [
    9765,
    7370
  ],
  "colorReplace": [
    8094,
    7370
  ],
  "zoom2d": 2000,
  "xOffset2d": 0,
  "yOffset2d": -17,
  "ambient": 0,
  "contrast": 0,
  "options": [
    null,
    null,
    "Take",
    null,
    null
  ],
  "interfaceOptions": [
    "Bury",
    null,
    null,
    null,
    "Drop"
  ],
  "maleModel0": -1,
  "maleModel1": -1,
  "maleModel2": -1,
  "maleOffset": 0,
  "maleHeadModel": -1,
  "maleHeadModel2": -1,
  "femaleModel0": -1,
  "femaleModel1": -1,
  "femaleModel2": -1,
  "femaleOffset": 0,
  "femaleHeadModel": -1,
  "femaleHeadModel2": -1,
  "category": 6,
  "notedID": 4831,
  "notedTemplate": -1,
  "team": 0,
  "weight": 800,
  "shiftClickDropIndex": -2,
  "boughtId": -1,
  "boughtTemplateId": -1,
  "placeholderId": 16863,
  "placeholderTemplateId": -1
}