{
  "id": 4883,
  "name": "Dharok's helm 25",
  "examine": "Dharok the Wretched's helm.",
  "resizeX": 128,
  "resizeY": 128,
  "resizeZ": 128,
  "xan2d": 96,
  "yan2d": 128,
  "zan2d": 0,
  "cost": 103000,
  "isTradeable": false,
  "stackable": 0,
  "inventoryModel": 6580,
  "wearPos1": 0,
  "wearPos2": 8,
  "wearPos3": 0,
  "members": true,
  "colorFind": [
    10394,
    10388
  ],
  "colorReplace": [
    10388,
    10508
  ],
  "zoom2d": 660,
  "xOffset2d": 5,
  "yOffset2d": -8,
  "ambient": 0,
  "contrast": 0,
  "options": [
    null,
    null,
    "Take",
    null,
    null
  ],
  "interfaceOptions": [
    null,
    "Wear",
    "Check",
    null,
    "Drop"
  ],
  "maleModel0": 6651,
  "maleModel1": -1,
  "maleModel2": -1,
  "maleOffset": 0,
  "maleHeadModel": 6569,
  "maleHeadModel2": -1,
  "femaleModel0": 6686,
  "femaleModel1": -1,
  "femaleModel2": -1,
  "femaleOffset": 0,
  "femaleHeadModel": 6574,
  "femaleHeadModel2": -1,
  "category": 2,
  "notedID": -1,
  "notedTemplate": -1,
  "team": 0,
  "weight": 1814,
  "shiftClickDropIndex": -2,
  "boughtId": -1,
  "boughtTemplateId": -1,
  "placeholderId": -1,
  "placeholderTemplateId": -1,
  "params": {
    "451": "Check"
  }
}