{
  "id": 4910,
  "name": "Guthan's warspear 100",
  "examine": "Guthan the Infested's warspear.",
  "resizeX": 128,
  "resizeY": 128,
  "resizeZ": 128,
  "xan2d": 176,
  "yan2d": 116,
  "zan2d": 0,
  "cost": 100000,
  "isTradeable": false,
  "stackable": 0,
  "inventoryModel": 6598,
  "wearPos1": 3,
  "wearPos2": 5,
  "wearPos3": 0,
  "members": true,
  "colorFind": [
    14511,
    14503,
    14494,
    21555,
    21563
  ],
  "colorReplace": [
    10512,
    10508,
    10760,
    21543,
    21551
  ],
  "zoom2d": 1470,
  "xOffset2d": -2,
  "yOffset2d": -16,
  "ambient": 0,
  "contrast": 0,
  "options": [
    null,
    null,
    "Take",
    null,
    null
  ],
  "interfaceOptions": [
    null,
    "Wield",
    "Check",
    null,
    "Drop"
  ],
  "maleModel0": 6709,
  "maleModel1": -1,
  "maleModel2": -1,
  "maleOffset": 0,
  "maleHeadModel": -1,
  "maleHeadModel2": -1,
  "femaleModel0": 39624,
  "femaleModel1": -1,
  "femaleModel2": -1,
  "femaleOffset": 0,
  "femaleHeadModel": -1,
  "femaleHeadModel2": -1,
  "category": 36,
  "notedID": -1,
  "notedTemplate": -1,
  "team": 0,
  "weight": 2267,
  "shiftClickDropIndex": -2,
  "boughtId": -1,
  "boughtTemplateId": -1,
  "placeholderId": -1,
  "placeholderTemplateId": -1,
  "params": {
    "451": "Check"
  }
}