{
  "id": 4938,
  "name": "Karil's crossbow 0",
  "examine": "Karil the Tainted's repeating crossbow.",
  "resizeX": 128,
  "resizeY": 128,
  "resizeZ": 128,
  "xan2d": 288,
  "yan2d": 888,
  "zan2d": 0,
  "cost": 160000,
  "isTradeable": true,
  "stackable": 0,
  "inventoryModel": 6845,
  "wearPos1": 3,
  "wearPos2": 5,
  "wearPos3": 0,
  "members": true,
  "colorFind": [
    10529,
    8602,
    10520,
    8722
  ],
  "colorReplace": [
    10388,
    10512,
    10508,
    10760
  ],
  "zoom2d": 1160,
  "xOffset2d": -4,
  "yOffset2d": 39,
  "ambient": 0,
  "contrast": 0,
  "options": [
    null,
    null,
    "Take",
    null,
    null
  ],
  "interfaceOptions": [
    null,
    null,
    null,
    null,
    "Drop"
  ],
  "maleModel0": 6712,
  "maleModel1": -1,
  "maleModel2": -1,
  "maleOffset": 0,
  "maleHeadModel": -1,
  "maleHeadModel2": -1,
  "femaleModel0": 39618,
  "femaleModel1": -1,
  "femaleModel2": -1,
  "femaleOffset": 0,
  "femaleHeadModel": -1,
  "femaleHeadModel2": -1,
  "category": 37,
  "notedID": 4939,
  "notedTemplate": -1,
  "team": 0,
  "weight": 3628,
  "shiftClickDropIndex": -2,
  "boughtId": -1,
  "boughtTemplateId": -1,
  "placeholderId": 15686,
  "placeholderTemplateId": -1,
  "params": {
    "23": 70
  }
}