{
  "id": 4943,
  "name": "Karil's leathertop 25",
  "examine": "Karil the Tainted's leather body armour.",
  "resizeX": 128,
  "resizeY": 128,
  "resizeZ": 128,
  "xan2d": 556,
  "yan2d": 0,
  "zan2d": 0,
  "cost": 50000,
  "isTradeable": false,
  "stackable": 0,
  "inventoryModel": 6588,
  "wearPos1": 4,
  "wearPos2": 6,
  "wearPos3": 0,
  "members": true,
  "colorFind": [
    10413,
    10520,
    10644,
    10768,
    908
  ],
  "colorReplace": [
    7510,
    10388,
    10512,
    10508,
    10760
  ],
  "zoom2d": 1380,
  "xOffset2d": 3,
  "yOffset2d": 0,
  "ambient": 0,
  "contrast": 0,
  "options": [
    null,
    null,
    "Take",
    null,
    null
  ],
  "interfaceOptions": [
    null,
    "Wear",
    "Check",
    null,
    "Drop"
  ],
  "maleModel0": 6674,
  "maleModel1": 6643,
  "maleModel2": -1,
  "maleOffset": 0,
  "maleHeadModel": -1,
  "maleHeadModel2": -1,
  "femaleModel0": 6700,
  "femaleModel1": 6683,
  "femaleModel2": -1,
  "femaleOffset": 0,
  "femaleHeadModel": -1,
  "femaleHeadModel2": -1,
  "category": 7,
  "notedID": -1,
  "notedTemplate": -1,
  "team": 0,
  "weight": 6803,
  "shiftClickDropIndex": -2,
  "boughtId": -1,
  "boughtTemplateId": -1,
  "placeholderId": -1,
  "placeholderTemplateId": -1,
  "params": {
    "451": "Check"
  }
}