{
  "id": 4965,
  "name": "Torag's platebody 75",
  "examine": "Torag the Corrupted's platebody armour.",
  "resizeX": 128,
  "resizeY": 128,
  "resizeZ": 128,
  "xan2d": 432,
  "yan2d": 0,
  "zan2d": 0,
  "cost": 280000,
  "isTradeable": false,
  "stackable": 0,
  "inventoryModel": 6594,
  "wearPos1": 4,
  "wearPos2": 6,
  "wearPos3": 0,
  "members": true,
  "colorFind": [
    10394,
    10291
  ],
  "colorReplace": [
    10388,
    10508
  ],
  "zoom2d": 1310,
  "xOffset2d": 2,
  "yOffset2d": 0,
  "ambient": 0,
  "contrast": 0,
  "options": [
    null,
    null,
    "Take",
    null,
    null
  ],
  "interfaceOptions": [
    null,
    "Wear",
    "Check",
    null,
    "Drop"
  ],
  "maleModel0": 6676,
  "maleModel1": 6644,
  "maleModel2": -1,
  "maleOffset": 0,
  "maleHeadModel": -1,
  "maleHeadModel2": -1,
  "femaleModel0": 6701,
  "femaleModel1": 6684,
  "femaleModel2": -1,
  "femaleOffset": 0,
  "femaleHeadModel": -1,
  "femaleHeadModel2": -1,
  "category": 7,
  "notedID": -1,
  "notedTemplate": -1,
  "team": 0,
  "weight": 9979,
  "shiftClickDropIndex": -2,
  "boughtId": -1,
  "boughtTemplateId": -1,
  "placeholderId": -1,
  "placeholderTemplateId": -1,
  "params": {
    "451": "Check"
  }
}