{
  "id": 4974,
  "name": "Torag's platelegs 0",
  "examine": "Torag the Corrupted's plate leg armour.",
  "resizeX": 128,
  "resizeY": 128,
  "resizeZ": 128,
  "xan2d": 468,
  "yan2d": 0,
  "zan2d": 0,
  "cost": 275000,
  "isTradeable": true,
  "stackable": 0,
  "inventoryModel": 6829,
  "wearPos1": 7,
  "wearPos2": 0,
  "wearPos3": 0,
  "members": true,
  "colorFind": [
    10394
  ],
  "colorReplace": [
    10388
  ],
  "zoom2d": 1720,
  "xOffset2d": 0,
  "yOffset2d": 1,
  "ambient": 0,
  "contrast": 0,
  "options": [
    null,
    null,
    "Take",
    null,
    null
  ],
  "interfaceOptions": [
    null,
    null,
    null,
    null,
    "Drop"
  ],
  "maleModel0": 6662,
  "maleModel1": -1,
  "maleModel2": -1,
  "maleOffset": 0,
  "maleHeadModel": -1,
  "maleHeadModel2": -1,
  "femaleModel0": 6693,
  "femaleModel1": -1,
  "femaleModel2": -1,
  "femaleOffset": 0,
  "femaleHeadModel": -1,
  "femaleHeadModel2": -1,
  "category": 8,
  "notedID": 4975,
  "notedTemplate": -1,
  "team": 0,
  "weight": 9071,
  "shiftClickDropIndex": -2,
  "boughtId": -1,
  "boughtTemplateId": -1,
  "placeholderId": 15706,
  "placeholderTemplateId": -1
}