{
  "id": 5527,
  "name": "Air tiara",
  "examine": "A tiara infused with the properties of air.",
  "resizeX": 128,
  "resizeY": 128,
  "resizeZ": 128,
  "xan2d": 232,
  "yan2d": 0,
  "zan2d": 0,
  "cost": 100,
  "isTradeable": true,
  "stackable": 0,
  "inventoryModel": 7523,
  "wearPos1": 0,
  "wearPos2": 0,
  "wearPos3": 0,
  "members": false,
  "colorFind": [
    -22440
  ],
  "colorReplace": [
    99
  ],
  "zoom2d": 480,
  "xOffset2d": 0,
  "yOffset2d": -25,
  "ambient": 0,
  "contrast": 0,
  "options": [
    null,
    null,
    "Take",
    null,
    null
  ],
  "interfaceOptions": [
    null,
    "Wear",
    null,
    null,
    "Drop"
  ],
  "maleModel0": 7480,
  "maleModel1": -1,
  "maleModel2": -1,
  "maleOffset": 0,
  "maleHeadModel": 7466,
  "maleHeadModel2": -1,
  "femaleModel0": 7494,
  "femaleModel1": -1,
  "femaleModel2": -1,
  "femaleOffset": 0,
  "femaleHeadModel": 7466,
  "femaleHeadModel2": -1,
  "category": 1611,
  "notedID": 5528,
  "notedTemplate": -1,
  "team": 0,
  "weight": 1000,
  "shiftClickDropIndex": -2,
  "boughtId": -1,
  "boughtTemplateId": -1,
  "placeholderId": 19249,
  "placeholderTemplateId": -1
}