{
  "id": 56,
  "name": "Oak longbow (u)",
  "examine": "An unstrung oak longbow; I need a bowstring for this.",
  "resizeX": 128,
  "resizeY": 128,
  "resizeZ": 128,
  "xan2d": 460,
  "yan2d": 1004,
  "zan2d": 0,
  "cost": 80,
  "isTradeable": true,
  "stackable": 0,
  "inventoryModel": 2401,
  "wearPos1": 0,
  "wearPos2": 0,
  "wearPos3": 0,
  "members": true,
  "colorFind": [
    6674
  ],
  "colorReplace": [
    8111
  ],
  "zoom2d": 1820,
  "xOffset2d": 2,
  "yOffset2d": 15,
  "ambient": 0,
  "contrast": 0,
  "options": [
    null,
    null,
    "Take",
    null,
    null
  ],
  "interfaceOptions": [
    null,
    null,
    null,
    null,
    "Drop"
  ],
  "maleModel0": 26609,
  "maleModel1": -1,
  "maleModel2": -1,
  "maleOffset": 0,
  "maleHeadModel": -1,
  "maleHeadModel2": -1,
  "femaleModel0": 26609,
  "femaleModel1": -1,
  "femaleModel2": -1,
  "femaleOffset": 6,
  "femaleHeadModel": -1,
  "femaleHeadModel2": -1,
  "category": 0,
  "notedID": 57,
  "notedTemplate": -1,
  "team": 0,
  "weight": 1332,
  "shiftClickDropIndex": -2,
  "boughtId": -1,
  "boughtTemplateId": -1,
  "placeholderId": 18234,
  "placeholderTemplateId": -1,
  "params": {
    "436": 25,
    "434": 9
  }
}