{
  "id": 5660,
  "name": "Rune knife(p+)",
  "examine": "A finely balanced throwing knife.",
  "resizeX": 128,
  "resizeY": 128,
  "resizeZ": 128,
  "xan2d": 204,
  "yan2d": 112,
  "zan2d": 1860,
  "cost": 166,
  "isTradeable": true,
  "stackable": 1,
  "inventoryModel": 2557,
  "wearPos1": 3,
  "wearPos2": 0,
  "wearPos3": 0,
  "members": true,
  "colorFind": [
    61,
    57
  ],
  "colorReplace": [
    -29403,
    13221
  ],
  "zoom2d": 1080,
  "xOffset2d": -1,
  "yOffset2d": -26,
  "ambient": 0,
  "contrast": 0,
  "options": [
    null,
    null,
    "Take",
    null,
    null
  ],
  "interfaceOptions": [
    null,
    "Wield",
    null,
    null,
    "Drop"
  ],
  "maleModel0": 548,
  "maleModel1": -1,
  "maleModel2": -1,
  "maleOffset": 0,
  "maleHeadModel": -1,
  "maleHeadModel2": -1,
  "femaleModel0": 42631,
  "femaleModel1": -1,
  "femaleModel2": -1,
  "femaleOffset": 0,
  "femaleHeadModel": -1,
  "femaleHeadModel2": -1,
  "category": 24,
  "notedID": -1,
  "notedTemplate": -1,
  "team": 0,
  "weight": 0,
  "shiftClickDropIndex": -2,
  "boughtId": -1,
  "boughtTemplateId": -1,
  "placeholderId": 14492,
  "placeholderTemplateId": -1,
  "params": {
    "23": 40
  }
}