{
  "id": 5974,
  "name": "Coconut",
  "examine": "It's a coconut.",
  "resizeX": 128,
  "resizeY": 128,
  "resizeZ": 128,
  "xan2d": 104,
  "yan2d": 112,
  "zan2d": 0,
  "cost": 87,
  "isTradeable": true,
  "stackable": 0,
  "inventoryModel": 7191,
  "wearPos1": 0,
  "wearPos2": 0,
  "wearPos3": 0,
  "members": true,
  "zoom2d": 1160,
  "xOffset2d": 0,
  "yOffset2d": 0,
  "ambient": 15,
  "contrast": 0,
  "options": [
    null,
    null,
    "Take",
    null,
    null
  ],
  "interfaceOptions": [
    null,
    null,
    null,
    null,
    "Drop"
  ],
  "maleModel0": -1,
  "maleModel1": -1,
  "maleModel2": -1,
  "maleOffset": 0,
  "maleHeadModel": -1,
  "maleHeadModel2": -1,
  "femaleModel0": -1,
  "femaleModel1": -1,
  "femaleModel2": -1,
  "femaleOffset": 0,
  "femaleHeadModel": -1,
  "femaleHeadModel2": -1,
  "category": 86,
  "notedID": 5975,
  "notedTemplate": -1,
  "team": 0,
  "weight": 28,
  "shiftClickDropIndex": -2,
  "boughtId": -1,
  "boughtTemplateId": -1,
  "placeholderId": 13852,
  "placeholderTemplateId": -1
}