{
  "id": 6137,
  "name": "Skeletal helm",
  "examine": "Make your foes cower by wearing a skull as a helmet!",
  "resizeX": 128,
  "resizeY": 128,
  "resizeZ": 128,
  "xan2d": 228,
  "yan2d": 1004,
  "zan2d": 0,
  "cost": 10000,
  "isTradeable": true,
  "stackable": 0,
  "inventoryModel": 8737,
  "wearPos1": 0,
  "wearPos2": 8,
  "wearPos3": 0,
  "members": true,
  "zoom2d": 800,
  "xOffset2d": 0,
  "yOffset2d": -46,
  "ambient": 30,
  "contrast": 30,
  "options": [
    null,
    null,
    "Take",
    null,
    null
  ],
  "interfaceOptions": [
    null,
    "Wear",
    null,
    null,
    "Drop"
  ],
  "maleModel0": 215,
  "maleModel1": 8729,
  "maleModel2": -1,
  "maleOffset": 0,
  "maleHeadModel": 8722,
  "maleHeadModel2": -1,
  "femaleModel0": 391,
  "femaleModel1": 8734,
  "femaleModel2": -1,
  "femaleOffset": 0,
  "femaleHeadModel": 8724,
  "femaleHeadModel2": -1,
  "category": 2,
  "notedID": 6138,
  "notedTemplate": -1,
  "team": 0,
  "weight": 1360,
  "shiftClickDropIndex": -2,
  "boughtId": -1,
  "boughtTemplateId": -1,
  "placeholderId": 18383,
  "placeholderTemplateId": -1
}