{
  "id": 6281,
  "name": "Thatch spar light",
  "examine": "A wooden pole for use in primitive construction.",
  "resizeX": 128,
  "resizeY": 128,
  "resizeZ": 128,
  "xan2d": 684,
  "yan2d": 1988,
  "zan2d": 0,
  "cost": 10,
  "isTradeable": true,
  "stackable": 0,
  "inventoryModel": 5152,
  "wearPos1": 5,
  "wearPos2": 0,
  "wearPos3": 0,
  "members": true,
  "colorFind": [
    7461
  ],
  "colorReplace": [
    6585
  ],
  "zoom2d": 1450,
  "xOffset2d": 2,
  "yOffset2d": 12,
  "ambient": 0,
  "contrast": 0,
  "options": [
    null,
    null,
    "Take",
    null,
    null
  ],
  "interfaceOptions": [
    null,
    null,
    null,
    null,
    "Drop"
  ],
  "maleModel0": 8946,
  "maleModel1": -1,
  "maleModel2": -1,
  "maleOffset": 0,
  "maleHeadModel": -1,
  "maleHeadModel2": -1,
  "femaleModel0": 8946,
  "femaleModel1": -1,
  "femaleModel2": -1,
  "femaleOffset": 6,
  "femaleHeadModel": -1,
  "femaleHeadModel2": -1,
  "category": 19,
  "notedID": 6282,
  "notedTemplate": -1,
  "team": 0,
  "weight": 100,
  "shiftClickDropIndex": -2,
  "boughtId": -1,
  "boughtTemplateId": -1,
  "placeholderId": 18708,
  "placeholderTemplateId": -1
}