{
  "id": 6319,
  "name": "Proboscis",
  "examine": "A giant mosquito's proboscis, aerodynamic and sharp!",
  "resizeX": 128,
  "resizeY": 128,
  "resizeZ": 128,
  "xan2d": 308,
  "yan2d": 1984,
  "zan2d": 0,
  "cost": 5,
  "isTradeable": true,
  "stackable": 1,
  "inventoryModel": 8857,
  "wearPos1": 0,
  "wearPos2": 0,
  "wearPos3": 0,
  "members": true,
  "colorFind": [
    28
  ],
  "colorReplace": [
    4205
  ],
  "zoom2d": 650,
  "xOffset2d": 3,
  "yOffset2d": 4,
  "ambient": 0,
  "contrast": 0,
  "countCo": [
    100,
    1000,
    0,
    0,
    0,
    0,
    0,
    0,
    0,
    0
  ],
  "countObj": [
    6320,
    6321,
    0,
    0,
    0,
    0,
    0,
    0,
    0,
    0
  ],
  "options": [
    null,
    null,
    "Take",
    null,
    null
  ],
  "interfaceOptions": [
    null,
    null,
    null,
    null,
    "Drop"
  ],
  "maleModel0": -1,
  "maleModel1": -1,
  "maleModel2": -1,
  "maleOffset": 0,
  "maleHeadModel": -1,
  "maleHeadModel2": -1,
  "femaleModel0": -1,
  "femaleModel1": -1,
  "femaleModel2": -1,
  "femaleOffset": 0,
  "femaleHeadModel": -1,
  "femaleHeadModel2": -1,
  "category": 0,
  "notedID": -1,
  "notedTemplate": -1,
  "team": 0,
  "weight": 0,
  "shiftClickDropIndex": -2,
  "boughtId": -1,
  "boughtTemplateId": -1,
  "placeholderId": 18724,
  "placeholderTemplateId": -1
}