{
  "id": 6448,
  "name": "Spadeful of coke",
  "examine": "A spadeful of refined coal.",
  "resizeX": 128,
  "resizeY": 128,
  "resizeZ": 128,
  "xan2d": 304,
  "yan2d": 1468,
  "zan2d": 0,
  "cost": 3,
  "isTradeable": false,
  "stackable": 0,
  "inventoryModel": 9100,
  "wearPos1": 0,
  "wearPos2": 0,
  "wearPos3": 0,
  "members": true,
  "colorFind": [
    61,
    57,
    70
  ],
  "colorReplace": [
    5181,
    5177,
    5190
  ],
  "zoom2d": 1650,
  "xOffset2d": -1,
  "yOffset2d": 15,
  "ambient": 0,
  "contrast": 0,
  "options": [
    null,
    null,
    "Take",
    null,
    null
  ],
  "interfaceOptions": [
    "Empty",
    null,
    null,
    null,
    "Drop"
  ],
  "maleModel0": 9101,
  "maleModel1": -1,
  "maleModel2": -1,
  "maleOffset": 0,
  "maleHeadModel": -1,
  "maleHeadModel2": -1,
  "femaleModel0": 9101,
  "femaleModel1": -1,
  "femaleModel2": -1,
  "femaleOffset": 0,
  "femaleHeadModel": -1,
  "femaleHeadModel2": -1,
  "category": 0,
  "notedID": -1,
  "notedTemplate": -1,
  "team": 0,
  "weight": 1814,
  "shiftClickDropIndex": -2,
  "boughtId": -1,
  "boughtTemplateId": -1,
  "placeholderId": 15590,
  "placeholderTemplateId": -1
}