{
  "id": 6522,
  "name": "Toktz-xil-ul",
  "examine": "A razor sharp ring of obsidian.",
  "resizeX": 128,
  "resizeY": 128,
  "resizeZ": 128,
  "xan2d": 408,
  "yan2d": 28,
  "zan2d": 0,
  "cost": 250,
  "isTradeable": true,
  "stackable": 1,
  "inventoryModel": 9353,
  "wearPos1": 3,
  "wearPos2": 0,
  "wearPos3": 0,
  "members": true,
  "zoom2d": 890,
  "xOffset2d": 3,
  "yOffset2d": -4,
  "ambient": 15,
  "contrast": 35,
  "options": [
    null,
    null,
    "Take",
    null,
    null
  ],
  "interfaceOptions": [
    null,
    "Wield",
    null,
    null,
    "Drop"
  ],
  "maleModel0": 9346,
  "maleModel1": -1,
  "maleModel2": -1,
  "maleOffset": 0,
  "maleHeadModel": -1,
  "maleHeadModel2": -1,
  "femaleModel0": 9346,
  "femaleModel1": -1,
  "femaleModel2": -1,
  "femaleOffset": 6,
  "femaleHeadModel": -1,
  "femaleHeadModel2": -1,
  "category": 24,
  "notedID": -1,
  "notedTemplate": -1,
  "team": 0,
  "weight": 0,
  "shiftClickDropIndex": -2,
  "boughtId": -1,
  "boughtTemplateId": -1,
  "placeholderId": 18253,
  "placeholderTemplateId": -1,
  "params": {
    "434": 4,
    "1564": 3,
    "436": 60,
    "23": 50
  }
}