{
  "id": 6623,
  "name": "White full helm",
  "examine": "A full face helmet.",
  "resizeX": 128,
  "resizeY": 128,
  "resizeZ": 128,
  "xan2d": 160,
  "yan2d": 152,
  "zan2d": 0,
  "cost": 1056,
  "isTradeable": true,
  "stackable": 0,
  "inventoryModel": 2813,
  "wearPos1": 0,
  "wearPos2": 8,
  "wearPos3": 11,
  "members": true,
  "colorFind": [
    61
  ],
  "colorReplace": [
    99
  ],
  "zoom2d": 800,
  "xOffset2d": -1,
  "yOffset2d": 6,
  "ambient": 0,
  "contrast": 0,
  "options": [
    null,
    null,
    "Take",
    null,
    null
  ],
  "interfaceOptions": [
    null,
    "Wear",
    null,
    null,
    "Drop"
  ],
  "maleModel0": 218,
  "maleModel1": -1,
  "maleModel2": -1,
  "maleOffset": 0,
  "maleHeadModel": 56,
  "maleHeadModel2": -1,
  "femaleModel0": 394,
  "femaleModel1": -1,
  "femaleModel2": -1,
  "femaleOffset": 0,
  "femaleHeadModel": 116,
  "femaleHeadModel2": -1,
  "category": 2,
  "notedID": 6624,
  "notedTemplate": -1,
  "team": 0,
  "weight": 2721,
  "shiftClickDropIndex": -2,
  "boughtId": -1,
  "boughtTemplateId": -1,
  "placeholderId": 14333,
  "placeholderTemplateId": -1
}