{
  "id": 6914,
  "name": "Master wand",
  "examine": "A master level wand.",
  "resizeX": 128,
  "resizeY": 128,
  "resizeZ": 128,
  "xan2d": 68,
  "yan2d": 1092,
  "zan2d": 0,
  "cost": 100001,
  "isTradeable": true,
  "stackable": 0,
  "inventoryModel": 10565,
  "wearPos1": 3,
  "wearPos2": 0,
  "wearPos3": 0,
  "members": true,
  "zoom2d": 540,
  "xOffset2d": 6,
  "yOffset2d": -7,
  "ambient": 0,
  "contrast": 0,
  "options": [
    null,
    null,
    "Take",
    null,
    null
  ],
  "interfaceOptions": [
    null,
    "Wield",
    null,
    null,
    "Drop"
  ],
  "maleModel0": 10702,
  "maleModel1": -1,
  "maleModel2": -1,
  "maleOffset": 0,
  "maleHeadModel": -1,
  "maleHeadModel2": -1,
  "femaleModel0": 39616,
  "femaleModel1": -1,
  "femaleModel2": -1,
  "femaleOffset": 0,
  "femaleHeadModel": -1,
  "femaleHeadModel2": -1,
  "category": 1,
  "notedID": 6915,
  "notedTemplate": -1,
  "team": 0,
  "weight": 198,
  "shiftClickDropIndex": -2,
  "boughtId": -1,
  "boughtTemplateId": -1,
  "placeholderId": 18598,
  "placeholderTemplateId": -1,
  "params": {
    "1564": 3,
    "436": 55,
    "434": 6
  }
}