{
  "id": 7130,
  "name": "Pirate bandana",
  "examine": "Essential pirate wear.",
  "resizeX": 128,
  "resizeY": 128,
  "resizeZ": 128,
  "xan2d": 609,
  "yan2d": 417,
  "zan2d": 0,
  "cost": 100,
  "isTradeable": true,
  "stackable": 0,
  "inventoryModel": 11140,
  "wearPos1": 0,
  "wearPos2": 8,
  "wearPos3": 0,
  "members": true,
  "colorFind": [
    127
  ],
  "colorReplace": [
    -25146
  ],
  "zoom2d": 720,
  "xOffset2d": 0,
  "yOffset2d": 8,
  "ambient": 0,
  "contrast": 0,
  "options": [
    null,
    null,
    "Take",
    null,
    null
  ],
  "interfaceOptions": [
    null,
    "Wear",
    null,
    null,
    "Drop"
  ],
  "maleModel0": 11111,
  "maleModel1": -1,
  "maleModel2": -1,
  "maleOffset": 0,
  "maleHeadModel": 11186,
  "maleHeadModel2": -1,
  "femaleModel0": 11118,
  "femaleModel1": -1,
  "femaleModel2": -1,
  "femaleOffset": 0,
  "femaleHeadModel": 11189,
  "femaleHeadModel2": -1,
  "category": 0,
  "notedID": 7131,
  "notedTemplate": -1,
  "team": 0,
  "weight": 1000,
  "shiftClickDropIndex": -2,
  "boughtId": -1,
  "boughtTemplateId": -1,
  "placeholderId": 16928,
  "placeholderTemplateId": -1,
  "params": {
    "258": 17
  }
}