{
  "id": 7196,
  "name": "Raw admiral pie",
  "examine": "This would taste a lot better cooked.",
  "resizeX": 128,
  "resizeY": 128,
  "resizeZ": 128,
  "xan2d": 192,
  "yan2d": 104,
  "zan2d": 0,
  "cost": 155,
  "isTradeable": true,
  "stackable": 0,
  "inventoryModel": 11267,
  "wearPos1": 0,
  "wearPos2": 0,
  "wearPos3": 0,
  "members": true,
  "colorFind": [
    61,
    103
  ],
  "colorReplace": [
    2000,
    1498
  ],
  "zoom2d": 950,
  "xOffset2d": 0,
  "yOffset2d": -9,
  "ambient": 10,
  "contrast": 10,
  "options": [
    null,
    null,
    "Take",
    null,
    null
  ],
  "interfaceOptions": [
    null,
    null,
    null,
    null,
    "Drop"
  ],
  "maleModel0": -1,
  "maleModel1": -1,
  "maleModel2": -1,
  "maleOffset": 0,
  "maleHeadModel": -1,
  "maleHeadModel2": -1,
  "femaleModel0": -1,
  "femaleModel1": -1,
  "femaleModel2": -1,
  "femaleOffset": 0,
  "femaleHeadModel": -1,
  "femaleHeadModel2": -1,
  "category": 129,
  "notedID": 7197,
  "notedTemplate": -1,
  "team": 0,
  "weight": 1,
  "shiftClickDropIndex": -2,
  "boughtId": -1,
  "boughtTemplateId": -1,
  "placeholderId": 19184,
  "placeholderTemplateId": -1
}