{
  "id": 7396,
  "name": "Blue wizard hat (t)",
  "examine": "A silly pointed hat, with colourful trim.",
  "resizeX": 128,
  "resizeY": 128,
  "resizeZ": 128,
  "xan2d": 152,
  "yan2d": 156,
  "zan2d": 0,
  "cost": 2,
  "isTradeable": true,
  "stackable": 0,
  "inventoryModel": 11400,
  "wearPos1": 0,
  "wearPos2": 0,
  "wearPos3": 0,
  "members": false,
  "colorFind": [
    24
  ],
  "colorReplace": [
    4
  ],
  "zoom2d": 800,
  "xOffset2d": 5,
  "yOffset2d": -10,
  "ambient": 0,
  "contrast": 0,
  "options": [
    null,
    null,
    "Take",
    null,
    null
  ],
  "interfaceOptions": [
    null,
    "Wear",
    null,
    null,
    "Drop"
  ],
  "maleModel0": 11331,
  "maleModel1": -1,
  "maleModel2": -1,
  "maleOffset": 0,
  "maleHeadModel": 11403,
  "maleHeadModel2": -1,
  "femaleModel0": 11354,
  "femaleModel1": -1,
  "femaleModel2": -1,
  "femaleOffset": 0,
  "femaleHeadModel": 11407,
  "femaleHeadModel2": -1,
  "category": 0,
  "notedID": 7397,
  "notedTemplate": -1,
  "team": 0,
  "weight": 453,
  "shiftClickDropIndex": -2,
  "boughtId": -1,
  "boughtTemplateId": -1,
  "placeholderId": 16048,
  "placeholderTemplateId": -1
}