{
  "id": 7400,
  "name": "Enchanted hat",
  "examine": "A three pointed hat of magic.",
  "resizeX": 128,
  "resizeY": 128,
  "resizeZ": 128,
  "xan2d": 152,
  "yan2d": 156,
  "zan2d": 0,
  "cost": 15000,
  "isTradeable": true,
  "stackable": 0,
  "inventoryModel": 11424,
  "wearPos1": 0,
  "wearPos2": 8,
  "wearPos3": 0,
  "members": true,
  "zoom2d": 800,
  "xOffset2d": 5,
  "yOffset2d": -10,
  "ambient": 0,
  "contrast": 0,
  "options": [
    null,
    null,
    "Take",
    null,
    null
  ],
  "interfaceOptions": [
    null,
    "Wear",
    null,
    null,
    "Drop"
  ],
  "maleModel0": 11410,
  "maleModel1": -1,
  "maleModel2": -1,
  "maleOffset": 0,
  "maleHeadModel": 11404,
  "maleHeadModel2": -1,
  "femaleModel0": 11416,
  "femaleModel1": -1,
  "femaleModel2": -1,
  "femaleOffset": 0,
  "femaleHeadModel": 11408,
  "femaleHeadModel2": -1,
  "category": 10,
  "notedID": 7403,
  "notedTemplate": -1,
  "team": 0,
  "weight": 453,
  "shiftClickDropIndex": -2,
  "boughtId": -1,
  "boughtTemplateId": -1,
  "placeholderId": 16051,
  "placeholderTemplateId": -1,
  "params": {
    "434": 6,
    "435": 1,
    "1564": 0,
    "436": 40,
    "437": 20
  }
}