{
  "id": 7459,
  "name": "Adamant gloves",
  "examine": "A pair of nice gloves.",
  "resizeX": 128,
  "resizeY": 128,
  "resizeZ": 128,
  "xan2d": 609,
  "yan2d": 111,
  "zan2d": 0,
  "cost": 2500,
  "isTradeable": false,
  "stackable": 0,
  "inventoryModel": 13631,
  "wearPos1": 9,
  "wearPos2": 0,
  "wearPos3": 0,
  "members": true,
  "colorFind": [
    10394,
    8656
  ],
  "colorReplace": [
    21662,
    21776
  ],
  "zoom2d": 789,
  "xOffset2d": 0,
  "yOffset2d": -1,
  "ambient": 0,
  "contrast": 0,
  "options": [
    null,
    null,
    "Take",
    null,
    null
  ],
  "interfaceOptions": [
    null,
    "Wear",
    null,
    null,
    "Drop"
  ],
  "maleModel0": 13307,
  "maleModel1": -1,
  "maleModel2": -1,
  "maleOffset": 0,
  "maleHeadModel": -1,
  "maleHeadModel2": -1,
  "femaleModel0": 13319,
  "femaleModel1": -1,
  "femaleModel2": -1,
  "femaleOffset": 0,
  "femaleHeadModel": -1,
  "femaleHeadModel2": -1,
  "category": 16,
  "notedID": -1,
  "notedTemplate": -1,
  "team": 0,
  "weight": 226,
  "shiftClickDropIndex": -2,
  "boughtId": -1,
  "boughtTemplateId": -1,
  "placeholderId": 14366,
  "placeholderTemplateId": -1,
  "params": {
    "1564": 9,
    "436": 13,
    "434": 1
  }
}