{
  "id": 767,
  "name": "Phoenix crossbow",
  "examine": "Former property of the Phoenix Gang.",
  "resizeX": 128,
  "resizeY": 128,
  "resizeZ": 128,
  "xan2d": 483,
  "yan2d": 1815,
  "zan2d": 0,
  "cost": 4,
  "isTradeable": false,
  "stackable": 0,
  "inventoryModel": 17370,
  "wearPos1": 3,
  "wearPos2": 0,
  "wearPos3": 0,
  "members": false,
  "colorFind": [
    6447,
    6443,
    6439,
    5656,
    5652,
    5904
  ],
  "colorReplace": [
    6439,
    6563,
    6558,
    5904,
    6028,
    5002
  ],
  "zoom2d": 1112,
  "xOffset2d": 15,
  "yOffset2d": 12,
  "ambient": 0,
  "contrast": 0,
  "options": [
    null,
    null,
    "Take",
    null,
    null
  ],
  "interfaceOptions": [
    null,
    "Wield",
    null,
    "Inspect",
    "Drop"
  ],
  "maleModel0": 16846,
  "maleModel1": -1,
  "maleModel2": -1,
  "maleOffset": 0,
  "maleHeadModel": -1,
  "maleHeadModel2": -1,
  "femaleModel0": 42622,
  "femaleModel1": -1,
  "femaleModel2": -1,
  "femaleOffset": 0,
  "femaleHeadModel": -1,
  "femaleHeadModel2": -1,
  "category": 37,
  "notedID": 768,
  "notedTemplate": -1,
  "team": 0,
  "weight": 3628,
  "shiftClickDropIndex": -2,
  "boughtId": -1,
  "boughtTemplateId": -1,
  "placeholderId": 17871,
  "placeholderTemplateId": -1,
  "params": {
    "23": 1
  }
}