{
  "id": 7791,
  "name": "Mining tome",
  "examine": "A tome of learning which focuses on the Mining skill.",
  "resizeX": 128,
  "resizeY": 128,
  "resizeZ": 128,
  "xan2d": 299,
  "yan2d": 88,
  "zan2d": 0,
  "cost": 5000,
  "isTradeable": false,
  "stackable": 0,
  "inventoryModel": 14138,
  "wearPos1": 0,
  "wearPos2": 0,
  "wearPos3": 0,
  "members": true,
  "colorFind": [
    8720,
    7700,
    9775,
    8633,
    7741
  ],
  "colorReplace": [
    -22367,
    -22487,
    5173,
    5181,
    -22479
  ],
  "zoom2d": 724,
  "xOffset2d": 0,
  "yOffset2d": 1,
  "ambient": 10,
  "contrast": 0,
  "options": [
    null,
    null,
    "Take",
    null,
    null
  ],
  "interfaceOptions": [
    "Read",
    null,
    null,
    null,
    "Drop"
  ],
  "maleModel0": -1,
  "maleModel1": -1,
  "maleModel2": -1,
  "maleOffset": 0,
  "maleHeadModel": -1,
  "maleHeadModel2": -1,
  "femaleModel0": -1,
  "femaleModel1": -1,
  "femaleModel2": -1,
  "femaleOffset": 0,
  "femaleHeadModel": -1,
  "femaleHeadModel2": -1,
  "category": 966,
  "notedID": -1,
  "notedTemplate": -1,
  "team": 0,
  "weight": 1000,
  "shiftClickDropIndex": -2,
  "boughtId": -1,
  "boughtTemplateId": -1,
  "placeholderId": -1,
  "placeholderTemplateId": -1
}