{
  "id": 803,
  "name": "Mithril thrownaxe",
  "examine": "A finely balanced throwing axe.",
  "resizeX": 128,
  "resizeY": 128,
  "resizeZ": 128,
  "xan2d": 388,
  "yan2d": 208,
  "zan2d": 0,
  "cost": 70,
  "isTradeable": true,
  "stackable": 1,
  "inventoryModel": 2752,
  "wearPos1": 3,
  "wearPos2": 0,
  "wearPos3": 0,
  "members": true,
  "colorFind": [
    61,
    57
  ],
  "colorReplace": [
    -22239,
    -22239
  ],
  "zoom2d": 750,
  "xOffset2d": 1,
  "yOffset2d": 6,
  "ambient": 0,
  "contrast": 0,
  "options": [
    null,
    null,
    "Take",
    null,
    null
  ],
  "interfaceOptions": [
    null,
    "Wield",
    null,
    null,
    "Drop"
  ],
  "maleModel0": 545,
  "maleModel1": -1,
  "maleModel2": -1,
  "maleOffset": 0,
  "maleHeadModel": -1,
  "maleHeadModel2": -1,
  "femaleModel0": 545,
  "femaleModel1": -1,
  "femaleModel2": -1,
  "femaleOffset": 6,
  "femaleHeadModel": -1,
  "femaleHeadModel2": -1,
  "category": 24,
  "notedID": -1,
  "notedTemplate": -1,
  "team": 0,
  "weight": 0,
  "shiftClickDropIndex": -2,
  "boughtId": -1,
  "boughtTemplateId": -1,
  "placeholderId": 14469,
  "placeholderTemplateId": -1,
  "params": {
    "23": 20
  }
}