{
  "id": 8421,
  "name": "Bagged oak tree",
  "examine": "You can plant this in your garden.",
  "resizeX": 128,
  "resizeY": 128,
  "resizeZ": 128,
  "xan2d": 249,
  "yan2d": 0,
  "zan2d": 0,
  "cost": 5000,
  "isTradeable": true,
  "stackable": 0,
  "inventoryModel": 12307,
  "wearPos1": 0,
  "wearPos2": 0,
  "wearPos3": 0,
  "members": true,
  "zoom2d": 919,
  "xOffset2d": 0,
  "yOffset2d": -100,
  "ambient": 0,
  "contrast": 0,
  "options": [
    null,
    null,
    "Take",
    null,
    null
  ],
  "interfaceOptions": [
    null,
    null,
    null,
    null,
    "Drop"
  ],
  "maleModel0": -1,
  "maleModel1": -1,
  "maleModel2": -1,
  "maleOffset": 0,
  "maleHeadModel": -1,
  "maleHeadModel2": -1,
  "femaleModel0": -1,
  "femaleModel1": -1,
  "femaleModel2": -1,
  "femaleOffset": 0,
  "femaleHeadModel": -1,
  "femaleHeadModel2": -1,
  "category": 0,
  "notedID": 8422,
  "notedTemplate": -1,
  "team": 0,
  "weight": 10000,
  "shiftClickDropIndex": -2,
  "boughtId": -1,
  "boughtTemplateId": -1,
  "placeholderId": 15035,
  "placeholderTemplateId": -1,
  "params": {
    "23": 0
  }
}