{
  "id": 8728,
  "name": "Rune kiteshield",
  "examine": "A shield with a picture of the mythical 'horse'.",
  "resizeX": 128,
  "resizeY": 128,
  "resizeZ": 128,
  "xan2d": 484,
  "yan2d": 152,
  "zan2d": 138,
  "cost": 54400,
  "isTradeable": false,
  "stackable": 0,
  "inventoryModel": 13041,
  "wearPos1": 5,
  "wearPos2": 0,
  "wearPos3": 0,
  "members": true,
  "colorFind": [
    -10304
  ],
  "colorReplace": [
    -27351
  ],
  "zoom2d": 1568,
  "xOffset2d": -4,
  "yOffset2d": -9,
  "ambient": 10,
  "contrast": 0,
  "options": [
    null,
    null,
    "Take",
    null,
    null
  ],
  "interfaceOptions": [
    null,
    "Wear",
    null,
    null,
    "Drop"
  ],
  "maleModel0": 34456,
  "maleModel1": -1,
  "maleModel2": -1,
  "maleOffset": 4,
  "maleHeadModel": -1,
  "maleHeadModel2": -1,
  "femaleModel0": 34470,
  "femaleModel1": -1,
  "femaleModel2": -1,
  "femaleOffset": 7,
  "femaleHeadModel": -1,
  "femaleHeadModel2": -1,
  "category": 18,
  "notedID": -1,
  "notedTemplate": -1,
  "team": 0,
  "weight": 5443,
  "shiftClickDropIndex": -2,
  "boughtId": -1,
  "boughtTemplateId": -1,
  "placeholderId": 14859,
  "placeholderTemplateId": -1
}