{
  "id": 8925,
  "name": "Bandana eyepatch",
  "examine": "Essential pirate wear.",
  "resizeX": 128,
  "resizeY": 128,
  "resizeZ": 128,
  "xan2d": 444,
  "yan2d": 225,
  "zan2d": 0,
  "cost": 100,
  "isTradeable": true,
  "stackable": 0,
  "inventoryModel": 15990,
  "wearPos1": 0,
  "wearPos2": 8,
  "wearPos3": 0,
  "members": true,
  "colorFind": [
    127
  ],
  "colorReplace": [
    819
  ],
  "zoom2d": 720,
  "xOffset2d": -4,
  "yOffset2d": 14,
  "ambient": 0,
  "contrast": 0,
  "options": [
    null,
    null,
    "Take",
    null,
    null
  ],
  "interfaceOptions": [
    null,
    "Wear",
    null,
    null,
    "Drop"
  ],
  "maleModel0": 11111,
  "maleModel1": 236,
  "maleModel2": -1,
  "maleOffset": 0,
  "maleHeadModel": 11186,
  "maleHeadModel2": 68,
  "femaleModel0": 11118,
  "femaleModel1": 410,
  "femaleModel2": -1,
  "femaleOffset": 0,
  "femaleHeadModel": 11189,
  "femaleHeadModel2": 126,
  "category": 0,
  "notedID": 8999,
  "notedTemplate": -1,
  "team": 0,
  "weight": 1000,
  "shiftClickDropIndex": -2,
  "boughtId": -1,
  "boughtTemplateId": -1,
  "placeholderId": 18762,
  "placeholderTemplateId": -1
}