{
  "id": 8964,
  "name": "Purple tricorn hat",
  "examine": "I could never look square in this.",
  "resizeX": 128,
  "resizeY": 128,
  "resizeZ": 128,
  "xan2d": 221,
  "yan2d": 258,
  "zan2d": 0,
  "cost": 50,
  "isTradeable": false,
  "stackable": 0,
  "inventoryModel": 15743,
  "wearPos1": 0,
  "wearPos2": 0,
  "wearPos3": 0,
  "members": true,
  "colorFind": [
    -22225,
    -22233
  ],
  "colorReplace": [
    -8678,
    -8430
  ],
  "zoom2d": 592,
  "xOffset2d": 5,
  "yOffset2d": -15,
  "ambient": 0,
  "contrast": 0,
  "options": [
    null,
    null,
    "Take",
    null,
    null
  ],
  "interfaceOptions": [
    null,
    "Wear",
    null,
    null,
    "Drop"
  ],
  "maleModel0": 15974,
  "maleModel1": -1,
  "maleModel2": -1,
  "maleOffset": 0,
  "maleHeadModel": 15967,
  "maleHeadModel2": -1,
  "femaleModel0": 15987,
  "femaleModel1": -1,
  "femaleModel2": -1,
  "femaleOffset": 0,
  "femaleHeadModel": 15972,
  "femaleHeadModel2": -1,
  "category": 0,
  "notedID": -1,
  "notedTemplate": -1,
  "team": 0,
  "weight": 3,
  "shiftClickDropIndex": -2,
  "boughtId": -1,
  "boughtTemplateId": -1,
  "placeholderId": 16214,
  "placeholderTemplateId": -1
}