{
  "id": 9092,
  "name": "Lunar staff - pt2",
  "examine": "A staff enchanted by air and fire.",
  "resizeX": 128,
  "resizeY": 128,
  "resizeZ": 128,
  "xan2d": 377,
  "yan2d": 1481,
  "zan2d": 0,
  "cost": 15,
  "isTradeable": false,
  "stackable": 0,
  "inventoryModel": 35763,
  "wearPos1": 3,
  "wearPos2": 0,
  "wearPos3": 0,
  "members": true,
  "zoom2d": 1979,
  "xOffset2d": 0,
  "yOffset2d": 16,
  "ambient": 0,
  "contrast": 0,
  "options": [
    null,
    null,
    "Take",
    null,
    null
  ],
  "interfaceOptions": [
    null,
    "Wield",
    null,
    null,
    "Destroy"
  ],
  "maleModel0": 30556,
  "maleModel1": -1,
  "maleModel2": -1,
  "maleOffset": 0,
  "maleHeadModel": -1,
  "maleHeadModel2": -1,
  "femaleModel0": 31195,
  "femaleModel1": -1,
  "femaleModel2": -1,
  "femaleOffset": 0,
  "femaleHeadModel": -1,
  "femaleHeadModel2": -1,
  "category": 26,
  "notedID": -1,
  "notedTemplate": -1,
  "team": 0,
  "weight": 1814,
  "shiftClickDropIndex": -2,
  "boughtId": -1,
  "boughtTemplateId": -1,
  "placeholderId": 16719,
  "placeholderTemplateId": -1
}