{
  "id": 9176,
  "name": "Blurite crossbow",
  "examine": "A blurite crossbow.",
  "resizeX": 128,
  "resizeY": 128,
  "resizeZ": 128,
  "xan2d": 432,
  "yan2d": 258,
  "zan2d": 0,
  "cost": 93,
  "isTradeable": false,
  "stackable": 0,
  "inventoryModel": 16876,
  "wearPos1": 3,
  "wearPos2": 0,
  "wearPos3": 0,
  "members": true,
  "colorFind": [
    6447,
    6443,
    6439,
    5656,
    5652,
    5904
  ],
  "colorReplace": [
    5425,
    5545,
    5665,
    -22064,
    -22072,
    -22208
  ],
  "zoom2d": 926,
  "xOffset2d": 0,
  "yOffset2d": 3,
  "ambient": 0,
  "contrast": 0,
  "options": [
    null,
    null,
    "Take",
    null,
    null
  ],
  "interfaceOptions": [
    null,
    "Wield",
    null,
    null,
    "Drop"
  ],
  "maleModel0": 16846,
  "maleModel1": -1,
  "maleModel2": -1,
  "maleOffset": 0,
  "maleHeadModel": -1,
  "maleHeadModel2": -1,
  "femaleModel0": 42622,
  "femaleModel1": -1,
  "femaleModel2": -1,
  "femaleOffset": 0,
  "femaleHeadModel": -1,
  "femaleHeadModel2": -1,
  "category": 37,
  "notedID": -1,
  "notedTemplate": -1,
  "team": 0,
  "weight": 4000,
  "shiftClickDropIndex": -2,
  "boughtId": -1,
  "boughtTemplateId": -1,
  "placeholderId": 14502,
  "placeholderTemplateId": -1,
  "params": {
    "23": 16
  }
}