{
  "id": 9245,
  "name": "Onyx bolts (e)",
  "examine": "Enchanted Onyx tipped Runite Crossbow Bolts.",
  "resizeX": 128,
  "resizeY": 128,
  "resizeZ": 128,
  "xan2d": 477,
  "yan2d": 117,
  "zan2d": 0,
  "cost": 15000,
  "isTradeable": true,
  "stackable": 1,
  "inventoryModel": 16856,
  "wearPos1": 13,
  "wearPos2": 0,
  "wearPos3": 0,
  "members": true,
  "colorFind": [
    17971,
    5537,
    5532,
    5656,
    5652,
    10465
  ],
  "colorReplace": [
    -29395,
    -29395,
    -29399,
    -29403,
    -29279,
    12
  ],
  "zoom2d": 720,
  "xOffset2d": 3,
  "yOffset2d": 5,
  "ambient": 25,
  "contrast": 0,
  "countCo": [
    2,
    3,
    4,
    5,
    0,
    0,
    0,
    0,
    0,
    0
  ],
  "countObj": [
    9282,
    9283,
    9284,
    9285,
    0,
    0,
    0,
    0,
    0,
    0
  ],
  "options": [
    null,
    null,
    "Take",
    null,
    null
  ],
  "interfaceOptions": [
    null,
    "Wield",
    null,
    null,
    "Drop"
  ],
  "maleModel0": -1,
  "maleModel1": -1,
  "maleModel2": -1,
  "maleOffset": 0,
  "maleHeadModel": -1,
  "maleHeadModel2": -1,
  "femaleModel0": -1,
  "femaleModel1": -1,
  "femaleModel2": -1,
  "femaleOffset": 0,
  "femaleHeadModel": -1,
  "femaleHeadModel2": -1,
  "category": 63,
  "notedID": -1,
  "notedTemplate": -1,
  "team": 0,
  "weight": 0,
  "shiftClickDropIndex": -2,
  "boughtId": -1,
  "boughtTemplateId": -1,
  "placeholderId": 15160,
  "placeholderTemplateId": -1,
  "params": {
    "434": 4,
    "436": 61,
    "23": 61,
    "1562": 5,
    "1563": 61,
    "1564": 13,
    "604": 87
  }
}