{
  "id": 9287,
  "name": "Iron bolts (p)",
  "examine": "Some poisoned iron bolts.",
  "resizeX": 128,
  "resizeY": 128,
  "resizeZ": 128,
  "xan2d": 477,
  "yan2d": 117,
  "zan2d": 0,
  "cost": 2,
  "isTradeable": true,
  "stackable": 1,
  "inventoryModel": 16862,
  "wearPos1": 13,
  "wearPos2": 0,
  "wearPos3": 0,
  "members": true,
  "colorFind": [
    5537,
    5532,
    5656,
    5652
  ],
  "colorReplace": [
    41,
    37,
    33,
    28
  ],
  "zoom2d": 720,
  "xOffset2d": 3,
  "yOffset2d": 5,
  "ambient": 0,
  "contrast": 0,
  "countCo": [
    2,
    3,
    4,
    5,
    0,
    0,
    0,
    0,
    0,
    0
  ],
  "countObj": [
    9311,
    9312,
    9313,
    9314,
    0,
    0,
    0,
    0,
    0,
    0
  ],
  "options": [
    null,
    null,
    "Take",
    null,
    null
  ],
  "interfaceOptions": [
    null,
    "Wield",
    null,
    null,
    "Drop"
  ],
  "maleModel0": -1,
  "maleModel1": -1,
  "maleModel2": -1,
  "maleOffset": 0,
  "maleHeadModel": -1,
  "maleHeadModel2": -1,
  "femaleModel0": -1,
  "femaleModel1": -1,
  "femaleModel2": -1,
  "femaleOffset": 0,
  "femaleHeadModel": -1,
  "femaleHeadModel2": -1,
  "category": 63,
  "notedID": -1,
  "notedTemplate": -1,
  "team": 0,
  "weight": 0,
  "shiftClickDropIndex": -2,
  "boughtId": -1,
  "boughtTemplateId": -1,
  "placeholderId": 15121,
  "placeholderTemplateId": -1,
  "params": {
    "23": 26
  }
}