{
  "id": 9427,
  "name": "Mithril limbs",
  "examine": "A pair of mithril crossbow limbs.",
  "resizeX": 128,
  "resizeY": 128,
  "resizeZ": 128,
  "xan2d": 420,
  "yan2d": 243,
  "zan2d": 0,
  "cost": 650,
  "isTradeable": true,
  "stackable": 0,
  "inventoryModel": 16877,
  "wearPos1": 5,
  "wearPos2": 0,
  "wearPos3": 0,
  "members": true,
  "colorFind": [
    5656,
    5652,
    5904
  ],
  "colorReplace": [
    -22359,
    -22239,
    -22248
  ],
  "zoom2d": 663,
  "xOffset2d": -1,
  "yOffset2d": 0,
  "ambient": 0,
  "contrast": 0,
  "options": [
    null,
    null,
    "Take",
    null,
    null
  ],
  "interfaceOptions": [
    null,
    null,
    null,
    null,
    "Drop"
  ],
  "maleModel0": 16844,
  "maleModel1": -1,
  "maleModel2": -1,
  "maleOffset": 0,
  "maleHeadModel": -1,
  "maleHeadModel2": -1,
  "femaleModel0": 16844,
  "femaleModel1": -1,
  "femaleModel2": -1,
  "femaleOffset": 6,
  "femaleHeadModel": -1,
  "femaleHeadModel2": -1,
  "category": 0,
  "notedID": 9428,
  "notedTemplate": -1,
  "team": 0,
  "weight": 2000,
  "shiftClickDropIndex": -2,
  "boughtId": -1,
  "boughtTemplateId": -1,
  "placeholderId": 15106,
  "placeholderTemplateId": -1
}