{
  "id": 9512,
  "name": "Pineapple punch",
  "examine": "A fresh healthy fruit mix.",
  "resizeX": 128,
  "resizeY": 128,
  "resizeZ": 128,
  "xan2d": 166,
  "yan2d": 2047,
  "zan2d": 0,
  "cost": 1,
  "isTradeable": false,
  "stackable": 0,
  "inventoryModel": 17117,
  "wearPos1": 0,
  "wearPos2": 0,
  "wearPos3": 0,
  "members": true,
  "colorFind": [
    10716,
    11214,
    11200,
    22464,
    -22407,
    21733
  ],
  "colorReplace": [
    9166,
    7104,
    10184,
    6080,
    8305,
    9443
  ],
  "zoom2d": 700,
  "xOffset2d": 0,
  "yOffset2d": -7,
  "ambient": 0,
  "contrast": 0,
  "options": [
    null,
    null,
    "Take",
    null,
    null
  ],
  "interfaceOptions": [
    "Drink",
    "Empty",
    null,
    null,
    "Drop"
  ],
  "maleModel0": -1,
  "maleModel1": -1,
  "maleModel2": -1,
  "maleOffset": 0,
  "maleHeadModel": -1,
  "maleHeadModel2": -1,
  "femaleModel0": -1,
  "femaleModel1": -1,
  "femaleModel2": -1,
  "femaleOffset": 0,
  "femaleHeadModel": -1,
  "femaleHeadModel2": -1,
  "category": 83,
  "notedID": 9513,
  "notedTemplate": -1,
  "team": 0,
  "weight": 450,
  "shiftClickDropIndex": -2,
  "boughtId": -1,
  "boughtTemplateId": -1,
  "placeholderId": 18974,
  "placeholderTemplateId": -1,
  "params": {
    "468": 44
  }
}