{
  "id": 952,
  "name": "Spade",
  "examine": "A slightly muddy spade.",
  "resizeX": 128,
  "resizeY": 128,
  "resizeZ": 128,
  "xan2d": 396,
  "yan2d": 1532,
  "zan2d": 0,
  "cost": 3,
  "isTradeable": true,
  "stackable": 0,
  "inventoryModel": 7304,
  "wearPos1": 0,
  "wearPos2": 0,
  "wearPos3": 0,
  "members": false,
  "colorFind": [
    61,
    57,
    70
  ],
  "colorReplace": [
    5181,
    5177,
    5190
  ],
  "zoom2d": 1860,
  "xOffset2d": 0,
  "yOffset2d": 0,
  "ambient": 0,
  "contrast": 0,
  "options": [
    null,
    null,
    "Take",
    null,
    null
  ],
  "interfaceOptions": [
    "Dig",
    null,
    null,
    null,
    "Drop"
  ],
  "maleModel0": 496,
  "maleModel1": -1,
  "maleModel2": -1,
  "maleOffset": 0,
  "maleHeadModel": -1,
  "maleHeadModel2": -1,
  "femaleModel0": 496,
  "femaleModel1": -1,
  "femaleModel2": -1,
  "femaleOffset": 0,
  "femaleHeadModel": -1,
  "femaleHeadModel2": -1,
  "category": 0,
  "notedID": 953,
  "notedTemplate": -1,
  "team": 0,
  "weight": 1814,
  "shiftClickDropIndex": -2,
  "boughtId": -1,
  "boughtTemplateId": -1,
  "placeholderId": 13876,
  "placeholderTemplateId": -1
}