{
  "id": 9670,
  "name": "Proselyte harness f",
  "examine": "Proselyte level armour pack.",
  "resizeX": 128,
  "resizeY": 128,
  "resizeZ": 128,
  "xan2d": 221,
  "yan2d": 1798,
  "zan2d": 0,
  "cost": 25000,
  "isTradeable": true,
  "stackable": 0,
  "inventoryModel": 18399,
  "wearPos1": 0,
  "wearPos2": 0,
  "wearPos3": 0,
  "members": true,
  "colorFind": [
    9166,
    9152,
    7104
  ],
  "colorReplace": [
    3022,
    4034,
    4032
  ],
  "zoom2d": 2476,
  "xOffset2d": 3,
  "yOffset2d": -28,
  "ambient": 0,
  "contrast": 0,
  "options": [
    null,
    null,
    "Take",
    null,
    null
  ],
  "interfaceOptions": [
    "Unpack",
    null,
    null,
    null,
    "Drop"
  ],
  "maleModel0": -1,
  "maleModel1": -1,
  "maleModel2": -1,
  "maleOffset": 0,
  "maleHeadModel": -1,
  "maleHeadModel2": -1,
  "femaleModel0": -1,
  "femaleModel1": -1,
  "femaleModel2": -1,
  "femaleOffset": 0,
  "femaleHeadModel": -1,
  "femaleHeadModel2": -1,
  "category": 7,
  "notedID": 9671,
  "notedTemplate": -1,
  "team": 0,
  "weight": 14514,
  "shiftClickDropIndex": -2,
  "boughtId": -1,
  "boughtTemplateId": -1,
  "placeholderId": 17331,
  "placeholderTemplateId": -1
}