{
  "id": 9676,
  "name": "Proselyte cuisse",
  "examine": "A Proselyte Temple Knight's leg armour.",
  "resizeX": 128,
  "resizeY": 128,
  "resizeZ": 128,
  "xan2d": 444,
  "yan2d": 0,
  "zan2d": 0,
  "cost": 10000,
  "isTradeable": true,
  "stackable": 0,
  "inventoryModel": 2582,
  "wearPos1": 7,
  "wearPos2": 0,
  "wearPos3": 0,
  "members": true,
  "colorFind": [
    61,
    41,
    57
  ],
  "colorReplace": [
    99,
    82,
    6067
  ],
  "zoom2d": 1740,
  "xOffset2d": 0,
  "yOffset2d": -8,
  "ambient": 0,
  "contrast": 0,
  "options": [
    null,
    null,
    "Take",
    null,
    null
  ],
  "interfaceOptions": [
    null,
    "Wear",
    null,
    null,
    "Drop"
  ],
  "maleModel0": 268,
  "maleModel1": -1,
  "maleModel2": -1,
  "maleOffset": 0,
  "maleHeadModel": -1,
  "maleHeadModel2": -1,
  "femaleModel0": 432,
  "femaleModel1": -1,
  "femaleModel2": -1,
  "femaleOffset": 0,
  "femaleHeadModel": -1,
  "femaleHeadModel2": -1,
  "category": 8,
  "notedID": 9677,
  "notedTemplate": -1,
  "team": 0,
  "weight": 7711,
  "shiftClickDropIndex": -2,
  "boughtId": -1,
  "boughtTemplateId": -1,
  "placeholderId": 17334,
  "placeholderTemplateId": -1,
  "params": {
    "434": 1,
    "435": 5,
    "1564": 7,
    "436": 30,
    "437": 20
  }
}