{
  "id": 9771,
  "name": "Agility cape",
  "examine": "The cape worn by the most agile of heroes.",
  "resizeX": 128,
  "resizeY": 128,
  "resizeZ": 128,
  "xan2d": 504,
  "yan2d": 0,
  "zan2d": 0,
  "cost": 99000,
  "isTradeable": false,
  "stackable": 0,
  "inventoryModel": 19046,
  "wearPos1": 1,
  "wearPos2": 0,
  "wearPos3": 0,
  "members": true,
  "colorFind": [
    -8256,
    -11353,
    -11033,
    960,
    22464,
    -21568
  ],
  "colorReplace": [
    -22105,
    -21986,
    -21862,
    -22105,
    -21986,
    -21862
  ],
  "zoom2d": 2128,
  "xOffset2d": 0,
  "yOffset2d": 1,
  "ambient": 0,
  "contrast": 0,
  "options": [
    null,
    null,
    "Take",
    null,
    null
  ],
  "interfaceOptions": [
    null,
    "Wear",
    "Stamina Boost",
    null,
    "Drop"
  ],
  "maleModel0": 18918,
  "maleModel1": -1,
  "maleModel2": -1,
  "maleOffset": 0,
  "maleHeadModel": -1,
  "maleHeadModel2": -1,
  "femaleModel0": 18968,
  "femaleModel1": -1,
  "femaleModel2": -1,
  "femaleOffset": 0,
  "femaleHeadModel": -1,
  "femaleHeadModel2": -1,
  "category": 27,
  "notedID": -1,
  "notedTemplate": -1,
  "team": 0,
  "weight": 453,
  "shiftClickDropIndex": -2,
  "boughtId": -1,
  "boughtTemplateId": -1,
  "placeholderId": 14234,
  "placeholderTemplateId": -1
}