{
  "id": 9988,
  "name": "Roast beast meat",
  "examine": "A delicious looking slab of roast beast.",
  "resizeX": 128,
  "resizeY": 128,
  "resizeZ": 128,
  "xan2d": 105,
  "yan2d": 861,
  "zan2d": 0,
  "cost": 25,
  "isTradeable": true,
  "stackable": 0,
  "inventoryModel": 11296,
  "wearPos1": 0,
  "wearPos2": 0,
  "wearPos3": 0,
  "members": true,
  "colorFind": [
    187,
    179
  ],
  "colorReplace": [
    5537,
    5656
  ],
  "zoom2d": 1104,
  "xOffset2d": -4,
  "yOffset2d": 0,
  "ambient": 0,
  "contrast": 0,
  "options": [
    null,
    null,
    "Take",
    null,
    null
  ],
  "interfaceOptions": [
    "Eat",
    null,
    null,
    null,
    "Drop"
  ],
  "maleModel0": -1,
  "maleModel1": -1,
  "maleModel2": -1,
  "maleOffset": 0,
  "maleHeadModel": -1,
  "maleHeadModel2": -1,
  "femaleModel0": -1,
  "femaleModel1": -1,
  "femaleModel2": -1,
  "femaleOffset": 0,
  "femaleHeadModel": -1,
  "femaleHeadModel2": -1,
  "category": 5,
  "notedID": 9989,
  "notedTemplate": -1,
  "team": 0,
  "weight": 2000,
  "shiftClickDropIndex": -2,
  "boughtId": -1,
  "boughtTemplateId": -1,
  "placeholderId": 18917,
  "placeholderTemplateId": -1
}