{
  "id": 27459590,
  "isIf3": true,
  "type": 6,
  "contentType": 0,
  "originalX": 26,
  "originalY": 12,
  "originalWidth": 32,
  "originalHeight": 32,
  "widthMode": 0,
  "heightMode": 0,
  "xPositionMode": 0,
  "yPositionMode": 0,
  "parentId": 27459589,
  "isHidden": false,
  "scrollWidth": 0,
  "scrollHeight": 0,
  "noClickThrough": false,
  "spriteId": -1,
  "textureId": 0,
  "spriteTiling": false,
  "opacity": 0,
  "borderType": 0,
  "shadowColor": 0,
  "flippedVertically": false,
  "flippedHorizontally": false,
  "modelType": 1,
  "modelId": 28505,
  "offsetX2d": 0,
  "offsetY2d": 321,
  "rotationX": 127,
  "rotationY": 0,
  "rotationZ": 0,
  "modelZoom": 50,
  "animation": -1,
  "orthogonal": false,
  "modelHeightOverride": 0,
  "fontId": -1,
  "text": "",
  "lineHeight": 0,
  "xTextAlignment": 0,
  "yTextAlignment": 0,
  "textShadowed": false,
  "textColor": 0,
  "filled": false,
  "lineWidth": 1,
  "lineDirection": false,
  "clickMask": 2,
  "name": "",
  "actions": [
    "Buy"
  ],
  "dragDeadZone": 0,
  "dragDeadTime": 0,
  "dragRenderBehavior": false,
  "targetVerb": "",
  "onMouseOverListener": [
    45,
    27459591,
    16777215
  ],
  "onMouseLeaveListener": [
    45,
    27459591,
    13421772
  ],
  "hasListener": true,
  "menuType": 0,
  "hoveredSiblingId": 0,
  "xPitch": 0,
  "yPitch": 0,
  "alternateText": "",
  "alternateTextColor": 0,
  "hoveredTextColor": 0,
  "alternateHoveredTextColor": 0,
  "alternateSpriteId": -1,
  "alternateModelId": -1,
  "alternateAnimation": -1,
  "spellName": "",
  "tooltip": "Ok"
}