{
  "id": 30867462,
  "isIf3": true,
  "type": 0,
  "contentType": 0,
  "originalX": 7,
  "originalY": 7,
  "originalWidth": 7372,
  "originalHeight": 66,
  "widthMode": 2,
  "heightMode": 0,
  "xPositionMode": 0,
  "yPositionMode": 2,
  "parentId": 30867456,
  "isHidden": false,
  "scrollWidth": 0,
  "scrollHeight": 0,
  "noClickThrough": false,
  "spriteId": -1,
  "textureId": 0,
  "spriteTiling": false,
  "opacity": 0,
  "borderType": 0,
  "shadowColor": 0,
  "flippedVertically": false,
  "flippedHorizontally": false,
  "modelType": 1,
  "modelId": -1,
  "offsetX2d": 0,
  "offsetY2d": 0,
  "rotationX": 0,
  "rotationY": 0,
  "rotationZ": 0,
  "modelZoom": 100,
  "animation": -1,
  "orthogonal": false,
  "modelHeightOverride": 0,
  "fontId": -1,
  "text": "",
  "lineHeight": 0,
  "xTextAlignment": 0,
  "yTextAlignment": 0,
  "textShadowed": false,
  "textColor": 0,
  "filled": false,
  "lineWidth": 1,
  "lineDirection": false,
  "clickMask": 2,
  "name": "",
  "actions": [
    "Tug"
  ],
  "dragDeadZone": 0,
  "dragDeadTime": 0,
  "dragRenderBehavior": false,
  "targetVerb": "",
  "onMouseLeaveListener": [
    40,
    30867466
  ],
  "onMouseRepeatListener": [
    526,
    -2147483645,
    -1,
    30867466,
    "Move down.",
    50,
    150
  ],
  "hasListener": true,
  "menuType": 0,
  "hoveredSiblingId": 0,
  "xPitch": 0,
  "yPitch": 0,
  "alternateText": "",
  "alternateTextColor": 0,
  "hoveredTextColor": 0,
  "alternateHoveredTextColor": 0,
  "alternateSpriteId": -1,
  "alternateModelId": -1,
  "alternateAnimation": -1,
  "spellName": "",
  "tooltip": "Ok"
}