{
  "id": 1013,
  "params": {
    "1088": "Run,running,sprint,stamina,energy,restore,rest,sprint,enable,auto",
    "1077": 389,
    "1078": 4,
    "1111": "",
    "1096": "After your run energy has naturally depleted, you will automatically start running again once you have this much energy. Set to 0 to stop auto-enabling.",
    "1112": "",
    "1113": "Do not enable",
    "1086": "Energy threshold to re-enable running"
  }
}