{
  "id": 1022,
  "params": {
    "1088": "buff bar",
    "1090": 2,
    "1077": 390,
    "1157": 1,
    "1078": 0,
    "1096": "When enabled, shows how long the Goading Potion effect will last.",
    "1084": 1,
    "1086": "Goading Potion Duration"
  }
}