{
  "id": 1027,
  "params": {
    "1016": 1,
    "873": 288,
    "1017": 10,
    "874": "Check a grown Redwood Tree",
    "1018": 21,
    "875": "Check the health of a Redwood Tree after growing one in the Farming Guild.",
    "876": 5
  }
}