{
  "id": 1101,
  "params": {
    "1016": 5,
    "873": 362,
    "1017": 10,
    "874": "75 Chambers of Xeric",
    "1018": 0,
    "875": "Complete the Chambers of Xeric 75 times.",
    "876": 4
  }
}