{
  "id": 1116,
  "params": {
    "1016": 5,
    "873": 377,
    "1017": 10,
    "874": "Receive 1 Chambers of Xeric Unique",
    "1018": 0,
    "875": "Receive a unique drop from completing the Chambers of Xeric.",
    "876": 4
  }
}