{
  "id": 1141,
  "params": {
    "1016": 5,
    "873": 402,
    "1017": 10,
    "874": "55-Minute Chambers of Xeric Challenge Mode Solo",
    "1018": 0,
    "875": "Complete the Chambers of Xeric Challenge Mode in 55 minutes or less, alone.",
    "876": 6
  }
}