{
  "id": 1144,
  "params": {
    "1016": 5,
    "873": 405,
    "1017": 10,
    "874": "42-Minute Chambers of Xeric Challenge Mode Solo",
    "1018": 0,
    "875": "Complete the Chambers of Xeric Challenge Mode in 42 minutes or less, alone.",
    "876": 6
  }
}