{
  "id": 1145,
  "params": {
    "1016": 5,
    "873": 406,
    "1017": 10,
    "874": "38-Minute Chambers of Xeric Challenge Mode Solo",
    "1018": 0,
    "875": "Complete the Chambers of Xeric Challenge Mode in 38 minutes or less, alone.",
    "876": 6
  }
}