{
  "id": 1150,
  "params": {
    "1016": 4,
    "873": 411,
    "1017": 10,
    "874": "Kourend and Kebos Medium Diary Tasks",
    "1018": 0,
    "875": "Complete all tasks in the medium tier of the Kourend and Kebos achievement diary.",
    "876": 3
  }
}