{
  "id": 1155,
  "params": {
    "1016": 6,
    "873": 416,
    "1017": 10,
    "874": "Open 25 Grubby Chests",
    "1018": 0,
    "875": "Open the grubby chest in the Forthos Dungeon 25 times.",
    "876": 3
  }
}