{
  "id": 1214,
  "params": {
    "1016": 6,
    "873": 475,
    "1017": 0,
    "874": "Enter Level 3 of the Chasm of Fire",
    "1018": 0,
    "875": "Enter the 3rd level of the Chasm of Fire in Shayzien.",
    "876": 2
  }
}