{
  "id": 1222,
  "params": {
    "1016": 6,
    "873": 483,
    "1017": 10,
    "874": "Cast Kourend Castle Teleport",
    "1018": 4,
    "875": "Cast the spell Kourend Castle Teleport after unlocking it by reading transportation incantations.",
    "876": 4
  }
}