{
  "id": 1224,
  "params": {
    "1016": 5,
    "873": 485,
    "1017": 10,
    "874": "Purchase Gricoller's Can",
    "1018": 0,
    "875": "Purchase Gricoller's can from the Tithe Farm minigame.",
    "876": 3
  }
}