{
  "id": 1225,
  "params": {
    "1016": 5,
    "873": 486,
    "1017": 10,
    "874": "Purchase a Seed Box",
    "1018": 0,
    "875": "Purchase a Seed box from the Tithe Farm minigame.",
    "876": 3
  }
}