{
  "id": 1255,
  "params": {
    "672": 6,
    "673": 90,
    "674": 1,
    "675": 1263,
    "676": 2068,
    "677": 1288,
    "678": 2108,
    "681": 30,
    "659": 30,
    "660": "Ape Atoll Dungeon",
    "661": 37556,
    "662": 37568,
    "663": 37580,
    "664": 566,
    "665": 565,
    "666": 563,
    "668": 2000,
    "669": 2000,
    "670": 2000
  }
}