{
  "id": 1257,
  "params": {
    "914": "A scroll which can be used to unlock the Leagues I - Twisted Home Teleport Animation. The scroll is destroyed once it has been used.",
    "363": "Twisted Teleport Scroll",
    "150": 24460,
    "151": 750
  }
}