{
  "id": 1261,
  "params": {
    "914": "A pair of Twisted Horns that can be used on a Slayer Helmet to turn it into a Twisted Slayer Helmet once it has been unlocked from the Slayer Reward Shop.",
    "363": "Twisted Horns",
    "150": 24466,
    "151": 6000
  }
}