{
  "id": 1695,
  "params": {
    "914": "A kit which can be attached to any Dragon or Infernal axe, pickaxe or harpoon to recolour it. The tool can be reverted returning the kit at any time.",
    "363": "Trailblazer Tool Orn Kit",
    "150": 25090,
    "151": 1500
  }
}