{
  "id": 1738,
  "params": {
    "880": "- All of your attacks have 10% increased accuracy and 10% increased damage.<br><br>- Whenever one of your attacks successfully hits, up to 5 additional targets next to your opponent will also be hit. The damage dealt to these additional targets will be 100% of the initial damage.<br><br>- This Relic does not work for multi-target attacks or Special Attacks.<br><br>- This Relic will only work in a multi-way combat area.<br><br>- This Relic does not work with the Scythe of Vitur.",
    "881": 2684,
    "883": 2685,
    "884": 2636,
    "885": 5,
    "1274": 3075,
    "879": "Exploding Attacks"
  }
}