{
  "id": 1739,
  "params": {
    "880": "- All of your attacks have 10% increased accuracy and 10% increased damage.<br><br>- Every 30 seconds, your Special Attack energy is restored by 30% rather than the usual 10%.<br><br>- Special Attacks that would normally have an energy cost of more than 20% now only cost 20% instead.",
    "881": 2686,
    "883": 2687,
    "884": 2638,
    "885": 6,
    "1274": 3076,
    "879": "Weapon Specialist"
  }
}