{
  "id": 1746,
  "params": {
    "1016": 1,
    "873": 561,
    "1017": 0,
    "874": "Obtain 25 Million Slayer XP",
    "1850": 4,
    "1018": 20,
    "875": "Obtain 25 million experience in your Slayer skill.",
    "1851": 4,
    "1852": 4
  }
}