{
  "id": 1751,
  "params": {
    "1016": 1,
    "873": 566,
    "1017": 0,
    "874": "Reach Level 99 Smithing",
    "1850": 4,
    "1018": 14,
    "875": "Reach level 99 in your Smithing skill.",
    "1851": 4,
    "1852": 4
  }
}