{
  "id": 1756,
  "params": {
    "1016": 1,
    "873": 571,
    "1017": 0,
    "874": "Obtain 25 Million Cooking XP",
    "1850": 4,
    "1018": 16,
    "875": "Obtain 25 million experience in your Cooking skill.",
    "1851": 4,
    "1852": 4
  }
}