{
  "id": 1803,
  "params": {
    "1016": 1,
    "873": 618,
    "1017": 0,
    "874": "Fletch 150 Iron Arrows",
    "1850": 1,
    "1018": 19,
    "875": "Fletch 150 Iron Arrows.",
    "1851": 1,
    "1852": 1
  }
}