{
  "id": 1810,
  "params": {
    "1016": 2,
    "873": 625,
    "1017": 0,
    "874": "Earn Some Slayer Points",
    "1850": 1,
    "1018": 20,
    "875": "Earn some Slayer Points by completing a Slayer Task.",
    "1851": 1
  }
}