{
  "id": 1812,
  "params": {
    "1016": 2,
    "873": 627,
    "1017": 0,
    "874": "Unlock Bigger and Badder",
    "1850": 2,
    "1018": 20,
    "875": "Purchase the Bigger and Badder unlock from the Slayer Rewards Shop.",
    "1851": 2
  }
}