{
  "id": 1826,
  "params": {
    "1016": 1,
    "873": 641,
    "1017": 0,
    "874": "Craft a Leather Body",
    "1850": 1,
    "1018": 11,
    "875": "Craft a Leather Body.",
    "1851": 1,
    "1852": 1
  }
}