{
  "id": 1828,
  "params": {
    "1016": 1,
    "873": 643,
    "1017": 0,
    "874": "Craft an Emerald Ring",
    "1850": 2,
    "1018": 11,
    "875": "Craft an Emerald Ring.",
    "1851": 2,
    "1852": 2
  }
}