{
  "id": 1832,
  "params": {
    "1016": 1,
    "873": 647,
    "1017": 0,
    "874": "Craft an Onyx Amulet",
    "1850": 4,
    "1018": 11,
    "875": "Craft an Onyx Amulet.",
    "1851": 4,
    "1852": 4
  }
}