{
  "id": 1833,
  "params": {
    "1016": 1,
    "873": 648,
    "1017": 0,
    "874": "Catch a Shrimp",
    "1850": 1,
    "1018": 15,
    "875": "Catch Raw Shrimp while Fishing.",
    "1851": 1,
    "1852": 1
  }
}