{
  "id": 1839,
  "params": {
    "1016": 1,
    "873": 654,
    "1017": 0,
    "874": "Catch 100 Shark",
    "1850": 3,
    "1018": 15,
    "875": "Catch 100 Raw Shark whilst Fishing.",
    "1851": 3,
    "1852": 3
  }
}