{
  "id": 1853,
  "params": {
    "1016": 1,
    "873": 668,
    "1017": 0,
    "874": "Build an Oak Larder",
    "1850": 2,
    "1018": 22,
    "875": "Build an Oak Larder in a Kitchen in your Player Owned House.",
    "1851": 2,
    "1852": 2
  }
}