{
  "id": 1854,
  "params": {
    "1016": 1,
    "873": 669,
    "1017": 0,
    "874": "Fill a Medium S.T.A.S.H. Unit",
    "1850": 2,
    "1018": 22,
    "875": "Build a Medium S.T.A.S.H. unit and fill it with the relevant items.",
    "1851": 2,
    "1852": 2
  }
}