{
  "id": 1861,
  "params": {
    "1016": 1,
    "873": 676,
    "1017": 0,
    "874": "Craft 4 Runes With 1 Essence",
    "1850": 2,
    "1018": 12,
    "875": "Use a Runecrafting Altar to craft 4 of any type of rune using a single essence.",
    "1851": 2,
    "1852": 2
  }
}