{
  "id": 1876,
  "params": {
    "1016": 1,
    "873": 691,
    "1017": 0,
    "874": "Catch a Butterfly",
    "1850": 2,
    "1018": 23,
    "875": "Catch any butterfly.",
    "1851": 2,
    "1852": 1
  }
}