{
  "id": 1884,
  "params": {
    "1016": 1,
    "873": 699,
    "1017": 0,
    "874": "Clean a Grimy Guam",
    "1850": 1,
    "1018": 9,
    "875": "Clean a Grimy Guam.",
    "1851": 1,
    "1852": 1
  }
}