{
  "id": 1924,
  "params": {
    "1016": 1,
    "873": 739,
    "1017": 0,
    "874": "Cast Home Teleport",
    "1850": 1,
    "1018": 4,
    "875": "Cast the Home Teleport spell.",
    "1851": 1,
    "1852": 1
  }
}