{
  "id": 1926,
  "params": {
    "1016": 2,
    "873": 741,
    "1017": 0,
    "874": "Equip an Elemental Battlestaff or Mystic Staff",
    "1850": 2,
    "1018": 4,
    "875": "Equip either an elemental battlestaff or an elemental mystic staff.",
    "1851": 2,
    "1852": 2
  }
}