{
  "id": 1930,
  "params": {
    "1016": 2,
    "873": 745,
    "1017": 0,
    "874": "Cast a Wave Spell",
    "1850": 3,
    "1018": 4,
    "875": "Cast any wave spell.",
    "1851": 3,
    "1852": 3
  }
}