{
  "id": 1934,
  "params": {
    "1016": 1,
    "873": 749,
    "1017": 1,
    "874": "Set up a Yew Bird House",
    "1018": 23,
    "875": "Set up a Yew Bird House on Fossil Island.",
    "876": 3
  }
}