{
  "id": 1937,
  "params": {
    "1016": 1,
    "873": 752,
    "1017": 1,
    "874": "Catch a Herbiboar 250 Times",
    "1018": 23,
    "875": "Catch a Herbiboar on Fossil Island 250 times.",
    "876": 5
  }
}