{
  "id": 1942,
  "params": {
    "1016": 5,
    "873": 757,
    "1017": 1,
    "874": "Buy an Ash Covered Tome",
    "1850": 3,
    "1018": 13,
    "875": "Buy an Ash Covered Tome from Petrified Pete's Ore Shop on Fossil Island.",
    "1851": 3,
    "1852": 4
  }
}