{
  "id": 1943,
  "params": {
    "1016": 5,
    "873": 758,
    "1017": 1,
    "874": "Mine a Runite Ore Fragment",
    "1850": 4,
    "1018": 13,
    "875": "Mine a Runite Ore Fragment in the Volcanic Mine on Fossil Island.",
    "1851": 4,
    "1852": 4
  }
}