{
  "id": 1964,
  "params": {
    "1016": 2,
    "873": 779,
    "1017": 0,
    "874": "Equip a Dragon Platebody or Dragon Kiteshield",
    "1850": 5,
    "1018": 0,
    "875": "Equip either a Dragon Platebody or a Dragon Kiteshield.",
    "1851": 5,
    "1852": 5
  }
}