{
  "id": 1978,
  "params": {
    "1016": 2,
    "873": 793,
    "1017": 1,
    "874": "Offer an Unsired to the Font of Consumption",
    "1850": 4,
    "1018": 20,
    "875": "Offer an Unsired to the Font of Consumption in the Abyssal Nexus.",
    "1851": 4,
    "1852": 3
  }
}