{
  "id": 1979,
  "params": {
    "1016": 2,
    "873": 794,
    "1017": 1,
    "874": "Defeat the Abyssal Sire 100 Times",
    "1018": 20,
    "875": "Defeat the Abyssal Sire in the Abyssal Nexus 100 times.",
    "876": 5
  }
}