{
  "id": 1980,
  "params": {
    "1016": 2,
    "873": 795,
    "1017": 1,
    "874": "Defeat the Abyssal Sire 250 Times",
    "1018": 20,
    "875": "Defeat the Abyssal Sire in the Abyssal Nexus 250 times.",
    "876": 5
  }
}