{
  "id": 1982,
  "params": {
    "1016": 4,
    "873": 797,
    "1017": 1,
    "874": "Complete the Easy Lumbridge & Draynor Diary",
    "1850": 1,
    "1018": 0,
    "875": "Complete all of the easy tasks in the Lumbridge & Draynor Achievement Diary.",
    "1851": 1,
    "1852": 2
  }
}