{
  "id": 2000,
  "params": {
    "1016": 3,
    "873": 815,
    "1017": 1,
    "874": "Complete Gertrude's Cat",
    "1850": 1,
    "1018": 0,
    "875": "Complete the Gertrude's Cat quest.",
    "1851": 1,
    "1852": 1
  }
}