{
  "id": 2012,
  "params": {
    "1016": 1,
    "873": 827,
    "1017": 7,
    "874": "Check a grown Crystal Tree",
    "1018": 21,
    "875": "Check the health of a Crystal Tree you've grown in Prifddinas.",
    "876": 4
  }
}