{
  "id": 2013,
  "params": {
    "1016": 1,
    "873": 828,
    "1017": 7,
    "874": "Catch a Crystal Impling",
    "1850": 3,
    "1018": 23,
    "875": "Catch a Crystal Impling in Prifddinas.",
    "1851": 3,
    "1852": 3
  }
}