{
  "id": 2025,
  "params": {
    "1016": 2,
    "873": 840,
    "1017": 7,
    "874": "Equip a Full Crystal Armour Set",
    "1850": 4,
    "1018": 0,
    "875": "Equip a full set of Crystal armour.",
    "1851": 4,
    "1852": 4
  }
}