{
  "id": 2032,
  "params": {
    "1016": 2,
    "873": 847,
    "1017": 7,
    "874": "Defeat Zalcano",
    "1850": 3,
    "1018": 0,
    "875": "Defeat Zalcano in Prifddinas.",
    "1851": 3,
    "1852": 3
  }
}