{
  "id": 2034,
  "params": {
    "1016": 2,
    "873": 849,
    "1017": 7,
    "874": "Defeat Zulrah",
    "1850": 3,
    "1018": 0,
    "875": "Defeat Zulrah at the Poison Waste.",
    "1851": 3,
    "1852": 3
  }
}