{
  "id": 2036,
  "params": {
    "1016": 2,
    "873": 851,
    "1017": 7,
    "874": "Defeat a Dark Beast in Tirannwn",
    "1850": 3,
    "1018": 20,
    "875": "Defeat a Dark Beast in Tirannwn.",
    "1851": 3,
    "1852": 3
  }
}