{
  "id": 2039,
  "params": {
    "1016": 2,
    "873": 854,
    "1017": 7,
    "874": "Craft a Toxic Trident",
    "1850": 4,
    "1018": 0,
    "875": "Craft a Toxic Trident.",
    "1851": 4,
    "1852": 4
  }
}