{
  "id": 2066,
  "params": {
    "1016": 6,
    "873": 881,
    "1017": 7,
    "874": "Talk to Ilfeen in Tirannwn",
    "1850": 1,
    "1018": 0,
    "875": "Talk to Ilfeen in Tirannwn.",
    "1851": 2,
    "1852": 1
  }
}