{
  "id": 2085,
  "params": {
    "1016": 2,
    "873": 900,
    "1017": 8,
    "874": "Defeat a Rock Crab in the Fremennik Province",
    "1850": 1,
    "1018": 0,
    "875": "Defeat a Rock Crab in the Fremennik Province.",
    "1851": 1,
    "1852": 1
  }
}