{
  "id": 2087,
  "params": {
    "1016": 2,
    "873": 902,
    "1017": 8,
    "874": "Defeat Vorkath",
    "1850": 3,
    "1018": 0,
    "875": "Defeat Vorkath on Ungael.",
    "1851": 3,
    "1852": 3
  }
}