{
  "id": 2106,
  "params": {
    "1016": 2,
    "873": 921,
    "1017": 8,
    "874": "Equip a Warrior Ring",
    "1850": 3,
    "1018": 0,
    "875": "Equip a Warrior Ring.",
    "1851": 3,
    "1852": 3
  }
}