{
  "id": 2128,
  "params": {
    "1016": 4,
    "873": 943,
    "1017": 8,
    "874": "Complete the Easy Fremennik Diary",
    "1850": 1,
    "1018": 0,
    "875": "Complete all of the easy tasks in the Fremennik Achievement Diary.",
    "1851": 1,
    "1852": 2
  }
}