{
  "id": 2135,
  "params": {
    "1016": 6,
    "873": 950,
    "1017": 8,
    "874": "Equip a Completed God Book",
    "1850": 4,
    "1018": 0,
    "875": "Equip a completed God Book.",
    "1851": 4,
    "1852": 4
  }
}