{
  "id": 2137,
  "params": {
    "1016": 6,
    "873": 952,
    "1017": 8,
    "874": "Use the Bank on Jatizso",
    "1850": 1,
    "1018": 0,
    "875": "Use the Bank on Jatizso.",
    "1851": 2,
    "1852": 1
  }
}