{
  "id": 2175,
  "params": {
    "1016": 5,
    "873": 990,
    "1017": 2,
    "874": "Complete the Inferno 5 Times",
    "1850": 4,
    "1018": 0,
    "875": "Complete the Inferno in Mor Ul Rek 5 times.",
    "1851": 4,
    "1852": 4
  }
}