{
  "id": 2187,
  "params": {
    "1016": 6,
    "873": 1002,
    "1017": 2,
    "874": "Pick a Pineapple on Karamja",
    "1850": 1,
    "1018": 0,
    "875": "Pick a Pineapple on Karamja.",
    "1851": 1,
    "1852": 1
  }
}