{
  "id": 2211,
  "params": {
    "1016": 1,
    "873": 1026,
    "1017": 4,
    "874": "Check a grown Dragonfruit Tree in Catherby",
    "1018": 21,
    "875": "Check the health of a Dragonfruit Tree you've grown in Catherby.",
    "876": 5
  }
}