{
  "id": 2217,
  "params": {
    "1016": 2,
    "873": 1032,
    "1017": 4,
    "874": "Equip a Dragon Scimitar",
    "1850": 2,
    "1018": 0,
    "875": "Equip a Dragon Scimitar.",
    "1851": 2,
    "1852": 2
  }
}