{
  "id": 2238,
  "params": {
    "1016": 2,
    "873": 1053,
    "1017": 4,
    "874": "Defeat the Kraken Boss 750 Times",
    "1018": 0,
    "875": "Defeat the Kraken boss in Kraken Cove 750 times.",
    "876": 5
  }
}