{
  "id": 2240,
  "params": {
    "1016": 2,
    "873": 1055,
    "1017": 4,
    "874": "Defeat 500 Demonic Gorillas",
    "1018": 0,
    "875": "Defeat 500 Demonic Gorillas in the Crash Site Cavern.",
    "876": 5
  }
}