{
  "id": 2241,
  "params": {
    "1016": 2,
    "873": 1056,
    "1017": 4,
    "874": "Defeat 750 Demonic Gorillas",
    "1018": 0,
    "875": "Defeat 750 Demonic Gorillas in the Crash Site Cavern.",
    "876": 5
  }
}