{
  "id": 2265,
  "params": {
    "1016": 1,
    "873": 1080,
    "1017": 4,
    "874": "Equip a Kruk Jr. Monkey Backpack",
    "1850": 4,
    "1018": 8,
    "875": "Equip a Kruk Jr. Monkey Backpack.",
    "1851": 4,
    "1852": 5
  }
}