{
  "id": 2267,
  "params": {
    "1016": 4,
    "873": 1082,
    "1017": 4,
    "874": "Complete the Easy Kandarin Diary",
    "1850": 1,
    "1018": 0,
    "875": "Complete all of the easy tasks in the Kandarin Achievement Diary.",
    "1851": 1,
    "1852": 2
  }
}