{
  "id": 2282,
  "params": {
    "1016": 1,
    "873": 1097,
    "1017": 3,
    "874": "Craft an Air Rune",
    "1850": 1,
    "1018": 12,
    "875": "Craft an Air Rune from Essence at the Air Altar.",
    "1851": 1,
    "1852": 1
  }
}