{
  "id": 2295,
  "params": {
    "1016": 2,
    "873": 1110,
    "1017": 3,
    "874": "Defeat a Skeletal Wyvern",
    "1850": 2,
    "1018": 20,
    "875": "Defeat a Skeletal Wyvern in the Asgarnian Ice Dungeon.",
    "1851": 2,
    "1852": 2
  }
}