{
  "id": 2311,
  "params": {
    "1016": 2,
    "873": 1126,
    "1017": 3,
    "874": "Defeat a Blue Dragon in Asgarnia",
    "1850": 1,
    "1018": 0,
    "875": "Defeat a Blue Dragon in Asgarnia.",
    "1851": 1,
    "1852": 1
  }
}