{
  "id": 2314,
  "params": {
    "1016": 2,
    "873": 1129,
    "1017": 3,
    "874": "Defeat 30 Black Dragons in Asgarnia",
    "1850": 2,
    "1018": 0,
    "875": "Defeat 30 Black Dragons in Asgarnia.",
    "1851": 2,
    "1852": 2
  }
}