{
  "id": 2325,
  "params": {
    "1016": 4,
    "873": 1140,
    "1017": 3,
    "874": "Complete the Hard Falador Diary",
    "1850": 3,
    "1018": 0,
    "875": "Complete all of the hard tasks in the Falador Achievement Diary.",
    "1851": 3,
    "1852": 3
  }
}