{
  "id": 2327,
  "params": {
    "1016": 3,
    "873": 1142,
    "1017": 3,
    "874": "Complete A Porcine of Interest",
    "1850": 2,
    "1018": 0,
    "875": "Complete the A Porcine of Interest quest.",
    "1851": 2,
    "1852": 2
  }
}