{
  "id": 2328,
  "params": {
    "1016": 2,
    "873": 1143,
    "1017": 3,
    "874": "Equip a Full Void Knight Set",
    "1850": 3,
    "1018": 0,
    "875": "Equip a full set of Void Knight equipment.",
    "1851": 3,
    "1852": 3
  }
}