{
  "id": 2330,
  "params": {
    "1016": 6,
    "873": 1145,
    "1017": 3,
    "874": "Turn in 100 Mole Claws to Wyson the Gardener",
    "1850": 3,
    "1018": 0,
    "875": "Turn in 100 Mole Claws to Wyson the Gardener in Falador.",
    "1851": 3,
    "1852": 2
  }
}