{
  "id": 2339,
  "params": {
    "1016": 5,
    "873": 1154,
    "1017": 6,
    "874": "Complete Room 1 of Pyramid Plunder",
    "1018": 10,
    "875": "Search the Golden Chest in Room 1 of Pyramid Plunder in Sophanem.",
    "876": 2
  }
}