{
  "id": 2383,
  "params": {
    "1016": 2,
    "873": 1198,
    "1017": 6,
    "874": "Defeat the Kalphite Queen 150 Times",
    "1850": 4,
    "1018": 0,
    "875": "Defeat the Kalphite Queen in the Kalphite Lair 150 times.",
    "1851": 4,
    "1852": 3
  }
}