{
  "id": 2384,
  "params": {
    "1016": 2,
    "873": 1199,
    "1017": 6,
    "874": "Defeat the Kalphite Queen 250 Times",
    "1850": 4,
    "1018": 0,
    "875": "Defeat the Kalphite Queen in the Kalphite Lair 250 times.",
    "1851": 4
  }
}