{
  "id": 2389,
  "params": {
    "1016": 4,
    "873": 1204,
    "1017": 6,
    "874": "Complete the Elite Desert Diary",
    "1850": 4,
    "1018": 0,
    "875": "Complete all of the elite tasks in the Desert Achievement Diary.",
    "1851": 4,
    "1852": 4
  }
}