{
  "id": 2405,
  "params": {
    "1016": 3,
    "873": 1220,
    "1017": 6,
    "874": "Complete Shadow of the Storm",
    "1850": 2,
    "1018": 0,
    "875": "Complete the Shadow of the Storm quest.",
    "1851": 2,
    "1852": 2
  }
}