{
  "id": 2410,
  "params": {
    "1016": 5,
    "873": 1225,
    "1017": 5,
    "874": "Complete Floor 4 of the Hallowed Sepulchre",
    "1018": 8,
    "875": "Complete floor 4 of the Hallowed Sepulchre in Darkmeyer.",
    "876": 4
  }
}