{
  "id": 2411,
  "params": {
    "1016": 5,
    "873": 1226,
    "1017": 5,
    "874": "Complete Floor 5 of the Hallowed Sepulchre",
    "1018": 8,
    "875": "Complete floor 5 of the Hallowed Sepulchre in Darkmeyer.",
    "876": 5
  }
}