{
  "id": 2413,
  "params": {
    "1016": 5,
    "873": 1228,
    "1017": 5,
    "874": "Complete the Hallowed Sepulchre in 6:30",
    "1018": 8,
    "875": "Complete the Hallowed Sepulchre in Darkmeyer in 6:30 or less.",
    "876": 5
  }
}