{
  "id": 2459,
  "params": {
    "1016": 2,
    "873": 1274,
    "1017": 5,
    "874": "Complete the Theatre of Blood 200 Times",
    "1018": 0,
    "875": "Complete the Theatre of Blood on Normal or Hard Mode 200 times.",
    "876": 5
  }
}