{
  "id": 2488,
  "params": {
    "1016": 1,
    "873": 1303,
    "1017": 11,
    "874": "Make an Extended Antifire Potion",
    "1850": 4,
    "1018": 9,
    "875": "Make an Extended Antifire Potion.",
    "1851": 4,
    "1852": 4
  }
}