{
  "id": 2504,
  "params": {
    "1016": 2,
    "873": 1319,
    "1017": 11,
    "874": "Defeat a Fire Giant in the Wilderness",
    "1850": 1,
    "1018": 0,
    "875": "Defeat a Fire Giant in the Wilderness.",
    "1851": 1,
    "1852": 1
  }
}