{
  "id": 2518,
  "params": {
    "1016": 2,
    "873": 1333,
    "1017": 11,
    "874": "Defeat the Corporeal Beast",
    "1850": 4,
    "1018": 0,
    "875": "Defeat the Corporeal Beast in the Wilderness.",
    "1851": 4,
    "1852": 3
  }
}