{
  "id": 2533,
  "params": {
    "1016": 2,
    "873": 1348,
    "1017": 11,
    "874": "Obtain Every Revenant Weapon",
    "1018": 0,
    "875": "Obtain Craws Bow, Viggora's Chainmace and Thammaron's Sceptre as drops from Revenants.",
    "876": 6
  }
}