{
  "id": 2549,
  "params": {
    "1016": 6,
    "873": 1364,
    "1017": 11,
    "874": "Pray at the Western Chaos Temple",
    "1850": 1,
    "1018": 0,
    "875": "Pray at the altar in the Western Chaos Temple.",
    "1851": 1,
    "1852": 1
  }
}