{
  "id": 2560,
  "params": {
    "1016": 6,
    "873": 1375,
    "1017": 6,
    "874": "Take a Carpet Ride from Pollnivneach to Sophanem",
    "1850": 1,
    "1018": 0,
    "875": "Take a carpet ride from Pollnivneach to Sophanem.",
    "1851": 1,
    "1852": 1
  }
}