{
  "id": 2589,
  "params": {
    "1016": 5,
    "873": 24,
    "1849": 3,
    "1017": 0,
    "874": "Equip Some Ranger Boots",
    "1850": 3,
    "1018": 3,
    "875": "Equip a pair of Ranger Boots.",
    "1851": 3,
    "1852": 3
  }
}