{
  "id": 2606,
  "params": {
    "1016": 5,
    "873": 94,
    "1849": 4,
    "1017": 0,
    "874": "Gain 25 Unique Items From Master Clues",
    "1850": 4,
    "1018": 0,
    "875": "Gain 25 unique items from Master Clue Scroll Reward Caskets.",
    "1851": 4,
    "1852": 4
  }
}