{
  "id": 2615,
  "params": {
    "1016": 5,
    "873": 138,
    "1849": 3,
    "1017": 0,
    "874": "Gain 35 Unique Items From Beginner Clues",
    "1850": 3,
    "1018": 0,
    "875": "Gain 35 unique items from Beginner Clue Scroll Reward Caskets.",
    "1851": 3,
    "1852": 3
  }
}