{
  "id": 2640,
  "params": {
    "1016": 2,
    "873": 314,
    "1849": 1,
    "1017": 0,
    "874": "Superhuman Strength and Improved Reflexes",
    "1850": 1,
    "1018": 7,
    "875": "Use both the Superhuman Strength prayer and the Improved Reflexes prayer at the same time.",
    "1851": 1,
    "1852": 1
  }
}