{
  "id": 2647,
  "params": {
    "1016": 1,
    "873": 497,
    "1017": 0,
    "874": "Achieve Your First Level Up",
    "1850": 1,
    "1018": 0,
    "875": "Level up any of your skills for the first time.",
    "1851": 1,
    "1852": 1
  }
}