{
  "id": 2649,
  "params": {
    "1016": 1,
    "873": 499,
    "1017": 0,
    "874": "Achieve Your First Level 10",
    "1850": 1,
    "1018": 0,
    "875": "Reach level 10 in any skill (not including Agility and Hitpoints).",
    "1851": 1,
    "1852": 1
  }
}