{
  "id": 2655,
  "params": {
    "1016": 1,
    "873": 505,
    "1017": 0,
    "874": "Achieve Your First Level 70",
    "1850": 3,
    "1018": 0,
    "875": "Reach level 70 in any skill.",
    "1851": 3,
    "1852": 3
  }
}