{
  "id": 2694,
  "params": {
    "1016": 1,
    "873": 544,
    "1017": 0,
    "874": "Reach Level 99 Runecraft",
    "1850": 4,
    "1018": 12,
    "875": "Reach level 99 in your Runecraft skill.",
    "1851": 4,
    "1852": 4
  }
}