{
  "id": 2706,
  "params": {
    "1016": 1,
    "873": 556,
    "1017": 0,
    "874": "Reach Level 99 Crafting",
    "1850": 4,
    "1018": 11,
    "875": "Reach level 99 in your Crafting skill.",
    "1851": 4,
    "1852": 4
  }
}