{
  "id": 2737,
  "params": {
    "1088": "player attack options,controls",
    "1091": 3993,
    "1092": 3994,
    "1077": 55,
    "1078": 2,
    "1096": "Select what the default left click option on another player will be.",
    "1097": "Select what the default tap option on another player will be.",
    "1085": 1,
    "1086": "Player Attack options"
  }
}