{
  "id": 2739,
  "params": {
    "1088": "combat tab keybind,attck style tab keybind,Side panel keybinds,hotkeys",
    "1091": 3506,
    "739": 1,
    "1077": 16,
    "1078": 3,
    "1098": 168,
    "1099": 540708,
    "1085": 1
  }
}