{
  "id": 2788,
  "params": {
    "1088": "Show warning when using tablet: Dareeyak,Show warning when using tablet Dareeyak,gameplay,teleports,tablets",
    "1077": 70,
    "1078": 0,
    "1096": "When enabled, shows a warning before using this tablet.",
    "1084": 1,
    "1085": 1,
    "1086": "Show warning when using tablet: Dareeyak",
    "1119": 1
  }
}