{
  "id": 2851,
  "params": {
    "1088": "function button mode, select function mode",
    "1091": 3661,
    "740": 1,
    "1077": 78,
    "1078": 2,
    "1096": "Choose what your tap will be when the function button is active.",
    "1085": 1,
    "1086": "Select function-mode"
  }
}