{
  "id": 2896,
  "params": {
    "1088": "chat,colour,public,public chat,chat colour,opaque,Chat Settings",
    "739": 1,
    "1077": 87,
    "1078": 9,
    "1115": 1,
    "1116": "You must have the transparent chatbox disabled or be in fixed mode to change this setting.",
    "1085": 1,
    "1230": 255,
    "1086": "Public chat"
  }
}