{
  "id": 2909,
  "params": {
    "1088": "chat,colour,clans chat,clan chat,chat colour,transparent,Chat Settings",
    "1186": 1,
    "1077": 100,
    "1078": 9,
    "1080": 3846,
    "1082": 3502,
    "1083": 3503,
    "1116": "You must have the transparent chatbox enabled and be in resizable mode to change this setting.",
    "1085": 1,
    "1230": 8323072,
    "1086": "Clan chat"
  }
}