{
  "id": 2913,
  "params": {
    "1088": "chat,chat,colour,challenge,request,challenge request,duel,duel request,transparent,Chat Settings",
    "1186": 1,
    "1077": 104,
    "1078": 9,
    "1080": 3846,
    "1082": 3502,
    "1083": 3503,
    "1116": "You must have the transparent chatbox enabled and be in resizable mode to change this setting.",
    "1085": 1,
    "1230": 16720095,
    "1086": "Incoming challenge request"
  }
}