{
  "id": 2915,
  "params": {
    "1088": "reset,transparent,chat,colour,defaults",
    "1186": 1,
    "1077": 108,
    "1093": 2,
    "1078": 6,
    "1080": 3846,
    "1082": 3502,
    "1083": 3503,
    "1100": 44,
    "1116": "You must have the transparent chatbox enabled and be in resizable mode to change these settings.",
    "1085": 1,
    "1086": "Reset transparent chat colours"
  }
}