{
  "id": 2971,
  "params": {
    "1297": 4591,
    "1298": 4615,
    "1346": 2934,
    "1159": 44,
    "1160": "Insanity",
    "1161": 14,
    "1162": 50,
    "1262": "The Wardens will become unstoppable. Floor slams are more frequent, phantoms attack faster, and tiles are removed more frequently during their final phase."
  }
}