{
  "id": 2976,
  "params": {
    "1088": "chat,chat,colour,guest,request,guest clan,transparent,Chat Settings",
    "1186": 1,
    "1077": 106,
    "1078": 9,
    "1080": 3846,
    "1082": 3502,
    "1083": 3503,
    "1116": "You must have the transparent chatbox enabled and be in resizable mode to change this setting.",
    "1085": 1,
    "1230": 54016,
    "1086": "Guest clan chat"
  }
}