{
  "id": 3012,
  "params": {
    "1088": "Chat,chatbox,chat box,time,timestamp,timestamps,time stamp,time stamps,Advanced Display Settings",
    "1091": 3896,
    "1077": 119,
    "1157": 1,
    "1078": 2,
    "1096": "When enabled, timestamps will be shown alongside messages that appear in your chat box. These can be displayed in either server time (as the game sees it) or local time (as your device sees it).",
    "1085": 1,
    "1086": "Chat timestamps"
  }
}