{
  "id": 3013,
  "params": {
    "1088": "fishing spot indicators,small fishing net,big fishing net,drift net,fishing rod,fly fishing rod,oily fishing rod,barbarian rod,harpoon,lobster pot,cormorants glove,karambwan vessel",
    "1077": 120,
    "1157": 1,
    "1078": 0,
    "1096": "When enabled, fishing spots will be highlighted and the fish the spot gives will be shown above the fishing spot. You can hover over the fish shown to see every fish that can be caught at the spot.",
    "1084": 1,
    "1086": "Fishing spot indicators"
  }
}