{
  "id": 3016,
  "params": {
    "1088": "Show attack style,hide attack style,combat style",
    "1096": "When enabled, your active attack style will be displayed on the top-level interface.",
    "1077": 123,
    "1157": 1,
    "1078": 0,
    "1086": "Show attack style"
  }
}