{
  "id": 3024,
  "params": {
    "1088": "buff bar",
    "1090": 2,
    "1077": 131,
    "1157": 1,
    "1078": 0,
    "1096": "When enabled, shows how long until you can use the altar inside of godwars again to regain prayer.",
    "1084": 1,
    "1086": "Godwars altar cooldown"
  }
}