{
  "id": 3033,
  "params": {
    "1088": "buff bar",
    "1090": 2,
    "1077": 140,
    "1157": 1,
    "1078": 0,
    "1096": "When enabled, shows how long the Abyssal sire stun duration will last.",
    "1084": 1,
    "1086": "Abyssal sire stun duration"
  }
}