{
  "id": 3083,
  "params": {
    "1280": 589856,
    "1281": 20724,
    "1284": 32768,
    "1541": 10,
    "1288": 1,
    "1275": 4,
    "1276": 14483456,
    "1277": 4,
    "1279": "Imbued heart cooldown."
  }
}