{
  "id": 314,
  "params": {
    "1088": "NPC indicators",
    "1091": 4604,
    "739": 1,
    "1077": 258,
    "1157": 1,
    "1078": 2,
    "1096": "When enabled, display the NPC's name above its body.",
    "1080": 4596,
    "1081": 4597,
    "1116": "NPC highlighting must be enabled for this setting to have any effect.",
    "1085": 1,
    "1086": "NPC highlight - Display name"
  }
}