{
  "id": 3161,
  "params": {
    "1312": 24,
    "1306": 21,
    "1307": 3594,
    "1308": "Defence Matters",
    "1309": "Kill General Graardor 2 times consecutively in a privately rented instance without taking any damage from his bodyguards.",
    "1310": 6,
    "1311": 2
  }
}