{
  "id": 3178,
  "params": {
    "1312": 6,
    "1306": 38,
    "1307": 3594,
    "1308": "Quick Cutter",
    "1309": "Kill all 3 of Bryophyta's growthlings within 3 seconds of the first one dying.",
    "1310": 2,
    "1311": 4
  }
}