{
  "id": 3203,
  "params": {
    "1312": 10,
    "1306": 63,
    "1307": 3594,
    "1308": "Sorry, What Was That?",
    "1309": "Kill the Chaos Fanatic without anyone being hit by his explosion attack.",
    "1310": 2,
    "1311": 2
  }
}