{
  "id": 322,
  "params": {
    "1088": "",
    "1077": 265,
    "1157": 1,
    "1078": 0,
    "1096": "When enabled, minimap icons will be hidden while the minimap is fully zoomed-out.",
    "1085": 1,
    "1086": "Hide minimap icons when zoomed out"
  }
}