{
  "id": 3224,
  "params": {
    "1312": 26,
    "1306": 84,
    "1307": 3594,
    "1308": "Don't Look at the Eclipse",
    "1309": "Kill the Grotesque Guardians without taking damage from Dusk's blinding attack.",
    "1310": 3,
    "1311": 4
  }
}