{
  "id": 3234,
  "params": {
    "1312": 26,
    "1306": 94,
    "1307": 3594,
    "1308": "Grotesque Guardians Speed-Runner",
    "1309": "Kill the Grotesque Guardians in less than 1:20 minutes.",
    "1310": 6,
    "1311": 6
  }
}