{
  "id": 3247,
  "params": {
    "1312": 17,
    "1306": 107,
    "1307": 3594,
    "1308": "Corrupted Gauntlet Speed-Chaser",
    "1309": "Complete a Corrupted Gauntlet in less than 7 minutes and 30 seconds.",
    "1310": 5,
    "1311": 6
  }
}