{
  "id": 3251,
  "params": {
    "1312": 16,
    "1306": 111,
    "1307": 3594,
    "1308": "3, 2, 1 - Range",
    "1309": "Kill the Crystalline Hunllef without taking damage off prayer.",
    "1310": 4,
    "1311": 2
  }
}