{
  "id": 3265,
  "params": {
    "1312": 27,
    "1306": 125,
    "1307": 3594,
    "1308": "Weed Whacker",
    "1309": "Kill all of Hesporis flowers within 5 seconds.",
    "1310": 3,
    "1311": 4
  }
}