{
  "id": 3267,
  "params": {
    "1312": 27,
    "1306": 127,
    "1307": 3594,
    "1308": "Hespori Speed-Trialist",
    "1309": "Kill the Hespori in less than 48 seconds.",
    "1310": 4,
    "1311": 6
  }
}