{
  "id": 3278,
  "params": {
    "1312": 2,
    "1306": 138,
    "1307": 3594,
    "1308": "Lightning Lure",
    "1309": "Kill the Alchemical Hydra without being hit by the lightning attack.",
    "1310": 5,
    "1311": 4
  }
}