{
  "id": 3294,
  "params": {
    "1312": 56,
    "1306": 154,
    "1307": 3594,
    "1308": "No Time for a Drink",
    "1309": "Complete the Fight Caves without losing any prayer points.",
    "1310": 6,
    "1311": 5
  }
}