{
  "id": 3297,
  "params": {
    "1312": 29,
    "1306": 157,
    "1307": 3594,
    "1308": "Kalphite Queen Adept",
    "1309": "Kill the Kalphite Queen 25 times.",
    "1310": 3,
    "1311": 3
  }
}