{
  "id": 3333,
  "params": {
    "1312": 38,
    "1306": 193,
    "1307": 3594,
    "1308": "Nightmare (Solo) Speed-Runner",
    "1309": "Defeat the Nightmare (Solo) in less than 16 minutes.",
    "1310": 6,
    "1311": 6
  }
}