{
  "id": 334,
  "params": {
    "1088": "Clue scroll helper world arrows",
    "1090": 4,
    "1077": 273,
    "1157": 1,
    "1078": 0,
    "1096": "When enabled, an arrow will be shown in the world to indicate where the clue step is.",
    "1080": 4602,
    "1085": 1,
    "1086": "Clue scroll helper - World arrows"
  }
}