{
  "id": 3350,
  "params": {
    "1312": 43,
    "1306": 210,
    "1307": 3594,
    "1308": "Newspaper Enthusiast",
    "1309": "Kill Sarachnis with a crush weapon.",
    "1310": 2,
    "1311": 5
  }
}