{
  "id": 3353,
  "params": {
    "1312": 15,
    "1306": 213,
    "1307": 3594,
    "1308": "Commander Showdown",
    "1309": "Finish off Commander Zilyana while all of her bodyguards are dead.",
    "1310": 3,
    "1311": 4
  }
}