{
  "id": 3370,
  "params": {
    "1312": 64,
    "1306": 230,
    "1307": 3594,
    "1308": "Zulrah Speed-Trialist",
    "1309": "Kill Zulrah in less than 1 minute 20 seconds, without a slayer task.",
    "1310": 4,
    "1311": 6
  }
}