{
  "id": 3373,
  "params": {
    "1312": 20,
    "1306": 233,
    "1307": 3594,
    "1308": "Dagannoth Supreme Champion",
    "1309": "Kill Dagannoth Supreme 10 times.",
    "1310": 2,
    "1311": 3
  }
}