{
  "id": 3385,
  "params": {
    "1312": 48,
    "1306": 245,
    "1307": 3594,
    "1308": "Perfect Bloat",
    "1309": "Kill the Pestilent Bloat without anyone in the team taking damage from the following sources: Pestilent flies, Falling body parts or The Pestilent Bloats stomp attack.",
    "1310": 5,
    "1311": 2
  }
}