{
  "id": 3417,
  "params": {
    "1312": 60,
    "1306": 277,
    "1307": 3594,
    "1308": "Vorkath Speed-Runner",
    "1309": "Kill Vorkath in less than 54 seconds.",
    "1310": 6,
    "1311": 6
  }
}