{
  "id": 3422,
  "params": {
    "1312": 62,
    "1306": 282,
    "1307": 3594,
    "1308": "Handyman",
    "1309": "Repair a brazier which has been destroyed by the Wintertodt.",
    "1310": 1,
    "1311": 4
  }
}