{
  "id": 3423,
  "params": {
    "1312": 62,
    "1306": 283,
    "1307": 3594,
    "1308": "Can We Fix It?",
    "1309": "Subdue the Wintertodt without allowing all 4 braziers to be broken at the same time.",
    "1310": 2,
    "1311": 2
  }
}