{
  "id": 3436,
  "params": {
    "1312": 13,
    "1425": 4,
    "1306": 296,
    "1307": 3594,
    "1308": "Chambers of Xeric: CM (5-Scale) Speed-Runner",
    "1309": "Complete a Chambers of Xeric: Challenge Mode (5-scale) in less than 25 minutes.",
    "1310": 6,
    "1311": 6
  }
}