{
  "id": 3438,
  "params": {
    "1312": 13,
    "1425": 2,
    "1306": 298,
    "1307": 3594,
    "1308": "Chambers of Xeric: CM (Trio) Speed-Runner",
    "1309": "Complete a Chambers of Xeric: Challenge Mode (Trio) in less than 27 minutes.",
    "1310": 6,
    "1311": 6
  }
}