{
  "id": 3440,
  "params": {
    "1312": 12,
    "1306": 300,
    "1307": 3594,
    "1308": "Chambers of Xeric Master",
    "1309": "Complete the Chambers of Xeric 75 times.",
    "1310": 5,
    "1311": 3
  }
}