{
  "id": 3452,
  "params": {
    "1312": 12,
    "1306": 312,
    "1307": 3594,
    "1308": "Undying Raid Team",
    "1309": "Complete a Chambers of Xeric raid without anyone dying.",
    "1310": 4,
    "1311": 2
  }
}