{
  "id": 3466,
  "params": {
    "1312": 12,
    "1425": 2,
    "1306": 326,
    "1307": 3594,
    "1308": "Chambers of Xeric (Trio) Speed-Chaser",
    "1309": "Complete a Chambers of Xeric (Trio) in less than 16 minutes and 30 seconds.",
    "1310": 5,
    "1311": 6
  }
}