{
  "id": 3471,
  "params": {
    "1312": 63,
    "1306": 331,
    "1307": 3594,
    "1308": "The Spurned Hero",
    "1309": "Kill Zalcano as the player who has dealt the most damage to her.",
    "1310": 4,
    "1311": 4
  }
}