{
  "id": 3496,
  "params": {
    "1312": 46,
    "1306": 356,
    "1307": 3594,
    "1308": "Master of Buckets",
    "1309": "Extinguish at least 5 fires during a single Tempoross fight.",
    "1310": 1,
    "1311": 4
  }
}