{
  "id": 3499,
  "params": {
    "1312": 46,
    "1306": 359,
    "1307": 3594,
    "1308": "The Lone Angler",
    "1309": "Subdue Tempoross alone without getting hit by any fires, torrents or waves.",
    "1310": 2,
    "1311": 2
  }
}