{
  "id": 3503,
  "params": {
    "1312": 54,
    "1306": 363,
    "1307": 3594,
    "1308": "The VI Jad Challenge",
    "1309": "Complete TzHaar-Ket-Rak's sixth challenge.",
    "1310": 6,
    "1311": 3
  }
}