{
  "id": 3517,
  "params": {
    "1312": 49,
    "1306": 377,
    "1307": 3594,
    "1308": "Nylo Sniper",
    "1309": "Defeat Verzik Vitur in the Theatre of Blood: Hard Mode without anyone in your team causing a Nylocas to explode by getting too close.",
    "1310": 6,
    "1311": 4
  }
}