{
  "id": 3535,
  "params": {
    "1312": 47,
    "1306": 395,
    "1307": 3594,
    "1308": "Pass It On",
    "1309": "In the Theatre of Blood: Entry Mode, successfully pass on the green ball to a team mate.",
    "1310": 4,
    "1311": 4
  }
}