{
  "id": 3539,
  "params": {
    "1312": 68,
    "1306": 399,
    "1307": 3594,
    "1308": "Sit Back and Relax",
    "1309": "Deal 100 damage to creatures using undead thralls.",
    "1310": 2,
    "1311": 4
  }
}