{
  "id": 3547,
  "params": {
    "1313": "General Graardor",
    "1314": 624,
    "1315": 24,
    "1317": 583898350,
    "1319": "General Graardor represents Bandos as one of the four generals within the God Wars Dungeon north of Trollheim.<br><br>Attack Styles - Melee, Ranged<br>Immunities - Poison, Venom<br>Slayer Categories - None",
    "1320": "Mandatory requirements:<br> - 70 Strength<br> - Hammer<br><br>Combat Achievement task difficulty:<br> - Hard<br> - Elite<br> - Grandmaster",
    "1322": 42773,
    "1323": 7017,
    "1324": 0,
    "1325": 430,
    "1326": 120,
    "1327": 135,
    "1328": 0,
    "1329": 2300
  }
}