{
  "id": 3587,
  "params": {
    "1313": "TzHaar-Ket-Rak's Challenges",
    "1314": 900,
    "1315": 54,
    "1317": 41686007,
    "1319": "TzHaar-Ket-Rak's is an elite Tzhaar warrior found within the inner city of Mor Ul Rek.<br><br>TzHaar-Ket-Rak offers a number of challenges where those who have proven themselves within the Fight Caves or the Inferno can go up against an ever increasing number of JalTok-Jads.",
    "1320": "Mandatory requirements:<br><br>TzHaar-Ket-Rak's First and Second Challenges<br> - 1 Fight Caves completion<br><br>TzHaar-Ket-Rak's Third to Sixth Challenges<br> - 1 Inferno completion<br><br>Combat Achievement task difficulty:<br> - Elite<br> - Master<br> - Grandmaster",
    "1322": 41571,
    "1323": 8859,
    "1324": 20,
    "1325": 230,
    "1326": 100,
    "1327": 150,
    "1328": 0,
    "1329": 2000
  }
}