{
  "id": 3655,
  "params": {
    "1088": "Restore Minimap zoom",
    "1077": 167,
    "1157": 1,
    "1093": 2,
    "1078": 6,
    "1080": 1267,
    "1081": 1266,
    "1100": 44,
    "1085": 1,
    "1086": "Restore Minimap zoom"
  }
}