{
  "id": 3672,
  "params": {
    "1384": 3436,
    "1371": 16,
    "1372": "Sigil of the Abyss",
    "1373": "When Runecrafting, you gain 5X as many runes as usual.",
    "1374": 2,
    "1375": 1
  }
}