{
  "id": 3679,
  "params": {
    "1384": 3418,
    "1371": 23,
    "1372": "Sigil of Specialised Strikes",
    "1373": "Activate the Sigil to reduce the cost of your next Special Attack that costs more than 10 energy by 10. This effect lasts for 12 seconds and has a 20 second cooldown.",
    "1374": 1,
    "1375": 2
  }
}