{
  "id": 3685,
  "params": {
    "1384": 3408,
    "1371": 29,
    "1372": "Sigil of the Menacing Mage",
    "1373": "Upon dealing Magic damage, you have a 10% chance to curse the target. The curse deals 18 damage, 33% less damage in the 3 to 50 bracket, over the next 6 seconds and heals you for the same amount. A target can only be under the effect of one curse at a time.",
    "1374": 1,
    "1375": 2
  }
}