{
  "id": 3689,
  "params": {
    "1384": 3440,
    "1371": 33,
    "1372": "Sigil of the Barbarians",
    "1373": "You gain 50% more XP in the following skills: Firemaking, Fishing, Herblore and Slayer.",
    "1374": 2,
    "1375": 2
  }
}