{
  "id": 3697,
  "params": {
    "1384": 3431,
    "1371": 41,
    "1372": "Sigil of Versatility",
    "1373": "Activate the Sigil to instantly swap your Spellbook to any unlocked Spellbook while outside of combat.",
    "1374": 3,
    "1375": 2
  }
}