{
  "id": 3698,
  "params": {
    "1384": 3432,
    "1371": 42,
    "1372": "Sigil of the Serpent",
    "1373": "Activate the Sigil to cure venom and poison, and gain immunity from both effects for 10 minutes. Once activated, the Sigil has a 3-minute cooldown.",
    "1374": 3,
    "1375": 1
  }
}