{
  "id": 3703,
  "params": {
    "1384": 3421,
    "1371": 47,
    "1372": "Sigil of Aggression",
    "1373": "All attacks deal 10% more damage, but you take 5% more damage from all sources. This sigil does not stack with the Sigil of Rampage.",
    "1374": 1,
    "1375": 3
  }
}