{
  "id": 3712,
  "params": {
    "1392": 3531,
    "1393": 3526,
    "1394": 3529,
    "1395": 3527,
    "1478": 4,
    "1387": 3524,
    "1388": 3528,
    "1389": 3525,
    "1390": 3530,
    "1391": 297
  }
}