{
  "id": 3734,
  "params": {
    "1088": "buff bar",
    "1090": 2,
    "1077": 186,
    "1157": 1,
    "1078": 0,
    "1096": "When enabled, shows how long until you will take poison damage and how much you will take.",
    "1084": 1,
    "1086": "Poison damage"
  }
}