{
  "id": 3752,
  "params": {
    "1088": "quest,quests,quest list,questlist,show,hide,miniquest,miniquests,mini quest,mini-quest",
    "1096": "Hides miniquests in the quest list.",
    "1077": 220,
    "1565": 1,
    "1078": 0,
    "1086": "Hide miniquests"
  }
}