{
  "id": 3777,
  "params": {
    "1280": 524320,
    "1480": 1,
    "1481": 1,
    "1482": 1,
    "1275": 53,
    "1483": 524320,
    "1276": 49030,
    "1277": 1,
    "1279": "Weapon Specialist."
  }
}