{
  "id": 3786,
  "params": {
    "1016": 6,
    "873": 1394,
    "1017": 10,
    "874": "Equip any Ancestral piece",
    "1018": 0,
    "875": "Equip either an Ancestral Hat, an Ancestral robe top or an Ancestral robe bottom.",
    "1851": 4,
    "1852": 4
  }
}