{
  "id": 3791,
  "params": {
    "1016": 2,
    "873": 1399,
    "1017": 10,
    "874": "250 Sarachnis Kills",
    "1018": 0,
    "875": "Kill Sarachnis in the Forthos Dungeon 250 times.",
    "876": 5
  }
}