{
  "id": 3800,
  "params": {
    "1016": 5,
    "873": 1408,
    "1017": 3,
    "874": "Open an Ornate Lockbox",
    "1018": 0,
    "875": "Open an Ornate Lockbox from the Camdozaal Vault.",
    "1851": 1,
    "1852": 1
  }
}