{
  "id": 3810,
  "params": {
    "1016": 2,
    "873": 1418,
    "1017": 5,
    "874": "Defeat The Nightmare 750 times",
    "1018": 0,
    "875": "Defeat The Nightmare or Phosani's Nightmare 750 times combined.",
    "876": 5
  }
}