{
  "id": 3820,
  "params": {
    "1016": 1,
    "873": 1428,
    "1017": 6,
    "874": "100 Tempoross Kills",
    "1018": 15,
    "875": "Help the Spirit Anglers subdue the Tempoross 100 times.",
    "876": 4
  }
}