{
  "id": 3828,
  "params": {
    "1016": 4,
    "873": 1436,
    "1017": 0,
    "874": "5 Easy Combat Achievements",
    "1018": 0,
    "875": "Complete 5 Easy Combat Achievements.",
    "876": 2
  }
}