{
  "id": 3847,
  "params": {
    "1016": 4,
    "873": 1455,
    "1017": 0,
    "874": "50 Elite Combat Achievements",
    "1018": 0,
    "875": "Complete 50 Elite Combat Achievements.",
    "876": 5
  }
}