{
  "id": 3848,
  "params": {
    "1016": 4,
    "873": 1456,
    "1017": 0,
    "874": "75 Elite Combat Achievements",
    "1018": 0,
    "875": "Complete 75 Elite Combat Achievements.",
    "876": 5
  }
}