{
  "id": 3866,
  "params": {
    "1016": 1,
    "873": 1474,
    "1017": 10,
    "874": "Cast Resurrect Superior Ghost",
    "1018": 4,
    "875": "Resurrect a ghost by using the Resurrect Superior Ghost spell.",
    "1851": 2
  }
}