{
  "id": 3898,
  "params": {
    "1016": 6,
    "873": 1506,
    "1017": 4,
    "874": "Get Stung By Bees",
    "1018": 0,
    "875": "Get stung by bees at the Beehives.",
    "1851": 1,
    "1852": 1
  }
}