{
  "id": 3904,
  "params": {
    "1016": 2,
    "873": 1512,
    "1017": 3,
    "874": "Defeat Nex 25 Times",
    "1018": 0,
    "875": "Defeat Nex in the God Wars Dungeon 25 times.",
    "876": 4
  }
}