{
  "id": 3912,
  "params": {
    "1016": 6,
    "873": 1520,
    "1017": 3,
    "874": "Equip a Zaryte Crossbow",
    "1018": 0,
    "875": "Obtain and equip a Zaryte Crossbow.",
    "1851": 3,
    "1852": 4
  }
}