{
  "id": 3916,
  "params": {
    "1392": 4099,
    "1393": 4095,
    "1473": 5339756,
    "1394": 4100,
    "1395": 4096,
    "1478": 9,
    "1387": 4093,
    "1388": 4098,
    "1389": 4094,
    "1390": 4097
  }
}