{
  "id": 3947,
  "params": {
    "1440": 217,
    "1441": 4256,
    "1442": 10,
    "1435": 19,
    "1437": "Farming",
    "1438": "<col=cfcfcf>Farming allows you to plant seeds and harvest crops. As you raise your Farming level, more crops will become available."
  }
}