{
  "id": 3955,
  "params": {
    "1440": 4266,
    "1441": 4306,
    "1442": 10,
    "1443": 3571,
    "1436": 7371,
    "1437": "Wintertodt",
    "1438": "<col=cfcfcf>Wintertodt is a skilling boss located<br><col=cfcfcf>in the Northern Tundras of Great Kourend, east of the Fishing Hamlet.<br>50 Firemaking required.",
    "1439": "the Wintertodt"
  }
}