{
  "id": 3984,
  "params": {
    "1643": 99,
    "1444": 4,
    "1437": "Elf II",
    "1438": "<col=cfcfcf>Auto completes Mourning's End part 1 & all sub quests.<br>Select the Info button for details.",
    "1446": "- All content from Elf I<br>- Access to Tirannwn<br>- Ability to use the Dragon Halberd<br>- Access to Zulrah<br>- Port Tyras charter ship<br><br>Free item from the Sage:<br>- Crystal Shield or Crystal Bow (500 charges)",
    "1447": "Mourning's End Part I"
  }
}