{
  "id": 4000,
  "params": {
    "1444": 20,
    "1446": "- All content from Karamja I<br>- Ability to fish and cook Karambwan",
    "1447": "One Small Favour",
    "1643": 107,
    "1644": 141,
    "1437": "Karamja II",
    "1438": "<col=cfcfcf>Auto completes One Small Favour, all sub quests & more.<br>Select the Info button for details."
  }
}