{
  "id": 404,
  "params": {
    "1312": 1,
    "1306": 7,
    "1307": 3594,
    "1308": "Don't Stop Moving",
    "1309": "Kill the Abyssal Sire without taking damage from any miasma pools.",
    "1310": 3,
    "1311": 2
  }
}