{
  "id": 4053,
  "params": {
    "1448": "Divine Restoration",
    "1449": "Passive Prayer Restoration",
    "1450": "Prayer Points are restored at a rate of 1 point every 15 seconds.",
    "1451": "Prayer Points are restored at a rate of 1 point every 9 seconds.",
    "1452": "Prayer Points are restored at a rate of 1 point every 3.6 seconds.",
    "1453": 1,
    "1454": 3,
    "1455": 9,
    "1456": 25,
    "1457": 15,
    "1458": 6,
    "1459": 1,
    "1460": 14,
    "1461": 26,
    "1462": 26547
  }
}