{
  "id": 4054,
  "params": {
    "1448": "Thrall Damage",
    "1449": "Increases Thrall Damage",
    "1450": "Your thralls have a 100% increased max hit.",
    "1451": "Your thralls have a 200% increased max hit.",
    "1452": "Your thralls have a 300% increased max hit.",
    "1453": 1,
    "1454": 2,
    "1455": 7,
    "1456": 100,
    "1457": 200,
    "1458": 300,
    "1459": 7,
    "1460": 3,
    "1461": 1,
    "1462": 26547
  }
}