{
  "id": 4055,
  "params": {
    "1448": "Homewrecker",
    "1449": "Increased Bird Nest Chance",
    "1450": "Bird Nests from Woodcutting are sent to the Bank with a 2x increased chance to drop.",
    "1451": "Bird Nests from Woodcutting are sent to the Bank with a 3x increased chance to drop.",
    "1452": "Bird Nests from Woodcutting are sent to the Bank with a 4x increased chance to drop.",
    "1453": 2,
    "1454": 0,
    "1455": 26,
    "1456": 2,
    "1457": 3,
    "1458": 4,
    "1459": 2,
    "1460": 11,
    "1461": 37,
    "1462": 26544,
    "1463": 8
  }
}