{
  "id": 4056,
  "params": {
    "1448": "Hot on the Trail",
    "1449": "Clue Scrolls From Firemaking",
    "1450": "2% chance of receiving a clue by lighting a fire.",
    "1451": "5% chance of receiving a clue by lighting a fire.",
    "1452": "10% chance of receiving a clue by lighting a fire.",
    "1453": 4,
    "1454": 0,
    "1455": 27,
    "1456": 2,
    "1457": 5,
    "1458": 10,
    "1459": 8,
    "1460": 3,
    "1461": 54,
    "1462": 26546,
    "1463": 11
  }
}