{
  "id": 4057,
  "params": {
    "1448": "Plank Stretcher",
    "1449": "Save Plank From Construction",
    "1450": "10% chance for all types of planks to not be consumed in Construction.",
    "1451": "20% chance for all types of planks to not be consumed in Construction.",
    "1452": "50% chance for all types of planks to not be consumed in Construction.",
    "1453": 3,
    "1454": 0,
    "1455": 28,
    "1456": 10,
    "1457": 20,
    "1458": 50,
    "1459": 7,
    "1460": 15,
    "1461": 10,
    "1462": 26545,
    "1463": 22
  }
}