{
  "id": 4085,
  "params": {
    "1448": "Zamorakian Sight",
    "1449": "Bonus magic accuracy",
    "1450": "When wearing four Zamorak items you have 50% increased magic accuracy.",
    "1451": "When wearing four Zamorak items you have 125% increased magic accuracy.",
    "1452": "When wearing four Zamorak items you have 250% increased magic accuracy.",
    "1453": 1,
    "1454": 4,
    "1455": 19,
    "1456": 50,
    "1457": 125,
    "1458": 250,
    "1459": 3,
    "1460": 6,
    "1461": 3,
    "1462": 26547
  }
}