{
  "id": 4089,
  "params": {
    "1448": "Venomaster",
    "1449": "Apply poison & poison immunity.",
    "1450": "Your attacks have a chance to inflict 3 poison damage.",
    "1451": "Your attacks have a chance to inflict 5 poison damage. Additionally, you are immune to being poisoned.",
    "1452": "Your attacks have a chance to inflict 7 poison damage. Additionally, you are immune to being poisoned and venomed.",
    "1453": 1,
    "1454": 1,
    "1455": 13,
    "1456": 15,
    "1457": 25,
    "1458": 35,
    "1459": 8,
    "1460": 1,
    "1461": 56,
    "1462": 26547,
    "1463": 15
  }
}