{
  "id": 4098,
  "params": {
    "914": " A set of 4 ornament kits that can be used to apply a Leagues III - Shattered Relics theme to the Dwarf multicannon.",
    "363": "Shattered Cannon Orn Kit",
    "915": 4115,
    "150": 26528,
    "151": 4500
  }
}