{
  "id": 4116,
  "params": {
    "1472": -1,
    "1464": 3,
    "1432": 4101,
    "1465": "Chain Magic",
    "1466": "After a successful Magic attack, you have a chance to do another magic attack roll.",
    "1467": "30% chance.",
    "1468": 2,
    "1469": "60% chance.",
    "1470": 3,
    "1471": -1
  }
}