{
  "id": 4123,
  "params": {
    "1472": -1,
    "1464": 4,
    "1432": 4108,
    "1465": "The Craftsman",
    "1466": "When doing Smithing, Crafting and Fletching activities, all items in your inventory will be processed at once and reward full experience.",
    "1467": "Smelting ores, smithing bars and cannonballs, crafting with leather, glass, uncut gems, pottery, battlestaves, spinning flax and wool, fletching logs and cutting bolt tips.",
    "1468": 3,
    "1470": 0,
    "1471": -1
  }
}