{
  "id": 4126,
  "params": {
    "1472": -1,
    "1464": 7,
    "1432": 4111,
    "1465": "Endless Knowledge",
    "1466": "You gain an item that allows you to swap spellbooks at will.",
    "1467": "Arcane Grimoire.",
    "1468": 3,
    "1470": 0,
    "1471": 26551
  }
}