{
  "id": 4145,
  "params": {
    "1312": 37,
    "1306": 418,
    "1307": 3594,
    "1308": "I should see a doctor",
    "1309": "Kill Nex whilst a player is coughing.",
    "1310": 6,
    "1311": 5
  }
}