{
  "id": 4156,
  "params": {
    "1280": 393240,
    "1538": 0,
    "1540": -1,
    "1288": 1,
    "1275": 60,
    "1276": 47872,
    "1277": 1,
    "1278": 1308,
    "1279": "Greater corruption."
  }
}