{
  "id": 4202,
  "params": {
    "1289": 42,
    "1546": "Have any member of this Ironman Group open the group storage after completing every hard combat achievement task.",
    "1291": 25930,
    "1547": 3
  }
}