{
  "id": 4205,
  "params": {
    "1289": 45,
    "1546": "Have any member of this Ironman Group open the group storage after reaching a total level of 750.",
    "1291": -1,
    "1547": 3,
    "1548": 222
  }
}