{
  "id": 4215,
  "params": {
    "1536": "When enabled will send out a notification when a group member reaches milestone levels on a standard or Deadman world.",
    "1163": "Level-up broadcasts"
  }
}