{
  "id": 423,
  "params": {
    "1297": 4593,
    "1298": 4617,
    "1299": 3000,
    "1159": 7,
    "1160": "Run for It",
    "1161": 4,
    "1162": 20,
    "1262": "Sets a 30 minute time limit on the raid. If the time is achieved, the raid level is increased. Otherwise, the raid level is decreased."
  }
}