{
  "id": 425,
  "params": {
    "1297": 4594,
    "1298": 4618,
    "1299": 66,
    "1159": 9,
    "1160": "Need Some Help?",
    "1161": 5,
    "1162": 15,
    "1262": "The quantity of items offered by the helpful spirit will be reduced to 66%."
  }
}