{
  "id": 4252,
  "params": {
    "1088": "quest,quests,quest list,questlist,text,color,colour,font,reset,default,defaults,colourblind,colorblind,blind,eyesight,vision,accessibility",
    "1100": 44,
    "1077": 228,
    "1093": 2,
    "1078": 6,
    "1086": "Reset quest list text colours"
  }
}