{
  "id": 427,
  "params": {
    "1297": 4594,
    "1298": 4618,
    "1299": 10,
    "1159": 11,
    "1160": "No Help Needed",
    "1161": 5,
    "1162": 40,
    "1262": "The quantity of items offered by the helpful spirit will be reduced to 10%."
  }
}