{
  "id": 4281,
  "params": {
    "1088": "vibrate,haptic,feedback,rumble",
    "740": 1,
    "1077": 229,
    "1157": 1,
    "1078": 0,
    "1096": "When enabled, your device will vibrate when you perform any non-interface interaction (except Walk-here).",
    "1084": 1,
    "1085": 1,
    "1086": "Vibrate on interaction"
  }
}