{
  "id": 4282,
  "params": {
    "1088": "vibrate,haptic,feedback,rumble",
    "740": 1,
    "1077": 230,
    "1157": 1,
    "1078": 0,
    "1096": "When enabled, your device will vibrate when you begin dragging something in an interface.",
    "1084": 1,
    "1085": 1,
    "1086": "Vibrate on drag"
  }
}