{
  "id": 4336,
  "params": {
    "1636": 27014,
    "1638": 300,
    "1639": "Grog made by Kovac. This foul-looking brew will imbue anyone who drinks it with improved knowledge of Smithing.<br><br>Smithing: +4<br>Attack: -2<br>Range: -2<br>Magic: -2"
  }
}