{
  "id": 4343,
  "params": {
    "1636": 27021,
    "1638": 5000,
    "1639": "A Giant Blade forged within the Giants' Foundry.<br>Normally reserved for the giants of Gielinor, Kovac is willing to part with this one, even though you made it.<br><br>Requires 60 Attack to wield."
  }
}