{
  "id": 4350,
  "params": {
    "1637": 4309,
    "1638": 300,
    "1639": "Unlock this new mould for use in the Giants' Foundry. Higher tier moulds allow you to better match contracts, earning you more reputation."
  }
}