{
  "id": 4352,
  "params": {
    "1637": 4311,
    "1638": 400,
    "1639": "Unlock this new mould for use in the Giants' Foundry. Higher tier moulds allow you to better match contracts, earning you more reputation."
  }
}