{
  "id": 4353,
  "params": {
    "1637": 4312,
    "1638": 450,
    "1639": "Unlock this new mould for use in the Giants' Foundry. Higher tier moulds allow you to better match contracts, earning you more reputation."
  }
}