{
  "id": 4398,
  "params": {
    "1312": 53,
    "1306": 426,
    "1307": 3594,
    "1308": "Resourceful Raider",
    "1309": "Complete the Tombs of Amascut with the \"On a diet\" and \"Dehydration\" invocations activated and without anyone dying.",
    "1310": 5,
    "1311": 5
  }
}