{
  "id": 4410,
  "params": {
    "1312": 52,
    "1306": 438,
    "1307": 3594,
    "1308": "Perfect Crondis",
    "1309": "Complete the Crondis room without letting a crocodile get to the tree, without anyone losing water from their container and in under one minute.",
    "1310": 4,
    "1311": 2
  }
}