{
  "id": 4415,
  "params": {
    "1312": 53,
    "1306": 443,
    "1307": 3594,
    "1308": "Perfection of Scabaras",
    "1309": "Complete 'Perfect Scabaras' and 'Perfect Kephri' in a single run of Tombs of Amascut.",
    "1310": 6,
    "1311": 2
  }
}