{
  "id": 4417,
  "params": {
    "1312": 53,
    "1306": 445,
    "1307": 3594,
    "1308": "Insanity",
    "1309": "Complete 'Perfect Wardens' at expert or above.",
    "1310": 6,
    "1311": 2
  }
}