{
  "id": 4425,
  "params": {
    "1312": 53,
    "1306": 453,
    "1307": 3594,
    "1308": "Ba-Bananza",
    "1309": "Defeat Ba-Ba with all Ba-Ba invocations activated and the path levelled up to at least four, without dying yourself.",
    "1310": 5,
    "1311": 4
  }
}