{
  "id": 4427,
  "params": {
    "1312": 53,
    "1306": 455,
    "1307": 3594,
    "1308": "Rockin' around the croc",
    "1309": "Defeat Zebak with all Zebak invocations activated and the path levelled up to at least four, without dying yourself.",
    "1310": 5,
    "1311": 4
  }
}