{
  "id": 444,
  "params": {
    "1297": 4590,
    "1298": 4614,
    "1346": 442,
    "1159": 27,
    "1160": "Arterial Spray",
    "1161": 12,
    "1162": 10,
    "1262": "The radius and healing of Zebak's blood magic will be increased."
  }
}