{
  "id": 4485,
  "params": {
    "1312": 41,
    "1306": 480,
    "1307": 3594,
    "1308": "Phantom Muspah Master",
    "1309": "Kill the Phantom Muspah 50 times.",
    "1310": 5,
    "1311": 3
  }
}