{
  "id": 449,
  "params": {
    "1297": 4588,
    "1298": 4612,
    "1159": 31,
    "1160": "Keep Back",
    "1161": 10,
    "1162": 10,
    "1262": "Akkha's ranged and magic attacks will also do melee damage to anyone next to him."
  }
}