{
  "id": 450,
  "params": {
    "672": 6,
    "673": 25,
    "675": 27,
    "676": 1752,
    "677": 77,
    "678": 1832,
    "679": 451,
    "681": 1,
    "659": 1,
    "660": "Varrock",
    "661": 33354,
    "662": 33372,
    "663": 33390,
    "664": 563,
    "665": 554,
    "666": 556,
    "668": 1000,
    "669": 1000,
    "670": 3000
  }
}