{
  "id": 4503,
  "params": {
    "1088": "Master volume,sound volume,audio volume",
    "1077": 319,
    "1157": 1,
    "1078": 1,
    "1101": 21,
    "1085": 1,
    "1086": "Master volume",
    "1102": 5
  }
}