{
  "id": 4505,
  "params": {
    "1088": "clear tracked loot loottracker loot tracker",
    "1077": 342,
    "1157": 1,
    "1093": 2,
    "1078": 6,
    "1100": 44,
    "1086": "Clear all tracked loot"
  }
}