{
  "id": 4521,
  "params": {
    "1088": "ground,items,item,objects,object,overlay,loot,drop,drops,reward,rewards,stack,stacks,pile,piles,colour,color,tier,tiers,custom,customise,customised,customisation",
    "1090": 5,
    "1077": 327,
    "1157": 1,
    "1078": 9,
    "1096": "The colour that custom highlighted items, as determined by your list of highlights, will be displayed as.",
    "1080": 4968,
    "1085": 1,
    "1230": 11141375,
    "1086": "Ground Items Overlay - Custom highlight colour"
  }
}