{
  "id": 4524,
  "params": {
    "1088": "ground,items,item,objects,object,overlay,loot,drop,drops,reward,rewards,value,values,stack,stacks,pile,piles,price,cost,coin,coins,gp,gold,time,timer,despawn,disappear,vanish,remain,remaining",
    "1090": 5,
    "740": 1,
    "1077": 335,
    "1157": 1,
    "1078": 0,
    "1096": "When enabled, your ground items overlay will display the time remaining until a given item will despawn.",
    "1080": 4968,
    "1085": 1,
    "1086": "Ground Items Overlay - Time until items despawn"
  }
}