{
  "id": 4529,
  "params": {
    "1088": "ground,items,item,objects,object,overlay,loot,drop,drops,reward,rewards,value,values,stack,stacks,pile,piles,price,cost,coin,coins,gp,gold,time,timer,edit,editing,adjust,adjusting,filter,filtering,highlight,highlighting,time,timer,visible,visibility,other,others,player,players,despawn,disappear,vanish,remain,remaining",
    "1090": 5,
    "1091": 4973,
    "739": 1,
    "1077": 340,
    "1157": 1,
    "1078": 2,
    "1096": "When any information on the ground items overlay is set to show with key held, pressing this key will show such information.",
    "1080": 4968,
    "1085": 1,
    "1086": "Ground Items Overlay - Modifier key"
  }
}