{
  "id": 4532,
  "params": {
    "1088": "ground,items,item,objects,object,overlay,loot,drop,drops,reward,rewardsstack,stacks,pile,piles,price",
    "1090": 5,
    "1077": 346,
    "1157": 1,
    "1078": 0,
    "1096": "When enabled, items on the ground will have their price displayed next to the name of the item.",
    "1080": 4968,
    "1084": 1,
    "1085": 1,
    "1086": "Ground Items - Show price"
  }
}