{
  "id": 454,
  "params": {
    "672": 6,
    "673": 45,
    "675": 37,
    "676": 1756,
    "677": 87,
    "678": 1836,
    "679": 455,
    "681": 4,
    "659": 4,
    "660": "Camelot",
    "661": 33358,
    "662": 33376,
    "663": 33394,
    "664": 563,
    "665": 556,
    "668": 1000,
    "669": 5000
  }
}