{
  "id": 4582,
  "params": {
    "1800": "Vardorvis",
    "1801": "Vardorvis",
    "1802": "Vardorvis is an undead vampyre found within the Stranglewood. He's incredibly nimble, and utilises the environment to his advantage. Be quick to react."
  }
}