{
  "id": 4587,
  "params": {
    "1313": "Vardorvis",
    "1314": 784,
    "1315": 57,
    "1317": 18500954,
    "1319": "Vardorvis is a boss found within the Stranglewood, south west of Mount Quidamortem.<br><br>Attack Styles - Melee, Special<br>Immunities - Poison, Venom<br>Slayer Categories - None",
    "1320": "Mandatory requirements:<br> - Desert Treasure II - The Fallen Empire",
    "1322": 49298,
    "1323": 10337,
    "1324": 0,
    "1325": 114,
    "1326": 0,
    "1327": 57,
    "1328": 0,
    "1329": 1200
  }
}