{
  "id": 463,
  "params": {
    "672": 6,
    "673": 48,
    "674": 1,
    "675": 360,
    "676": 1761,
    "677": 410,
    "678": 1841,
    "681": 14,
    "659": 11,
    "660": "Kourend Castle",
    "661": 33367,
    "662": 33385,
    "663": 33403,
    "664": 563,
    "665": 554,
    "666": 555,
    "668": 2000,
    "669": 1000,
    "670": 1000
  }
}