{
  "id": 464,
  "params": {
    "672": 6,
    "673": 72,
    "674": 1,
    "675": 545,
    "676": 1982,
    "677": 595,
    "678": 2032,
    "681": 11,
    "659": 12,
    "660": "Waterbirth Island",
    "661": 33368,
    "662": 33386,
    "663": 33404,
    "664": 563,
    "665": 9075,
    "666": 555,
    "668": 1000,
    "669": 2000,
    "670": 1000
  }
}