{
  "id": 4684,
  "params": {
    "1088": "death,empty,grave,rune,pouch",
    "1096": "When enabled, if you die with a bolt pouch, its contents will be emptied into your grave, even if the pouch itself is not lost. The pouch is always emptied if it is destroyed, or if the death is in PvP, regardless of this option.",
    "1077": 356,
    "1085": 1,
    "1078": 0,
    "1086": "Always empty bolt pouches on death"
  }
}