{
  "id": 470,
  "params": {
    "672": 6,
    "673": 84,
    "674": 1,
    "675": 346,
    "676": 1913,
    "677": 396,
    "678": 1944,
    "681": 18,
    "659": 18,
    "660": "Carrallanger",
    "661": 33425,
    "662": 33428,
    "663": 33431,
    "664": 563,
    "665": 566,
    "668": 2000,
    "669": 2000
  }
}