{
  "id": 4718,
  "params": {
    "880": "- You are able to get a Slayer Task and cancel a Slayer Task by speaking to a Slayer Master or checking your Slayer status via your Slayer Gem, Helmet, or Ring.<br><br>- Superior Slayer creatures have a 1/25 chance to appear.<br><br>- Superior Slayer creatures will give Slayer points when killed, based on their Slayer level and difficulty.<br><br>- Superior Slayer creatures now have double the number of rolls on the lesser creature's drop table. This does not double the amount of rolls on the Superior Slayer Creature's unique drop table.<br><br>- There is a 25% chance a superior monster will appear as a 'Bloodthirsty' version, with boosted offensive stats. This monster will triple the number of rolls on the lesser creature's non-unique drop table, plus a roll on its own unique drop table. They will also drop guaranteed Clue Scrolls if it is on the superior's drop table.<br><br>- Expeditious and Slaughter Bracelets will no longer consume charges and have a 35% chance to trigger, up from 25%.",
    "881": 5319,
    "882": 5428,
    "883": 5346,
    "884": 5292,
    "885": 4,
    "1274": 4702,
    "1853": 5373,
    "1854": 5401,
    "879": "Bloodthirsty"
  }
}