{
  "id": 4719,
  "params": {
    "880": "- You will receive the item: Banker's Note.<br><br>- This item will allow you to note and unnote items anywhere in Gielinor.<br><br>- You can manually use items on the Banker's Note to un-note or note them all, much like a Bank. Using the Banker's Note on the item will not work.<br><br>- The 'Activate' option allows you to note and un-note items in one action with a specified quantity. An object must first be used on the Banker's Note in order for this to work.<br><br>- You can customise how many items the Banker's note will note and un-note using the quantity options.<br><br>- If lost, you can reclaim the Banker's Note from the Sage near Lumbridge.<br><br>- As this Relic gives you an item it must be unlocked at a Bank.",
    "881": 5322,
    "882": 5431,
    "883": 5349,
    "884": 5295,
    "885": 2,
    "1274": 4703,
    "1853": 5376,
    "1854": 5404,
    "879": "Banker's Note",
    "1855": 1
  }
}