{
  "id": 4826,
  "params": {
    "1016": 1,
    "873": 596,
    "1017": 0,
    "874": "Chop Some Logs With a Steel Axe",
    "1850": 1,
    "1018": 18,
    "875": "Chop any kind of logs using a Steel Axe.",
    "1851": 1,
    "1852": 1
  }
}