{
  "id": 4830,
  "params": {
    "1016": 1,
    "873": 693,
    "1017": 0,
    "874": "Catch a Lucky Impling Bare-Handed",
    "1850": 4,
    "1018": 23,
    "875": "Catch a Lucky Impling bare-handed.",
    "1851": 4,
    "1852": 4
  }
}