{
  "id": 4832,
  "params": {
    "1016": 1,
    "873": 747,
    "1017": 1,
    "874": "Dismantle 20 Filled Bird Houses",
    "1850": 2,
    "1018": 23,
    "875": "Dismantle 20 filled Bird Houses on Fossil Island.",
    "1851": 2,
    "1852": 2
  }
}