{
  "id": 4849,
  "params": {
    "1016": 2,
    "873": 796,
    "1017": 1,
    "874": "Defeat the Abyssal Sire 300 Times",
    "1850": 4,
    "1018": 20,
    "875": "Defeat the Abyssal Sire in the Abyssal Nexus 300 times.",
    "1851": 4,
    "1852": 4
  }
}