{
  "id": 4852,
  "params": {
    "1016": 1,
    "873": 827,
    "1017": 7,
    "874": "Check a grown Crystal Tree",
    "1850": 3,
    "1018": 21,
    "875": "Check the health of a Crystal Tree you've grown in Prifddinas.",
    "1851": 3,
    "1852": 3
  }
}