{
  "id": 4855,
  "params": {
    "1016": 2,
    "873": 853,
    "1017": 7,
    "874": "Equip a Dark Bow in Tirannwn",
    "1850": 3,
    "1018": 3,
    "875": "Equip a Dark Bow in Tirannwn.",
    "1851": 3,
    "1852": 3
  }
}