{
  "id": 4858,
  "params": {
    "1016": 2,
    "873": 857,
    "1017": 7,
    "874": "Defeat Zulrah in 0:42",
    "1850": 5,
    "1018": 0,
    "875": "Defeat Zulrah at the Poison Waste in 0:42 or less.",
    "1851": 5
  }
}