{
  "id": 4868,
  "params": {
    "1016": 2,
    "873": 870,
    "1017": 7,
    "874": "Defeat Zulrah 50 Times",
    "1850": 4,
    "1018": 0,
    "875": "Defeat Zulrah at the Poison Waste 50 times.",
    "1851": 4,
    "1852": 3
  }
}