{
  "id": 4871,
  "params": {
    "1016": 1,
    "873": 892,
    "1017": 8,
    "874": "Complete the Rellekka Agility Course",
    "1850": 3,
    "1018": 8,
    "875": "Complete a lap of the Rellekka Rooftop Agility Course.",
    "1851": 3,
    "1852": 3
  }
}