{
  "id": 4873,
  "params": {
    "1016": 2,
    "873": 904,
    "1017": 8,
    "874": "Equip Every Draconic Shield",
    "1850": 5,
    "1018": 0,
    "875": "Equip a Dragonfire Ward, a Dragonfire Shield and an Ancient Wyvern Shield.",
    "1851": 5,
    "1852": 5
  }
}