{
  "id": 4878,
  "params": {
    "1016": 2,
    "873": 928,
    "1017": 8,
    "874": "Defeat Vorkath 50 Times",
    "1850": 4,
    "1018": 0,
    "875": "Defeat Vorkath on Ungael 50 times.",
    "1851": 4,
    "1852": 3
  }
}