{
  "id": 4883,
  "params": {
    "1016": 2,
    "873": 936,
    "1017": 0,
    "874": "Equip a Leaf-Bladed Sword",
    "1850": 2,
    "1018": 0,
    "875": "Equip a Leaf-Bladed Sword.",
    "1851": 2,
    "1852": 2
  }
}