{
  "id": 4943,
  "params": {
    "1016": 5,
    "873": 1555,
    "1017": 2,
    "874": "Complete Tzhaar-Ket-Raks third challenge",
    "1018": 0,
    "875": "Complete Tzhaar-Ket-Raks third challenge.",
    "1852": 4
  }
}