{
  "id": 4945,
  "params": {
    "1016": 5,
    "873": 1557,
    "1017": 2,
    "874": "Complete Tzhaar-Ket-Raks fifth challenge",
    "1018": 0,
    "875": "Complete Tzhaar-Ket-Raks fifth challenge.",
    "1852": 4
  }
}