{
  "id": 4949,
  "params": {
    "1016": 5,
    "873": 1561,
    "1017": 0,
    "874": "Complete a Mahogany homes adept contract",
    "1018": 22,
    "875": "Complete a Mahogany homes adept contract.",
    "1852": 2
  }
}