{
  "id": 4957,
  "params": {
    "1016": 5,
    "873": 1569,
    "1017": 6,
    "874": "Giants' Foundry 150 quality sword",
    "1018": 14,
    "875": "Hand in a sword with at least 150 quality in Giants' Foundry.",
    "1852": 3
  }
}