{
  "id": 4995,
  "params": {
    "1016": 5,
    "873": 1607,
    "1017": 3,
    "874": "Equip Amy's Saw",
    "1018": 22,
    "875": "Obtain and Equip Amy's Saw from Mahogany Homes.",
    "1852": 2
  }
}