{
  "id": 5061,
  "params": {
    "1016": 1,
    "873": 1673,
    "1017": 1,
    "874": "Chop a log from a potato tree",
    "1018": 18,
    "875": "Chop a log from a tree that is curiously in a potato field.",
    "1852": 1
  }
}