{
  "id": 5121,
  "params": {
    "1016": 1,
    "873": 1733,
    "1017": 0,
    "874": "Smith 10 Steel bolts (unf)",
    "1018": 14,
    "875": "Use an Anvil to smith 10 Steel bolts (unf).",
    "1852": 2
  }
}