{
  "id": 5125,
  "params": {
    "1016": 1,
    "873": 1737,
    "1017": 7,
    "874": "Mine 200 Runite Ore in Tirannwn",
    "1018": 13,
    "875": "Mine 200 Runite Ore in Tirannwn.",
    "1852": 4
  }
}