{
  "id": 5136,
  "params": {
    "1016": 1,
    "873": 1748,
    "1017": 0,
    "874": "Obtain a Magic seed from a birds nest",
    "1018": 0,
    "875": "Obtain a Magic seed from a birds nest.",
    "1852": 3
  }
}