{
  "id": 5144,
  "params": {
    "1016": 2,
    "873": 1027,
    "1017": 4,
    "874": "Receive a Slayer Task From Nieve/Steve",
    "1850": 1,
    "1018": 20,
    "875": "Receive a Slayer Task from Nieve/Steve in the Tree Gnome Stronghold.",
    "1851": 2,
    "1852": 1
  }
}