{
  "id": 5156,
  "params": {
    "1016": 2,
    "873": 1135,
    "1017": 3,
    "874": "Defeat the Giant Mole 50 Times",
    "1850": 4,
    "1018": 0,
    "875": "Defeat the Giant Mole beneath Falador 50 times.",
    "1851": 4,
    "1852": 2
  }
}