{
  "id": 5163,
  "params": {
    "1016": 5,
    "873": 1155,
    "1017": 6,
    "874": "Room 2 of Pyramid Plunder",
    "1850": 1,
    "1018": 10,
    "875": "Search the Golden Chest in Room 2 of Pyramid Plunder in Sophanem.",
    "1851": 1,
    "1852": 1
  }
}