{
  "id": 5171,
  "params": {
    "1016": 5,
    "873": 1163,
    "1017": 6,
    "874": "Room 8 of Pyramid Plunder 75 Times",
    "1850": 4,
    "1018": 10,
    "875": "Search the Golden Chest in Room 8 of Pyramid Plunder in Sophanem 75 times.",
    "1851": 4,
    "1852": 4
  }
}