{
  "id": 5173,
  "params": {
    "1016": 5,
    "873": 1170,
    "1017": 6,
    "874": "Turn in 10 Spring Sq'irkjuices to Osman",
    "1850": 2,
    "1018": 10,
    "875": "Turn in 10 Spring Sq'irkjuices to Osman in Al Kharid in one go.",
    "1851": 2,
    "1852": 2
  }
}