{
  "id": 5174,
  "params": {
    "1016": 5,
    "873": 1171,
    "1017": 6,
    "874": "Turn in 25 Autumn Sq'irkjuices to Osman",
    "1850": 3,
    "1018": 10,
    "875": "Turn in 25 Autumn Sq'irkjuices to Osman in Al Kharid in one go.",
    "1851": 3,
    "1852": 3
  }
}