{
  "id": 5181,
  "params": {
    "1016": 6,
    "873": 1215,
    "1017": 6,
    "874": "Have Zahur Make 1,000 Unfinished Potions",
    "1850": 3,
    "1018": 0,
    "875": "Have Zahur make 1,000 Unfinished Potions.",
    "1851": 3,
    "1852": 3
  }
}