{
  "id": 5189,
  "params": {
    "1016": 1,
    "873": 1232,
    "1017": 5,
    "874": "Complete the Canifis Agility Course",
    "1850": 2,
    "1018": 8,
    "875": "Complete a lap of the Canifis Rooftop Agility Course.",
    "1851": 2,
    "1852": 2
  }
}