{
  "id": 5190,
  "params": {
    "1016": 2,
    "873": 1234,
    "1017": 11,
    "874": "Equip Viggora's Chainmace",
    "1850": 4,
    "1018": 1,
    "875": "Equip Viggora's Chainmace.",
    "1851": 4,
    "1852": 4
  }
}