{
  "id": 5196,
  "params": {
    "1016": 2,
    "873": 1274,
    "1017": 5,
    "874": "Complete the Theatre of Blood 150 Times",
    "1850": 4,
    "1018": 0,
    "875": "Complete the Theatre of Blood on Normal or Hard Mode 150 times.",
    "1851": 4,
    "1852": 4
  }
}