{
  "id": 5231,
  "params": {
    "1016": 1,
    "873": 1425,
    "1017": 6,
    "874": "50 Tempoross Kills",
    "1018": 15,
    "875": "Help the Spirit Anglers subdue the Tempoross 50 times.",
    "1851": 2,
    "1852": 2
  }
}