{
  "id": 5267,
  "params": {
    "1016": 4,
    "873": 1461,
    "1017": 0,
    "874": "150 Combat Achievements",
    "1018": 0,
    "875": "Complete 150 Combat Achievements",
    "1851": 4,
    "1852": 4
  }
}