{
  "id": 5282,
  "params": {
    "1016": 1,
    "873": 1494,
    "1017": 10,
    "874": "2500 Wintertodt Kills",
    "1018": 17,
    "875": "Help the pyromancers subdue the Wintertodt 300 times."
  }
}