{
  "id": 5283,
  "params": {
    "1016": 2,
    "873": 1496,
    "1017": 5,
    "874": "Complete the Theatre of Blood 750 Times",
    "1018": 0,
    "875": "Complete the Theatre of Blood on Normal or Hard Mode 50 times.",
    "1851": 4
  }
}