{
  "id": 5284,
  "params": {
    "1016": 2,
    "873": 1497,
    "1017": 5,
    "874": "Complete the Theatre of Blood 1000 Times",
    "1018": 0,
    "875": "Complete the Theatre of Blood on Normal or Hard Mode 300 times."
  }
}