{
  "id": 5319,
  "params": {
    "1016": 1,
    "873": 59,
    "1849": 5,
    "1017": 0,
    "874": "50 Million Ranged XP",
    "1018": 3,
    "875": "Obtain 50 million experience in your Ranged skill."
  }
}