{
  "id": 5321,
  "params": {
    "1016": 1,
    "873": 61,
    "1849": 5,
    "1017": 0,
    "874": "200 Million Ranged XP",
    "1018": 3,
    "875": "Obtain 200 million experience in your Ranged skill."
  }
}