{
  "id": 5328,
  "params": {
    "1016": 1,
    "873": 70,
    "1849": 5,
    "1017": 0,
    "874": "200 Million Prayer XP",
    "1018": 7,
    "875": "Obtain 200 million experience in your Prayer skill."
  }
}