{
  "id": 5344,
  "params": {
    "1016": 1,
    "873": 90,
    "1849": 2,
    "1017": 0,
    "874": "Level 40 Construction",
    "1018": 22,
    "875": "Reach level 40 in your Construction skill."
  }
}