{
  "id": 5349,
  "params": {
    "1016": 1,
    "873": 97,
    "1849": 5,
    "1017": 0,
    "874": "200 Million Construction XP",
    "1018": 22,
    "875": "Obtain 200 million experience in your Construction skill."
  }
}