{
  "id": 5369,
  "params": {
    "1016": 1,
    "873": 123,
    "1849": 5,
    "1017": 0,
    "874": "100 Million Herblore XP",
    "1018": 9,
    "875": "Obtain 100 million experience in your Herblore skill."
  }
}