{
  "id": 5384,
  "params": {
    "1016": 1,
    "873": 142,
    "1849": 5,
    "1017": 0,
    "874": "200 Million Crafting XP",
    "1018": 11,
    "875": "Obtain 200 million experience in your Crafting skill."
  }
}