{
  "id": 5390,
  "params": {
    "1016": 1,
    "873": 150,
    "1849": 5,
    "1017": 0,
    "874": "100 Million Fletching XP",
    "1018": 19,
    "875": "Obtain 100 million experience in your Fletching skill."
  }
}