{
  "id": 5424,
  "params": {
    "1016": 1,
    "873": 194,
    "1849": 5,
    "1017": 0,
    "874": "50 Million Fishing XP",
    "1018": 15,
    "875": "Obtain 50 million experience in your Fishing skill."
  }
}