{
  "id": 5431,
  "params": {
    "1016": 2,
    "873": 201,
    "1849": 2,
    "1017": 0,
    "874": "Defeat an Adult Chromatic Dragon",
    "1850": 2,
    "1018": 0,
    "875": "Defeat either an adult Green Dragon, Blue Dragon, Red Dragon or Black Dragon.",
    "1851": 2,
    "1852": 2
  }
}