{
  "id": 5441,
  "params": {
    "1016": 1,
    "873": 214,
    "1849": 5,
    "1017": 0,
    "874": "200 Million Firemaking XP",
    "1018": 17,
    "875": "Obtain 200 million experience in your Firemaking skill."
  }
}