{
  "id": 5447,
  "params": {
    "1016": 1,
    "873": 222,
    "1849": 5,
    "1017": 0,
    "874": "100 Million Woodcutting XP",
    "1018": 18,
    "875": "Obtain 100 million experience in your Woodcutting skill."
  }
}