{
  "id": 5453,
  "params": {
    "1016": 1,
    "873": 230,
    "1849": 5,
    "1017": 0,
    "874": "50 Million Farming XP",
    "1018": 21,
    "875": "Obtain 50 million experience in your Farming skill."
  }
}