{
  "id": 5471,
  "params": {
    "1016": 1,
    "873": 248,
    "1849": 1,
    "1017": 10,
    "874": "Complete 300 Farming Contracts",
    "1018": 21,
    "875": "Complete 300 Farming Contracts for Guildmaster Jane in the Farming Guild.",
    "1851": 2
  }
}