{
  "id": 5475,
  "params": {
    "1016": 1,
    "873": 252,
    "1849": 2,
    "1017": 10,
    "874": "Complete 700 Farming Contracts",
    "1018": 21,
    "875": "Complete 130 Farming Contracts for Guildmaster Jane in the Farming Guild."
  }
}