{
  "id": 5482,
  "params": {
    "1016": 2,
    "873": 261,
    "1849": 4,
    "1017": 0,
    "874": "400 Slayer Tasks",
    "1018": 20,
    "875": "Receive and complete a total of 400 Slayer Tasks."
  }
}