{
  "id": 5512,
  "params": {
    "1016": 2,
    "873": 291,
    "1849": 1,
    "1017": 10,
    "874": "Complete a Temple Spider Task",
    "1018": 20,
    "875": "Receive and complete a Temple Spider Slayer Task."
  }
}