{
  "id": 5524,
  "params": {
    "1016": 2,
    "873": 303,
    "1849": 1,
    "1017": 10,
    "874": "Complete a Wyrm Task",
    "1018": 20,
    "875": "Receive and complete a Wyrm Slayer Task."
  }
}