{
  "id": 5526,
  "params": {
    "1016": 2,
    "873": 305,
    "1849": 2,
    "1017": 0,
    "874": "Complete a Black Demon Task",
    "1018": 20,
    "875": "Receive and complete a Black Demon Slayer Task."
  }
}