{
  "id": 5528,
  "params": {
    "1016": 2,
    "873": 307,
    "1849": 2,
    "1017": 0,
    "874": "Complete a Blue Dragon Task",
    "1018": 20,
    "875": "Receive and complete a Blue Dragon Slayer Task."
  }
}