{
  "id": 5535,
  "params": {
    "1016": 6,
    "873": 317,
    "1849": 2,
    "1017": 0,
    "874": "75 Superior Slayer Encounters",
    "1018": 0,
    "875": "Defeat 75 superior foes while on a Slayer Task.",
    "1851": 2,
    "1852": 2
  }
}