{
  "id": 5555,
  "params": {
    "1016": 2,
    "873": 337,
    "1849": 4,
    "1017": 10,
    "874": "2,000 Sarachnis Kills",
    "1018": 0,
    "875": "Kill Sarachnis in the Forthos Dungeon 2,000 times."
  }
}