{
  "id": 5557,
  "params": {
    "1016": 2,
    "873": 339,
    "1849": 2,
    "1017": 10,
    "874": "1 Skotizo Kill",
    "1018": 0,
    "875": "Kill Skotizo beneath the Catacombs of Kourend.",
    "1851": 3,
    "1852": 3
  }
}