{
  "id": 5572,
  "params": {
    "1016": 2,
    "873": 354,
    "1849": 3,
    "1017": 10,
    "874": "600 Alchemical Hydra Kills",
    "1018": 0,
    "875": "Kill the Alchemical Hydra in Mount Karuulm 300 times."
  }
}