{
  "id": 5587,
  "params": {
    "1016": 5,
    "873": 369,
    "1849": 3,
    "1017": 10,
    "874": "50 Chambers of Xeric Challenge Mode",
    "1018": 0,
    "875": "Complete the Chambers of Xeric Challenge Mode 50 times.",
    "1851": 3,
    "1852": 4
  }
}