{
  "id": 5591,
  "params": {
    "1016": 5,
    "873": 373,
    "1849": 5,
    "1017": 10,
    "874": "400 Chambers of Xeric Challenge Mode",
    "1018": 0,
    "875": "Complete the Chambers of Xeric Challenge Mode 200 times."
  }
}