{
  "id": 5609,
  "params": {
    "1016": 6,
    "873": 392,
    "1849": 5,
    "1017": 10,
    "874": "Equip a Twisted Bow",
    "1018": 0,
    "875": "Obtain and equip a Twisted bow.",
    "1851": 5,
    "1852": 5
  }
}