{
  "id": 5610,
  "params": {
    "1016": 6,
    "873": 393,
    "1849": 5,
    "1017": 10,
    "874": "Equip an Elder Maul",
    "1018": 0,
    "875": "Obtain and equip an Elder maul.",
    "1851": 5,
    "1852": 4
  }
}