{
  "id": 5620,
  "params": {
    "1016": 5,
    "873": 403,
    "1849": 5,
    "1017": 10,
    "874": "50-Minute Chambers of Xeric Challenge Mode Solo",
    "1018": 0,
    "875": "Complete the Chambers of Xeric Challenge Mode in 50 minutes or less, alone.",
    "1851": 5
  }
}