{
  "id": 5635,
  "params": {
    "1016": 6,
    "873": 419,
    "1849": 4,
    "1017": 10,
    "874": "Open 200 Grubby Chests",
    "1018": 0,
    "875": "Open the grubby chest in the Forthos Dungeon 200 times."
  }
}