{
  "id": 5641,
  "params": {
    "1016": 1,
    "873": 425,
    "1849": 2,
    "1017": 10,
    "874": "Steal 100 Artefacts",
    "1018": 10,
    "875": "Steal 100 artefacts for Captain Khaled in Piscarilius.",
    "1851": 2
  }
}