{
  "id": 5657,
  "params": {
    "1016": 6,
    "873": 441,
    "1849": 4,
    "1017": 0,
    "874": "500 Easy Clue Scrolls",
    "1018": 0,
    "875": "Open 500 Reward caskets for completing easy clue scrolls.",
    "1851": 4
  }
}