{
  "id": 5674,
  "params": {
    "1016": 6,
    "873": 458,
    "1849": 3,
    "1017": 0,
    "874": "75 Elite Clue Scrolls",
    "1018": 0,
    "875": "Open 75 Reward caskets for completing elite clue scrolls.",
    "1851": 3,
    "1852": 3
  }
}