{
  "id": 5686,
  "params": {
    "1016": 2,
    "873": 470,
    "1849": 3,
    "1017": 10,
    "874": "1 Mimic Kill",
    "1018": 0,
    "875": "Kill the Mimic as part of a Treasure Trail.",
    "1851": 3,
    "1852": 3
  }
}