{
  "id": 5704,
  "params": {
    "1016": 5,
    "873": 488,
    "1849": 3,
    "1017": 10,
    "874": "Equip the Angler's Outfit",
    "1018": 15,
    "875": "Equip a full set of the Angler's outfit, purchased from Alry on Molch Island.",
    "1851": 3,
    "1852": 3
  }
}