{
  "id": 5713,
  "params": {
    "1016": 1,
    "873": 1752,
    "1017": 2,
    "874": "Cook 20 Karambwans in a row",
    "1018": 16,
    "875": "Cook 20 Karambwans in a row without buring them.",
    "1852": 3
  }
}