{
  "id": 5733,
  "params": {
    "1016": 4,
    "873": 1772,
    "1017": 0,
    "874": "Complete 5 Speed Tasks",
    "1018": 0,
    "875": "Complete 5 Combat Achievement Speed tasks.",
    "1852": 3
  }
}