{
  "id": 5745,
  "params": {
    "1016": 4,
    "1848": 51,
    "873": 1784,
    "1017": 6,
    "874": "Tombs of Amascut Combat Achievements",
    "1018": 0,
    "875": "Complete all of the Combat Achievements for Tombs of Amascut: Entry, Normal and Expert.",
    "1852": 5
  }
}