{
  "id": 5768,
  "params": {
    "1016": 4,
    "873": 1807,
    "1017": 0,
    "874": "15 Collection log slots",
    "1018": 0,
    "875": "Obtain 15 unique collection log slots.",
    "1852": 2
  }
}