{
  "id": 5777,
  "params": {
    "1016": 4,
    "1848": 11,
    "873": 1816,
    "1017": 2,
    "874": "TzHaar-Ket-Rak's Combat Achievements",
    "1018": 0,
    "875": "Complete all of the Combat Achievements for TzHaar-Ket-Rak's Challenges.",
    "1852": 5
  }
}