{
  "id": 5792,
  "params": {
    "1016": 1,
    "873": 1831,
    "1017": 0,
    "874": "Obtain 35 Million Fletching XP",
    "1018": 19,
    "875": "Obtain 35 million experience in your Fletching skill.",
    "1852": 4
  }
}