{
  "id": 5809,
  "params": {
    "1016": 1,
    "873": 1848,
    "1017": 0,
    "874": "Obtain 50 Million Construction XP",
    "1018": 22,
    "875": "Obtain 50 million experience in your Construction skill.",
    "1852": 4
  }
}