{
  "id": 5811,
  "params": {
    "1016": 1,
    "873": 1850,
    "1017": 0,
    "874": "Obtain 50 Million Agility XP",
    "1018": 8,
    "875": "Obtain 50 million experience in your Agility skill.",
    "1852": 4
  }
}