{
  "id": 5813,
  "params": {
    "1016": 1,
    "873": 1852,
    "1017": 0,
    "874": "Obtain 50 Million Thieving XP",
    "1018": 10,
    "875": "Obtain 50 million experience in your Thieving skill.",
    "1852": 4
  }
}