{
  "id": 5840,
  "params": {
    "1016": 5,
    "873": 1879,
    "1017": 2,
    "874": "Complete Tzhaar-Ket-Raks Special challenge",
    "1018": 0,
    "875": "Complete Tzhaar-Ket-Raks league-only challenge.",
    "1852": 5
  }
}