{
  "id": 5841,
  "params": {
    "1016": 1,
    "873": 1880,
    "1017": 1,
    "874": "Complete the Varrock Agility Course",
    "1018": 8,
    "875": "Complete a lap of the Varrock Rooftop Agility Course.",
    "1852": 1
  }
}