{
  "id": 598,
  "params": {
    "1056": 4,
    "1057": 2092,
    "1060": 32,
    "1062": 3,
    "1063": 2015,
    "1064": 1,
    "1065": 2019,
    "1066": 1,
    "1067": 2126,
    "1068": 1,
    "1055": "Drunk dragon"
  }
}