{
  "id": 690,
  "params": {
    "806": 1,
    "807": 0,
    "810": "Getting started with Attack",
    "811": 197,
    "812": "Reach level 5 in the Attack skill.",
    "813": "Ensure your combat style is set to provide Attack XP. The Men, Chickens and Goblins near Lumbridge are suitable targets to fight.",
    "814": "Train your Attack to level 5 by fighting nearby monsters!|Equip your armour and weapon.|Ensure your combat style is set to provide Attack XP.|Take some food to keep your hitpoints high.|The Men, Chickens and Goblins near Lumbridge are suitable targets to fight.|Chickens drop Raw chicken that can be cooked and used as food.|You can bury bones to gain Prayer experience.",
    "815": 0,
    "816": 5,
    "820": 1519,
    "821": 1520,
    "822": 2228,
    "823": "Set your combat style to the correct stance to gain Attack experience.",
    "824": "https://oldschool.runescape.wiki/w/Attack",
    "825": 0,
    "826": 0,
    "827": 693
  }
}