{
  "id": 693,
  "params": {
    "806": 4,
    "807": 0,
    "810": "Getting started with Strength",
    "811": 198,
    "812": "Reach level 5 in the Strength skill.",
    "813": "Ensure your combat style is set to provide Strength XP. The Men, Chickens and Goblins near Lumbridge are suitable targets to fight.",
    "814": "Train your Strength to level 5 by fighting nearby monsters!|Equip your armour and weapon.|Ensure your combat style is set to provide Strength XP.|Take some food to keep your hitpoints high.|The Men, Chickens and Goblins near Lumbridge are suitable targets to fight.|Chickens drop Raw chicken that can be cooked and used as food.|You can bury bones to gain Prayer experience.",
    "815": 2,
    "816": 5,
    "820": 2527,
    "821": 2528,
    "822": 2231,
    "823": "Set your combat style to the correct stance to gain Strength experience.",
    "824": "https://oldschool.runescape.wiki/w/Strength",
    "825": 0,
    "826": 0,
    "827": 696
  }
}