{
  "id": 734,
  "params": {
    "880": "- You gain 10% increased Accuracy and Damage with Melee, Magic and Ranged when fighting creatures.<br>- This boost increases to 30% when fighting creatures which are assigned to you as a slayer task.",
    "881": 2375,
    "883": 2376,
    "884": 2343,
    "885": 3,
    "1274": 3054,
    "879": "Konar's Blessing"
  }
}