{
  "id": 752,
  "params": {
    "1297": 4589,
    "1298": 4613,
    "1159": 35,
    "1160": "Gotta Have Faith",
    "1161": 13,
    "1162": 10,
    "1262": "Ba-Ba's sarcophagus energy will deal bonus damage based on how many prayer points you're missing."
  }
}