{
  "id": 761,
  "params": {
    "1056": 15,
    "1057": 2185,
    "1060": 42,
    "1061": 9546,
    "1062": 2,
    "1063": 1973,
    "1064": 4,
    "1065": 2128,
    "1066": 1,
    "1055": "Chocolate bomb"
  }
}