{
  "id": 809,
  "params": {
    "1312": 61,
    "1306": 502,
    "1307": 3594,
    "1308": "Dark Memories",
    "1309": "Kill the Whisperer whilst spending less than 6 seconds in the pre-enrage shadow realm.",
    "1310": 6,
    "1311": 5
  }
}