{
  "id": 811,
  "params": {
    "1312": 34,
    "1306": 504,
    "1307": 3594,
    "1308": "Leviathan Speed-Chaser",
    "1309": "Kill the Leviathan in less than 1:25 without a slayer task.",
    "1310": 5,
    "1311": 6
  }
}