{
  "id": 844,
  "params": {
    "1088": "quest,quests,quest list,questlist,quest scroll,quest interface,quest panel,quest journal,quest sidepanel,quest side-panel,quest side panel",
    "1078": 5,
    "1086": "Quests"
  }
}