{
  "id": 87,
  "params": {
    "559": "A player trades you some valuable items, provides you a bond, then asks if you want to share your account so he can help you make progress. How do you respond?"
  }
}