{
  "id": 890,
  "params": {
    "1312": 36,
    "1306": 526,
    "1307": 3594,
    "1308": "The Clone Zone",
    "1309": "Defeat the Eclipse moon by only attacking its clones.",
    "1310": 3,
    "1311": 4
  }
}