{
  "id": 926,
  "params": {
    "1312": 36,
    "1306": 535,
    "1307": 3594,
    "1308": "Moons of Peril Speed-Trialist",
    "1309": "Defeat all three Moons in one run in under 8 minutes.",
    "1310": 2,
    "1311": 6
  }
}