{
  "id": 931,
  "params": {
    "1312": 39,
    "1306": 402,
    "1307": 3594,
    "1308": "Phosani's Grandmaster",
    "1309": "Kill Phosani's Nightmare 25 times.",
    "1310": 6,
    "1311": 3
  }
}