{
  "id": 951,
  "params": {
    "1088": "Easy clue scroll warning",
    "1077": 375,
    "1157": 0,
    "1078": 0,
    "1096": "When enabled, you will get a message if you do not receive a clue as a drop because you already own one.",
    "1084": 1,
    "1086": "Easy clue scroll warning"
  }
}