{
  "id": 957,
  "params": {
    "1088": "pot,smash,farming,trees,barbarian",
    "1077": 381,
    "1078": 0,
    "1096": "When enabled, you will automatically destroy empty plant pots when planting tree saplings.",
    "1115": 1,
    "1116": "You must complete the Farming portion of Barbarian Training to access this setting.",
    "1086": "Automatically smash empty plant pots"
  }
}