{
  "id": 968,
  "params": {
    "1088": "tablets,teleports",
    "1078": 8,
    "1086": "The following options control the warning messages for <col=ffffff>teleport tablets</col> that take you to the wilderness. When enabled, you will be shown a warning message when using a teleport tablet to the wilderness.",
    "1118": 1
  }
}