{
  "id": 982,
  "params": {
    "1384": 5063,
    "1371": 78,
    "1372": "Sigil of Onslaught",
    "1373": "Increases the maximum number of targets Chinchompas and multi-target Ancient spells can hit by 2. Black Chinchompa max targets are only increased by 1.",
    "1374": 1,
    "1375": 2
  }
}