{
  "id": 994,
  "params": {
    "1088": "he,him,they,them,she,her",
    "1091": 5500,
    "1077": 387,
    "1078": 2,
    "1096": "Determines the pronouns that will be used when the game refers to the player.",
    "1085": 1,
    "1086": "Pronouns"
  }
}