{
  "id": 998,
  "params": {
    "1313": "Araxxor",
    "1314": 890,
    "1315": 4,
    "1317": 59762263,
    "1319": "Araxxor is a boss found within the Morytania Spider Cave, north east of Darkmeyer.<br><br>Attack Styles - Melee, Ranged, Magic, Special<br>Immunities - Venom<br>Slayer Categories - Araxyte, Spider",
    "1320": "Mandatory requirements:<br> - Priest in Peril<br> - 92 Slayer",
    "1322": 54289,
    "1323": 11473,
    "1324": 0,
    "1325": 200,
    "1326": 144,
    "1327": 153,
    "1328": 0,
    "1329": 2500
  }
}