{
  "tableId": 40,
  "columnId": -1,
  "tupleTypes": [
    "INTEGER"
  ],
  "tupleIndexes": [
    {
      "0": [
        1355,
        2418,
        2419,
        2420,
        2421,
        2422,
        2423,
        2424,
        2425,
        2426,
        2427,
        2428,
        2429,
        2430,
        2431,
        2432,
        2433,
        2434,
        2435,
        2436,
        2437,
        2438,
        2439,
        2440,
        2441,
        2442,
        2443,
        2444,
        2445,
        2446,
        2447,
        2448,
        2449,
        2450,
        2451,
        2452,
        2453,
        2454,
        2455,
        2456,
        2457,
        2458,
        2459,
        2460,
        2461,
        2462,
        2463,
        2464,
        2465,
        2469,
        2470,
        2471,
        2472,
        2473,
        2474,
        2475,
        2476,
        2477,
        2480,
        2481,
        2482,
        2483,
        2484,
        3285,
        3286,
        3287,
        3290,
        3291,
        3292,
        3293,
        3294,
        3295,
        3296,
        3297,
        3298,
        3299,
        3300,
        3301,
        3356,
        3357,
        3433,
        3434,
        3435,
        3439,
        3440,
        3441,
        3442,
        3443,
        3444,
        3538,
        3539,
        3540,
        3541,
        3542,
        3543,
        3546,
        3547,
        3548,
        3549,
        3550,
        3551,
        3552,
        3553,
        3554,
        3555,
        3556,
        3557,
        3558,
        3559,
        3560,
        3561,
        3562,
        3563,
        3564,
        3565,
        3566,
        3567,
        3568,
        3569,
        3570,
        3571,
        3572,
        3573,
        3574,
        3575,
        3609,
        3610,
        3611,
        3750,
        3751,
        3752,
        3753,
        3754,
        3755,
        3756,
        3757,
        3758,
        3759,
        3760,
        3761,
        3772,
        3773,
        3774,
        3775
      ]
    }
  ]
}