{
  "tableId": 65,
  "columnId": -1,
  "tupleTypes": [
    "INTEGER"
  ],
  "tupleIndexes": [
    {
      "0": [
        2359,
        2361,
        2362,
        2364,
        2365,
        2366,
        2367,
        2369,
        2373,
        2383,
        2384,
        2385,
        2386,
        2387,
        2388,
        2389,
        2390,
        2391,
        2392,
        2393
      ]
    }
  ]
}