{
  "tableId": 76,
  "columnId": -1,
  "tupleTypes": [
    "INTEGER"
  ],
  "tupleIndexes": [
    {
      "0": [
        3788,
        3789,
        3790,
        3791,
        3792,
        3793,
        3794,
        3795,
        3796,
        3797,
        3798,
        3799,
        3800,
        3801,
        3802,
        3803,
        3804,
        3805
      ]
    }
  ]
}