{
  "tableId": 10,
  "columnId": -1,
  "tupleTypes": [
    "INTEGER"
  ],
  "tupleIndexes": [
    {
      "0": [
        1901,
        1902,
        1903,
        1904,
        1905,
        1906,
        1907,
        1908,
        1909,
        1910,
        3504
      ]
    }
  ]
}