{
  "tableId": 0,
  "columnId": 7,
  "tupleTypes": [
    "INTEGER"
  ],
  "tupleIndexes": [
    {
      "0": [
        10,
        14,
        17,
        30,
        34,
        38,
        43,
        44,
        52,
        60,
        64,
        71,
        97,
        108,
        109,
        110,
        113,
        131,
        135,
        145,
        151,
        155,
        160,
        161,
        162,
        169,
        3250,
        3450,
        3515
      ],
      "1": [
        1,
        3,
        5,
        6,
        8,
        9,
        11,
        12,
        13,
        16,
        18,
        21,
        23,
        25,
        26,
        28,
        35,
        37,
        39,
        42,
        49,
        51,
        54,
        61,
        65,
        69,
        70,
        73,
        74,
        76,
        79,
        80,
        83,
        86,
        87,
        89,
        92,
        93,
        94,
        101,
        103,
        105,
        106,
        111,
        112,
        114,
        118,
        120,
        121,
        122,
        125,
        126,
        127,
        128,
        130,
        132,
        138,
        139,
        143,
        150,
        152,
        153,
        158,
        159,
        163,
        164,
        166,
        167,
        180,
        2307,
        2308,
        2309,
        2311,
        2316,
        3512,
        3513,
        3712,
        3713
      ],
      "2": [
        0,
        4,
        7,
        15,
        19,
        20,
        24,
        29,
        31,
        33,
        36,
        40,
        41,
        45,
        46,
        47,
        48,
        50,
        55,
        56,
        57,
        59,
        62,
        63,
        66,
        67,
        68,
        72,
        75,
        77,
        78,
        82,
        84,
        90,
        91,
        98,
        99,
        102,
        104,
        115,
        116,
        123,
        124,
        129,
        133,
        136,
        140,
        141,
        142,
        144,
        146,
        147,
        148,
        149,
        156,
        157,
        165,
        168,
        2306,
        2310,
        2312,
        2313,
        2314,
        2338,
        3425,
        3451,
        3466,
        3514,
        3710,
        3711
      ],
      "3": [
        22,
        27,
        53,
        58,
        81,
        85,
        88,
        95,
        100,
        107,
        119,
        134,
        154,
        2315
      ],
      "4": [
        32,
        96,
        117,
        137,
        2343,
        3467
      ]
    }
  ]
}