{
  "tableId": 14,
  "columnId": -1,
  "tupleTypes": [
    "INTEGER"
  ],
  "tupleIndexes": [
    {
      "0": [
        1811,
        1812,
        1813,
        1814,
        1815,
        1816,
        1817,
        1818,
        1819,
        1820,
        1821,
        1822,
        1823,
        1824,
        1825,
        1826,
        1827,
        1828,
        1829,
        1830,
        1831,
        1832,
        1833,
        1834,
        1835,
        1836,
        1837,
        1838,
        1839,
        1840,
        1841,
        1842,
        1843,
        1844,
        1845,
        1846,
        1847,
        1848,
        1849,
        1850,
        1851,
        1852,
        1853,
        1854,
        1855,
        1856,
        1857,
        1858,
        1859,
        1860,
        1861,
        1862,
        1863,
        1864,
        1865,
        1866,
        1867,
        1868,
        3502
      ]
    }
  ]
}