{
  "id": 5,
  "types": [
    [
      "INTEGER"
    ],
    [
      "INTEGER"
    ],
    [
      "DBROW"
    ],
    [
      "DBROW"
    ],
    [
      "INTEGER"
    ],
    [
      "BOOLEAN"
    ]
  ],
  "defaultColumnValues": [
    null,
    null,
    null,
    null,
    null,
    [
      1
    ]
  ]
}