{
  "id": 61,
  "types": [
    [
      "DBROW"
    ],
    [
      "INTEGER"
    ],
    [
      "INTEGER",
      "INTEGER"
    ],
    [
      "INV",
      "NAMEDOBJ",
      "INTEGER"
    ],
    [
      "DBROW"
    ],
    [
      "STAT",
      "INTEGER"
    ],
    [
      "INTEGER"
    ],
    [
      "INTEGER"
    ]
  ],
  "defaultColumnValues": [
    null,
    [
      0
    ],
    [
      0,
      0
    ],
    null,
    null,
    null,
    [
      1
    ],
    [
      -1
    ]
  ]
}