{
  "id": 65,
  "types": [
    [
      "STRING"
    ],
    [
      "IDKIT"
    ],
    [
      "IDKIT"
    ],
    [
      "MODEL"
    ],
    [
      "MODEL"
    ],
    [
      "MODEL"
    ],
    [
      "MODEL"
    ]
  ],
  "defaultColumnValues": [
    null,
    null,
    null,
    [
      28515
    ],
    null,
    [
      18554
    ],
    null
  ]
}