{
  "id": 68,
  "types": [
    [
      "STRING"
    ],
    [
      "IDKIT"
    ],
    [
      "IDKIT"
    ],
    [
      "MODEL"
    ],
    [
      "MODEL"
    ]
  ],
  "defaultColumnValues": [
    null,
    null,
    null,
    [
      43879
    ],
    [
      43877
    ]
  ]
}