{
  "id": 25624696,
  "isIf3": false,
  "type": 3,
  "contentType": 0,
  "originalX": 73,
  "originalY": 33,
  "originalWidth": 9,
  "originalHeight": 4,
  "widthMode": 0,
  "heightMode": 0,
  "xPositionMode": 0,
  "yPositionMode": 0,
  "parentId": 25624715,
  "isHidden": false,
  "scrollWidth": 0,
  "scrollHeight": 0,
  "noClickThrough": false,
  "spriteId": -1,
  "textureId": 0,
  "spriteTiling": false,
  "opacity": 0,
  "borderType": 0,
  "shadowColor": 0,
  "flippedVertically": false,
  "flippedHorizontally": false,
  "modelType": 1,
  "modelId": -1,
  "offsetX2d": 0,
  "offsetY2d": 0,
  "rotationX": 0,
  "rotationY": 0,
  "rotationZ": 0,
  "modelZoom": 100,
  "animation": -1,
  "orthogonal": false,
  "modelHeightOverride": 0,
  "fontId": -1,
  "text": "",
  "lineHeight": 0,
  "xTextAlignment": 0,
  "yTextAlignment": 0,
  "textShadowed": false,
  "textColor": 0,
  "filled": true,
  "lineWidth": 1,
  "lineDirection": false,
  "clickMask": 0,
  "name": "",
  "dragDeadZone": 0,
  "dragDeadTime": 0,
  "dragRenderBehavior": false,
  "targetVerb": "",
  "hasListener": false,
  "menuType": 0,
  "hoveredSiblingId": -1,
  "alternateOperators": [
    3
  ],
  "alternateRhs": [
    2
  ],
  "clientScripts": [
    [
      {
        "opcode": "VARBIT",
        "operands": [
          2131
        ]
      },
      {
        "opcode": "RETURN",
        "operands": []
      }
    ]
  ],
  "xPitch": 0,
  "yPitch": 0,
  "alternateText": "",
  "alternateTextColor": 10262901,
  "hoveredTextColor": 0,
  "alternateHoveredTextColor": 0,
  "alternateSpriteId": -1,
  "alternateModelId": -1,
  "alternateAnimation": -1,
  "spellName": "",
  "tooltip": "Ok"
}