{
  "id": 1026,
  "intVals": [
    12883,
    4732,
    4736,
    4738,
    4734
  ],
  "keyType": "INTEGER",
  "valType": "NAMEDOBJ",
  "defaultString": "null",
  "defaultInt": -1,
  "size": 5,
  "keys": [
    -1,
    0,
    1,
    2,
    3
  ]
}