{
  "id": 1028,
  "intVals": [
    12875,
    4753,
    4757,
    4759,
    4755
  ],
  "keyType": "INTEGER",
  "valType": "NAMEDOBJ",
  "defaultString": "null",
  "defaultInt": -1,
  "size": 5,
  "keys": [
    -1,
    0,
    1,
    2,
    3
  ]
}