{
  "id": 1041,
  "intVals": [
    12972,
    1153,
    1115,
    1067,
    1191
  ],
  "keyType": "INTEGER",
  "valType": "NAMEDOBJ",
  "defaultString": "null",
  "defaultInt": -1,
  "size": 5,
  "keys": [
    -1,
    0,
    1,
    2,
    3
  ]
}