{
  "id": 1064,
  "intVals": [
    13018,
    2605,
    2599,
    3474,
    2603
  ],
  "keyType": "INTEGER",
  "valType": "NAMEDOBJ",
  "defaultString": "null",
  "defaultInt": -1,
  "size": 5,
  "keys": [
    -1,
    0,
    1,
    2,
    3
  ]
}