{
  "id": 1069,
  "intVals": [
    13028,
    2627,
    2623,
    2625,
    2629
  ],
  "keyType": "INTEGER",
  "valType": "NAMEDOBJ",
  "defaultString": "null",
  "defaultInt": -1,
  "size": 5,
  "keys": [
    -1,
    0,
    1,
    2,
    3
  ]
}