{
  "id": 1083,
  "intVals": [
    13056,
    12486,
    12480,
    12482,
    12488
  ],
  "keyType": "INTEGER",
  "valType": "NAMEDOBJ",
  "defaultString": "null",
  "defaultInt": -1,
  "size": 5,
  "keys": [
    -1,
    0,
    1,
    2,
    3
  ]
}