{
  "id": 1105,
  "intVals": [
    13149,
    3827,
    3828,
    3829,
    3830
  ],
  "keyType": "INTEGER",
  "valType": "NAMEDOBJ",
  "defaultString": "null",
  "defaultInt": -1,
  "size": 5,
  "keys": [
    -1,
    0,
    1,
    2,
    3
  ]
}