{
  "id": 1107,
  "intVals": [
    13153,
    3835,
    3836,
    3837,
    3838
  ],
  "keyType": "INTEGER",
  "valType": "NAMEDOBJ",
  "defaultString": "null",
  "defaultInt": -1,
  "size": 5,
  "keys": [
    -1,
    0,
    1,
    2,
    3
  ]
}