{
  "id": 1108,
  "intVals": [
    13155,
    12613,
    12614,
    12615,
    12616
  ],
  "keyType": "INTEGER",
  "valType": "NAMEDOBJ",
  "defaultString": "null",
  "defaultInt": -1,
  "size": 5,
  "keys": [
    -1,
    0,
    1,
    2,
    3
  ]
}