{
  "id": 1130,
  "intVals": [
    10551392,
    10551312,
    10551313,
    10551297,
    10551304,
    10551370,
    10551372,
    10551373,
    10551374,
    10551375,
    10551376,
    10551377,
    10551378,
    10551379,
    10551380,
    10551381,
    10551382,
    10551383,
    10551384,
    10551385,
    10551386,
    10551299,
    10551389,
    10551329,
    10551305,
    10551306,
    10551314,
    10551302,
    10551301,
    10551309,
    10551298,
    10551333,
    10551300,
    10551307,
    10551308,
    10551332,
    10551388,
    10551390,
    10551310,
    10551303,
    10551311,
    10551326,
    10551391,
    10551327,
    10551316,
    10551317,
    10551315,
    10551371,
    10551334,
    10551354,
    10551338,
    10551355,
    10551356,
    10551357,
    10551358,
    10551359,
    10551360,
    10551361,
    10551339,
    10551340,
    10551341,
    10551342,
    10551343,
    10551344,
    10551345,
    10551362,
    10551363,
    10551364,
    10551365,
    10551366,
    10551367,
    10551368,
    10551346,
    10551347,
    10551348,
    10551349,
    10551350,
    10551351,
    10551352,
    10551330,
    10551331
  ],
  "keyType": "COMPONENT",
  "valType": "COMPONENT",
  "defaultString": "null",
  "defaultInt": -1,
  "size": 81,
  "keys": [
    10551392,
    10551312,
    10551313,
    10551297,
    10551304,
    10551370,
    10551372,
    10551373,
    10551374,
    10551375,
    10551376,
    10551377,
    10551378,
    10551379,
    10551380,
    10551381,
    10551382,
    10551383,
    10551384,
    10551385,
    10551386,
    10551299,
    10551389,
    10551329,
    10551305,
    10551306,
    10551314,
    10551302,
    10551301,
    10551309,
    10551298,
    10551333,
    10551300,
    10551307,
    10551308,
    10551332,
    10551388,
    10551390,
    10551310,
    10551303,
    10551311,
    10551326,
    10551391,
    10551327,
    10551316,
    10551317,
    10551315,
    10551371,
    10551334,
    10551354,
    10551338,
    10551355,
    10551356,
    10551357,
    10551358,
    10551359,
    10551360,
    10551361,
    10551339,
    10551340,
    10551341,
    10551342,
    10551343,
    10551344,
    10551345,
    10551362,
    10551363,
    10551364,
    10551365,
    10551366,
    10551367,
    10551368,
    10551346,
    10551347,
    10551348,
    10551349,
    10551350,
    10551351,
    10551352,
    10551330,
    10551331
  ]
}