{
  "id": 1133,
  "intVals": [
    1026,
    1030,
    1030,
    1030,
    1030,
    1030,
    1027,
    1028,
    1030,
    1030,
    1030,
    1030,
    1030,
    1029,
    1026,
    1030,
    1030,
    1030,
    1030,
    1030,
    1027,
    1028,
    1030,
    1030,
    1030,
    1030,
    1030,
    1029,
    1181,
    1181,
    1181,
    1181,
    1181,
    1181,
    1181,
    1181,
    1181,
    1181,
    542,
    1181,
    1181,
    1181,
    1727,
    1727,
    1727,
    1727,
    1727,
    1727,
    1727,
    1727,
    1727,
    1727,
    1727,
    1727,
    1727,
    1727
  ],
  "keyType": "COMPONENT",
  "valType": "GRAPHIC",
  "defaultString": "null",
  "defaultInt": -1,
  "size": 56,
  "keys": [
    35913791,
    35913792,
    35913793,
    35913794,
    35913795,
    35913796,
    35913797,
    35913775,
    35913776,
    35913777,
    35913778,
    35913779,
    35913780,
    35913781,
    10551355,
    10551356,
    10551357,
    10551358,
    10551359,
    10551360,
    10551361,
    10551339,
    10551340,
    10551341,
    10551342,
    10551343,
    10551344,
    10551345,
    10747956,
    10747957,
    10747958,
    10747959,
    10747960,
    10747961,
    10747962,
    10747942,
    10747943,
    10747944,
    10747938,
    10747945,
    10747946,
    10747947,
    39387185,
    39387203,
    39387204,
    39387201,
    39387202,
    39387186,
    39387187,
    39387189,
    39387190,
    39387191,
    39387207,
    39387206,
    39387188,
    39387205
  ]
}