{
  "id": 1136,
  "intVals": [
    165,
    165,
    16
  ],
  "keyType": "ENUM",
  "valType": "INTEGER",
  "defaultString": "null",
  "defaultInt": 0,
  "size": 3,
  "keys": [
    1130,
    1131,
    1745
  ]
}