{
  "id": 1140,
  "keyType": "INTEGER",
  "valType": "STRING",
  "defaultString": "Speed",
  "defaultInt": 0,
  "size": 3,
  "keys": [
    0,
    1,
    2
  ],
  "stringVals": [
    "Default",
    "Slower",
    "Faster"
  ]
}