{
  "id": 1238,
  "keyType": "OBJ",
  "valType": "STRING",
  "defaultString": "Crop",
  "defaultInt": 0,
  "size": 83,
  "keys": [
    1942,
    1957,
    1965,
    1982,
    5986,
    5504,
    5982,
    231,
    6010,
    6014,
    6012,
    22932,
    1793,
    225,
    6059,
    249,
    251,
    253,
    255,
    257,
    2998,
    259,
    261,
    263,
    3000,
    265,
    2481,
    267,
    269,
    30097,
    3261,
    229,
    1926,
    6033,
    6032,
    6035,
    6034,
    21483,
    2519,
    2518,
    5994,
    5996,
    5998,
    6000,
    6002,
    6006,
    5931,
    1951,
    753,
    2126,
    247,
    239,
    6018,
    1955,
    1963,
    2108,
    5970,
    2114,
    5972,
    5974,
    22929,
    1521,
    1519,
    1517,
    1515,
    1513,
    2015,
    6004,
    6016,
    3138,
    2398,
    5980,
    1987,
    21504,
    6333,
    6332,
    23044,
    19669,
    22935,
    22938,
    22939,
    22940,
    23962
  ],
  "stringVals": [
    "Potatoes",
    "Onions",
    "Cabbages",
    "Tomatoes",
    "Sweetcorn",
    "Strawberries",
    "Watermelons",
    "Snape grass",
    "Marigolds",
    "Rosemary",
    "Nasturtiums",
    "White lily",
    "Woad",
    "Limpwurt",
    "Scarecrow",
    "Guam leaf",
    "Marrentill",
    "Tarromin",
    "Harralander",
    "Ranarr weed",
    "Toadflax",
    "Irit leaf",
    "Avantoe",
    "Kwuarm",
    "Snapdragon",
    "Cadantine",
    "Lantadyme",
    "Dwarf weed",
    "Torstol",
    "Huasca",
    "Goutweed",
    "Dead herb",
    "Empty bin",
    "Compostable items",
    "Compost",
    "Supercompostable items",
    "Supercompost",
    "Ultracompost",
    "Tomatoes",
    "Rotten tomatoes",
    "Hammerstone hops",
    "Asgarnian hops",
    "Yanillian hops",
    "Krandorian hops",
    "Wildblood hops",
    "Barley",
    "Jute",
    "Redberry bush",
    "Cadavaberry bush",
    "Dwellberry bush",
    "Jangerberry bush",
    "Whiteberry bush",
    "Poison Ivy bush",
    "Apple tree",
    "Banana tree",
    "Orange tree",
    "Curry tree",
    "Pineapple plant",
    "Papaya tree",
    "Palm tree",
    "Dragonfruit tree",
    "Oak tree",
    "Willow tree",
    "Maple tree",
    "Yew tree",
    "Magic tree",
    "Spirit tree",
    "Bittercap mushrooms",
    "Cactus",
    "Potato cactus",
    "Belladonna",
    "Calquat tree",
    "Grapevine",
    "Giant Seaweed",
    "Teak tree",
    "Mahogany tree",
    "Hespori plant",
    "Redwood tree",
    "Celastrus tree",
    "Kronos plant",
    "Iasor plant",
    "Attas plant",
    "Crystal tree"
  ]
}