{
  "id": 1294,
  "keyType": "INTEGER",
  "valType": "STRING",
  "defaultString": "",
  "defaultInt": 0,
  "size": 64,
  "keys": [
    0,
    1,
    2,
    3,
    10,
    11,
    12,
    13,
    20,
    21,
    22,
    23,
    30,
    31,
    32,
    33,
    100,
    101,
    102,
    103,
    110,
    111,
    112,
    113,
    120,
    121,
    122,
    123,
    130,
    131,
    132,
    133,
    200,
    201,
    202,
    203,
    210,
    211,
    212,
    213,
    220,
    221,
    222,
    223,
    230,
    231,
    232,
    233,
    300,
    301,
    302,
    303,
    310,
    311,
    312,
    313,
    320,
    321,
    322,
    323,
    330,
    331,
    332,
    333
  ],
  "stringVals": [
    "A I P",
    "A I S",
    "A I R",
    "A I Q",
    "A L P",
    "A L S",
    "A L R",
    "A L Q",
    "A K P",
    "A K S",
    "A K R",
    "A K Q",
    "A J P",
    "A J S",
    "A J R",
    "A J Q",
    "D I P",
    "D I S",
    "D I R",
    "D I Q",
    "D L P",
    "D L S",
    "D L R",
    "D L Q",
    "D K P",
    "D K S",
    "D K R",
    "D K Q",
    "D J P",
    "D J S",
    "D J R",
    "D J Q",
    "C I P",
    "C I S",
    "C I R",
    "C I Q",
    "C L P",
    "C L S",
    "C L R",
    "C L Q",
    "C K P",
    "C K S",
    "C K R",
    "C K Q",
    "C J P",
    "C J S",
    "C J R",
    "C J Q",
    "B I P",
    "B I S",
    "B I R",
    "B I Q",
    "B L P",
    "B L S",
    "B L R",
    "B L Q",
    "B K P",
    "B K S",
    "B K R",
    "B K Q",
    "B J P",
    "B J S",
    "B J R",
    "B J Q"
  ]
}