{
  "id": 1299,
  "intVals": [
    24969364,
    24969365,
    24969366,
    24969367
  ],
  "keyType": "INTEGER",
  "valType": "COMPONENT",
  "defaultString": "null",
  "defaultInt": -1,
  "size": 4,
  "keys": [
    0,
    1,
    2,
    3
  ]
}