{
  "id": 1375,
  "intVals": [
    1,
    2,
    3,
    4,
    11,
    5,
    31,
    6,
    8,
    7,
    9,
    18,
    14,
    17,
    10,
    12,
    13,
    16,
    15,
    19,
    20,
    21,
    22,
    23,
    24,
    25,
    26,
    27,
    28,
    29,
    30
  ],
  "keyType": "INTEGER",
  "valType": "INTEGER",
  "defaultString": "null",
  "defaultInt": -1,
  "size": 31,
  "keys": [
    1,
    2,
    3,
    4,
    5,
    6,
    7,
    8,
    9,
    10,
    11,
    12,
    13,
    14,
    15,
    16,
    17,
    18,
    19,
    20,
    21,
    22,
    23,
    24,
    25,
    26,
    27,
    28,
    29,
    30,
    31
  ]
}