{
  "id": 1431,
  "intVals": [
    114689,
    114690,
    114691,
    114692,
    114693,
    114694,
    114695,
    114696,
    114697,
    114698,
    114699,
    114700,
    114701,
    114702,
    114703,
    114704,
    114705,
    114706,
    114707,
    114708,
    114709,
    114710,
    114711,
    114712,
    114713,
    114714,
    114715,
    114716,
    114717,
    114718,
    114719
  ],
  "keyType": "INTEGER",
  "valType": "COORDGRID",
  "defaultString": "null",
  "defaultInt": -1,
  "size": 31,
  "keys": [
    1,
    2,
    3,
    4,
    5,
    6,
    7,
    8,
    9,
    10,
    11,
    12,
    13,
    14,
    15,
    16,
    17,
    18,
    19,
    20,
    21,
    22,
    23,
    24,
    25,
    26,
    27,
    28,
    29,
    30,
    31
  ]
}