{
  "id": 150,
  "intVals": [
    518,
    519,
    520,
    521,
    522,
    523,
    539,
    540
  ],
  "keyType": "INTEGER",
  "valType": "INV",
  "defaultString": "null",
  "defaultInt": -1,
  "size": 8,
  "keys": [
    0,
    1,
    2,
    3,
    4,
    5,
    6,
    7
  ]
}