{
  "id": 1511,
  "intVals": [
    6946819,
    6946820,
    6946821,
    6946822,
    6946823,
    6946824,
    6946825,
    6946826,
    6946827,
    6946828,
    6946829,
    6946830,
    6946831,
    6946832
  ],
  "keyType": "INTEGER",
  "valType": "COMPONENT",
  "defaultString": "null",
  "defaultInt": -1,
  "size": 14,
  "keys": [
    5,
    1,
    2,
    3,
    4,
    12,
    9,
    6,
    14,
    11,
    7,
    8,
    10,
    13
  ]
}