{
  "id": 1533,
  "intVals": [
    12785,
    20790,
    20789,
    20788,
    20787,
    20786
  ],
  "keyType": "INTEGER",
  "valType": "NAMEDOBJ",
  "defaultString": "null",
  "defaultInt": -1,
  "size": 6,
  "keys": [
    0,
    1,
    2,
    3,
    4,
    5
  ]
}