{
  "id": 1543,
  "intVals": [
    2825,
    2833,
    2832,
    2831,
    2830,
    2829,
    2828,
    2827,
    2826
  ],
  "keyType": "INTEGER",
  "valType": "GRAPHIC",
  "defaultString": "null",
  "defaultInt": -1,
  "size": 9,
  "keys": [
    0,
    1,
    2,
    3,
    4,
    5,
    6,
    7,
    127
  ]
}