{
  "id": 1593,
  "intVals": [
    20800,
    20949,
    20950,
    20951,
    20952
  ],
  "keyType": "INTEGER",
  "valType": "NAMEDOBJ",
  "defaultString": "null",
  "defaultInt": -1,
  "size": 5,
  "keys": [
    0,
    1,
    2,
    3,
    4
  ]
}