{
  "id": 1625,
  "keyType": "INTEGER",
  "valType": "STRING",
  "defaultString": "Fake drops",
  "defaultInt": 0,
  "size": 2,
  "keys": [
    0,
    1
  ],
  "stringVals": [
    "On",
    "Off"
  ]
}