{
  "id": 1715,
  "keyType": "INTEGER",
  "valType": "STRING",
  "defaultString": "",
  "defaultInt": 0,
  "size": 4,
  "keys": [
    0,
    1,
    2,
    4
  ],
  "stringVals": [
    "Game features",
    "Tutors",
    "Training",
    "Shopping"
  ]
}