{
  "id": 1757,
  "intVals": [
    150,
    50000,
    100000,
    100000,
    100000,
    100000,
    20000,
    100000,
    25000,
    90000,
    80000,
    80000,
    50000,
    60000,
    60000,
    25000,
    50000,
    100000,
    -1
  ],
  "keyType": "INTEGER",
  "valType": "INTEGER",
  "defaultString": "null",
  "defaultInt": 0,
  "size": 19,
  "keys": [
    1,
    3,
    5,
    33,
    7,
    11,
    9,
    13,
    15,
    17,
    19,
    21,
    23,
    25,
    27,
    29,
    31,
    36,
    39
  ]
}