{
  "id": 1762,
  "intVals": [
    7831,
    7832,
    7833,
    7834,
    7835,
    7836,
    7837,
    7838,
    7839
  ],
  "keyType": "INTEGER",
  "valType": "NPC",
  "defaultString": "null",
  "defaultInt": -1,
  "size": 9,
  "keys": [
    1,
    2,
    3,
    4,
    5,
    6,
    7,
    8,
    9
  ]
}