{
  "id": 1771,
  "intVals": [
    330360869,
    330360833,
    331081735,
    330967071,
    331245617,
    329328643,
    329951233,
    330246171,
    330246184,
    330524730
  ],
  "keyType": "COORDGRID",
  "valType": "COORDGRID",
  "defaultString": "null",
  "defaultInt": -1,
  "size": 10,
  "keys": [
    329328643,
    329951233,
    330246171,
    330246184,
    330524730,
    330360869,
    330360833,
    331081735,
    330967071,
    331245617
  ]
}