{
  "id": 1864,
  "intVals": [
    1354,
    1355,
    1356,
    1357,
    1358,
    1359,
    1872,
    1874,
    2318
  ],
  "keyType": "INTEGER",
  "valType": "ENUM",
  "defaultString": "null",
  "defaultInt": -1,
  "size": 9,
  "keys": [
    1,
    2,
    3,
    4,
    5,
    6,
    7,
    8,
    9
  ]
}