{
  "id": 1879,
  "intVals": [
    229,
    25162,
    25161,
    25160,
    25159
  ],
  "keyType": "INTEGER",
  "valType": "NAMEDOBJ",
  "defaultString": "null",
  "defaultInt": -1,
  "size": 5,
  "keys": [
    0,
    1,
    2,
    3,
    4
  ]
}