{
  "id": 1895,
  "intVals": [
    1,
    2
  ],
  "keyType": "COMPONENT",
  "valType": "INTEGER",
  "defaultString": "null",
  "defaultInt": 0,
  "size": 2,
  "keys": [
    11927572,
    11927568
  ]
}