{
  "id": 1911,
  "intVals": [
    24772616,
    24772622,
    24772629,
    24772632,
    24772645,
    24772651,
    24772658
  ],
  "keyType": "INTEGER",
  "valType": "COMPONENT",
  "defaultString": "null",
  "defaultInt": -1,
  "size": 7,
  "keys": [
    1,
    2,
    3,
    4,
    5,
    6,
    7
  ]
}