{
  "id": 1976,
  "keyType": "INTEGER",
  "valType": "STRING",
  "defaultString": "",
  "defaultInt": 0,
  "size": 11,
  "keys": [
    0,
    1,
    2,
    3,
    4,
    5,
    6,
    7,
    8,
    9,
    10
  ],
  "stringVals": [
    "zero",
    "one",
    "two",
    "three",
    "four",
    "five",
    "six",
    "seven",
    "eight",
    "nine",
    "ten"
  ]
}