{
  "id": 1995,
  "intVals": [
    3262,
    3263,
    3264,
    3265,
    3266,
    3267,
    3268,
    3269,
    3270
  ],
  "keyType": "INTEGER",
  "valType": "NAMEDOBJ",
  "defaultString": "null",
  "defaultInt": -1,
  "size": 9,
  "keys": [
    0,
    1,
    2,
    3,
    4,
    5,
    6,
    7,
    8
  ]
}