{
  "id": 2011,
  "intVals": [
    6453,
    6454,
    6455,
    6456,
    6457,
    6458,
    6459,
    6460,
    6461,
    6462,
    6463,
    6464,
    6466,
    6467,
    6468,
    6479
  ],
  "keyType": "INTEGER",
  "valType": "NAMEDOBJ",
  "defaultString": "null",
  "defaultInt": -1,
  "size": 16,
  "keys": [
    0,
    1,
    2,
    3,
    4,
    5,
    6,
    7,
    8,
    9,
    10,
    11,
    12,
    13,
    14,
    15
  ]
}