{
  "id": 2029,
  "intVals": [
    3894,
    3895,
    3896,
    3897,
    3898,
    3901
  ],
  "keyType": "INTEGER",
  "valType": "NAMEDOBJ",
  "defaultString": "null",
  "defaultInt": -1,
  "size": 6,
  "keys": [
    0,
    1,
    2,
    3,
    4,
    5
  ]
}