{
  "id": 2072,
  "intVals": [
    2076,
    2077,
    2078,
    2079,
    2080,
    2081,
    2082,
    2084,
    2085,
    2086,
    2087,
    2088
  ],
  "keyType": "INTEGER",
  "valType": "ENUM",
  "defaultString": "null",
  "defaultInt": -1,
  "size": 12,
  "keys": [
    0,
    1,
    2,
    3,
    4,
    5,
    6,
    7,
    8,
    9,
    10,
    11
  ]
}