{
  "id": 2108,
  "intVals": [
    13647,
    13643,
    13641,
    13645
  ],
  "keyType": "NAMEDOBJ",
  "valType": "NAMEDOBJ",
  "defaultString": "null",
  "defaultInt": -1,
  "size": 4,
  "keys": [
    13646,
    13642,
    13640,
    13644
  ]
}