{
  "id": 2120,
  "intVals": [
    12650,
    11832,
    11834,
    11836,
    11812,
    11818,
    11820,
    11822
  ],
  "keyType": "INTEGER",
  "valType": "NAMEDOBJ",
  "defaultString": "null",
  "defaultInt": -1,
  "size": 8,
  "keys": [
    0,
    1,
    2,
    3,
    4,
    5,
    6,
    7
  ]
}