{
  "id": 2130,
  "intVals": [
    21273,
    19701,
    21275,
    19685,
    6571,
    19677
  ],
  "keyType": "INTEGER",
  "valType": "NAMEDOBJ",
  "defaultString": "null",
  "defaultInt": -1,
  "size": 6,
  "keys": [
    0,
    1,
    2,
    3,
    4,
    5
  ]
}