{
  "id": 2136,
  "intVals": [
    21992,
    21907,
    11286,
    22006,
    22106,
    22111
  ],
  "keyType": "INTEGER",
  "valType": "NAMEDOBJ",
  "defaultString": "null",
  "defaultInt": -1,
  "size": 6,
  "keys": [
    0,
    1,
    2,
    3,
    4,
    5
  ]
}