{
  "id": 2162,
  "intVals": [
    7975,
    7976,
    7977,
    7978,
    7979,
    20724,
    21270,
    20736,
    20730,
    4151,
    4153,
    6665,
    6666,
    11037,
    11902,
    20727,
    8901,
    21646,
    21643,
    21637,
    6809,
    10589,
    11286,
    4119,
    4121,
    4123,
    4125,
    4127,
    4129,
    4131,
    11840,
    13265,
    11908,
    12004,
    11235,
    12002,
    3140,
    20849,
    21028,
    21009,
    22804,
    22963,
    22960,
    22957,
    22988,
    22971,
    22973,
    22969,
    4109,
    4111,
    4113,
    4115,
    4117,
    4099,
    4101,
    4103,
    4105,
    4107,
    23047,
    23050,
    23053,
    23056,
    23059,
    24268,
    24288,
    24291,
    24294,
    24777,
    26225,
    26221,
    26223,
    26227,
    26229,
    28583,
    29084,
    29455,
    29806,
    29889,
    29892,
    29895
  ],
  "keyType": "INTEGER",
  "valType": "NAMEDOBJ",
  "defaultString": "null",
  "defaultInt": -1,
  "size": 80,
  "keys": [
    0,
    1,
    2,
    3,
    4,
    5,
    6,
    7,
    8,
    9,
    10,
    11,
    12,
    13,
    14,
    15,
    16,
    17,
    18,
    19,
    20,
    21,
    22,
    23,
    24,
    25,
    26,
    27,
    28,
    29,
    30,
    31,
    32,
    33,
    34,
    35,
    36,
    37,
    38,
    39,
    40,
    41,
    42,
    43,
    44,
    45,
    46,
    47,
    48,
    49,
    50,
    51,
    52,
    53,
    54,
    55,
    56,
    57,
    58,
    59,
    60,
    61,
    62,
    63,
    64,
    65,
    66,
    67,
    68,
    69,
    70,
    71,
    72,
    73,
    74,
    75,
    76,
    77,
    78,
    79
  ]
}