{
  "id": 2166,
  "intVals": [
    12019,
    12020,
    12013,
    12014,
    12015,
    12016
  ],
  "keyType": "INTEGER",
  "valType": "NAMEDOBJ",
  "defaultString": "null",
  "defaultInt": -1,
  "size": 6,
  "keys": [
    0,
    1,
    2,
    3,
    4,
    5
  ]
}