{
  "id": 2290,
  "intVals": [
    11849,
    11850,
    11852,
    11854,
    11856,
    11858,
    11860
  ],
  "keyType": "INTEGER",
  "valType": "NAMEDOBJ",
  "defaultString": "null",
  "defaultInt": -1,
  "size": 7,
  "keys": [
    0,
    1,
    2,
    3,
    4,
    5,
    6
  ]
}