{
  "id": 2296,
  "intVals": [
    23119,
    23047,
    23050,
    23053,
    23056,
    23059
  ],
  "keyType": "INTEGER",
  "valType": "NAMEDOBJ",
  "defaultString": "null",
  "defaultInt": -1,
  "size": 6,
  "keys": [
    -1,
    0,
    1,
    2,
    3,
    4
  ]
}