{
  "id": 2317,
  "intVals": [
    34736,
    34737,
    34738
  ],
  "keyType": "INTEGER",
  "valType": "LOC",
  "defaultString": "null",
  "defaultInt": -1,
  "size": 3,
  "keys": [
    0,
    1,
    2
  ]
}