{
  "id": 2320,
  "intVals": [
    588,
    589,
    1244,
    591,
    590,
    717,
    3770
  ],
  "keyType": "INTEGER",
  "valType": "STRUCT",
  "defaultString": "null",
  "defaultInt": -1,
  "size": 7,
  "keys": [
    0,
    1,
    2,
    3,
    4,
    5,
    6
  ]
}