{
  "id": 2346,
  "intVals": [
    -1,
    23549,
    23547,
    23545,
    23543
  ],
  "keyType": "INTEGER",
  "valType": "NAMEDOBJ",
  "defaultString": "null",
  "defaultInt": -1,
  "size": 5,
  "keys": [
    0,
    1,
    2,
    3,
    4
  ]
}