{
  "id": 2619,
  "intVals": [
    689,
    1264,
    1383,
    1387,
    1391
  ],
  "keyType": "INTEGER",
  "valType": "STRUCT",
  "defaultString": "null",
  "defaultInt": -1,
  "size": 5,
  "keys": [
    0,
    1,
    2,
    3,
    4
  ]
}