{
  "id": 2620,
  "intVals": [
    2622,
    2838,
    3028,
    3029,
    3030
  ],
  "keyType": "INTEGER",
  "valType": "ENUM",
  "defaultString": "null",
  "defaultInt": -1,
  "size": 5,
  "keys": [
    0,
    1,
    2,
    3,
    4
  ]
}