{
  "id": 2644,
  "intVals": [
    43581459,
    43581460,
    43581461,
    43581462,
    43581463,
    43581466,
    43581467,
    43581468,
    43581469,
    43581470
  ],
  "keyType": "INTEGER",
  "valType": "COMPONENT",
  "defaultString": "null",
  "defaultInt": 43581459,
  "size": 10,
  "keys": [
    0,
    1,
    2,
    3,
    4,
    5,
    6,
    7,
    8,
    9
  ]
}