{
  "id": 2654,
  "intVals": [
    130,
    120,
    150,
    130,
    130
  ],
  "keyType": "INTEGER",
  "valType": "INTEGER",
  "defaultString": "null",
  "defaultInt": 130,
  "size": 5,
  "keys": [
    47872,
    14483456,
    12303291,
    39089,
    3683380
  ]
}