{
  "id": 2672,
  "intVals": [
    0,
    1,
    2,
    3,
    4,
    5
  ],
  "keyType": "INTEGER",
  "valType": "INTEGER",
  "defaultString": "null",
  "defaultInt": -1,
  "size": 6,
  "keys": [
    0,
    1,
    2,
    3,
    4,
    5
  ]
}