{
  "id": 2673,
  "keyType": "INTEGER",
  "valType": "STRING",
  "defaultString": "",
  "defaultInt": 0,
  "size": 6,
  "keys": [
    0,
    1,
    2,
    3,
    4,
    5
  ],
  "stringVals": [
    "All",
    "Easy",
    "Medium",
    "Hard",
    "Elite",
    "Master"
  ]
}