{
  "id": 2735,
  "intVals": [
    724,
    725,
    726
  ],
  "keyType": "INTEGER",
  "valType": "STRUCT",
  "defaultString": "null",
  "defaultInt": -1,
  "size": 3,
  "keys": [
    1,
    2,
    3
  ]
}