{
  "id": 2738,
  "intVals": [
    733,
    734,
    735
  ],
  "keyType": "INTEGER",
  "valType": "STRUCT",
  "defaultString": "null",
  "defaultInt": -1,
  "size": 3,
  "keys": [
    1,
    2,
    3
  ]
}