{
  "id": 274,
  "keyType": "INTEGER",
  "valType": "STRING",
  "defaultString": "out and about somewhere",
  "defaultInt": 0,
  "size": 4,
  "keys": [
    1,
    2,
    3,
    4
  ],
  "stringVals": [
    "in your bank",
    "in your inventory",
    "your follower",
    "in your menagerie"
  ]
}