{
  "id": 2753,
  "intVals": [
    6908,
    6910,
    6912,
    6914,
    6916,
    6918,
    6920,
    6922,
    6924,
    6889,
    6926,
    4695,
    4696,
    4698,
    4697,
    4694,
    4699,
    564,
    562,
    561,
    560,
    563,
    566,
    565
  ],
  "keyType": "INTEGER",
  "valType": "NAMEDOBJ",
  "defaultString": "null",
  "defaultInt": -1,
  "size": 24,
  "keys": [
    0,
    1,
    2,
    3,
    4,
    5,
    6,
    7,
    8,
    9,
    10,
    11,
    12,
    13,
    14,
    15,
    16,
    17,
    18,
    19,
    20,
    21,
    22,
    23
  ]
}