{
  "id": 2757,
  "intVals": [
    300,
    600,
    1500,
    2400,
    4000,
    3000,
    1200,
    1500,
    5000,
    6000,
    2000,
    15,
    15,
    15,
    15,
    15,
    15,
    5,
    5,
    0,
    20,
    0,
    25,
    25
  ],
  "keyType": "OBJ",
  "valType": "INTEGER",
  "defaultString": "null",
  "defaultInt": -1,
  "size": 24,
  "keys": [
    6908,
    6910,
    6912,
    6914,
    6916,
    6918,
    6920,
    6922,
    6924,
    6889,
    6926,
    4695,
    4696,
    4698,
    4697,
    4694,
    4699,
    564,
    562,
    561,
    560,
    563,
    566,
    565
  ]
}