{
  "id": 2794,
  "intVals": [
    132,
    9312,
    5280,
    2084,
    2176,
    2048,
    3204,
    4160
  ],
  "keyType": "INTEGER",
  "valType": "COLOUR",
  "defaultString": "null",
  "defaultInt": 25600,
  "size": 8,
  "keys": [
    1,
    2,
    3,
    4,
    5,
    6,
    7,
    8
  ]
}