{
  "id": 28,
  "intVals": [
    6355,
    6351,
    6353,
    6359,
    6357
  ],
  "keyType": "INTEGER",
  "valType": "NAMEDOBJ",
  "defaultString": "null",
  "defaultInt": -1,
  "size": 5,
  "keys": [
    0,
    1,
    2,
    3,
    4
  ]
}