{
  "id": 2902,
  "intVals": [
    262158,
    262159,
    262160,
    262161
  ],
  "keyType": "INTEGER",
  "valType": "COMPONENT",
  "defaultString": "null",
  "defaultInt": -1,
  "size": 4,
  "keys": [
    0,
    1,
    2,
    3
  ]
}