{
  "id": 2949,
  "intVals": [
    1,
    1,
    1,
    1,
    1
  ],
  "keyType": "NAMEDOBJ",
  "valType": "INTEGER",
  "defaultString": "null",
  "defaultInt": 1,
  "size": 5,
  "keys": [
    1137,
    1101,
    1067,
    1175,
    1293
  ]
}