{
  "id": 2958,
  "intVals": [
    334,
    1059,
    1061
  ],
  "keyType": "INTEGER",
  "valType": "NAMEDOBJ",
  "defaultString": "null",
  "defaultInt": -1,
  "size": 3,
  "keys": [
    0,
    1,
    2
  ]
}