{
  "id": 3028,
  "intVals": [
    1384,
    1385,
    1386
  ],
  "keyType": "INTEGER",
  "valType": "STRUCT",
  "defaultString": "null",
  "defaultInt": -1,
  "size": 3,
  "keys": [
    0,
    1,
    2
  ]
}