{
  "id": 3053,
  "intVals": [
    8245,
    24926,
    24927,
    24928,
    24929,
    24926,
    24927,
    24928,
    24929,
    24890,
    24891,
    24892,
    24893,
    8245,
    24890,
    24891,
    24892,
    24893,
    8245
  ],
  "keyType": "COORDGRID",
  "valType": "OBJ",
  "defaultString": "null",
  "defaultInt": 8245,
  "size": 19,
  "keys": [
    16385,
    32769,
    32770,
    32771,
    32772,
    49153,
    49154,
    49155,
    49156,
    65537,
    65538,
    65539,
    65540,
    81921,
    98305,
    98306,
    98307,
    98308,
    114689
  ]
}