{
  "id": 3082,
  "intVals": [
    6137,
    6139,
    6141,
    6147,
    6153
  ],
  "keyType": "INTEGER",
  "valType": "NAMEDOBJ",
  "defaultString": "null",
  "defaultInt": -1,
  "size": 5,
  "keys": [
    0,
    1,
    2,
    3,
    4
  ]
}