{
  "id": 3089,
  "intVals": [
    9096,
    9097,
    9098,
    9102,
    9101,
    9099,
    9104,
    9100
  ],
  "keyType": "INTEGER",
  "valType": "NAMEDOBJ",
  "defaultString": "null",
  "defaultInt": -1,
  "size": 8,
  "keys": [
    0,
    1,
    2,
    3,
    4,
    5,
    6,
    7
  ]
}