{
  "id": 3104,
  "intVals": [
    8963,
    8956,
    8995
  ],
  "keyType": "INTEGER",
  "valType": "NAMEDOBJ",
  "defaultString": "null",
  "defaultInt": -1,
  "size": 3,
  "keys": [
    0,
    1,
    2
  ]
}