{
  "id": 3155,
  "intVals": [
    13317,
    13318,
    13319
  ],
  "keyType": "INTEGER",
  "valType": "NAMEDOBJ",
  "defaultString": "null",
  "defaultInt": -1,
  "size": 3,
  "keys": [
    0,
    1,
    2
  ]
}