{
  "id": 3207,
  "intVals": [
    12211,
    12205,
    12207,
    12213
  ],
  "keyType": "INTEGER",
  "valType": "NAMEDOBJ",
  "defaultString": "null",
  "defaultInt": -1,
  "size": 4,
  "keys": [
    0,
    1,
    2,
    3
  ]
}