{
  "id": 3210,
  "intVals": [
    20193,
    20184,
    20187,
    20196
  ],
  "keyType": "INTEGER",
  "valType": "NAMEDOBJ",
  "defaultString": "null",
  "defaultInt": -1,
  "size": 4,
  "keys": [
    0,
    1,
    2,
    3
  ]
}