{
  "id": 3266,
  "intVals": [
    20080,
    20083,
    20089,
    20086,
    20092
  ],
  "keyType": "INTEGER",
  "valType": "NAMEDOBJ",
  "defaultString": "null",
  "defaultInt": -1,
  "size": 5,
  "keys": [
    0,
    1,
    2,
    3,
    4
  ]
}