{
  "id": 3281,
  "intVals": [
    20773,
    20775,
    20777,
    20779
  ],
  "keyType": "INTEGER",
  "valType": "NAMEDOBJ",
  "defaultString": "null",
  "defaultInt": -1,
  "size": 4,
  "keys": [
    0,
    1,
    2,
    3
  ]
}