{
  "id": 3290,
  "intVals": [
    4071,
    4506,
    4511,
    11896,
    11899,
    8839,
    26463,
    13072,
    26469,
    11665,
    26473,
    11664,
    26475,
    11663,
    26477,
    5554,
    6131,
    6128,
    6335,
    6337,
    6339,
    6617,
    5575,
    9674,
    6065,
    10049,
    10043,
    10037,
    10065,
    10057,
    10053,
    10061,
    10862,
    10939,
    28169,
    9944,
    4298,
    12013,
    13258,
    13359,
    13364,
    13369,
    13374,
    13379,
    13385,
    13646,
    19689,
    20838,
    21298,
    19687,
    10551,
    10552,
    10553,
    10555,
    10548,
    10550,
    10549,
    10547,
    22326,
    23101,
    24034,
    23785,
    13317,
    12637,
    12638,
    12639,
    24192,
    24195,
    24198,
    24201,
    24204,
    24407,
    24399,
    24389,
    24395,
    25031,
    25019,
    25004,
    28715,
    28727,
    28739,
    28748,
    25013,
    24419,
    24676,
    6326,
    4068,
    4503,
    4508,
    11990,
    24219,
    25549,
    25592,
    26430,
    26442,
    26454,
    26517,
    27226,
    27235,
    27392,
    27400,
    27408,
    27414,
    21343,
    9005,
    29263,
    28933,
    29280,
    29560,
    29916
  ],
  "keyType": "INTEGER",
  "valType": "NAMEDOBJ",
  "defaultString": "null",
  "defaultInt": -1,
  "size": 110,
  "keys": [
    0,
    1,
    2,
    3,
    4,
    5,
    6,
    7,
    8,
    9,
    10,
    11,
    12,
    13,
    14,
    15,
    16,
    17,
    18,
    19,
    20,
    21,
    22,
    23,
    24,
    25,
    26,
    27,
    28,
    29,
    30,
    31,
    32,
    33,
    34,
    35,
    36,
    37,
    38,
    39,
    40,
    41,
    42,
    43,
    44,
    45,
    46,
    47,
    48,
    49,
    50,
    51,
    52,
    53,
    54,
    55,
    56,
    57,
    58,
    59,
    60,
    61,
    62,
    63,
    64,
    65,
    66,
    67,
    68,
    69,
    70,
    71,
    72,
    73,
    74,
    75,
    76,
    77,
    78,
    79,
    80,
    81,
    82,
    83,
    84,
    85,
    86,
    87,
    88,
    89,
    90,
    91,
    92,
    93,
    94,
    95,
    96,
    97,
    98,
    99,
    100,
    101,
    102,
    103,
    104,
    105,
    106,
    107,
    108,
    109
  ]
}