{
  "id": 3300,
  "intVals": [
    12007,
    12936,
    12885,
    13245,
    13277,
    19701,
    21745,
    22106,
    23064,
    23525,
    24495,
    25521,
    25524,
    29786
  ],
  "keyType": "INTEGER",
  "valType": "NAMEDOBJ",
  "defaultString": "null",
  "defaultInt": -1,
  "size": 14,
  "keys": [
    0,
    1,
    2,
    3,
    4,
    5,
    6,
    7,
    8,
    9,
    10,
    11,
    12,
    13
  ]
}