{
  "id": 3304,
  "intVals": [
    3306,
    3307,
    3308,
    3309,
    3311,
    5492,
    5493,
    5494,
    378,
    907,
    4023,
    1504,
    883,
    884,
    4862,
    4863,
    4949,
    4950,
    4990,
    4991,
    1301,
    5190,
    5191,
    3671,
    5450,
    5451
  ],
  "keyType": "OBJ",
  "valType": "ENUM",
  "defaultString": "null",
  "defaultInt": -1,
  "size": 26,
  "keys": [
    13280,
    13281,
    4510,
    4315,
    24428,
    21791,
    21795,
    21793,
    10362,
    19724,
    26316,
    27035,
    27463,
    27497,
    21343,
    22838,
    27822,
    27818,
    21314,
    28116,
    28603,
    28140,
    28136,
    9005,
    29489,
    29507
  ]
}