{
  "id": 3331,
  "intVals": [
    5449,
    5450,
    5452,
    5453,
    5457,
    5454,
    5456,
    5455,
    5451,
    5458
  ],
  "keyType": "INTEGER",
  "valType": "GRAPHIC",
  "defaultString": "null",
  "defaultInt": -1,
  "size": 10,
  "keys": [
    1,
    2,
    3,
    4,
    5,
    6,
    7,
    8,
    11,
    20
  ]
}