{
  "id": 3345,
  "intVals": [
    2809,
    2810,
    2811
  ],
  "keyType": "INTEGER",
  "valType": "GRAPHIC",
  "defaultString": "null",
  "defaultInt": -1,
  "size": 3,
  "keys": [
    0,
    1,
    2
  ]
}