{
  "id": 3353,
  "intVals": [
    92580,
    92580,
    92380,
    92300,
    92300,
    92140,
    92110,
    91870,
    90900,
    90700,
    90460,
    90020,
    90010,
    89990,
    89950,
    89860,
    89800,
    89710,
    89350,
    89190,
    89190,
    89070,
    89070,
    89070,
    89070,
    89070,
    89070,
    89030,
    88780,
    88710,
    88550,
    88310,
    88230,
    88180,
    87750,
    87610,
    87280,
    87140,
    87110,
    86840,
    86750,
    86740,
    86670,
    86650,
    86600,
    86550,
    86550,
    86520,
    86430,
    86240,
    86140,
    85950,
    85940,
    85940,
    85870,
    85860,
    85730,
    85670,
    85650,
    85610,
    85600,
    85560,
    85420,
    85190,
    85190,
    85170,
    85150,
    85140,
    85100,
    85070,
    85050,
    85030,
    85030,
    85000,
    85000,
    84940,
    84880,
    84820,
    84800,
    84790,
    84700,
    84680,
    84590,
    84440,
    84400,
    84280,
    84210,
    84180,
    84070,
    83930,
    83770,
    83750,
    83740,
    83710,
    83670,
    83610,
    83600,
    83530,
    83450,
    83400
  ],
  "keyType": "INTEGER",
  "valType": "INTEGER",
  "defaultString": "null",
  "defaultInt": 0,
  "size": 100,
  "keys": [
    0,
    1,
    2,
    3,
    4,
    5,
    6,
    7,
    8,
    9,
    10,
    11,
    12,
    13,
    14,
    15,
    16,
    17,
    18,
    19,
    20,
    21,
    22,
    23,
    24,
    25,
    26,
    27,
    28,
    29,
    30,
    31,
    32,
    33,
    34,
    35,
    36,
    37,
    38,
    39,
    40,
    41,
    42,
    43,
    44,
    45,
    46,
    47,
    48,
    49,
    50,
    51,
    52,
    53,
    54,
    55,
    56,
    57,
    58,
    59,
    60,
    61,
    62,
    63,
    64,
    65,
    66,
    67,
    68,
    69,
    70,
    71,
    72,
    73,
    74,
    75,
    76,
    77,
    78,
    79,
    80,
    81,
    82,
    83,
    84,
    85,
    86,
    87,
    88,
    89,
    90,
    91,
    92,
    93,
    94,
    95,
    96,
    97,
    98,
    99
  ]
}