{
  "id": 3409,
  "keyType": "INTEGER",
  "valType": "STRING",
  "defaultString": "",
  "defaultInt": 0,
  "size": 6,
  "keys": [
    0,
    1,
    2,
    3,
    4,
    5
  ],
  "stringVals": [
    "all",
    "easy",
    "medium",
    "hard",
    "elite",
    "master"
  ]
}