{
  "id": 3497,
  "keyType": "INTEGER",
  "valType": "STRING",
  "defaultString": "Achievement",
  "defaultInt": 0,
  "size": 48,
  "keys": [
    1,
    2,
    3,
    4,
    5,
    6,
    7,
    8,
    9,
    10,
    11,
    12,
    13,
    14,
    15,
    16,
    17,
    18,
    19,
    20,
    21,
    22,
    23,
    24,
    25,
    26,
    27,
    28,
    29,
    30,
    31,
    32,
    33,
    34,
    35,
    36,
    37,
    38,
    39,
    40,
    41,
    42,
    43,
    44,
    45,
    46,
    47,
    48
  ],
  "stringVals": [
    "Karamja easy",
    "Karamja medium",
    "Karamja hard",
    "Karamja elite",
    "Ardougne easy",
    "Ardougne medium",
    "Ardougne hard",
    "Ardougne elite",
    "Falador easy",
    "Falador medium",
    "Falador hard",
    "Falador elite",
    "Fremennik easy",
    "Fremennik medium",
    "Fremennik hard",
    "Fremennik elite",
    "Kandarin easy",
    "Kandarin medium",
    "Kandarin hard",
    "Kandarin elite",
    "Desert easy",
    "Desert medium",
    "Desert hard",
    "Desert elite",
    "Lumbridge easy",
    "Lumbridge medium",
    "Lumbridge hard",
    "Lumbridge elite",
    "Morytania easy",
    "Morytania medium",
    "Morytania hard",
    "Morytania elite",
    "Varrock easy",
    "Varrock medium",
    "Varrock hard",
    "Varrock elite",
    "Wilderness easy",
    "Wilderness medium",
    "Wilderness hard",
    "Wilderness elite",
    "Western easy",
    "Western medium",
    "Western hard",
    "Western elite",
    "Kourend easy",
    "Kourend medium",
    "Kourend hard",
    "Kourend elite"
  ]
}