{
  "id": 3556,
  "intVals": [
    25069,
    25075,
    25078,
    25072,
    25081,
    25084
  ],
  "keyType": "INTEGER",
  "valType": "NAMEDOBJ",
  "defaultString": "null",
  "defaultInt": -1,
  "size": 6,
  "keys": [
    0,
    1,
    2,
    3,
    4,
    5
  ]
}