{
  "id": 3601,
  "intVals": [
    3097,
    3098,
    3099,
    3100,
    4046,
    4045,
    4043,
    4044,
    2190,
    2191,
    3046,
    3045,
    1984,
    1985,
    1986,
    1987,
    1988,
    3047,
    1989,
    1990,
    1991,
    3044,
    1992,
    1993,
    3048,
    1994,
    1995,
    1996,
    3049,
    1997,
    1998,
    1999,
    2000,
    2001,
    2002,
    2003,
    2004,
    2005,
    2006,
    2007,
    2008,
    2009,
    2010,
    2011,
    2012,
    2013,
    2014,
    2015,
    2016,
    2017,
    2018,
    2019,
    2020,
    2022,
    2021,
    2024,
    2023,
    2025,
    2026,
    2027,
    2028,
    2030,
    2031,
    2029,
    2033,
    2034,
    2032,
    2036,
    2037,
    2035,
    2038,
    2192,
    2193,
    2195,
    2196,
    2197,
    3117,
    3118,
    2194,
    3116,
    3115,
    2040,
    3051,
    3052,
    3053,
    3054,
    3055,
    2041,
    2039,
    2042,
    2043,
    2044,
    2045,
    2046,
    2047,
    2048,
    3050,
    2049,
    2050,
    2051,
    2052,
    3120,
    4195,
    2198,
    2199,
    2200,
    2201,
    3114,
    4036,
    3119,
    3105,
    3106,
    3107,
    3108,
    3109,
    3110,
    3111,
    3112,
    3113,
    3123,
    2875,
    2202,
    2203,
    2054,
    2055,
    3056,
    3057,
    3058,
    3059,
    3060,
    2056,
    2057,
    2058,
    2059,
    2060,
    2061,
    2053,
    2062,
    2064,
    2063,
    2066,
    2065,
    2189,
    2205,
    3124,
    3125,
    3126,
    3127,
    2206,
    2207,
    2067,
    2068,
    2069,
    2070,
    2071,
    2072,
    2073,
    2074,
    2075,
    3061,
    2076,
    3128,
    2208,
    2209,
    2210,
    3129,
    3130,
    2211,
    2078,
    2077,
    2079,
    2080,
    2081,
    2082,
    2084,
    2085,
    2086,
    2087,
    2083,
    2088,
    2089,
    2090,
    2091,
    2092,
    2093,
    2094,
    2095,
    3132,
    3131,
    3133,
    3134,
    3135,
    3136,
    2097,
    2098,
    2102,
    2103,
    2104,
    2096,
    2099,
    2100,
    2101,
    2105,
    2106,
    2107,
    2108,
    2109,
    2110,
    2111,
    2113,
    2115,
    2114,
    2117,
    2118,
    2119,
    2112,
    2116,
    3062,
    3063,
    3064,
    3065,
    3066,
    3067,
    3068,
    3069,
    3070,
    3071,
    3072,
    2120,
    2204,
    2121,
    2122,
    2123,
    2124,
    2125,
    2126,
    2212,
    3137,
    3138,
    2214,
    2215,
    3252,
    3139,
    2216,
    2127,
    2128,
    2129,
    2130,
    2131,
    2132,
    2133,
    2134,
    3122,
    3101,
    3102,
    3103,
    3104,
    3121,
    3140,
    3141,
    2213,
    2217,
    2218,
    2220,
    3142,
    3144,
    3143,
    3073,
    4039,
    4040,
    4041,
    4042,
    2135,
    2136,
    2137,
    2138,
    2221,
    2222,
    2223,
    3075,
    3076,
    3074,
    2140,
    2142,
    2143,
    2144,
    3077,
    2139,
    2145,
    2146,
    2147,
    3078,
    2372,
    3079,
    2148,
    2149,
    2150,
    2151,
    2152,
    3080,
    3081,
    2153,
    2154,
    3082,
    2155,
    2156,
    2157,
    3083,
    3084,
    3085,
    3086,
    2158,
    2159,
    2160,
    2161,
    2162,
    2163,
    2164,
    2165,
    2166,
    3087,
    2167,
    2168,
    2169,
    2170,
    2171,
    3088,
    2141,
    3089,
    2172,
    2421,
    2422,
    2423,
    2424,
    3440,
    2224,
    3145,
    3146,
    3090,
    2174,
    2173,
    2176,
    2175,
    2177,
    2178,
    2179,
    2180,
    2181,
    2182,
    2183,
    4037,
    4038,
    2184,
    2185,
    3091,
    3092,
    3093,
    3094,
    2186,
    2187,
    2188,
    3095,
    3096,
    2225,
    3147,
    2219,
    2226,
    2227,
    2228
  ],
  "keyType": "INTEGER",
  "valType": "SYNTH",
  "defaultString": "null",
  "defaultInt": -1,
  "size": 369,
  "keys": [
    0,
    1,
    2,
    3,
    4,
    5,
    6,
    7,
    8,
    9,
    10,
    11,
    12,
    13,
    14,
    15,
    16,
    17,
    18,
    19,
    20,
    21,
    22,
    23,
    24,
    25,
    26,
    27,
    28,
    29,
    30,
    31,
    32,
    33,
    34,
    35,
    36,
    37,
    38,
    39,
    40,
    41,
    42,
    43,
    44,
    45,
    46,
    47,
    48,
    49,
    50,
    51,
    52,
    53,
    54,
    55,
    56,
    57,
    58,
    59,
    60,
    61,
    62,
    63,
    64,
    65,
    66,
    67,
    68,
    69,
    70,
    71,
    72,
    73,
    74,
    75,
    76,
    77,
    78,
    79,
    80,
    81,
    82,
    83,
    84,
    85,
    86,
    87,
    88,
    89,
    90,
    91,
    92,
    93,
    94,
    95,
    96,
    97,
    98,
    99,
    100,
    101,
    102,
    103,
    104,
    105,
    106,
    107,
    108,
    109,
    110,
    111,
    112,
    113,
    114,
    115,
    116,
    117,
    118,
    119,
    120,
    121,
    122,
    123,
    124,
    125,
    126,
    127,
    128,
    129,
    130,
    131,
    132,
    133,
    134,
    135,
    136,
    137,
    138,
    139,
    140,
    141,
    142,
    143,
    144,
    145,
    146,
    147,
    148,
    149,
    150,
    151,
    152,
    153,
    154,
    155,
    156,
    157,
    158,
    159,
    160,
    161,
    162,
    163,
    164,
    165,
    166,
    167,
    168,
    169,
    170,
    171,
    172,
    173,
    174,
    175,
    176,
    177,
    178,
    179,
    180,
    181,
    182,
    183,
    184,
    185,
    186,
    187,
    188,
    189,
    190,
    191,
    192,
    193,
    194,
    195,
    196,
    197,
    198,
    199,
    200,
    201,
    202,
    203,
    204,
    205,
    206,
    207,
    208,
    209,
    210,
    211,
    212,
    213,
    214,
    215,
    216,
    217,
    218,
    219,
    220,
    221,
    222,
    223,
    224,
    225,
    226,
    227,
    228,
    229,
    230,
    231,
    232,
    233,
    234,
    235,
    236,
    237,
    238,
    239,
    240,
    241,
    242,
    243,
    244,
    245,
    246,
    247,
    248,
    249,
    250,
    251,
    252,
    253,
    254,
    255,
    256,
    257,
    258,
    259,
    260,
    261,
    262,
    263,
    264,
    265,
    266,
    267,
    268,
    269,
    270,
    271,
    272,
    273,
    274,
    275,
    276,
    277,
    278,
    279,
    280,
    281,
    282,
    283,
    284,
    285,
    286,
    287,
    288,
    289,
    290,
    291,
    292,
    293,
    294,
    295,
    296,
    297,
    298,
    299,
    300,
    301,
    302,
    303,
    304,
    305,
    306,
    307,
    308,
    309,
    310,
    311,
    312,
    313,
    314,
    315,
    316,
    317,
    318,
    319,
    320,
    321,
    322,
    323,
    324,
    325,
    326,
    327,
    328,
    329,
    330,
    331,
    332,
    333,
    334,
    335,
    336,
    337,
    338,
    339,
    340,
    341,
    342,
    343,
    344,
    345,
    346,
    347,
    348,
    349,
    350,
    351,
    352,
    353,
    354,
    355,
    356,
    357,
    358,
    359,
    360,
    361,
    362,
    363,
    364,
    365,
    366,
    367,
    368
  ]
}