{
  "id": 3608,
  "intVals": [
    4098,
    4093,
    4126,
    4125,
    4079,
    4100,
    4115,
    4082,
    4071,
    4119,
    4108,
    4113,
    4109,
    4069,
    4091,
    4110,
    4124,
    4074,
    4090,
    4086,
    4111,
    4077,
    4117,
    4072,
    4066,
    4097,
    4123,
    4130,
    4104,
    4101,
    4136,
    4096,
    4102,
    4129,
    4133,
    4099,
    4112,
    4134,
    4131,
    4106,
    4095,
    4083,
    4076,
    4135,
    4120,
    4075,
    4068,
    4103,
    4089,
    4128,
    4118,
    4132,
    4094,
    4087,
    4080,
    4107,
    4122,
    4067,
    4078,
    4105,
    4084,
    4070,
    4085,
    4121,
    4088,
    4092,
    4116,
    4073,
    4127,
    4114,
    4081,
    4049,
    4050,
    4051,
    4052,
    4055,
    4047,
    4048,
    4053,
    4054,
    4064,
    4060,
    4062,
    4056,
    4063,
    4061,
    4059,
    4058,
    4065,
    4057,
    4137
  ],
  "keyType": "INTEGER",
  "valType": "SYNTH",
  "defaultString": "null",
  "defaultInt": -1,
  "size": 91,
  "keys": [
    0,
    1,
    2,
    3,
    4,
    5,
    6,
    7,
    8,
    9,
    10,
    11,
    12,
    13,
    14,
    15,
    16,
    17,
    18,
    19,
    20,
    21,
    22,
    23,
    24,
    25,
    26,
    27,
    28,
    29,
    30,
    31,
    32,
    33,
    34,
    35,
    36,
    37,
    38,
    39,
    40,
    41,
    42,
    43,
    44,
    45,
    46,
    47,
    48,
    49,
    50,
    51,
    52,
    53,
    54,
    55,
    56,
    57,
    58,
    59,
    60,
    61,
    62,
    63,
    64,
    65,
    66,
    67,
    68,
    69,
    70,
    71,
    72,
    73,
    74,
    75,
    76,
    77,
    78,
    79,
    80,
    81,
    82,
    83,
    84,
    85,
    86,
    87,
    88,
    89,
    90
  ]
}