{
  "id": 3631,
  "keyType": "INTEGER",
  "valType": "STRING",
  "defaultString": "null",
  "defaultInt": 0,
  "size": 25,
  "keys": [
    0,
    1,
    2,
    3,
    4,
    5,
    6,
    7,
    8,
    9,
    10,
    11,
    12,
    13,
    14,
    15,
    16,
    17,
    18,
    19,
    20,
    21,
    22,
    23,
    24
  ],
  "stringVals": [
    "equip_axe",
    "equip_backpack",
    "equip_banner",
    "equip_baxe",
    "equip_blunt",
    "equip_body",
    "equip_bolt",
    "equip_elemental_staff",
    "equip_feet",
    "equip_fun",
    "equip_hands",
    "equip_helmet",
    "equip_jester",
    "equip_leather",
    "equip_legs",
    "equip_metal_body",
    "equip_metal_legs",
    "equip_ranged",
    "equip_shield",
    "equip_silverlight",
    "equip_spiked",
    "equip_staff",
    "equip_sword",
    "equip_whip",
    "equip_wood"
  ]
}