{
  "id": 3643,
  "keyType": "INTEGER",
  "valType": "STRING",
  "defaultString": "null",
  "defaultInt": 0,
  "size": 819,
  "keys": [
    0,
    1,
    2,
    3,
    4,
    5,
    6,
    7,
    8,
    9,
    10,
    11,
    12,
    13,
    14,
    15,
    16,
    17,
    18,
    19,
    20,
    21,
    22,
    23,
    24,
    25,
    26,
    27,
    28,
    29,
    30,
    31,
    32,
    33,
    34,
    35,
    36,
    37,
    38,
    39,
    40,
    41,
    42,
    43,
    44,
    45,
    46,
    47,
    48,
    49,
    50,
    51,
    52,
    53,
    54,
    55,
    56,
    57,
    58,
    59,
    60,
    61,
    62,
    63,
    64,
    65,
    66,
    67,
    68,
    69,
    70,
    71,
    72,
    73,
    74,
    75,
    76,
    77,
    78,
    79,
    80,
    81,
    82,
    83,
    84,
    85,
    86,
    87,
    88,
    89,
    90,
    91,
    92,
    93,
    94,
    95,
    96,
    97,
    98,
    99,
    100,
    101,
    102,
    103,
    104,
    105,
    106,
    107,
    108,
    109,
    110,
    111,
    112,
    113,
    114,
    115,
    116,
    117,
    118,
    119,
    120,
    121,
    122,
    123,
    124,
    125,
    126,
    127,
    128,
    129,
    130,
    131,
    132,
    133,
    134,
    135,
    136,
    137,
    138,
    139,
    140,
    141,
    142,
    143,
    144,
    145,
    146,
    147,
    148,
    149,
    150,
    151,
    152,
    153,
    154,
    155,
    156,
    157,
    158,
    159,
    160,
    161,
    162,
    163,
    164,
    165,
    166,
    167,
    168,
    169,
    170,
    171,
    172,
    173,
    174,
    175,
    176,
    177,
    178,
    179,
    180,
    181,
    182,
    183,
    184,
    185,
    186,
    187,
    188,
    189,
    190,
    191,
    192,
    193,
    194,
    195,
    196,
    197,
    198,
    199,
    200,
    201,
    202,
    203,
    204,
    205,
    206,
    207,
    208,
    209,
    210,
    211,
    212,
    213,
    214,
    215,
    216,
    217,
    218,
    219,
    220,
    221,
    222,
    223,
    224,
    225,
    226,
    227,
    228,
    229,
    230,
    231,
    232,
    233,
    234,
    235,
    236,
    237,
    238,
    239,
    240,
    241,
    242,
    243,
    244,
    245,
    246,
    247,
    248,
    249,
    250,
    251,
    252,
    253,
    254,
    255,
    256,
    257,
    258,
    259,
    260,
    261,
    262,
    263,
    264,
    265,
    266,
    267,
    268,
    269,
    270,
    271,
    272,
    273,
    274,
    275,
    276,
    277,
    278,
    279,
    280,
    281,
    282,
    283,
    284,
    285,
    286,
    287,
    288,
    289,
    290,
    291,
    292,
    293,
    294,
    295,
    296,
    297,
    298,
    299,
    300,
    301,
    302,
    303,
    304,
    305,
    306,
    307,
    308,
    309,
    310,
    311,
    312,
    313,
    314,
    315,
    316,
    317,
    318,
    319,
    320,
    321,
    322,
    323,
    324,
    325,
    326,
    327,
    328,
    329,
    330,
    331,
    332,
    333,
    334,
    335,
    336,
    337,
    338,
    339,
    340,
    341,
    342,
    343,
    344,
    345,
    346,
    347,
    348,
    349,
    350,
    351,
    352,
    353,
    354,
    355,
    356,
    357,
    358,
    359,
    360,
    361,
    362,
    363,
    364,
    365,
    366,
    367,
    368,
    369,
    370,
    371,
    372,
    373,
    374,
    375,
    376,
    377,
    378,
    379,
    380,
    381,
    382,
    383,
    384,
    385,
    386,
    387,
    388,
    389,
    390,
    391,
    392,
    393,
    394,
    395,
    396,
    397,
    398,
    399,
    400,
    401,
    402,
    403,
    404,
    405,
    406,
    407,
    408,
    409,
    410,
    411,
    412,
    413,
    414,
    415,
    416,
    417,
    418,
    419,
    420,
    421,
    422,
    423,
    424,
    425,
    426,
    427,
    428,
    429,
    430,
    431,
    432,
    433,
    434,
    435,
    436,
    437,
    438,
    439,
    440,
    441,
    442,
    443,
    444,
    445,
    446,
    447,
    448,
    449,
    450,
    451,
    452,
    453,
    454,
    455,
    456,
    457,
    458,
    459,
    460,
    461,
    462,
    463,
    464,
    465,
    466,
    467,
    468,
    469,
    470,
    471,
    472,
    473,
    474,
    475,
    476,
    477,
    478,
    479,
    480,
    481,
    482,
    483,
    484,
    485,
    486,
    487,
    488,
    489,
    490,
    491,
    492,
    493,
    494,
    495,
    496,
    497,
    498,
    499,
    500,
    501,
    502,
    503,
    504,
    505,
    506,
    507,
    508,
    509,
    510,
    511,
    512,
    513,
    514,
    515,
    516,
    517,
    518,
    519,
    520,
    521,
    522,
    523,
    524,
    525,
    526,
    527,
    528,
    529,
    530,
    531,
    532,
    533,
    534,
    535,
    536,
    537,
    538,
    539,
    540,
    541,
    542,
    543,
    544,
    545,
    546,
    547,
    548,
    549,
    550,
    551,
    552,
    553,
    554,
    555,
    556,
    557,
    558,
    559,
    560,
    561,
    562,
    563,
    564,
    565,
    566,
    567,
    568,
    569,
    570,
    571,
    572,
    573,
    574,
    575,
    576,
    577,
    578,
    579,
    580,
    581,
    582,
    583,
    584,
    585,
    586,
    587,
    588,
    589,
    590,
    591,
    592,
    593,
    594,
    595,
    596,
    597,
    598,
    599,
    600,
    601,
    602,
    603,
    604,
    605,
    606,
    607,
    608,
    609,
    610,
    611,
    612,
    613,
    614,
    615,
    616,
    617,
    618,
    619,
    620,
    621,
    622,
    623,
    624,
    625,
    626,
    627,
    628,
    629,
    630,
    631,
    632,
    633,
    634,
    635,
    636,
    637,
    638,
    639,
    640,
    641,
    642,
    643,
    644,
    645,
    646,
    647,
    648,
    649,
    650,
    651,
    652,
    653,
    654,
    655,
    656,
    657,
    658,
    659,
    660,
    661,
    662,
    663,
    664,
    665,
    666,
    667,
    668,
    669,
    670,
    671,
    672,
    673,
    674,
    675,
    676,
    677,
    678,
    679,
    680,
    681,
    682,
    683,
    684,
    685,
    686,
    687,
    688,
    689,
    690,
    691,
    692,
    693,
    694,
    695,
    696,
    697,
    698,
    699,
    700,
    701,
    702,
    703,
    704,
    705,
    706,
    707,
    708,
    709,
    710,
    711,
    712,
    713,
    714,
    715,
    716,
    717,
    718,
    719,
    720,
    721,
    722,
    723,
    724,
    725,
    726,
    727,
    728,
    729,
    730,
    731,
    732,
    733,
    734,
    735,
    736,
    737,
    738,
    739,
    740,
    741,
    742,
    743,
    744,
    745,
    746,
    747,
    748,
    749,
    750,
    751,
    752,
    753,
    754,
    755,
    756,
    757,
    758,
    759,
    760,
    761,
    762,
    763,
    764,
    765,
    766,
    767,
    768,
    769,
    770,
    771,
    772,
    773,
    774,
    775,
    776,
    777,
    778,
    779,
    780,
    781,
    782,
    783,
    784,
    785,
    786,
    787,
    788,
    789,
    790,
    791,
    792,
    793,
    794,
    795,
    796,
    797,
    798,
    799,
    800,
    801,
    802,
    803,
    804,
    805,
    806,
    807,
    808,
    809,
    810,
    811,
    812,
    813,
    814,
    815,
    816,
    817,
    818
  ],
  "stringVals": [
    "goo_hit",
    "spectre_attack",
    "spectre_death",
    "spectre_hit",
    "abyssal_attack",
    "abyssal_death",
    "abyssal_hit",
    "abyssal_leech_death",
    "abyssal_leech_hit",
    "abyssal_leech_suck",
    "abyssal_walker_attack",
    "abyssal_walker_death",
    "abyssal_walker_hit",
    "fourface_attack",
    "fourface_death",
    "fourface_hit",
    "fourface_ranged",
    "animated_death",
    "animated_death2",
    "animated_hit",
    "banshee_attack",
    "banshee_attack_earmuffs",
    "banshee_attack_normal",
    "banshee_death",
    "banshee_hit",
    "basilisk_attack",
    "basilisk_attack2",
    "basilisk_death",
    "basilisk_hit",
    "bat_attack",
    "bat_death",
    "bat_hit",
    "firebat_attack",
    "firebat_death",
    "firebat_hit",
    "anger_bear_attack",
    "anger_bear_death",
    "anger_bear_hit",
    "bear_attack",
    "bear_attack_undead",
    "bear_attack_undead_02",
    "bear_attack_undead_stomp",
    "bear_attack_undead_stomp_02",
    "bear_attack_undead_stomp_impact",
    "bear_attack_undead_stomp_impact_01",
    "bear_death",
    "bear_death_undead",
    "bear_death_undead_02",
    "bear_hit",
    "bear_hit_undead",
    "bear_hit_undead_02",
    "bear_undead_rock_fall",
    "bearman_attack",
    "bearman_death",
    "bearman_hit",
    "bird_attack",
    "bird_death",
    "bird_hit",
    "seagull_attack",
    "seagull_death",
    "seagull_hit",
    "bloodveld_attack",
    "bloodveld_death",
    "bloodveld_hit",
    "large_boneguard_attack",
    "large_boneguard_death",
    "large_boneguard_hit",
    "small_boneguard_attack",
    "small_boneguard_death",
    "small_boneguard_hit",
    "boulder_loop",
    "boulder_rolling_loop",
    "brawler_attack",
    "brawler_cry",
    "brawler_death",
    "brawler_hit",
    "camel_disgruntled",
    "catablepon_attack",
    "catablepon_death",
    "catablepon_hit",
    "catablepon_hit2",
    "cat_attack",
    "cat_death",
    "cat_hiss",
    "cat_hit",
    "kittens_mew",
    "kitten_attack",
    "kitten_death",
    "kitten_hit",
    "purr",
    "cave_crawler_attack",
    "cave_crawler_death",
    "cave_crawler_hit",
    "chaos_elemental_attack",
    "chaos_elemental_confusion_cast",
    "chaos_elemental_confusion_impact",
    "chaos_elemental_death",
    "chaos_elemental_discord",
    "chaos_elemental_discord_cast",
    "chaos_elemental_discord_impact",
    "chaos_elemental_hit",
    "chaos_elemental_madness_cast",
    "chaos_elemental_madness_impact",
    "chicken_attack",
    "chicken_death",
    "chicken_hit",
    "lay_egg",
    "rubber_chicken_cluck",
    "chinchompa_attack",
    "chinchompa_explode",
    "chinchompa_hit",
    "chinchompa_trapped",
    "cockatrice_attack",
    "cockatrice_death",
    "cockatrice_hit",
    "Sum1_beast_walk1",
    "Sum1_beast_walk2",
    "Sum1_beast_walk3",
    "Sum1_beast_walk4",
    "Sum1_beast_walk5",
    "Sum1_beast_walk6",
    "Sum1_spirit_beast_stamp_attack",
    "Sum1_spirit_beast_swipe",
    "Sum2_corp_spirit_beast_mid_proj",
    "Sum2_corp_spirit_beast_mid_proj1",
    "Sum2_corp_spirit_beast_mid_proj2",
    "Sum2_corp_spirit_beast_strong_proj",
    "Sum2_corp_spirit_beast_strong_proj1",
    "Sum2_corp_spirit_beast_strong_proj2",
    "Sum2_corp_spirit_beast_weak_proj",
    "Sum2_corp_spirit_beast_weak_proj1",
    "Sum2_corp_spirit_beast_weak_proj2",
    "Sum2_dark_core_launch",
    "Sum2_dark_core_ready",
    "Sum2_spirit_beast_death",
    "Sum2_spirit_beast_death1",
    "Sum2_spirit_beast_hit",
    "cosmic_entity_death",
    "cosmic_entity_hit",
    "calf_attack",
    "calf_death",
    "calf_hit",
    "cow_attack",
    "cow_death",
    "cow_hit",
    "milk_cow",
    "milk_cow2",
    "yak_attack",
    "yak_death",
    "yak_hit",
    "small_crab_attack",
    "small_crab_death",
    "small_crab_hit",
    "hand_attack",
    "hand_death",
    "hand_hit",
    "creeper_attack",
    "creeper_death",
    "creeper_hit",
    "creeper_impact",
    "creeper_spit",
    "fake_creeper_death",
    "crocodile_attack",
    "crocodile_death",
    "crocodile_hit",
    "dark_beast_attack",
    "dark_beast_death",
    "dark_beast_hit",
    "defiler_attack",
    "defiler_death",
    "defiler_hit",
    "defiler_spike",
    "black_demon_attack",
    "black_demon_death",
    "black_demon_hit",
    "demon_attack",
    "demon_champion_attack",
    "demon_champion_death",
    "demon_champion_hit",
    "demon_death",
    "demon_hit",
    "dog_attack",
    "dog_death",
    "dog_hit",
    "babydragon_attack",
    "babydragon_death",
    "babydragon_hit",
    "dragon_attack",
    "dragon_death",
    "dragon_hit",
    "duck_death",
    "duck_hit",
    "quack",
    "dust_devil_attack",
    "dust_devil_death",
    "dust_devil_hit",
    "dwarf_attack",
    "dwarf_death",
    "dwarf_hit",
    "dwarf_work",
    "eagle_attack",
    "eagle_attack2",
    "eagle_death",
    "eagle_hit",
    "elf_attack",
    "elf_death",
    "elf_hit",
    "fairy_death",
    "gargoyle_attack",
    "gargoyle_death",
    "gargoyle_hit",
    "ghast_appear",
    "ghast_attack",
    "ghast_death",
    "ghast_disappear",
    "ghast_hit",
    "ghost_attack",
    "ghost_attack2",
    "ghost_death",
    "ghost_hit",
    "ghost_hit2",
    "halloween_ghost_attack",
    "halloween_ghost_death",
    "halloween_ghost_hit",
    "ghoul_attack",
    "ghoul_champion_attack",
    "ghoul_death",
    "ghoul_hit",
    "earth_giant_attack",
    "fire_giant_attack",
    "giant_attack",
    "giant_champion_attack",
    "giant_death",
    "giant_hit",
    "moss_giant_attack",
    "giantcavebug_attack",
    "giantcavebug_death",
    "giantcavebug_hit",
    "gnome_attack",
    "gnome_death",
    "gnome_glider_attack",
    "gnome_hit",
    "gnome_tortoise_attack",
    "gnome_tortoise_death",
    "gnome_tortoise_hit",
    "gnome_tortoise_mounted_attack",
    "gnome_tortoise_mounted_death",
    "gnome_tortoise_mounted_hit",
    "anger_goblin_attack",
    "anger_goblin_death",
    "anger_goblin_hit",
    "cave_goblin_attack",
    "cave_goblin_death",
    "cave_goblin_hit",
    "goblin_armed",
    "goblin_attack",
    "goblin_axe_attack",
    "goblin_champion_attack",
    "goblin_death",
    "goblin_guard_attack",
    "goblin_hit",
    "goblin_hit_shield",
    "goblin_knife_attack",
    "goblin_shield",
    "goblin_snore",
    "goblin_snore2",
    "goblin_spear_attack",
    "goblin_staff_attack",
    "goblin_warhammer_attack",
    "hobgoblin_champion_hit",
    "golem_attack",
    "golem_death",
    "golem_hit",
    "gorak_attack",
    "gorak_death",
    "gorak_hit",
    "gorilla_attack",
    "gorilla_beatchest",
    "gorilla_beat_loop",
    "gorilla_death",
    "gorilla_hit",
    "gorilla_hit2",
    "growl",
    "growl2",
    "growl3",
    "growl4",
    "growl5",
    "growl6",
    "half_werewolf_attack",
    "half_werewolf_death",
    "half_werewolf_hit",
    "harpiebugswarm_attack",
    "harpiebugswarm_death",
    "harpiebugswarm_hit",
    "hopeless_attack",
    "hopeless_death",
    "hopeless_hit",
    "hopeless_suck",
    "cave_horror_howl",
    "jungle_horror_attack",
    "jungle_horror_attack2",
    "jungle_horror_death",
    "jungle_horror_hit",
    "barbarian_death",
    "barbarian_female_hit",
    "barbarian_grunt_attack",
    "barbarian_grunt_death",
    "barbarian_grunt_hit",
    "barbarian_hit",
    "female_death",
    "female_hit",
    "female_hit1",
    "female_hit2",
    "female_hit_1",
    "female_hit_2",
    "human_block_1",
    "human_death",
    "human_hit",
    "human_hit2",
    "human_hit3",
    "human_hit4",
    "human_hit5",
    "human_hit_1",
    "human_hit_2",
    "human_hit_3",
    "human_hit_4",
    "human_hit_6",
    "human_hit_7",
    "human_underwater_death",
    "huntingbeast_death",
    "kebbit_attack",
    "kebbit_caught",
    "kebbit_death",
    "kebbit_hit",
    "icelord_attack",
    "icelord_attack2",
    "icelord_death",
    "icelord_hit",
    "ice_warrior_death",
    "ice_warrior_hit",
    "icefiend_attack",
    "icefiend_death",
    "icefiend_hit",
    "imp_attack",
    "imp_cleaver_attack",
    "imp_death",
    "imp_hit",
    "imp_knife_attack",
    "insect_attack",
    "insect_death",
    "insect_hit",
    "insect_trapped",
    "kilrag_attack",
    "kilrag_death",
    "kilrag_hit",
    "jackal_attack",
    "jackal_death",
    "jackal_hit",
    "jelly",
    "jelly_attack",
    "jelly_death",
    "jelly_hit",
    "kalphite_crack_open",
    "kalphite_flyingqueen_attack",
    "kalphite_flyingqueen_death",
    "kalphite_flyingqueen_hit",
    "kalphite_queen_spines",
    "kalthite_egg_crack",
    "kalthite_lightning",
    "kalthite_lightning_glow",
    "kalthite_lightning_impact",
    "kalthite_lord_attack",
    "kalthite_lord_death",
    "kalthite_lord_hit",
    "kalthite_queen_attack",
    "kalthite_queen_death",
    "kalthite_queen_hit",
    "kalthite_queen_hit2",
    "kalthite_soldier_attack",
    "kalthite_soldier_death",
    "kalthite_soldier_hit",
    "kalthite_squeal",
    "kalthite_worker_attack",
    "kalthite_worker_death",
    "kalthite_worker_hit",
    "mandibles",
    "killerwatt_attack",
    "killerwatt_ball_attack",
    "killerwatt_ball_death",
    "killerwatt_ball_hit",
    "killerwatt_death",
    "killerwatt_electrocute",
    "killerwatt_electrocutes",
    "killerwatt_hit",
    "killerwatt_transforms",
    "dragonbreath",
    "kingicebreath",
    "lightningbreath",
    "toxicbreath",
    "kurask_attack",
    "kurask_death",
    "kurask_hit",
    "lava_hit",
    "lava_hit_2",
    "lava_launch",
    "lava_launch_and_hit",
    "lavabeast_attack",
    "lavabeast_death",
    "lavabeast_hit",
    "magmaquiris_attack",
    "magmaquiris_death",
    "magmaquiris_hit",
    "magmaquiris_spines",
    "leech_death",
    "leech_hit",
    "leech_suck",
    "lizard_attack",
    "lizard_death",
    "lizard_hit",
    "lizardman_attack",
    "lizardman_death",
    "lizardman_hit",
    "lizard_cleric_attack",
    "lizard_cleric_death",
    "lizard_cleric_hit",
    "locust_attack",
    "locust_death",
    "locust_hit",
    "locust_mage_attack",
    "locust_mage_death",
    "locust_mage_hit",
    "locust_rider_death",
    "locust_rider_hit",
    "locust_rider_rear",
    "mammoth_attack",
    "mammoth_death",
    "mammoth_hit",
    "minotaur_attack",
    "minotaur_death",
    "minotaur_hit",
    "mudskipper_attack",
    "mudskipper_death",
    "mudskipper_hit",
    "mugre_attack",
    "mugre_death",
    "mugre_hit",
    "underwater_mogre_attack",
    "underwater_mugre_attack",
    "underwater_mugre_death",
    "underwater_mugre_hit",
    "molanisk_attack",
    "molanisk_death",
    "molanisk_hit",
    "monkey_attack",
    "monkey_caught",
    "monkey_death",
    "monkey_escape",
    "monkey_hit",
    "zombie_monkey_attack",
    "zombie_monkey_death",
    "zombie_monkey_hit",
    "giant_mosquito_attack",
    "mummy_appear",
    "mummy_ash_death",
    "mummy_attack",
    "mummy_death",
    "mummy_hit",
    "mummy_on_fire_attack",
    "mummy_on_fire_death",
    "nechrayel_attack",
    "nechrayel_death",
    "nechrayel_hit",
    "npc_trapped",
    "orc_attack",
    "orc_death",
    "orc_hit",
    "barklike",
    "birdlike",
    "cry1",
    "cry3",
    "goblin2",
    "horse_hit",
    "nasty_tree_attack",
    "rock_spirit",
    "rock_spirit_appear",
    "scream",
    "scream2",
    "otherworld_attack",
    "otherworld_death",
    "otherworld_hit",
    "screech2",
    "panther_attack",
    "panther_death",
    "panther_hit",
    "penance_fighter_attack",
    "penance_fighter_death",
    "penance_fighter_hit",
    "penance_healer_heal",
    "penance_healer_poison",
    "penance_queen_attack",
    "penance_queen_death",
    "penance_queen_hit",
    "penance_queen_range",
    "penance_queen_range_impact",
    "penance_ranger_attack",
    "penance_ranger_death",
    "penance_ranger_hit",
    "penance_ranger_range_hit",
    "penance_spawn_attack",
    "penance_spawn_death",
    "penance_spawn_hit",
    "penance_spawn_spawn",
    "penguinsheep_escape",
    "penguin_attack",
    "penguin_death",
    "penguin_hit",
    "pheasant_attack",
    "pheasant_death",
    "pheasant_hit",
    "pig_attack",
    "pig_death",
    "pig_hit",
    "pyrefiend_attack",
    "pyrefiend_death",
    "pyrefiend_hit",
    "rabbit_atmospheric",
    "rabbit_attack",
    "rabbit_death",
    "rabbit_hit",
    "anger_rat_attack",
    "anger_rat_death",
    "anger_rat_hit",
    "king_rat_attack",
    "king_rat_death",
    "king_rat_hiss",
    "king_rat_hit",
    "rat_attack",
    "rat_death",
    "rat_drown",
    "rat_hit",
    "ravager_attack",
    "ravager_death",
    "ravager_hit",
    "giant_roc_appear",
    "giant_roc_approaches",
    "giant_roc_boulder_attack",
    "giant_roc_death",
    "giant_roc_flap_attack",
    "giant_roc_hit",
    "giant_roc_peck_attack",
    "rock_crab_attack",
    "rock_crab_death",
    "rock_crab_hit",
    "small_rock_crab_attack",
    "small_rock_crab_death",
    "small_rock_crab_hit",
    "underwater_rock_crab_attack",
    "underwater_rock_crab_death",
    "underwater_rock_crab_hit",
    "rock_lobster_attack",
    "rock_lobster_death",
    "rock_lobster_hit",
    "rockslug_attack",
    "rockslug_death",
    "rockslug_hit",
    "equip_salamander",
    "salamander_attack",
    "salamander_belch",
    "salamander_blast",
    "salamander_blaze",
    "salamander_death",
    "salamander_flame",
    "salamander_hit",
    "salamander_scorch",
    "scarab_boss_attack",
    "scarab_boss_death",
    "scarab_boss_hit",
    "scorpion_attack",
    "scorpion_death",
    "scorpion_hit",
    "shade_appear",
    "shade_attack",
    "shade_death",
    "shade_hit",
    "shade_sigh",
    "shadow_beast_attack",
    "shadow_beast_death",
    "shadow_beast_hit",
    "shark_attack",
    "shark_death",
    "shark_hit",
    "angry_sheep",
    "cattleprod",
    "lambcall1",
    "ram_attack",
    "ram_attack2",
    "ram_death",
    "ram_hit",
    "shear_once",
    "shear_sheep",
    "sheepcall1",
    "sheep_attack",
    "sheep_death",
    "sheep_hit",
    "shifter_attack",
    "shifter_death",
    "shifter_hit",
    "skwy_bite",
    "skwy_death",
    "skwy_hit",
    "skwy_ice",
    "skwy_tail",
    "armed_skeleton",
    "armed_skeleton_hit",
    "hatchet_skeleton_attack",
    "mace_skeleton_attack",
    "skeletal_gorilla_attack",
    "skeletal_gorilla_death",
    "skeletal_gorilla_hit",
    "skeletons_hiss",
    "skeleton_attack",
    "skeleton_death",
    "skelly_hit",
    "warhammer_skeleton_attack",
    "slagilith_appear",
    "slagilith_attack",
    "slagilith_death",
    "slagilith_hit",
    "slime_attack",
    "slime_death",
    "slime_hit",
    "snail_death",
    "snail_hit",
    "snail_spit",
    "snail_spit2",
    "big_seasnake_attack",
    "big_seasnake_death",
    "big_seasnake_hit",
    "seasnake_attack",
    "seasnake_death",
    "seasnake_hit",
    "snaketest1",
    "snake_attack",
    "snake_death",
    "snake_hiss",
    "snake_hit",
    "sphinx_attack",
    "sphinx_death",
    "sphinx_hit",
    "big_spider_attack",
    "big_spider_death",
    "big_spider_hit",
    "small_spider_attack",
    "small_spider_death",
    "small_spider_hit",
    "spinner_attack",
    "spinner_death",
    "spinner_hit",
    "spinner_spin",
    "splatter_attack",
    "splatter_death",
    "splatter_hit",
    "stag_attack",
    "stag_death",
    "stag_hit",
    "sukqa_attack",
    "sukqa_death",
    "sukqa_hit",
    "swarm_appear",
    "swarm_attack",
    "swarm_death",
    "swarm_hit",
    "tanglewood_large_attack",
    "tanglewood_large_death",
    "tanglewood_large_hit",
    "tanglewood_small_attack",
    "tanglewood_small_death",
    "tanglewood_small_hit",
    "dragonkin_attack",
    "dragonkin_death",
    "dragonkin_hit",
    "terrorbird_appear",
    "terrorbird_attack",
    "terrorbird_death",
    "terrorbird_hit",
    "tiger_attack",
    "tiger_death",
    "tiger_hit",
    "giant_toad_attack",
    "giant_toad_death",
    "giant_toad_hit",
    "toad2",
    "toad_attack",
    "toad_death",
    "toad_hit",
    "torcher_attack",
    "torcher_death",
    "torcher_fire",
    "torcher_hit",
    "town_crier_ring_bell",
    "town_crier_ring_bell_down-old",
    "town_crier_ring_bell_down",
    "town_crier_ring_bell_up-old",
    "town_crier_ring_bell_up",
    "town_crier_scratch_head",
    "ice_troll_attack",
    "ice_troll_hit",
    "king_troll_hit",
    "rock_impact",
    "sea_troll_appear",
    "sea_troll_attack",
    "sea_troll_death",
    "sea_troll_general",
    "sea_troll_hit",
    "sea_troll_queen_appear",
    "sea_troll_queen_attack",
    "sea_troll_queen_death",
    "sea_troll_queen_hit",
    "stone_impact",
    "trolls_shout",
    "troll_armour",
    "troll_attack",
    "troll_champion_attack",
    "troll_champion_death",
    "troll_champion_hit",
    "troll_champion_swing",
    "troll_champion_sword_attack",
    "troll_death",
    "troll_guard_attack",
    "troll_hit",
    "troll_snore",
    "troll_throw_rock",
    "troll_with_rock_attack",
    "troll_with_stone_shield_hit",
    "turoth_attack",
    "turoth_death",
    "turoth_hit",
    "tzhaar_hur_attack",
    "tzhaar_hur_death",
    "tzhaar_hur_hit",
    "tzhaar_ket_attack_club",
    "tzhaar_ket_attack_multiclub",
    "tzhaar_ket_attack_punch",
    "tzhaar_ket_death",
    "tzhaar_ket_hit",
    "tzhaar_ket_hit_shield",
    "tzhaar_ket_hit_shield2",
    "tzhaar_mej_attack",
    "tzhaar_mej_attack_punch",
    "tzhaar_mej_attack_staff",
    "tzhaar_mej_death",
    "tzhaar_mej_hit",
    "tzhaar_staff",
    "tzhaar_xil_attack_blade",
    "tzhaar_xil_attack_fork",
    "tzhaar_xil_attack_multiblade",
    "tzhaar_xil_attack_ring",
    "tzhaar_xil_death",
    "tzhaar_xil_hit",
    "anger_unicorn_attack",
    "anger_unicorn_death",
    "anger_unicorn_hit",
    "flapping",
    "vampire_arrives",
    "vampire_attack",
    "vampire_death",
    "vampire_death_mist",
    "vampire_flap_loop",
    "vampire_flies_away",
    "vampire_hit",
    "vampire_land",
    "vampire_suck",
    "vampire_transform",
    "vampire_weaken",
    "vyrewatch_vampire_attack",
    "vyrewatch_vampire_death",
    "vyrewatch_vampire_hit",
    "vulture_attack",
    "vulture_death",
    "vulture_hit",
    "wall_beast_attack",
    "wall_beast_death",
    "wall_beast_foiled",
    "wall_beast_hit",
    "wall_beast_swipe",
    "water_creature_attack",
    "water_creature_death",
    "water_creature_hit",
    "water_creature_spines",
    "waterfiend_attack",
    "waterfiend_death",
    "waterfiend_hit",
    "elemental_summon_ghost",
    "elemental_summon_skeleton",
    "elemental_summon_skeletonmage",
    "elemental_summon_zombie",
    "elemental_wizard_death",
    "human_into_mushroom",
    "mushroom_into_human",
    "wolf_attack",
    "wolf_attack2",
    "wolf_death",
    "wolf_hit",
    "zogre_attack",
    "zogre_axe_attack",
    "zogre_death",
    "zogre_hit",
    "zogre_shield_hit",
    "zombie2",
    "zombie_atmospheric1",
    "zombie_attack",
    "zombie_champion_attack",
    "zombie_death",
    "zombie_hit",
    "zombie_pirate_attack",
    "zombie_pirate_death",
    "zombie_pirate_hit",
    "zombie_pirate_limbfall",
    "zombie_pirate_punch"
  ]
}