{
  "id": 3660,
  "keyType": "INTEGER",
  "valType": "STRING",
  "defaultString": "100%",
  "defaultInt": 0,
  "size": 4,
  "keys": [
    0,
    1,
    2,
    3
  ],
  "stringVals": [
    "100%",
    "200%",
    "300%",
    "400%"
  ]
}