{
  "id": 3702,
  "intVals": [
    307,
    309,
    22846,
    22844,
    1585,
    23122,
    11323,
    22842,
    311,
    10129,
    21028,
    21031,
    21033,
    23762,
    23764,
    25114,
    25373,
    25059,
    25367,
    303,
    305,
    301,
    313,
    11940,
    11334,
    314,
    10087,
    22818,
    13431,
    22820,
    25588,
    3150,
    13258,
    13259,
    13260,
    13261,
    25592,
    25594,
    25596,
    25598,
    3157,
    3159,
    21652,
    6674,
    2438,
    151,
    153,
    155,
    7534,
    7535,
    6666,
    25557,
    21649,
    22941,
    22943,
    22945,
    22947
  ],
  "keyType": "INTEGER",
  "valType": "NAMEDOBJ",
  "defaultString": "null",
  "defaultInt": -1,
  "size": 57,
  "keys": [
    0,
    1,
    2,
    3,
    4,
    5,
    6,
    7,
    8,
    9,
    10,
    11,
    12,
    13,
    14,
    15,
    16,
    17,
    18,
    19,
    20,
    21,
    22,
    23,
    24,
    25,
    26,
    27,
    28,
    29,
    30,
    31,
    32,
    33,
    34,
    35,
    36,
    37,
    38,
    39,
    40,
    41,
    42,
    43,
    44,
    45,
    46,
    47,
    48,
    49,
    50,
    51,
    52,
    53,
    54,
    55,
    56
  ]
}