{
  "id": 3754,
  "intVals": [
    13322,
    28229,
    28230,
    28231,
    28232,
    28233,
    28234,
    28235,
    28236,
    28237,
    28669,
    28670
  ],
  "keyType": "INTEGER",
  "valType": "NAMEDOBJ",
  "defaultString": "null",
  "defaultInt": -1,
  "size": 12,
  "keys": [
    0,
    1,
    2,
    3,
    4,
    5,
    6,
    7,
    8,
    9,
    10,
    11
  ]
}