{
  "id": 3759,
  "intVals": [
    25709,
    556,
    557,
    555,
    554,
    558,
    559,
    562,
    560,
    563
  ],
  "keyType": "INTEGER",
  "valType": "OBJ",
  "defaultString": "null",
  "defaultInt": -1,
  "size": 10,
  "keys": [
    0,
    4,
    3,
    1,
    2,
    5,
    6,
    8,
    9,
    7
  ]
}