{
  "id": 3771,
  "intVals": [
    4,
    1,
    3,
    2
  ],
  "keyType": "INTEGER",
  "valType": "INTEGER",
  "defaultString": "null",
  "defaultInt": -1,
  "size": 4,
  "keys": [
    5,
    6,
    9,
    10
  ]
}