{
  "id": 3777,
  "intVals": [
    6,
    4,
    5,
    3,
    1,
    1,
    2,
    4,
    8,
    9,
    6,
    9,
    6,
    2,
    9,
    7,
    2,
    8,
    5,
    1,
    6,
    9,
    5,
    5,
    2,
    1,
    4,
    6
  ],
  "keyType": "INTEGER",
  "valType": "INTEGER",
  "defaultString": "null",
  "defaultInt": -1,
  "size": 28,
  "keys": [
    0,
    1,
    3,
    5,
    7,
    9,
    11,
    13,
    16,
    22,
    25,
    30,
    32,
    33,
    47,
    48,
    50,
    55,
    58,
    64,
    67,
    69,
    71,
    73,
    75,
    77,
    79,
    80
  ]
}