{
  "id": 3811,
  "keyType": "INTEGER",
  "valType": "STRING",
  "defaultString": "",
  "defaultInt": 0,
  "size": 19,
  "keys": [
    -1,
    0,
    1,
    2,
    3,
    4,
    5,
    6,
    7,
    8,
    9,
    10,
    11,
    12,
    13,
    14,
    15,
    16,
    17
  ],
  "stringVals": [
    "Activity",
    "Revenants",
    "Deep Wilderness",
    "Chaos Altar",
    "Last Man Standing",
    "Soul Wars",
    "Castle Wars",
    "Dharoks",
    "1 Defence",
    "Berserker",
    "Med-Level",
    "Free to play",
    "Rimmington",
    "Camelot",
    "Lumbridge",
    "Grand Exchange",
    "Edgeville",
    "Ferox Enclave",
    "Risk-free"
  ]
}