{
  "id": 3936,
  "intVals": [
    3722,
    3721,
    3721,
    3721,
    3721,
    3721
  ],
  "keyType": "INTEGER",
  "valType": "STRUCT",
  "defaultString": "null",
  "defaultInt": 3721,
  "size": 6,
  "keys": [
    0,
    1,
    2,
    3,
    4,
    5
  ]
}