{
  "id": 3946,
  "keyType": "INTEGER",
  "valType": "STRING",
  "defaultString": "",
  "defaultInt": 0,
  "size": 7,
  "keys": [
    0,
    1,
    2,
    3,
    4,
    5,
    6
  ],
  "stringVals": [
    "all",
    "easy",
    "medium",
    "hard",
    "elite",
    "master",
    "grandmaster"
  ]
}