{
  "id": 3957,
  "keyType": "INTEGER",
  "valType": "STRING",
  "defaultString": "null",
  "defaultInt": 0,
  "size": 2,
  "keys": [
    0,
    1
  ],
  "stringVals": [
    "The ability to combine <col=ffffff>Vorkath's Head</col> with a <col=ffffff>Dragon Hunter Crossbow</col> to recolour it",
    "The ability to make a <col=ffffff>TzTok Slayer Helmet</col>"
  ]
}