{
  "id": 3965,
  "intVals": [
    3399,
    3400,
    3401,
    3402,
    3403,
    3404
  ],
  "keyType": "INTEGER",
  "valType": "GRAPHIC",
  "defaultString": "null",
  "defaultInt": -1,
  "size": 6,
  "keys": [
    1,
    2,
    3,
    4,
    5,
    6
  ]
}