{
  "id": 3973,
  "keyType": "INTEGER",
  "valType": "STRING",
  "defaultString": "",
  "defaultInt": 0,
  "size": 4,
  "keys": [
    0,
    1,
    2,
    3
  ],
  "stringVals": [
    "Monster",
    "Boss",
    "Skilling Boss",
    "Raid"
  ]
}