{
  "id": 3994,
  "keyType": "INTEGER",
  "valType": "STRING",
  "defaultString": "Depends on combat levels",
  "defaultInt": 0,
  "size": 5,
  "keys": [
    0,
    1,
    2,
    3,
    4
  ],
  "stringVals": [
    "Depends on combat levels",
    "Always long-tap",
    "Tap where available",
    "Hidden",
    "Long-tap for clanmates"
  ]
}