{
  "id": 4011,
  "intVals": [
    14898,
    14899,
    14901,
    14903,
    14904,
    14905,
    14911,
    14919,
    14920,
    14921,
    14922,
    14923,
    14924,
    14925
  ],
  "keyType": "INTEGER",
  "valType": "LOC",
  "defaultString": "null",
  "defaultInt": -1,
  "size": 14,
  "keys": [
    0,
    1,
    2,
    3,
    4,
    5,
    6,
    7,
    8,
    9,
    10,
    11,
    12,
    13
  ]
}