{
  "id": 4016,
  "intVals": [
    22569,
    22572,
    22552,
    22557,
    22564,
    22664
  ],
  "keyType": "INTEGER",
  "valType": "LOC",
  "defaultString": "null",
  "defaultInt": -1,
  "size": 6,
  "keys": [
    0,
    1,
    2,
    3,
    4,
    5
  ]
}