{
  "id": 4019,
  "intVals": [
    36221,
    36225,
    36227,
    36228,
    36229,
    36231,
    36233,
    36234,
    36232,
    36235,
    36236,
    36237,
    36238,
    36241,
    36242,
    36243,
    36244,
    36245,
    36246
  ],
  "keyType": "INTEGER",
  "valType": "LOC",
  "defaultString": "null",
  "defaultInt": -1,
  "size": 19,
  "keys": [
    0,
    1,
    2,
    3,
    4,
    5,
    6,
    7,
    8,
    9,
    10,
    11,
    12,
    13,
    14,
    15,
    16,
    17,
    18
  ]
}