{
  "id": 4025,
  "intVals": [
    3636,
    2732,
    2852,
    2853,
    3657,
    3654,
    4461,
    322,
    4496,
    3655,
    3016,
    2154,
    3007,
    3709,
    3710,
    2232,
    299,
    780,
    3641,
    319,
    3761,
    4462,
    4493,
    4688,
    2255,
    3107,
    3108,
    3110,
    3599,
    3744,
    3751,
    3752,
    3753,
    2735,
    3754,
    4286,
    3755,
    4157,
    4249,
    4250,
    4251,
    4252,
    3631,
    1055,
    3006,
    3757,
    1122,
    1233,
    3632,
    2768,
    2730,
    1052,
    997,
    2886,
    3633,
    3040,
    3041,
    3043,
    3042,
    3634,
    3017,
    3018,
    3019,
    3020,
    3021,
    3022,
    3023,
    3024,
    3025,
    3026,
    3027,
    3028,
    3029,
    3030,
    3031,
    3032,
    3033,
    3034,
    3035,
    3036,
    3037,
    3038,
    3734,
    3112,
    3113,
    3114,
    3115,
    3116,
    3117,
    3658,
    3759,
    306,
    308,
    4148,
    364,
    1012,
    1022,
    365,
    367,
    368,
    369,
    370,
    371,
    372,
    373,
    374,
    4456,
    4691,
    4692,
    847,
    976,
    3001
  ],
  "keyType": "INTEGER",
  "valType": "STRUCT",
  "defaultString": "null",
  "defaultInt": -1,
  "size": 112,
  "keys": [
    0,
    1,
    2,
    3,
    4,
    5,
    6,
    7,
    8,
    9,
    10,
    11,
    12,
    13,
    14,
    15,
    16,
    17,
    18,
    19,
    20,
    21,
    22,
    23,
    24,
    25,
    26,
    27,
    28,
    29,
    30,
    31,
    32,
    33,
    34,
    35,
    36,
    37,
    38,
    39,
    40,
    41,
    42,
    43,
    44,
    45,
    46,
    47,
    48,
    49,
    50,
    51,
    52,
    53,
    54,
    55,
    56,
    57,
    58,
    59,
    60,
    61,
    62,
    63,
    64,
    65,
    66,
    67,
    68,
    69,
    70,
    71,
    72,
    73,
    74,
    75,
    76,
    77,
    78,
    79,
    80,
    81,
    82,
    83,
    84,
    85,
    86,
    87,
    88,
    89,
    90,
    91,
    92,
    93,
    94,
    95,
    96,
    97,
    98,
    99,
    100,
    101,
    102,
    103,
    104,
    105,
    106,
    107,
    108,
    109,
    110,
    111
  ]
}