{
  "id": 4065,
  "keyType": "INTEGER",
  "valType": "STRING",
  "defaultString": "On when carrying a pickaxe",
  "defaultInt": 0,
  "size": 3,
  "keys": [
    0,
    1,
    2
  ],
  "stringVals": [
    "On",
    "On when carrying a pickaxe",
    "Off"
  ]
}