{
  "id": 4075,
  "intVals": [
    37,
    19,
    19,
    24,
    24,
    24,
    24,
    35,
    35,
    39,
    39,
    21,
    42
  ],
  "keyType": "LOC",
  "valType": "INTEGER",
  "defaultString": "null",
  "defaultInt": 0,
  "size": 13,
  "keys": [
    17068,
    17049,
    17050,
    31852,
    31849,
    25526,
    25527,
    17042,
    17043,
    17062,
    17063,
    17047,
    17074
  ]
}