{
  "id": 4127,
  "intVals": [
    0,
    10,
    300,
    1500,
    3000,
    7500,
    15000
  ],
  "keyType": "INTEGER",
  "valType": "INTEGER",
  "defaultString": "null",
  "defaultInt": 0,
  "size": 7,
  "keys": [
    1,
    2,
    3,
    4,
    5,
    6,
    7
  ]
}