{
  "id": 4137,
  "intVals": [
    4114,
    4115,
    4116,
    4117,
    4118,
    4119,
    4120,
    4121,
    4122,
    4123,
    4124,
    4125,
    4126,
    4127,
    4128
  ],
  "keyType": "INTEGER",
  "valType": "STRUCT",
  "defaultString": "null",
  "defaultInt": -1,
  "size": 15,
  "keys": [
    14,
    5,
    3,
    8,
    6,
    1,
    10,
    15,
    2,
    4,
    9,
    12,
    7,
    11,
    13
  ]
}