{
  "id": 4181,
  "keyType": "INTEGER",
  "valType": "STRING",
  "defaultString": "All",
  "defaultInt": 0,
  "size": 16,
  "keys": [
    0,
    14,
    5,
    3,
    8,
    6,
    1,
    10,
    15,
    2,
    4,
    9,
    12,
    7,
    11,
    13
  ],
  "stringVals": [
    "All",
    "Twin Strikes",
    "Double Tap",
    "Chain Magic",
    "Fast Metabolism",
    "Drakan's Touch",
    "Absolute Unit",
    "Knife's Edge",
    "Unchained Talent",
    "The Alchemist",
    "The Craftsman",
    "Greedy Gatherer",
    "Personal Banker",
    "Endless Knowledge",
    "Last Recall",
    "Trailblazer"
  ]
}