{
  "id": 4186,
  "intVals": [
    4017,
    4018,
    4019,
    4020,
    4021,
    4022,
    4023,
    4024,
    4025,
    4026,
    4027,
    4028,
    4029,
    4030,
    4031,
    4032,
    4033,
    4034,
    4035,
    4036
  ],
  "keyType": "INTEGER",
  "valType": "STRUCT",
  "defaultString": "null",
  "defaultInt": -1,
  "size": 20,
  "keys": [
    0,
    1,
    2,
    3,
    4,
    5,
    6,
    7,
    8,
    9,
    10,
    11,
    12,
    13,
    14,
    15,
    16,
    17,
    18,
    19
  ]
}