{
  "id": 4208,
  "keyType": "INTEGER",
  "valType": "STRING",
  "defaultString": "Standard Spellbook",
  "defaultInt": 0,
  "size": 3,
  "keys": [
    1,
    2,
    3
  ],
  "stringVals": [
    "Ancient Magicks",
    "Lunar Spellbook",
    "Arceuus Spellbook"
  ]
}