{
  "id": 4217,
  "intVals": [
    13107204,
    13107205,
    13107206,
    13107207,
    13107208,
    13107209,
    13107210,
    13107211
  ],
  "keyType": "INTEGER",
  "valType": "COMPONENT",
  "defaultString": "null",
  "defaultInt": -1,
  "size": 8,
  "keys": [
    0,
    1,
    2,
    3,
    4,
    5,
    6,
    7
  ]
}