{
  "id": 4254,
  "keyType": "INTEGER",
  "valType": "STRING",
  "defaultString": "",
  "defaultInt": 0,
  "size": 4,
  "keys": [
    1,
    2,
    3,
    4
  ],
  "stringVals": [
    "E",
    "SE",
    "SW",
    "S"
  ]
}