{
  "id": 4271,
  "intVals": [
    4354,
    4358,
    4359,
    4360,
    4361,
    4362,
    4363,
    4364
  ],
  "keyType": "INTEGER",
  "valType": "GRAPHIC",
  "defaultString": "null",
  "defaultInt": 4369,
  "size": 8,
  "keys": [
    1,
    2,
    3,
    4,
    5,
    6,
    7,
    8
  ]
}