{
  "id": 4285,
  "intVals": [
    49479751,
    49479752,
    49479753,
    49479754,
    49479755,
    49479756,
    49479757,
    49479758,
    49479759,
    49479760,
    49479761
  ],
  "keyType": "INTEGER",
  "valType": "COMPONENT",
  "defaultString": "null",
  "defaultInt": -1,
  "size": 11,
  "keys": [
    0,
    1,
    2,
    3,
    4,
    5,
    7,
    9,
    10,
    12,
    13
  ]
}