{
  "id": 4290,
  "intVals": [
    10,
    10,
    10,
    10,
    10,
    10,
    10,
    10
  ],
  "keyType": "INV",
  "valType": "INTEGER",
  "defaultString": "null",
  "defaultInt": -1,
  "size": 8,
  "keys": [
    799,
    800,
    801,
    802,
    803,
    804,
    805,
    806
  ]
}