{
  "id": 4323,
  "intVals": [
    30482,
    31300,
    30480,
    31301,
    30481,
    31302,
    50692,
    50691
  ],
  "keyType": "INTEGER",
  "valType": "LOC",
  "defaultString": "null",
  "defaultInt": -1,
  "size": 8,
  "keys": [
    0,
    1,
    2,
    3,
    4,
    5,
    6,
    7
  ]
}