{
  "id": 4325,
  "intVals": [
    14063,
    14062,
    14063,
    14062,
    14061,
    14062,
    14063,
    14062,
    14063
  ],
  "keyType": "INTEGER",
  "valType": "LOC",
  "defaultString": "null",
  "defaultInt": -1,
  "size": 9,
  "keys": [
    0,
    1,
    2,
    3,
    4,
    5,
    6,
    7,
    8
  ]
}