{
  "id": 4326,
  "intVals": [
    14066,
    14065,
    14066,
    14065,
    14064,
    14065,
    14066,
    14065,
    14066
  ],
  "keyType": "INTEGER",
  "valType": "LOC",
  "defaultString": "null",
  "defaultInt": -1,
  "size": 9,
  "keys": [
    0,
    1,
    2,
    3,
    4,
    5,
    6,
    7,
    8
  ]
}