{
  "id": 4331,
  "intVals": [
    14081,
    14080,
    14081,
    14080,
    14079,
    14080,
    14081,
    14080,
    14081
  ],
  "keyType": "INTEGER",
  "valType": "LOC",
  "defaultString": "null",
  "defaultInt": -1,
  "size": 9,
  "keys": [
    0,
    1,
    2,
    3,
    4,
    5,
    6,
    7,
    8
  ]
}