{
  "id": 4341,
  "intVals": [
    14117,
    14116,
    14117,
    14116,
    14115,
    14116,
    14117,
    14116,
    14117
  ],
  "keyType": "INTEGER",
  "valType": "LOC",
  "defaultString": "null",
  "defaultInt": -1,
  "size": 9,
  "keys": [
    0,
    1,
    2,
    3,
    4,
    5,
    6,
    7,
    8
  ]
}