{
  "id": 4362,
  "intVals": [
    14895,
    14840,
    14895,
    14840,
    43107,
    14840,
    14895,
    14840,
    14895
  ],
  "keyType": "INTEGER",
  "valType": "LOC",
  "defaultString": "null",
  "defaultInt": -1,
  "size": 9,
  "keys": [
    0,
    1,
    2,
    3,
    4,
    5,
    6,
    7,
    8
  ]
}