{
  "id": 4375,
  "intVals": [
    4323,
    4322,
    4321,
    4320,
    4319,
    4318,
    4317,
    4316,
    4315,
    4314,
    4313
  ],
  "keyType": "INTEGER",
  "valType": "STRUCT",
  "defaultString": "null",
  "defaultInt": -1,
  "size": 11,
  "keys": [
    1,
    2,
    3,
    4,
    5,
    6,
    7,
    8,
    9,
    10,
    11
  ]
}