{
  "id": 4381,
  "intVals": [
    27023,
    27025,
    27027,
    27029,
    27021,
    27012,
    27014,
    27017,
    27019
  ],
  "keyType": "INTEGER",
  "valType": "NAMEDOBJ",
  "defaultString": "null",
  "defaultInt": -1,
  "size": 9,
  "keys": [
    0,
    1,
    2,
    3,
    4,
    5,
    6,
    7,
    8
  ]
}