{
  "id": 4408,
  "keyType": "INTEGER",
  "valType": "STRING",
  "defaultString": "Bronze",
  "defaultInt": 0,
  "size": 7,
  "keys": [
    0,
    1,
    2,
    3,
    4,
    5,
    6
  ],
  "stringVals": [
    "Bronze",
    "Iron",
    "Steel",
    "Mithril",
    "Adamant",
    "Rune",
    "Dragon"
  ]
}