{
  "id": 4411,
  "intVals": [
    49807392,
    49807391,
    49807390,
    49807389,
    49807388,
    49807387,
    49807386,
    49807385,
    49807384,
    49807383,
    49807382,
    49807381,
    49807380,
    49807379,
    49807378,
    49807377,
    49807376,
    49807375,
    49807374,
    49807373
  ],
  "keyType": "INTEGER",
  "valType": "COMPONENT",
  "defaultString": "null",
  "defaultInt": -1,
  "size": 20,
  "keys": [
    0,
    1,
    2,
    3,
    4,
    5,
    6,
    7,
    8,
    9,
    10,
    11,
    12,
    13,
    14,
    15,
    16,
    17,
    18,
    19
  ]
}