{
  "id": 4417,
  "intVals": [
    1205,
    1277,
    1321,
    1375,
    1203,
    1279,
    1323,
    1363,
    1207,
    1281,
    1325,
    1365,
    1209,
    1285,
    1329,
    1369,
    1211,
    1287,
    1331,
    1371,
    1213,
    1289,
    1333,
    1373,
    4587,
    1377,
    1149,
    11335
  ],
  "keyType": "INTEGER",
  "valType": "OBJ",
  "defaultString": "null",
  "defaultInt": 1944,
  "size": 28,
  "keys": [
    0,
    1,
    2,
    3,
    4,
    5,
    6,
    7,
    8,
    9,
    10,
    11,
    12,
    13,
    14,
    15,
    16,
    17,
    18,
    19,
    20,
    21,
    22,
    23,
    24,
    25,
    26,
    27
  ]
}