{
  "id": 4594,
  "keyType": "INTEGER",
  "valType": "STRING",
  "defaultString": "Rune",
  "defaultInt": 0,
  "size": 22,
  "keys": [
    1,
    2,
    3,
    4,
    5,
    6,
    7,
    8,
    9,
    10,
    11,
    12,
    13,
    14,
    15,
    16,
    17,
    18,
    19,
    20,
    21,
    22
  ],
  "stringVals": [
    "Air",
    "Water",
    "Earth",
    "Fire",
    "Mind",
    "Chaos",
    "Death",
    "Blood",
    "Cosmic",
    "Nature",
    "Law",
    "Body",
    "Soul",
    "Astral",
    "Mist",
    "Mud",
    "Dust",
    "Lava",
    "Steam",
    "Smoke",
    "Wrath",
    "Sunfire"
  ]
}