{
  "id": 4595,
  "intVals": [
    60509910,
    60657376,
    60673778,
    60788521,
    60624677,
    60870400,
    61460233,
    60378909,
    60313367
  ],
  "keyType": "INTEGER",
  "valType": "COORDGRID",
  "defaultString": "null",
  "defaultInt": -1,
  "size": 9,
  "keys": [
    1,
    2,
    3,
    4,
    5,
    6,
    7,
    8,
    9
  ]
}