{
  "id": 4605,
  "intVals": [
    1821,
    1824,
    1825,
    1832,
    1835,
    1827,
    1831,
    1833,
    1829,
    1820,
    1828,
    1826,
    1819,
    1834,
    1842,
    1837,
    1840,
    1841,
    1838,
    1830,
    1839,
    1823,
    1836,
    1822
  ],
  "keyType": "INTEGER",
  "valType": "DBROW",
  "defaultString": "null",
  "defaultInt": -1,
  "size": 24,
  "keys": [
    0,
    1,
    2,
    3,
    4,
    5,
    6,
    7,
    8,
    9,
    10,
    11,
    12,
    13,
    14,
    15,
    16,
    17,
    18,
    19,
    20,
    21,
    22,
    23
  ]
}