{
  "id": 4615,
  "keyType": "INTEGER",
  "valType": "STRING",
  "defaultString": "null",
  "defaultInt": 0,
  "size": 53,
  "keys": [
    1,
    2,
    3,
    4,
    5,
    6,
    7,
    8,
    9,
    10,
    11,
    12,
    13,
    14,
    15,
    16,
    17,
    18,
    19,
    20,
    21,
    22,
    23,
    24,
    25,
    26,
    27,
    28,
    29,
    30,
    31,
    32,
    33,
    34,
    35,
    36,
    37,
    38,
    39,
    40,
    41,
    42,
    43,
    44,
    45,
    46,
    47,
    48,
    49,
    50,
    51,
    52,
    53
  ],
  "stringVals": [
    "Heraldic shield",
    "Heraldic helm",
    "Stole",
    "Headband",
    "Crozier",
    "Amulet of glory",
    "God book",
    "Combat bracelet",
    "Mitre",
    "Iban staff",
    "Boater",
    "Pharoah sceptre",
    "Slayer helm",
    "Ring of Wealth",
    "Bob Shirt",
    "Castle wars bracelet",
    "Pirate bandana",
    "Ring of duelling",
    "Team cape",
    "Imbued crystal bow",
    "Dragon pickaxe",
    "Fire cape",
    "Amulet of the damned",
    "Abyssal whip",
    "Lava battlestaff",
    "Bryophyta's staff",
    "Dragon defender",
    "Bandos godsword",
    "Zamorak godsword",
    "Dragon boots",
    "Dragon plateskirt",
    "Climbing boots",
    "Dragon chain",
    "Dragon square shield",
    "Dragon axe",
    "Farmer's hat",
    "Rune crossbow",
    "Bandos boots",
    "Dragon scimitar",
    "Tz'haar maul",
    "Fighter torso",
    "Ivandis weapon",
    "Ghostspeak Amulet",
    "Dragon Battleaxe",
    "Dragon 2h sword",
    "Dragon spear",
    "Dragon med helm",
    "Helm of Neitiznot",
    "Blue moon helm",
    "Blue moon chestplate",
    "Blue moon tassets",
    "Sunfire fanatic armour",
    "Arclight/Emberlight"
  ]
}