{
  "id": 4630,
  "intVals": [
    -1,
    20425,
    20422,
    20586,
    23593,
    20578,
    20405,
    23603,
    23605,
    23607,
    23595,
    23649,
    20423,
    20426,
    23599,
    20406,
    23653,
    23601,
    20407,
    23575,
    23567,
    23559,
    23551,
    23543,
    20390,
    23533,
    23650,
    27169,
    27185,
    27158,
    27159,
    27160,
    27161,
    27358
  ],
  "keyType": "INTEGER",
  "valType": "NAMEDOBJ",
  "defaultString": "null",
  "defaultInt": -1,
  "size": 34,
  "keys": [
    0,
    1,
    2,
    3,
    4,
    5,
    6,
    7,
    8,
    9,
    10,
    11,
    12,
    13,
    14,
    15,
    16,
    17,
    18,
    19,
    20,
    21,
    22,
    23,
    24,
    25,
    26,
    27,
    28,
    29,
    30,
    31,
    32,
    33
  ]
}