{
  "id": 4652,
  "intVals": [
    -1,
    27341,
    27339,
    230,
    27342,
    27340
  ],
  "keyType": "INTEGER",
  "valType": "NAMEDOBJ",
  "defaultString": "null",
  "defaultInt": -1,
  "size": 6,
  "keys": [
    0,
    1,
    2,
    -10,
    -11,
    -12
  ]
}