{
  "id": 4657,
  "intVals": [
    -1,
    27321,
    27319,
    27317,
    27315
  ],
  "keyType": "INTEGER",
  "valType": "NAMEDOBJ",
  "defaultString": "null",
  "defaultInt": -1,
  "size": 5,
  "keys": [
    0,
    1,
    2,
    3,
    4
  ]
}