{
  "id": 4664,
  "intVals": [
    417,
    418,
    419,
    420,
    421,
    422,
    423,
    424,
    425,
    426,
    427,
    428,
    429,
    430,
    431,
    432,
    433,
    434,
    435,
    436,
    437,
    438,
    439,
    440,
    441,
    442,
    444,
    445,
    447,
    448,
    449,
    542,
    543,
    603,
    752,
    949,
    1275,
    1276,
    1278,
    1688,
    2874,
    2933,
    2934,
    2971,
    5892,
    5893
  ],
  "keyType": "INTEGER",
  "valType": "STRUCT",
  "defaultString": "null",
  "defaultInt": -1,
  "size": 46,
  "keys": [
    0,
    1,
    2,
    3,
    4,
    5,
    6,
    7,
    8,
    9,
    10,
    11,
    12,
    13,
    14,
    15,
    16,
    17,
    18,
    19,
    20,
    21,
    22,
    23,
    24,
    25,
    26,
    27,
    28,
    29,
    30,
    31,
    32,
    33,
    34,
    35,
    36,
    37,
    38,
    39,
    40,
    41,
    42,
    43,
    44,
    45
  ]
}