{
  "id": 4829,
  "intVals": [
    5504,
    5507,
    5511,
    5509,
    4837,
    4841,
    5503,
    5505,
    5508,
    4838,
    5501,
    5506,
    4840,
    5502,
    5510
  ],
  "keyType": "INTEGER",
  "valType": "ENUM",
  "defaultString": "null",
  "defaultInt": -1,
  "size": 15,
  "keys": [
    0,
    1,
    2,
    3,
    4,
    5,
    6,
    7,
    8,
    9,
    10,
    11,
    12,
    13,
    14
  ]
}