{
  "id": 496,
  "intVals": [
    3612,
    2360,
    3613,
    3614,
    2363,
    3615,
    3616,
    3619,
    3620,
    2368,
    3621,
    2370,
    2371,
    2372,
    3622,
    2374,
    2375,
    2376,
    2377,
    2378,
    2379,
    2380,
    2381,
    2382,
    3623,
    3624,
    3625,
    3626,
    3627,
    3628,
    3631,
    3632,
    3633,
    3634,
    3635,
    2394,
    2395,
    2396,
    2397,
    2398,
    2399,
    2400,
    2401,
    2402,
    2403,
    2404,
    2405,
    2406,
    2407,
    2408,
    2409,
    2410,
    2411,
    2412,
    2413,
    2414,
    2415
  ],
  "keyType": "INTEGER",
  "valType": "DBROW",
  "defaultString": "null",
  "defaultInt": 3612,
  "size": 57,
  "keys": [
    0,
    1,
    2,
    3,
    4,
    5,
    6,
    7,
    8,
    9,
    10,
    11,
    12,
    13,
    14,
    15,
    16,
    17,
    18,
    19,
    20,
    21,
    22,
    23,
    24,
    25,
    26,
    27,
    28,
    29,
    30,
    31,
    32,
    33,
    34,
    35,
    36,
    37,
    38,
    39,
    40,
    41,
    42,
    43,
    44,
    45,
    46,
    47,
    48,
    49,
    50,
    51,
    52,
    53,
    54,
    55,
    56
  ]
}