{
  "id": 4961,
  "intVals": [
    1,
    1,
    1,
    1,
    1,
    1,
    1
  ],
  "keyType": "INTEGER",
  "valType": "BOOLEAN",
  "defaultString": "null",
  "defaultInt": 0,
  "size": 7,
  "keys": [
    0,
    1,
    3,
    4,
    5,
    6,
    20
  ]
}