{
  "id": 4976,
  "keyType": "INTEGER",
  "valType": "STRING",
  "defaultString": "No source string",
  "defaultInt": 0,
  "size": 122,
  "keys": [
    1,
    2,
    3,
    4,
    5,
    69,
    6,
    8,
    7,
    9,
    10,
    68,
    12,
    13,
    14,
    15,
    16,
    17,
    18,
    19,
    20,
    21,
    22,
    23,
    24,
    25,
    26,
    27,
    28,
    29,
    30,
    31,
    32,
    33,
    34,
    35,
    36,
    37,
    38,
    39,
    40,
    41,
    42,
    43,
    44,
    45,
    46,
    47,
    48,
    49,
    50,
    51,
    52,
    53,
    54,
    55,
    56,
    57,
    58,
    59,
    60,
    61,
    62,
    63,
    64,
    65,
    66,
    67,
    11,
    78,
    79,
    70,
    71,
    72,
    73,
    74,
    75,
    76,
    77,
    11,
    78,
    79,
    80,
    81,
    82,
    83,
    84,
    85,
    86,
    87,
    88,
    89,
    90,
    91,
    92,
    93,
    94,
    110,
    95,
    96,
    97,
    98,
    99,
    100,
    101,
    102,
    103,
    104,
    105,
    106,
    107,
    108,
    109,
    111,
    112,
    113,
    114,
    115,
    116,
    123,
    123,
    124
  ],
  "stringVals": [
    "Rogues' Den",
    "Fishing Trawler",
    "Drift Net Fishing",
    "Tempoross Reward Pool",
    "Blast Mine Ore",
    "Blast Mine Sack",
    "Rewards Guardian",
    "Gnome Restaurant Easy",
    "Gnome Restaurant Hard",
    "Temple Trekking",
    "TzHaar Fight Caves Gamble",
    "TzHaar Fight Caves",
    "The Gauntlet",
    "Hallowed Sepulchre",
    "The Inferno Gamble",
    "Tithe Farm (Fruits Harvested)",
    "Agility Arena",
    "Agility Pyramid",
    "Prifddinas Agility Course",
    "Dorgesh-Kaan Agility Course",
    "Ape Atoll Agility Course",
    "Werewolf Agility Course",
    "Draynor Rooftop Course",
    "Al Kharid Rooftop Course",
    "Varrock Rooftop Course",
    "Canifis Rooftop Course",
    "Falador Rooftop Course",
    "Seers' Village Rooftop Course",
    "Pollnivneach Rooftop Course",
    "Rellekka Rooftop Course",
    "Ardougne Rooftop Course",
    "Flower Patch",
    "Allotment Patch",
    "Belladonna Patch",
    "Bush Patch",
    "Cactus Patch",
    "Calquat Patch",
    "Tree Patch",
    "Herb Patch",
    "Hops Patch",
    "Vine Patch",
    "Mushroom Patch",
    "Seaweed Patch",
    "Fruit Tree Patch",
    "Spirit Tree Patch",
    "Bird House Trapping",
    "Bird Snaring",
    "Box Trapping",
    "Butterfly Netting",
    "Deadfall Trapping",
    "Falconry",
    "Implings",
    "Magic Box Trapping",
    "Pitfall Trapping",
    "Rabbit Snaring",
    "Tracking",
    "Net Trapping",
    "Herbiboar",
    "Camdozaal Vault",
    "Elves",
    "Vyres",
    "Barrows",
    "Shayzien Basic Course",
    "Shayzien Advanced Course",
    "Penguin Agility Course",
    "Wilderness Agility Course",
    "Gnome Stronghold Agility Course",
    "Motherlode Mine Sack",
    "Barbarian Assault Gamble - Low",
    "Barbarian Assault Gamble - Medium",
    "Barbarian Assault Gamble - High",
    "Chambers of Xeric",
    "Theatre of Blood",
    "Crystal chest",
    "Sinister Chest",
    "Muddy Chest",
    "TzHaar-Ket-Rak's Challenges",
    "The Corrupted Gauntlet",
    "The Inferno",
    "Barbarian Assault Gamble - Low",
    "Barbarian Assault Gamble - Medium",
    "Barbarian Assault Gamble - High",
    "Pest Control",
    "Wintertodt",
    "Net fishing (Saltwater)",
    "Bait fishing (Saltwater)",
    "Lure fishing (Freshwater)",
    "Bait fishing (Freshwater)",
    "Net fishing (Cave)",
    "Harpoon fishing (Cave)",
    "Pot fishing (Rare)",
    "Harpoon fishing (Rare)",
    "Big net fishing (Members)",
    "Harpoon fishing (Members)",
    "Pot fishing (Wilderness)",
    "Net fishing (Camdozaal)",
    "Big net fishing (Camdozaal)",
    "Bait fishing (Camdozaal)",
    "Net fishing (Minnows)",
    "Rod fishing (Lava)",
    "Aerial fishing",
    "Drift net fishing",
    "Karambwan fishing",
    "Net fishing (Karamja)",
    "Rod fishing (Barbarian)",
    "Harpoon fishing (Barbarian)",
    "Bait fishing (Piscarilius)",
    "Bait fishing (Zul-Andra)",
    "Harpoon fishing (Gauntlet)",
    "Harpoon fishing (Corrupted gauntlet)",
    "Bait fishing (Mor Ul Rek)",
    "Net fishing (Piscatoris)",
    "Harpoon fishing (Tempoross)",
    "PvP",
    "Deadman Bank Key",
    "Quiver Gamble",
    "House robbery",
    "Fortis Colosseum",
    "Moons of Peril",
    "Tormented Demons",
    "Moon Chest",
    "Colossal Wyrm Agility Course"
  ]
}