{
  "id": 4983,
  "keyType": "INTEGER",
  "valType": "STRING",
  "defaultString": "MSAAx8",
  "defaultInt": 0,
  "size": 4,
  "keys": [
    0,
    1,
    2,
    3
  ],
  "stringVals": [
    "Off",
    "MSAAx2",
    "MSAAx4",
    "MSAAx8"
  ]
}