{
  "id": 5012,
  "keyType": "INTEGER",
  "valType": "STRING",
  "defaultString": "",
  "defaultInt": 0,
  "size": 10,
  "keys": [
    0,
    1,
    2,
    3,
    4,
    5,
    6,
    7,
    8,
    9
  ],
  "stringVals": [
    "2",
    "6",
    "3",
    "5",
    "1",
    "9",
    "4",
    "0",
    "7",
    "8"
  ]
}