{
  "id": 5148,
  "intVals": [
    28250,
    28321,
    26241,
    26243,
    26245,
    28281,
    28270,
    28333,
    28276,
    28334
  ],
  "keyType": "INTEGER",
  "valType": "NAMEDOBJ",
  "defaultString": "null",
  "defaultInt": -1,
  "size": 10,
  "keys": [
    0,
    1,
    2,
    3,
    4,
    5,
    6,
    7,
    8,
    9
  ]
}