{
  "id": 5151,
  "intVals": [
    28252,
    28325,
    26241,
    26243,
    26245,
    28283,
    28274,
    28332,
    28276,
    28334
  ],
  "keyType": "INTEGER",
  "valType": "NAMEDOBJ",
  "defaultString": "null",
  "defaultInt": -1,
  "size": 10,
  "keys": [
    0,
    1,
    2,
    3,
    4,
    5,
    6,
    7,
    8,
    9
  ]
}