{
  "id": 5179,
  "intVals": [
    1250,
    6000,
    12000,
    24000
  ],
  "keyType": "INTEGER",
  "valType": "INTEGER",
  "defaultString": "null",
  "defaultInt": 0,
  "size": 4,
  "keys": [
    0,
    1,
    2,
    3
  ]
}