{
  "id": 5198,
  "intVals": [
    1737,
    1738,
    1739
  ],
  "keyType": "INTEGER",
  "valType": "STRUCT",
  "defaultString": "null",
  "defaultInt": -1,
  "size": 3,
  "keys": [
    1,
    2,
    3
  ]
}