{
  "id": 5251,
  "intVals": [
    5881,
    5882,
    5883,
    5884,
    5885,
    5886,
    5887,
    5888,
    5889,
    5890,
    5891
  ],
  "keyType": "INTEGER",
  "valType": "STRUCT",
  "defaultString": "null",
  "defaultInt": -1,
  "size": 11,
  "keys": [
    0,
    1,
    2,
    3,
    4,
    5,
    6,
    7,
    8,
    9,
    10
  ]
}