{
  "id": 5258,
  "intVals": [
    1,
    1,
    1,
    1,
    1,
    1,
    1,
    1,
    1,
    1,
    1,
    1,
    1,
    1,
    1,
    1,
    1,
    1,
    1,
    1,
    1,
    1,
    1,
    1,
    1,
    1,
    1,
    1,
    1,
    1,
    1,
    1,
    1,
    1,
    1,
    1,
    1,
    1,
    1,
    1,
    1,
    1,
    1,
    1,
    1,
    1,
    1,
    1,
    1,
    1,
    1,
    1,
    1,
    1,
    1,
    1,
    1,
    1,
    1,
    1,
    1,
    1,
    1,
    1,
    1,
    1,
    1,
    1,
    1,
    1,
    1,
    1,
    1,
    1,
    1,
    1,
    1,
    1,
    1,
    1,
    1,
    1,
    1,
    1,
    1,
    1,
    1,
    1,
    1,
    1,
    1,
    1,
    1,
    1,
    1,
    1,
    1,
    1,
    1,
    1,
    1,
    1,
    1,
    1,
    1,
    1,
    1,
    1,
    1,
    1,
    1,
    1,
    1,
    1,
    1,
    1,
    1,
    1,
    1,
    1,
    1,
    1,
    1,
    1,
    1,
    1,
    1,
    1,
    1,
    1,
    1,
    1,
    1,
    1,
    1,
    1,
    1,
    1,
    1,
    1,
    1,
    1,
    1,
    1,
    1,
    1,
    1,
    1,
    1,
    1,
    1,
    1,
    1,
    1,
    1,
    1,
    1,
    1,
    1,
    1,
    1,
    1,
    1,
    1,
    1,
    1,
    1,
    1,
    1,
    1,
    1,
    1,
    1,
    1,
    1,
    1,
    1,
    1,
    1,
    1,
    1,
    1,
    1,
    1,
    1,
    1,
    1,
    1,
    1,
    1,
    1,
    1,
    1,
    1,
    1,
    1,
    1,
    1,
    1,
    1,
    1,
    1,
    1,
    1,
    1,
    1,
    1,
    1,
    1,
    1,
    1,
    1,
    1,
    1,
    1,
    1,
    1,
    1,
    1,
    1,
    1,
    1,
    1,
    1,
    1,
    1,
    1,
    1,
    1,
    1,
    1,
    1,
    1,
    1,
    1,
    1,
    1,
    1,
    1,
    1,
    1,
    1,
    1,
    1,
    1,
    1,
    1,
    1,
    1,
    1,
    1,
    1,
    1,
    1,
    1,
    1,
    1,
    1,
    1,
    1,
    1,
    1,
    1,
    1,
    1,
    1,
    1,
    1,
    1,
    1,
    1,
    1,
    1,
    1,
    1,
    1,
    1,
    1,
    1,
    1,
    1,
    1,
    1,
    1,
    1,
    1,
    1,
    1,
    1,
    1,
    1,
    1,
    1,
    1,
    1,
    1,
    1,
    1,
    1,
    1,
    1,
    1,
    1,
    1,
    1,
    1,
    1,
    1,
    1,
    1,
    1,
    1,
    1,
    1,
    1,
    1,
    1,
    1,
    1,
    1,
    1,
    1,
    1,
    1,
    1,
    1,
    1,
    1,
    1,
    1,
    1,
    1,
    1,
    1,
    1,
    1,
    1,
    1,
    1,
    1,
    1,
    1,
    1,
    1,
    1,
    1,
    1,
    1,
    1,
    1,
    1,
    1,
    1,
    1,
    1,
    1,
    1,
    1,
    1,
    1,
    1,
    1,
    1,
    1,
    1,
    1,
    1,
    1,
    1,
    1,
    1,
    1,
    1,
    1,
    1,
    1,
    1,
    1,
    1,
    1,
    1,
    1,
    1,
    1,
    1,
    1,
    1,
    1,
    1,
    1,
    1,
    1,
    1,
    1,
    1,
    1,
    1,
    1,
    1,
    1,
    1,
    1,
    1,
    1,
    1,
    1,
    1,
    1,
    1,
    1,
    1,
    1,
    1,
    1,
    1,
    1,
    1,
    1,
    1,
    1,
    1,
    1,
    1,
    1,
    1,
    1,
    1,
    1,
    1,
    1,
    1,
    1,
    1,
    1,
    1,
    1,
    1,
    1,
    1,
    1,
    1,
    1,
    1,
    1,
    1,
    1,
    1,
    1,
    1,
    1,
    1,
    1,
    1,
    1,
    1,
    1,
    1,
    1,
    1,
    1,
    1,
    1,
    1,
    1,
    1,
    1,
    1,
    1,
    1,
    1,
    1,
    1,
    1,
    1,
    1,
    1,
    1,
    1,
    1,
    1,
    1,
    1,
    1,
    1,
    1,
    1,
    1,
    1,
    1,
    1,
    1,
    1,
    1,
    1
  ],
  "keyType": "STRUCT",
  "valType": "BOOLEAN",
  "defaultString": "null",
  "defaultInt": 0,
  "size": 494,
  "keys": [
    5286,
    5287,
    5288,
    5289,
    2576,
    2580,
    5294,
    5301,
    5308,
    5315,
    5322,
    5329,
    5336,
    5343,
    5350,
    5357,
    5364,
    5371,
    5378,
    5385,
    5392,
    5399,
    2621,
    5406,
    2624,
    5413,
    5420,
    2627,
    5427,
    2630,
    5435,
    2631,
    5442,
    2633,
    2634,
    5449,
    5456,
    5457,
    5458,
    5459,
    5460,
    5468,
    5469,
    5470,
    5471,
    5472,
    5478,
    5479,
    2637,
    5487,
    5488,
    5489,
    5490,
    5491,
    5492,
    5510,
    5511,
    5512,
    5513,
    5514,
    5515,
    5516,
    5517,
    5518,
    5519,
    5520,
    5521,
    5522,
    5523,
    5524,
    2639,
    2640,
    2641,
    5546,
    2642,
    5626,
    5630,
    5637,
    5638,
    5644,
    5645,
    5646,
    5647,
    5648,
    5651,
    5652,
    5658,
    5691,
    5692,
    5693,
    5694,
    5695,
    5696,
    5697,
    5290,
    5291,
    5292,
    5293,
    2584,
    5295,
    5296,
    2591,
    5302,
    5303,
    5309,
    5310,
    2596,
    5316,
    5317,
    2597,
    5323,
    5324,
    5330,
    5331,
    2602,
    5337,
    5338,
    2603,
    5344,
    5345,
    5351,
    5352,
    5358,
    5359,
    5365,
    5366,
    2612,
    5372,
    5373,
    2614,
    5379,
    5380,
    2616,
    5386,
    5387,
    2618,
    5393,
    5394,
    2619,
    5400,
    5401,
    2622,
    5407,
    5408,
    5414,
    5415,
    2625,
    5421,
    5422,
    2628,
    5428,
    5429,
    5431,
    5436,
    5437,
    2632,
    5443,
    5444,
    5450,
    5451,
    5461,
    5462,
    5463,
    5464,
    5473,
    5474,
    5475,
    5476,
    2638,
    5493,
    5496,
    5499,
    5501,
    5502,
    5503,
    5526,
    5527,
    5528,
    5529,
    5530,
    5532,
    5534,
    5535,
    5536,
    5540,
    5541,
    5542,
    5547,
    5548,
    5549,
    5550,
    5551,
    5557,
    5566,
    5567,
    5568,
    5569,
    5570,
    5599,
    5608,
    2643,
    5627,
    5631,
    5632,
    5633,
    5639,
    5640,
    5641,
    5649,
    5653,
    5654,
    5655,
    5659,
    5660,
    5661,
    5665,
    5666,
    5672,
    5698,
    5699,
    5700,
    5701,
    5702,
    5706,
    5707,
    2574,
    2577,
    2578,
    2581,
    2582,
    2585,
    2587,
    2589,
    5297,
    2592,
    5304,
    2593,
    5311,
    5318,
    2598,
    5325,
    2599,
    5332,
    5339,
    2604,
    5346,
    2605,
    5353,
    2607,
    5360,
    2609,
    5367,
    2611,
    5374,
    2613,
    5381,
    2615,
    5388,
    2617,
    5395,
    2620,
    5402,
    5409,
    2623,
    5416,
    2626,
    5423,
    5430,
    5438,
    5445,
    5452,
    2635,
    2636,
    5465,
    5466,
    5477,
    5494,
    5497,
    5500,
    5504,
    5506,
    5507,
    5525,
    5531,
    5533,
    5537,
    5538,
    5539,
    5543,
    5544,
    5552,
    5553,
    5554,
    5558,
    5571,
    5572,
    5573,
    5574,
    5577,
    5578,
    5579,
    5580,
    5581,
    5586,
    5587,
    5595,
    5600,
    5601,
    5602,
    5603,
    5606,
    5628,
    5634,
    5642,
    5650,
    5656,
    5662,
    5663,
    5667,
    5668,
    5673,
    5674,
    5679,
    5686,
    5687,
    5703,
    5704,
    5705,
    2573,
    2575,
    2579,
    2583,
    2586,
    2588,
    2590,
    2594,
    2595,
    2600,
    2601,
    2606,
    2608,
    2610,
    5467,
    5480,
    5481,
    5482,
    5483,
    5484,
    5485,
    5486,
    5495,
    5498,
    5505,
    5508,
    5509,
    5545,
    5555,
    5556,
    5559,
    5560,
    5561,
    5562,
    5563,
    5564,
    5565,
    5575,
    5576,
    5582,
    5583,
    5588,
    5589,
    5590,
    5596,
    5597,
    5604,
    5605,
    5607,
    5629,
    5635,
    5636,
    5643,
    5657,
    5664,
    5669,
    5670,
    5671,
    5675,
    5676,
    5677,
    5680,
    5681,
    5682,
    5688,
    5689,
    5708,
    5298,
    5299,
    5300,
    5305,
    5306,
    5307,
    5312,
    5313,
    5314,
    5319,
    5320,
    5321,
    5326,
    5327,
    5328,
    5333,
    5334,
    5335,
    5340,
    5341,
    5342,
    5347,
    5348,
    5349,
    5354,
    5355,
    5356,
    5361,
    5362,
    5363,
    5368,
    5369,
    5370,
    5375,
    5376,
    5377,
    5382,
    5383,
    5384,
    5389,
    5390,
    5391,
    5396,
    5397,
    5398,
    5403,
    5404,
    5405,
    5410,
    5411,
    5412,
    5417,
    5418,
    5419,
    5424,
    5425,
    5426,
    5432,
    5433,
    5434,
    5439,
    5440,
    5441,
    5446,
    5447,
    5448,
    5453,
    5454,
    5455,
    5584,
    5585,
    5591,
    5592,
    5593,
    5594,
    5598,
    5609,
    5610,
    5611,
    5612,
    5613,
    5614,
    5615,
    5616,
    5617,
    5618,
    5619,
    5620,
    5621,
    5622,
    5623,
    5624,
    5625,
    5678,
    5683,
    5684,
    5685,
    5690,
    5709
  ]
}