{
  "id": 5271,
  "intVals": [
    8016,
    8014,
    8007,
    8017,
    8008,
    8009,
    8013,
    8010,
    28790,
    8018,
    8011,
    28824,
    8019,
    8012,
    8015,
    8020,
    8021
  ],
  "keyType": "INTEGER",
  "valType": "NAMEDOBJ",
  "defaultString": "null",
  "defaultInt": -1,
  "size": 17,
  "keys": [
    0,
    1,
    2,
    3,
    4,
    5,
    6,
    7,
    8,
    9,
    10,
    11,
    12,
    13,
    14,
    15,
    16
  ]
}