{
  "id": 5279,
  "intVals": [
    1,
    1,
    1,
    1
  ],
  "keyType": "ENUM",
  "valType": "BOOLEAN",
  "defaultString": "null",
  "defaultInt": 0,
  "size": 4,
  "keys": [
    3809,
    3810,
    3811,
    3812
  ]
}