{
  "id": 5285,
  "intVals": [
    24610,
    3276,
    3287,
    3298,
    3305,
    3318,
    6567,
    19475
  ],
  "keyType": "INTEGER",
  "valType": "OBJ",
  "defaultString": "null",
  "defaultInt": -1,
  "size": 8,
  "keys": [
    0,
    1,
    2,
    3,
    4,
    5,
    6,
    7
  ]
}