{
  "id": 5298,
  "intVals": [
    229,
    29083,
    29082,
    29081,
    29080
  ],
  "keyType": "INTEGER",
  "valType": "NAMEDOBJ",
  "defaultString": "null",
  "defaultInt": -1,
  "size": 5,
  "keys": [
    0,
    1,
    2,
    3,
    4
  ]
}