{
  "id": 5312,
  "intVals": [
    915,
    891,
    892,
    893,
    894,
    897,
    898,
    899,
    900,
    901,
    902,
    903,
    906,
    907
  ],
  "keyType": "INTEGER",
  "valType": "STRUCT",
  "defaultString": "null",
  "defaultInt": -1,
  "size": 14,
  "keys": [
    0,
    1,
    2,
    3,
    4,
    5,
    6,
    7,
    8,
    9,
    10,
    11,
    12,
    13
  ]
}