{
  "id": 5415,
  "intVals": [
    28962,
    29309,
    29263,
    29265,
    29267,
    29269
  ],
  "keyType": "INTEGER",
  "valType": "NAMEDOBJ",
  "defaultString": "null",
  "defaultInt": -1,
  "size": 6,
  "keys": [
    0,
    1,
    2,
    3,
    4,
    5
  ]
}