{
  "id": 5452,
  "keyType": "INTEGER",
  "valType": "STRING",
  "defaultString": "Full HD",
  "defaultInt": 0,
  "size": 2,
  "keys": [
    0,
    1
  ],
  "stringVals": [
    "SD",
    "Full HD"
  ]
}