{
  "id": 5474,
  "intVals": [
    26018,
    26006,
    26060,
    26063,
    26072,
    25997,
    26078,
    26081,
    28487,
    26096,
    26099,
    26111,
    26114,
    26123,
    26126,
    28502,
    28505,
    28508,
    28511,
    28514,
    28517,
    28520,
    26144,
    29652,
    29664,
    29667,
    29670,
    26009,
    29673,
    29676,
    29679,
    28561,
    28564,
    28570
  ],
  "keyType": "INTEGER",
  "valType": "NAMEDOBJ",
  "defaultString": "null",
  "defaultInt": 26018,
  "size": 34,
  "keys": [
    0,
    1,
    2,
    3,
    4,
    5,
    6,
    7,
    8,
    9,
    10,
    11,
    12,
    13,
    14,
    15,
    16,
    17,
    18,
    19,
    20,
    21,
    22,
    23,
    24,
    25,
    26,
    27,
    28,
    29,
    30,
    31,
    32,
    33
  ]
}