{
  "id": 5544,
  "intVals": [
    1,
    2,
    3,
    4,
    5,
    6,
    7,
    8,
    9,
    10
  ],
  "keyType": "OBJ",
  "valType": "INTEGER",
  "defaultString": "null",
  "defaultInt": -1,
  "size": 10,
  "keys": [
    30021,
    30022,
    30023,
    30024,
    30026,
    30025,
    30027,
    30029,
    30028,
    30030
  ]
}