{
  "id": 5572,
  "intVals": [
    229,
    30146,
    30143,
    30140,
    30137,
    230,
    30147,
    30144,
    30141,
    30138
  ],
  "keyType": "INTEGER",
  "valType": "NAMEDOBJ",
  "defaultString": "null",
  "defaultInt": -1,
  "size": 10,
  "keys": [
    0,
    1,
    2,
    3,
    4,
    -10,
    -11,
    -12,
    -13,
    -14
  ]
}