{
  "id": 683,
  "intVals": [
    10616837,
    10616840,
    10616844,
    10616848,
    10616852,
    10616856,
    10616860
  ],
  "keyType": "INTEGER",
  "valType": "COMPONENT",
  "defaultString": "null",
  "defaultInt": -1,
  "size": 7,
  "keys": [
    0,
    1,
    2,
    3,
    4,
    5,
    6
  ]
}