{
  "id": 693,
  "keyType": "INTEGER",
  "valType": "STRING",
  "defaultString": "Creatures",
  "defaultInt": 0,
  "size": 124,
  "keys": [
    1,
    2,
    3,
    4,
    5,
    6,
    7,
    8,
    9,
    10,
    11,
    12,
    13,
    14,
    15,
    16,
    17,
    18,
    19,
    20,
    21,
    22,
    23,
    24,
    25,
    26,
    27,
    28,
    29,
    30,
    31,
    32,
    33,
    34,
    35,
    36,
    37,
    38,
    39,
    40,
    41,
    42,
    43,
    44,
    45,
    46,
    47,
    48,
    49,
    50,
    51,
    52,
    53,
    54,
    55,
    56,
    57,
    58,
    59,
    60,
    61,
    62,
    63,
    64,
    65,
    66,
    67,
    68,
    69,
    70,
    71,
    106,
    72,
    73,
    74,
    75,
    76,
    77,
    78,
    79,
    80,
    81,
    82,
    83,
    84,
    85,
    86,
    87,
    88,
    89,
    90,
    91,
    93,
    108,
    109,
    94,
    92,
    95,
    96,
    97,
    98,
    99,
    100,
    101,
    102,
    103,
    104,
    105,
    107,
    110,
    111,
    112,
    113,
    117,
    116,
    114,
    115,
    118,
    119,
    120,
    121,
    122,
    123,
    124
  ],
  "stringVals": [
    "Monkeys",
    "Goblins",
    "Rats",
    "Spiders",
    "Birds",
    "Cows",
    "Scorpions",
    "Bats",
    "Wolves",
    "Zombies",
    "Skeletons",
    "Ghosts",
    "Bears",
    "Hill Giants",
    "Ice Giants",
    "Fire Giants",
    "Moss Giants",
    "Trolls",
    "Ice Warriors",
    "Ogres",
    "Hobgoblins",
    "Dogs",
    "Ghouls",
    "Green Dragons",
    "Blue Dragons",
    "Red Dragons",
    "Black Dragons",
    "Lesser Demons",
    "Greater Demons",
    "Black Demons",
    "Hellhounds",
    "Shadow Warriors",
    "Werewolves",
    "Vampyres",
    "Dagannoth",
    "Turoth",
    "Cave Crawlers",
    "Banshees",
    "Crawling Hands",
    "Infernal Mages",
    "Aberrant Spectres",
    "Abyssal Demons",
    "Basilisks",
    "Cockatrice",
    "Kurask",
    "Gargoyles",
    "Pyrefiends",
    "Bloodveld",
    "Dust Devils",
    "Jellies",
    "Rockslugs",
    "Nechryael",
    "Kalphite",
    "Earth Warriors",
    "Otherworldly Beings",
    "Elves",
    "Dwarves",
    "Bronze Dragons",
    "Iron Dragons",
    "Steel Dragons",
    "Wall Beasts",
    "Cave Slimes",
    "Cave Bugs",
    "Shades",
    "Crocodiles",
    "Dark Beasts",
    "Mogres",
    "Lizards",
    "Fever Spiders",
    "Harpie Bug Swarms",
    "Sea Snakes",
    "Fossil Island Wyverns",
    "Skeletal Wyverns",
    "Killerwatts",
    "Mutated Zygomites",
    "Icefiends",
    "Minotaurs",
    "Fleshcrawlers",
    "Catablepon",
    "Ankou",
    "Cave Horrors",
    "Jungle Horrors",
    "Goraks",
    "Suqahs",
    "Brine Rats",
    "Minions of Scabaras",
    "Terror Dogs",
    "Molanisks",
    "Waterfiends",
    "Spiritual Creatures",
    "Lizardmen",
    "Magic Axes",
    "Mithril Dragons",
    "Adamant Dragons",
    "Rune Dragons",
    "Aviansies",
    "Cave Kraken",
    "Smoke Devils",
    "TzHaar",
    "TzTok-Jad",
    "Bosses",
    "Mammoths",
    "Rogues",
    "Ents",
    "Bandits",
    "Dark Warriors",
    "Lava Dragons",
    "TzKal-Zuk",
    "Revenants",
    "Chaos Druids",
    "Wyrms",
    "Drakes",
    "Hydras",
    "Brutal Black Dragons",
    "Sulphur Lizards",
    "Temple Spiders",
    "Undead Druids",
    "Sand Crabs",
    "Black Knights",
    "Pirates",
    "Sourhogs",
    "Warped Creatures",
    "Lesser Nagua",
    "Araxytes"
  ]
}