{
  "id": 706,
  "intVals": [
    25129,
    25131,
    25133,
    25135,
    25137
  ],
  "keyType": "INTEGER",
  "valType": "NAMEDOBJ",
  "defaultString": "null",
  "defaultInt": -1,
  "size": 5,
  "keys": [
    0,
    1,
    2,
    3,
    4
  ]
}