{
  "id": 708,
  "intVals": [
    1037,
    1419,
    4079,
    4566,
    6722,
    7927,
    6856,
    6857,
    6858,
    6859,
    6860,
    6861,
    6862,
    6863,
    6865,
    6867,
    6866,
    9920,
    9921,
    9922,
    9923,
    9924,
    9925,
    10507,
    10508,
    11019,
    11022,
    11020,
    11021,
    795,
    11847,
    11862,
    11863,
    11919,
    4565,
    12600,
    12845,
    12887,
    12888,
    12889,
    12890,
    12891,
    12892,
    12893,
    12894,
    12895,
    12896,
    11996,
    22364,
    12956,
    12957,
    12958,
    12959,
    13182,
    13203,
    13215,
    13216,
    13217,
    13218,
    13288,
    13283,
    13284,
    13285,
    13286,
    13287,
    13343,
    13344,
    13655,
    13663,
    13664,
    13665,
    13679,
    13681,
    19699,
    20773,
    20775,
    20777,
    20779,
    20832,
    20834,
    20836,
    21211,
    21209,
    21214,
    21314,
    21354,
    21695,
    21720,
    21847,
    21849,
    21851,
    21853,
    21855,
    21857,
    21859,
    22316,
    22351,
    22353,
    22689,
    22695,
    22692,
    22698,
    22701,
    22684,
    22713,
    22715,
    22717,
    22719,
    23108,
    23446,
    23448,
    24305,
    24307,
    24309,
    24311,
    24313,
    24325,
    24327,
    24315,
    24317,
    24319,
    24321,
    24323,
    24428,
    24525,
    24535,
    24537,
    24539,
    24975,
    24977,
    25314,
    25316,
    25322,
    25324,
    25326,
    25328,
    25330,
    25332,
    25334,
    25336,
    25338,
    25500,
    25502,
    25604,
    25606,
    25840,
    26254,
    26256,
    26260,
    26310,
    26312,
    26314,
    26316,
    26649,
    26937,
    26939,
    27035,
    27463,
    27473,
    27475,
    27477,
    27479,
    27481,
    27497,
    27564,
    27566,
    27568,
    27570,
    27576,
    27572,
    27574,
    27578,
    27580,
    27588,
    27645,
    27812,
    27802,
    27804,
    27806,
    27818,
    27810,
    27822,
    27828,
    27820,
    27871,
    27873,
    27875,
    28116,
    28126,
    28128,
    28601,
    28603,
    28788,
    28786,
    29433,
    29439,
    29437,
    29443,
    29441,
    29489,
    29507,
    1960,
    1058,
    1054,
    1056,
    1039,
    1041,
    1043,
    1045,
    1047,
    1049,
    1962,
    1051,
    982,
    1990,
    963,
    1892
  ],
  "keyType": "INTEGER",
  "valType": "NAMEDOBJ",
  "defaultString": "null",
  "defaultInt": -1,
  "size": 217,
  "keys": [
    1,
    2,
    3,
    4,
    6,
    7,
    20,
    24,
    21,
    25,
    22,
    26,
    23,
    27,
    29,
    28,
    30,
    8,
    9,
    10,
    11,
    12,
    13,
    14,
    15,
    16,
    17,
    18,
    19,
    0,
    31,
    5,
    32,
    33,
    34,
    35,
    36,
    37,
    38,
    39,
    40,
    41,
    42,
    43,
    44,
    45,
    46,
    47,
    97,
    48,
    49,
    50,
    51,
    52,
    53,
    54,
    55,
    56,
    57,
    58,
    59,
    60,
    61,
    62,
    63,
    64,
    65,
    66,
    67,
    68,
    69,
    70,
    71,
    72,
    73,
    74,
    75,
    76,
    77,
    78,
    79,
    80,
    81,
    82,
    83,
    84,
    85,
    86,
    87,
    88,
    89,
    90,
    91,
    92,
    93,
    94,
    95,
    96,
    98,
    99,
    100,
    101,
    102,
    103,
    104,
    105,
    106,
    107,
    108,
    109,
    110,
    111,
    112,
    113,
    114,
    115,
    116,
    117,
    118,
    119,
    120,
    121,
    122,
    123,
    124,
    125,
    126,
    127,
    128,
    129,
    130,
    131,
    133,
    134,
    135,
    136,
    137,
    132,
    138,
    140,
    139,
    141,
    142,
    143,
    144,
    145,
    146,
    147,
    148,
    149,
    150,
    151,
    152,
    153,
    154,
    155,
    156,
    157,
    158,
    159,
    160,
    161,
    162,
    163,
    164,
    165,
    166,
    167,
    168,
    169,
    170,
    171,
    172,
    173,
    174,
    175,
    176,
    177,
    178,
    179,
    181,
    180,
    182,
    183,
    184,
    185,
    186,
    187,
    188,
    189,
    190,
    191,
    192,
    193,
    194,
    195,
    196,
    197,
    198,
    199,
    200,
    -10,
    -11,
    -12,
    -13,
    -14,
    -15,
    -16,
    -17,
    -18,
    -19,
    -20,
    -21,
    -22,
    -23,
    -24,
    -25
  ]
}