{
  "id": 712,
  "intVals": [
    229,
    125,
    123,
    121,
    2428,
    230,
    126,
    124,
    122,
    2429
  ],
  "keyType": "INTEGER",
  "valType": "NAMEDOBJ",
  "defaultString": "null",
  "defaultInt": -1,
  "size": 10,
  "keys": [
    0,
    1,
    2,
    3,
    4,
    -10,
    -11,
    -12,
    -13,
    -14
  ]
}