{
  "id": 723,
  "intVals": [
    229,
    193,
    191,
    189,
    2450,
    230,
    194,
    192,
    190,
    2451
  ],
  "keyType": "INTEGER",
  "valType": "NAMEDOBJ",
  "defaultString": "null",
  "defaultInt": -1,
  "size": 10,
  "keys": [
    0,
    1,
    2,
    3,
    4,
    -10,
    -11,
    -12,
    -13,
    -14
  ]
}