{
  "id": 726,
  "intVals": [
    229,
    3014,
    3012,
    3010,
    3008,
    230,
    3015,
    3013,
    3011,
    3009
  ],
  "keyType": "INTEGER",
  "valType": "NAMEDOBJ",
  "defaultString": "null",
  "defaultInt": -1,
  "size": 10,
  "keys": [
    0,
    1,
    2,
    3,
    4,
    -10,
    -11,
    -12,
    -13,
    -14
  ]
}