{
  "id": 916,
  "keyType": "INTEGER",
  "valType": "STRING",
  "defaultString": "Choose carefully!",
  "defaultInt": 0,
  "size": 2,
  "keys": [
    0,
    1
  ],
  "stringVals": [
    "Ranging is allowed",
    "Ranging is disabled"
  ]
}