{
  "id": 919,
  "keyType": "INTEGER",
  "valType": "STRING",
  "defaultString": "",
  "defaultInt": 0,
  "size": 4,
  "keys": [
    -1,
    0,
    1,
    2
  ],
  "stringVals": [
    "Prayer",
    "All allowed",
    "No overhead icons",
    "Disabled"
  ]
}