{
  "id": 920,
  "keyType": "INTEGER",
  "valType": "STRING",
  "defaultString": "Choose carefully!",
  "defaultInt": 0,
  "size": 3,
  "keys": [
    0,
    1,
    2
  ],
  "stringVals": [
    "All prayers are allowed",
    "Prayers that use an overhead icon are forbidden. Other prayers are allowed.",
    "No prayers are allowed."
  ]
}