{
  "id": 988,
  "intVals": [
    1,
    1,
    1,
    1,
    1,
    1,
    1,
    1,
    1,
    1
  ],
  "keyType": "OBJ",
  "valType": "BOOLEAN",
  "defaultString": "null",
  "defaultInt": 0,
  "size": 10,
  "keys": [
    1381,
    1397,
    1405,
    11998,
    12000,
    20404,
    20730,
    20733,
    20736,
    20739
  ]
}