{
  "id": 998,
  "intVals": [
    12291946,
    10780509,
    10385993,
    8613442,
    7952426,
    6573604,
    4996361,
    14002565,
    32512,
    986895,
    16777215,
    366751,
    6570404
  ],
  "keyType": "INTEGER",
  "valType": "INTEGER",
  "defaultString": "null",
  "defaultInt": -1,
  "size": 13,
  "keys": [
    0,
    1,
    2,
    3,
    4,
    5,
    6,
    7,
    8,
    9,
    10,
    11,
    12
  ]
}