{
  "id": 18481170,
  "isIf3": false,
  "type": 6,
  "contentType": 0,
  "originalX": 381,
  "originalY": 112,
  "originalWidth": 32,
  "originalHeight": 195,
  "widthMode": 0,
  "heightMode": 0,
  "xPositionMode": 0,
  "yPositionMode": 0,
  "parentId": -1,
  "isHidden": false,
  "scrollWidth": 0,
  "scrollHeight": 0,
  "noClickThrough": false,
  "spriteId": -1,
  "textureId": 0,
  "spriteTiling": false,
  "opacity": 0,
  "borderType": 0,
  "shadowColor": 0,
  "flippedVertically": false,
  "flippedHorizontally": false,
  "modelType": 1,
  "modelId": 10111,
  "offsetX2d": 0,
  "offsetY2d": 0,
  "rotationX": 460,
  "rotationY": 0,
  "rotationZ": 0,
  "modelZoom": 400,
  "animation": -1,
  "orthogonal": false,
  "modelHeightOverride": 0,
  "fontId": -1,
  "text": "",
  "lineHeight": 0,
  "xTextAlignment": 0,
  "yTextAlignment": 0,
  "textShadowed": false,
  "textColor": 0,
  "filled": false,
  "lineWidth": 1,
  "lineDirection": false,
  "clickMask": 4194304,
  "name": "",
  "dragDeadZone": 0,
  "dragDeadTime": 0,
  "dragRenderBehavior": false,
  "targetVerb": "",
  "hasListener": false,
  "menuType": 4,
  "hoveredSiblingId": -1,
  "alternateOperators": [
    1
  ],
  "alternateRhs": [
    1
  ],
  "clientScripts": [
    [
      {
        "opcode": "VARBIT",
        "operands": [
          1412
        ]
      },
      {
        "opcode": "RETURN",
        "operands": []
      }
    ]
  ],
  "xPitch": 0,
  "yPitch": 0,
  "alternateText": "",
  "alternateTextColor": 0,
  "hoveredTextColor": 0,
  "alternateHoveredTextColor": 0,
  "alternateSpriteId": -1,
  "alternateModelId": 10112,
  "alternateAnimation": -1,
  "spellName": "",
  "tooltip": "C#"
}