mtllib 10025.mtl
o runescapemodel
v -9 -36 36
v -9 -16 42
v -28 -11 32
v -12 -34 12
v 12 -34 12
v 8 -36 36
v 0 -17 43
v 0 -16 41
v -9 -15 41
v -13 -14 41
v -10 -14 42
v -14 -2 44
v -32 6 36
v -40 18 8
v -40 2 12
v -40 -9 5
v -32 -14 -16
v -20 -18 -32
v -28 -50 -40
v -28 -54 8
v 28 -54 8
v 28 -50 -40
v 20 -18 -32
v 32 -14 -16
v 40 -9 5
v 40 2 12
v 28 -11 32
v 9 -16 42
v 9 -15 41
v 10 -14 42
v 3 -13 44
v -3 -13 44
v 32 30 48
v 26 22 41
v 40 26 24
v 40 54 0
v 26 38 51
v 16 32 52
v 13 30 44
v 21 23 44
v 22 21 44
v 32 6 36
v 40 18 8
v 56 34 -4
v 56 42 -12
v 32 38 -40
v 24 68 -7
v 0 62 38
v 6 38 53
v 7 32 52
v 0 30 52
v 7 24 44
v 14 26 46
v 13 21 48
v -40 26 24
v -27 22 41
v -32 30 48
v -40 54 0
v -56 34 -4
v -22 21 44
v -21 23 44
v -13 30 44
v -16 32 52
v -26 38 51
v -24 68 -7
v -32 38 -40
v -56 42 -12
v -40 26 -52
v -48 14 -16
v -40 22 -4
v -47 18 8
v -40 10 8
v -56 14 -8
v -55 0 -8
v -48 -11 -2
v -39 -4 -2
v -40 14 -8
v -36 -2 -32
v -20 -14 -36
v 40 10 8
v 47 18 8
v 40 22 -4
v 48 14 -16
v 40 26 -52
v 0 58 -32
v 0 76 -7
v 39 -4 -2
v 48 -11 -2
v 55 0 -8
v 56 14 -8
v 54 26 -4
v 40 14 -8
v 36 -2 -32
v 20 -14 -36
v -24 -14 -36
v -54 26 -4
v 13 -14 41
v 14 -2 44
v 3 -11 44
v -3 -11 44
v -4 -2 44
v -14 -4 47
v -16 2 47
v -16 2 44
v -14 14 44
v -15 19 46
v -14 26 46
v -7 24 44
v -7 32 52
v -6 38 53
v 4 -2 44
v 3 -5 49
v -3 -5 49
v 2 -6 52
v -2 -6 52
v 5 -6 60
v -5 -6 60
v -16 -4 50
v -16 2 50
v -5 2 58
v -8 10 52
v -9 5 44
v -4 22 44
v -6 22 44
v 0 20 52
v 4 22 44
v 6 22 44
v 36 -26 36
v 0 -10 52
v 20 -29 36
v 4 -18 44
v -4 -18 44
v -20 -29 36
v -36 -26 36
v 14 14 44
v 16 2 44
v 14 -4 47
v 11 23 46
v 11 21 46
v 13 19 46
v 15 19 46
v 17 21 46
v 17 23 46
v 15 25 46
v 13 25 46
v 12 23 46
v 12 21 46
v 13 20 46
v 15 20 46
v 16 21 46
v 16 23 46
v 15 24 46
v 13 24 46
v -13 24 46
v -15 24 46
v -16 23 46
v -16 21 46
v -15 20 46
v -13 20 46
v -12 21 46
v -12 23 46
v -13 25 46
v -15 25 46
v -17 23 46
v -17 21 46
v -13 19 46
v -11 21 46
v -11 23 46
v -14 23 48
v 16 -4 50
v 16 2 50
v 5 2 58
v 9 5 44
v 16 2 47
v 8 10 52
v 0 12 58
vn -367 887 -665
vn -202 -317 -1114
vn -1596 398 -1265
vn -1300 925 -444
vn 1296 1234 -682
vn 363 643 -691
vn 0 -225 -955
vn 0 108 -1478
vn 0 0 -719
vn -174 -31 -658
vn -391 517 -1355
vn -1181 284 -1226
vn -1120 310 -1126
vn -1293 203 -567
vn -1502 318 -1018
vn -540 665 -160
vn -1377 870 437
vn -578 401 537
vn -445 -327 422
vn -201 -58 -515
vn 201 -108 -264
vn 445 -265 174
vn 578 520 966
vn 1377 870 437
vn 540 665 -160
vn 1502 318 -1018
vn 1592 408 -1271
vn 202 -310 -1111
vn 0 0 -719
vn 391 517 -1355
vn 94 376 -866
vn -94 376 -1122
vn 648 552 -964
vn 701 290 -824
vn 1207 208 -562
vn 1338 -1184 -416
vn 439 -404 -906
vn 66 588 -886
vn 141 682 -1096
vn 552 -121 -1533
vn 716 13 -1600
vn 1133 282 -1122
vn 1293 203 -567
vn 1302 370 -303
vn 618 -470 169
vn 453 -1033 893
vn 532 -974 225
vn 0 -1665 -1175
vn 57 -160 -1455
vn 76 558 -679
vn 0 1088 -1974
vn -203 -9 -1812
vn 121 -442 -1630
vn -12 -289 -902
vn -1226 206 -556
vn -684 309 -863
vn -655 538 -974
vn -1338 -1184 -416
vn -1302 370 -303
vn -614 48 -1380
vn -623 -188 -1773
vn -141 682 -1096
vn -66 588 -886
vn -439 -404 -906
vn -532 -974 225
vn -453 -1214 1074
vn -618 -470 169
vn -956 63 920
vn -861 575 -306
vn -335 -147 -243
vn -326 -316 -703
vn -580 55 -566
vn -751 -7 -91
vn -329 136 180
vn -57 498 239
vn -273 359 511
vn -600 358 993
vn -884 674 216
vn -496 432 374
vn 580 55 -566
vn 326 -316 -703
vn 335 -147 -243
vn 861 575 -306
vn 956 -23 1338
vn 0 -873 829
vn 0 -866 144
vn 176 443 988
vn 125 428 2
vn 247 135 163
vn 660 68 135
vn 128 -411 233
vn 733 285 511
vn 884 674 216
vn 496 708 792
vn 0 552 836
vn -128 -411 233
vn 174 -31 -658
vn 922 195 -1206
vn 119 56 -1525
vn -119 56 -1525
vn 0 660 -102
vn -484 618 356
vn -1305 -241 16
vn -512 -278 120
vn -186 260 -1426
vn -94 148 -1711
vn 28 -526 -1575
vn 175 -63 -1544
vn -76 558 -679
vn -57 -160 -1455
vn 0 435 -493
vn 0 703 353
vn 0 737 305
vn 67 1277 204
vn -67 1277 119
vn 353 653 -628
vn -353 335 -877
vn -704 578 -16
vn -575 -306 -391
vn -483 -514 -1069
vn -1006 -762 -376
vn -336 -282 -378
vn -923 -172 -1333
vn 340 -17 -1475
vn 0 -188 -482
vn 923 -172 -1333
vn -245 -7 -1224
vn 325 -12 -553
vn 0 617 -1565
vn -20 336 -374
vn -47 372 -348
vn 47 372 -348
vn 20 336 -374
vn -325 -12 -553
vn 186 260 -1426
vn 579 -50 73
vn 717 732 376
vn 0 0 -1536
vn 0 0 -256
vn 0 0 -512
vn -34 158 -1717
vn 0 0 -512
vn 0 0 -512
vn 0 0 -512
vn 0 0 -256
vn 0 0 -1536
vn 0 0 -256
vn 0 0 -512
vn 0 0 -512
vn 0 0 -512
vn 0 0 -512
vn 0 0 -512
vn 0 0 -256
vn 0 0 -1536
vn 0 0 -256
vn 0 0 -512
vn 0 0 -512
vn 0 0 -512
vn 0 0 -512
vn 0 0 -512
vn 0 0 -256
vn 0 0 -1536
vn 0 0 -256
vn 0 0 -512
vn 0 0 -512
vn 0 0 -512
vn 0 0 -512
vn 0 0 -256
vn -27 -388 -847
vn 704 578 -16
vn 902 -328 -585
vn 448 -346 -1336
vn 479 -512 -392
vn 1140 -472 245
vn 1010 -774 -408
vn 0 -644 -1176
usemtl m0
f 1 2 3

usemtl m1
f 1 3 4

usemtl m2
f 1 4 5

usemtl m3
f 1 5 6

usemtl m4
f 1 6 7

usemtl m5
f 1 7 2

usemtl m6
f 2 7 8

usemtl m7
f 2 8 9

usemtl m8
f 2 9 10

usemtl m9
f 2 10 3

usemtl m10
f 3 10 11

usemtl m11
f 3 11 12

usemtl m12
f 3 12 13

usemtl m13
f 3 13 14

usemtl m14
f 3 14 15

usemtl m15
f 3 15 4

usemtl m16
f 4 15 16

usemtl m17
f 4 16 17

usemtl m18
f 4 17 18

usemtl m19
f 4 18 19

usemtl m20
f 4 19 20

usemtl m21
f 4 20 5

usemtl m22
f 5 20 21

usemtl m23
f 5 21 22

usemtl m24
f 5 22 23

usemtl m25
f 5 23 24

usemtl m26
f 5 24 25

usemtl m27
f 5 25 26

usemtl m28
f 5 26 27

usemtl m29
f 5 27 6

usemtl m30
f 6 27 28

usemtl m31
f 6 28 7

usemtl m32
f 7 28 8

usemtl m33
f 8 28 29

usemtl m34
f 8 29 30

usemtl m35
f 8 30 31

usemtl m36
f 8 31 32

usemtl m37
f 8 32 11

usemtl m38
f 8 11 9

usemtl m39
f 9 11 10

usemtl m40
f 33 34 35

usemtl m41
f 33 35 36

usemtl m42
f 33 36 37

usemtl m43
f 33 37 38

usemtl m44
f 33 38 39

usemtl m45
f 33 39 40

usemtl m46
f 33 40 34

usemtl m47
f 34 40 41

usemtl m48
f 34 41 42

usemtl m49
f 34 42 35

usemtl m50
f 35 42 43

usemtl m51
f 35 43 44

usemtl m52
f 35 44 36

usemtl m53
f 36 44 45

usemtl m54
f 36 45 46

usemtl m55
f 36 46 47

usemtl m56
f 36 47 48

usemtl m57
f 36 48 37

usemtl m58
f 37 48 49

usemtl m59
f 37 49 38

usemtl m60
f 38 49 50

usemtl m61
f 38 50 39

usemtl m62
f 39 50 51

usemtl m63
f 39 51 52

usemtl m64
f 39 52 53

usemtl m65
f 39 53 40

usemtl m66
f 40 53 54

usemtl m67
f 40 54 41

usemtl m68
f 55 56 57

usemtl m69
f 55 57 58

usemtl m70
f 55 58 59

usemtl m71
f 55 59 14

usemtl m72
f 55 14 13

usemtl m73
f 55 13 56

usemtl m74
f 56 13 60

usemtl m75
f 56 60 61

usemtl m76
f 56 61 57

usemtl m77
f 57 61 62

usemtl m78
f 57 62 63

usemtl m79
f 57 63 64

usemtl m80
f 57 64 58

usemtl m81
f 58 64 48

usemtl m82
f 58 48 65

usemtl m83
f 58 65 66

usemtl m84
f 58 66 67

usemtl m85
f 58 67 59

usemtl m86
f 59 67 68

usemtl m87
f 59 68 69

usemtl m88
f 59 69 70

usemtl m89
f 59 70 14

usemtl m90
f 14 70 71

usemtl m91
f 14 71 72

usemtl m92
f 14 72 15

usemtl m93
f 15 72 73

usemtl m94
f 15 73 74

usemtl m95
f 15 74 75

usemtl m96
f 15 75 16

usemtl m97
f 16 75 76

usemtl m98
f 16 76 17

usemtl m99
f 17 76 77

usemtl m100
f 17 77 78

usemtl m101
f 17 78 79

usemtl m102
f 17 79 18

usemtl m103
f 42 27 43

usemtl m104
f 43 27 26

usemtl m105
f 43 26 80

usemtl m106
f 43 80 81

usemtl m107
f 43 81 82

usemtl m108
f 43 82 44

usemtl m109
f 44 82 83

usemtl m110
f 44 83 84

usemtl m111
f 44 84 45

usemtl m112
f 45 84 46

usemtl m113
f 46 84 66

usemtl m114
f 46 66 85

usemtl m115
f 46 85 47

usemtl m116
f 47 85 86

usemtl m117
f 47 86 48

usemtl m118
f 48 86 65

usemtl m119
f 65 86 85

usemtl m120
f 65 85 66

usemtl m121
f 25 24 87

usemtl m122
f 25 87 88

usemtl m123
f 25 88 26

usemtl m124
f 26 88 89

usemtl m125
f 26 89 90

usemtl m126
f 26 90 80

usemtl m127
f 80 90 81

usemtl m128
f 81 90 91

usemtl m129
f 81 91 82

usemtl m130
f 82 91 92

usemtl m131
f 82 92 83

usemtl m132
f 83 92 93

usemtl m133
f 83 93 84

usemtl m134
f 84 93 94

usemtl m135
f 84 94 95

usemtl m136
f 84 95 68

usemtl m137
f 84 68 66

usemtl m138
f 66 68 67

usemtl m139
f 23 22 19

usemtl m140
f 23 19 18

usemtl m141
f 23 18 95

usemtl m142
f 23 95 94

usemtl m143
f 23 94 24

usemtl m144
f 24 94 93

usemtl m145
f 24 93 92

usemtl m146
f 24 92 87

usemtl m147
f 87 92 90

usemtl m148
f 87 90 89

usemtl m149
f 87 89 88

usemtl m150
f 90 92 91

usemtl m151
f 96 73 71

usemtl m152
f 96 71 70

usemtl m153
f 96 70 77

usemtl m154
f 96 77 73

usemtl m155
f 73 77 74

usemtl m156
f 74 77 75

usemtl m157
f 75 77 76

usemtl m158
f 72 71 73

usemtl m159
f 69 77 70

usemtl m160
f 77 69 78

usemtl m161
f 78 69 68

usemtl m162
f 78 68 79

usemtl m163
f 97 30 29

usemtl m164
f 97 29 28

usemtl m165
f 97 28 27

usemtl m166
f 97 27 30

usemtl m167
f 30 27 98

usemtl m168
f 30 98 99

usemtl m169
f 30 99 31

usemtl m170
f 31 99 32

usemtl m171
f 32 99 100

usemtl m172
f 32 100 11

usemtl m173
f 11 100 12

usemtl m174
f 12 100 101

usemtl m175
f 12 101 102

usemtl m176
f 12 102 103

usemtl m177
f 12 103 104

usemtl m178
f 12 104 105

usemtl m179
f 12 105 13

usemtl m180
f 13 105 60

usemtl m181
f 60 105 106

usemtl m182
f 60 106 61

usemtl m183
f 61 106 107

usemtl m184
f 61 107 62

usemtl m185
f 62 107 108

usemtl m186
f 62 108 51

usemtl m187
f 62 51 109

usemtl m188
f 62 109 63

usemtl m189
f 63 109 110

usemtl m190
f 63 110 64

usemtl m191
f 64 110 48

usemtl m192
f 48 110 49

usemtl m193
f 49 110 51

usemtl m194
f 49 51 50

usemtl m195
f 98 111 99

usemtl m196
f 99 111 100

usemtl m197
f 100 111 101

usemtl m198
f 101 111 112

usemtl m199
f 101 112 113

usemtl m200
f 113 112 114

usemtl m201
f 113 114 115

usemtl m202
f 115 114 116

usemtl m203
f 115 116 117

usemtl m204
f 115 117 118

usemtl m205
f 115 118 102

usemtl m206
f 102 118 103

usemtl m207
f 103 118 119

usemtl m208
f 103 119 120

usemtl m209
f 103 120 121

usemtl m210
f 103 121 104

usemtl m211
f 104 121 122

usemtl m212
f 104 122 105

usemtl m213
f 105 122 123

usemtl m214
f 105 123 124

usemtl m215
f 105 124 106

usemtl m216
f 106 124 107

usemtl m217
f 107 124 108

usemtl m218
f 108 124 123

usemtl m219
f 108 123 51

usemtl m220
f 51 123 125

usemtl m221
f 51 125 126

usemtl m222
f 51 126 52

usemtl m223
f 52 126 127

usemtl m224
f 52 127 54

usemtl m225
f 52 54 53

usemtl m226
f 128 27 98

usemtl m227
f 128 98 129

usemtl m228
f 128 129 130

usemtl m229
f 130 129 131

usemtl m230
f 131 129 132

usemtl m231
f 132 129 133

usemtl m232
f 133 129 134

usemtl m233
f 134 129 12

usemtl m234
f 134 12 3

usemtl m235
f 129 98 12

usemtl m236
f 51 110 109

usemtl m237
f 42 98 27

usemtl m238
f 98 42 135

usemtl m239
f 98 135 136

usemtl m240
f 98 136 137

usemtl m241
f 98 137 111

usemtl m242
f 138 139 140

usemtl m243
f 138 140 141

usemtl m244
f 138 141 142

usemtl m245
f 138 142 143

usemtl m246
f 138 143 144

usemtl m247
f 138 144 145

usemtl m248
f 146 147 148

usemtl m249
f 146 148 149

usemtl m250
f 146 149 150

usemtl m251
f 146 150 151

usemtl m252
f 146 151 152

usemtl m253
f 146 152 153

usemtl m254
f 53 141 41

usemtl m255
f 53 41 40

usemtl m256
f 52 127 141

usemtl m257
f 52 141 53

usemtl m258
f 154 155 156

usemtl m259
f 154 156 157

usemtl m260
f 154 157 158

usemtl m261
f 154 158 159

usemtl m262
f 154 159 160

usemtl m263
f 154 160 161

usemtl m264
f 162 163 164

usemtl m265
f 162 164 165

usemtl m266
f 162 165 106

usemtl m267
f 162 106 166

usemtl m268
f 162 166 167

usemtl m269
f 162 167 168

usemtl m270
f 107 61 169

usemtl m271
f 107 169 108

usemtl m272
f 108 169 124

usemtl m273
f 61 60 169

usemtl m274
f 114 137 170

usemtl m275
f 114 170 116

usemtl m276
f 116 170 171

usemtl m277
f 116 171 172

usemtl m278
f 116 172 117

usemtl m279
f 117 172 120

usemtl m280
f 117 120 119

usemtl m281
f 117 119 118

usemtl m282
f 141 135 41

usemtl m283
f 41 135 42

usemtl m284
f 141 127 135

usemtl m285
f 135 127 126

usemtl m286
f 135 126 173

usemtl m287
f 135 173 136

usemtl m288
f 136 173 174

usemtl m289
f 136 174 137

usemtl m290
f 137 174 170

usemtl m291
f 170 174 171

usemtl m292
f 171 174 175

usemtl m293
f 171 175 172

usemtl m294
f 172 175 176

usemtl m295
f 172 176 120

usemtl m296
f 120 176 121

usemtl m297
f 121 176 123

usemtl m298
f 121 123 122

usemtl m299
f 126 125 176

usemtl m300
f 126 176 175

usemtl m301
f 126 175 173

usemtl m302
f 173 175 174

usemtl m303
f 176 125 123

