mtllib 10107.mtl
o runescapemodel
v 0 0 13
v -3 0 17
v 0 0 17
v 2 0 14
v 3 0 17
v 0 0 21
v 2 0 20
v -2 0 14
v -2 0 20
v 0 0 2
v -3 0 6
v 0 0 6
v 2 0 3
v 3 0 6
v 0 0 10
v 2 0 9
v -2 0 3
v -2 0 9
v 0 0 24
v -3 0 28
v 0 0 28
v 2 0 25
v 3 0 28
v 0 0 32
v 2 0 31
v -2 0 25
v -2 0 31
v 0 0 -20
v -3 0 -16
v 0 0 -16
v 2 0 -19
v 3 0 -16
v 0 0 -12
v 2 0 -13
v -2 0 -19
v -2 0 -13
v 0 0 -31
v -3 0 -27
v 0 0 -27
v 2 0 -30
v 3 0 -27
v 0 0 -23
v 2 0 -24
v -2 0 -30
v -2 0 -24
v 0 0 -9
v -3 0 -5
v 0 0 -5
v 2 0 -8
v 3 0 -5
v 0 0 -1
v 2 0 -2
v -2 0 -8
v -2 0 -2
vn 0 -768 0
vn 0 -768 0
vn 0 -1536 0
vn 0 -512 0
vn 0 -768 0
vn 0 -768 0
vn 0 -256 0
vn 0 -256 0
vn 0 -512 0
vn 0 -768 0
vn 0 -768 0
vn 0 -1536 0
vn 0 -512 0
vn 0 -768 0
vn 0 -768 0
vn 0 -256 0
vn 0 -256 0
vn 0 -512 0
vn 0 -768 0
vn 0 -768 0
vn 0 -1536 0
vn 0 -512 0
vn 0 -768 0
vn 0 -768 0
vn 0 -256 0
vn 0 -256 0
vn 0 -512 0
vn 0 -768 0
vn 0 -768 0
vn 0 -1536 0
vn 0 -512 0
vn 0 -768 0
vn 0 -768 0
vn 0 -256 0
vn 0 -256 0
vn 0 -512 0
vn 0 -768 0
vn 0 -768 0
vn 0 -1536 0
vn 0 -512 0
vn 0 -768 0
vn 0 -768 0
vn 0 -256 0
vn 0 -256 0
vn 0 -512 0
vn 0 -768 0
vn 0 -768 0
vn 0 -1536 0
vn 0 -512 0
vn 0 -768 0
vn 0 -768 0
vn 0 -256 0
vn 0 -256 0
vn 0 -512 0
usemtl m0
f 1 2 3

usemtl m1
f 1 3 4

usemtl m2
f 4 3 5

usemtl m3
f 5 3 6

usemtl m4
f 5 6 7

usemtl m5
f 8 2 1

usemtl m6
f 9 3 2

usemtl m7
f 3 9 6

usemtl m8
f 10 11 12

usemtl m9
f 10 12 13

usemtl m10
f 13 12 14

usemtl m11
f 14 12 15

usemtl m12
f 14 15 16

usemtl m13
f 17 11 10

usemtl m14
f 18 12 11

usemtl m15
f 12 18 15

usemtl m16
f 19 20 21

usemtl m17
f 19 21 22

usemtl m18
f 22 21 23

usemtl m19
f 23 21 24

usemtl m20
f 23 24 25

usemtl m21
f 26 20 19

usemtl m22
f 27 21 20

usemtl m23
f 21 27 24

usemtl m24
f 28 29 30

usemtl m25
f 28 30 31

usemtl m26
f 31 30 32

usemtl m27
f 32 30 33

usemtl m28
f 32 33 34

usemtl m29
f 35 29 28

usemtl m30
f 36 30 29

usemtl m31
f 30 36 33

usemtl m32
f 37 38 39

usemtl m33
f 37 39 40

usemtl m34
f 40 39 41

usemtl m35
f 41 39 42

usemtl m36
f 41 42 43

usemtl m37
f 44 38 37

usemtl m38
f 45 39 38

usemtl m39
f 39 45 42

usemtl m40
f 46 47 48

usemtl m41
f 46 48 49

usemtl m42
f 49 48 50

usemtl m43
f 50 48 51

usemtl m44
f 50 51 52

usemtl m45
f 53 47 46

usemtl m46
f 54 48 47

usemtl m47
f 48 54 51

