mtllib 10573.mtl
o runescapemodel
v 17 12 -23
v 9 12 -23
v 9 9 -23
v 17 9 -23
v -16 3 20
v 15 3 20
v 15 9 20
v -16 9 20
v -17 8 20
v -17 4 20
v -16 3 23
v 9 3 23
v 17 3 23
v 17 3 15
v 17 3 -15
v 15 3 -20
v 15 9 -20
v -16 9 -20
v -16 3 -20
v -17 4 -20
v -17 8 -20
v -16 9 -23
v -17 8 -23
v -17 8 -24
v -16 9 -24
v -15 12 -23
v 9 12 -24
v 9 9 -24
v 18 9 -24
v 18 12 -24
v 18 12 -15
v 18 9 -15
v 17 12 -15
v 17 9 -15
v 17 9 15
v 17 12 15
v 18 12 15
v 18 9 15
v 18 9 24
v 18 12 24
v 9 12 24
v 9 9 24
v 9 12 23
v 9 9 23
v -16 9 23
v -15 12 23
v -15 12 24
v -16 9 24
v -17 8 23
v -17 4 23
v -17 4 24
v -16 3 24
v -15 0 23
v 9 0 23
v 9 0 24
v 9 3 24
v 18 3 24
v 18 3 15
v 17 0 15
v 17 0 -15
v 18 0 -15
v 18 3 -15
v 17 3 -23
v 9 3 -23
v -16 3 -23
v -17 4 -23
v 9 0 -23
v -15 0 -23
v 9 3 -24
v 9 0 -24
v 18 0 -24
v 18 3 -24
v 18 0 24
v 18 0 15
v -15 12 -24
v -19 12 -24
v -19 12 24
v -21 11 -24
v -21 11 24
v -17 8 24
v -19 0 -24
v -16 3 -24
v -15 0 -24
v -19 0 24
v -21 1 24
v -21 1 -24
v -17 4 -24
v -23 4 24
v -23 8 24
v -23 8 -24
v -23 4 -24
v -15 0 24
v -18 0 -23
v -18 0 23
v 4 13 -4
v 0 13 -6
v 0 13 -4
v 3 13 -3
v 6 13 0
v 4 13 0
v 4 13 4
v 3 13 3
v 0 13 6
v 0 13 4
v -4 13 4
v -3 13 3
v -6 13 0
v -4 13 0
v -4 13 -4
v -3 13 -3
v 0 13 -7
v -4 13 -10
v -5 13 -5
v 5 13 -5
v 4 13 -10
v 7 13 0
v 9 13 -4
v 5 13 5
v 9 13 4
v 0 13 7
v 4 13 9
v -5 13 5
v -4 13 9
v -7 13 0
v -9 13 4
v -10 13 -4
vn 0 0 -512
vn -256 -1024 0
vn -512 0 0
vn 0 0 -256
vn 192 -704 -1024
vn 512 -1280 -256
vn 256 0 -512
vn 384 384 -512
vn 704 192 -512
vn 640 -384 -256
vn 1152 -1237 -256
vn -512 -1024 -512
vn 0 -1280 0
vn 256 -1024 256
vn 512 -1024 -512
vn 256 -1024 512
vn 512 0 256
vn 192 192 1024
vn 384 -896 512
vn 704 -192 512
vn 640 384 256
vn 1152 981 256
vn 1472 448 0
vn 768 512 1024
vn 768 426 512
vn 512 -342 512
vn -512 -512 512
vn -256 0 256
vn 512 0 512
vn 256 -256 256
vn 512 -768 -256
vn 256 0 -512
vn 512 -768 -512
vn 256 0 -256
vn 512 0 512
vn 256 -768 256
vn 512 -512 512
vn 256 0 256
vn 512 0 -512
vn 256 -256 -256
vn -256 -768 -512
vn -512 0 -256
vn -512 -1280 -512
vn -256 0 -256
vn 960 618 -512
vn 256 -171 -256
vn 512 -86 -256
vn 768 597 -512
vn 1408 896 0
vn 1472 -448 0
vn 768 -512 -1024
vn 768 -426 -512
vn 512 -170 -512
vn -256 0 -256
vn -512 0 -256
vn -256 -512 -512
vn 256 -768 -256
vn 512 -256 512
vn 512 0 512
vn 256 0 -256
vn 256 0 -512
vn 512 -512 -256
vn 0 -1280 0
vn -256 -1280 256
vn 960 -874 512
vn 1408 -896 0
vn -512 0 512
vn 256 -85 256
vn -512 -256 512
vn -256 0 256
vn 512 0 512
vn 256 -768 256
vn 512 0 -512
vn 256 0 256
vn 256 -427 256
vn -114 -485 768
vn -228 -970 -768
vn -441 -600 1024
vn -540 -513 -1024
vn 768 256 -768
vn -228 714 768
vn 768 -597 512
vn 512 -170 256
vn -114 741 -768
vn -441 600 -1024
vn -540 513 1024
vn 768 -256 768
vn -938 284 -256
vn -469 -142 -512
vn -938 -284 256
vn -469 142 512
vn 256 -85 -256
vn 0 512 0
vn 0 256 0
vn 0 -768 0
vn 0 -768 0
vn 0 -768 0
vn 0 -768 0
vn 0 -768 0
vn 0 -768 0
vn 0 -768 0
vn 0 -768 0
vn 0 -768 0
vn 0 -768 0
vn 0 -768 0
vn 0 -768 0
vn 0 -768 0
vn 0 -768 0
vn 0 -768 0
vn 0 -768 0
vn 0 -512 0
vn 0 -256 0
vn 0 -512 0
vn 0 -512 0
vn 0 -256 0
vn 0 -512 0
vn 0 -256 0
vn 0 -512 0
vn 0 -256 0
vn 0 -512 0
vn 0 -256 0
vn 0 -512 0
vn 0 -256 0
vn 0 -512 0
vn 0 -256 0
vn 0 -256 0
usemtl m0
f 1 2 3

usemtl m1
f 1 3 4

usemtl m2
f 5 6 7

usemtl m3
f 5 7 8

usemtl m4
f 5 8 9

usemtl m5
f 5 9 10

usemtl m6
f 5 10 11

usemtl m7
f 5 11 12

usemtl m8
f 5 12 6

usemtl m9
f 6 12 13

usemtl m10
f 6 13 14

usemtl m11
f 6 14 15

usemtl m12
f 6 15 16

usemtl m13
f 6 16 17

usemtl m14
f 6 17 7

usemtl m15
f 18 17 16

usemtl m16
f 18 16 19

usemtl m17
f 18 19 20

usemtl m18
f 18 20 21

usemtl m19
f 18 21 22

usemtl m20
f 22 21 23

usemtl m21
f 22 23 24

usemtl m22
f 22 24 25

usemtl m23
f 22 25 26

usemtl m24
f 22 26 3

usemtl m25
f 3 26 2

usemtl m26
f 3 2 27

usemtl m27
f 3 27 28

usemtl m28
f 28 27 29

usemtl m29
f 29 27 30

usemtl m30
f 29 30 31

usemtl m31
f 29 31 32

usemtl m32
f 32 31 33

usemtl m33
f 32 33 34

usemtl m34
f 34 33 35

usemtl m35
f 35 33 36

usemtl m36
f 35 36 37

usemtl m37
f 35 37 38

usemtl m38
f 38 37 39

usemtl m39
f 39 37 40

usemtl m40
f 39 40 41

usemtl m41
f 39 41 42

usemtl m42
f 42 41 43

usemtl m43
f 42 43 44

usemtl m44
f 44 43 45

usemtl m45
f 45 43 46

usemtl m46
f 45 46 47

usemtl m47
f 45 47 48

usemtl m48
f 45 48 49

usemtl m49
f 45 49 8

usemtl m50
f 8 49 9

usemtl m51
f 9 49 50

usemtl m52
f 9 50 10

usemtl m53
f 10 50 11

usemtl m54
f 11 50 51

usemtl m55
f 11 51 52

usemtl m56
f 11 52 53

usemtl m57
f 11 53 12

usemtl m58
f 12 53 54

usemtl m59
f 12 54 55

usemtl m60
f 12 55 56

usemtl m61
f 12 56 13

usemtl m62
f 13 56 57

usemtl m63
f 13 57 14

usemtl m64
f 14 57 58

usemtl m65
f 14 58 59

usemtl m66
f 14 59 15

usemtl m67
f 15 59 60

usemtl m68
f 15 60 61

usemtl m69
f 15 61 62

usemtl m70
f 15 62 63

usemtl m71
f 15 63 16

usemtl m72
f 16 63 64

usemtl m73
f 16 64 19

usemtl m74
f 19 64 65

usemtl m75
f 19 65 66

usemtl m76
f 19 66 20

usemtl m77
f 20 66 23

usemtl m78
f 20 23 21

usemtl m79
f 26 46 43

usemtl m80
f 26 43 2

usemtl m81
f 2 43 33

usemtl m82
f 2 33 31

usemtl m83
f 2 31 27

usemtl m84
f 27 31 30

usemtl m85
f 67 68 65

usemtl m86
f 67 65 64

usemtl m87
f 67 64 69

usemtl m88
f 67 69 70

usemtl m89
f 70 69 71

usemtl m90
f 71 69 72

usemtl m91
f 71 72 62

usemtl m92
f 71 62 61

usemtl m93
f 43 36 33

usemtl m94
f 36 43 41

usemtl m95
f 36 41 37

usemtl m96
f 37 41 40

usemtl m97
f 73 74 58

usemtl m98
f 73 58 57

usemtl m99
f 73 57 56

usemtl m100
f 73 56 55

usemtl m101
f 75 76 77

usemtl m102
f 75 77 47

usemtl m103
f 75 47 46

usemtl m104
f 75 46 26

usemtl m105
f 75 26 25

usemtl m106
f 75 25 76

usemtl m107
f 76 25 24

usemtl m108
f 76 24 78

usemtl m109
f 76 78 77

usemtl m110
f 77 78 79

usemtl m111
f 77 79 80

usemtl m112
f 77 80 48

usemtl m113
f 77 48 47

usemtl m114
f 81 82 83

usemtl m115
f 83 82 65

usemtl m116
f 83 65 68

usemtl m117
f 81 84 85

usemtl m118
f 81 85 86

usemtl m119
f 81 86 87

usemtl m120
f 81 87 82

usemtl m121
f 82 87 66

usemtl m122
f 82 66 65

usemtl m123
f 88 89 90

usemtl m124
f 88 90 91

usemtl m125
f 88 91 86

usemtl m126
f 88 86 85

usemtl m127
f 88 85 89

usemtl m128
f 89 85 79

usemtl m129
f 89 79 90

usemtl m130
f 90 79 78

usemtl m131
f 90 78 91

usemtl m132
f 91 78 86

usemtl m133
f 86 78 24

usemtl m134
f 86 24 87

usemtl m135
f 87 24 23

usemtl m136
f 87 23 66

usemtl m137
f 84 92 52

usemtl m138
f 84 52 51

usemtl m139
f 84 51 85

usemtl m140
f 85 51 79

usemtl m141
f 79 51 80

usemtl m142
f 80 51 50

usemtl m143
f 80 50 49

usemtl m144
f 80 49 48

usemtl m145
f 64 63 72

usemtl m146
f 64 72 69

usemtl m147
f 63 62 72

usemtl m148
f 59 58 74

usemtl m149
f 93 94 84

usemtl m150
f 93 84 81

usemtl m151
f 53 52 92

usemtl m152
f 95 96 97

usemtl m153
f 95 97 98

usemtl m154
f 95 98 99

usemtl m155
f 99 98 100

usemtl m156
f 99 100 101

usemtl m157
f 101 100 102

usemtl m158
f 101 102 103

usemtl m159
f 103 102 104

usemtl m160
f 103 104 105

usemtl m161
f 105 104 106

usemtl m162
f 105 106 107

usemtl m163
f 107 106 108

usemtl m164
f 107 108 109

usemtl m165
f 109 108 110

usemtl m166
f 109 110 96

usemtl m167
f 96 110 97

usemtl m168
f 111 112 113

usemtl m169
f 114 115 111

usemtl m170
f 116 117 114

usemtl m171
f 118 119 116

usemtl m172
f 120 121 118

usemtl m173
f 122 123 120

usemtl m174
f 124 125 122

usemtl m175
f 113 126 124

