mtllib 10603.mtl
o runescapemodel
v 39 0 45
v 33 0 45
v 36 2 48
v 39 0 51
v 33 0 51
v 30 1 -42
v -30 1 -42
v 0 0 0
v 30 1 42
v 33 0 -45
v -33 0 -45
v -30 1 42
v -33 0 45
v -33 0 51
v -36 2 48
v -39 0 51
v -39 0 45
v -33 0 -51
v -36 2 -48
v -39 0 -45
v -39 0 -51
v 39 0 -45
v 39 0 -51
v 36 2 -48
v 33 0 -51
vn 146 -438 146
vn 16 -1167 65
vn 0 -876 0
vn 146 -438 -146
vn -146 -438 -146
vn 154 -1240 75
vn -73 -1240 156
vn 0 -1022 0
vn 73 -1240 -156
vn -65 -1167 16
vn -16 -1167 -65
vn -154 -1240 -75
vn 65 -1167 -16
vn 146 -438 -146
vn 0 -876 0
vn -146 -438 -146
vn -146 -438 146
vn 146 -438 146
vn 0 -876 0
vn -146 -438 -146
vn -146 -438 146
vn 146 -438 -146
vn 146 -438 146
vn 0 -876 0
vn -146 -438 146
usemtl m0
f 1 2 3

usemtl m1
f 1 3 4

usemtl m2
f 4 3 5

usemtl m3
f 5 3 2

usemtl m4
f 6 7 8

usemtl m5
f 6 8 9

usemtl m6
f 6 9 2

usemtl m7
f 6 2 10

usemtl m8
f 6 10 7

usemtl m9
f 7 10 11

usemtl m10
f 7 11 12

usemtl m11
f 7 12 8

usemtl m12
f 8 12 9

usemtl m13
f 9 12 13

usemtl m14
f 9 13 2

usemtl m15
f 12 11 13

usemtl m16
f 14 13 15

usemtl m17
f 14 15 16

usemtl m18
f 16 15 17

usemtl m19
f 17 15 13

usemtl m20
f 11 18 19

usemtl m21
f 11 19 20

usemtl m22
f 20 19 21

usemtl m23
f 21 19 18

usemtl m24
f 22 23 24

usemtl m25
f 22 24 10

usemtl m26
f 10 24 25

usemtl m27
f 25 24 23

