mtllib 10702.mtl
o runescapemodel
v -30 91 -11
v -29 93 -12
v -29 93 -11
v -30 91 -10
v -32 91 -11
v -33 87 -12
v -29 87 -12
v -26 92 -14
v -30 95 -13
v -30 95 -12
v -31 97 -11
v -27 93 -10
v -31 89 -9
v -32 91 -10
v -33 93 -12
v -36 92 -14
v -38 87 -14
v -32 87 -15
v -35 91 -17
v -33 97 -15
v -38 96 -17
v -31 90 -21
v -30 87 -15
v -31 83 -13
v -27 91 -17
v -24 87 -14
v -33 93 -11
v -32 95 -13
v -32 95 -12
v -29 97 -15
v -31 100 -18
v -32 95 -18
v -30 95 -18
v -24 96 -17
v -35 93 -10
v -33 94 -9
v -32 95 -10
v -30 95 -10
v -29 94 -9
v -30 92 -8
v -32 92 -8
v -32 94 -3
v -33 96 -4
v -32 98 -4
v -30 98 -4
v -29 96 -4
v -30 94 -3
v -30 98 9
v -29 99 8
v -27 99 10
v -29 97 11
v -32 98 9
v -32 98 8
v -30 98 8
v -29 99 7
v -30 100 8
v -29 104 9
v -31 102 11
v -29 100 12
v -31 99 12
v -33 97 11
v -33 99 8
v -33 99 7
v -35 98 6
v -33 96 7
v -29 96 7
v -27 98 6
v -30 100 7
v -32 100 8
v -33 104 9
v -33 100 12
v -32 119 74
v -31 119 73
v -30 119 74
v -31 118 74
v -35 99 10
v -32 100 7
v -33 101 5
v -32 99 4
v -33 98 5
v -32 97 5
v -30 97 5
v -29 98 5
v -29 101 5
v -31 119 74
v -30 96 3
v -29 97 3
v -32 96 3
v -33 97 3
v -32 99 1
v -30 99 1
v -30 99 4
vn 704 640 -704
vn 1266 -288 -571
vn 1239 97 431
vn 460 1074 664
vn -574 684 -687
vn -286 -139 -1201
vn 259 -127 -1171
vn 462 -294 -1155
vn 552 -1123 -551
vn 768 -768 256
vn 375 -945 -233
vn 687 -120 110
vn 192 776 -65
vn -512 640 256
vn -1186 -185 -598
vn -499 -454 -1108
vn -355 266 87
vn -18 462 703
vn -234 363 647
vn -180 -593 -1111
vn -368 -162 210
vn 0 293 952
vn 238 343 721
vn 0 388 156
vn 241 120 710
vn 355 266 87
vn -998 89 460
vn -614 -1055 -594
vn -576 -864 640
vn 265 -539 -1159
vn 0 -288 288
vn -243 97 749
vn 27 -10 791
vn 368 -162 210
vn -897 -70 18
vn -753 -207 -654
vn -204 -642 -271
vn 481 -1148 -240
vn 1201 -272 -296
vn 728 639 -487
vn -551 760 -941
vn -472 452 -180
vn -696 -180 84
vn -236 -590 295
vn 441 -491 233
vn 704 80 -32
vn 236 610 -243
vn 493 1462 402
vn 1129 425 566
vn 912 290 -244
vn 237 822 -110
vn -597 1536 426
vn -572 847 -731
vn 704 1024 -704
vn 1344 -512 -704
vn 563 -947 768
vn 353 -427 298
vn 164 -1193 -507
vn 615 -206 -187
vn 178 1087 -1299
vn -341 832 -86
vn -1151 22 468
vn -1278 -169 -596
vn -859 47 5
vn -401 888 -263
vn 429 822 -302
vn 909 -106 -14
vn 672 -1440 -544
vn -579 -1019 647
vn -405 -593 197
vn -814 142 -598
vn -432 -227 -201
vn 195 -644 181
vn 359 161 -308
vn -110 577 -691
vn -865 66 -53
vn -682 -1450 -426
vn -500 -884 268
vn -480 -736 736
vn -1001 361 553
vn -510 1278 128
vn 407 1248 189
vn 1044 298 619
vn 480 -800 288
vn 0 0 -512
vn 340 596 -298
vn 682 -128 0
vn -170 682 -341
vn -596 255 -128
vn -448 -533 42
vn 256 -640 0
vn 704 -810 789
usemtl m0
f 1 2 3

usemtl m1
f 1 3 4

usemtl m2
f 1 4 5

usemtl m3
f 1 5 6

usemtl m4
f 1 6 7

usemtl m5
f 1 7 2

usemtl m6
f 2 7 8

usemtl m7
f 2 8 9

usemtl m8
f 2 9 10

usemtl m9
f 2 10 3

usemtl m10
f 3 10 11

usemtl m11
f 3 11 12

usemtl m12
f 3 12 4

usemtl m13
f 4 12 13

usemtl m14
f 4 13 14

usemtl m15
f 4 14 5

usemtl m16
f 5 14 15

usemtl m17
f 5 15 16

usemtl m18
f 5 16 6

usemtl m19
f 6 16 17

usemtl m20
f 6 17 18

usemtl m21
f 6 18 16

usemtl m22
f 16 18 19

usemtl m23
f 16 19 20

usemtl m24
f 16 20 21

usemtl m25
f 16 21 19

usemtl m26
f 16 19 17

usemtl m27
f 17 19 18

usemtl m28
f 18 19 22

usemtl m29
f 18 22 23

usemtl m30
f 18 23 24

usemtl m31
f 18 24 6

usemtl m32
f 18 6 23

usemtl m33
f 23 6 7

usemtl m34
f 23 7 25

usemtl m35
f 23 25 26

usemtl m36
f 23 26 7

usemtl m37
f 23 7 24

usemtl m38
f 24 7 6

usemtl m39
f 15 14 27

usemtl m40
f 15 27 28

usemtl m41
f 15 28 20

usemtl m42
f 15 20 16

usemtl m43
f 28 27 29

usemtl m44
f 28 29 9

usemtl m45
f 28 9 30

usemtl m46
f 28 30 20

usemtl m47
f 20 30 31

usemtl m48
f 20 31 32

usemtl m49
f 20 32 30

usemtl m50
f 30 32 33

usemtl m51
f 30 33 8

usemtl m52
f 30 8 34

usemtl m53
f 30 34 33

usemtl m54
f 30 33 31

usemtl m55
f 31 33 32

usemtl m56
f 32 33 22

usemtl m57
f 32 22 19

usemtl m58
f 32 19 21

usemtl m59
f 32 21 20

usemtl m60
f 32 20 19

usemtl m61
f 9 29 10

usemtl m62
f 10 29 11

usemtl m63
f 11 29 35

usemtl m64
f 11 35 36

usemtl m65
f 11 36 37

usemtl m66
f 11 37 38

usemtl m67
f 11 38 12

usemtl m68
f 12 38 39

usemtl m69
f 12 39 13

usemtl m70
f 13 39 40

usemtl m71
f 13 40 41

usemtl m72
f 13 41 35

usemtl m73
f 13 35 27

usemtl m74
f 13 27 14

usemtl m75
f 29 27 35

usemtl m76
f 35 41 36

usemtl m77
f 36 41 42

usemtl m78
f 36 42 43

usemtl m79
f 36 43 37

usemtl m80
f 37 43 44

usemtl m81
f 37 44 38

usemtl m82
f 38 44 45

usemtl m83
f 38 45 39

usemtl m84
f 39 45 46

usemtl m85
f 39 46 40

usemtl m86
f 40 46 47

usemtl m87
f 40 47 41

usemtl m88
f 41 47 42

usemtl m89
f 48 49 50

usemtl m90
f 48 50 51

usemtl m91
f 48 51 52

usemtl m92
f 48 52 53

usemtl m93
f 48 53 54

usemtl m94
f 48 54 49

usemtl m95
f 49 54 55

usemtl m96
f 49 55 56

usemtl m97
f 49 56 57

usemtl m98
f 49 57 50

usemtl m99
f 50 57 58

usemtl m100
f 50 58 59

usemtl m101
f 50 59 60

usemtl m102
f 50 60 51

usemtl m103
f 51 60 61

usemtl m104
f 51 61 52

usemtl m105
f 52 61 62

usemtl m106
f 52 62 63

usemtl m107
f 52 63 53

usemtl m108
f 53 63 64

usemtl m109
f 53 64 65

usemtl m110
f 53 65 54

usemtl m111
f 54 65 66

usemtl m112
f 54 66 55

usemtl m113
f 55 66 67

usemtl m114
f 55 67 68

usemtl m115
f 55 68 56

usemtl m116
f 56 68 69

usemtl m117
f 56 69 70

usemtl m118
f 56 70 57

usemtl m119
f 57 70 58

usemtl m120
f 58 70 71

usemtl m121
f 58 71 72

usemtl m122
f 58 72 73

usemtl m123
f 58 73 59

usemtl m124
f 59 73 74

usemtl m125
f 59 74 60

usemtl m126
f 60 74 75

usemtl m127
f 60 75 71

usemtl m128
f 60 71 76

usemtl m129
f 60 76 61

usemtl m130
f 61 76 62

usemtl m131
f 62 76 69

usemtl m132
f 62 69 77

usemtl m133
f 62 77 63

usemtl m134
f 63 77 78

usemtl m135
f 63 78 64

usemtl m136
f 64 78 79

usemtl m137
f 64 79 80

usemtl m138
f 64 80 65

usemtl m139
f 65 80 81

usemtl m140
f 65 81 66

usemtl m141
f 66 81 82

usemtl m142
f 66 82 67

usemtl m143
f 67 82 83

usemtl m144
f 67 83 84

usemtl m145
f 67 84 68

usemtl m146
f 68 84 77

usemtl m147
f 68 77 69

usemtl m148
f 69 76 70

usemtl m149
f 70 76 71

usemtl m150
f 71 75 72

usemtl m151
f 72 75 85

usemtl m152
f 72 85 73

usemtl m153
f 72 73 85

usemtl m154
f 75 74 85

usemtl m155
f 22 25 23

usemtl m156
f 25 22 33

usemtl m157
f 25 33 34

usemtl m158
f 25 34 8

usemtl m159
f 25 8 33

usemtl m160
f 8 25 7

usemtl m161
f 8 7 26

usemtl m162
f 8 26 25

usemtl m163
f 8 30 9

usemtl m164
f 86 87 83

usemtl m165
f 86 83 82

usemtl m166
f 86 82 88

usemtl m167
f 88 82 81

usemtl m168
f 88 81 89

usemtl m169
f 89 81 80

usemtl m170
f 89 80 90

usemtl m171
f 90 80 79

usemtl m172
f 90 79 91

usemtl m173
f 91 79 92

usemtl m174
f 91 92 87

usemtl m175
f 87 92 83

usemtl m176
f 83 92 84

usemtl m177
f 84 92 78

usemtl m178
f 84 78 77

usemtl m179
f 92 79 78

