mtllib 10731.mtl
o runescapemodel
v -24 15 -8
v -23 15 18
v 5 15 19
v 5 15 -9
v 10 15 -13
v 9 15 -20
v -9 15 -24
v -29 15 -17
v -29 15 -12
v -34 15 -13
v -29 15 -8
v -27 15 25
v 10 15 27
v 10 15 -9
v 15 15 -15
v 14 15 -24
v -9 15 -28
v -34 15 -20
v -34 10 -20
v -34 10 -13
v -29 10 -8
v -27 10 25
v 10 10 27
v 10 10 -9
v 15 10 -15
v 14 10 -24
v -9 10 -28
v -14 9 -19
v -22 9 -12
v -22 9 13
v -14 9 20
v -2 9 20
v 5 9 14
v 7 9 -11
v -2 9 -19
v 0 7 -22
v -16 7 -22
v -28 7 -14
v -28 7 15
v -16 7 23
v 1 7 23
v 12 7 16
v 14 7 -12
v 14 5 -12
v 0 5 -22
v -8 3 -29
v -8 5 -29
v -16 5 -22
v -28 5 -14
v -36 3 1
v -36 5 1
v -28 5 15
v -16 5 23
v -8 3 31
v -8 5 31
v 1 5 23
v 12 5 16
v 19 3 1
v 19 5 1
v 5 3 14
v 7 3 -11
v -2 3 -19
v -22 3 13
v -14 3 20
v -2 3 20
v 10 2 27
v 10 2 -9
v 15 2 -15
v 14 2 -24
v -14 3 -19
v -22 3 -12
v -29 2 -8
v -27 2 25
v -27 -3 25
v 10 -3 27
v 10 -3 -9
v 15 -3 -15
v 14 -3 -24
v -9 2 -28
v -34 2 -20
v -34 2 -13
v -34 -3 -13
v -29 -3 -8
v -24 -3 -8
v -23 -3 18
v 5 -3 19
v 5 -3 -9
v 10 -3 -13
v 9 -3 -20
v -9 -3 -28
v -34 -3 -20
v -29 -3 -17
v -29 -3 -12
v -9 -3 -24
vn 0 -2560 0
vn 0 -1024 0
vn 0 -1280 0
vn 0 -1280 0
vn 0 -1280 0
vn 0 -1280 0
vn 0 -1280 0
vn 0 -1280 0
vn 0 -1024 0
vn -694 -768 -182
vn -620 -768 -379
vn -525 -768 -286
vn 230 -768 -512
vn 708 -768 -164
vn 648 -768 -300
vn 556 -768 309
vn 10 -768 750
vn -412 -768 488
vn -634 766 291
vn -664 512 -387
vn -752 509 -237
vn -382 1012 -588
vn 631 1260 -353
vn 781 491 -372
vn 790 503 -149
vn 390 766 582
vn -118 764 835
vn -106 111 455
vn -358 564 162
vn -283 -222 -82
vn -142 82 -408
vn 83 -148 -417
vn 240 -213 -180
vn 414 520 25
vn 148 85 383
vn 713 -902 1267
vn -452 -927 801
vn -1019 -973 757
vn -640 -959 -518
vn -733 -901 -1260
vn 425 -936 -770
vn 1006 -978 -738
vn 680 -956 462
vn 907 973 683
vn 459 924 651
vn 170 247 515
vn -170 -247 655
vn -701 901 1147
vn -517 959 510
vn -612 248 112
vn -735 -248 -136
vn -893 973 -773
vn -468 927 -659
vn -202 248 -502
vn 154 -248 -632
vn 674 910 -1133
vn 469 970 -479
vn 629 242 -117
vn 805 -242 75
vn 332 -13 -90
vn 360 -41 141
vn 118 -110 453
vn -310 -55 -191
vn -96 147 -444
vn 122 -65 -401
vn 290 -760 -565
vn 888 -744 -214
vn 735 -759 -320
vn 575 -761 385
vn -170 -72 441
vn -353 -541 118
vn -723 -763 -404
vn -584 -1013 -392
vn -282 768 -527
vn 499 768 -256
vn 648 768 -328
vn 708 768 -108
vn 344 768 534
vn -39 -758 849
vn -439 -511 509
vn -738 -512 -205
vn -620 768 -364
vn -694 768 -212
vn 0 2560 0
vn 0 1024 0
vn 0 1280 0
vn 0 1280 0
vn 0 1280 0
vn 0 1280 0
vn -112 768 741
vn -590 768 244
vn 0 1280 0
vn 0 1024 0
vn 0 1280 0
usemtl m0
f 1 2 3

usemtl m1
f 1 3 4

usemtl m2
f 1 4 5

usemtl m3
f 1 5 6

usemtl m4
f 1 6 7

usemtl m5
f 1 7 8

usemtl m6
f 1 8 9

usemtl m7
f 1 9 10

usemtl m8
f 1 10 11

usemtl m9
f 1 11 2

usemtl m10
f 2 11 12

usemtl m11
f 2 12 3

usemtl m12
f 3 12 13

usemtl m13
f 3 13 4

usemtl m14
f 4 13 14

usemtl m15
f 4 14 5

usemtl m16
f 5 14 15

usemtl m17
f 5 15 6

usemtl m18
f 6 15 16

usemtl m19
f 6 16 7

usemtl m20
f 7 16 17

usemtl m21
f 7 17 8

usemtl m22
f 8 17 18

usemtl m23
f 8 18 9

usemtl m24
f 9 18 10

usemtl m25
f 10 18 19

usemtl m26
f 10 19 20

usemtl m27
f 10 20 11

usemtl m28
f 11 20 21

usemtl m29
f 11 21 12

usemtl m30
f 12 21 22

usemtl m31
f 12 22 13

usemtl m32
f 13 22 23

usemtl m33
f 13 23 14

usemtl m34
f 14 23 24

usemtl m35
f 14 24 15

usemtl m36
f 15 24 25

usemtl m37
f 15 25 16

usemtl m38
f 16 25 26

usemtl m39
f 16 26 17

usemtl m40
f 17 26 27

usemtl m41
f 17 27 18

usemtl m42
f 18 27 19

usemtl m43
f 19 27 28

usemtl m44
f 19 28 29

usemtl m45
f 19 29 20

usemtl m46
f 20 29 29

usemtl m47
f 20 29 21

usemtl m48
f 21 29 22

usemtl m49
f 22 29 30

usemtl m50
f 22 30 31

usemtl m51
f 22 31 23

usemtl m52
f 23 31 32

usemtl m53
f 23 32 33

usemtl m54
f 23 33 34

usemtl m55
f 23 34 24

usemtl m56
f 24 34 25

usemtl m57
f 25 34 26

usemtl m58
f 26 34 35

usemtl m59
f 26 35 27

usemtl m60
f 27 35 28

usemtl m61
f 28 35 36

usemtl m62
f 28 36 37

usemtl m63
f 28 37 29

usemtl m64
f 29 37 38

usemtl m65
f 29 38 30

usemtl m66
f 30 38 39

usemtl m67
f 30 39 31

usemtl m68
f 31 39 40

usemtl m69
f 31 40 32

usemtl m70
f 32 40 41

usemtl m71
f 32 41 33

usemtl m72
f 33 41 42

usemtl m73
f 33 42 34

usemtl m74
f 34 42 43

usemtl m75
f 34 43 35

usemtl m76
f 35 43 36

usemtl m77
f 36 43 44

usemtl m78
f 36 44 45

usemtl m79
f 36 45 46

usemtl m80
f 36 46 47

usemtl m81
f 36 47 37

usemtl m82
f 37 47 47

usemtl m83
f 37 47 48

usemtl m84
f 37 48 38

usemtl m85
f 38 48 49

usemtl m86
f 38 49 50

usemtl m87
f 38 50 51

usemtl m88
f 38 51 39

usemtl m89
f 39 51 51

usemtl m90
f 39 51 52

usemtl m91
f 39 52 40

usemtl m92
f 40 52 53

usemtl m93
f 40 53 54

usemtl m94
f 40 54 55

usemtl m95
f 40 55 41

usemtl m96
f 41 55 55

usemtl m97
f 41 55 56

usemtl m98
f 41 56 42

usemtl m99
f 42 56 57

usemtl m100
f 42 57 58

usemtl m101
f 42 58 59

usemtl m102
f 42 59 43

usemtl m103
f 43 59 59

usemtl m104
f 43 59 44

usemtl m105
f 44 59 58

usemtl m106
f 44 58 57

usemtl m107
f 44 57 60

usemtl m108
f 44 60 61

usemtl m109
f 44 61 45

usemtl m110
f 45 61 62

usemtl m111
f 45 62 48

usemtl m112
f 45 48 46

usemtl m113
f 45 46 46

usemtl m114
f 53 52 63

usemtl m115
f 53 63 64

usemtl m116
f 53 64 56

usemtl m117
f 53 56 54

usemtl m118
f 53 54 54

usemtl m119
f 56 64 65

usemtl m120
f 56 65 57

usemtl m121
f 57 65 60

usemtl m122
f 60 65 66

usemtl m123
f 60 66 67

usemtl m124
f 60 67 61

usemtl m125
f 61 67 68

usemtl m126
f 61 68 62

usemtl m127
f 62 68 69

usemtl m128
f 62 69 70

usemtl m129
f 62 70 48

usemtl m130
f 48 70 49

usemtl m131
f 49 70 71

usemtl m132
f 49 71 52

usemtl m133
f 49 52 50

usemtl m134
f 49 50 50

usemtl m135
f 52 71 63

usemtl m136
f 63 71 72

usemtl m137
f 63 72 73

usemtl m138
f 63 73 64

usemtl m139
f 64 73 65

usemtl m140
f 65 73 66

usemtl m141
f 66 73 74

usemtl m142
f 66 74 75

usemtl m143
f 66 75 67

usemtl m144
f 67 75 76

usemtl m145
f 67 76 68

usemtl m146
f 68 76 77

usemtl m147
f 68 77 69

usemtl m148
f 69 77 78

usemtl m149
f 69 78 79

usemtl m150
f 69 79 70

usemtl m151
f 70 79 71

usemtl m152
f 71 79 80

usemtl m153
f 71 80 71

usemtl m154
f 71 80 81

usemtl m155
f 71 81 72

usemtl m156
f 72 81 82

usemtl m157
f 72 82 83

usemtl m158
f 72 83 73

usemtl m159
f 73 83 74

usemtl m160
f 74 83 84

usemtl m161
f 74 84 85

usemtl m162
f 74 85 75

usemtl m163
f 75 85 86

usemtl m164
f 75 86 76

usemtl m165
f 76 86 87

usemtl m166
f 76 87 77

usemtl m167
f 77 87 88

usemtl m168
f 77 88 78

usemtl m169
f 78 88 89

usemtl m170
f 78 89 90

usemtl m171
f 78 90 79

usemtl m172
f 79 90 80

usemtl m173
f 80 90 91

usemtl m174
f 80 91 81

usemtl m175
f 81 91 82

usemtl m176
f 82 91 92

usemtl m177
f 82 92 93

usemtl m178
f 82 93 83

usemtl m179
f 83 93 84

usemtl m180
f 84 93 92

usemtl m181
f 84 92 94

usemtl m182
f 84 94 89

usemtl m183
f 84 89 88

usemtl m184
f 84 88 87

usemtl m185
f 84 87 86

usemtl m186
f 84 86 85

usemtl m187
f 90 89 94

usemtl m188
f 90 94 91

usemtl m189
f 91 94 92

usemtl m190
f 55 54 56

usemtl m191
f 57 58 58

usemtl m192
f 51 50 52

usemtl m193
f 47 46 48

