newmtl m0
Kd 0.33725490196078434 0.2196078431372549 0.011764705882352941
newmtl m1
Kd 0.33725490196078434 0.2196078431372549 0.011764705882352941
newmtl m2
Kd 0.33725490196078434 0.2196078431372549 0.011764705882352941
newmtl m3
Kd 0.33725490196078434 0.2196078431372549 0.011764705882352941
newmtl m4
Kd 0.33725490196078434 0.2196078431372549 0.011764705882352941
newmtl m5
Kd 0.33725490196078434 0.2196078431372549 0.011764705882352941
newmtl m6
Kd 0.33725490196078434 0.2196078431372549 0.011764705882352941
newmtl m7
Kd 0.33725490196078434 0.2196078431372549 0.011764705882352941
newmtl m8
Kd 0.33725490196078434 0.2196078431372549 0.011764705882352941
newmtl m9
Kd 0.33725490196078434 0.2196078431372549 0.011764705882352941
newmtl m10
Kd 0.33725490196078434 0.2196078431372549 0.011764705882352941
newmtl m11
Kd 0.33725490196078434 0.2196078431372549 0.011764705882352941
newmtl m12
Kd 0.33725490196078434 0.2196078431372549 0.011764705882352941
newmtl m13
Kd 0.33725490196078434 0.2196078431372549 0.011764705882352941
newmtl m14
Kd 0.33725490196078434 0.2196078431372549 0.011764705882352941
newmtl m15
Kd 0.33725490196078434 0.2196078431372549 0.011764705882352941
newmtl m16
Kd 0.5372549019607843 0.3607843137254902 0.16470588235294117
newmtl m17
Kd 0.5372549019607843 0.3607843137254902 0.16470588235294117
newmtl m18
Kd 0.5372549019607843 0.3607843137254902 0.16470588235294117
newmtl m19
Kd 0.5372549019607843 0.3607843137254902 0.16470588235294117
