mtllib 11552.mtl
o runescapemodel
v 58 142 -51
v -27 142 -51
v -27 126 17
v 58 126 17
v 62 143 -55
v -31 143 -55
v -31 125 21
v 62 125 21
v 62 117 20
v 62 117 -58
v -31 150 -55
v 62 150 -55
v 62 150 21
v -31 117 20
v -31 117 -58
v -31 150 21
v -14 144 -45
v -20 143 -39
v -16 141 -32
v -7 143 -39
v -5 140 -42
v -9 141 -47
v -18 141 -47
v -22 140 -42
v -22 138 -36
v -18 137 -31
v -11 141 -32
v -9 137 -31
v -5 138 -35
v 6 145 -45
v 4 145 -43
v 4 142 -33
v 6 141 -31
v 9 141 -31
v 9 145 -45
v 10 141 -48
v 5 141 -48
v 2 141 -45
v 2 138 -33
v 5 137 -30
v 10 137 -30
v 11 142 -33
v 11 145 -43
v 13 141 -45
v 13 138 -33
v 26 144 -45
v 22 143 -41
v 22 142 -36
v 26 141 -32
v 31 141 -32
v 31 144 -45
v 33 141 -48
v 24 141 -48
v 20 140 -43
v 20 138 -36
v 24 137 -31
v 33 137 -31
v 35 142 -36
v 35 143 -41
v 37 140 -43
v 37 138 -35
v 50 142 -33
v 50 145 -43
v 46 145 -43
v 46 142 -33
v 45 137 -31
v 51 137 -31
v 53 138 -33
v 53 141 -45
v 51 141 -47
v 45 141 -47
v 43 141 -45
v 43 138 -33
v 49 136 -16
v 49 138 -21
v 47 138 -21
v 47 136 -16
v 46 133 -14
v 50 133 -14
v 51 134 -15
v 51 135 -22
v 50 135 -23
v 46 135 -23
v 45 135 -22
v 45 134 -15
v -14 138 -23
v -18 137 -18
v -15 135 -14
v -9 137 -18
v -7 135 -21
v -10 135 -25
v -17 135 -25
v -20 135 -21
v -20 134 -17
v -17 133 -13
v -12 135 -14
v -10 133 -13
v -7 134 -16
v 7 139 -23
v 5 139 -21
v 5 136 -15
v 7 136 -13
v 8 136 -13
v 8 139 -23
v 9 136 -25
v 6 136 -25
v 4 136 -23
v 4 134 -15
v 6 133 -12
v 9 133 -12
v 10 136 -15
v 10 139 -21
v 11 136 -23
v 11 134 -15
v 27 137 -23
v 24 137 -20
v 24 136 -17
v 27 135 -14
v 30 135 -14
v 30 137 -23
v 31 135 -25
v 26 135 -25
v 23 135 -21
v 23 134 -17
v 26 133 -13
v 31 133 -13
v 33 136 -17
v 33 137 -20
v 34 135 -21
v 34 134 -16
v -17 131 -5
v -14 130 0
v -14 134 -4
v -14 132 -10
v -11 131 -5
v 3 131 -5
v 6 130 0
v 6 134 -4
v 6 132 -10
v 9 131 -5
v 23 131 -5
v 26 130 0
v 26 134 -4
v 26 132 -10
v 29 131 -5
v 43 131 -5
v 46 130 0
v 46 134 -4
v 46 132 -10
v 49 131 -5
v -11 128 7
v -8 127 10
v -8 131 8
v -8 129 4
v -5 128 7
v 6 128 7
v 9 127 10
v 9 131 8
v 9 129 4
v 12 128 7
v 21 128 7
v 24 127 10
v 24 131 8
v 24 129 4
v 27 128 7
v 38 128 7
v 41 127 10
v 41 131 8
v 41 129 4
v 44 128 7
v -92 125 -2
v -87 121 -2
v -96 121 -2
v -92 125 14
v -87 121 14
v -89 117 14
v -89 117 -2
v -94 117 -2
v -96 121 14
v -94 122 14
v -89 122 14
v -89 120 14
v -94 117 14
v -94 120 14
v -94 121 43
v -94 123 43
v -89 123 43
v -89 121 43
v -77 123 42
v -77 121 42
v -92 118 45
v -107 117 45
v -107 121 42
v -107 123 42
v -92 126 45
v -77 127 45
v -77 117 45
v -107 127 45
v -107 117 49
v -107 127 49
v -107 122 52
v -92 118 49
v -92 122 51
v -92 126 49
v -77 127 49
v -77 117 49
v -77 122 52
v -89 125 -16
v -86 121 -20
v -92 121 -13
v -76 125 -7
v -73 121 -11
v -74 117 -10
v -88 117 -19
v -90 117 -14
v -78 121 -4
v -77 122 -6
v -75 122 -9
v -75 120 -9
v -77 117 -5
v -77 120 -6
v -74 122 -5
v -72 122 -7
v -72 120 -7
v -70 122 -8
v -70 120 -8
v -36 122 15
v -36 120 15
v -40 120 21
v -40 122 21
v -74 122 -2
v -74 120 -2
v -74 120 -5
v -29 121 58
v -50 121 58
v -50 117 58
v -29 117 58
v -29 121 30
v -32 121 33
v -32 121 55
v -47 121 55
v -50 121 30
v -50 117 30
v -29 117 30
v -47 121 33
v -41 125 37
v -43 125 39
v -43 125 49
v -41 125 51
v -38 125 51
v -38 125 37
v -37 121 35
v -42 121 35
v -45 121 38
v -45 121 50
v -42 121 53
v -37 121 53
v -36 125 49
v -36 125 39
v -34 121 38
v -34 121 50
v -6 121 59
v -24 121 51
v -24 117 51
v -6 117 59
v 1 121 41
v -16 121 34
v -16 117 34
v 1 117 41
v -13 121 45
v -13 121 50
v -11 124 46
v -9 121 41
v -8 121 47
v 106 121 59
v 79 121 59
v 79 117 59
v 106 117 59
v 106 121 32
v 103 121 35
v 103 121 56
v 82 121 56
v 79 121 32
v 79 117 32
v 106 117 32
v 82 121 35
v 90 125 39
v 86 125 43
v 86 125 48
v 90 125 52
v 95 125 52
v 95 125 39
v 97 121 37
v 88 121 37
v 84 121 42
v 84 121 49
v 88 121 54
v 97 121 54
v 99 125 48
v 99 125 43
v 101 121 42
v 101 121 50
v 34 121 55
v 15 121 55
v 15 117 55
v 34 117 55
v 34 121 36
v 15 121 36
v 15 117 36
v 34 117 36
v 22 121 45
v 25 121 50
v 25 124 45
v 25 121 40
v 28 121 45
v 75 121 47
v 59 121 59
v 59 117 59
v 75 117 47
v 63 121 32
v 48 121 44
v 48 117 44
v 63 117 32
v 55 121 47
v 60 121 48
v 58 124 45
v 56 121 43
v 60 121 43
v 62 121 48
v 67 121 48
v 65 124 46
v 63 121 44
v 67 121 44
v -50 131 30
v -29 131 30
v -50 131 58
v -29 131 58
v -16 131 34
v 1 131 41
v -24 131 51
v -6 131 59
v 79 131 32
v 106 131 32
v 79 131 59
v 106 131 59
v 15 131 36
v 34 131 36
v 15 131 55
v 34 131 55
v 48 131 44
v 63 131 32
v 59 131 59
v 75 131 47
v -97 117 -33
v -92 117 -24
v -92 122 -33
v -92 117 -42
v -87 117 -33
v -79 118 -44
v -85 118 -47
v -81 120 -42
v -78 118 -38
v -84 118 -41
v -77 118 -30
v -76 118 -35
v -78 119 -31
v -80 118 -27
v -80 118 -32
vn -3 -1243 -298
vn 0 -995 -237
vn -3 -1243 -298
vn 0 -995 -237
vn 768 -775 587
vn -765 -803 581
vn -768 -715 -945
vn 771 -683 -947
vn 512 31 -254
vn 256 -58 508
vn -256 -512 512
vn 512 -256 256
vn 256 -512 -512
vn -256 62 -508
vn -512 -29 254
vn -512 -256 -256
vn 129 -1281 344
vn -645 -909 -65
vn -325 -1081 -737
vn 635 -1108 -342
vn 472 -543 127
vn 117 -372 264
vn -272 -545 384
vn -380 -300 48
vn -558 -383 -331
vn -167 -249 -663
vn 179 -498 -714
vn 292 -356 -543
vn 343 -289 -190
vn -32 -1453 280
vn -472 -655 207
vn -494 -783 -397
vn -261 -724 -777
vn 33 -1194 -987
vn 242 -951 375
vn 153 -459 561
vn -310 -463 514
vn -615 -368 95
vn -540 -276 -408
vn -156 -213 -696
vn 310 -229 -636
vn 489 -521 -487
vn 502 -855 -44
vn 544 -414 284
vn 622 -297 -248
vn -155 -1570 237
vn -555 -763 119
vn -631 -837 -351
vn -326 -771 -713
vn 139 -1255 -906
vn 312 -1050 263
vn 153 -550 448
vn -314 -554 377
vn -627 -426 39
vn -561 -319 -375
vn -167 -249 -663
vn 294 -298 -603
vn 513 -613 -429
vn 602 -934 -53
vn 532 -493 164
vn 602 -367 -233
vn 350 -953 -878
vn 552 -899 167
vn -350 -1179 319
vn -564 -747 -597
vn -146 -302 -684
vn 146 -205 -441
vn 562 -403 -282
vn 348 -311 101
vn 136 -542 508
vn -136 -356 322
vn -554 -462 57
vn -350 -262 -239
vn 208 -1153 -924
vn 526 -888 173
vn -370 -1085 336
vn -443 -871 -602
vn -51 -445 -642
vn 51 -299 -423
vn 424 -486 -301
vn 369 -290 134
vn 153 -445 591
vn -153 -299 372
vn -545 -469 76
vn -226 -341 -230
vn 99 -1268 289
vn -561 -977 -140
vn -236 -1185 -848
vn 494 -1218 -483
vn 440 -596 126
vn 118 -359 303
vn -257 -575 374
vn -323 -386 41
vn -469 -492 -350
vn -119 -434 -630
vn 96 -659 -772
vn 201 -475 -563
vn 313 -340 -197
vn -117 -1450 305
vn -453 -589 165
vn -617 -724 -412
vn -429 -785 -737
vn 206 -1257 -1016
vn 233 -975 413
vn 153 -476 639
vn -306 -459 536
vn -636 -330 93
vn -583 -314 -360
vn -186 -286 -674
vn 362 -294 -586
vn 707 -546 -498
vn 672 -803 -105
vn 553 -376 289
vn 675 -284 -236
vn -15 -1590 249
vn -469 -706 135
vn -540 -819 -404
vn -291 -874 -716
vn 74 -1411 -918
vn 245 -1029 344
vn 146 -556 483
vn -298 -523 438
vn -653 -371 64
vn -546 -347 -376
vn -149 -393 -637
vn 256 -422 -590
vn 512 -715 -494
vn 589 -914 -58
vn 533 -441 241
vn 618 -412 -251
vn -348 -325 -69
vn 0 -266 -266
vn 0 -650 -138
vn 0 -384 128
vn 348 -325 -69
vn -348 -325 -69
vn 0 -266 -266
vn 0 -650 -138
vn 0 -384 128
vn 348 -325 -69
vn -348 -325 -69
vn 0 -266 -266
vn 0 -650 -138
vn 0 -384 128
vn 348 -325 -69
vn -348 -325 -69
vn 0 -266 -266
vn 0 -650 -138
vn 0 -384 128
vn 348 -325 -69
vn -320 -288 -96
vn 0 -192 -384
vn 0 -576 -192
vn 0 -384 192
vn 320 -288 -96
vn -320 -288 -96
vn 0 -192 -384
vn 0 -576 -192
vn 0 -384 192
vn 320 -288 -96
vn -320 -288 -96
vn 0 -192 -384
vn 0 -576 -192
vn 0 -384 192
vn 320 -288 -96
vn -320 -288 -96
vn 0 -192 -384
vn 0 -576 -192
vn 0 -384 192
vn 320 -288 -96
vn 138 -582 0
vn 620 30 0
vn -594 -249 0
vn -204 -564 0
vn 550 -285 0
vn 460 230 0
vn 230 115 0
vn -460 230 0
vn -642 48 0
vn 0 0 0
vn 0 0 0
vn 0 0 0
vn -230 115 0
vn 0 0 0
vn 43 434 891
vn 55 -278 946
vn -47 -432 892
vn -60 273 949
vn -59 -153 716
vn -49 284 684
vn -19 565 859
vn 24 292 422
vn 53 153 716
vn 46 -289 681
vn 1 -1336 857
vn -43 -546 423
vn -10 153 204
vn 44 -665 204
vn 8 132 -220
vn 38 -502 -449
vn 37 114 -669
vn 16 360 -678
vn 0 0 -1356
vn 1 -1128 -678
vn -42 -644 -220
vn -21 246 -449
vn -37 -114 -669
vn 81 -585 116
vn 356 -3 528
vn -330 -245 -503
vn -113 -557 -176
vn 321 -315 463
vn 265 197 397
vn 126 112 196
vn -265 197 -397
vn -368 25 -558
vn 0 0 0
vn 0 0 0
vn 0 0 0
vn -139 85 -201
vn 0 0 0
vn 0 0 0
vn 0 0 0
vn 0 0 0
vn 0 0 0
vn 0 0 0
vn 0 0 0
vn 0 0 0
vn 0 0 0
vn 0 0 0
vn 0 0 0
vn 0 0 0
vn 0 0 0
vn 768 -768 -768
vn -768 -768 -768
vn -256 0 -512
vn 512 0 -256
vn 768 -768 768
vn 0 -1280 0
vn 0 -1024 0
vn 0 -1280 0
vn -768 -768 768
vn -512 0 256
vn 256 0 512
vn 0 -1024 0
vn -170 -1386 638
vn -563 -621 331
vn -633 -871 -170
vn -331 -879 -567
vn 170 -1386 -638
vn 331 -879 567
vn 161 -355 629
vn -331 -365 563
vn -624 -352 161
vn -562 -364 -331
vn -161 -355 -629
vn 331 -365 -563
vn 563 -621 -331
vn 633 -871 170
vn 562 -364 331
vn 624 -352 -161
vn 401 -256 -984
vn -1009 -512 -379
vn -442 0 -363
vn 373 0 -422
vn 1008 -512 434
vn -403 -256 1040
vn -366 0 456
vn 435 0 383
vn -366 -295 153
vn -109 -304 -174
vn -70 -638 11
vn 39 -334 185
vn 296 -343 -142
vn 768 -768 -768
vn -768 -768 -768
vn -256 0 -512
vn 512 0 -256
vn 768 -768 768
vn 0 -1280 0
vn 0 -1024 0
vn 0 -1280 0
vn -768 -768 768
vn -512 0 256
vn 256 0 512
vn 0 -1024 0
vn -151 -1406 613
vn -559 -646 292
vn -626 -865 -163
vn -328 -898 -527
vn 151 -1406 -613
vn 328 -898 527
vn 165 -379 594
vn -327 -389 522
vn -639 -354 141
vn -559 -385 -295
vn -165 -379 -594
vn 302 -417 -532
vn 534 -674 -302
vn 629 -867 163
vn 562 -387 295
vn 617 -384 -151
vn 768 -256 -768
vn -768 -512 -768
vn -256 0 -512
vn 512 0 -256
vn 768 -512 768
vn -768 -256 768
vn -512 0 256
vn 256 0 512
vn -332 -332 0
vn 0 -332 -200
vn 0 -664 0
vn 0 -332 200
vn 332 -332 0
vn 1061 -256 -131
vn -161 -512 -1067
vn 99 0 -560
vn 557 0 118
vn 123 -512 1084
vn -1101 -256 150
vn -575 0 -102
vn -120 0 565
vn -242 -336 -141
vn 175 -308 -192
vn -29 -624 78
vn -204 -316 270
vn 213 -288 219
vn -204 -312 -162
vn 219 -288 -213
vn 15 -604 57
vn -204 -316 270
vn 219 -292 219
vn -256 -256 512
vn 512 -512 256
vn -512 -512 -256
vn 256 -256 -512
vn -38 -256 583
vn 573 -512 53
vn -568 -512 -17
vn 30 -256 -562
vn -256 -256 512
vn 512 -512 256
vn -512 -512 -256
vn 256 -256 -512
vn -256 -256 512
vn 512 -512 256
vn -512 -512 -256
vn 256 -256 -512
vn -526 -256 249
vn 240 -512 520
vn -259 -512 -506
vn 506 -256 -248
vn -338 -338 0
vn 0 -338 -188
vn 0 -676 0
vn 0 -338 188
vn 338 -338 0
vn 239 -408 167
vn -70 -430 116
vn 24 -821 -9
vn 94 -391 -125
vn -215 -413 -176
vn 291 -438 -145
vn 113 -451 57
vn 106 -902 -52
vn -7 -451 -109
vn -185 -464 93
usemtl m0
f 1 2 3

usemtl m1
f 1 3 4

usemtl m2
f 1 4 5

usemtl m3
f 1 5 6

usemtl m4
f 1 6 2

usemtl m5
f 2 6 7

usemtl m6
f 2 7 3

usemtl m7
f 3 7 8

usemtl m8
f 3 8 4

usemtl m9
f 4 8 5

usemtl m10
f 5 8 9

usemtl m11
f 5 9 10

usemtl m12
f 5 10 6

usemtl m13
f 5 6 11

usemtl m14
f 5 11 12

usemtl m15
f 5 12 8

usemtl m16
f 8 12 13

usemtl m17
f 8 13 7

usemtl m18
f 8 7 14

usemtl m19
f 8 14 9

usemtl m20
f 10 15 6

usemtl m21
f 6 15 7

usemtl m22
f 6 7 16

usemtl m23
f 6 16 11

usemtl m24
f 11 16 13

usemtl m25
f 11 13 12

usemtl m26
f 15 14 7

usemtl m27
f 17 18 19

usemtl m28
f 17 19 20

usemtl m29
f 17 20 21

usemtl m30
f 17 21 22

usemtl m31
f 17 22 23

usemtl m32
f 17 23 18

usemtl m33
f 18 23 24

usemtl m34
f 18 24 25

usemtl m35
f 18 25 19

usemtl m36
f 19 25 26

usemtl m37
f 19 26 27

usemtl m38
f 19 27 20

usemtl m39
f 20 27 28

usemtl m40
f 20 28 29

usemtl m41
f 20 29 21

usemtl m42
f 27 26 28

usemtl m43
f 30 31 32

usemtl m44
f 30 32 33

usemtl m45
f 30 33 34

usemtl m46
f 30 34 35

usemtl m47
f 30 35 36

usemtl m48
f 30 36 37

usemtl m49
f 30 37 31

usemtl m50
f 31 37 38

usemtl m51
f 31 38 32

usemtl m52
f 32 38 39

usemtl m53
f 32 39 33

usemtl m54
f 33 39 40

usemtl m55
f 33 40 34

usemtl m56
f 34 40 41

usemtl m57
f 34 41 42

usemtl m58
f 34 42 43

usemtl m59
f 34 43 35

usemtl m60
f 35 43 44

usemtl m61
f 35 44 36

usemtl m62
f 42 41 45

usemtl m63
f 42 45 43

usemtl m64
f 43 45 44

usemtl m65
f 46 47 48

usemtl m66
f 46 48 49

usemtl m67
f 46 49 50

usemtl m68
f 46 50 51

usemtl m69
f 46 51 52

usemtl m70
f 46 52 53

usemtl m71
f 46 53 47

usemtl m72
f 47 53 54

usemtl m73
f 47 54 48

usemtl m74
f 48 54 55

usemtl m75
f 48 55 49

usemtl m76
f 49 55 56

usemtl m77
f 49 56 50

usemtl m78
f 50 56 57

usemtl m79
f 50 57 58

usemtl m80
f 50 58 59

usemtl m81
f 50 59 51

usemtl m82
f 51 59 60

usemtl m83
f 51 60 52

usemtl m84
f 58 57 61

usemtl m85
f 58 61 59

usemtl m86
f 59 61 60

usemtl m87
f 62 63 64

usemtl m88
f 62 64 65

usemtl m89
f 62 65 66

usemtl m90
f 62 66 67

usemtl m91
f 62 67 68

usemtl m92
f 62 68 63

usemtl m93
f 63 68 69

usemtl m94
f 63 69 70

usemtl m95
f 63 70 64

usemtl m96
f 64 70 71

usemtl m97
f 64 71 72

usemtl m98
f 64 72 65

usemtl m99
f 65 72 73

usemtl m100
f 65 73 66

usemtl m101
f 74 75 76

usemtl m102
f 74 76 77

usemtl m103
f 74 77 78

usemtl m104
f 74 78 79

usemtl m105
f 74 79 80

usemtl m106
f 74 80 75

usemtl m107
f 75 80 81

usemtl m108
f 75 81 82

usemtl m109
f 75 82 76

usemtl m110
f 76 82 83

usemtl m111
f 76 83 84

usemtl m112
f 76 84 77

usemtl m113
f 77 84 85

usemtl m114
f 77 85 78

usemtl m115
f 86 87 88

usemtl m116
f 86 88 89

usemtl m117
f 86 89 90

usemtl m118
f 86 90 91

usemtl m119
f 86 91 92

usemtl m120
f 86 92 87

usemtl m121
f 87 92 93

usemtl m122
f 87 93 94

usemtl m123
f 87 94 88

usemtl m124
f 88 94 95

usemtl m125
f 88 95 96

usemtl m126
f 88 96 89

usemtl m127
f 89 96 97

usemtl m128
f 89 97 98

usemtl m129
f 89 98 90

usemtl m130
f 96 95 97

usemtl m131
f 99 100 101

usemtl m132
f 99 101 102

usemtl m133
f 99 102 103

usemtl m134
f 99 103 104

usemtl m135
f 99 104 105

usemtl m136
f 99 105 106

usemtl m137
f 99 106 100

usemtl m138
f 100 106 107

usemtl m139
f 100 107 101

usemtl m140
f 101 107 108

usemtl m141
f 101 108 102

usemtl m142
f 102 108 109

usemtl m143
f 102 109 103

usemtl m144
f 103 109 110

usemtl m145
f 103 110 111

usemtl m146
f 103 111 112

usemtl m147
f 103 112 104

usemtl m148
f 104 112 113

usemtl m149
f 104 113 105

usemtl m150
f 111 110 114

usemtl m151
f 111 114 112

usemtl m152
f 112 114 113

usemtl m153
f 115 116 117

usemtl m154
f 115 117 118

usemtl m155
f 115 118 119

usemtl m156
f 115 119 120

usemtl m157
f 115 120 121

usemtl m158
f 115 121 122

usemtl m159
f 115 122 116

usemtl m160
f 116 122 123

usemtl m161
f 116 123 117

usemtl m162
f 117 123 124

usemtl m163
f 117 124 118

usemtl m164
f 118 124 125

usemtl m165
f 118 125 119

usemtl m166
f 119 125 126

usemtl m167
f 119 126 127

usemtl m168
f 119 127 128

usemtl m169
f 119 128 120

usemtl m170
f 120 128 129

usemtl m171
f 120 129 121

usemtl m172
f 127 126 130

usemtl m173
f 127 130 128

usemtl m174
f 128 130 129

usemtl m175
f 131 132 133

usemtl m176
f 131 133 134

usemtl m177
f 134 133 135

usemtl m178
f 135 133 132

usemtl m179
f 136 137 138

usemtl m180
f 136 138 139

usemtl m181
f 139 138 140

usemtl m182
f 140 138 137

usemtl m183
f 141 142 143

usemtl m184
f 141 143 144

usemtl m185
f 144 143 145

usemtl m186
f 145 143 142

usemtl m187
f 146 147 148

usemtl m188
f 146 148 149

usemtl m189
f 149 148 150

usemtl m190
f 150 148 147

usemtl m191
f 151 152 153

usemtl m192
f 151 153 154

usemtl m193
f 154 153 155

usemtl m194
f 155 153 152

usemtl m195
f 156 157 158

usemtl m196
f 156 158 159

usemtl m197
f 159 158 160

usemtl m198
f 160 158 157

usemtl m199
f 161 162 163

usemtl m200
f 161 163 164

usemtl m201
f 164 163 165

usemtl m202
f 165 163 162

usemtl m203
f 166 167 168

usemtl m204
f 166 168 169

usemtl m205
f 169 168 170

usemtl m206
f 170 168 167

usemtl m207
f 171 172 173

usemtl m208
f 171 173 174

usemtl m209
f 171 174 175

usemtl m210
f 171 175 172

usemtl m211
f 172 175 176

usemtl m212
f 172 176 177

usemtl m213
f 172 177 173

usemtl m214
f 173 177 178

usemtl m215
f 173 178 179

usemtl m216
f 173 179 174

usemtl m217
f 174 179 180

usemtl m218
f 174 180 181

usemtl m219
f 174 181 175

usemtl m220
f 175 181 182

usemtl m221
f 175 182 176

usemtl m222
f 176 182 183

usemtl m223
f 183 182 184

usemtl m224
f 183 184 179

usemtl m225
f 183 179 178

usemtl m226
f 184 180 179

usemtl m227
f 180 184 185

usemtl m228
f 180 185 186

usemtl m229
f 180 186 181

usemtl m230
f 181 186 187

usemtl m231
f 181 187 182

usemtl m232
f 182 187 188

usemtl m233
f 188 187 189

usemtl m234
f 188 189 190

usemtl m235
f 188 190 191

usemtl m236
f 188 191 185

usemtl m237
f 185 191 192

usemtl m238
f 185 192 193

usemtl m239
f 185 193 186

usemtl m240
f 186 193 194

usemtl m241
f 186 194 195

usemtl m242
f 186 195 187

usemtl m243
f 187 195 196

usemtl m244
f 187 196 189

usemtl m245
f 189 196 190

usemtl m246
f 190 196 197

usemtl m247
f 190 197 191

usemtl m248
f 192 198 194

usemtl m249
f 192 194 193

usemtl m250
f 199 200 198

usemtl m251
f 199 198 192

usemtl m252
f 201 200 199

usemtl m253
f 201 199 202

usemtl m254
f 201 202 203

usemtl m255
f 201 203 200

usemtl m256
f 200 203 204

usemtl m257
f 200 204 198

usemtl m258
f 198 204 195

usemtl m259
f 198 195 194

usemtl m260
f 205 206 197

usemtl m261
f 205 197 196

usemtl m262
f 205 196 195

usemtl m263
f 205 195 204

usemtl m264
f 205 204 207

usemtl m265
f 205 207 206

usemtl m266
f 206 207 203

usemtl m267
f 206 203 202

usemtl m268
f 207 204 203

usemtl m269
f 208 209 210

usemtl m270
f 208 210 211

usemtl m271
f 208 211 212

usemtl m272
f 208 212 209

usemtl m273
f 209 212 213

usemtl m274
f 209 213 214

usemtl m275
f 209 214 210

usemtl m276
f 210 214 215

usemtl m277
f 210 215 216

usemtl m278
f 210 216 211

usemtl m279
f 211 216 217

usemtl m280
f 211 217 218

usemtl m281
f 211 218 212

usemtl m282
f 212 218 219

usemtl m283
f 212 219 213

usemtl m284
f 213 219 220

usemtl m285
f 220 219 221

usemtl m286
f 220 221 216

usemtl m287
f 220 216 215

usemtl m288
f 218 217 222

usemtl m289
f 218 222 223

usemtl m290
f 218 223 219

usemtl m291
f 219 223 224

usemtl m292
f 224 223 225

usemtl m293
f 224 225 226

usemtl m294
f 226 225 227

usemtl m295
f 226 227 228

usemtl m296
f 228 227 229

usemtl m297
f 229 227 230

usemtl m298
f 229 230 231

usemtl m299
f 229 231 232

usemtl m300
f 232 231 222

usemtl m301
f 232 222 233

usemtl m302
f 233 222 217

usemtl m303
f 233 217 221

usemtl m304
f 221 217 216

usemtl m305
f 223 222 231

usemtl m306
f 223 231 225

usemtl m307
f 225 231 230

usemtl m308
f 225 230 227

usemtl m309
f 234 235 236

usemtl m310
f 234 236 237

usemtl m311
f 234 237 238

usemtl m312
f 234 238 239

usemtl m313
f 234 239 240

usemtl m314
f 234 240 235

usemtl m315
f 235 240 241

usemtl m316
f 235 241 242

usemtl m317
f 235 242 243

usemtl m318
f 235 243 236

usemtl m319
f 242 238 244

usemtl m320
f 242 244 243

usemtl m321
f 238 237 244

usemtl m322
f 239 245 241

usemtl m323
f 239 241 240

usemtl m324
f 245 239 238

usemtl m325
f 245 238 242

usemtl m326
f 245 242 241

usemtl m327
f 246 247 248

usemtl m328
f 246 248 249

usemtl m329
f 246 249 250

usemtl m330
f 246 250 251

usemtl m331
f 246 251 252

usemtl m332
f 246 252 253

usemtl m333
f 246 253 247

usemtl m334
f 247 253 254

usemtl m335
f 247 254 248

usemtl m336
f 248 254 255

usemtl m337
f 248 255 249

usemtl m338
f 249 255 256

usemtl m339
f 249 256 250

usemtl m340
f 250 256 257

usemtl m341
f 250 257 258

usemtl m342
f 250 258 259

usemtl m343
f 250 259 251

usemtl m344
f 251 259 260

usemtl m345
f 251 260 252

usemtl m346
f 258 257 261

usemtl m347
f 258 261 259

usemtl m348
f 259 261 260

usemtl m349
f 262 263 264

usemtl m350
f 262 264 265

usemtl m351
f 262 265 266

usemtl m352
f 262 266 263

usemtl m353
f 263 266 267

usemtl m354
f 263 267 268

usemtl m355
f 263 268 264

usemtl m356
f 267 266 269

usemtl m357
f 267 269 268

usemtl m358
f 266 265 269

usemtl m359
f 270 271 272

usemtl m360
f 270 272 273

usemtl m361
f 273 272 274

usemtl m362
f 274 272 271

usemtl m363
f 275 276 277

usemtl m364
f 275 277 278

usemtl m365
f 275 278 279

usemtl m366
f 275 279 280

usemtl m367
f 275 280 281

usemtl m368
f 275 281 276

usemtl m369
f 276 281 282

usemtl m370
f 276 282 283

usemtl m371
f 276 283 284

usemtl m372
f 276 284 277

usemtl m373
f 283 279 285

usemtl m374
f 283 285 284

usemtl m375
f 279 278 285

usemtl m376
f 280 286 282

usemtl m377
f 280 282 281

usemtl m378
f 286 280 279

usemtl m379
f 286 279 283

usemtl m380
f 286 283 282

usemtl m381
f 287 288 289

usemtl m382
f 287 289 290

usemtl m383
f 287 290 291

usemtl m384
f 287 291 292

usemtl m385
f 287 292 293

usemtl m386
f 287 293 294

usemtl m387
f 287 294 288

usemtl m388
f 288 294 295

usemtl m389
f 288 295 289

usemtl m390
f 289 295 296

usemtl m391
f 289 296 290

usemtl m392
f 290 296 297

usemtl m393
f 290 297 291

usemtl m394
f 291 297 298

usemtl m395
f 291 298 299

usemtl m396
f 291 299 300

usemtl m397
f 291 300 292

usemtl m398
f 292 300 301

usemtl m399
f 292 301 293

usemtl m400
f 299 298 302

usemtl m401
f 299 302 300

usemtl m402
f 300 302 301

usemtl m403
f 303 304 305

usemtl m404
f 303 305 306

usemtl m405
f 303 306 307

usemtl m406
f 303 307 304

usemtl m407
f 304 307 308

usemtl m408
f 304 308 309

usemtl m409
f 304 309 305

usemtl m410
f 308 307 310

usemtl m411
f 308 310 309

usemtl m412
f 307 306 310

usemtl m413
f 311 312 313

usemtl m414
f 311 313 314

usemtl m415
f 314 313 315

usemtl m416
f 315 313 312

usemtl m417
f 316 317 318

usemtl m418
f 316 318 319

usemtl m419
f 316 319 320

usemtl m420
f 316 320 317

usemtl m421
f 317 320 321

usemtl m422
f 317 321 322

usemtl m423
f 317 322 318

usemtl m424
f 321 320 323

usemtl m425
f 321 323 322

usemtl m426
f 320 319 323

usemtl m427
f 324 325 326

usemtl m428
f 324 326 327

usemtl m429
f 327 326 328

usemtl m430
f 328 326 325

usemtl m431
f 329 330 331

usemtl m432
f 329 331 332

usemtl m433
f 332 331 333

usemtl m434
f 333 331 330

usemtl m435
f 334 335 238

usemtl m436
f 334 238 242

usemtl m437
f 334 242 336

usemtl m438
f 334 336 335

usemtl m439
f 335 336 337

usemtl m440
f 335 337 234

usemtl m441
f 335 234 238

usemtl m442
f 336 242 235

usemtl m443
f 336 235 337

usemtl m444
f 337 235 234

usemtl m445
f 338 339 266

usemtl m446
f 338 266 267

usemtl m447
f 338 267 340

usemtl m448
f 338 340 339

usemtl m449
f 339 340 341

usemtl m450
f 339 341 262

usemtl m451
f 339 262 266

usemtl m452
f 340 267 263

usemtl m453
f 340 263 341

usemtl m454
f 341 263 262

usemtl m455
f 342 343 279

usemtl m456
f 342 279 283

usemtl m457
f 342 283 344

usemtl m458
f 342 344 343

usemtl m459
f 343 344 345

usemtl m460
f 343 345 275

usemtl m461
f 343 275 279

usemtl m462
f 344 283 276

usemtl m463
f 344 276 345

usemtl m464
f 345 276 275

usemtl m465
f 346 347 307

usemtl m466
f 346 307 308

usemtl m467
f 346 308 348

usemtl m468
f 346 348 347

usemtl m469
f 347 348 349

usemtl m470
f 347 349 303

usemtl m471
f 347 303 307

usemtl m472
f 348 308 304

usemtl m473
f 348 304 349

usemtl m474
f 349 304 303

usemtl m475
f 350 351 320

usemtl m476
f 350 320 321

usemtl m477
f 350 321 352

usemtl m478
f 350 352 351

usemtl m479
f 351 352 353

usemtl m480
f 351 353 316

usemtl m481
f 351 316 320

usemtl m482
f 352 321 317

usemtl m483
f 352 317 353

usemtl m484
f 353 317 316

usemtl m485
f 354 355 356

usemtl m486
f 354 356 357

usemtl m487
f 357 356 358

usemtl m488
f 358 356 355

usemtl m489
f 359 360 361

usemtl m490
f 359 361 362

usemtl m491
f 362 361 363

usemtl m492
f 363 361 360

usemtl m493
f 364 365 366

usemtl m494
f 364 366 367

usemtl m495
f 367 366 368

usemtl m496
f 368 366 365

usemtl m497
f 13 16 7

