mtllib 11700.mtl
o runescapemodel
v -27 15 -10
v -28 15 -7
v -29 15 -10
v -32 16 3
v -34 16 -1
v -22 16 -1
v -24 16 3
v -31 16 7
v -32 15 9
v -34 15 7
v -33 16 6
v -30 23 6
v -33 28 -11
v -37 16 -7
v -19 16 -7
v -23 28 -11
v -26 23 6
v -23 16 6
v -22 15 7
v -24 15 9
v -25 16 7
v -31 16 10
v -30 21 8
v -34 15 9
v -36 16 -13
v -20 16 -13
v -30 20 -20
v -30 18 -20
v -26 18 -20
v -26 20 -20
v -22 15 -1
v -21 15 -1
v -20 15 -2
v -27 22 -20
v -29 23 10
v -27 23 10
v -26 21 8
v -22 15 9
v -29 22 -20
v -29 20 -27
v -28 17 -26
v -27 20 -27
v -34 15 -1
v -35 15 -1
v -36 15 -2
v -25 16 10
v -29 16 18
v -32 18 13
v -31 20 12
v -31 21 12
v -31 22 12
v -31 22 9
v -27 16 18
v -28 17 19
v -29 19 18
v -31 20 13
v -27 19 18
v -25 22 12
v -32 24 12
v -25 22 9
v -25 21 12
v -25 20 12
v -24 18 13
v -24 24 12
v -25 20 13
v -27 19 -33
v -29 19 -33
v -28 17 -33
v -28 16 -40
v -27 18 -40
v -29 18 -40
v -28 17 -45
v -46 44 -48
v -46 28 -38
v -15 28 -38
v -15 44 -48
v -46 64 -53
v -46 64 -61
v -46 42 -56
v -46 22 -43
v -46 16 -20
v -15 16 -20
v -15 9 -22
v -15 22 -43
v -15 42 -56
v -15 64 -53
v -46 83 -48
v -46 86 -56
v -15 64 -61
v -46 9 -22
v -46 11 0
v -15 11 0
v -15 3 0
v -46 3 0
v -46 16 20
v -15 16 20
v -15 9 22
v -46 9 22
v -46 26 37
v -15 26 37
v -15 21 42
v -46 21 42
v -46 44 48
v -15 44 48
v -15 42 56
v -46 42 56
v -46 64 53
v -15 64 53
v -15 64 61
v -46 64 61
v -46 83 48
v -15 83 48
v -15 86 56
v -46 86 56
v -46 102 37
v -15 102 37
v -15 107 42
v -46 107 42
v -46 112 20
v -15 112 20
v -15 120 22
v -46 120 22
v -46 119 0
v -15 119 0
v -15 126 0
v -46 126 0
v -46 112 -20
v -15 112 -20
v -15 120 -22
v -46 120 -22
v -46 102 -38
v -15 102 -38
v -15 107 -43
v -46 107 -43
v -15 83 -48
v -15 86 -56
v -16 67 4
v -19 67 4
v -19 64 5
v -16 64 5
v -16 64 0
v -16 69 2
v -16 109 27
v -16 106 30
v -19 106 30
v -16 61 4
v -19 61 4
v -19 59 2
v -16 59 2
v -16 50 51
v -16 46 49
v -19 46 49
v -16 59 -2
v -19 59 -2
v -19 61 -4
v -16 61 -4
v -16 11 2
v -16 11 -2
v -19 11 -2
v -16 64 -5
v -19 64 -5
v -19 67 -4
v -16 67 -4
v -16 43 -48
v -16 46 -50
v -19 46 -50
v -16 69 -2
v -19 69 -2
v -19 69 2
v -16 101 -39
v -16 104 -36
v -19 104 -36
v -19 101 -39
v -19 109 27
v -19 50 51
v -19 11 2
v -19 43 -48
v -42 67 4
v -42 64 5
v -42 69 2
v -44 67 4
v -44 85 48
v -42 85 48
v -42 82 49
v -44 64 5
v -44 61 4
v -42 61 4
v -42 59 2
v -42 59 -2
v -42 61 -4
v -42 64 -5
v -42 67 -4
v -42 69 -2
v -44 69 -2
v -44 67 -4
v -57 67 -4
v -57 69 -2
v -44 69 2
v -44 119 2
v -44 119 -2
v -42 119 -2
v -42 119 2
v -57 69 2
v -57 67 4
v -44 82 49
v -44 64 -5
v -44 61 -4
v -57 61 -4
v -57 64 -5
v -44 83 -49
v -44 79 -50
v -42 79 -50
v -42 83 -49
v -44 59 -2
v -44 59 2
v -57 59 2
v -57 59 -2
v -44 22 -31
v -44 20 -28
v -42 20 -28
v -42 22 -31
v -42 19 28
v -44 19 28
v -42 21 31
v -44 21 31
v -57 61 4
v -57 64 5
v -57 73 10
v -64 73 10
v -64 53 10
v -57 53 10
v -57 53 6
v -57 73 -10
v -64 73 -10
v -57 53 -10
v -64 53 -10
v -64 53 -6
v -57 53 -6
v -57 0 -6
v -64 0 -6
v -64 0 6
v -57 0 6
v -64 53 6
vn 0 256 0
vn 0 256 0
vn 0 256 0
vn -532 957 125
vn -816 367 -735
vn 816 367 -735
vn 532 957 125
vn -262 447 -397
vn 188 475 -50
vn -470 86 127
vn -1121 -855 -239
vn -1181 -1097 -406
vn -1089 -1091 372
vn -273 899 101
vn 273 1411 101
vn 1089 -1120 153
vn 1181 -1108 -334
vn 1121 -855 -239
vn 470 86 127
vn -188 475 -50
vn 262 447 -397
vn -694 875 41
vn -2055 -309 53
vn -292 -512 -201
vn -650 873 414
vn 650 864 484
vn -1091 -289 523
vn -686 847 364
vn 686 600 294
vn 1091 -289 523
vn -256 256 -86
vn 192 256 -406
vn 331 -209 -261
vn 430 -903 544
vn -118 -1333 -53
vn 118 -1313 -171
vn 2055 -309 53
vn 292 -512 -201
vn -430 -946 475
vn -1205 -591 268
vn 0 612 78
vn 1205 -591 299
vn 256 256 -86
vn -192 256 -406
vn -331 -209 -261
vn 694 875 41
vn -612 938 -631
vn -1388 -185 -164
vn -1024 -237 100
vn -1280 -128 -85
vn -790 -723 -713
vn -480 -96 352
vn 612 682 -631
vn 0 128 -896
vn -1142 -598 -1020
vn -981 -362 -234
vn 1142 -828 -1135
vn 790 -231 -467
vn -118 -181 -53
vn 480 -96 352
vn 1280 -128 -85
vn 1024 -237 100
vn 1388 -185 -164
vn 118 -181 -53
vn 981 -362 -234
vn 712 -412 67
vn -712 -412 61
vn 0 636 -72
vn 0 708 -22
vn 470 -533 129
vn -470 -277 93
vn 0 -24 97
vn -768 -332 -682
vn -768 -561 -501
vn 0 -483 -576
vn 0 -259 -713
vn -768 -59 -743
vn -768 56 747
vn -768 334 677
vn -768 573 482
vn -768 -709 -266
vn 0 -674 -346
vn 0 681 335
vn 0 495 562
vn 0 251 712
vn 0 68 -742
vn -768 249 -720
vn -768 -246 715
vn 0 -56 747
vn -768 711 268
vn -768 -744 62
vn 0 -744 -62
vn 0 741 67
vn -768 741 -67
vn -768 -688 320
vn 0 -716 253
vn 0 713 -265
vn -768 685 -329
vn -768 -486 565
vn 0 -573 476
vn 0 580 -475
vn -768 503 -557
vn -768 -257 714
vn 0 -328 684
vn 0 340 -675
vn -768 254 -711
vn -768 68 742
vn 0 -59 743
vn 0 56 -747
vn -768 -56 -747
vn -768 321 689
vn 0 258 715
vn 0 -254 -711
vn -768 -340 -675
vn -768 568 479
vn 0 476 571
vn 0 -498 -565
vn -768 -570 -491
vn -768 702 297
vn 0 681 342
vn 0 -675 -345
vn -768 -708 -273
vn -768 723 -84
vn 0 723 84
vn 0 -741 -67
vn -768 -741 67
vn -768 687 -332
vn 0 705 -292
vn 0 -711 268
vn -768 -681 335
vn -768 461 -576
vn 0 565 -474
vn 0 -568 485
vn -768 -485 568
vn 0 303 -699
vn 0 -324 683
vn 0 -170 -512
vn 0 -528 -863
vn 0 -251 -1247
vn 0 -85 -256
vn 0 0 0
vn 0 -256 0
vn 0 0 0
vn 0 0 0
vn 0 0 0
vn 0 384 -384
vn 0 535 -863
vn 0 1002 -746
vn 0 192 -192
vn 0 0 0
vn 0 0 0
vn 0 0 0
vn 0 384 384
vn 0 885 373
vn 0 827 991
vn 0 192 192
vn 0 0 0
vn 0 0 0
vn 0 0 0
vn 0 -170 512
vn 0 -4 991
vn 0 -513 1183
vn 0 -85 256
vn 0 0 0
vn 0 0 0
vn 0 0 0
vn 0 -512 0
vn 0 -874 362
vn 0 -1205 -181
vn 0 0 0
vn 0 0 0
vn 0 0 0
vn 0 0 0
vn 0 0 0
vn 0 0 0
vn 0 0 0
vn 0 0 0
vn 0 -547 -875
vn 0 251 -1247
vn 0 -1026 -770
vn 0 -857 -1019
vn 0 0 0
vn 0 0 0
vn 0 0 0
vn 0 4 -985
vn 0 516 -1182
vn 0 528 -863
vn 0 1205 -181
vn 0 874 362
vn 0 513 1183
vn 0 4 991
vn 0 -851 1015
vn 0 -897 385
vn 0 -1032 776
vn 0 -550 874
vn 0 -449 611
vn 0 -696 184
vn 0 -900 -388
vn 0 0 0
vn 0 0 0
vn 0 0 0
vn 0 0 0
vn 0 -624 -368
vn 0 -346 -670
vn 0 0 0
vn 0 251 1241
vn 0 534 867
vn 0 346 670
vn 0 -81 729
vn 0 0 0
vn 0 0 0
vn 0 0 0
vn 0 0 0
vn 0 1208 184
vn 0 880 -368
vn 0 696 -184
vn 0 624 368
vn 0 0 0
vn 0 0 0
vn 0 0 0
vn 0 0 0
vn 0 0 0
vn 0 0 0
vn 0 0 0
vn 0 0 0
vn 0 449 -611
vn 0 81 -729
vn 512 -256 -512
vn 0 -512 -256
vn 0 0 -512
vn 256 0 -256
vn 1024 0 -512
vn 768 -512 256
vn 0 -256 512
vn 256 0 512
vn 0 0 256
vn 0 0 512
vn 1024 0 256
vn 256 0 512
vn 0 0 256
vn 0 0 -512
vn 512 0 -256
vn 0 0 -256
usemtl m0
f 1 2 3

usemtl m1
f 4 5 6

usemtl m2
f 4 6 7

usemtl m3
f 4 7 8

usemtl m4
f 4 8 9

usemtl m5
f 4 9 10

usemtl m6
f 4 10 11

usemtl m7
f 4 11 12

usemtl m8
f 4 12 5

usemtl m9
f 5 12 13

usemtl m10
f 5 13 14

usemtl m11
f 5 14 15

usemtl m12
f 5 15 6

usemtl m13
f 6 15 16

usemtl m14
f 6 16 17

usemtl m15
f 6 17 7

usemtl m16
f 7 17 18

usemtl m17
f 7 18 19

usemtl m18
f 7 19 20

usemtl m19
f 7 20 21

usemtl m20
f 7 21 8

usemtl m21
f 8 21 22

usemtl m22
f 8 22 23

usemtl m23
f 8 23 11

usemtl m24
f 8 11 24

usemtl m25
f 8 24 9

usemtl m26
f 9 24 10

usemtl m27
f 10 24 11

usemtl m28
f 25 26 15

usemtl m29
f 25 15 14

usemtl m30
f 25 14 13

usemtl m31
f 25 13 27

usemtl m32
f 25 27 28

usemtl m33
f 25 28 26

usemtl m34
f 26 28 29

usemtl m35
f 26 29 30

usemtl m36
f 26 30 16

usemtl m37
f 26 16 15

usemtl m38
f 26 15 6

usemtl m39
f 6 15 31

usemtl m40
f 6 31 32

usemtl m41
f 6 32 33

usemtl m42
f 6 33 15

usemtl m43
f 15 33 32

usemtl m44
f 15 32 31

usemtl m45
f 30 34 16

usemtl m46
f 16 34 13

usemtl m47
f 16 13 12

usemtl m48
f 16 12 17

usemtl m49
f 17 12 35

usemtl m50
f 17 35 36

usemtl m51
f 17 36 37

usemtl m52
f 17 37 18

usemtl m53
f 18 37 21

usemtl m54
f 18 21 38

usemtl m55
f 18 38 19

usemtl m56
f 19 38 20

usemtl m57
f 20 38 21

usemtl m58
f 13 39 27

usemtl m59
f 27 39 40

usemtl m60
f 27 40 28

usemtl m61
f 28 40 41

usemtl m62
f 28 41 29

usemtl m63
f 29 41 42

usemtl m64
f 29 42 30

usemtl m65
f 30 42 34

usemtl m66
f 34 42 39

usemtl m67
f 34 39 13

usemtl m68
f 5 14 25

usemtl m69
f 14 5 43

usemtl m70
f 14 43 44

usemtl m71
f 14 44 45

usemtl m72
f 14 45 5

usemtl m73
f 5 45 44

usemtl m74
f 5 44 43

usemtl m75
f 21 46 22

usemtl m76
f 22 46 47

usemtl m77
f 22 47 48

usemtl m78
f 22 48 23

usemtl m79
f 23 48 49

usemtl m80
f 23 49 50

usemtl m81
f 23 50 51

usemtl m82
f 23 51 52

usemtl m83
f 23 52 35

usemtl m84
f 23 35 12

usemtl m85
f 23 12 11

usemtl m86
f 46 53 47

usemtl m87
f 47 53 54

usemtl m88
f 47 54 55

usemtl m89
f 47 55 48

usemtl m90
f 48 55 56

usemtl m91
f 48 56 49

usemtl m92
f 49 56 50

usemtl m93
f 50 56 55

usemtl m94
f 50 55 51

usemtl m95
f 51 55 57

usemtl m96
f 51 57 58

usemtl m97
f 51 58 36

usemtl m98
f 51 36 35

usemtl m99
f 51 35 59

usemtl m100
f 51 59 52

usemtl m101
f 52 59 35

usemtl m102
f 36 60 37

usemtl m103
f 37 60 58

usemtl m104
f 37 58 61

usemtl m105
f 37 61 62

usemtl m106
f 37 62 63

usemtl m107
f 37 63 46

usemtl m108
f 37 46 21

usemtl m109
f 60 64 58

usemtl m110
f 58 64 36

usemtl m111
f 36 64 60

usemtl m112
f 53 46 63

usemtl m113
f 53 63 57

usemtl m114
f 53 57 54

usemtl m115
f 54 57 55

usemtl m116
f 65 61 57

usemtl m117
f 65 57 63

usemtl m118
f 65 63 62

usemtl m119
f 65 62 61

usemtl m120
f 61 58 57

usemtl m121
f 40 42 66

usemtl m122
f 40 66 67

usemtl m123
f 40 67 68

usemtl m124
f 40 68 41

usemtl m125
f 41 68 42

usemtl m126
f 42 68 66

usemtl m127
f 66 68 69

usemtl m128
f 66 69 70

usemtl m129
f 66 70 67

usemtl m130
f 67 70 71

usemtl m131
f 67 71 69

usemtl m132
f 67 69 68

usemtl m133
f 39 42 40

usemtl m134
f 70 69 72

usemtl m135
f 70 72 71

usemtl m136
f 71 72 69

usemtl m137
f 73 74 75

usemtl m138
f 73 75 76

usemtl m139
f 73 76 77

usemtl m140
f 73 77 78

usemtl m141
f 73 78 79

usemtl m142
f 73 79 74

usemtl m143
f 74 79 80

usemtl m144
f 74 80 81

usemtl m145
f 74 81 82

usemtl m146
f 74 82 75

usemtl m147
f 75 82 83

usemtl m148
f 75 83 84

usemtl m149
f 75 84 76

usemtl m150
f 76 84 85

usemtl m151
f 76 85 86

usemtl m152
f 76 86 77

usemtl m153
f 77 86 87

usemtl m154
f 77 87 88

usemtl m155
f 77 88 78

usemtl m156
f 78 88 89

usemtl m157
f 78 89 85

usemtl m158
f 78 85 79

usemtl m159
f 79 85 84

usemtl m160
f 79 84 80

usemtl m161
f 80 84 83

usemtl m162
f 80 83 90

usemtl m163
f 80 90 81

usemtl m164
f 81 90 91

usemtl m165
f 81 91 92

usemtl m166
f 81 92 82

usemtl m167
f 82 92 93

usemtl m168
f 82 93 83

usemtl m169
f 83 93 90

usemtl m170
f 90 93 94

usemtl m171
f 90 94 91

usemtl m172
f 91 94 95

usemtl m173
f 91 95 96

usemtl m174
f 91 96 92

usemtl m175
f 92 96 97

usemtl m176
f 92 97 93

usemtl m177
f 93 97 94

usemtl m178
f 94 97 98

usemtl m179
f 94 98 95

usemtl m180
f 95 98 99

usemtl m181
f 95 99 100

usemtl m182
f 95 100 96

usemtl m183
f 96 100 101

usemtl m184
f 96 101 97

usemtl m185
f 97 101 98

usemtl m186
f 98 101 102

usemtl m187
f 98 102 99

usemtl m188
f 99 102 103

usemtl m189
f 99 103 104

usemtl m190
f 99 104 100

usemtl m191
f 100 104 105

usemtl m192
f 100 105 101

usemtl m193
f 101 105 102

usemtl m194
f 102 105 106

usemtl m195
f 102 106 103

usemtl m196
f 103 106 107

usemtl m197
f 103 107 108

usemtl m198
f 103 108 104

usemtl m199
f 104 108 109

usemtl m200
f 104 109 105

usemtl m201
f 105 109 106

usemtl m202
f 106 109 110

usemtl m203
f 106 110 107

usemtl m204
f 107 110 111

usemtl m205
f 107 111 112

usemtl m206
f 107 112 108

usemtl m207
f 108 112 113

usemtl m208
f 108 113 109

usemtl m209
f 109 113 110

usemtl m210
f 110 113 114

usemtl m211
f 110 114 111

usemtl m212
f 111 114 115

usemtl m213
f 111 115 116

usemtl m214
f 111 116 112

usemtl m215
f 112 116 117

usemtl m216
f 112 117 113

usemtl m217
f 113 117 114

usemtl m218
f 114 117 118

usemtl m219
f 114 118 115

usemtl m220
f 115 118 119

usemtl m221
f 115 119 120

usemtl m222
f 115 120 116

usemtl m223
f 116 120 121

usemtl m224
f 116 121 117

usemtl m225
f 117 121 118

usemtl m226
f 118 121 122

usemtl m227
f 118 122 119

usemtl m228
f 119 122 123

usemtl m229
f 119 123 124

usemtl m230
f 119 124 120

usemtl m231
f 120 124 125

usemtl m232
f 120 125 121

usemtl m233
f 121 125 122

usemtl m234
f 122 125 126

usemtl m235
f 122 126 123

usemtl m236
f 123 126 127

usemtl m237
f 123 127 128

usemtl m238
f 123 128 124

usemtl m239
f 124 128 129

usemtl m240
f 124 129 125

usemtl m241
f 125 129 126

usemtl m242
f 126 129 130

usemtl m243
f 126 130 127

usemtl m244
f 127 130 131

usemtl m245
f 127 131 132

usemtl m246
f 127 132 128

usemtl m247
f 128 132 133

usemtl m248
f 128 133 129

usemtl m249
f 129 133 130

usemtl m250
f 130 133 134

usemtl m251
f 130 134 131

usemtl m252
f 131 134 87

usemtl m253
f 131 87 135

usemtl m254
f 131 135 132

usemtl m255
f 132 135 136

usemtl m256
f 132 136 133

usemtl m257
f 133 136 134

usemtl m258
f 134 136 88

usemtl m259
f 134 88 87

usemtl m260
f 86 135 87

usemtl m261
f 135 86 89

usemtl m262
f 135 89 136

usemtl m263
f 136 89 88

usemtl m264
f 85 89 86

usemtl m265
f 137 138 139

usemtl m266
f 137 139 140

usemtl m267
f 137 140 141

usemtl m268
f 137 141 142

usemtl m269
f 137 142 143

usemtl m270
f 137 143 144

usemtl m271
f 137 144 138

usemtl m272
f 138 144 145

usemtl m273
f 146 147 148

usemtl m274
f 146 148 149

usemtl m275
f 146 149 141

usemtl m276
f 146 141 140

usemtl m277
f 146 140 150

usemtl m278
f 146 150 151

usemtl m279
f 146 151 147

usemtl m280
f 147 151 152

usemtl m281
f 153 154 155

usemtl m282
f 153 155 156

usemtl m283
f 153 156 141

usemtl m284
f 153 141 149

usemtl m285
f 153 149 157

usemtl m286
f 153 157 158

usemtl m287
f 153 158 154

usemtl m288
f 154 158 159

usemtl m289
f 160 161 162

usemtl m290
f 160 162 163

usemtl m291
f 160 163 141

usemtl m292
f 160 141 156

usemtl m293
f 160 156 164

usemtl m294
f 160 164 165

usemtl m295
f 160 165 161

usemtl m296
f 161 165 166

usemtl m297
f 167 168 169

usemtl m298
f 167 169 142

usemtl m299
f 167 142 141

usemtl m300
f 167 141 163

usemtl m301
f 167 163 170

usemtl m302
f 167 170 171

usemtl m303
f 167 171 168

usemtl m304
f 168 171 172

usemtl m305
f 173 170 163

usemtl m306
f 173 163 162

usemtl m307
f 174 143 142

usemtl m308
f 174 142 169

usemtl m309
f 175 150 140

usemtl m310
f 175 140 139

usemtl m311
f 176 157 149

usemtl m312
f 176 149 148

usemtl m313
f 177 164 156

usemtl m314
f 177 156 155

usemtl m315
f 178 179 139

usemtl m316
f 178 139 138

usemtl m317
f 178 138 180

usemtl m318
f 178 180 181

usemtl m319
f 178 181 182

usemtl m320
f 178 182 183

usemtl m321
f 178 183 179

usemtl m322
f 179 183 184

usemtl m323
f 179 184 185

usemtl m324
f 179 185 186

usemtl m325
f 179 186 187

usemtl m326
f 179 187 147

usemtl m327
f 179 147 139

usemtl m328
f 187 188 148

usemtl m329
f 187 148 147

usemtl m330
f 188 189 154

usemtl m331
f 188 154 148

usemtl m332
f 189 190 155

usemtl m333
f 189 155 154

usemtl m334
f 190 191 161

usemtl m335
f 190 161 155

usemtl m336
f 191 192 162

usemtl m337
f 191 162 161

usemtl m338
f 192 193 168

usemtl m339
f 192 168 162

usemtl m340
f 193 180 169

usemtl m341
f 193 169 168

usemtl m342
f 180 138 169

usemtl m343
f 194 193 192

usemtl m344
f 194 192 195

usemtl m345
f 194 195 196

usemtl m346
f 194 196 197

usemtl m347
f 194 197 198

usemtl m348
f 194 198 199

usemtl m349
f 194 199 200

usemtl m350
f 194 200 193

usemtl m351
f 193 200 201

usemtl m352
f 193 201 180

usemtl m353
f 180 201 202

usemtl m354
f 180 202 198

usemtl m355
f 180 198 181

usemtl m356
f 181 198 203

usemtl m357
f 181 203 204

usemtl m358
f 181 204 185

usemtl m359
f 181 185 205

usemtl m360
f 181 205 182

usemtl m361
f 206 191 190

usemtl m362
f 206 190 207

usemtl m363
f 206 207 208

usemtl m364
f 206 208 209

usemtl m365
f 206 209 195

usemtl m366
f 206 195 210

usemtl m367
f 206 210 211

usemtl m368
f 206 211 191

usemtl m369
f 191 211 212

usemtl m370
f 191 212 192

usemtl m371
f 192 212 213

usemtl m372
f 192 213 195

usemtl m373
f 195 213 210

usemtl m374
f 214 189 188

usemtl m375
f 214 188 215

usemtl m376
f 214 215 216

usemtl m377
f 214 216 217

usemtl m378
f 214 217 207

usemtl m379
f 214 207 218

usemtl m380
f 214 218 219

usemtl m381
f 214 219 189

usemtl m382
f 189 219 220

usemtl m383
f 189 220 190

usemtl m384
f 190 220 221

usemtl m385
f 190 221 207

usemtl m386
f 207 221 218

usemtl m387
f 184 205 185

usemtl m388
f 202 199 198

usemtl m389
f 222 223 215

usemtl m390
f 222 215 188

usemtl m391
f 222 188 224

usemtl m392
f 224 188 187

usemtl m393
f 224 187 225

usemtl m394
f 225 187 186

usemtl m395
f 225 186 223

usemtl m396
f 223 186 215

usemtl m397
f 215 186 226

usemtl m398
f 215 226 216

usemtl m399
f 197 203 198

usemtl m400
f 185 204 227

usemtl m401
f 185 227 186

usemtl m402
f 186 227 226

usemtl m403
f 207 217 208

usemtl m404
f 195 209 196

usemtl m405
f 228 229 230

usemtl m406
f 228 230 231

usemtl m407
f 228 231 232

usemtl m408
f 228 232 233

usemtl m409
f 228 233 229

usemtl m410
f 229 233 234

usemtl m411
f 234 233 235

usemtl m412
f 234 235 236

usemtl m413
f 237 238 239

usemtl m414
f 237 239 240

usemtl m415
f 241 242 232

usemtl m416
f 241 232 243

usemtl m417
f 242 239 238

usemtl m418
f 242 238 232

usemtl m419
f 232 238 233

usemtl m420
f 233 238 235

