newmtl m0
Kd 0.41568627450980394 0.3568627450980392 0.29411764705882354
newmtl m1
Kd 0.41568627450980394 0.3568627450980392 0.29411764705882354
newmtl m2
Kd 0.41568627450980394 0.3568627450980392 0.29411764705882354
newmtl m3
map_Kd sprite/453-0.png
newmtl m4
map_Kd sprite/453-0.png
newmtl m5
Kd 0.41568627450980394 0.3568627450980392 0.29411764705882354
newmtl m6
Kd 0.41568627450980394 0.3568627450980392 0.29411764705882354
newmtl m7
Kd 0.41568627450980394 0.3568627450980392 0.29411764705882354
newmtl m8
Kd 0.41568627450980394 0.3568627450980392 0.29411764705882354
newmtl m9
Kd 0.41568627450980394 0.3568627450980392 0.29411764705882354
