mtllib 12247.mtl
o runescapemodel
v -55 64 -32
v -55 64 64
v -32 0 64
v -32 0 -32
v -64 0 -64
v -64 64 -41
v -40 128 -32
v -40 128 64
v -64 240 -32
v -64 240 64
v -33 7 -13
v -35 32 -18
v -36 35 64
v -32 1 64
v -49 33 64
v -45 0 64
v -47 73 -9
v -47 73 59
v -37 43 64
v -36 39 -4
v -58 71 -9
v -58 71 59
v -49 38 64
v -37 100 64
v -49 74 64
v -47 76 20
v -37 104 22
v -50 104 64
v -60 80 64
v -37 101 -30
v -37 102 15
v -47 76 16
v -49 75 -26
v -51 105 -30
v -50 106 15
v -60 84 15
v -33 138 -28
v -33 134 26
v -35 109 32
v -35 109 -32
v -45 139 -28
v -45 135 26
v -47 110 32
v -34 109 38
v -32 134 37
v -32 138 64
v -35 108 64
v -45 139 64
v -47 109 64
v -37 172 -20
v -37 170 19
v -32 144 -18
v -50 168 -18
v -49 165 18
v -45 142 15
v -32 145 15
v -43 212 -24
v -42 204 7
v -38 183 6
v -37 178 -29
v -50 176 -29
v -57 209 -24
v -57 207 9
v -51 181 8
v -42 212 60
v -36 181 60
v -37 184 15
v -43 210 18
v -56 209 60
v -49 176 60
v -37 172 25
v -37 174 64
v -32 140 20
v -49 170 25
v -50 172 64
v -45 219 -17
v -48 235 -14
v -44 215 44
v -48 237 48
v -57 212 44
v -62 235 48
v -62 233 -15
v -57 216 -16
v -48 237 64
v -44 215 64
v -45 219 50
v -48 237 52
v -61 235 64
v -57 212 64
v -61 235 52
v -57 216 50
v -45 138 20
v -44 136 64
v -56 207 18
v -50 178 15
v -47 110 -32
v -47 110 38
v -45 135 37
v -61 81 -26
v -59 82 20
v -48 108 22
v -48 35 -4
v -46 6 -13
v -48 30 -18
v -45 141 -18
v -64 128 -56
v -60 215 -48
v -61 237 -45
v -51 237 -35
v -48 215 -36
v -59 215 -34
v -61 235 -32
v -64 235 -35
v -62 215 -37
v -60 174 -55
v -64 172 -46
v -50 172 -32
v -41 174 -36
v -60 138 -60
v -64 138 -56
v -36 138 -36
v -59 108 -56
v -61 108 -51
v -43 179 -38
v -62 180 -54
v -63 212 -49
v -47 212 -32
v -57 209 -32
v -52 179 -35
v -64 209 -40
v -61 100 -56
v -64 104 -46
v -50 104 -32
v -40 100 -35
v -64 74 -47
v -63 74 -42
v -49 74 -32
v -53 74 -32
v -40 108 -37
v -40 138 -32
v -45 108 -35
v -43 43 -34
v -59 43 -53
v -64 71 -46
v -49 71 -33
v -58 70 -33
v -46 43 -32
v -64 70 -38
v -58 35 -54
v -64 33 -47
v -49 33 -32
v -42 35 -38
v -55 1 -60
v -58 1 -57
v -37 1 -42
v -40 1 -39
v -61 179 -45
v -62 43 -51
vn 1257 -199 528
vn 738 30 0
vn 480 -172 0
vn 415 -149 175
vn 350 -126 350
vn 531 19 531
vn 1283 107 535
vn 749 -48 0
vn 679 -144 179
vn 250 -53 0
vn 520 52 500
vn 186 -475 267
vn 471 -301 -249
vn 254 -29 -512
vn -76 -504 -494
vn 0 0 -256
vn 401 -625 255
vn 190 -370 -253
vn 464 -231 -505
vn 259 -11 508
vn -29 -184 507
vn -111 -575 -506
vn -14 -34 -253
vn 548 -51 -276
vn 232 107 -517
vn 486 160 515
vn 408 -413 215
vn 162 -482 -561
vn 0 0 -256
vn 606 -257 271
vn 304 -167 -508
vn 460 185 -249
vn 205 176 514
vn 44 -178 513
vn 145 -490 -244
vn -10 -14 -511
vn 554 -505 218
vn 284 -352 -515
vn 514 -22 -248
vn 259 -51 506
vn 25 -322 488
vn 46 -567 -285
vn 8 -118 -498
vn 509 65 501
vn 293 -476 327
vn 781 -243 -743
vn 254 25 -520
vn 38 -506 -438
vn 0 0 -256
vn 51 -502 217
vn 406 -258 -520
vn 472 -72 508
vn -102 -222 487
vn -176 -446 -288
vn 2 72 -507
vn 259 -12 -252
vn 494 -655 427
vn 379 -283 -570
vn 542 -87 -257
vn 247 -80 253
vn -12 -72 506
vn -60 -286 238
vn 36 -490 -328
vn 72 6 -506
vn 447 -356 -236
vn 251 -48 -510
vn 483 -157 518
vn 133 -584 283
vn -110 -499 -491
vn 0 0 -256
vn 166 -582 281
vn 467 -327 -243
vn 494 -150 507
vn -53 -328 520
vn -80 -505 -486
vn 238 -104 506
vn 441 -648 269
vn 512 -49 -250
vn 231 -213 -495
vn 16 86 -504
vn -65 -464 -236
vn -48 -310 513
vn -23 -8 254
vn 465 -341 -252
vn 251 -45 -508
vn 494 -139 512
vn 171 -577 254
vn -78 -508 -512
vn 0 0 -256
vn -49 -306 508
vn -6 -25 254
vn -5 -38 253
vn 0 0 -256
vn -74 -300 519
vn -11 -24 254
vn 2 -34 253
vn 0 10 256
vn 19 -233 549
vn -17 34 253
vn 8 -16 256
vn 100 -271 486
vn 10 32 253
vn 4 52 251
vn -27 -151 511
vn 0 0 256
vn 357 3 357
vn 107 -59 403
vn -393 -517 223
vn 441 -293 -175
vn 224 -27 -72
vn 121 21 -495
vn -1 -490 -321
vn -283 -240 37
vn -495 21 121
vn -311 -578 382
vn -273 -278 60
vn 22 -528 -311
vn 600 -353 -93
vn -55 10 992
vn -593 -6 456
vn 900 16 180
vn 123 56 454
vn -415 67 272
vn 440 -34 -131
vn -343 -3 198
vn -58 -558 257
vn 124 -246 -148
vn -56 -419 -631
vn 81 10 -243
vn -586 -204 -64
vn -178 -419 334
vn -174 -218 139
vn 215 -463 -102
vn 487 -99 -86
vn 96 113 295
vn -494 -28 18
vn 172 50 -84
vn 71 -22 -502
vn 454 87 -235
vn 552 16 -830
vn 94 39 -235
vn 488 -175 -113
vn 46 -100 370
vn -99 -634 498
vn 137 -287 -98
vn 82 -569 -525
vn 136 -68 -205
vn -282 -239 -30
vn -94 -559 266
vn -414 -283 306
vn 272 -513 -452
vn 484 -346 124
vn -20 -127 700
vn -180 -22 180
vn 526 -59 -198
vn 182 -11 -182
vn -253 29 -24
vn -397 -10 214
usemtl m0
f 1 2 3

usemtl m1
f 1 3 4

usemtl m2
f 1 4 5

usemtl m3
f 1 5 6

usemtl m4
f 1 6 7

usemtl m5
f 1 7 2

usemtl m6
f 2 7 8

usemtl m7
f 8 7 9

usemtl m8
f 8 9 10

usemtl m9
f 11 12 13

usemtl m10
f 11 13 14

usemtl m11
f 14 13 15

usemtl m12
f 14 15 16

usemtl m13
f 17 18 19

usemtl m14
f 17 19 20

usemtl m15
f 17 20 21

usemtl m16
f 17 21 22

usemtl m17
f 17 22 18

usemtl m18
f 18 22 19

usemtl m19
f 19 22 23

usemtl m20
f 24 25 26

usemtl m21
f 24 26 27

usemtl m22
f 24 27 28

usemtl m23
f 24 28 25

usemtl m24
f 25 28 29

usemtl m25
f 30 31 32

usemtl m26
f 30 32 33

usemtl m27
f 30 33 34

usemtl m28
f 30 34 35

usemtl m29
f 30 35 31

usemtl m30
f 31 35 36

usemtl m31
f 31 36 32

usemtl m32
f 37 38 39

usemtl m33
f 37 39 40

usemtl m34
f 37 40 41

usemtl m35
f 37 41 42

usemtl m36
f 37 42 38

usemtl m37
f 38 42 43

usemtl m38
f 38 43 39

usemtl m39
f 44 45 46

usemtl m40
f 44 46 47

usemtl m41
f 47 46 48

usemtl m42
f 47 48 49

usemtl m43
f 50 51 52

usemtl m44
f 50 52 53

usemtl m45
f 50 53 54

usemtl m46
f 50 54 51

usemtl m47
f 51 54 55

usemtl m48
f 51 55 56

usemtl m49
f 51 56 52

usemtl m50
f 57 58 59

usemtl m51
f 57 59 60

usemtl m52
f 57 60 61

usemtl m53
f 57 61 62

usemtl m54
f 57 62 63

usemtl m55
f 57 63 58

usemtl m56
f 58 63 64

usemtl m57
f 58 64 59

usemtl m58
f 65 66 67

usemtl m59
f 65 67 68

usemtl m60
f 65 68 69

usemtl m61
f 65 69 66

usemtl m62
f 66 69 70

usemtl m63
f 71 72 73

usemtl m64
f 71 73 74

usemtl m65
f 71 74 75

usemtl m66
f 71 75 72

usemtl m67
f 72 75 46

usemtl m68
f 72 46 73

usemtl m69
f 76 77 78

usemtl m70
f 78 77 79

usemtl m71
f 78 79 80

usemtl m72
f 80 79 81

usemtl m73
f 81 79 77

usemtl m74
f 81 77 82

usemtl m75
f 82 77 76

usemtl m76
f 82 76 83

usemtl m77
f 84 85 86

usemtl m78
f 84 86 87

usemtl m79
f 84 87 88

usemtl m80
f 84 88 85

usemtl m81
f 85 88 89

usemtl m82
f 90 87 86

usemtl m83
f 90 86 91

usemtl m84
f 90 88 87

usemtl m85
f 92 74 73

usemtl m86
f 46 75 93

usemtl m87
f 94 68 67

usemtl m88
f 94 67 95

usemtl m89
f 94 69 68

usemtl m90
f 96 41 40

usemtl m91
f 44 97 98

usemtl m92
f 44 98 45

usemtl m93
f 45 98 48

usemtl m94
f 45 48 46

usemtl m95
f 33 99 34

usemtl m96
f 26 100 101

usemtl m97
f 26 101 27

usemtl m98
f 27 101 28

usemtl m99
f 20 102 21

usemtl m100
f 11 103 104

usemtl m101
f 11 104 12

usemtl m102
f 12 104 15

usemtl m103
f 12 15 13

usemtl m104
f 52 105 53

usemtl m105
f 106 9 7

usemtl m106
f 106 7 6

usemtl m107
f 107 108 109

usemtl m108
f 107 109 110

usemtl m109
f 110 109 111

usemtl m110
f 111 109 112

usemtl m111
f 112 109 108

usemtl m112
f 112 108 113

usemtl m113
f 113 108 114

usemtl m114
f 114 108 107

usemtl m115
f 115 116 117

usemtl m116
f 115 117 118

usemtl m117
f 115 118 119

usemtl m118
f 115 119 120

usemtl m119
f 115 120 116

usemtl m120
f 119 118 121

usemtl m121
f 119 121 122

usemtl m122
f 119 122 123

usemtl m123
f 119 123 120

usemtl m124
f 124 125 126

usemtl m125
f 124 126 127

usemtl m126
f 124 127 128

usemtl m127
f 124 128 129

usemtl m128
f 126 130 128

usemtl m129
f 126 128 127

usemtl m130
f 131 132 133

usemtl m131
f 131 133 134

usemtl m132
f 131 134 135

usemtl m133
f 131 135 136

usemtl m134
f 131 136 132

usemtl m135
f 135 134 137

usemtl m136
f 137 134 138

usemtl m137
f 138 134 133

usemtl m138
f 121 139 122

usemtl m139
f 139 121 140

usemtl m140
f 139 140 141

usemtl m141
f 142 143 144

usemtl m142
f 142 144 145

usemtl m143
f 142 145 146

usemtl m144
f 142 146 147

usemtl m145
f 144 148 146

usemtl m146
f 144 146 145

usemtl m147
f 149 150 151

usemtl m148
f 149 151 152

usemtl m149
f 149 152 153

usemtl m150
f 149 153 150

usemtl m151
f 150 153 154

usemtl m152
f 152 155 153

usemtl m153
f 155 152 151

usemtl m154
f 155 151 156

usemtl m155
f 126 125 130

usemtl m156
f 130 125 157

usemtl m157
f 118 117 140

usemtl m158
f 118 140 121

usemtl m159
f 144 143 158

usemtl m160
f 144 158 148

