newmtl m0
Kd 0.6941176470588235 0.5803921568627451 0.4
newmtl m1
Kd 0.6941176470588235 0.5803921568627451 0.4
newmtl m2
Kd 0.6941176470588235 0.5803921568627451 0.4
newmtl m3
Kd 0.49411764705882355 0.3607843137254902 0.21176470588235294
newmtl m4
Kd 0.49411764705882355 0.3607843137254902 0.21176470588235294
newmtl m5
Kd 0.6941176470588235 0.5803921568627451 0.4
newmtl m6
Kd 0.6941176470588235 0.5803921568627451 0.4
newmtl m7
Kd 0.6941176470588235 0.5803921568627451 0.4
newmtl m8
Kd 0.6941176470588235 0.5803921568627451 0.4
newmtl m9
Kd 0.6941176470588235 0.5803921568627451 0.4
newmtl m10
Kd 0.6941176470588235 0.5803921568627451 0.4
newmtl m11
Kd 0.6941176470588235 0.5803921568627451 0.4
newmtl m12
Kd 0.6941176470588235 0.5803921568627451 0.4
newmtl m13
Kd 0.6941176470588235 0.5803921568627451 0.4
newmtl m14
Kd 0.6941176470588235 0.5803921568627451 0.4
newmtl m15
Kd 0.6941176470588235 0.5803921568627451 0.4
newmtl m16
Kd 0.6941176470588235 0.5803921568627451 0.4
newmtl m17
Kd 0.6941176470588235 0.5803921568627451 0.4
newmtl m18
Kd 0.6941176470588235 0.5803921568627451 0.4
newmtl m19
Kd 0.6941176470588235 0.5803921568627451 0.4
newmtl m20
Kd 0.6941176470588235 0.5803921568627451 0.4
newmtl m21
Kd 0.6941176470588235 0.5803921568627451 0.4
newmtl m22
Kd 0.6941176470588235 0.5803921568627451 0.4
newmtl m23
Kd 0.6941176470588235 0.5803921568627451 0.4
newmtl m24
Kd 0.6941176470588235 0.5803921568627451 0.4
newmtl m25
Kd 0.6941176470588235 0.5803921568627451 0.4
newmtl m26
Kd 0.49411764705882355 0.3607843137254902 0.21176470588235294
newmtl m27
Kd 0.49411764705882355 0.3607843137254902 0.21176470588235294
newmtl m28
Kd 0.6941176470588235 0.5803921568627451 0.4
newmtl m29
Kd 0.6941176470588235 0.5803921568627451 0.4
newmtl m30
Kd 0.6941176470588235 0.5803921568627451 0.4
newmtl m31
Kd 0.49411764705882355 0.3607843137254902 0.21176470588235294
newmtl m32
Kd 0.49411764705882355 0.3607843137254902 0.21176470588235294
newmtl m33
Kd 0.6941176470588235 0.5803921568627451 0.4
newmtl m34
Kd 0.6941176470588235 0.5803921568627451 0.4
newmtl m35
Kd 0.6941176470588235 0.5803921568627451 0.4
newmtl m36
Kd 0.6941176470588235 0.5803921568627451 0.4
newmtl m37
Kd 0.6941176470588235 0.5803921568627451 0.4
newmtl m38
Kd 0.6941176470588235 0.5803921568627451 0.4
newmtl m39
Kd 0.6941176470588235 0.5803921568627451 0.4
newmtl m40
Kd 0.6941176470588235 0.5803921568627451 0.4
newmtl m41
Kd 0.49411764705882355 0.3607843137254902 0.21176470588235294
newmtl m42
Kd 0.49411764705882355 0.3607843137254902 0.21176470588235294
newmtl m43
Kd 0.6941176470588235 0.5803921568627451 0.4
newmtl m44
Kd 0.6941176470588235 0.5803921568627451 0.4
newmtl m45
Kd 0.6941176470588235 0.5803921568627451 0.4
newmtl m46
Kd 0.6941176470588235 0.5803921568627451 0.4
newmtl m47
Kd 0.6941176470588235 0.5803921568627451 0.4
newmtl m48
Kd 0.6941176470588235 0.5803921568627451 0.4
newmtl m49
Kd 0.6941176470588235 0.5803921568627451 0.4
newmtl m50
Kd 0.6941176470588235 0.5803921568627451 0.4
newmtl m51
Kd 0.49411764705882355 0.3607843137254902 0.21176470588235294
newmtl m52
Kd 0.49411764705882355 0.3607843137254902 0.21176470588235294
newmtl m53
Kd 0.6941176470588235 0.5803921568627451 0.4
newmtl m54
Kd 0.6941176470588235 0.5803921568627451 0.4
newmtl m55
Kd 0.6941176470588235 0.5803921568627451 0.4
newmtl m56
Kd 0.6941176470588235 0.5803921568627451 0.4
newmtl m57
Kd 0.6941176470588235 0.5803921568627451 0.4
newmtl m58
Kd 0.5411764705882353 0.48627450980392156 0.4823529411764706
newmtl m59
Kd 0.5411764705882353 0.48627450980392156 0.4823529411764706
newmtl m60
Kd 0.7450980392156863 0.7098039215686275 0.7098039215686275
newmtl m61
Kd 0.5411764705882353 0.48627450980392156 0.4823529411764706
newmtl m62
Kd 0.5411764705882353 0.48627450980392156 0.4823529411764706
newmtl m63
Kd 0.7450980392156863 0.7098039215686275 0.7098039215686275
newmtl m64
Kd 0.7450980392156863 0.7098039215686275 0.7098039215686275
newmtl m65
Kd 0.7450980392156863 0.7098039215686275 0.7098039215686275
newmtl m66
Kd 0.7450980392156863 0.7098039215686275 0.7098039215686275
newmtl m67
Kd 0.7450980392156863 0.7098039215686275 0.7098039215686275
newmtl m68
Kd 0.5411764705882353 0.48627450980392156 0.4823529411764706
newmtl m69
Kd 0.5411764705882353 0.48627450980392156 0.4823529411764706
newmtl m70
Kd 0.7450980392156863 0.7098039215686275 0.7098039215686275
newmtl m71
Kd 0.7450980392156863 0.7098039215686275 0.7098039215686275
newmtl m72
Kd 0.7450980392156863 0.7098039215686275 0.7098039215686275
newmtl m73
Kd 0.7450980392156863 0.7098039215686275 0.7098039215686275
newmtl m74
Kd 0.5411764705882353 0.48627450980392156 0.4823529411764706
newmtl m75
Kd 0.5411764705882353 0.48627450980392156 0.4823529411764706
newmtl m76
Kd 0.7450980392156863 0.7098039215686275 0.7098039215686275
newmtl m77
Kd 0.7450980392156863 0.7098039215686275 0.7098039215686275
newmtl m78
Kd 0.49411764705882355 0.3607843137254902 0.21176470588235294
newmtl m79
Kd 0.8117647058823529 0.7490196078431373 0.6392156862745098
newmtl m80
Kd 0.8117647058823529 0.7490196078431373 0.6392156862745098
newmtl m81
Kd 0.8117647058823529 0.7490196078431373 0.6392156862745098
newmtl m82
Kd 0.49411764705882355 0.3607843137254902 0.21176470588235294
newmtl m83
Kd 0.49411764705882355 0.3607843137254902 0.21176470588235294
newmtl m84
Kd 0.49411764705882355 0.3607843137254902 0.21176470588235294
newmtl m85
Kd 0.49411764705882355 0.3607843137254902 0.21176470588235294
newmtl m86
Kd 0.49411764705882355 0.3607843137254902 0.21176470588235294
newmtl m87
Kd 0.49411764705882355 0.3607843137254902 0.21176470588235294
newmtl m88
Kd 0.49411764705882355 0.3607843137254902 0.21176470588235294
newmtl m89
Kd 0.49411764705882355 0.3607843137254902 0.21176470588235294
newmtl m90
Kd 0.49411764705882355 0.3607843137254902 0.21176470588235294
newmtl m91
Kd 0.8117647058823529 0.7490196078431373 0.6392156862745098
newmtl m92
Kd 0.8117647058823529 0.7490196078431373 0.6392156862745098
newmtl m93
Kd 0.8117647058823529 0.7490196078431373 0.6392156862745098
newmtl m94
Kd 0.8117647058823529 0.7490196078431373 0.6392156862745098
newmtl m95
Kd 0.8117647058823529 0.7490196078431373 0.6392156862745098
newmtl m96
Kd 0.8117647058823529 0.7490196078431373 0.6392156862745098
newmtl m97
Kd 0.8117647058823529 0.7490196078431373 0.6392156862745098
newmtl m98
Kd 0.8117647058823529 0.7490196078431373 0.6392156862745098
newmtl m99
Kd 0.8117647058823529 0.7490196078431373 0.6392156862745098
newmtl m100
Kd 0.8117647058823529 0.7490196078431373 0.6392156862745098
newmtl m101
Kd 0.8117647058823529 0.7490196078431373 0.6392156862745098
newmtl m102
Kd 0.8117647058823529 0.7490196078431373 0.6392156862745098
newmtl m103
Kd 0.8117647058823529 0.7490196078431373 0.6392156862745098
newmtl m104
Kd 0.8117647058823529 0.7490196078431373 0.6392156862745098
newmtl m105
Kd 0.8117647058823529 0.7490196078431373 0.6392156862745098
newmtl m106
Kd 0.8117647058823529 0.7490196078431373 0.6392156862745098
newmtl m107
Kd 0.8117647058823529 0.7490196078431373 0.6392156862745098
newmtl m108
Kd 0.8117647058823529 0.7490196078431373 0.6392156862745098
newmtl m109
Kd 0.8117647058823529 0.7490196078431373 0.6392156862745098
newmtl m110
Kd 0.8117647058823529 0.7490196078431373 0.6392156862745098
newmtl m111
Kd 0.8117647058823529 0.7490196078431373 0.6392156862745098
newmtl m112
Kd 0.8117647058823529 0.7490196078431373 0.6392156862745098
newmtl m113
Kd 0.8117647058823529 0.7490196078431373 0.6392156862745098
newmtl m114
Kd 0.8117647058823529 0.7490196078431373 0.6392156862745098
newmtl m115
Kd 0.8117647058823529 0.7490196078431373 0.6392156862745098
newmtl m116
Kd 0.8117647058823529 0.7490196078431373 0.6392156862745098
newmtl m117
Kd 0.8117647058823529 0.7490196078431373 0.6392156862745098
newmtl m118
Kd 0.49411764705882355 0.3607843137254902 0.21176470588235294
newmtl m119
Kd 0.49411764705882355 0.3607843137254902 0.21176470588235294
newmtl m120
Kd 0.49411764705882355 0.3607843137254902 0.21176470588235294
newmtl m121
Kd 0.49411764705882355 0.3607843137254902 0.21176470588235294
newmtl m122
Kd 0.49411764705882355 0.3607843137254902 0.21176470588235294
newmtl m123
Kd 0.49411764705882355 0.3607843137254902 0.21176470588235294
newmtl m124
Kd 0.49411764705882355 0.3607843137254902 0.21176470588235294
newmtl m125
Kd 0.49411764705882355 0.3607843137254902 0.21176470588235294
newmtl m126
Kd 0.49411764705882355 0.3607843137254902 0.21176470588235294
newmtl m127
Kd 0.49411764705882355 0.3607843137254902 0.21176470588235294
newmtl m128
Kd 0.5411764705882353 0.48627450980392156 0.4823529411764706
newmtl m129
Kd 0.5411764705882353 0.48627450980392156 0.4823529411764706
newmtl m130
Kd 0.7450980392156863 0.7098039215686275 0.7098039215686275
newmtl m131
Kd 0.5411764705882353 0.48627450980392156 0.4823529411764706
newmtl m132
Kd 0.5411764705882353 0.48627450980392156 0.4823529411764706
newmtl m133
Kd 0.7450980392156863 0.7098039215686275 0.7098039215686275
newmtl m134
Kd 0.7450980392156863 0.7098039215686275 0.7098039215686275
newmtl m135
Kd 0.7450980392156863 0.7098039215686275 0.7098039215686275
newmtl m136
Kd 0.7450980392156863 0.7098039215686275 0.7098039215686275
newmtl m137
Kd 0.7450980392156863 0.7098039215686275 0.7098039215686275
newmtl m138
Kd 0.5411764705882353 0.48627450980392156 0.4823529411764706
newmtl m139
Kd 0.5411764705882353 0.48627450980392156 0.4823529411764706
newmtl m140
Kd 0.7450980392156863 0.7098039215686275 0.7098039215686275
newmtl m141
Kd 0.7450980392156863 0.7098039215686275 0.7098039215686275
newmtl m142
Kd 0.7450980392156863 0.7098039215686275 0.7098039215686275
newmtl m143
Kd 0.7450980392156863 0.7098039215686275 0.7098039215686275
newmtl m144
Kd 0.5411764705882353 0.48627450980392156 0.4823529411764706
newmtl m145
Kd 0.5411764705882353 0.48627450980392156 0.4823529411764706
newmtl m146
Kd 0.7450980392156863 0.7098039215686275 0.7098039215686275
newmtl m147
Kd 0.7450980392156863 0.7098039215686275 0.7098039215686275
