newmtl m0
Kd 0.43137254901960786 0.25882352941176473 0.050980392156862744
newmtl m1
Kd 0.43137254901960786 0.25882352941176473 0.050980392156862744
newmtl m2
Kd 0.43137254901960786 0.25882352941176473 0.050980392156862744
newmtl m3
Kd 0.43137254901960786 0.25882352941176473 0.050980392156862744
newmtl m4
Kd 0.43137254901960786 0.25882352941176473 0.050980392156862744
newmtl m5
Kd 0.43137254901960786 0.25882352941176473 0.050980392156862744
newmtl m6
Kd 0.43137254901960786 0.25882352941176473 0.050980392156862744
newmtl m7
Kd 0.43137254901960786 0.25882352941176473 0.050980392156862744
newmtl m8
Kd 0.43137254901960786 0.25882352941176473 0.050980392156862744
newmtl m9
Kd 0.43137254901960786 0.25882352941176473 0.050980392156862744
newmtl m10
Kd 0.43137254901960786 0.25882352941176473 0.050980392156862744
newmtl m11
Kd 0.43137254901960786 0.25882352941176473 0.050980392156862744
newmtl m12
Kd 0.43137254901960786 0.25882352941176473 0.050980392156862744
newmtl m13
Kd 0.43137254901960786 0.25882352941176473 0.050980392156862744
newmtl m14
Kd 0.43137254901960786 0.25882352941176473 0.050980392156862744
newmtl m15
Kd 0.43137254901960786 0.25882352941176473 0.050980392156862744
newmtl m16
Kd 0.43137254901960786 0.25882352941176473 0.050980392156862744
newmtl m17
Kd 0.43137254901960786 0.25882352941176473 0.050980392156862744
newmtl m18
Kd 0.43137254901960786 0.25882352941176473 0.050980392156862744
newmtl m19
Kd 0.43137254901960786 0.25882352941176473 0.050980392156862744
newmtl m20
Kd 0.43137254901960786 0.25882352941176473 0.050980392156862744
newmtl m21
Kd 0.43137254901960786 0.25882352941176473 0.050980392156862744
newmtl m22
Kd 0.43137254901960786 0.25882352941176473 0.050980392156862744
newmtl m23
Kd 0.43137254901960786 0.25882352941176473 0.050980392156862744
newmtl m24
Kd 0.43137254901960786 0.25882352941176473 0.050980392156862744
newmtl m25
Kd 0.43137254901960786 0.25882352941176473 0.050980392156862744
newmtl m26
Kd 0.43137254901960786 0.25882352941176473 0.050980392156862744
newmtl m27
Kd 0.43137254901960786 0.25882352941176473 0.050980392156862744
newmtl m28
Kd 0.43137254901960786 0.25882352941176473 0.050980392156862744
newmtl m29
Kd 0.43137254901960786 0.25882352941176473 0.050980392156862744
newmtl m30
Kd 0.43137254901960786 0.25882352941176473 0.050980392156862744
newmtl m31
Kd 0.43137254901960786 0.25882352941176473 0.050980392156862744
newmtl m32
Kd 0.43137254901960786 0.25882352941176473 0.050980392156862744
newmtl m33
Kd 0.43137254901960786 0.25882352941176473 0.050980392156862744
newmtl m34
Kd 0.43137254901960786 0.25882352941176473 0.050980392156862744
newmtl m35
Kd 0.43137254901960786 0.25882352941176473 0.050980392156862744
newmtl m36
Kd 0.43137254901960786 0.25882352941176473 0.050980392156862744
newmtl m37
Kd 0.43137254901960786 0.25882352941176473 0.050980392156862744
newmtl m38
Kd 0.43137254901960786 0.25882352941176473 0.050980392156862744
newmtl m39
Kd 0.43137254901960786 0.25882352941176473 0.050980392156862744
newmtl m40
Kd 0.43137254901960786 0.25882352941176473 0.050980392156862744
newmtl m41
Kd 0.43137254901960786 0.25882352941176473 0.050980392156862744
newmtl m42
Kd 0.43137254901960786 0.25882352941176473 0.050980392156862744
newmtl m43
Kd 0.43137254901960786 0.25882352941176473 0.050980392156862744
newmtl m44
Kd 0.43137254901960786 0.25882352941176473 0.050980392156862744
newmtl m45
Kd 0.43137254901960786 0.25882352941176473 0.050980392156862744
newmtl m46
Kd 0.43137254901960786 0.25882352941176473 0.050980392156862744
newmtl m47
Kd 0.43137254901960786 0.25882352941176473 0.050980392156862744
newmtl m48
Kd 0.43137254901960786 0.25882352941176473 0.050980392156862744
newmtl m49
Kd 0.43137254901960786 0.25882352941176473 0.050980392156862744
newmtl m50
Kd 0.43137254901960786 0.25882352941176473 0.050980392156862744
newmtl m51
Kd 0.43137254901960786 0.25882352941176473 0.050980392156862744
newmtl m52
Kd 0.43137254901960786 0.25882352941176473 0.050980392156862744
newmtl m53
Kd 0.43137254901960786 0.25882352941176473 0.050980392156862744
newmtl m54
Kd 0.43137254901960786 0.25882352941176473 0.050980392156862744
newmtl m55
Kd 0.43137254901960786 0.25882352941176473 0.050980392156862744
newmtl m56
Kd 0.43137254901960786 0.25882352941176473 0.050980392156862744
newmtl m57
Kd 0.43137254901960786 0.25882352941176473 0.050980392156862744
newmtl m58
Kd 0.43137254901960786 0.25882352941176473 0.050980392156862744
newmtl m59
Kd 0.43137254901960786 0.25882352941176473 0.050980392156862744
newmtl m60
Kd 0.43137254901960786 0.25882352941176473 0.050980392156862744
newmtl m61
Kd 0.43137254901960786 0.25882352941176473 0.050980392156862744
newmtl m62
Kd 0.43137254901960786 0.25882352941176473 0.050980392156862744
newmtl m63
Kd 0.43137254901960786 0.25882352941176473 0.050980392156862744
newmtl m64
Kd 0.43137254901960786 0.25882352941176473 0.050980392156862744
newmtl m65
Kd 0.43137254901960786 0.25882352941176473 0.050980392156862744
newmtl m66
Kd 0.43137254901960786 0.25882352941176473 0.050980392156862744
newmtl m67
Kd 0.43137254901960786 0.25882352941176473 0.050980392156862744
newmtl m68
Kd 0.43137254901960786 0.25882352941176473 0.050980392156862744
newmtl m69
Kd 0.43137254901960786 0.25882352941176473 0.050980392156862744
newmtl m70
Kd 0.43137254901960786 0.25882352941176473 0.050980392156862744
newmtl m71
Kd 0.43137254901960786 0.25882352941176473 0.050980392156862744
newmtl m72
Kd 0.43137254901960786 0.25882352941176473 0.050980392156862744
newmtl m73
Kd 0.43137254901960786 0.25882352941176473 0.050980392156862744
newmtl m74
Kd 0.43137254901960786 0.25882352941176473 0.050980392156862744
newmtl m75
Kd 0.43137254901960786 0.25882352941176473 0.050980392156862744
newmtl m76
Kd 0.43137254901960786 0.25882352941176473 0.050980392156862744
newmtl m77
Kd 0.43137254901960786 0.25882352941176473 0.050980392156862744
newmtl m78
Kd 0.43137254901960786 0.25882352941176473 0.050980392156862744
newmtl m79
Kd 0.43137254901960786 0.25882352941176473 0.050980392156862744
newmtl m80
Kd 0.43137254901960786 0.25882352941176473 0.050980392156862744
newmtl m81
Kd 0.43137254901960786 0.25882352941176473 0.050980392156862744
newmtl m82
Kd 0.43137254901960786 0.25882352941176473 0.050980392156862744
newmtl m83
Kd 0.43137254901960786 0.25882352941176473 0.050980392156862744
newmtl m84
Kd 0.43137254901960786 0.25882352941176473 0.050980392156862744
newmtl m85
Kd 0.43137254901960786 0.25882352941176473 0.050980392156862744
newmtl m86
Kd 0.43137254901960786 0.25882352941176473 0.050980392156862744
newmtl m87
Kd 0.43137254901960786 0.25882352941176473 0.050980392156862744
newmtl m88
Kd 0.43137254901960786 0.25882352941176473 0.050980392156862744
newmtl m89
Kd 0.43137254901960786 0.25882352941176473 0.050980392156862744
newmtl m90
Kd 0.43137254901960786 0.25882352941176473 0.050980392156862744
newmtl m91
Kd 0.43137254901960786 0.25882352941176473 0.050980392156862744
newmtl m92
Kd 0.43137254901960786 0.25882352941176473 0.050980392156862744
newmtl m93
Kd 0.43137254901960786 0.25882352941176473 0.050980392156862744
newmtl m94
Kd 0.43137254901960786 0.25882352941176473 0.050980392156862744
newmtl m95
Kd 0.43137254901960786 0.25882352941176473 0.050980392156862744
newmtl m96
Kd 0.43137254901960786 0.25882352941176473 0.050980392156862744
newmtl m97
Kd 0.43137254901960786 0.25882352941176473 0.050980392156862744
newmtl m98
Kd 0.43137254901960786 0.25882352941176473 0.050980392156862744
newmtl m99
Kd 0.43137254901960786 0.25882352941176473 0.050980392156862744
newmtl m100
Kd 0.43137254901960786 0.25882352941176473 0.050980392156862744
newmtl m101
Kd 0.43137254901960786 0.25882352941176473 0.050980392156862744
newmtl m102
Kd 0.43137254901960786 0.25882352941176473 0.050980392156862744
newmtl m103
Kd 0.43137254901960786 0.25882352941176473 0.050980392156862744
newmtl m104
Kd 0.43137254901960786 0.25882352941176473 0.050980392156862744
newmtl m105
Kd 0.43137254901960786 0.25882352941176473 0.050980392156862744
newmtl m106
Kd 0.43137254901960786 0.25882352941176473 0.050980392156862744
newmtl m107
Kd 0.43137254901960786 0.25882352941176473 0.050980392156862744
newmtl m108
Kd 0.43137254901960786 0.25882352941176473 0.050980392156862744
newmtl m109
Kd 0.43137254901960786 0.25882352941176473 0.050980392156862744
newmtl m110
Kd 0.43137254901960786 0.25882352941176473 0.050980392156862744
newmtl m111
Kd 0.43137254901960786 0.25882352941176473 0.050980392156862744
newmtl m112
Kd 0.43137254901960786 0.25882352941176473 0.050980392156862744
newmtl m113
Kd 0.43137254901960786 0.25882352941176473 0.050980392156862744
newmtl m114
Kd 0.43137254901960786 0.25882352941176473 0.050980392156862744
newmtl m115
Kd 0.43137254901960786 0.25882352941176473 0.050980392156862744
newmtl m116
Kd 0.43137254901960786 0.25882352941176473 0.050980392156862744
newmtl m117
Kd 0.43137254901960786 0.25882352941176473 0.050980392156862744
newmtl m118
Kd 0.43137254901960786 0.25882352941176473 0.050980392156862744
newmtl m119
Kd 0.43137254901960786 0.25882352941176473 0.050980392156862744
newmtl m120
Kd 0.43137254901960786 0.25882352941176473 0.050980392156862744
newmtl m121
Kd 0.43137254901960786 0.25882352941176473 0.050980392156862744
newmtl m122
Kd 0.43137254901960786 0.25882352941176473 0.050980392156862744
newmtl m123
Kd 0.43137254901960786 0.25882352941176473 0.050980392156862744
newmtl m124
Kd 0.43137254901960786 0.25882352941176473 0.050980392156862744
newmtl m125
Kd 0.43137254901960786 0.25882352941176473 0.050980392156862744
newmtl m126
Kd 0.43137254901960786 0.25882352941176473 0.050980392156862744
newmtl m127
Kd 0.43137254901960786 0.25882352941176473 0.050980392156862744
newmtl m128
Kd 0.43137254901960786 0.25882352941176473 0.050980392156862744
newmtl m129
Kd 0.43137254901960786 0.25882352941176473 0.050980392156862744
newmtl m130
Kd 0.43137254901960786 0.25882352941176473 0.050980392156862744
newmtl m131
Kd 0.43137254901960786 0.25882352941176473 0.050980392156862744
newmtl m132
Kd 0.43137254901960786 0.25882352941176473 0.050980392156862744
newmtl m133
Kd 0.43137254901960786 0.25882352941176473 0.050980392156862744
newmtl m134
Kd 0.43137254901960786 0.25882352941176473 0.050980392156862744
newmtl m135
Kd 0.43137254901960786 0.25882352941176473 0.050980392156862744
newmtl m136
Kd 0.43137254901960786 0.25882352941176473 0.050980392156862744
newmtl m137
Kd 0.43137254901960786 0.25882352941176473 0.050980392156862744
newmtl m138
Kd 0.43137254901960786 0.25882352941176473 0.050980392156862744
newmtl m139
Kd 0.43137254901960786 0.25882352941176473 0.050980392156862744
newmtl m140
Kd 0.43137254901960786 0.25882352941176473 0.050980392156862744
newmtl m141
Kd 0.43137254901960786 0.25882352941176473 0.050980392156862744
newmtl m142
Kd 0.43137254901960786 0.25882352941176473 0.050980392156862744
newmtl m143
Kd 0.43137254901960786 0.3058823529411765 0.09019607843137255
newmtl m144
Kd 0.43137254901960786 0.3058823529411765 0.09019607843137255
newmtl m145
Kd 0.43137254901960786 0.3058823529411765 0.09019607843137255
newmtl m146
Kd 0.43137254901960786 0.3058823529411765 0.09019607843137255
newmtl m147
Kd 0.43137254901960786 0.3058823529411765 0.09019607843137255
newmtl m148
Kd 0.43137254901960786 0.3058823529411765 0.09019607843137255
newmtl m149
Kd 0.43137254901960786 0.3058823529411765 0.09019607843137255
newmtl m150
map_Kd sprite/462-0.png
newmtl m151
map_Kd sprite/462-0.png
newmtl m152
map_Kd sprite/462-0.png
newmtl m153
map_Kd sprite/462-0.png
newmtl m154
map_Kd sprite/462-0.png
newmtl m155
map_Kd sprite/462-0.png
newmtl m156
map_Kd sprite/462-0.png
newmtl m157
map_Kd sprite/462-0.png
newmtl m158
map_Kd sprite/462-0.png
newmtl m159
map_Kd sprite/462-0.png
newmtl m160
map_Kd sprite/462-0.png
newmtl m161
Kd 0.43137254901960786 0.3058823529411765 0.09019607843137255
newmtl m162
Kd 0.43137254901960786 0.3058823529411765 0.09019607843137255
newmtl m163
Kd 0.43137254901960786 0.3058823529411765 0.09019607843137255
newmtl m164
Kd 0.43137254901960786 0.3058823529411765 0.09019607843137255
newmtl m165
Kd 0.43137254901960786 0.3058823529411765 0.09019607843137255
newmtl m166
Kd 0.43137254901960786 0.3058823529411765 0.09019607843137255
newmtl m167
Kd 0.43137254901960786 0.3058823529411765 0.09019607843137255
newmtl m168
Kd 0.43137254901960786 0.3058823529411765 0.09019607843137255
newmtl m169
Kd 0.43137254901960786 0.3058823529411765 0.09019607843137255
newmtl m170
Kd 0.43137254901960786 0.3058823529411765 0.09019607843137255
newmtl m171
Kd 0.43137254901960786 0.3058823529411765 0.09019607843137255
newmtl m172
Kd 0.43137254901960786 0.3058823529411765 0.09019607843137255
newmtl m173
Kd 0.43137254901960786 0.3058823529411765 0.09019607843137255
newmtl m174
Kd 0.43137254901960786 0.3058823529411765 0.09019607843137255
newmtl m175
Kd 0.43137254901960786 0.3058823529411765 0.09019607843137255
newmtl m176
Kd 0.43137254901960786 0.3058823529411765 0.09019607843137255
newmtl m177
Kd 0.43137254901960786 0.3058823529411765 0.09019607843137255
newmtl m178
Kd 0.43137254901960786 0.3058823529411765 0.09019607843137255
newmtl m179
Kd 0.43137254901960786 0.3058823529411765 0.09019607843137255
newmtl m180
Kd 0.43137254901960786 0.3058823529411765 0.09019607843137255
newmtl m181
Kd 0.43137254901960786 0.3058823529411765 0.09019607843137255
newmtl m182
Kd 0.43137254901960786 0.3058823529411765 0.09019607843137255
newmtl m183
Kd 0.43137254901960786 0.3058823529411765 0.09019607843137255
newmtl m184
Kd 0.43137254901960786 0.3058823529411765 0.09019607843137255
newmtl m185
Kd 0.43137254901960786 0.3058823529411765 0.09019607843137255
newmtl m186
Kd 0.43137254901960786 0.3058823529411765 0.09019607843137255
newmtl m187
Kd 0.43137254901960786 0.3058823529411765 0.09019607843137255
newmtl m188
Kd 0.43137254901960786 0.3058823529411765 0.09019607843137255
newmtl m189
Kd 0.43137254901960786 0.3058823529411765 0.09019607843137255
newmtl m190
Kd 0.43137254901960786 0.3058823529411765 0.09019607843137255
