mtllib 13926.mtl
o runescapemodel
v 5 132 12
v 3 132 12
v 1 128 12
v 6 130 12
v 11 128 12
v 8 132 12
v 5 139 12
v 1 136 12
v -11 124 12
v 5 125 12
v 8 126 12
v 11 124 12
v 13 158 12
v 9 135 12
v -2 154 12
v -2 151 12
v -5 148 12
v -8 145 12
v -11 146 12
v -12 149 12
v -13 158 12
v -18 144 8
v -15 126 7
v -15 122 6
v -11 120 12
v -7 118 12
v -5 121 12
v -17 163 4
v -17 163 -4
v -18 144 -8
v -10 164 -7
v -16 158 -10
v -11 124 -11
v -15 126 -7
v -17 127 0
v -17 122 0
v -17 117 2
v 18 144 8
v 18 144 -8
v 17 163 -4
v 17 163 4
v 15 126 7
v 17 127 0
v 15 126 -7
v 11 122 -11
v 16 158 -10
v 10 164 -7
v 10 163 11
v 0 158 12
v -2 155 12
v -3 155 12
v -3 154 12
v -5 152 12
v -5 151 12
v -6 151 12
v -8 149 12
v -8 148 12
v -9 148 12
v -9 149 12
v -9 152 12
v -6 155 12
v -10 163 11
v -7 164 8
v -7 165 -4
v 0 147 -10
v -4 147 -10
v -6 147 -10
v -6 146 -10
v -6 141 -10
v -1 137 -10
v 3 133 -10
v 3 120 -11
v -3 121 -11
v -7 117 -11
v -11 120 -11
v -15 122 -7
v -16 119 -6
v -17 114 -3
v 11 123 -5
v 8 123 8
v 11 114 8
v 13 114 -8
v -11 123 -5
v -13 114 -8
v -8 123 8
v -11 114 8
v 17 122 1
v 15 121 -6
v 16 117 -8
v 15 121 7
v 11 120 12
v 16 116 9
v 7 165 -4
v 7 164 8
v 4 161 11
v 1 160 11
v 0 164 11
v 3 162 11
v -3 119 12
v 4 120 12
v 8 116 12
v -6 152 12
v 16 114 -2
v 8 117 -11
v -1 117 -11
v -17 115 -9
v -17 116 7
v 3 139 -10
v 0 141 -10
v 4 143 -10
v 4 139 -10
v 3 137 -10
v 4 137 -10
v 7 134 -10
v 9 139 -10
v 0 143 -10
v -1 143 -10
v -4 146 -10
v -1 141 -10
vn 0 0 -1536
vn 0 0 -1280
vn 0 0 -1280
vn 0 0 -1024
vn 0 0 -2048
vn 0 0 -1024
vn 0 0 -2048
vn 0 0 -1536
vn -778 87 -3472
vn 0 0 -1536
vn 0 0 -768
vn 555 50 -2570
vn 478 -431 -2223
vn 0 0 -1024
vn 0 0 -1536
vn 0 0 -1792
vn 0 0 -1792
vn 0 0 -1536
vn 0 0 -1024
vn 0 0 -1536
vn -478 -431 -1711
vn -1323 57 -554
vn -1151 143 -514
vn -1108 -65 -615
vn -408 -89 -557
vn 0 0 -512
vn 0 0 -768
vn -662 -539 -217
vn -634 -470 224
vn -1580 59 514
vn -413 -1620 347
vn -463 -426 2182
vn -423 -4 2876
vn -1052 84 673
vn -1487 103 70
vn -1488 -90 -42
vn -247 -33 -82
vn 1579 44 -554
vn 1334 73 500
vn 890 -483 224
vn 406 -526 -217
vn 1102 86 -605
vn 1488 99 -87
vn 1138 144 522
vn 661 -93 2203
vn 444 -314 1693
vn 339 -1734 676
vn 258 -1017 -663
vn -69 -496 -2253
vn 0 0 -1024
vn 0 0 -1280
vn 0 0 -1280
vn 0 0 -1280
vn 0 0 -1280
vn 0 0 -1280
vn 0 0 -1280
vn 0 0 -1280
vn 0 0 -1280
vn 0 0 -1280
vn 0 0 -1792
vn 0 0 -1792
vn -284 -788 -824
vn -191 -994 -91
vn -98 -723 143
vn 0 0 1792
vn 0 0 1280
vn 0 0 768
vn 61 -9 1536
vn 60 -12 1536
vn 20 -23 1792
vn 9 -54 1534
vn 0 0 1024
vn 0 0 768
vn 0 0 512
vn -728 -146 954
vn -1113 -58 584
vn -856 -223 447
vn -256 -19 52
vn 487 -205 158
vn 237 -79 -566
vn 487 -124 -341
vn 250 -207 455
vn -247 -197 429
vn -489 -196 156
vn -489 -115 -343
vn -242 -80 -542
vn 991 13 122
vn 887 -64 435
vn 194 -114 132
vn 873 -117 -478
vn 582 -100 -997
vn 178 -100 -162
vn 154 -731 48
vn 192 -958 -588
vn -57 -610 -1102
vn -23 -257 -1261
vn 65 -647 -781
vn 199 -244 -941
vn 0 0 -512
vn 0 0 -768
vn 0 0 -256
vn 0 0 -1280
vn 246 4 69
vn 0 0 256
vn 0 0 256
vn -168 -146 138
vn -189 -89 -155
vn 0 0 1280
vn 0 0 1280
vn 0 0 1792
vn 0 0 1280
vn 0 0 1280
vn 0 0 1280
vn -33 -30 1024
vn -59 -22 1534
vn 0 0 1280
vn 0 0 1280
vn 0 0 1280
vn 0 0 1280
usemtl m0
f 1 2 3

usemtl m1
f 1 3 4

usemtl m2
f 1 4 5

usemtl m3
f 1 5 6

usemtl m4
f 1 6 7

usemtl m5
f 1 7 2

usemtl m6
f 2 7 8

usemtl m7
f 2 8 9

usemtl m8
f 2 9 3

usemtl m9
f 3 9 10

usemtl m10
f 3 10 4

usemtl m11
f 4 10 5

usemtl m12
f 5 10 11

usemtl m13
f 5 11 12

usemtl m14
f 5 12 13

usemtl m15
f 5 13 14

usemtl m16
f 5 14 6

usemtl m17
f 6 14 7

usemtl m18
f 7 14 13

usemtl m19
f 7 13 15

usemtl m20
f 7 15 16

usemtl m21
f 7 16 8

usemtl m22
f 8 16 17

usemtl m23
f 8 17 18

usemtl m24
f 8 18 9

usemtl m25
f 9 18 19

usemtl m26
f 9 19 20

usemtl m27
f 9 20 21

usemtl m28
f 9 21 22

usemtl m29
f 9 22 23

usemtl m30
f 9 23 24

usemtl m31
f 9 24 25

usemtl m32
f 9 25 26

usemtl m33
f 9 26 27

usemtl m34
f 9 27 12

usemtl m35
f 9 12 10

usemtl m36
f 10 12 11

usemtl m37
f 28 29 30

usemtl m38
f 28 30 22

usemtl m39
f 28 22 21

usemtl m40
f 28 21 31

usemtl m41
f 28 31 29

usemtl m42
f 29 31 32

usemtl m43
f 29 32 30

usemtl m44
f 30 32 33

usemtl m45
f 30 33 34

usemtl m46
f 30 34 35

usemtl m47
f 30 35 22

usemtl m48
f 22 35 23

usemtl m49
f 23 35 36

usemtl m50
f 23 36 24

usemtl m51
f 24 36 37

usemtl m52
f 38 39 40

usemtl m53
f 38 40 41

usemtl m54
f 38 41 13

usemtl m55
f 38 13 12

usemtl m56
f 38 12 42

usemtl m57
f 38 42 43

usemtl m58
f 38 43 39

usemtl m59
f 39 43 44

usemtl m60
f 39 44 45

usemtl m61
f 39 45 46

usemtl m62
f 39 46 40

usemtl m63
f 40 46 47

usemtl m64
f 40 47 41

usemtl m65
f 41 47 13

usemtl m66
f 13 47 48

usemtl m67
f 13 48 49

usemtl m68
f 13 49 50

usemtl m69
f 13 50 15

usemtl m70
f 15 50 51

usemtl m71
f 15 51 52

usemtl m72
f 15 52 16

usemtl m73
f 16 52 53

usemtl m74
f 16 53 54

usemtl m75
f 16 54 17

usemtl m76
f 17 54 55

usemtl m77
f 17 55 56

usemtl m78
f 17 56 57

usemtl m79
f 17 57 18

usemtl m80
f 18 57 58

usemtl m81
f 18 58 19

usemtl m82
f 19 58 20

usemtl m83
f 20 58 59

usemtl m84
f 20 59 60

usemtl m85
f 20 60 21

usemtl m86
f 21 60 61

usemtl m87
f 21 61 49

usemtl m88
f 21 49 62

usemtl m89
f 21 62 31

usemtl m90
f 31 62 63

usemtl m91
f 31 63 64

usemtl m92
f 31 64 47

usemtl m93
f 31 47 32

usemtl m94
f 32 47 46

usemtl m95
f 32 46 65

usemtl m96
f 32 65 66

usemtl m97
f 32 66 67

usemtl m98
f 32 67 68

usemtl m99
f 32 68 33

usemtl m100
f 33 68 69

usemtl m101
f 33 69 70

usemtl m102
f 33 70 71

usemtl m103
f 33 71 45

usemtl m104
f 33 45 72

usemtl m105
f 33 72 73

usemtl m106
f 33 73 74

usemtl m107
f 33 74 75

usemtl m108
f 33 75 34

usemtl m109
f 34 75 76

usemtl m110
f 34 76 35

usemtl m111
f 35 76 36

usemtl m112
f 36 76 77

usemtl m113
f 36 77 78

usemtl m114
f 79 80 81

usemtl m115
f 79 81 82

usemtl m116
f 79 82 83

usemtl m117
f 83 82 84

usemtl m118
f 83 84 85

usemtl m119
f 85 84 86

usemtl m120
f 85 86 80

usemtl m121
f 80 86 81

usemtl m122
f 44 43 87

usemtl m123
f 44 87 88

usemtl m124
f 44 88 45

usemtl m125
f 45 88 89

usemtl m126
f 43 42 90

usemtl m127
f 43 90 87

usemtl m128
f 42 12 91

usemtl m129
f 42 91 90

usemtl m130
f 90 91 92

usemtl m131
f 48 47 93

usemtl m132
f 48 93 94

usemtl m133
f 48 94 95

usemtl m134
f 48 95 49

usemtl m135
f 49 95 96

usemtl m136
f 49 96 62

usemtl m137
f 62 96 97

usemtl m138
f 62 97 63

usemtl m139
f 63 97 94

usemtl m140
f 94 97 98

usemtl m141
f 94 98 95

usemtl m142
f 95 98 96

usemtl m143
f 96 98 97

usemtl m144
f 47 64 93

usemtl m145
f 12 27 99

usemtl m146
f 12 99 100

usemtl m147
f 12 100 91

usemtl m148
f 91 100 101

usemtl m149
f 56 55 60

usemtl m150
f 56 60 59

usemtl m151
f 56 59 57

usemtl m152
f 57 59 58

usemtl m153
f 54 53 102

usemtl m154
f 54 102 55

usemtl m155
f 55 102 60

usemtl m156
f 60 102 61

usemtl m157
f 61 102 53

usemtl m158
f 61 53 52

usemtl m159
f 61 52 51

usemtl m160
f 61 51 49

usemtl m161
f 49 51 50

usemtl m162
f 87 103 88

usemtl m163
f 45 104 72

usemtl m164
f 72 105 73

usemtl m165
f 75 106 77

usemtl m166
f 75 77 76

usemtl m167
f 25 24 107

usemtl m168
f 108 70 109

usemtl m169
f 108 109 110

usemtl m170
f 108 110 111

usemtl m171
f 108 111 112

usemtl m172
f 108 112 70

usemtl m173
f 70 112 71

usemtl m174
f 71 112 113

usemtl m175
f 71 113 114

usemtl m176
f 71 114 45

usemtl m177
f 45 114 115

usemtl m178
f 45 115 46

usemtl m179
f 46 115 110

usemtl m180
f 46 110 65

usemtl m181
f 65 110 116

usemtl m182
f 65 116 117

usemtl m183
f 65 117 118

usemtl m184
f 65 118 66

usemtl m185
f 66 118 68

usemtl m186
f 66 68 67

usemtl m187
f 119 117 116

usemtl m188
f 119 116 109

usemtl m189
f 119 109 70

usemtl m190
f 119 70 69

usemtl m191
f 119 69 117

usemtl m192
f 117 69 118

usemtl m193
f 118 69 68

usemtl m194
f 114 113 115

usemtl m195
f 115 113 111

usemtl m196
f 115 111 110

usemtl m197
f 112 111 113

usemtl m198
f 110 109 116

