mtllib 14323.mtl
o runescapemodel
v 10 95 48
v 10 97 45
v 8 97 49
v 8 95 54
v 11 83 53
v 10 96 37
v 9 105 36
v 8 99 58
v 4 90 71
v 0 85 69
v 0 81 54
v 0 80 37
v 3 80 37
v 7 82 30
v 13 83 36
v 13 90 39
v 16 96 28
v 0 107 36
v 0 101 58
v 0 94 70
v 0 90 71
v -4 90 71
v -8 99 58
v -11 83 53
v -3 80 37
v 21 90 31
v 18 82 31
v 3 91 23
v -3 91 23
v -16 96 28
v -9 105 36
v 20 91 45
v 22 84 49
v 14 90 46
v 14 94 48
v 20 94 47
v 22 95 54
v 14 86 49
v 3 80 16
v -7 82 30
v 12 80 28
v 7 94 18
v -7 94 18
v -18 82 31
v -21 90 31
v -10 96 37
v -10 97 45
v -8 97 49
v -8 95 54
v -10 95 48
v -5 64 34
v -12 75 39
v 12 75 39
v 14 95 53
v 15 103 45
v 15 101 45
v 19 100 45
v 20 104 46
v 17 102 39
v -13 90 39
v -13 83 36
v -14 86 49
v -22 84 49
v -20 91 45
v -14 90 46
v -14 94 48
v -14 95 53
v -22 95 54
v -20 94 47
v -19 100 45
v -15 101 45
v -15 103 45
v -20 104 46
v -17 102 39
v -3 71 -57
v 3 71 -57
v 5 73 -64
v -5 73 -64
v -3 64 -57
v -7 59 -57
v -7 77 -57
v -5 59 -64
v 3 64 -57
v 7 59 -57
v 0 40 -51
v -19 40 -51
v -22 59 -41
v -19 73 -41
v -7 87 -41
v 7 77 -57
v 5 59 -64
v 0 66 -69
v 10 0 -37
v 12 3 -35
v 15 3 -35
v 17 0 -37
v 15 3 -32
v 19 0 -26
v 14 3 -32
v 14 0 -30
v 8 0 -26
v 12 3 -32
v 10 28 -46
v 13 28 -49
v 17 28 -49
v 17 28 -46
v 17 24 -39
v 10 24 -39
v 7 28 -32
v 10 35 -46
v 17 35 -46
v 17 28 -32
v 19 28 -27
v 19 40 -51
v 21 35 -20
v 19 22 -15
v 0 22 -15
v 0 33 -27
v 10 28 -32
v -12 3 -35
v -10 0 -37
v -17 0 -37
v -15 3 -35
v -11 28 -49
v -10 28 -46
v -10 24 -39
v -12 3 -32
v -8 0 -26
v -14 3 -32
v -14 0 -30
v -19 0 -26
v -15 3 -32
v -17 28 -46
v -17 28 -49
v -17 35 -46
v -10 35 -46
v -7 28 -32
v -17 24 -39
v -17 28 -32
v -19 28 -27
v -10 28 -32
v -19 22 -15
v -21 35 -20
v -26 59 -22
v -19 80 -22
v -7 84 -27
v 7 87 -41
v 19 73 -41
v 10 5 27
v 12 0 27
v 5 0 27
v 7 5 27
v 12 17 21
v 10 5 31
v 12 0 38
v 8 5 31
v 8 0 34
v 5 0 38
v 7 5 31
v 7 17 21
v 14 35 13
v 12 17 29
v 8 17 29
v 7 17 29
v 7 35 13
v 12 42 9
v 17 42 13
v 17 42 27
v 14 35 25
v 7 35 25
v 0 36 28
v 0 31 6
v 17 31 6
v 17 36 28
v 17 38 35
v 0 38 35
v -17 36 28
v -14 35 25
v -7 35 25
v -7 35 13
v -14 35 13
v -17 31 6
v 21 35 -5
v 26 36 6
v 26 42 27
v 17 47 41
v 0 47 41
v -17 38 35
v -26 42 27
v -12 17 29
v -8 17 29
v -17 42 27
v -17 42 13
v -12 42 9
v -10 66 16
v -3 80 16
v -3 77 6
v 3 77 6
v 10 66 16
v 5 64 34
v -12 0 27
v -10 5 27
v -7 5 27
v -5 0 27
v -7 5 31
v -5 0 38
v -8 5 31
v -8 0 34
v -12 0 38
v -10 5 31
v -12 17 21
v -7 17 21
v -7 17 29
v 5 42 30
v -5 42 30
v -7 89 -5
v -7 89 -22
v -19 80 -5
v -7 85 4
v 7 89 -5
v 7 89 -22
v 7 84 -27
v -26 59 -5
v -19 66 14
v -7 92 9
v 7 85 4
v 19 80 -5
v 19 80 -22
v -21 35 -5
v -26 36 6
v -19 61 35
v -12 80 28
v 7 92 9
v 19 66 14
v 26 59 -5
v 26 59 -22
v 22 59 -41
v -17 47 41
v -17 56 39
v -17 59 46
v 0 59 46
v 17 59 46
v 19 61 35
v 0 56 39
v 17 56 39
v 10 95 48
v 10 95 48
v 10 95 48
v 10 95 48
v 10 95 48
v 10 95 48
v 10 95 48
v 10 95 48
v 10 95 48
v 10 95 48
v 10 95 48
v 10 95 48
v 10 95 48
v 10 95 48
v 10 95 48
v 10 95 48
v 10 95 48
v 10 95 48
v 10 95 48
v 10 95 48
v 10 95 48
v 10 95 48
v 10 95 48
v 10 95 48
v 10 95 48
v 10 95 48
v 10 95 48
v 10 95 48
v 10 95 48
v 10 95 48
v 10 95 48
v 10 95 48
v 10 95 48
v 10 95 48
v 10 95 48
v 10 95 48
v 10 95 48
v 10 95 48
v 10 95 48
v 10 95 48
v 10 95 48
v 10 95 48
vn 1147 -388 -247
vn 911 -315 -196
vn 1103 -424 -268
vn 926 -278 -78
vn 1439 855 -261
vn 1217 80 -585
vn 1071 -845 -201
vn 1230 -680 -373
vn 515 20 -862
vn -267 1001 -844
vn 0 1241 -180
vn 47 763 -77
vn 880 -306 -1457
vn 1236 -608 -772
vn -720 867 -477
vn -406 -524 -448
vn 781 -625 442
vn -60 -1581 740
vn -96 -1316 -581
vn 28 -687 -894
vn 0 66 -998
vn -408 -196 -716
vn -1330 -569 -332
vn -1394 623 -199
vn -464 -21 -906
vn 422 -559 101
vn 680 779 630
vn 598 -1192 266
vn -459 -1234 701
vn -618 -495 594
vn -1012 -605 -135
vn 603 -497 561
vn 643 491 -132
vn -869 -648 212
vn -899 -189 774
vn 655 -55 909
vn 654 24 -413
vn -883 432 -582
vn 686 -792 692
vn -1359 -672 -1188
vn 1160 -996 -569
vn 342 -931 -370
vn -455 -1124 -334
vn -397 1059 572
vn -869 -517 26
vn -1347 -326 -522
vn -911 -315 -196
vn -1103 -424 -268
vn -926 -278 -78
vn -1147 -388 -247
vn -754 48 -1017
vn -910 -1100 -1275
vn 796 -802 -926
vn -891 -270 -594
vn -876 -454 57
vn -633 426 714
vn 643 383 568
vn 343 -525 -123
vn -118 33 291
vn 517 -511 -523
vn 675 582 -334
vn 847 588 -346
vn -612 435 -406
vn -615 -809 356
vn 904 -505 379
vn 869 40 714
vn 844 -7 -607
vn -616 -308 -392
vn -566 -194 974
vn -322 482 783
vn 853 311 423
vn 642 -586 -203
vn -587 -346 171
vn 118 33 291
vn -500 -996 342
vn 996 -500 344
vn 860 -1292 356
vn -1360 -792 356
vn -996 420 186
vn -569 55 1752
vn -384 -371 1152
vn -860 1132 44
vn 500 836 30
vn 569 55 1752
vn 0 1639 1620
vn -877 426 715
vn -1107 -68 466
vn -1352 -708 547
vn -372 -1003 278
vn 384 -588 1287
vn 1360 712 202
vn 0 0 1560
vn -413 -627 478
vn -655 53 848
vn 998 -252 685
vn 413 -474 248
vn 669 -725 -583
vn 37 -555 -277
vn -18 -903 -1108
vn -18 -249 -374
vn -55 -542 -277
vn -922 -599 -312
vn -1348 225 474
vn -354 111 816
vn 512 68 923
vn 1280 47 15
vn 768 194 -357
vn -488 322 -921
vn -485 568 -25
vn -491 384 1187
vn 706 236 495
vn 898 1012 -103
vn 588 1143 300
vn 1071 763 974
vn 1504 268 119
vn 741 630 -18
vn 0 1533 266
vn 0 1236 246
vn -249 657 66
vn 982 -218 765
vn 413 -474 248
vn -413 -627 478
vn -742 -15 679
vn 484 102 1084
vn 1225 169 279
vn 747 201 -551
vn 669 -624 -329
vn 55 -542 -277
vn 18 -984 -1352
vn 18 -249 -374
vn -37 -555 -277
vn -922 -619 -322
vn -1533 69 17
vn -512 43 462
vn -898 468 990
vn 550 305 664
vn 485 792 -153
vn -509 315 -727
vn -706 635 -51
vn -782 1298 377
vn 249 657 66
vn -741 865 -118
vn -1755 320 119
vn -1467 -187 131
vn -1016 -947 269
vn -418 -1225 281
vn 372 -1036 90
vn 1116 -629 486
vn 499 60 742
vn 481 -192 256
vn -481 -192 512
vn -499 132 715
vn 765 445 694
vn 990 -402 -662
vn 68 -407 -320
vn 26 -708 -1139
vn 26 -190 -317
vn -42 -407 -307
vn -993 -500 -672
vn -768 322 699
vn 1061 1331 715
vn 763 0 -508
vn 0 -280 -1532
vn -768 -153 -762
vn -467 1171 151
vn 309 125 611
vn 790 27 387
vn 1060 167 -550
vn 631 695 -1281
vn -292 840 -622
vn 56 2219 -564
vn -36 2083 -791
vn 322 1636 -571
vn 333 1815 -445
vn 324 943 -565
vn 0 1167 -852
vn -211 1600 -373
vn -573 828 -915
vn 343 812 -1103
vn 128 656 342
vn -1061 1321 129
vn -464 1381 -402
vn 1344 492 79
vn 874 695 27
vn 1631 286 -604
vn 398 302 -961
vn 0 261 -1395
vn -324 838 -709
vn -1752 505 -655
vn -763 0 -508
vn 0 -293 -1526
vn -1054 282 -777
vn -790 27 387
vn -309 -3 387
vn -1316 -450 164
vn -686 -902 550
vn -228 -361 108
vn 228 -608 182
vn 1316 -450 164
vn 754 1 -764
vn -481 -192 512
vn -499 174 715
vn 755 18 742
vn 481 -192 256
vn 737 -458 -416
vn 42 -407 -307
vn -26 -750 -1395
vn -26 -190 -317
vn -68 -407 -320
vn -990 -402 -662
vn -765 434 699
vn 768 333 694
vn 768 -140 -768
vn 119 284 -686
vn -113 179 -454
vn -451 -1348 -189
vn -273 -984 524
vn -1177 -799 -262
vn -519 -1053 -93
vn 298 -1123 -293
vn 426 -1262 342
vn 418 -1157 516
vn -1699 -102 -8
vn -1784 -793 -205
vn -692 -810 592
vn 519 -967 220
vn 1087 -922 -262
vn 1353 -876 309
vn -1093 440 79
vn -730 487 73
vn -1162 -235 -270
vn -960 -630 -280
vn 692 -911 438
vn 1784 -793 -205
vn 1691 -235 -8
vn 1227 -1 101
vn 1350 -148 484
vn -398 105 -998
vn -679 440 -750
vn -474 110 -426
vn 0 402 -1007
vn 474 346 -527
vn 1162 -235 -270
vn 0 543 -1056
vn 679 149 -900
vn 0 0 0
vn 0 0 0
vn 0 0 0
vn 0 0 0
vn 0 0 0
vn 0 0 0
vn 0 0 0
vn 0 0 0
vn 0 0 0
vn 0 0 0
vn 0 0 0
vn 0 0 0
vn 0 0 0
vn 0 0 0
vn 0 0 0
vn 0 0 0
vn 0 0 0
vn 0 0 0
vn 0 0 0
vn 0 0 0
vn 0 0 0
vn 0 0 0
vn 0 0 0
vn 0 0 0
vn 0 0 0
vn 0 0 0
vn 0 0 0
vn 0 0 0
vn 0 0 0
vn 0 0 0
vn 0 0 0
vn 0 0 0
vn 0 0 0
vn 0 0 0
vn 0 0 0
vn 0 0 0
vn 0 0 0
vn 0 0 0
vn 0 0 0
vn 0 0 0
vn 0 0 0
vn 0 0 0
usemtl m0
f 1 2 3

usemtl m1
f 1 3 4

usemtl m2
f 1 4 5

usemtl m3
f 1 5 6

usemtl m4
f 1 6 2

usemtl m5
f 2 6 7

usemtl m6
f 2 7 3

usemtl m7
f 3 7 8

usemtl m8
f 3 8 4

usemtl m9
f 4 8 5

usemtl m10
f 5 8 9

usemtl m11
f 5 9 10

usemtl m12
f 5 10 11

usemtl m13
f 5 11 12

usemtl m14
f 5 12 13

usemtl m15
f 5 13 6

usemtl m16
f 6 13 14

usemtl m17
f 6 14 15

usemtl m18
f 6 15 16

usemtl m19
f 6 16 17

usemtl m20
f 6 17 7

usemtl m21
f 7 17 18

usemtl m22
f 7 18 19

usemtl m23
f 7 19 8

usemtl m24
f 8 19 20

usemtl m25
f 8 20 9

usemtl m26
f 9 20 21

usemtl m27
f 9 21 10

usemtl m28
f 10 21 22

usemtl m29
f 10 22 23

usemtl m30
f 10 23 24

usemtl m31
f 10 24 11

usemtl m32
f 11 24 25

usemtl m33
f 11 25 12

usemtl m34
f 16 26 17

usemtl m35
f 17 26 27

usemtl m36
f 17 27 28

usemtl m37
f 17 28 18

usemtl m38
f 18 28 29

usemtl m39
f 18 29 30

usemtl m40
f 18 30 31

usemtl m41
f 18 31 23

usemtl m42
f 18 23 19

usemtl m43
f 19 23 22

usemtl m44
f 19 22 20

usemtl m45
f 20 22 21

usemtl m46
f 32 33 27

usemtl m47
f 32 27 26

usemtl m48
f 32 26 34

usemtl m49
f 32 34 35

usemtl m50
f 32 35 36

usemtl m51
f 32 36 33

usemtl m52
f 33 36 37

usemtl m53
f 33 37 38

usemtl m54
f 33 38 15

usemtl m55
f 33 15 27

usemtl m56
f 27 15 14

usemtl m57
f 27 14 28

usemtl m58
f 28 14 39

usemtl m59
f 28 39 29

usemtl m60
f 28 29 40

usemtl m61
f 28 40 14

usemtl m62
f 28 14 41

usemtl m63
f 28 41 42

usemtl m64
f 28 42 29

usemtl m65
f 29 42 43

usemtl m66
f 29 43 40

usemtl m67
f 29 40 44

usemtl m68
f 29 44 30

usemtl m69
f 30 44 45

usemtl m70
f 30 45 46

usemtl m71
f 30 46 31

usemtl m72
f 31 46 47

usemtl m73
f 31 47 48

usemtl m74
f 31 48 23

usemtl m75
f 23 48 49

usemtl m76
f 23 49 24

usemtl m77
f 24 49 50

usemtl m78
f 24 50 46

usemtl m79
f 24 46 40

usemtl m80
f 24 40 25

usemtl m81
f 25 40 51

usemtl m82
f 25 51 13

usemtl m83
f 25 13 14

usemtl m84
f 25 14 40

usemtl m85
f 25 40 52

usemtl m86
f 25 52 13

usemtl m87
f 13 52 53

usemtl m88
f 13 53 41

usemtl m89
f 13 41 14

usemtl m90
f 34 26 16

usemtl m91
f 34 16 38

usemtl m92
f 34 38 54

usemtl m93
f 34 54 35

usemtl m94
f 35 54 55

usemtl m95
f 35 55 56

usemtl m96
f 35 56 36

usemtl m97
f 36 56 57

usemtl m98
f 36 57 37

usemtl m99
f 37 57 58

usemtl m100
f 37 58 54

usemtl m101
f 37 54 38

usemtl m102
f 38 16 15

usemtl m103
f 58 55 54

usemtl m104
f 55 58 59

usemtl m105
f 55 59 56

usemtl m106
f 56 59 57

usemtl m107
f 57 59 58

usemtl m108
f 48 47 50

usemtl m109
f 48 50 49

usemtl m110
f 46 45 60

usemtl m111
f 46 60 40

usemtl m112
f 40 60 61

usemtl m113
f 40 61 44

usemtl m114
f 44 61 62

usemtl m115
f 44 62 63

usemtl m116
f 44 63 45

usemtl m117
f 45 63 64

usemtl m118
f 45 64 60

usemtl m119
f 60 64 65

usemtl m120
f 60 65 61

usemtl m121
f 61 65 62

usemtl m122
f 62 65 66

usemtl m123
f 62 66 67

usemtl m124
f 62 67 63

usemtl m125
f 63 67 68

usemtl m126
f 63 68 64

usemtl m127
f 64 68 69

usemtl m128
f 64 69 65

usemtl m129
f 65 69 66

usemtl m130
f 66 69 70

usemtl m131
f 66 70 71

usemtl m132
f 66 71 67

usemtl m133
f 67 71 72

usemtl m134
f 67 72 68

usemtl m135
f 68 72 73

usemtl m136
f 68 73 69

usemtl m137
f 69 73 70

usemtl m138
f 70 73 74

usemtl m139
f 70 74 71

usemtl m140
f 71 74 72

usemtl m141
f 72 74 73

usemtl m142
f 46 50 47

usemtl m143
f 75 76 77

usemtl m144
f 75 77 78

usemtl m145
f 75 78 79

usemtl m146
f 75 79 80

usemtl m147
f 75 80 81

usemtl m148
f 75 81 76

usemtl m149
f 75 76 77

usemtl m150
f 75 77 78

usemtl m151
f 75 78 79

usemtl m152
f 79 78 82

usemtl m153
f 79 82 83

usemtl m154
f 79 83 84

usemtl m155
f 79 84 80

usemtl m156
f 80 84 85

usemtl m157
f 80 85 86

usemtl m158
f 80 86 87

usemtl m159
f 80 87 88

usemtl m160
f 80 88 81

usemtl m161
f 81 88 89

usemtl m162
f 81 89 90

usemtl m163
f 81 90 76

usemtl m164
f 76 90 83

usemtl m165
f 76 83 91

usemtl m166
f 76 91 77

usemtl m167
f 77 91 92

usemtl m168
f 77 92 78

usemtl m169
f 78 92 82

usemtl m170
f 78 82 79

usemtl m171
f 79 82 83

usemtl m172
f 83 82 91

usemtl m173
f 83 91 76

usemtl m174
f 76 91 77

usemtl m175
f 77 91 92

usemtl m176
f 77 92 78

usemtl m177
f 78 92 82

usemtl m178
f 82 92 91

usemtl m179
f 82 91 83

usemtl m180
f 91 82 92

usemtl m181
f 93 94 95

usemtl m182
f 93 95 96

usemtl m183
f 96 95 97

usemtl m184
f 96 97 98

usemtl m185
f 98 97 99

usemtl m186
f 98 99 100

usemtl m187
f 100 99 101

usemtl m188
f 101 99 102

usemtl m189
f 101 102 93

usemtl m190
f 93 102 94

usemtl m191
f 94 102 103

usemtl m192
f 94 103 104

usemtl m193
f 94 104 105

usemtl m194
f 94 105 95

usemtl m195
f 95 105 106

usemtl m196
f 95 106 107

usemtl m197
f 95 107 97

usemtl m198
f 97 107 108

usemtl m199
f 97 108 99

usemtl m200
f 99 108 102

usemtl m201
f 102 108 103

usemtl m202
f 103 108 109

usemtl m203
f 103 109 110

usemtl m204
f 103 110 104

usemtl m205
f 104 110 105

usemtl m206
f 105 110 111

usemtl m207
f 105 111 106

usemtl m208
f 106 111 112

usemtl m209
f 106 112 107

usemtl m210
f 107 112 108

usemtl m211
f 108 112 109

usemtl m212
f 109 112 113

usemtl m213
f 113 112 114

usemtl m214
f 113 114 115

usemtl m215
f 113 115 116

usemtl m216
f 113 116 117

usemtl m217
f 113 117 118

usemtl m218
f 113 118 119

usemtl m219
f 119 118 85

usemtl m220
f 119 85 110

usemtl m221
f 110 85 114

usemtl m222
f 110 114 111

usemtl m223
f 111 114 112

usemtl m224
f 120 121 122

usemtl m225
f 120 122 123

usemtl m226
f 120 123 124

usemtl m227
f 120 124 125

usemtl m228
f 120 125 126

usemtl m229
f 120 126 127

usemtl m230
f 120 127 121

usemtl m231
f 121 127 128

usemtl m232
f 128 127 129

usemtl m233
f 128 129 130

usemtl m234
f 130 129 131

usemtl m235
f 131 129 132

usemtl m236
f 131 132 122

usemtl m237
f 122 132 123

usemtl m238
f 123 132 133

usemtl m239
f 123 133 134

usemtl m240
f 123 134 124

usemtl m241
f 124 134 135

usemtl m242
f 124 135 136

usemtl m243
f 124 136 125

usemtl m244
f 125 136 137

usemtl m245
f 125 137 126

usemtl m246
f 126 137 138

usemtl m247
f 126 138 129

usemtl m248
f 126 129 127

usemtl m249
f 138 133 132

usemtl m250
f 138 132 129

usemtl m251
f 135 133 139

usemtl m252
f 135 139 140

usemtl m253
f 135 140 86

usemtl m254
f 135 86 85

usemtl m255
f 135 85 136

usemtl m256
f 136 85 141

usemtl m257
f 141 85 118

usemtl m258
f 141 118 140

usemtl m259
f 140 118 117

usemtl m260
f 140 117 142

usemtl m261
f 140 142 143

usemtl m262
f 140 143 86

usemtl m263
f 86 143 87

usemtl m264
f 87 143 144

usemtl m265
f 87 144 88

usemtl m266
f 88 144 145

usemtl m267
f 88 145 146

usemtl m268
f 88 146 89

usemtl m269
f 89 146 147

usemtl m270
f 89 147 90

usemtl m271
f 90 147 148

usemtl m272
f 90 148 84

usemtl m273
f 90 84 83

usemtl m274
f 135 134 133

usemtl m275
f 133 138 139

usemtl m276
f 139 138 137

usemtl m277
f 139 137 140

usemtl m278
f 149 150 151

usemtl m279
f 149 151 152

usemtl m280
f 149 152 153

usemtl m281
f 149 153 154

usemtl m282
f 149 154 150

usemtl m283
f 150 154 155

usemtl m284
f 155 154 156

usemtl m285
f 155 156 157

usemtl m286
f 157 156 158

usemtl m287
f 158 156 159

usemtl m288
f 158 159 151

usemtl m289
f 151 159 152

usemtl m290
f 152 159 160

usemtl m291
f 152 160 153

usemtl m292
f 153 160 161

usemtl m293
f 153 161 162

usemtl m294
f 153 162 154

usemtl m295
f 154 162 163

usemtl m296
f 154 163 156

usemtl m297
f 156 163 159

usemtl m298
f 159 163 164

usemtl m299
f 159 164 160

usemtl m300
f 160 164 165

usemtl m301
f 160 165 161

usemtl m302
f 161 165 166

usemtl m303
f 161 166 167

usemtl m304
f 161 167 168

usemtl m305
f 161 168 169

usemtl m306
f 161 169 162

usemtl m307
f 162 169 163

usemtl m308
f 163 169 164

usemtl m309
f 164 169 170

usemtl m310
f 164 170 165

usemtl m311
f 165 170 171

usemtl m312
f 165 171 172

usemtl m313
f 165 172 173

usemtl m314
f 165 173 161

usemtl m315
f 161 173 174

usemtl m316
f 161 174 169

usemtl m317
f 169 174 170

usemtl m318
f 170 174 171

usemtl m319
f 171 174 175

usemtl m320
f 171 175 176

usemtl m321
f 171 176 177

usemtl m322
f 171 177 178

usemtl m323
f 171 178 179

usemtl m324
f 171 179 172

usemtl m325
f 172 179 180

usemtl m326
f 172 180 181

usemtl m327
f 172 181 182

usemtl m328
f 172 182 142

usemtl m329
f 172 142 117

usemtl m330
f 172 117 173

usemtl m331
f 173 117 116

usemtl m332
f 173 116 183

usemtl m333
f 173 183 184

usemtl m334
f 173 184 174

usemtl m335
f 174 184 185

usemtl m336
f 174 185 175

usemtl m337
f 175 185 186

usemtl m338
f 175 186 176

usemtl m339
f 176 186 187

usemtl m340
f 176 187 188

usemtl m341
f 176 188 177

usemtl m342
f 177 188 189

usemtl m343
f 177 189 182

usemtl m344
f 177 182 181

usemtl m345
f 177 181 178

usemtl m346
f 178 181 190

usemtl m347
f 178 190 191

usemtl m348
f 178 191 179

usemtl m349
f 178 179 192

usemtl m350
f 178 192 181

usemtl m351
f 181 192 193

usemtl m352
f 181 193 194

usemtl m353
f 194 193 195

usemtl m354
f 195 193 192

usemtl m355
f 195 192 51

usemtl m356
f 195 51 40

usemtl m357
f 195 40 196

usemtl m358
f 195 196 197

usemtl m359
f 197 196 198

usemtl m360
f 198 196 39

usemtl m361
f 198 39 199

usemtl m362
f 199 39 14

usemtl m363
f 199 14 200

usemtl m364
f 199 200 168

usemtl m365
f 199 168 167

usemtl m366
f 199 167 166

usemtl m367
f 201 202 203

usemtl m368
f 201 203 204

usemtl m369
f 204 203 205

usemtl m370
f 204 205 206

usemtl m371
f 206 205 207

usemtl m372
f 206 207 208

usemtl m373
f 208 207 209

usemtl m374
f 209 207 210

usemtl m375
f 209 210 201

usemtl m376
f 201 210 202

usemtl m377
f 202 210 211

usemtl m378
f 202 211 212

usemtl m379
f 202 212 203

usemtl m380
f 203 212 213

usemtl m381
f 203 213 205

usemtl m382
f 205 213 207

usemtl m383
f 207 213 191

usemtl m384
f 207 191 210

usemtl m385
f 210 191 190

usemtl m386
f 210 190 211

usemtl m387
f 211 190 181

usemtl m388
f 211 181 180

usemtl m389
f 211 180 212

usemtl m390
f 212 180 179

usemtl m391
f 212 179 213

usemtl m392
f 213 179 191

usemtl m393
f 169 168 214

usemtl m394
f 169 214 170

usemtl m395
f 200 214 168

usemtl m396
f 179 215 192

usemtl m397
f 192 215 51

usemtl m398
f 216 217 145

usemtl m399
f 216 145 218

usemtl m400
f 216 218 219

usemtl m401
f 216 219 220

usemtl m402
f 216 220 221

usemtl m403
f 216 221 217

usemtl m404
f 217 221 222

usemtl m405
f 217 222 146

usemtl m406
f 217 146 145

usemtl m407
f 218 145 144

usemtl m408
f 218 144 223

usemtl m409
f 218 223 224

usemtl m410
f 218 224 219

usemtl m411
f 219 224 225

usemtl m412
f 219 225 226

usemtl m413
f 219 226 220

usemtl m414
f 220 226 227

usemtl m415
f 220 227 221

usemtl m416
f 221 227 228

usemtl m417
f 221 228 222

usemtl m418
f 222 228 148

usemtl m419
f 222 148 147

usemtl m420
f 222 147 146

usemtl m421
f 223 144 143

usemtl m422
f 223 143 229

usemtl m423
f 223 229 230

usemtl m424
f 223 230 189

usemtl m425
f 223 189 224

usemtl m426
f 224 189 231

usemtl m427
f 224 231 52

usemtl m428
f 224 52 232

usemtl m429
f 224 232 225

usemtl m430
f 225 232 43

usemtl m431
f 225 43 233

usemtl m432
f 225 233 226

usemtl m433
f 226 233 234

usemtl m434
f 226 234 227

usemtl m435
f 227 234 235

usemtl m436
f 227 235 228

usemtl m437
f 228 235 236

usemtl m438
f 228 236 237

usemtl m439
f 228 237 148

usemtl m440
f 148 237 84

usemtl m441
f 84 237 114

usemtl m442
f 84 114 85

usemtl m443
f 187 238 188

usemtl m444
f 188 238 189

usemtl m445
f 189 238 239

usemtl m446
f 189 239 231

usemtl m447
f 231 239 240

usemtl m448
f 231 240 52

usemtl m449
f 52 240 241

usemtl m450
f 52 241 53

usemtl m451
f 53 241 242

usemtl m452
f 53 242 243

usemtl m453
f 53 243 234

usemtl m454
f 53 234 41

usemtl m455
f 41 234 233

usemtl m456
f 41 233 42

usemtl m457
f 42 233 43

usemtl m458
f 244 239 238

usemtl m459
f 244 238 187

usemtl m460
f 244 187 245

usemtl m461
f 244 245 242

usemtl m462
f 244 242 241

usemtl m463
f 244 241 239

usemtl m464
f 239 241 240

usemtl m465
f 189 230 182

usemtl m466
f 182 230 229

usemtl m467
f 182 229 142

usemtl m468
f 142 229 143

usemtl m469
f 235 234 185

usemtl m470
f 235 185 184

usemtl m471
f 235 184 183

usemtl m472
f 235 183 236

usemtl m473
f 236 183 115

usemtl m474
f 236 115 237

usemtl m475
f 237 115 114

usemtl m476
f 245 243 242

usemtl m477
f 243 245 185

usemtl m478
f 243 185 234

usemtl m479
f 245 186 185

usemtl m480
f 186 245 187

usemtl m481
f 115 183 116

usemtl m482
f 39 196 29

usemtl m483
f 29 196 40

usemtl m484
f 13 51 200

usemtl m485
f 13 200 14

usemtl m486
f 43 232 40

usemtl m487
f 40 232 52

