newmtl m0
Kd 0.45098039215686275 0.32941176470588235 0.19215686274509805
newmtl m1
Kd 0.7490196078431373 0.6352941176470588 0.1607843137254902
newmtl m2
Kd 0.7490196078431373 0.6352941176470588 0.1607843137254902
newmtl m3
Kd 0.5568627450980392 0.4823529411764706 0.17254901960784313
newmtl m4
Kd 0.5568627450980392 0.4823529411764706 0.17254901960784313
newmtl m5
Kd 0.5568627450980392 0.4823529411764706 0.17254901960784313
newmtl m6
Kd 0.5568627450980392 0.4823529411764706 0.17254901960784313
newmtl m7
Kd 0.5568627450980392 0.4823529411764706 0.17254901960784313
newmtl m8
Kd 0.7490196078431373 0.6352941176470588 0.1607843137254902
newmtl m9
Kd 0.7490196078431373 0.6352941176470588 0.1607843137254902
newmtl m10
Kd 0.7490196078431373 0.6352941176470588 0.1607843137254902
newmtl m11
Kd 0.7490196078431373 0.6352941176470588 0.1607843137254902
newmtl m12
Kd 0.7490196078431373 0.6352941176470588 0.1607843137254902
newmtl m13
Kd 0.5568627450980392 0.4823529411764706 0.17254901960784313
newmtl m14
Kd 0.5568627450980392 0.4823529411764706 0.17254901960784313
newmtl m15
Kd 0.7490196078431373 0.4745098039215686 0.1607843137254902
newmtl m16
Kd 0.7490196078431373 0.4745098039215686 0.1607843137254902
newmtl m17
Kd 0.7490196078431373 0.4745098039215686 0.1607843137254902
newmtl m18
Kd 0.7490196078431373 0.6352941176470588 0.1607843137254902
newmtl m19
Kd 0.7490196078431373 0.6352941176470588 0.1607843137254902
newmtl m20
Kd 0.7490196078431373 0.6352941176470588 0.1607843137254902
newmtl m21
Kd 0.7490196078431373 0.6352941176470588 0.1607843137254902
newmtl m22
Kd 0.7490196078431373 0.6352941176470588 0.1607843137254902
newmtl m23
Kd 0.7490196078431373 0.6352941176470588 0.1607843137254902
newmtl m24
Kd 0.7490196078431373 0.6352941176470588 0.1607843137254902
newmtl m25
Kd 0.7490196078431373 0.6352941176470588 0.1607843137254902
newmtl m26
Kd 0.7490196078431373 0.6352941176470588 0.1607843137254902
newmtl m27
Kd 0.5568627450980392 0.4823529411764706 0.17254901960784313
newmtl m28
Kd 0.5568627450980392 0.4823529411764706 0.17254901960784313
newmtl m29
Kd 0.5568627450980392 0.4823529411764706 0.17254901960784313
newmtl m30
Kd 0.5568627450980392 0.4823529411764706 0.17254901960784313
newmtl m31
Kd 0.7490196078431373 0.4745098039215686 0.1607843137254902
newmtl m32
Kd 0.5568627450980392 0.4823529411764706 0.17254901960784313
newmtl m33
Kd 0.7490196078431373 0.6352941176470588 0.1607843137254902
newmtl m34
Kd 0.7490196078431373 0.6352941176470588 0.1607843137254902
newmtl m35
Kd 0.7490196078431373 0.6352941176470588 0.1607843137254902
newmtl m36
Kd 0.7490196078431373 0.6352941176470588 0.1607843137254902
newmtl m37
Kd 0.7490196078431373 0.6352941176470588 0.1607843137254902
newmtl m38
Kd 0.7490196078431373 0.6352941176470588 0.1607843137254902
newmtl m39
Kd 0.7490196078431373 0.6352941176470588 0.1607843137254902
newmtl m40
Kd 0.7490196078431373 0.6352941176470588 0.1607843137254902
newmtl m41
Kd 0.7490196078431373 0.6352941176470588 0.1607843137254902
newmtl m42
Kd 0.7490196078431373 0.6352941176470588 0.1607843137254902
newmtl m43
Kd 0.7490196078431373 0.6352941176470588 0.1607843137254902
newmtl m44
Kd 0.7490196078431373 0.6352941176470588 0.1607843137254902
newmtl m45
Kd 0.7490196078431373 0.6352941176470588 0.1607843137254902
newmtl m46
Kd 0.7490196078431373 0.6352941176470588 0.1607843137254902
newmtl m47
Kd 0.7490196078431373 0.6352941176470588 0.1607843137254902
newmtl m48
Kd 0.7490196078431373 0.6352941176470588 0.1607843137254902
newmtl m49
Kd 0.7490196078431373 0.6352941176470588 0.1607843137254902
newmtl m50
Kd 0.7490196078431373 0.6352941176470588 0.1607843137254902
newmtl m51
Kd 0.7490196078431373 0.6352941176470588 0.1607843137254902
newmtl m52
Kd 0.7490196078431373 0.6352941176470588 0.1607843137254902
newmtl m53
Kd 0.5568627450980392 0.4823529411764706 0.17254901960784313
newmtl m54
Kd 0.5568627450980392 0.4823529411764706 0.17254901960784313
newmtl m55
Kd 0.5568627450980392 0.4823529411764706 0.17254901960784313
newmtl m56
Kd 0.5568627450980392 0.4823529411764706 0.17254901960784313
newmtl m57
Kd 0.5568627450980392 0.4823529411764706 0.17254901960784313
newmtl m58
Kd 0.5568627450980392 0.4823529411764706 0.17254901960784313
newmtl m59
Kd 0.5568627450980392 0.4823529411764706 0.17254901960784313
newmtl m60
Kd 0.7490196078431373 0.6352941176470588 0.1607843137254902
newmtl m61
Kd 0.7490196078431373 0.6352941176470588 0.1607843137254902
newmtl m62
Kd 0.7490196078431373 0.6352941176470588 0.1607843137254902
newmtl m63
Kd 0.7490196078431373 0.6352941176470588 0.1607843137254902
newmtl m64
Kd 0.7490196078431373 0.6352941176470588 0.1607843137254902
newmtl m65
Kd 0.7490196078431373 0.6352941176470588 0.1607843137254902
newmtl m66
Kd 0.7490196078431373 0.6352941176470588 0.1607843137254902
newmtl m67
Kd 0.7490196078431373 0.6352941176470588 0.1607843137254902
newmtl m68
Kd 0.7490196078431373 0.6352941176470588 0.1607843137254902
newmtl m69
Kd 0.5568627450980392 0.4823529411764706 0.17254901960784313
newmtl m70
Kd 0.5568627450980392 0.4823529411764706 0.17254901960784313
newmtl m71
Kd 0.7490196078431373 0.4745098039215686 0.1607843137254902
newmtl m72
Kd 0.7490196078431373 0.4745098039215686 0.1607843137254902
newmtl m73
Kd 0.7490196078431373 0.4745098039215686 0.1607843137254902
newmtl m74
Kd 0.7490196078431373 0.6352941176470588 0.1607843137254902
newmtl m75
Kd 0.7490196078431373 0.6352941176470588 0.1607843137254902
newmtl m76
Kd 0.5568627450980392 0.4823529411764706 0.17254901960784313
newmtl m77
Kd 0.5568627450980392 0.4823529411764706 0.17254901960784313
newmtl m78
Kd 0.7490196078431373 0.4745098039215686 0.1607843137254902
newmtl m79
Kd 0.5568627450980392 0.4823529411764706 0.17254901960784313
newmtl m80
Kd 0.7490196078431373 0.6352941176470588 0.1607843137254902
newmtl m81
Kd 0.7490196078431373 0.6352941176470588 0.1607843137254902
newmtl m82
Kd 0.7490196078431373 0.6352941176470588 0.1607843137254902
newmtl m83
Kd 0.7490196078431373 0.6352941176470588 0.1607843137254902
newmtl m84
Kd 0.7490196078431373 0.6352941176470588 0.1607843137254902
newmtl m85
Kd 0.7490196078431373 0.6352941176470588 0.1607843137254902
newmtl m86
Kd 0.7490196078431373 0.6352941176470588 0.1607843137254902
newmtl m87
Kd 0.7490196078431373 0.6352941176470588 0.1607843137254902
newmtl m88
Kd 0.7490196078431373 0.6352941176470588 0.1607843137254902
newmtl m89
Kd 0.7490196078431373 0.6352941176470588 0.1607843137254902
newmtl m90
Kd 0.7490196078431373 0.6352941176470588 0.1607843137254902
newmtl m91
Kd 0.7490196078431373 0.6352941176470588 0.1607843137254902
newmtl m92
Kd 0.7490196078431373 0.6352941176470588 0.1607843137254902
