mtllib 14486.mtl
o runescapemodel
v -59 38 -37
v -59 35 -40
v -59 32 -37
v -59 35 -34
v -55 35 -34
v -55 38 -37
v -55 35 -40
v -55 32 -37
v -57 78 -46
v -54 83 -64
v -54 69 -64
v -57 67 -46
v -60 58 -25
v -60 73 -19
v -54 80 -46
v -47 85 -64
v -51 64 -44
v -47 67 -64
v -52 55 -24
v -54 51 -10
v -61 52 -11
v -61 66 -8
v -55 74 -19
v -54 67 -7
v -54 59 -3
v -54 53 -6
v -61 54 -7
v -61 60 -5
v -54 41 -46
v -54 42 -64
v -54 28 -64
v -54 30 -46
v -56 27 -24
v -56 43 -23
v -47 43 -46
v -47 44 -64
v -47 27 -44
v -47 26 -64
v -49 25 -23
v -51 26 -10
v -58 27 -12
v -58 41 -13
v -49 44 -23
v -51 42 -12
v -52 36 -6
v -52 29 -7
v -59 30 -8
v -59 36 -8
v -57 29 46
v -54 28 64
v -54 42 64
v -57 40 46
v -59 42 24
v -59 26 23
v -50 27 46
v -47 26 64
v -51 43 44
v -47 44 64
v -53 44 23
v -53 41 10
v -60 40 12
v -60 26 13
v -52 25 23
v -53 25 12
v -53 31 6
v -53 38 7
v -60 37 8
v -60 31 8
v -59 70 48
v -54 69 64
v -54 83 64
v -59 81 48
v -64 78 25
v -64 63 27
v -52 68 48
v -47 67 64
v -55 84 46
v -47 85 64
v -60 80 23
v -58 76 11
v -64 76 13
v -64 62 17
v -57 62 27
v -58 61 16
v -57 66 9
v -57 73 9
v -63 72 9
v -63 66 10
v -54 4 -37
v -57 4 -40
v -60 4 -37
v -57 4 -34
v -57 0 -34
v -54 0 -37
v -57 0 -40
v -60 0 -37
v -40 31 -36
v -41 39 -60
v -42 0 -63
v -42 0 -32
v -20 29 -35
v -22 67 -35
v -41 66 -37
v -39 70 -61
v -21 35 -61
v -22 0 -63
v -22 0 -32
v -21 65 -62
v -14 107 -62
v -12 103 -36
v -34 100 -39
v -34 107 -60
v -22 167 -53
v -4 158 -56
v -1 161 -36
v -21 169 -37
v -24 31 34
v -23 33 60
v -22 0 63
v -22 0 32
v -44 29 33
v -42 67 37
v -23 66 39
v -25 70 61
v -43 29 61
v -42 0 63
v -42 0 32
v -43 69 61
v -38 107 63
v -40 103 36
v -18 100 39
v -18 107 61
v -12 147 55
v -31 144 58
v -39 118 57
v -39 116 53
v -39 110 51
v -39 108 47
v -35 131 38
v -34 140 36
v -13 139 37
v -34 138 44
v -23 26 -27
v -22 30 -6
v -21 0 -1
v -21 0 -30
v -43 24 -28
v -41 58 -30
v -22 57 -28
v -24 63 -8
v -42 26 -5
v -41 0 -1
v -41 0 -30
v -42 62 -8
v -36 94 -8
v -39 91 -27
v -17 85 -27
v -16 91 -10
v -8 121 -8
v -27 120 -5
v -37 100 -12
v -38 98 -16
v -32 121 -25
v -29 125 -30
v -6 128 -29
v -10 159 -14
v -23 36 3
v -22 27 28
v -21 0 30
v -21 0 1
v -43 34 2
v -41 69 5
v -22 68 7
v -24 60 29
v -42 23 29
v -41 0 30
v -41 0 1
v -42 59 29
v -42 83 32
v -44 91 3
v -22 85 3
v -23 80 30
v -62 38 34
v -62 35 31
v -62 32 34
v -62 35 37
v -58 35 37
v -58 38 34
v -58 35 31
v -58 32 34
v -13 163 -47
v 4 199 -47
v -15 164 -45
v -17 165 -47
v -15 164 -49
v -17 163 -43
v 1 199 -38
v -19 164 -41
v -21 165 -43
v -19 164 -45
v -4 160 -47
v 26 181 -44
v -6 161 -45
v -8 162 -47
v -6 161 -49
v -7 160 -40
v 20 190 -30
v -9 161 -38
v -11 162 -40
v -9 161 -42
v -7 160 -51
v 11 216 -56
v -9 161 -49
v -11 162 -51
v -9 161 -53
v -14 163 -39
v -13 199 -28
v -16 164 -37
v -18 165 -39
v -16 164 -41
v -16 163 -51
v -5 210 -56
v -18 164 -49
v -20 165 -51
v -18 164 -53
v -11 163 -52
v 0 218 -62
v -13 164 -50
v -15 165 -52
v -13 164 -54
v -3 159 -42
v 25 176 -33
v -5 160 -40
v -7 161 -42
v -5 160 -44
v -8 163 -46
v 24 189 -47
v -10 164 -44
v -12 165 -46
v -10 164 -48
v -33 83 17
v -59 119 12
v -37 84 20
v -41 85 17
v -37 84 14
v -35 82 24
v -50 121 31
v -38 83 27
v -41 84 24
v -38 83 21
v -24 82 14
v 6 103 17
v -26 83 16
v -28 84 14
v -26 83 12
v -27 82 21
v 0 112 31
v -29 83 23
v -31 84 21
v -29 83 19
v -27 82 9
v -9 138 5
v -30 83 12
v -33 84 9
v -30 83 6
v -34 81 29
v -33 120 34
v -36 82 31
v -38 83 29
v -36 82 27
v -36 86 6
v -25 132 5
v -38 87 8
v -40 88 6
v -38 87 4
v -33 85 13
v -49 140 4
v -35 86 15
v -37 87 13
v -35 86 11
v -23 81 19
v 5 98 28
v -25 82 21
v -27 83 19
v -25 82 17
v -28 85 15
v 4 111 14
v -30 86 17
v -32 87 15
v -30 86 13
v -23 140 47
v -18 179 40
v -26 141 48
v -27 141 46
v -25 140 44
v -27 140 50
v -21 179 49
v -29 140 52
v -32 140 50
v -29 140 48
v -14 140 47
v 8 170 46
v -16 141 49
v -18 141 47
v -16 140 45
v -16 144 54
v -1 179 59
v -18 144 56
v -20 145 54
v -18 143 52
v -16 139 43
v -16 196 29
v -19 139 45
v -21 140 43
v -18 138 41
v -25 142 54
v -35 177 59
v -27 142 56
v -29 142 54
v -26 141 52
v -26 139 43
v -30 185 30
v -28 139 44
v -30 140 42
v -28 138 40
v -21 141 42
v -27 193 22
v -23 141 43
v -26 141 41
v -23 140 39
v -12 143 52
v 8 167 58
v -14 145 54
v -16 144 52
v -14 144 50
v -19 142 48
v 4 176 42
v -21 143 49
v -23 143 47
v -20 142 45
vn -512 -576 -192
vn -256 -192 576
vn -512 576 192
vn -256 192 -576
vn 0 -192 -576
vn 0 -576 192
vn 0 192 576
vn 0 576 -192
vn -1295 -435 88
vn -462 -456 -33
vn -574 244 122
vn -818 918 378
vn -928 672 360
vn -1000 -695 -148
vn 76 -1019 -274
vn 409 -299 -193
vn 807 315 -43
vn 85 474 42
vn 535 610 223
vn 621 702 29
vn -884 686 -94
vn -909 -550 -471
vn 614 -798 -364
vn 616 -476 -620
vn 386 -4 -446
vn 34 652 -693
vn -607 312 -359
vn -477 -37 -918
vn -1163 -492 59
vn -396 -492 -26
vn -582 246 -27
vn -841 962 55
vn -934 746 123
vn -902 -751 113
vn 265 -993 -7
vn 442 -246 -13
vn 827 469 -26
vn 83 480 -38
vn 532 726 -45
vn 567 696 -348
vn -915 662 -154
vn -887 -681 -94
vn 649 -760 -158
vn 616 -627 -516
vn 375 -139 -560
vn 11 449 -906
vn -594 216 -292
vn -462 -330 -797
vn -1155 490 -165
vn -392 492 -40
vn -575 -246 -69
vn -874 -950 -110
vn -976 -725 -4
vn -908 752 -133
vn 261 964 4
vn 433 236 92
vn 792 -497 106
vn 70 -476 55
vn 493 -734 50
vn 561 -657 264
vn -939 -627 317
vn -891 690 148
vn 654 725 38
vn 628 601 378
vn 391 144 424
vn 25 -412 827
vn -599 -204 409
vn -464 323 859
vn -1124 470 -360
vn -385 494 -88
vn -559 -247 -144
vn -971 -893 -164
vn -1029 -685 25
vn -896 717 -250
vn 247 893 -40
vn 406 211 171
vn 677 -518 257
vn 29 -459 64
vn 338 -707 141
vn 513 -597 146
vn -881 -539 498
vn -894 738 168
vn 636 645 24
vn 638 608 195
vn 423 190 240
vn 100 -259 800
vn -531 -118 533
vn -373 467 832
vn 576 -512 -192
vn 192 -256 576
vn -576 -512 192
vn -192 -256 -576
vn 192 0 -576
vn 576 0 192
vn -192 0 576
vn -576 0 -192
vn -814 -53 -783
vn -788 -39 763
vn -510 -40 243
vn -264 -75 -507
vn 744 -53 -748
vn 685 77 -755
vn -851 -100 -738
vn -798 -91 784
vn 727 27 788
vn 247 -26 510
vn 510 0 -240
vn 711 25 753
vn 672 84 801
vn 644 119 -674
vn -840 -153 -774
vn -816 -174 726
vn -192 -346 530
vn 678 -402 392
vn 295 -187 -429
vn -313 -552 -195
vn 815 -95 780
vn 789 -48 -766
vn 510 -45 -245
vn 266 -41 511
vn -745 -48 758
vn -699 -115 768
vn 849 6 720
vn 771 77 -831
vn -744 14 -784
vn -247 -32 -510
vn -511 17 247
vn -739 -32 -751
vn -1653 -113 -959
vn -920 -95 670
vn 832 139 708
vn 807 98 -789
vn 261 -254 -407
vn -699 -717 -285
vn -957 -161 -146
vn -1264 -89 61
vn -1016 -18 35
vn -1017 -66 -14
vn -1511 -216 18
vn -693 -379 472
vn 479 -398 389
vn -1247 -278 -7
vn 815 -23 786
vn 778 -111 -757
vn 510 -67 -239
vn 264 -70 509
vn -743 -28 754
vn -692 -69 757
vn 814 17 715
vn 756 43 -833
vn -755 -45 -787
vn -252 -72 -505
vn -511 10 242
vn -740 -96 -742
vn -1132 -10 -1022
vn -959 -104 786
vn 752 204 711
vn 785 206 -781
vn 600 72 -784
vn -755 -444 -789
vn -939 -222 -287
vn -998 -97 -119
vn -1120 -474 -32
vn -622 -433 740
vn 756 15 447
vn 58 -278 -90
vn 815 -81 780
vn 789 -39 -775
vn 511 -40 -248
vn 266 -35 511
vn -745 -41 757
vn -701 -14 766
vn 801 34 714
vn 779 12 -827
vn -743 21 -779
vn -246 -18 -511
vn -511 19 253
vn -746 28 -760
vn -379 -423 -359
vn -179 -129 434
vn 604 -420 109
vn 321 -191 -563
vn -512 -576 -192
vn -256 -192 576
vn -512 576 192
vn -256 192 -576
vn 0 -192 -576
vn 0 -576 192
vn 0 192 576
vn 0 576 -192
vn 308 146 0
vn 16 -34 0
vn 8 -17 -382
vn -292 -180 0
vn 8 -17 382
vn 303 152 0
vn 16 -33 -4
vn -14 25 -382
vn -287 -185 -4
vn 30 -58 378
vn 210 298 9
vn 27 -29 0
vn -6 6 -353
vn -183 -327 -9
vn 33 -35 353
vn 257 227 13
vn 21 -28 -3
vn -41 61 -369
vn -236 -255 -16
vn 62 -89 366
vn 327 104 2
vn 11 -24 1
vn 19 -42 -380
vn -316 -128 -1
vn -8 18 381
vn 348 17 -24
vn 11 -39 -5
vn -28 90 -363
vn -337 -56 19
vn 39 -129 358
vn 337 79 4
vn 12 -29 -1
vn 21 -52 -378
vn -325 -108 -5
vn -9 23 377
vn 338 69 9
vn 10 -25 3
vn 29 -76 -373
vn -328 -94 -6
vn -19 51 376
vn 195 306 28
vn 28 -31 -4
vn -52 55 -344
vn -167 -337 -32
vn 80 -86 340
vn 225 278 -1
vn 21 -28 2
vn 16 -21 -360
vn -204 -306 3
vn 5 -7 362
vn 309 -220 22
vn -6 -57 1
vn -7 -77 -351
vn -315 163 -21
vn 1 20 352
vn 369 -137 -22
vn 1 -52 -2
vn 1 35 -332
vn -368 85 20
vn 0 -87 330
vn 210 298 9
vn 27 -29 0
vn -6 6 -353
vn -183 -327 -9
vn 33 -35 353
vn 257 227 13
vn 21 -28 -3
vn -41 61 -369
vn -236 -255 -16
vn 62 -89 366
vn 336 108 0
vn 14 -35 2
vn 16 -41 -370
vn -322 -143 2
vn -2 6 372
vn 359 11 -10
vn 11 -37 -2
vn -9 28 -369
vn -348 -48 8
vn 20 -65 367
vn 337 80 1
vn 11 -30 1
vn 9 -23 -379
vn -326 -110 0
vn 2 -7 380
vn 378 -105 23
vn 4 -25 1
vn 8 -69 -329
vn -374 80 -22
vn -4 44 330
vn 195 306 28
vn 28 -31 -4
vn -52 55 -344
vn -167 -337 -32
vn 80 -86 340
vn 225 278 -1
vn 21 -28 2
vn 16 -21 -360
vn -204 -306 3
vn 5 -7 362
vn 298 20 -99
vn -100 -62 -25
vn -132 -100 -348
vn -398 -82 74
vn 32 38 323
vn 360 55 -2
vn 79 -24 0
vn 41 -22 -391
vn -281 -79 2
vn 38 -2 391
vn 301 219 -30
vn 18 -34 7
vn -10 -44 -341
vn -283 -253 37
vn 28 10 348
vn 360 154 -8
vn 85 -1 8
vn 8 35 -361
vn -275 -155 16
vn 77 -36 369
vn 328 -10 -41
vn 12 -36 -32
vn -20 -112 -399
vn -316 -26 9
vn 32 76 367
vn 383 -103 -41
vn 65 -54 -4
vn 4 30 -358
vn -318 49 37
vn 61 -84 354
vn 325 -51 -83
vn -38 -60 -117
vn -55 -121 -410
vn -363 -9 -34
vn 17 61 293
vn 322 -67 -77
vn 34 -66 -89
vn -30 -166 -416
vn -288 1 -12
vn 64 100 327
vn 236 201 -17
vn -73 -131 19
vn -91 -35 -305
vn -309 -332 36
vn 18 -96 324
vn 301 174 -166
vn 31 -37 -99
vn -47 -116 -381
vn -270 -211 67
vn 78 79 282
usemtl m0
f 1 2 3

usemtl m1
f 1 3 4

usemtl m2
f 1 4 5

usemtl m3
f 1 5 6

usemtl m4
f 1 6 2

usemtl m5
f 2 6 7

usemtl m6
f 2 7 3

usemtl m7
f 3 7 8

usemtl m8
f 3 8 4

usemtl m9
f 4 8 5

usemtl m10
f 9 10 11

usemtl m11
f 9 11 12

usemtl m12
f 9 12 13

usemtl m13
f 9 13 14

usemtl m14
f 9 14 15

usemtl m15
f 9 15 10

usemtl m16
f 10 15 16

usemtl m17
f 16 15 17

usemtl m18
f 16 17 18

usemtl m19
f 18 17 12

usemtl m20
f 18 12 11

usemtl m21
f 12 17 19

usemtl m22
f 12 19 13

usemtl m23
f 13 19 20

usemtl m24
f 13 20 21

usemtl m25
f 13 21 14

usemtl m26
f 14 21 22

usemtl m27
f 14 22 23

usemtl m28
f 14 23 15

usemtl m29
f 15 23 17

usemtl m30
f 17 23 19

usemtl m31
f 19 23 24

usemtl m32
f 19 24 20

usemtl m33
f 20 24 25

usemtl m34
f 20 25 26

usemtl m35
f 20 26 21

usemtl m36
f 21 26 27

usemtl m37
f 21 27 22

usemtl m38
f 22 27 28

usemtl m39
f 22 28 24

usemtl m40
f 22 24 23

usemtl m41
f 24 28 25

usemtl m42
f 25 28 26

usemtl m43
f 26 28 27

usemtl m44
f 29 30 31

usemtl m45
f 29 31 32

usemtl m46
f 29 32 33

usemtl m47
f 29 33 34

usemtl m48
f 29 34 35

usemtl m49
f 29 35 30

usemtl m50
f 30 35 36

usemtl m51
f 36 35 37

usemtl m52
f 36 37 38

usemtl m53
f 38 37 32

usemtl m54
f 38 32 31

usemtl m55
f 32 37 39

usemtl m56
f 32 39 33

usemtl m57
f 33 39 40

usemtl m58
f 33 40 41

usemtl m59
f 33 41 34

usemtl m60
f 34 41 42

usemtl m61
f 34 42 43

usemtl m62
f 34 43 35

usemtl m63
f 35 43 37

usemtl m64
f 37 43 39

usemtl m65
f 39 43 44

usemtl m66
f 39 44 40

usemtl m67
f 40 44 45

usemtl m68
f 40 45 46

usemtl m69
f 40 46 41

usemtl m70
f 41 46 47

usemtl m71
f 41 47 42

usemtl m72
f 42 47 48

usemtl m73
f 42 48 44

usemtl m74
f 42 44 43

usemtl m75
f 44 48 45

usemtl m76
f 45 48 46

usemtl m77
f 46 48 47

usemtl m78
f 49 50 51

usemtl m79
f 49 51 52

usemtl m80
f 49 52 53

usemtl m81
f 49 53 54

usemtl m82
f 49 54 55

usemtl m83
f 49 55 50

usemtl m84
f 50 55 56

usemtl m85
f 56 55 57

usemtl m86
f 56 57 58

usemtl m87
f 58 57 52

usemtl m88
f 58 52 51

usemtl m89
f 52 57 59

usemtl m90
f 52 59 53

usemtl m91
f 53 59 60

usemtl m92
f 53 60 61

usemtl m93
f 53 61 54

usemtl m94
f 54 61 62

usemtl m95
f 54 62 63

usemtl m96
f 54 63 55

usemtl m97
f 55 63 57

usemtl m98
f 57 63 59

usemtl m99
f 59 63 64

usemtl m100
f 59 64 60

usemtl m101
f 60 64 65

usemtl m102
f 60 65 66

usemtl m103
f 60 66 61

usemtl m104
f 61 66 67

usemtl m105
f 61 67 62

usemtl m106
f 62 67 68

usemtl m107
f 62 68 64

usemtl m108
f 62 64 63

usemtl m109
f 64 68 65

usemtl m110
f 65 68 66

usemtl m111
f 66 68 67

usemtl m112
f 69 70 71

usemtl m113
f 69 71 72

usemtl m114
f 69 72 73

usemtl m115
f 69 73 74

usemtl m116
f 69 74 75

usemtl m117
f 69 75 70

usemtl m118
f 70 75 76

usemtl m119
f 76 75 77

usemtl m120
f 76 77 78

usemtl m121
f 78 77 72

usemtl m122
f 78 72 71

usemtl m123
f 72 77 79

usemtl m124
f 72 79 73

usemtl m125
f 73 79 80

usemtl m126
f 73 80 81

usemtl m127
f 73 81 74

usemtl m128
f 74 81 82

usemtl m129
f 74 82 83

usemtl m130
f 74 83 75

usemtl m131
f 75 83 77

usemtl m132
f 77 83 79

usemtl m133
f 79 83 84

usemtl m134
f 79 84 80

usemtl m135
f 80 84 85

usemtl m136
f 80 85 86

usemtl m137
f 80 86 81

usemtl m138
f 81 86 87

usemtl m139
f 81 87 82

usemtl m140
f 82 87 88

usemtl m141
f 82 88 84

usemtl m142
f 82 84 83

usemtl m143
f 84 88 85

usemtl m144
f 85 88 86

usemtl m145
f 86 88 87

usemtl m146
f 89 90 91

usemtl m147
f 89 91 92

usemtl m148
f 89 92 93

usemtl m149
f 89 93 94

usemtl m150
f 89 94 90

usemtl m151
f 90 94 95

usemtl m152
f 90 95 91

usemtl m153
f 91 95 96

usemtl m154
f 91 96 92

usemtl m155
f 92 96 93

usemtl m156
f 97 98 99

usemtl m157
f 97 99 100

usemtl m158
f 97 100 101

usemtl m159
f 97 101 102

usemtl m160
f 97 102 103

usemtl m161
f 97 103 98

usemtl m162
f 98 103 104

usemtl m163
f 98 104 105

usemtl m164
f 98 105 106

usemtl m165
f 98 106 99

usemtl m166
f 105 101 107

usemtl m167
f 105 107 106

usemtl m168
f 101 100 107

usemtl m169
f 101 105 108

usemtl m170
f 101 108 102

usemtl m171
f 102 108 109

usemtl m172
f 102 109 110

usemtl m173
f 102 110 103

usemtl m174
f 103 110 111

usemtl m175
f 103 111 104

usemtl m176
f 104 111 112

usemtl m177
f 104 112 108

usemtl m178
f 104 108 105

usemtl m179
f 108 112 109

usemtl m180
f 109 112 113

usemtl m181
f 109 113 114

usemtl m182
f 109 114 110

usemtl m183
f 110 114 115

usemtl m184
f 110 115 111

usemtl m185
f 111 115 116

usemtl m186
f 111 116 112

usemtl m187
f 112 116 113

usemtl m188
f 113 116 114

usemtl m189
f 114 116 115

usemtl m190
f 117 118 119

usemtl m191
f 117 119 120

usemtl m192
f 117 120 121

usemtl m193
f 117 121 122

usemtl m194
f 117 122 123

usemtl m195
f 117 123 118

usemtl m196
f 118 123 124

usemtl m197
f 118 124 125

usemtl m198
f 118 125 126

usemtl m199
f 118 126 119

usemtl m200
f 125 121 127

usemtl m201
f 125 127 126

usemtl m202
f 121 120 127

usemtl m203
f 121 125 128

usemtl m204
f 121 128 122

usemtl m205
f 122 128 129

usemtl m206
f 122 129 130

usemtl m207
f 122 130 123

usemtl m208
f 123 130 131

usemtl m209
f 123 131 124

usemtl m210
f 124 131 132

usemtl m211
f 124 132 128

usemtl m212
f 124 128 125

usemtl m213
f 128 132 129

usemtl m214
f 129 132 133

usemtl m215
f 129 133 134

usemtl m216
f 129 134 135

usemtl m217
f 129 135 136

usemtl m218
f 129 136 137

usemtl m219
f 129 137 138

usemtl m220
f 129 138 130

usemtl m221
f 130 138 139

usemtl m222
f 130 139 140

usemtl m223
f 130 140 131

usemtl m224
f 131 140 141

usemtl m225
f 131 141 132

usemtl m226
f 132 141 133

usemtl m227
f 133 141 134

usemtl m228
f 134 141 140

usemtl m229
f 134 140 142

usemtl m230
f 134 142 135

usemtl m231
f 135 142 136

usemtl m232
f 136 142 139

usemtl m233
f 136 139 137

usemtl m234
f 137 139 138

usemtl m235
f 143 144 145

usemtl m236
f 143 145 146

usemtl m237
f 143 146 147

usemtl m238
f 143 147 148

usemtl m239
f 143 148 149

usemtl m240
f 143 149 144

usemtl m241
f 144 149 150

usemtl m242
f 144 150 151

usemtl m243
f 144 151 152

usemtl m244
f 144 152 145

usemtl m245
f 151 147 153

usemtl m246
f 151 153 152

usemtl m247
f 147 146 153

usemtl m248
f 147 151 154

usemtl m249
f 147 154 148

usemtl m250
f 148 154 155

usemtl m251
f 148 155 156

usemtl m252
f 148 156 149

usemtl m253
f 149 156 157

usemtl m254
f 149 157 150

usemtl m255
f 150 157 158

usemtl m256
f 150 158 154

usemtl m257
f 150 154 151

usemtl m258
f 154 158 155

usemtl m259
f 155 158 159

usemtl m260
f 155 159 160

usemtl m261
f 155 160 161

usemtl m262
f 155 161 162

usemtl m263
f 155 162 156

usemtl m264
f 156 162 163

usemtl m265
f 156 163 164

usemtl m266
f 156 164 157

usemtl m267
f 157 164 165

usemtl m268
f 157 165 158

usemtl m269
f 158 165 159

usemtl m270
f 159 165 166

usemtl m271
f 159 166 160

usemtl m272
f 160 166 164

usemtl m273
f 160 164 163

usemtl m274
f 160 163 161

usemtl m275
f 161 163 162

usemtl m276
f 164 166 165

usemtl m277
f 167 168 169

usemtl m278
f 167 169 170

usemtl m279
f 167 170 171

usemtl m280
f 167 171 172

usemtl m281
f 167 172 173

usemtl m282
f 167 173 168

usemtl m283
f 168 173 174

usemtl m284
f 168 174 175

usemtl m285
f 168 175 176

usemtl m286
f 168 176 169

usemtl m287
f 175 171 177

usemtl m288
f 175 177 176

usemtl m289
f 171 170 177

usemtl m290
f 171 175 178

usemtl m291
f 171 178 172

usemtl m292
f 172 178 179

usemtl m293
f 172 179 180

usemtl m294
f 172 180 173

usemtl m295
f 173 180 181

usemtl m296
f 173 181 174

usemtl m297
f 174 181 182

usemtl m298
f 174 182 178

usemtl m299
f 174 178 175

usemtl m300
f 178 182 179

usemtl m301
f 179 182 181

usemtl m302
f 179 181 180

usemtl m303
f 183 184 185

usemtl m304
f 183 185 186

usemtl m305
f 183 186 187

usemtl m306
f 183 187 188

usemtl m307
f 183 188 184

usemtl m308
f 184 188 189

usemtl m309
f 184 189 185

usemtl m310
f 185 189 190

usemtl m311
f 185 190 186

usemtl m312
f 186 190 187

usemtl m313
f 140 139 142

usemtl m314
f 191 192 193

usemtl m315
f 193 192 194

usemtl m316
f 194 192 195

usemtl m317
f 195 192 191

usemtl m318
f 196 197 198

usemtl m319
f 198 197 199

usemtl m320
f 199 197 200

usemtl m321
f 200 197 196

usemtl m322
f 201 202 203

usemtl m323
f 203 202 204

usemtl m324
f 204 202 205

usemtl m325
f 205 202 201

usemtl m326
f 206 207 208

usemtl m327
f 208 207 209

usemtl m328
f 209 207 210

usemtl m329
f 210 207 206

usemtl m330
f 211 212 213

usemtl m331
f 213 212 214

usemtl m332
f 214 212 215

usemtl m333
f 215 212 211

usemtl m334
f 216 217 218

usemtl m335
f 218 217 219

usemtl m336
f 219 217 220

usemtl m337
f 220 217 216

usemtl m338
f 221 222 223

usemtl m339
f 223 222 224

usemtl m340
f 224 222 225

usemtl m341
f 225 222 221

usemtl m342
f 226 227 228

usemtl m343
f 228 227 229

usemtl m344
f 229 227 230

usemtl m345
f 230 227 226

usemtl m346
f 231 232 233

usemtl m347
f 233 232 234

usemtl m348
f 234 232 235

usemtl m349
f 235 232 231

usemtl m350
f 236 237 238

usemtl m351
f 238 237 239

usemtl m352
f 239 237 240

usemtl m353
f 240 237 236

usemtl m354
f 241 242 243

usemtl m355
f 243 242 244

usemtl m356
f 244 242 245

usemtl m357
f 245 242 241

usemtl m358
f 246 247 248

usemtl m359
f 248 247 249

usemtl m360
f 249 247 250

usemtl m361
f 250 247 246

usemtl m362
f 251 252 253

usemtl m363
f 253 252 254

usemtl m364
f 254 252 255

usemtl m365
f 255 252 251

usemtl m366
f 256 257 258

usemtl m367
f 258 257 259

usemtl m368
f 259 257 260

usemtl m369
f 260 257 256

usemtl m370
f 261 262 263

usemtl m371
f 263 262 264

usemtl m372
f 264 262 265

usemtl m373
f 265 262 261

usemtl m374
f 266 267 268

usemtl m375
f 268 267 269

usemtl m376
f 269 267 270

usemtl m377
f 270 267 266

usemtl m378
f 271 272 273

usemtl m379
f 273 272 274

usemtl m380
f 274 272 275

usemtl m381
f 275 272 271

usemtl m382
f 276 277 278

usemtl m383
f 278 277 279

usemtl m384
f 279 277 280

usemtl m385
f 280 277 276

usemtl m386
f 281 282 283

usemtl m387
f 283 282 284

usemtl m388
f 284 282 285

usemtl m389
f 285 282 281

usemtl m390
f 286 287 288

usemtl m391
f 288 287 289

usemtl m392
f 289 287 290

usemtl m393
f 290 287 286

usemtl m394
f 291 292 293

usemtl m395
f 293 292 294

usemtl m396
f 294 292 295

usemtl m397
f 295 292 291

usemtl m398
f 296 297 298

usemtl m399
f 298 297 299

usemtl m400
f 299 297 300

usemtl m401
f 300 297 296

usemtl m402
f 301 302 303

usemtl m403
f 303 302 304

usemtl m404
f 304 302 305

usemtl m405
f 305 302 301

usemtl m406
f 306 307 308

usemtl m407
f 308 307 309

usemtl m408
f 309 307 310

usemtl m409
f 310 307 306

usemtl m410
f 311 312 313

usemtl m411
f 313 312 314

usemtl m412
f 314 312 315

usemtl m413
f 315 312 311

usemtl m414
f 316 317 318

usemtl m415
f 318 317 319

usemtl m416
f 319 317 320

usemtl m417
f 320 317 316

usemtl m418
f 321 322 323

usemtl m419
f 323 322 324

usemtl m420
f 324 322 325

usemtl m421
f 325 322 321

usemtl m422
f 326 327 328

usemtl m423
f 328 327 329

usemtl m424
f 329 327 330

usemtl m425
f 330 327 326

usemtl m426
f 331 332 333

usemtl m427
f 333 332 334

usemtl m428
f 334 332 335

usemtl m429
f 335 332 331

usemtl m430
f 336 337 338

usemtl m431
f 338 337 339

usemtl m432
f 339 337 340

usemtl m433
f 340 337 336

