mtllib 14539.mtl
o runescapemodel
v 27 249 19
v 64 454 -17
v 17 454 -17
v -19 249 19
v -25 217 25
v 22 217 25
v 27 249 -27
v 64 454 -64
v 24 0 24
v -24 0 24
v 24 0 -24
v 22 217 -22
v 64 218 -16
v 22 218 -16
v 28 250 -16
v 64 250 -16
v 28 250 16
v 64 250 16
v 22 218 16
v 64 218 16
v 5 31 40
v -18 39 41
v -21 0 42
v 7 0 42
v 6 29 29
v 4 67 31
v 2 66 41
v -19 70 39
v -19 35 30
v -21 0 31
v 7 0 31
v 8 29 44
v 9 31 33
v 35 0 31
v 32 33 32
v 35 0 42
v 33 29 43
v 33 69 43
v 10 67 42
v 12 66 32
v 33 70 34
v 33 107 32
v 35 107 43
v 8 103 45
v 11 100 32
v 11 152 29
v 30 147 30
v 32 144 40
v 10 140 43
v 7 206 42
v 9 201 29
v 32 205 27
v 34 203 43
v 35 258 42
v 9 254 42
v 9 249 31
v 35 254 31
v 23 295 32
v -20 65 30
v -20 107 30
v 6 103 28
v 3 100 41
v -19 107 41
v -17 161 43
v -19 158 33
v 4 161 30
v 3 173 44
v 5 201 44
v -18 211 46
v -20 209 30
v 7 206 31
v 5 271 31
v 5 266 42
v -21 271 42
v -21 271 31
v -9 304 32
v 61 46 40
v 38 39 41
v 36 0 42
v 63 0 42
v 62 44 29
v 60 67 31
v 58 66 41
v 34 65 39
v 37 35 30
v 36 0 31
v 63 0 31
v 36 65 30
v 36 107 30
v 63 120 28
v 62 113 41
v 37 107 41
v 37 154 43
v 34 151 33
v 60 161 30
v 58 164 44
v 61 210 44
v 38 211 46
v 36 209 30
v 63 206 31
v 61 271 31
v 61 266 42
v 39 261 42
v 36 261 31
v 50 314 32
v -37 38 59
v -40 35 59
v -37 32 59
v -34 35 59
v -34 35 55
v -37 38 55
v -40 35 55
v -37 32 55
v -46 82 55
v -55 83 55
v -55 69 55
v -46 71 55
v -24 68 55
v -23 84 55
v -44 84 52
v -48 85 48
v -42 68 49
v -48 67 48
v -23 66 47
v -10 67 47
v -12 68 54
v -13 82 54
v -23 85 50
v -12 83 47
v -6 77 47
v -7 70 47
v -8 71 54
v -8 77 54
v -46 41 54
v -55 42 55
v -55 28 55
v -46 30 54
v -24 27 56
v -23 43 56
v -43 43 49
v -48 44 48
v -41 27 49
v -48 26 48
v -23 25 49
v -10 26 47
v -12 27 54
v -13 41 54
v -23 44 49
v -12 42 47
v -6 36 47
v -7 29 47
v -8 30 54
v -8 36 54
v 46 29 54
v 64 28 54
v 64 42 54
v 46 40 54
v 24 43 54
v 23 27 54
v 46 27 47
v 64 26 47
v 44 43 48
v 64 44 47
v 23 45 48
v 10 44 47
v 12 43 54
v 13 29 54
v 23 26 47
v 12 28 47
v 6 34 47
v 7 41 47
v 8 40 54
v 8 34 54
v 46 70 54
v 64 69 54
v 64 83 54
v 46 81 54
v 24 84 56
v 23 68 56
v 46 68 47
v 64 67 47
v 44 84 50
v 64 85 47
v 23 86 52
v 10 85 47
v 12 84 54
v 13 70 54
v 23 67 49
v 12 69 47
v 6 75 47
v 7 82 47
v 8 81 54
v 8 75 54
v -37 80 59
v -40 77 59
v -37 74 59
v -34 77 59
v -34 77 55
v -37 80 55
v -40 77 55
v -37 74 55
v 34 38 59
v 31 35 59
v 34 32 59
v 37 35 59
v 37 35 55
v 34 38 55
v 31 35 55
v 34 32 55
v 34 80 59
v 31 77 59
v 34 74 59
v 37 77 59
v 37 77 55
v 34 80 55
v 31 77 55
v 34 74 55
v 64 454 -64
v 64 454 -64
vn 504 -98 -1006
vn 502 46 -252
vn 0 -88 -504
vn 0 -91 -503
vn 0 -92 -1014
vn 1017 28 -507
vn 1007 168 0
vn 251 45 0
vn 256 0 -512
vn 0 1 -256
vn 512 -4 0
vn 508 37 0
vn 0 0 512
vn 0 0 256
vn 0 -256 512
vn 0 -512 256
vn 0 -512 -256
vn 0 -256 -512
vn 0 0 -512
vn 0 0 -256
vn 781 -63 -857
vn -765 -42 -807
vn -242 -40 -510
vn 265 -24 -785
vn 751 -32 727
vn 753 -16 644
vn 713 -12 -920
vn -812 13 -849
vn -788 24 693
vn -510 -27 239
vn -269 -24 785
vn -758 -34 -727
vn -781 -64 857
vn 244 -45 510
vn 764 -49 807
vn 510 -33 -240
vn 785 12 -726
vn 750 -1 -722
vn -758 -17 -644
vn -715 -10 921
vn 815 5 789
vn 776 36 855
vn 778 -21 -629
vn -680 -7 -598
vn -720 25 897
vn -735 48 847
vn 755 3 908
vn 838 -17 -630
vn -697 2 -655
vn -776 4 -661
vn -792 2 841
vn 708 10 882
vn 782 29 -699
vn 483 -135 -733
vn -759 -147 -428
vn -527 -110 798
vn 748 -82 569
vn -8 -214 68
vn -754 -4 683
vn -790 -6 670
vn 676 7 599
vn 722 24 -896
vn -778 25 -840
vn -761 21 -890
vn -837 2 628
vn 702 14 651
vn 738 54 -849
vn 788 18 -838
vn -714 11 -881
vn -775 23 698
vn 777 19 660
vn 740 -111 427
vn 529 -190 -799
vn -733 -159 -534
vn -487 -94 767
vn 5 -260 -34
vn 780 -73 -859
vn -760 3 -820
vn -247 -30 -511
vn 511 -28 -276
vn 758 -48 726
vn 759 -52 645
vn 726 -9 -873
vn -790 18 -689
vn -771 54 767
vn -511 -13 236
vn 251 13 511
vn -746 -34 854
vn -781 13 642
vn 689 3 678
vn 746 12 -832
vn -760 16 -756
vn -740 39 -937
vn -825 -7 581
vn 712 -19 663
vn 741 40 -879
vn 791 13 -843
vn -714 -33 -897
vn -759 -13 637
vn 776 17 648
vn 753 -74 448
vn 509 -140 -789
vn -755 -137 -668
vn -478 -70 635
vn -6 -178 -88
vn 192 -576 -512
vn -576 -192 -256
vn -192 576 -512
vn 576 192 -256
vn 576 -192 0
vn -192 -576 0
vn -576 192 0
vn 192 576 0
vn 5 -427 -1311
vn 19 -460 -478
vn 49 224 -625
vn 20 931 -915
vn 10 752 -926
vn 75 -715 -999
vn 152 -1027 17
vn 222 -306 356
vn 182 323 693
vn 108 451 15
vn -109 651 525
vn 195 677 593
vn 375 633 -930
vn 314 -672 -911
vn -5 -863 607
vn 354 -642 613
vn 424 -144 391
vn 827 412 25
vn 409 204 -599
vn 859 -323 -464
vn 21 -471 -1217
vn 94 -466 -466
vn 118 217 -636
vn 13 909 -953
vn -6 746 -940
vn 87 -746 -911
vn 77 -968 182
vn 115 -244 409
vn 72 441 764
vn 108 434 -12
vn -117 723 511
vn 171 677 579
vn 425 632 -924
vn 339 -679 -893
vn 52 -751 650
vn 328 -603 616
vn 424 -144 391
vn 827 412 25
vn 409 204 -599
vn 859 -323 -464
vn 8 491 -1164
vn -26 492 -396
vn -27 -246 -582
vn 23 -950 -881
vn 8 -742 -964
vn -17 747 -909
vn 6 960 266
vn -25 230 442
vn 6 -505 800
vn -44 -475 70
vn 52 -746 500
vn -179 -674 573
vn -326 -633 -929
vn -273 676 -896
vn -80 710 655
vn -382 592 624
vn -424 144 391
vn -827 -412 25
vn -409 -204 -599
vn -859 323 -464
vn 59 492 -1163
vn -26 492 -396
vn -27 -246 -582
vn 81 -895 -977
vn -28 -705 -1031
vn -86 749 -901
vn -6 900 256
vn -48 199 434
vn -33 -549 716
vn -52 -453 34
vn 131 -749 368
vn -153 -658 515
vn -425 -632 -924
vn -339 679 -893
vn -86 629 636
vn -268 557 598
vn -424 144 391
vn -827 -412 25
vn -409 -204 -599
vn -859 323 -464
vn 192 -576 -512
vn -576 -192 -256
vn -192 576 -512
vn 576 192 -256
vn 576 -192 0
vn -192 -576 0
vn -576 192 0
vn 192 576 0
vn 192 -576 -512
vn -576 -192 -256
vn -192 576 -512
vn 576 192 -256
vn 576 -192 0
vn -192 -576 0
vn -576 192 0
vn 192 576 0
vn 192 -576 -512
vn -576 -192 -256
vn -192 576 -512
vn 576 192 -256
vn 576 -192 0
vn -192 -576 0
vn -576 192 0
vn 192 576 0
vn 0 0 0
vn 0 0 0
usemtl m0
f 1 2 3

usemtl m1
f 1 3 4

usemtl m2
f 1 4 5

usemtl m3
f 1 5 6

usemtl m4
f 1 6 7

usemtl m5
f 1 7 2

usemtl m6
f 2 7 8

usemtl m7
f 9 6 5

usemtl m8
f 9 5 10

usemtl m9
f 11 12 6

usemtl m10
f 11 6 9

usemtl m11
f 6 12 7

usemtl m12
f 13 14 15

usemtl m13
f 13 15 16

usemtl m14
f 16 15 17

usemtl m15
f 16 17 18

usemtl m16
f 18 17 19

usemtl m17
f 18 19 20

usemtl m18
f 21 22 23

usemtl m19
f 21 23 24

usemtl m20
f 21 24 25

usemtl m21
f 21 25 26

usemtl m22
f 21 26 27

usemtl m23
f 21 27 22

usemtl m24
f 22 27 28

usemtl m25
f 22 28 29

usemtl m26
f 22 29 30

usemtl m27
f 22 30 23

usemtl m28
f 29 25 31

usemtl m29
f 29 31 30

usemtl m30
f 25 24 31

usemtl m31
f 31 24 32

usemtl m32
f 31 32 33

usemtl m33
f 31 33 34

usemtl m34
f 34 33 35

usemtl m35
f 34 35 36

usemtl m36
f 36 35 37

usemtl m37
f 36 37 24

usemtl m38
f 24 37 32

usemtl m39
f 32 37 38

usemtl m40
f 32 38 39

usemtl m41
f 32 39 33

usemtl m42
f 33 39 40

usemtl m43
f 33 40 35

usemtl m44
f 35 40 41

usemtl m45
f 35 41 37

usemtl m46
f 37 41 38

usemtl m47
f 38 41 42

usemtl m48
f 38 42 43

usemtl m49
f 38 43 39

usemtl m50
f 39 43 44

usemtl m51
f 39 44 40

usemtl m52
f 40 44 45

usemtl m53
f 40 45 41

usemtl m54
f 41 45 42

usemtl m55
f 42 45 46

usemtl m56
f 42 46 47

usemtl m57
f 42 47 43

usemtl m58
f 43 47 48

usemtl m59
f 43 48 44

usemtl m60
f 44 48 49

usemtl m61
f 44 49 45

usemtl m62
f 45 49 46

usemtl m63
f 46 49 50

usemtl m64
f 46 50 51

usemtl m65
f 46 51 47

usemtl m66
f 47 51 52

usemtl m67
f 47 52 48

usemtl m68
f 48 52 53

usemtl m69
f 48 53 49

usemtl m70
f 49 53 50

usemtl m71
f 50 53 54

usemtl m72
f 50 54 55

usemtl m73
f 50 55 51

usemtl m74
f 51 55 56

usemtl m75
f 51 56 52

usemtl m76
f 52 56 57

usemtl m77
f 52 57 53

usemtl m78
f 53 57 54

usemtl m79
f 54 57 58

usemtl m80
f 54 58 55

usemtl m81
f 55 58 56

usemtl m82
f 56 58 57

usemtl m83
f 25 29 59

usemtl m84
f 25 59 26

usemtl m85
f 26 59 60

usemtl m86
f 26 60 61

usemtl m87
f 26 61 27

usemtl m88
f 27 61 62

usemtl m89
f 27 62 28

usemtl m90
f 28 62 63

usemtl m91
f 28 63 59

usemtl m92
f 28 59 29

usemtl m93
f 59 63 60

usemtl m94
f 60 63 64

usemtl m95
f 60 64 65

usemtl m96
f 60 65 61

usemtl m97
f 61 65 66

usemtl m98
f 61 66 62

usemtl m99
f 62 66 67

usemtl m100
f 62 67 63

usemtl m101
f 63 67 64

usemtl m102
f 64 67 68

usemtl m103
f 64 68 69

usemtl m104
f 64 69 65

usemtl m105
f 65 69 70

usemtl m106
f 65 70 66

usemtl m107
f 66 70 71

usemtl m108
f 66 71 67

usemtl m109
f 67 71 68

usemtl m110
f 68 71 72

usemtl m111
f 68 72 73

usemtl m112
f 68 73 69

usemtl m113
f 69 73 74

usemtl m114
f 69 74 70

usemtl m115
f 70 74 75

usemtl m116
f 70 75 71

usemtl m117
f 71 75 72

usemtl m118
f 72 75 76

usemtl m119
f 72 76 73

usemtl m120
f 73 76 74

usemtl m121
f 74 76 75

usemtl m122
f 77 78 79

usemtl m123
f 77 79 80

usemtl m124
f 77 80 81

usemtl m125
f 77 81 82

usemtl m126
f 77 82 83

usemtl m127
f 77 83 78

usemtl m128
f 78 83 84

usemtl m129
f 78 84 85

usemtl m130
f 78 85 86

usemtl m131
f 78 86 79

usemtl m132
f 85 81 87

usemtl m133
f 85 87 86

usemtl m134
f 81 80 87

usemtl m135
f 81 85 88

usemtl m136
f 81 88 82

usemtl m137
f 82 88 89

usemtl m138
f 82 89 90

usemtl m139
f 82 90 83

usemtl m140
f 83 90 91

usemtl m141
f 83 91 84

usemtl m142
f 84 91 92

usemtl m143
f 84 92 88

usemtl m144
f 84 88 85

usemtl m145
f 88 92 89

usemtl m146
f 89 92 93

usemtl m147
f 89 93 94

usemtl m148
f 89 94 90

usemtl m149
f 90 94 95

usemtl m150
f 90 95 91

usemtl m151
f 91 95 96

usemtl m152
f 91 96 92

usemtl m153
f 92 96 93

usemtl m154
f 93 96 97

usemtl m155
f 93 97 98

usemtl m156
f 93 98 94

usemtl m157
f 94 98 99

usemtl m158
f 94 99 95

usemtl m159
f 95 99 100

usemtl m160
f 95 100 96

usemtl m161
f 96 100 97

usemtl m162
f 97 100 101

usemtl m163
f 97 101 102

usemtl m164
f 97 102 98

usemtl m165
f 98 102 103

usemtl m166
f 98 103 99

usemtl m167
f 99 103 104

usemtl m168
f 99 104 100

usemtl m169
f 100 104 101

usemtl m170
f 101 104 105

usemtl m171
f 101 105 102

usemtl m172
f 102 105 103

usemtl m173
f 103 105 104

usemtl m174
f 106 107 108

usemtl m175
f 106 108 109

usemtl m176
f 106 109 110

usemtl m177
f 106 110 111

usemtl m178
f 106 111 107

usemtl m179
f 107 111 112

usemtl m180
f 107 112 108

usemtl m181
f 108 112 113

usemtl m182
f 108 113 109

usemtl m183
f 109 113 110

usemtl m184
f 114 115 116

usemtl m185
f 114 116 117

usemtl m186
f 114 117 118

usemtl m187
f 114 118 119

usemtl m188
f 114 119 120

usemtl m189
f 114 120 115

usemtl m190
f 115 120 121

usemtl m191
f 121 120 122

usemtl m192
f 121 122 123

usemtl m193
f 123 122 117

usemtl m194
f 123 117 116

usemtl m195
f 117 122 124

usemtl m196
f 117 124 118

usemtl m197
f 118 124 125

usemtl m198
f 118 125 126

usemtl m199
f 118 126 119

usemtl m200
f 119 126 127

usemtl m201
f 119 127 128

usemtl m202
f 119 128 120

usemtl m203
f 120 128 122

usemtl m204
f 122 128 124

usemtl m205
f 124 128 129

usemtl m206
f 124 129 125

usemtl m207
f 125 129 130

usemtl m208
f 125 130 131

usemtl m209
f 125 131 126

usemtl m210
f 126 131 132

usemtl m211
f 126 132 127

usemtl m212
f 127 132 133

usemtl m213
f 127 133 129

usemtl m214
f 127 129 128

usemtl m215
f 129 133 130

usemtl m216
f 130 133 131

usemtl m217
f 131 133 132

usemtl m218
f 134 135 136

usemtl m219
f 134 136 137

usemtl m220
f 134 137 138

usemtl m221
f 134 138 139

usemtl m222
f 134 139 140

usemtl m223
f 134 140 135

usemtl m224
f 135 140 141

usemtl m225
f 141 140 142

usemtl m226
f 141 142 143

usemtl m227
f 143 142 137

usemtl m228
f 143 137 136

usemtl m229
f 137 142 144

usemtl m230
f 137 144 138

usemtl m231
f 138 144 145

usemtl m232
f 138 145 146

usemtl m233
f 138 146 139

usemtl m234
f 139 146 147

usemtl m235
f 139 147 148

usemtl m236
f 139 148 140

usemtl m237
f 140 148 142

usemtl m238
f 142 148 144

usemtl m239
f 144 148 149

usemtl m240
f 144 149 145

usemtl m241
f 145 149 150

usemtl m242
f 145 150 151

usemtl m243
f 145 151 146

usemtl m244
f 146 151 152

usemtl m245
f 146 152 147

usemtl m246
f 147 152 153

usemtl m247
f 147 153 149

usemtl m248
f 147 149 148

usemtl m249
f 149 153 150

usemtl m250
f 150 153 151

usemtl m251
f 151 153 152

usemtl m252
f 154 155 156

usemtl m253
f 154 156 157

usemtl m254
f 154 157 158

usemtl m255
f 154 158 159

usemtl m256
f 154 159 160

usemtl m257
f 154 160 155

usemtl m258
f 155 160 161

usemtl m259
f 161 160 162

usemtl m260
f 161 162 163

usemtl m261
f 163 162 157

usemtl m262
f 163 157 156

usemtl m263
f 157 162 164

usemtl m264
f 157 164 158

usemtl m265
f 158 164 165

usemtl m266
f 158 165 166

usemtl m267
f 158 166 159

usemtl m268
f 159 166 167

usemtl m269
f 159 167 168

usemtl m270
f 159 168 160

usemtl m271
f 160 168 162

usemtl m272
f 162 168 164

usemtl m273
f 164 168 169

usemtl m274
f 164 169 165

usemtl m275
f 165 169 170

usemtl m276
f 165 170 171

usemtl m277
f 165 171 166

usemtl m278
f 166 171 172

usemtl m279
f 166 172 167

usemtl m280
f 167 172 173

usemtl m281
f 167 173 169

usemtl m282
f 167 169 168

usemtl m283
f 169 173 170

usemtl m284
f 170 173 171

usemtl m285
f 171 173 172

usemtl m286
f 174 175 176

usemtl m287
f 174 176 177

usemtl m288
f 174 177 178

usemtl m289
f 174 178 179

usemtl m290
f 174 179 180

usemtl m291
f 174 180 175

usemtl m292
f 175 180 181

usemtl m293
f 181 180 182

usemtl m294
f 181 182 183

usemtl m295
f 183 182 177

usemtl m296
f 183 177 176

usemtl m297
f 177 182 184

usemtl m298
f 177 184 178

usemtl m299
f 178 184 185

usemtl m300
f 178 185 186

usemtl m301
f 178 186 179

usemtl m302
f 179 186 187

usemtl m303
f 179 187 188

usemtl m304
f 179 188 180

usemtl m305
f 180 188 182

usemtl m306
f 182 188 184

usemtl m307
f 184 188 189

usemtl m308
f 184 189 185

usemtl m309
f 185 189 190

usemtl m310
f 185 190 191

usemtl m311
f 185 191 186

usemtl m312
f 186 191 192

usemtl m313
f 186 192 187

usemtl m314
f 187 192 193

usemtl m315
f 187 193 189

usemtl m316
f 187 189 188

usemtl m317
f 189 193 190

usemtl m318
f 190 193 191

usemtl m319
f 191 193 192

usemtl m320
f 194 195 196

usemtl m321
f 194 196 197

usemtl m322
f 194 197 198

usemtl m323
f 194 198 199

usemtl m324
f 194 199 195

usemtl m325
f 195 199 200

usemtl m326
f 195 200 196

usemtl m327
f 196 200 201

usemtl m328
f 196 201 197

usemtl m329
f 197 201 198

usemtl m330
f 202 203 204

usemtl m331
f 202 204 205

usemtl m332
f 202 205 206

usemtl m333
f 202 206 207

usemtl m334
f 202 207 203

usemtl m335
f 203 207 208

usemtl m336
f 203 208 204

usemtl m337
f 204 208 209

usemtl m338
f 204 209 205

usemtl m339
f 205 209 206

usemtl m340
f 210 211 212

usemtl m341
f 210 212 213

usemtl m342
f 210 213 214

usemtl m343
f 210 214 215

usemtl m344
f 210 215 211

usemtl m345
f 211 215 216

usemtl m346
f 211 216 212

usemtl m347
f 212 216 217

usemtl m348
f 212 217 213

usemtl m349
f 213 217 214

