mtllib 14615.mtl
o runescapemodel
v -50 240 -61
v -50 240 -50
v -50 90 -50
v -50 0 -61
v -61 240 -61
v -61 240 -50
v -47 239 -64
v -64 239 -64
v -64 239 -47
v -47 239 -47
v -47 225 -47
v -47 210 -47
v -47 210 -64
v -64 225 -64
v -64 210 -64
v -64 210 -47
v -64 206 -47
v -64 175 -47
v -47 175 -47
v -47 192 -47
v -47 206 -47
v -61 207 -50
v -61 174 -50
v -47 175 -64
v -47 206 -64
v -47 72 -64
v -47 99 -64
v -47 99 -47
v -47 93 -47
v -47 72 -47
v -64 99 -47
v -64 72 -47
v -61 71 -50
v -61 100 -50
v -50 100 -50
v -50 100 -61
v -64 99 -64
v -61 100 -61
v -47 36 -64
v -47 67 -64
v -47 67 -47
v -47 36 -47
v -64 67 -47
v -64 36 -47
v -61 68 -50
v -61 35 -50
v -47 1 -64
v -47 31 -64
v -47 31 -47
v -47 1 -47
v -64 31 -47
v -64 1 -47
v -61 32 -50
v -61 0 -50
v -50 32 -50
v -50 32 -61
v -64 31 -64
v -61 32 -61
v -50 68 -50
v -50 68 -61
v -64 67 -64
v -61 68 -61
v -50 207 -61
v -50 207 -50
v -61 209 -50
v -64 135 -47
v -64 105 -47
v -47 105 -47
v -47 127 -47
v -47 135 -47
v -61 136 -50
v -61 104 -50
v -47 105 -64
v -47 135 -64
v -47 170 -64
v -47 170 -47
v -47 159 -47
v -47 140 -47
v -47 140 -64
v -64 170 -64
v -50 171 -61
v -50 171 -50
v -61 171 -50
v -64 170 -47
v -64 140 -47
v -50 136 -61
v -50 136 -50
v -61 139 -50
v -50 0 -50
v -61 90 -61
v -61 0 -61
v -64 175 -64
v -64 192 -64
v -64 206 -64
v -50 174 -61
v -64 93 -64
v -64 72 -64
v -50 71 -61
v -64 36 -64
v -50 35 -61
v -64 1 -64
v -61 207 -61
v -50 209 -61
v -64 105 -64
v -64 127 -64
v -64 135 -64
v -50 104 -61
v -64 159 -64
v -64 140 -64
v -61 136 -61
v -61 171 -61
v -50 139 -61
vn 775 -1254 239
vn 420 -998 -594
vn 768 0 -512
vn 694 0 586
vn -420 -998 594
vn -775 -1254 -239
vn 1294 -740 -24
vn -338 -740 676
vn -1294 -740 24
vn 338 -740 -676
vn 512 0 -512
vn 512 0 -256
vn 437 0 587
vn -512 0 512
vn -512 0 256
vn -437 0 -587
vn -782 -740 -488
vn -949 0 -75
vn 256 0 -512
vn 512 0 -512
vn 594 -740 -420
vn -263 -742 17
vn -362 0 362
vn 949 0 75
vn 782 -740 488
vn 949 0 75
vn 782 -740 488
vn 594 -740 -420
vn 512 0 -512
vn 256 0 -512
vn -782 -740 -488
vn -949 0 -75
vn -362 0 362
vn -263 -742 17
vn 164 -742 -82
vn 263 -742 -17
vn -594 -740 420
vn -164 -742 82
vn 874 0 -106
vn 601 -740 413
vn 594 -740 -420
vn 256 0 -512
vn -601 -740 -413
vn -874 0 106
vn -444 -742 198
vn -181 0 181
vn 875 0 -107
vn 601 -740 413
vn 594 -740 -420
vn 256 0 -512
vn -601 -740 -413
vn -875 0 107
vn -445 -742 199
vn -694 0 -586
vn 164 -742 -82
vn 445 -742 -199
vn -594 -740 420
vn -164 -742 82
vn 164 -742 -82
vn 444 -742 -198
vn -594 -740 420
vn -164 -742 82
vn 263 -742 -17
vn 164 -742 -82
vn -362 0 362
vn -783 -740 -487
vn -949 0 -75
vn 256 0 -512
vn 512 0 -512
vn 594 -740 -420
vn -264 -742 18
vn -363 0 363
vn 949 0 75
vn 783 -740 487
vn 1295 -740 -25
vn 338 -740 -676
vn 512 0 -512
vn 512 0 -256
vn 437 0 587
vn -338 -740 676
vn 264 -742 -18
vn 164 -742 -82
vn -264 -742 18
vn -1295 -740 25
vn -437 0 -587
vn 264 -742 -18
vn 164 -742 -82
vn -363 0 363
vn 256 0 -256
vn -768 0 512
vn -256 0 256
vn -256 0 512
vn -512 0 512
vn -594 -740 420
vn 362 0 -362
vn -512 0 512
vn -256 0 512
vn 362 0 -362
vn -256 0 512
vn 181 0 -181
vn -256 0 512
vn -164 -742 82
vn 362 0 -362
vn -256 0 512
vn -512 0 512
vn -594 -740 420
vn 363 0 -363
vn -512 0 512
vn -512 0 256
vn -164 -742 82
vn -164 -742 82
vn 363 0 -363
usemtl m0
f 1 2 3

usemtl m1
f 1 3 4

usemtl m2
f 1 4 5

usemtl m3
f 1 5 6

usemtl m4
f 1 6 2

usemtl m5
f 1 2 7

usemtl m6
f 1 7 8

usemtl m7
f 1 8 5

usemtl m8
f 5 8 9

usemtl m9
f 5 9 6

usemtl m10
f 6 9 10

usemtl m11
f 6 10 2

usemtl m12
f 2 10 7

usemtl m13
f 7 10 11

usemtl m14
f 7 11 12

usemtl m15
f 7 12 13

usemtl m16
f 7 13 8

usemtl m17
f 8 13 14

usemtl m18
f 8 14 9

usemtl m19
f 9 14 15

usemtl m20
f 9 15 16

usemtl m21
f 9 16 10

usemtl m22
f 10 16 11

usemtl m23
f 11 16 12

usemtl m24
f 17 18 19

usemtl m25
f 17 19 20

usemtl m26
f 17 20 21

usemtl m27
f 17 21 22

usemtl m28
f 17 22 23

usemtl m29
f 17 23 18

usemtl m30
f 24 25 21

usemtl m31
f 24 21 20

usemtl m32
f 24 20 19

usemtl m33
f 26 27 28

usemtl m34
f 26 28 29

usemtl m35
f 26 29 30

usemtl m36
f 30 29 31

usemtl m37
f 30 31 32

usemtl m38
f 32 31 33

usemtl m39
f 33 31 34

usemtl m40
f 34 31 28

usemtl m41
f 34 28 35

usemtl m42
f 35 28 27

usemtl m43
f 35 27 36

usemtl m44
f 36 27 37

usemtl m45
f 36 37 38

usemtl m46
f 38 37 31

usemtl m47
f 38 31 34

usemtl m48
f 39 40 41

usemtl m49
f 39 41 42

usemtl m50
f 42 41 43

usemtl m51
f 42 43 44

usemtl m52
f 44 43 45

usemtl m53
f 44 45 46

usemtl m54
f 47 48 49

usemtl m55
f 47 49 50

usemtl m56
f 50 49 51

usemtl m57
f 50 51 52

usemtl m58
f 52 51 53

usemtl m59
f 52 53 54

usemtl m60
f 53 51 49

usemtl m61
f 53 49 55

usemtl m62
f 55 49 48

usemtl m63
f 55 48 56

usemtl m64
f 56 48 57

usemtl m65
f 56 57 58

usemtl m66
f 58 57 51

usemtl m67
f 58 51 53

usemtl m68
f 45 43 41

usemtl m69
f 45 41 59

usemtl m70
f 59 41 40

usemtl m71
f 59 40 60

usemtl m72
f 60 40 61

usemtl m73
f 60 61 62

usemtl m74
f 62 61 43

usemtl m75
f 62 43 45

usemtl m76
f 25 63 64

usemtl m77
f 25 64 21

usemtl m78
f 21 64 22

usemtl m79
f 65 16 9

usemtl m80
f 65 9 6

usemtl m81
f 66 67 68

usemtl m82
f 66 68 69

usemtl m83
f 66 69 70

usemtl m84
f 66 70 71

usemtl m85
f 66 71 72

usemtl m86
f 66 72 67

usemtl m87
f 73 74 70

usemtl m88
f 73 70 69

usemtl m89
f 73 69 68

usemtl m90
f 75 76 77

usemtl m91
f 75 77 78

usemtl m92
f 75 78 79

usemtl m93
f 75 79 80

usemtl m94
f 75 80 81

usemtl m95
f 75 81 82

usemtl m96
f 75 82 76

usemtl m97
f 76 82 83

usemtl m98
f 76 83 84

usemtl m99
f 76 84 85

usemtl m100
f 76 85 77

usemtl m101
f 77 85 78

usemtl m102
f 74 86 87

usemtl m103
f 74 87 70

usemtl m104
f 70 87 71

usemtl m105
f 88 85 84

usemtl m106
f 88 84 83

usemtl m107
f 2 6 54

usemtl m108
f 2 54 3

usemtl m109
f 3 54 89

usemtl m110
f 3 89 4

usemtl m111
f 29 28 31

usemtl m112
f 6 5 90

usemtl m113
f 6 90 54

usemtl m114
f 54 90 91

usemtl m115
f 91 90 4

usemtl m116
f 4 90 5

usemtl m117
f 25 24 92

usemtl m118
f 25 92 93

usemtl m119
f 25 93 94

usemtl m120
f 25 94 63

usemtl m121
f 25 63 95

usemtl m122
f 25 95 24

usemtl m123
f 18 17 94

usemtl m124
f 18 94 93

usemtl m125
f 18 93 92

usemtl m126
f 32 31 37

usemtl m127
f 32 37 96

usemtl m128
f 32 96 97

usemtl m129
f 97 96 27

usemtl m130
f 97 27 26

usemtl m131
f 26 27 98

usemtl m132
f 98 27 36

usemtl m133
f 44 43 61

usemtl m134
f 44 61 99

usemtl m135
f 99 61 40

usemtl m136
f 99 40 39

usemtl m137
f 39 40 60

usemtl m138
f 39 60 100

usemtl m139
f 52 51 57

usemtl m140
f 52 57 101

usemtl m141
f 101 57 48

usemtl m142
f 101 48 47

usemtl m143
f 47 48 56

usemtl m144
f 47 56 4

usemtl m145
f 13 15 14

usemtl m146
f 17 22 102

usemtl m147
f 17 102 94

usemtl m148
f 94 102 63

usemtl m149
f 103 13 7

usemtl m150
f 103 7 1

usemtl m151
f 74 73 104

usemtl m152
f 74 104 105

usemtl m153
f 74 105 106

usemtl m154
f 74 106 86

usemtl m155
f 74 86 107

usemtl m156
f 74 107 73

usemtl m157
f 67 66 106

usemtl m158
f 67 106 105

usemtl m159
f 67 105 104

usemtl m160
f 84 80 108

usemtl m161
f 84 108 109

usemtl m162
f 84 109 85

usemtl m163
f 79 109 108

usemtl m164
f 79 108 80

usemtl m165
f 66 71 110

usemtl m166
f 66 110 106

usemtl m167
f 106 110 86

usemtl m168
f 84 83 111

usemtl m169
f 84 111 80

usemtl m170
f 80 111 81

usemtl m171
f 112 79 75

usemtl m172
f 112 75 81

usemtl m173
f 96 37 27

