mtllib 1544.mtl
o runescapemodel
v 25 14 31
v 5 14 11
v 5 10 11
v 25 10 31
v 31 10 25
v 11 10 5
v 11 14 5
v 31 14 25
v -16 16 4
v -16 16 -8
v -16 8 -8
v -16 8 4
v -8 16 12
v 4 16 -16
v -8 16 -16
v -8 8 -16
v 12 8 -8
v -8 8 12
v 4 16 12
v 12 16 4
v 12 16 -8
v 4 8 -16
v 4 8 12
v 12 8 4
v -9 14 11
v -29 14 31
v -29 10 31
v -9 10 11
v -35 10 25
v -15 10 5
v -35 14 25
v -15 14 5
v -15 14 -9
v -35 14 -29
v -35 10 -29
v -15 10 -9
v -9 10 -15
v -29 10 -35
v -29 14 -35
v -9 14 -15
v -6 14 -16
v -6 14 -44
v -6 10 -44
v -6 10 -16
v 2 10 -44
v 2 10 -16
v 2 14 -44
v 2 14 -16
v 31 14 -29
v 11 14 -9
v 11 10 -9
v 31 10 -29
v 5 10 -15
v 25 10 -35
v 5 14 -15
v 25 14 -35
v -2 0 6
v -7 0 3
v -10 0 -2
v -7 0 -7
v -2 0 -10
v 3 0 -7
v 6 0 -2
v 3 0 3
v 6 8 6
v -2 8 10
v -10 8 6
v -14 8 -2
v -10 8 -10
v -2 8 -14
v 6 8 -10
v 10 8 -2
v 3 24 3
v 6 24 -2
v 3 24 -7
v -2 24 -10
v -7 24 -7
v -10 24 -2
v -7 24 3
v -2 24 6
v -2 16 10
v 6 16 6
v 10 16 -2
v 6 16 -10
v -2 16 -14
v -10 16 -10
v -14 16 -2
v -10 16 6
v 48 20 -24
v 40 20 -20
v 40 20 16
v 48 20 20
v 48 4 20
v 48 4 -24
v 20 20 -52
v 16 20 -44
v 16 4 -44
v 40 4 -20
v 40 4 16
v 16 20 40
v 20 20 48
v 20 4 48
v -44 20 16
v -52 20 20
v -24 20 48
v -20 20 40
v -20 4 40
v -44 4 16
v -52 4 20
v -24 4 48
v -20 20 -44
v -24 20 -52
v -52 20 -24
v -44 20 -20
v -44 4 -20
v -20 4 -44
v 20 4 -52
v -24 4 -52
v -52 4 -24
v 16 4 40
v 2 14 12
v 2 14 40
v 2 10 40
v 2 10 12
v -6 10 40
v -6 10 12
v -6 14 12
v -6 14 40
vn -362 -512 -362
vn -181 -256 -181
vn -362 512 -362
vn -181 256 -181
vn 362 512 362
vn 181 256 181
vn 362 -512 362
vn 181 -256 181
vn -694 -512 -182
vn -620 -512 364
vn -694 512 182
vn -620 512 -364
vn -364 -512 -620
vn 364 -1536 620
vn -182 -256 694
vn -364 512 620
vn 620 1536 364
vn -182 512 -694
vn 182 -512 -694
vn 620 -512 -364
vn 694 -256 182
vn 182 256 694
vn 364 512 -620
vn 694 256 -182
vn 362 -256 -362
vn 181 -512 -181
vn 362 256 -362
vn 181 512 -181
vn -181 512 181
vn -362 256 362
vn -362 -256 362
vn -181 -512 181
vn -362 -512 -362
vn -181 -256 -181
vn -362 512 -362
vn -181 256 -181
vn 362 512 362
vn 181 256 181
vn 362 -512 362
vn 181 -256 181
vn -512 -256 0
vn -256 -512 0
vn -512 256 0
vn -256 512 0
vn 256 512 0
vn 512 256 0
vn 512 -256 0
vn 256 -512 0
vn 362 -256 -362
vn 181 -512 -181
vn 362 256 -362
vn 181 512 -181
vn -181 512 181
vn -362 256 362
vn -362 -256 362
vn -181 -512 181
vn 101 1861 -610
vn -420 591 -526
vn -610 837 -101
vn -526 847 420
vn -101 837 610
vn 420 847 526
vn 610 837 101
vn 526 591 -420
vn 427 338 -508
vn -119 322 -618
vn -508 338 -427
vn -618 322 119
vn -427 338 508
vn 119 322 618
vn 508 338 427
vn 618 322 -119
vn 420 -1871 -526
vn 610 -581 -101
vn 526 -847 420
vn 101 -837 610
vn -420 -847 526
vn -610 -837 101
vn -526 -847 -420
vn -101 -581 -610
vn 119 -322 -618
vn 508 -338 -427
vn 618 -322 119
vn 427 -338 508
vn -119 -322 618
vn -508 -338 427
vn -618 -322 -119
vn -427 -338 -508
vn 693 -1024 181
vn -618 -512 -362
vn -693 -768 181
vn 618 -768 -362
vn 693 0 -181
vn 618 0 362
vn 362 -512 618
vn -181 -1024 -693
vn -362 0 -618
vn -693 0 -181
vn -618 0 362
vn -591 -512 248
vn -277 -256 -409
vn 133 0 -476
vn 248 -512 591
vn -409 -256 277
vn -133 -512 -476
vn 639 -256 -47
vn 591 0 248
vn -47 0 639
vn -476 0 -133
vn 277 0 -409
vn 362 -768 -618
vn -181 -768 693
vn -476 -512 133
vn -47 -256 -639
vn 248 0 -591
vn 181 0 -693
vn 181 0 693
vn -362 0 618
vn -409 0 -277
vn -639 0 -47
vn 512 -256 0
vn 256 -512 -512
vn 512 256 -256
vn 256 512 0
vn -512 512 -512
vn -256 256 0
vn -512 -512 0
vn -256 -256 -256
usemtl m0
f 1 2 3

usemtl m1
f 1 3 4

usemtl m2
f 4 3 5

usemtl m3
f 5 3 6

usemtl m4
f 5 6 7

usemtl m5
f 5 7 8

usemtl m6
f 8 7 1

usemtl m7
f 1 7 2

usemtl m8
f 9 10 11

usemtl m9
f 9 11 12

usemtl m10
f 9 12 13

usemtl m11
f 9 13 14

usemtl m12
f 9 14 10

usemtl m13
f 10 14 15

usemtl m14
f 10 15 16

usemtl m15
f 10 16 11

usemtl m16
f 11 16 17

usemtl m17
f 11 17 12

usemtl m18
f 12 17 18

usemtl m19
f 12 18 13

usemtl m20
f 13 18 19

usemtl m21
f 13 19 14

usemtl m22
f 14 19 20

usemtl m23
f 14 20 21

usemtl m24
f 14 21 17

usemtl m25
f 14 17 22

usemtl m26
f 14 22 15

usemtl m27
f 15 22 16

usemtl m28
f 16 22 17

usemtl m29
f 20 19 23

usemtl m30
f 20 23 24

usemtl m31
f 20 24 21

usemtl m32
f 21 24 17

usemtl m33
f 17 24 23

usemtl m34
f 17 23 18

usemtl m35
f 18 23 19

usemtl m36
f 25 26 27

usemtl m37
f 25 27 28

usemtl m38
f 28 27 29

usemtl m39
f 28 29 30

usemtl m40
f 30 29 31

usemtl m41
f 30 31 32

usemtl m42
f 32 31 26

usemtl m43
f 32 26 25

usemtl m44
f 33 34 35

usemtl m45
f 33 35 36

usemtl m46
f 36 35 37

usemtl m47
f 37 35 38

usemtl m48
f 37 38 39

usemtl m49
f 37 39 40

usemtl m50
f 40 39 33

usemtl m51
f 33 39 34

usemtl m52
f 41 42 43

usemtl m53
f 41 43 44

usemtl m54
f 44 43 45

usemtl m55
f 44 45 46

usemtl m56
f 46 45 47

usemtl m57
f 46 47 48

usemtl m58
f 48 47 42

usemtl m59
f 48 42 41

usemtl m60
f 49 50 51

usemtl m61
f 49 51 52

usemtl m62
f 52 51 53

usemtl m63
f 52 53 54

usemtl m64
f 54 53 55

usemtl m65
f 54 55 56

usemtl m66
f 56 55 50

usemtl m67
f 56 50 49

usemtl m68
f 57 58 59

usemtl m69
f 57 59 60

usemtl m70
f 57 60 61

usemtl m71
f 57 61 62

usemtl m72
f 57 62 63

usemtl m73
f 57 63 64

usemtl m74
f 57 64 65

usemtl m75
f 57 65 66

usemtl m76
f 57 66 58

usemtl m77
f 58 66 67

usemtl m78
f 58 67 59

usemtl m79
f 59 67 68

usemtl m80
f 59 68 60

usemtl m81
f 60 68 69

usemtl m82
f 60 69 61

usemtl m83
f 61 69 70

usemtl m84
f 61 70 62

usemtl m85
f 62 70 71

usemtl m86
f 62 71 63

usemtl m87
f 63 71 72

usemtl m88
f 63 72 64

usemtl m89
f 64 72 65

usemtl m90
f 73 74 75

usemtl m91
f 73 75 76

usemtl m92
f 73 76 77

usemtl m93
f 73 77 78

usemtl m94
f 73 78 79

usemtl m95
f 73 79 80

usemtl m96
f 73 80 81

usemtl m97
f 73 81 82

usemtl m98
f 73 82 74

usemtl m99
f 74 82 83

usemtl m100
f 74 83 75

usemtl m101
f 75 83 84

usemtl m102
f 75 84 76

usemtl m103
f 76 84 85

usemtl m104
f 76 85 77

usemtl m105
f 77 85 86

usemtl m106
f 77 86 78

usemtl m107
f 78 86 87

usemtl m108
f 78 87 79

usemtl m109
f 79 87 88

usemtl m110
f 79 88 80

usemtl m111
f 80 88 81

usemtl m112
f 89 90 91

usemtl m113
f 89 91 92

usemtl m114
f 89 92 93

usemtl m115
f 89 93 94

usemtl m116
f 89 94 95

usemtl m117
f 89 95 96

usemtl m118
f 89 96 90

usemtl m119
f 90 96 97

usemtl m120
f 90 97 98

usemtl m121
f 90 98 91

usemtl m122
f 91 98 99

usemtl m123
f 91 99 100

usemtl m124
f 91 100 92

usemtl m125
f 92 100 101

usemtl m126
f 92 101 102

usemtl m127
f 92 102 93

usemtl m128
f 103 104 105

usemtl m129
f 103 105 106

usemtl m130
f 103 106 107

usemtl m131
f 103 107 108

usemtl m132
f 103 108 104

usemtl m133
f 104 108 109

usemtl m134
f 104 109 105

usemtl m135
f 105 109 110

usemtl m136
f 105 110 106

usemtl m137
f 106 110 107

usemtl m138
f 111 112 113

usemtl m139
f 111 113 114

usemtl m140
f 111 114 115

usemtl m141
f 111 115 116

usemtl m142
f 111 116 96

usemtl m143
f 111 96 112

usemtl m144
f 112 96 95

usemtl m145
f 112 95 117

usemtl m146
f 112 117 118

usemtl m147
f 112 118 113

usemtl m148
f 113 118 119

usemtl m149
f 113 119 114

usemtl m150
f 114 119 115

usemtl m151
f 101 100 120

usemtl m152
f 101 120 102

usemtl m153
f 95 94 117

usemtl m154
f 116 97 96

usemtl m155
f 99 120 100

usemtl m156
f 121 122 123

usemtl m157
f 121 123 124

usemtl m158
f 124 123 125

usemtl m159
f 124 125 126

usemtl m160
f 126 125 127

usemtl m161
f 127 125 128

usemtl m162
f 127 128 122

usemtl m163
f 127 122 121

usemtl m164
f 125 123 122

usemtl m165
f 125 122 128

