newmtl m0
Kd 0.9725490196078431 0.043137254901960784 0.19215686274509805
newmtl m1
Kd 0.9725490196078431 0.043137254901960784 0.19215686274509805
newmtl m2
Kd 0.9725490196078431 0.043137254901960784 0.19215686274509805
newmtl m3
Kd 0.9725490196078431 0.043137254901960784 0.19215686274509805
newmtl m4
Kd 0.9725490196078431 0.043137254901960784 0.19215686274509805
newmtl m5
Kd 0.9725490196078431 0.043137254901960784 0.19215686274509805
newmtl m6
Kd 0.9725490196078431 0.043137254901960784 0.19215686274509805
newmtl m7
Kd 0.9725490196078431 0.043137254901960784 0.19215686274509805
newmtl m8
Kd 0.9725490196078431 0.043137254901960784 0.19215686274509805
newmtl m9
Kd 0.9725490196078431 0.043137254901960784 0.19215686274509805
newmtl m10
Kd 0.9725490196078431 0.043137254901960784 0.19215686274509805
newmtl m11
Kd 0.9725490196078431 0.043137254901960784 0.19215686274509805
newmtl m12
Kd 0.9725490196078431 0.043137254901960784 0.19215686274509805
newmtl m13
Kd 0.9725490196078431 0.043137254901960784 0.19215686274509805
newmtl m14
Kd 0.9725490196078431 0.043137254901960784 0.19215686274509805
newmtl m15
Kd 0.9725490196078431 0.043137254901960784 0.19215686274509805
newmtl m16
Kd 0.9725490196078431 0.043137254901960784 0.19215686274509805
newmtl m17
Kd 0.9725490196078431 0.043137254901960784 0.19215686274509805
newmtl m18
Kd 0.9725490196078431 0.043137254901960784 0.19215686274509805
newmtl m19
Kd 0.9725490196078431 0.043137254901960784 0.19215686274509805
newmtl m20
Kd 0.9725490196078431 0.043137254901960784 0.19215686274509805
newmtl m21
Kd 0.9725490196078431 0.043137254901960784 0.19215686274509805
newmtl m22
Kd 0.9725490196078431 0.043137254901960784 0.19215686274509805
newmtl m23
Kd 0.9725490196078431 0.043137254901960784 0.19215686274509805
newmtl m24
Kd 0.9725490196078431 0.043137254901960784 0.19215686274509805
newmtl m25
Kd 0.9725490196078431 0.043137254901960784 0.19215686274509805
newmtl m26
Kd 0.9725490196078431 0.043137254901960784 0.19215686274509805
newmtl m27
Kd 0.9725490196078431 0.043137254901960784 0.19215686274509805
newmtl m28
Kd 0.9725490196078431 0.043137254901960784 0.19215686274509805
newmtl m29
Kd 0.9725490196078431 0.043137254901960784 0.19215686274509805
