mtllib 16039.mtl
o runescapemodel
v 55 115 -27
v 63 115 -27
v 63 109 -27
v 55 109 -27
v 47 115 -19
v 53 121 -17
v 57 121 -20
v 61 121 -20
v 71 115 -19
v 71 109 -19
v 65 103 -17
v 61 103 -20
v 57 103 -20
v 47 109 -19
v 47 115 -11
v 53 121 -13
v 59 123 -15
v 65 121 -17
v 71 115 -11
v 71 109 -11
v 65 103 -13
v 63 115 -3
v 63 109 -3
v 61 103 -10
v 55 115 -3
v 55 109 -3
v 57 103 -10
v 47 109 -11
v 53 103 -13
v 53 103 -17
v 65 121 -13
v 61 121 -10
v 57 121 -10
v 55 115 2
v 63 115 2
v 63 109 2
v 55 109 2
v 47 115 10
v 53 121 12
v 57 121 9
v 61 121 9
v 71 115 10
v 71 109 10
v 65 103 12
v 61 103 9
v 57 103 9
v 47 109 10
v 47 115 18
v 53 121 16
v 59 123 14
v 65 121 12
v 71 115 18
v 71 109 18
v 65 103 16
v 63 115 26
v 63 109 26
v 61 103 19
v 55 115 26
v 55 109 26
v 57 103 19
v 47 109 18
v 53 103 16
v 53 103 12
v 65 121 16
v 61 121 19
v 57 121 19
v 33 115 -12
v 41 115 -12
v 41 109 -12
v 33 109 -12
v 25 115 -4
v 31 121 -2
v 35 121 -5
v 39 121 -5
v 49 115 -4
v 49 109 -4
v 43 103 -2
v 39 103 -5
v 35 103 -5
v 25 109 -4
v 25 115 4
v 31 121 2
v 37 123 0
v 43 121 -2
v 49 115 4
v 49 109 4
v 43 103 2
v 41 115 12
v 41 109 12
v 39 103 5
v 33 115 12
v 33 109 12
v 35 103 5
v 25 109 4
v 31 103 2
v 31 103 -2
v 43 121 2
v 39 121 5
v 35 121 5
v 77 115 -12
v 85 115 -12
v 85 109 -12
v 77 109 -12
v 69 115 -4
v 75 121 -2
v 79 121 -5
v 83 121 -5
v 93 115 -4
v 93 109 -4
v 87 103 -2
v 83 103 -5
v 79 103 -5
v 69 109 -4
v 69 115 4
v 75 121 2
v 81 123 0
v 87 121 -2
v 93 115 4
v 93 109 4
v 87 103 2
v 85 115 12
v 85 109 12
v 83 103 5
v 77 115 12
v 77 109 12
v 79 103 5
v 69 109 4
v 75 103 2
v 75 103 -2
v 87 121 2
v 83 121 5
v 79 121 5
vn -417 -565 1131
vn 491 -583 1085
vn 417 565 1131
vn -491 583 1085
vn -1123 -545 498
vn -557 -1046 343
vn -158 -1077 646
vn 299 -1046 624
vn 1121 -541 465
vn 1123 545 498
vn 420 555 268
vn 102 588 474
vn -243 557 452
vn -1121 541 465
vn -1121 -541 -465
vn -624 -1030 -232
vn 0 -1960 0
vn 624 -1030 232
vn 1123 -545 -498
vn 1121 541 -465
vn 487 539 -157
vn 417 -565 -1131
vn 491 583 -1085
vn 243 557 -452
vn -491 -583 -1085
vn -417 565 -1131
vn -102 588 -474
vn -1123 545 -498
vn -420 555 -268
vn -487 539 157
vn 557 -1046 -343
vn 158 -1077 -646
vn -299 -1046 -624
vn -417 -565 1131
vn 491 -583 1085
vn 417 565 1131
vn -491 583 1085
vn -1123 -545 498
vn -557 -1046 343
vn -158 -1077 646
vn 299 -1046 624
vn 1121 -541 465
vn 1123 545 498
vn 420 555 268
vn 102 588 474
vn -243 557 452
vn -1121 541 465
vn -1121 -541 -465
vn -624 -1030 -232
vn 0 -1960 0
vn 624 -1030 232
vn 1123 -545 -498
vn 1121 541 -465
vn 487 539 -157
vn 417 -565 -1131
vn 491 583 -1085
vn 243 557 -452
vn -491 -583 -1085
vn -417 565 -1131
vn -102 588 -474
vn -1123 545 -498
vn -420 555 -268
vn -487 539 157
vn 557 -1046 -343
vn 158 -1077 -646
vn -299 -1046 -624
vn -417 -565 1131
vn 491 -583 1085
vn 417 565 1131
vn -491 583 1085
vn -1123 -545 498
vn -557 -1046 343
vn -158 -1077 646
vn 299 -1046 624
vn 1121 -541 465
vn 1123 545 498
vn 420 555 268
vn 102 588 474
vn -243 557 452
vn -1121 541 465
vn -1121 -541 -465
vn -624 -1030 -232
vn 0 -1960 0
vn 624 -1030 232
vn 1123 -545 -498
vn 1121 541 -465
vn 487 539 -157
vn 417 -565 -1131
vn 491 583 -1085
vn 243 557 -452
vn -491 -583 -1085
vn -417 565 -1131
vn -102 588 -474
vn -1123 545 -498
vn -420 555 -268
vn -487 539 157
vn 557 -1046 -343
vn 158 -1077 -646
vn -299 -1046 -624
vn -417 -565 1131
vn 491 -583 1085
vn 417 565 1131
vn -491 583 1085
vn -1123 -545 498
vn -557 -1046 343
vn -158 -1077 646
vn 299 -1046 624
vn 1121 -541 465
vn 1123 545 498
vn 420 555 268
vn 102 588 474
vn -243 557 452
vn -1121 541 465
vn -1121 -541 -465
vn -624 -1030 -232
vn 0 -1960 0
vn 624 -1030 232
vn 1123 -545 -498
vn 1121 541 -465
vn 487 539 -157
vn 417 -565 -1131
vn 491 583 -1085
vn 243 557 -452
vn -491 -583 -1085
vn -417 565 -1131
vn -102 588 -474
vn -1123 545 -498
vn -420 555 -268
vn -487 539 157
vn 557 -1046 -343
vn 158 -1077 -646
vn -299 -1046 -624
usemtl m0
f 1 2 3

usemtl m1
f 1 3 4

usemtl m2
f 1 4 5

usemtl m3
f 1 5 6

usemtl m4
f 1 6 7

usemtl m5
f 1 7 2

usemtl m6
f 2 7 8

usemtl m7
f 2 8 9

usemtl m8
f 2 9 10

usemtl m9
f 2 10 3

usemtl m10
f 3 10 11

usemtl m11
f 3 11 12

usemtl m12
f 3 12 4

usemtl m13
f 4 12 13

usemtl m14
f 4 13 14

usemtl m15
f 4 14 5

usemtl m16
f 5 14 15

usemtl m17
f 5 15 16

usemtl m18
f 5 16 6

usemtl m19
f 6 16 17

usemtl m20
f 6 17 7

usemtl m21
f 7 17 8

usemtl m22
f 8 17 18

usemtl m23
f 8 18 9

usemtl m24
f 9 18 19

usemtl m25
f 9 19 20

usemtl m26
f 9 20 10

usemtl m27
f 10 20 21

usemtl m28
f 10 21 11

usemtl m29
f 19 22 23

usemtl m30
f 19 23 20

usemtl m31
f 20 23 24

usemtl m32
f 20 24 21

usemtl m33
f 22 25 26

usemtl m34
f 22 26 23

usemtl m35
f 23 26 27

usemtl m36
f 23 27 24

usemtl m37
f 25 15 28

usemtl m38
f 25 28 26

usemtl m39
f 26 28 29

usemtl m40
f 26 29 27

usemtl m41
f 15 14 28

usemtl m42
f 28 14 30

usemtl m43
f 28 30 29

usemtl m44
f 18 31 19

usemtl m45
f 19 31 22

usemtl m46
f 22 31 32

usemtl m47
f 22 32 25

usemtl m48
f 25 32 33

usemtl m49
f 25 33 15

usemtl m50
f 15 33 16

usemtl m51
f 16 33 17

usemtl m52
f 17 33 32

usemtl m53
f 17 32 31

usemtl m54
f 17 31 18

usemtl m55
f 14 13 30

usemtl m56
f 34 35 36

usemtl m57
f 34 36 37

usemtl m58
f 34 37 38

usemtl m59
f 34 38 39

usemtl m60
f 34 39 40

usemtl m61
f 34 40 35

usemtl m62
f 35 40 41

usemtl m63
f 35 41 42

usemtl m64
f 35 42 43

usemtl m65
f 35 43 36

usemtl m66
f 36 43 44

usemtl m67
f 36 44 45

usemtl m68
f 36 45 37

usemtl m69
f 37 45 46

usemtl m70
f 37 46 47

usemtl m71
f 37 47 38

usemtl m72
f 38 47 48

usemtl m73
f 38 48 49

usemtl m74
f 38 49 39

usemtl m75
f 39 49 50

usemtl m76
f 39 50 40

usemtl m77
f 40 50 41

usemtl m78
f 41 50 51

usemtl m79
f 41 51 42

usemtl m80
f 42 51 52

usemtl m81
f 42 52 53

usemtl m82
f 42 53 43

usemtl m83
f 43 53 54

usemtl m84
f 43 54 44

usemtl m85
f 52 55 56

usemtl m86
f 52 56 53

usemtl m87
f 53 56 57

usemtl m88
f 53 57 54

usemtl m89
f 55 58 59

usemtl m90
f 55 59 56

usemtl m91
f 56 59 60

usemtl m92
f 56 60 57

usemtl m93
f 58 48 61

usemtl m94
f 58 61 59

usemtl m95
f 59 61 62

usemtl m96
f 59 62 60

usemtl m97
f 48 47 61

usemtl m98
f 61 47 63

usemtl m99
f 61 63 62

usemtl m100
f 51 64 52

usemtl m101
f 52 64 55

usemtl m102
f 55 64 65

usemtl m103
f 55 65 58

usemtl m104
f 58 65 66

usemtl m105
f 58 66 48

usemtl m106
f 48 66 49

usemtl m107
f 49 66 50

usemtl m108
f 50 66 65

usemtl m109
f 50 65 64

usemtl m110
f 50 64 51

usemtl m111
f 47 46 63

usemtl m112
f 67 68 69

usemtl m113
f 67 69 70

usemtl m114
f 67 70 71

usemtl m115
f 67 71 72

usemtl m116
f 67 72 73

usemtl m117
f 67 73 68

usemtl m118
f 68 73 74

usemtl m119
f 68 74 75

usemtl m120
f 68 75 76

usemtl m121
f 68 76 69

usemtl m122
f 69 76 77

usemtl m123
f 69 77 78

usemtl m124
f 69 78 70

usemtl m125
f 70 78 79

usemtl m126
f 70 79 80

usemtl m127
f 70 80 71

usemtl m128
f 71 80 81

usemtl m129
f 71 81 82

usemtl m130
f 71 82 72

usemtl m131
f 72 82 83

usemtl m132
f 72 83 73

usemtl m133
f 73 83 74

usemtl m134
f 74 83 84

usemtl m135
f 74 84 75

usemtl m136
f 75 84 85

usemtl m137
f 75 85 86

usemtl m138
f 75 86 76

usemtl m139
f 76 86 87

usemtl m140
f 76 87 77

usemtl m141
f 85 88 89

usemtl m142
f 85 89 86

usemtl m143
f 86 89 90

usemtl m144
f 86 90 87

usemtl m145
f 88 91 92

usemtl m146
f 88 92 89

usemtl m147
f 89 92 93

usemtl m148
f 89 93 90

usemtl m149
f 91 81 94

usemtl m150
f 91 94 92

usemtl m151
f 92 94 95

usemtl m152
f 92 95 93

usemtl m153
f 81 80 94

usemtl m154
f 94 80 96

usemtl m155
f 94 96 95

usemtl m156
f 84 97 85

usemtl m157
f 85 97 88

usemtl m158
f 88 97 98

usemtl m159
f 88 98 91

usemtl m160
f 91 98 99

usemtl m161
f 91 99 81

usemtl m162
f 81 99 82

usemtl m163
f 82 99 83

usemtl m164
f 83 99 98

usemtl m165
f 83 98 97

usemtl m166
f 83 97 84

usemtl m167
f 80 79 96

usemtl m168
f 100 101 102

usemtl m169
f 100 102 103

usemtl m170
f 100 103 104

usemtl m171
f 100 104 105

usemtl m172
f 100 105 106

usemtl m173
f 100 106 101

usemtl m174
f 101 106 107

usemtl m175
f 101 107 108

usemtl m176
f 101 108 109

usemtl m177
f 101 109 102

usemtl m178
f 102 109 110

usemtl m179
f 102 110 111

usemtl m180
f 102 111 103

usemtl m181
f 103 111 112

usemtl m182
f 103 112 113

usemtl m183
f 103 113 104

usemtl m184
f 104 113 114

usemtl m185
f 104 114 115

usemtl m186
f 104 115 105

usemtl m187
f 105 115 116

usemtl m188
f 105 116 106

usemtl m189
f 106 116 107

usemtl m190
f 107 116 117

usemtl m191
f 107 117 108

usemtl m192
f 108 117 118

usemtl m193
f 108 118 119

usemtl m194
f 108 119 109

usemtl m195
f 109 119 120

usemtl m196
f 109 120 110

usemtl m197
f 118 121 122

usemtl m198
f 118 122 119

usemtl m199
f 119 122 123

usemtl m200
f 119 123 120

usemtl m201
f 121 124 125

usemtl m202
f 121 125 122

usemtl m203
f 122 125 126

usemtl m204
f 122 126 123

usemtl m205
f 124 114 127

usemtl m206
f 124 127 125

usemtl m207
f 125 127 128

usemtl m208
f 125 128 126

usemtl m209
f 114 113 127

usemtl m210
f 127 113 129

usemtl m211
f 127 129 128

usemtl m212
f 117 130 118

usemtl m213
f 118 130 121

usemtl m214
f 121 130 131

usemtl m215
f 121 131 124

usemtl m216
f 124 131 132

usemtl m217
f 124 132 114

usemtl m218
f 114 132 115

usemtl m219
f 115 132 116

usemtl m220
f 116 132 131

usemtl m221
f 116 131 130

usemtl m222
f 116 130 117

usemtl m223
f 113 112 129

