mtllib 16196.mtl
o runescapemodel
v -24 97 42
v -8 84 49
v -23 82 56
v -30 102 56
v -23 125 44
v -26 126 37
v -21 103 9
v -10 86 39
v 0 84 36
v -5 83 80
v -7 77 55
v -18 67 59
v -26 81 72
v -31 109 69
v -23 135 67
v -11 153 53
v -10 148 37
v -22 122 12
v -17 111 -26
v -14 103 -25
v -12 89 11
v 0 86 11
v 12 89 11
v 10 86 39
v 8 84 49
v 5 83 80
v 0 84 78
v 0 98 95
v -13 100 90
v -12 79 82
v -8 65 67
v -14 56 65
v -21 56 70
v -22 64 72
v -13 63 79
v -13 114 92
v -14 135 86
v -14 54 77
v -9 56 70
v -22 50 70
v -13 49 77
v -7 50 70
v -13 45 66
v -11 21 72
v -14 21 68
v -18 22 72
v -19 44 71
v -14 51 64
v -9 44 70
v -12 22 77
v -13 18 79
v -9 17 72
v -15 17 66
v -21 17 72
v -13 44 76
v -21 110 -31
v -11 97 -33
v 0 95 -33
v 0 100 -25
v 14 103 -25
v 21 103 9
v 24 97 42
v 23 82 56
v 7 77 55
v 8 65 67
v 12 79 82
v 13 100 90
v -14 78 -48
v 0 88 -51
v 14 78 -48
v 11 97 -33
v -24 22 -70
v -17 24 -66
v -17 52 -67
v -23 56 -74
v -19 22 -74
v -25 16 -68
v -17 18 -63
v -16 21 -69
v -13 56 -73
v -10 74 -66
v -28 81 -49
v -15 75 -76
v -17 56 -82
v -15 16 -68
v -21 17 -74
v -25 12 -66
v -17 12 -63
v -23 13 -71
v -17 12 -68
v -23 0 -73
v -28 0 -63
v -19 0 -57
v -15 0 -65
v -27 130 -47
v -29 122 -48
v -28 125 -43
v -25 134 -29
v -24 137 -47
v -25 131 -58
v -25 120 -63
v -29 116 -59
v -30 115 -49
v -29 120 -39
v -20 132 -23
v -8 151 -18
v -20 147 -46
v -22 143 -46
v -23 137 -57
v -21 130 -64
v -17 113 -74
v -31 101 -51
v -21 143 -56
v -3 151 -69
v -6 128 -77
v 0 113 -83
v 0 101 -77
v -19 95 -66
v -6 87 -73
v -18 12 74
v -15 14 68
v -11 12 72
v -16 0 67
v -22 0 77
v -13 0 83
v -11 12 78
v -9 0 75
v 21 56 70
v 14 56 65
v 18 67 59
v 22 64 72
v 14 54 77
v 22 50 70
v 14 51 64
v 7 50 70
v 9 56 70
v 26 81 72
v 13 63 79
v 13 49 77
v 13 44 76
v 19 44 71
v 13 45 66
v 9 44 70
v 14 21 68
v 11 21 72
v 12 22 77
v 18 22 72
v 21 17 72
v 15 17 66
v 9 17 72
v 13 18 79
v 31 109 69
v 30 102 56
v 23 125 44
v 23 135 67
v 14 135 86
v 13 114 92
v 17 111 -26
v 21 110 -31
v 26 134 -30
v 20 132 -23
v 22 122 13
v 31 101 -51
v 29 125 -49
v 20 149 -46
v 8 151 -18
v 13 147 11
v 10 148 37
v 25 126 37
v 24 22 -70
v 17 52 -67
v 17 24 -66
v 25 16 -68
v 19 22 -74
v 23 56 -74
v 28 81 -49
v 10 74 -66
v 13 56 -73
v 16 21 -69
v 17 18 -63
v 25 12 -66
v 21 17 -74
v 15 16 -68
v 17 56 -82
v 15 75 -76
v 19 95 -66
v 17 12 -63
v 19 0 -57
v 28 0 -63
v 23 13 -71
v 17 12 -68
v 15 0 -65
v 23 0 -73
v 21 130 -64
v 3 151 -69
v 17 113 -74
v 6 128 -77
v 0 136 -79
v 0 148 -75
v 0 151 -79
v 5 155 -78
v 0 155 -69
v 8 157 -44
v 0 159 -18
v 0 152 13
v 0 155 37
v 0 160 50
v 11 153 53
v -7 155 -78
v -8 148 -88
v -6 152 -94
v 0 163 -78
v 2 152 -90
v 4 148 -84
v 8 152 -84
v -8 157 -44
v 0 161 -43
v -13 147 11
v 6 87 -73
v 18 12 74
v 15 14 68
v 11 12 72
v 11 12 78
v 22 0 77
v 16 0 67
v 9 0 75
v 13 0 83
v 0 114 97
v -12 152 -88
v -8 131 -90
v -8 131 -101
v -13 138 -110
v -10 164 -98
v -14 131 -94
v -14 103 -97
v -10 98 -96
v -8 103 -103
v -13 106 -111
v 4 131 -86
v 4 103 -99
v 5 98 -92
v 10 103 -93
v 9 131 -90
v 4 131 -97
v 7 104 -102
v 9 86 -107
v 7 83 -108
v 8 80 -102
v 11 83 -103
v 7 137 -99
v 5 156 -93
v 11 74 -113
v -11 83 -112
v -13 87 -114
v -16 83 -107
v -12 80 -106
v -16 69 -122
vn -1333 650 337
vn -100 1024 438
vn -1112 699 750
vn -951 100 195
vn -1406 -312 24
vn -1369 -327 -27
vn -1578 600 236
vn -651 1025 116
vn 0 2498 170
vn 787 1082 -678
vn 507 416 629
vn -626 581 995
vn -1370 355 -573
vn -1795 -59 -477
vn -689 -260 -25
vn -796 -518 72
vn -1165 -1225 262
vn -1441 -274 112
vn -1323 279 -374
vn -962 1101 -304
vn -649 1241 262
vn 0 958 218
vn 649 1241 262
vn 651 1025 116
vn 100 1024 438
vn -787 1082 -678
vn 0 870 -302
vn 0 730 -1140
vn -716 411 -1388
vn 174 362 -877
vn 1276 506 189
vn 240 110 1326
vn -879 161 111
vn -980 193 -401
vn 218 171 -930
vn -581 -40 -781
vn -513 -171 -488
vn -83 43 -1211
vn 995 0 -41
vn -1242 218 22
vn 68 65 -730
vn 1470 -5 122
vn 88 361 1487
vn 1291 -99 266
vn 75 -331 1005
vn -989 -168 -19
vn -631 167 -4
vn 39 49 787
vn 1018 157 33
vn 240 -181 -802
vn 238 -149 -858
vn 1222 -136 276
vn -39 271 992
vn -956 -260 -53
vn -31 171 -1232
vn -1386 554 -849
vn -637 823 -922
vn 0 1540 -1104
vn 0 1360 90
vn 962 1101 -304
vn 1580 588 225
vn 1345 639 366
vn 1112 699 750
vn -507 416 629
vn -1276 506 189
vn -174 362 -877
vn 716 411 -1388
vn 421 911 -828
vn 0 1190 -76
vn -421 911 -828
vn 637 823 -922
vn -772 -63 -191
vn 90 -221 -744
vn 359 397 -1082
vn -1156 5 352
vn 105 117 1234
vn -998 -251 -102
vn 358 -280 -844
vn 1393 -74 -78
vn 1117 146 102
vn 1501 552 141
vn -1105 393 -312
vn -271 -147 831
vn 293 -18 621
vn 1273 188 327
vn -255 253 904
vn -1127 -319 -525
vn 787 -65 -663
vn -526 26 697
vn 1017 308 769
vn 70 220 520
vn -602 374 1
vn 15 33 -528
vn 665 466 66
vn -1455 -409 119
vn -1450 -396 133
vn -994 -242 -54
vn -2171 -497 -742
vn -954 -365 54
vn -1368 -445 415
vn -1277 -376 667
vn -1110 -173 430
vn -1208 16 -154
vn -1174 1 -257
vn -1086 -211 -292
vn -1200 -1144 -355
vn -1107 -973 42
vn -1432 -565 75
vn -874 -348 336
vn -1243 -562 1145
vn -1265 79 1467
vn -1422 267 21
vn -973 -596 424
vn -1711 -955 618
vn -715 -322 993
vn 0 46 1300
vn 0 618 1408
vn -924 70 1075
vn 463 239 674
vn -1131 89 -430
vn -350 142 737
vn 1172 261 716
vn 156 242 481
vn -581 343 31
vn -20 50 -516
vn 709 -37 -652
vn 678 471 55
vn 1033 119 312
vn -397 134 1124
vn 626 581 995
vn 980 193 -401
vn 83 43 -1211
vn 946 164 -382
vn 251 120 1186
vn -1470 -5 122
vn -995 0 -41
vn 1370 355 -573
vn -218 171 -930
vn -68 65 -730
vn -133 172 -1035
vn 932 250 -6
vn -222 257 1289
vn -1018 157 33
vn -75 -331 1005
vn -1291 -99 266
vn -76 -182 -999
vn 825 -167 178
vn 956 -260 -53
vn 39 271 992
vn -1222 -136 276
vn -238 -149 -858
vn 1795 -59 -477
vn 951 100 195
vn 1425 -327 83
vn 689 -260 -25
vn 513 -171 -488
vn 581 -40 -781
vn 1319 278 -379
vn 1209 441 -686
vn 1240 -161 -619
vn 1082 -211 -297
vn 1447 -272 98
vn 1192 197 -28
vn 1383 -183 154
vn 1106 -878 172
vn 1178 -1157 -370
vn 878 -790 -34
vn 1175 -1214 254
vn 1400 -340 13
vn 772 -63 -191
vn -359 397 -1082
vn -90 -221 -744
vn 998 -251 -102
vn -105 117 1234
vn 1156 5 352
vn 1105 393 -312
vn -1501 552 141
vn -1117 146 102
vn -1393 -74 -78
vn -358 -280 -844
vn 1127 -319 -525
vn 255 253 904
vn -1273 188 327
vn -293 -18 621
vn 271 -147 831
vn 924 70 1075
vn -787 -65 -663
vn -15 33 -528
vn 602 374 1
vn 526 26 697
vn -1017 308 769
vn -665 466 66
vn -70 220 520
vn 936 -395 702
vn 1628 -547 779
vn 1135 72 1222
vn 715 -322 993
vn 0 -326 1050
vn -73 371 468
vn 231 1176 199
vn 1011 109 -530
vn 206 -1147 -82
vn 868 -1193 95
vn 0 -1166 -198
vn 0 -1724 -62
vn 0 -816 206
vn 0 -796 296
vn 809 -525 98
vn -909 406 -317
vn 379 613 -508
vn 1317 137 465
vn -119 -1103 -194
vn -1296 61 480
vn -418 554 -585
vn 1255 -126 -540
vn -910 -1163 100
vn 0 -908 68
vn -878 -789 -35
vn -463 239 674
vn 1131 89 -430
vn 350 142 737
vn -1172 261 716
vn -709 -37 -652
vn 581 343 31
vn -156 242 481
vn -678 471 55
vn 20 50 -516
vn 0 0 -1410
vn -1228 -110 -729
vn 348 158 -963
vn 1431 13 315
vn -345 -110 407
vn -5 -224 141
vn -791 42 -402
vn -1525 174 -718
vn 493 238 -525
vn 1403 14 321
vn 152 -34 420
vn -331 145 -917
vn -1166 -88 558
vn -540 233 -488
vn 1501 113 -547
vn 821 27 -311
vn -1297 -26 488
vn -50 -111 704
vn 451 -408 863
vn -820 -18 456
vn -30 464 -520
vn 803 100 -168
vn 436 -172 750
vn 34 -305 332
vn 131 57 183
vn 1164 114 240
vn -95 -211 571
vn -748 117 -216
vn 72 454 -552
vn 64 139 72
usemtl m0
f 1 2 3

usemtl m1
f 1 3 4

usemtl m2
f 1 4 5

usemtl m3
f 1 5 6

usemtl m4
f 1 6 7

usemtl m5
f 1 7 8

usemtl m6
f 1 8 2

usemtl m7
f 2 8 9

usemtl m8
f 2 9 10

usemtl m9
f 2 10 11

usemtl m10
f 2 11 3

usemtl m11
f 3 11 12

usemtl m12
f 3 12 13

usemtl m13
f 3 13 14

usemtl m14
f 3 14 4

usemtl m15
f 4 14 5

usemtl m16
f 5 14 15

usemtl m17
f 5 15 16

usemtl m18
f 5 16 6

usemtl m19
f 6 16 17

usemtl m20
f 6 17 18

usemtl m21
f 6 18 7

usemtl m22
f 7 18 19

usemtl m23
f 7 19 20

usemtl m24
f 7 20 21

usemtl m25
f 7 21 8

usemtl m26
f 8 21 9

usemtl m27
f 9 21 22

usemtl m28
f 9 22 23

usemtl m29
f 9 23 24

usemtl m30
f 9 24 25

usemtl m31
f 9 25 26

usemtl m32
f 9 26 27

usemtl m33
f 9 27 10

usemtl m34
f 10 27 28

usemtl m35
f 10 28 29

usemtl m36
f 10 29 30

usemtl m37
f 10 30 31

usemtl m38
f 10 31 11

usemtl m39
f 11 31 12

usemtl m40
f 12 31 32

usemtl m41
f 12 32 33

usemtl m42
f 12 33 34

usemtl m43
f 12 34 13

usemtl m44
f 13 34 35

usemtl m45
f 13 35 30

usemtl m46
f 13 30 29

usemtl m47
f 13 29 14

usemtl m48
f 14 29 36

usemtl m49
f 14 36 37

usemtl m50
f 14 37 15

usemtl m51
f 34 38 35

usemtl m52
f 35 38 39

usemtl m53
f 35 39 31

usemtl m54
f 35 31 30

usemtl m55
f 34 33 38

usemtl m56
f 38 33 40

usemtl m57
f 38 40 41

usemtl m58
f 38 41 42

usemtl m59
f 38 42 39

usemtl m60
f 39 42 32

usemtl m61
f 39 32 31

usemtl m62
f 43 44 45

usemtl m63
f 43 45 46

usemtl m64
f 43 46 47

usemtl m65
f 43 47 40

usemtl m66
f 43 40 48

usemtl m67
f 43 48 42

usemtl m68
f 43 42 49

usemtl m69
f 43 49 44

usemtl m70
f 44 49 50

usemtl m71
f 44 50 51

usemtl m72
f 44 51 52

usemtl m73
f 44 52 45

usemtl m74
f 45 52 53

usemtl m75
f 45 53 54

usemtl m76
f 45 54 46

usemtl m77
f 46 54 50

usemtl m78
f 46 50 55

usemtl m79
f 46 55 47

usemtl m80
f 47 55 40

usemtl m81
f 40 55 41

usemtl m82
f 41 55 42

usemtl m83
f 42 55 49

usemtl m84
f 49 55 50

usemtl m85
f 42 48 32

usemtl m86
f 32 48 40

usemtl m87
f 32 40 33

usemtl m88
f 20 19 56

usemtl m89
f 20 56 57

usemtl m90
f 20 57 58

usemtl m91
f 20 58 59

usemtl m92
f 20 59 21

usemtl m93
f 21 59 22

usemtl m94
f 22 59 23

usemtl m95
f 23 59 60

usemtl m96
f 23 60 61

usemtl m97
f 23 61 24

usemtl m98
f 24 61 62

usemtl m99
f 24 62 25

usemtl m100
f 25 62 63

usemtl m101
f 25 63 64

usemtl m102
f 25 64 26

usemtl m103
f 26 64 65

usemtl m104
f 26 65 66

usemtl m105
f 26 66 67

usemtl m106
f 26 67 28

usemtl m107
f 26 28 27

usemtl m108
f 58 57 68

usemtl m109
f 58 68 69

usemtl m110
f 58 69 70

usemtl m111
f 58 70 71

usemtl m112
f 58 71 60

usemtl m113
f 58 60 59

usemtl m114
f 72 73 74

usemtl m115
f 72 74 75

usemtl m116
f 72 75 76

usemtl m117
f 72 76 77

usemtl m118
f 72 77 73

usemtl m119
f 73 77 78

usemtl m120
f 73 78 79

usemtl m121
f 73 79 74

usemtl m122
f 74 79 80

usemtl m123
f 74 80 81

usemtl m124
f 74 81 68

usemtl m125
f 74 68 82

usemtl m126
f 74 82 75

usemtl m127
f 75 82 83

usemtl m128
f 75 83 84

usemtl m129
f 75 84 76

usemtl m130
f 76 84 80

usemtl m131
f 76 80 79

usemtl m132
f 76 79 85

usemtl m133
f 76 85 86

usemtl m134
f 76 86 77

usemtl m135
f 77 86 87

usemtl m136
f 77 87 78

usemtl m137
f 78 87 88

usemtl m138
f 78 88 85

usemtl m139
f 78 85 79

usemtl m140
f 89 87 86

usemtl m141
f 89 86 90

usemtl m142
f 89 90 91

usemtl m143
f 89 91 92

usemtl m144
f 89 92 87

usemtl m145
f 87 92 93

usemtl m146
f 87 93 88

usemtl m147
f 88 93 94

usemtl m148
f 88 94 90

usemtl m149
f 88 90 85

usemtl m150
f 85 90 86

usemtl m151
f 94 91 90

usemtl m152
f 91 94 92

usemtl m153
f 92 94 93

usemtl m154
f 95 96 97

usemtl m155
f 95 97 98

usemtl m156
f 95 98 99

usemtl m157
f 95 99 100

usemtl m158
f 95 100 101

usemtl m159
f 95 101 96

usemtl m160
f 96 101 102

usemtl m161
f 96 102 103

usemtl m162
f 96 103 104

usemtl m163
f 96 104 97

usemtl m164
f 97 104 98

usemtl m165
f 98 104 56

usemtl m166
f 98 56 19

usemtl m167
f 98 19 105

usemtl m168
f 98 105 106

usemtl m169
f 98 106 107

usemtl m170
f 98 107 108

usemtl m171
f 98 108 99

usemtl m172
f 99 108 100

usemtl m173
f 100 108 109

usemtl m174
f 100 109 110

usemtl m175
f 100 110 101

usemtl m176
f 101 110 111

usemtl m177
f 101 111 102

usemtl m178
f 102 111 112

usemtl m179
f 102 112 103

usemtl m180
f 103 112 56

usemtl m181
f 103 56 104

usemtl m182
f 110 113 114

usemtl m183
f 110 114 115

usemtl m184
f 110 115 111

usemtl m185
f 111 115 116

usemtl m186
f 111 116 117

usemtl m187
f 111 117 118

usemtl m188
f 111 118 112

usemtl m189
f 112 118 82

usemtl m190
f 112 82 57

usemtl m191
f 112 57 56

usemtl m192
f 119 83 118

usemtl m193
f 119 118 117

usemtl m194
f 119 117 69

usemtl m195
f 119 69 81

usemtl m196
f 119 81 83

usemtl m197
f 83 81 84

usemtl m198
f 84 81 80

usemtl m199
f 83 82 118

usemtl m200
f 68 57 82

usemtl m201
f 108 107 113

usemtl m202
f 108 113 109

usemtl m203
f 109 113 110

usemtl m204
f 54 53 120

usemtl m205
f 54 120 51

usemtl m206
f 54 51 50

usemtl m207
f 121 120 53

usemtl m208
f 121 53 122

usemtl m209
f 121 122 123

usemtl m210
f 121 123 124

usemtl m211
f 121 124 120

usemtl m212
f 120 124 125

usemtl m213
f 120 125 126

usemtl m214
f 120 126 51

usemtl m215
f 51 126 52

usemtl m216
f 52 126 122

usemtl m217
f 52 122 53

usemtl m218
f 125 127 126

usemtl m219
f 126 127 122

usemtl m220
f 122 127 123

usemtl m221
f 123 127 124

usemtl m222
f 124 127 125

usemtl m223
f 81 69 68

usemtl m224
f 128 129 130

usemtl m225
f 128 130 131

usemtl m226
f 128 131 132

usemtl m227
f 128 132 133

usemtl m228
f 128 133 134

usemtl m229
f 128 134 129

usemtl m230
f 129 134 135

usemtl m231
f 129 135 136

usemtl m232
f 129 136 65

usemtl m233
f 129 65 130

usemtl m234
f 130 65 64

usemtl m235
f 130 64 63

usemtl m236
f 130 63 137

usemtl m237
f 130 137 131

usemtl m238
f 131 137 138

usemtl m239
f 131 138 132

usemtl m240
f 132 138 136

usemtl m241
f 132 136 135

usemtl m242
f 132 135 139

usemtl m243
f 132 139 133

usemtl m244
f 133 139 140

usemtl m245
f 133 140 141

usemtl m246
f 133 141 134

usemtl m247
f 134 141 142

usemtl m248
f 134 142 135

usemtl m249
f 135 142 143

usemtl m250
f 135 143 140

usemtl m251
f 135 140 139

usemtl m252
f 142 144 145

usemtl m253
f 142 145 143

usemtl m254
f 143 145 146

usemtl m255
f 143 146 140

usemtl m256
f 140 146 141

usemtl m257
f 141 146 147

usemtl m258
f 141 147 142

usemtl m259
f 142 147 144

usemtl m260
f 144 147 148

usemtl m261
f 144 148 149

usemtl m262
f 144 149 150

usemtl m263
f 144 150 145

usemtl m264
f 145 150 151

usemtl m265
f 145 151 146

usemtl m266
f 146 151 148

usemtl m267
f 146 148 147

usemtl m268
f 152 63 153

usemtl m269
f 152 153 154

usemtl m270
f 152 154 155

usemtl m271
f 152 155 156

usemtl m272
f 152 156 157

usemtl m273
f 152 157 67

usemtl m274
f 152 67 137

usemtl m275
f 152 137 63

usemtl m276
f 67 66 137

usemtl m277
f 137 66 138

usemtl m278
f 138 66 65

usemtl m279
f 138 65 136

usemtl m280
f 158 60 159

usemtl m281
f 158 159 160

usemtl m282
f 158 160 161

usemtl m283
f 158 161 162

usemtl m284
f 158 162 61

usemtl m285
f 158 61 60

usemtl m286
f 71 159 60

usemtl m287
f 159 71 163

usemtl m288
f 159 163 164

usemtl m289
f 159 164 160

usemtl m290
f 160 164 165

usemtl m291
f 160 165 166

usemtl m292
f 160 166 161

usemtl m293
f 161 166 167

usemtl m294
f 161 167 162

usemtl m295
f 162 167 168

usemtl m296
f 162 168 169

usemtl m297
f 162 169 61

usemtl m298
f 61 169 62

usemtl m299
f 62 169 154

usemtl m300
f 62 154 153

usemtl m301
f 62 153 63

usemtl m302
f 170 171 172

usemtl m303
f 170 172 173

usemtl m304
f 170 173 174

usemtl m305
f 170 174 175

usemtl m306
f 170 175 171

usemtl m307
f 171 175 176

usemtl m308
f 171 176 70

usemtl m309
f 171 70 177

usemtl m310
f 171 177 178

usemtl m311
f 171 178 179

usemtl m312
f 171 179 172

usemtl m313
f 172 179 180

usemtl m314
f 172 180 173

usemtl m315
f 173 180 181

usemtl m316
f 173 181 182

usemtl m317
f 173 182 174

usemtl m318
f 174 182 183

usemtl m319
f 174 183 179

usemtl m320
f 174 179 178

usemtl m321
f 174 178 184

usemtl m322
f 174 184 175

usemtl m323
f 175 184 185

usemtl m324
f 175 185 176

usemtl m325
f 176 185 186

usemtl m326
f 176 186 163

usemtl m327
f 176 163 71

usemtl m328
f 176 71 70

usemtl m329
f 180 179 183

usemtl m330
f 180 183 187

usemtl m331
f 180 187 181

usemtl m332
f 181 187 188

usemtl m333
f 181 188 189

usemtl m334
f 181 189 190

usemtl m335
f 181 190 182

usemtl m336
f 182 190 191

usemtl m337
f 182 191 183

usemtl m338
f 183 191 187

usemtl m339
f 187 191 192

usemtl m340
f 187 192 188

usemtl m341
f 188 192 189

usemtl m342
f 189 192 193

usemtl m343
f 189 193 190

usemtl m344
f 190 193 191

usemtl m345
f 191 193 192

usemtl m346
f 194 195 165

usemtl m347
f 194 165 164

usemtl m348
f 194 164 196

usemtl m349
f 194 196 197

usemtl m350
f 194 197 195

usemtl m351
f 195 197 198

usemtl m352
f 195 198 199

usemtl m353
f 195 199 200

usemtl m354
f 195 200 201

usemtl m355
f 195 201 202

usemtl m356
f 195 202 203

usemtl m357
f 195 203 165

usemtl m358
f 165 203 166

usemtl m359
f 166 203 204

usemtl m360
f 166 204 205

usemtl m361
f 166 205 167

usemtl m362
f 167 205 168

usemtl m363
f 168 205 206

usemtl m364
f 168 206 207

usemtl m365
f 168 207 208

usemtl m366
f 168 208 169

usemtl m367
f 169 208 154

usemtl m368
f 154 208 155

usemtl m369
f 196 186 117

usemtl m370
f 196 117 116

usemtl m371
f 196 116 197

usemtl m372
f 197 116 198

usemtl m373
f 198 116 115

usemtl m374
f 198 115 114

usemtl m375
f 198 114 199

usemtl m376
f 199 114 209

usemtl m377
f 199 209 200

usemtl m378
f 200 209 210

usemtl m379
f 200 210 211

usemtl m380
f 200 211 212

usemtl m381
f 200 212 213

usemtl m382
f 200 213 214

usemtl m383
f 200 214 201

usemtl m384
f 201 214 215

usemtl m385
f 201 215 212

usemtl m386
f 201 212 202

usemtl m387
f 202 212 114

usemtl m388
f 202 114 216

usemtl m389
f 202 216 217

usemtl m390
f 202 217 203

usemtl m391
f 203 217 204

usemtl m392
f 204 217 216

usemtl m393
f 204 216 106

usemtl m394
f 204 106 205

usemtl m395
f 205 106 218

usemtl m396
f 205 218 17

usemtl m397
f 205 17 206

usemtl m398
f 206 17 207

usemtl m399
f 207 17 16

usemtl m400
f 219 186 185

usemtl m401
f 219 185 177

usemtl m402
f 219 177 69

usemtl m403
f 219 69 117

usemtl m404
f 219 117 186

usemtl m405
f 196 164 163

usemtl m406
f 196 163 186

usemtl m407
f 184 177 185

usemtl m408
f 177 184 178

usemtl m409
f 148 220 149

usemtl m410
f 149 220 221

usemtl m411
f 149 221 222

usemtl m412
f 149 222 150

usemtl m413
f 150 222 223

usemtl m414
f 150 223 151

usemtl m415
f 151 223 220

usemtl m416
f 151 220 148

usemtl m417
f 221 220 224

usemtl m418
f 221 224 225

usemtl m419
f 221 225 222

usemtl m420
f 222 225 226

usemtl m421
f 222 226 223

usemtl m422
f 223 226 227

usemtl m423
f 223 227 220

usemtl m424
f 220 227 224

usemtl m425
f 224 227 226

usemtl m426
f 224 226 225

usemtl m427
f 177 70 69

usemtl m428
f 228 36 29

usemtl m429
f 228 29 28

usemtl m430
f 228 28 67

usemtl m431
f 228 67 157

usemtl m432
f 228 157 156

usemtl m433
f 218 18 17

usemtl m434
f 18 218 105

usemtl m435
f 18 105 19

usemtl m436
f 107 106 216

usemtl m437
f 107 216 114

usemtl m438
f 107 114 113

usemtl m439
f 228 37 36

usemtl m440
f 218 106 105

usemtl m441
f 114 212 209

usemtl m442
f 209 212 229

usemtl m443
f 209 229 210

usemtl m444
f 210 229 230

usemtl m445
f 210 230 231

usemtl m446
f 210 231 211

usemtl m447
f 211 231 232

usemtl m448
f 211 232 233

usemtl m449
f 211 233 212

usemtl m450
f 212 233 229

usemtl m451
f 229 233 232

usemtl m452
f 229 232 234

usemtl m453
f 229 234 230

usemtl m454
f 230 234 235

usemtl m455
f 230 235 236

usemtl m456
f 230 236 237

usemtl m457
f 230 237 231

usemtl m458
f 231 237 238

usemtl m459
f 231 238 232

usemtl m460
f 232 238 235

usemtl m461
f 232 235 234

usemtl m462
f 239 240 241

usemtl m463
f 239 241 242

usemtl m464
f 239 242 243

usemtl m465
f 239 243 215

usemtl m466
f 239 215 214

usemtl m467
f 239 214 244

usemtl m468
f 239 244 240

usemtl m469
f 240 244 245

usemtl m470
f 240 245 246

usemtl m471
f 240 246 247

usemtl m472
f 240 247 241

usemtl m473
f 241 247 248

usemtl m474
f 241 248 242

usemtl m475
f 242 248 249

usemtl m476
f 242 249 246

usemtl m477
f 242 246 245

usemtl m478
f 242 245 250

usemtl m479
f 242 250 243

usemtl m480
f 243 250 215

usemtl m481
f 215 250 251

usemtl m482
f 215 251 212

usemtl m483
f 212 251 213

usemtl m484
f 213 251 250

usemtl m485
f 213 250 244

usemtl m486
f 213 244 214

usemtl m487
f 247 246 252

usemtl m488
f 247 252 248

usemtl m489
f 248 252 249

usemtl m490
f 249 252 246

usemtl m491
f 244 250 245

usemtl m492
f 237 253 254

usemtl m493
f 237 254 238

usemtl m494
f 238 254 235

usemtl m495
f 235 254 255

usemtl m496
f 235 255 256

usemtl m497
f 235 256 236

usemtl m498
f 236 256 253

usemtl m499
f 236 253 237

usemtl m500
f 253 257 254

usemtl m501
f 254 257 255

usemtl m502
f 255 257 256

usemtl m503
f 256 257 253

