mtllib 1636.mtl
o runescapemodel
v 64 0 -8
v 64 16 -8
v 64 16 8
v 64 0 8
v 40 0 8
v 40 16 8
v 16 16 16
v 16 0 16
v -16 24 0
v -16 8 0
v -40 24 8
v -40 8 8
v -64 16 8
v -64 0 8
v -64 0 -8
v -64 16 -8
v -40 24 -8
v -40 8 -8
v -16 24 -16
v -16 8 -16
v 16 16 0
v 16 0 0
v 40 16 -8
v 40 0 -8
v 20 12 -6
v 20 12 -18
v 16 12 -30
v 4 12 -26
v -4 12 -18
v -4 12 -10
v 12 12 -2
v 48 16 8
v 44 16 12
v 44 16 20
v 52 16 32
v 60 16 20
v 60 16 12
v 56 16 8
v -48 16 -8
v -44 16 -12
v -44 16 -20
v -52 16 -32
v -60 16 -20
v -60 16 -12
v -56 16 -8
v -28 16 12
v -24 16 20
v -12 16 28
v -8 16 16
v -12 16 4
v -16 16 0
v -28 16 4
v -36 0 20
v -31 40 20
v -26 0 20
v -31 0 15
v -31 0 25
v 44 0 36
v 49 40 36
v 54 0 36
v 49 0 31
v 49 0 41
v 27 0 -24
v 32 80 -24
v 37 0 -24
v 32 0 -29
v 32 0 -19
v 20 0 -41
v 25 40 -41
v 30 0 -41
v 25 0 -46
v 25 0 -36
v 15 0 37
v 20 40 37
v 25 0 37
v 20 0 32
v 20 0 42
v 48 0 -27
v 53 40 -27
v 58 0 -27
v 53 0 -32
v 53 0 -22
v 48 0 -55
v 53 80 -55
v 58 0 -55
v 53 0 -60
v 53 0 -50
v -20 0 -36
v -20 40 -31
v -20 0 -26
v -15 0 -31
v -25 0 -31
v 36 0 15
v 36 72 20
v 36 0 25
v 41 0 20
v 31 0 20
v 7 0 -52
v 7 40 -47
v 7 0 -42
v 12 0 -47
v 2 0 -47
v -37 0 -28
v -37 40 -23
v -37 0 -18
v -32 0 -23
v -42 0 -23
v 27 0 48
v 27 40 53
v 27 0 58
v 32 0 53
v 22 0 53
v 45 0 52
v 45 80 57
v 45 0 62
v 50 0 57
v 40 0 57
v -64 0 -59
v -59 40 -59
v -54 0 -59
v -59 0 -64
v -59 0 -54
v -60 0 53
v -55 40 53
v -50 0 53
v -55 0 48
v -55 0 58
v -60 0 29
v -55 40 29
v -50 0 29
v -55 0 24
v -55 0 34
v 28 0 -55
v 33 40 -55
v 38 0 -55
v 33 0 -60
v 33 0 -50
v 3 0 44
v 3 40 49
v 3 0 54
v 8 0 49
v -2 0 49
v -13 0 -57
v -13 56 -53
v -13 0 -47
v -8 0 -52
v -18 0 -52
v -40 0 -60
v -40 40 -55
v -40 0 -50
v -35 0 -55
v -45 0 -55
v 0 0 -37
v 0 80 -32
v 0 0 -27
v 5 0 -32
v -5 0 -32
v -57 0 -40
v -57 40 -35
v -57 0 -30
v -52 0 -35
v -62 0 -35
v -26 0 43
v -21 40 43
v -16 0 43
v -21 0 38
v -21 0 48
v -36 0 28
v -36 96 33
v -36 0 38
v -31 0 33
v -41 0 33
v 3 0 16
v 3 40 21
v 3 0 26
v 8 0 21
v -2 0 21
vn 512 0 512
vn 256 -256 256
vn 512 -512 -512
vn 256 0 -256
vn 162 0 -998
vn 81 -768 -499
vn 172 -752 -715
vn -147 0 -701
vn -85 -504 -701
vn 48 0 -715
vn 0 -998 -742
vn 81 0 -755
vn -593 -243 -512
vn -256 0 -256
vn -512 0 512
vn -418 -486 256
vn -162 -499 755
vn -162 0 742
vn 76 -1008 715
vn 147 0 701
vn 209 -760 701
vn -48 0 715
vn -162 -768 998
vn -81 0 499
vn 0 -1280 0
vn 0 -256 0
vn 0 -512 0
vn 0 -512 0
vn 0 -512 0
vn 0 -512 0
vn 0 -256 0
vn 0 -1280 0
vn 0 -256 0
vn 0 -512 0
vn 0 -512 0
vn 0 -512 0
vn 0 -512 0
vn 0 -256 0
vn 0 -1280 0
vn 0 -256 0
vn 0 -512 0
vn 0 -512 0
vn 0 -512 0
vn 0 -512 0
vn 0 -256 0
vn 0 -1280 0
vn 0 -256 0
vn 0 -512 0
vn 0 -512 0
vn 0 -512 0
vn 0 -512 0
vn 0 -256 0
vn 0 0 0
vn 0 0 0
vn 0 0 0
vn 0 0 0
vn 0 0 0
vn 0 0 0
vn 0 0 0
vn 0 0 0
vn 0 0 0
vn 0 0 0
vn 0 0 0
vn 0 0 0
vn 0 0 0
vn 0 0 0
vn 0 0 0
vn 0 0 0
vn 0 0 0
vn 0 0 0
vn 0 0 0
vn 0 0 0
vn 0 0 0
vn 0 0 0
vn 0 0 0
vn 0 0 0
vn 0 0 0
vn 0 0 0
vn 0 0 0
vn 0 0 0
vn 0 0 0
vn 0 0 0
vn 0 0 0
vn 0 0 0
vn 0 0 0
vn 0 0 0
vn 0 0 0
vn 0 0 0
vn 0 0 0
vn 0 0 0
vn 0 0 0
vn 0 0 0
vn 0 0 0
vn 0 0 0
vn 0 0 0
vn 0 0 0
vn 0 0 0
vn 0 0 0
vn 0 0 0
vn 0 0 0
vn 0 0 0
vn 0 0 0
vn 0 0 0
vn 0 0 0
vn 0 0 0
vn 0 0 0
vn 0 0 0
vn 0 0 0
vn 0 0 0
vn 0 0 0
vn 0 0 0
vn 0 0 0
vn 0 0 0
vn 0 0 0
vn 0 0 0
vn 0 0 0
vn 0 0 0
vn 0 0 0
vn 0 0 0
vn 0 0 0
vn 0 0 0
vn 0 0 0
vn 0 0 0
vn 0 0 0
vn 0 0 0
vn 0 0 0
vn 0 0 0
vn 0 0 0
vn 0 0 0
vn 0 0 0
vn 0 0 0
vn 0 0 0
vn 0 0 0
vn 0 0 0
vn 0 0 0
vn 0 0 0
vn 0 0 0
vn 0 0 0
vn 0 0 0
vn 0 0 0
vn 0 0 0
vn 0 0 0
vn 0 0 0
vn 0 0 0
vn 0 0 0
vn 0 0 0
vn 0 0 0
vn 0 0 0
vn 0 0 0
vn 0 0 0
vn 0 0 0
vn 0 0 0
vn 0 0 0
vn 0 0 0
vn 0 0 0
vn 0 0 0
vn 0 0 0
vn 0 0 0
vn 0 0 0
vn 0 0 0
vn 0 0 0
vn 0 0 0
vn 0 0 0
vn 0 0 0
vn 0 0 0
vn 0 0 0
vn 0 0 0
vn 0 0 0
vn 0 0 0
vn 0 0 0
vn 0 0 0
vn 0 0 0
vn 0 0 0
vn 0 0 0
vn 0 0 0
vn 0 0 0
vn 0 0 0
usemtl m0
f 1 2 3

usemtl m1
f 1 3 4

usemtl m2
f 4 3 5

usemtl m3
f 5 3 6

usemtl m4
f 5 6 7

usemtl m5
f 5 7 8

usemtl m6
f 8 7 9

usemtl m7
f 8 9 10

usemtl m8
f 10 9 11

usemtl m9
f 10 11 12

usemtl m10
f 12 11 13

usemtl m11
f 12 13 14

usemtl m12
f 14 13 15

usemtl m13
f 15 13 16

usemtl m14
f 15 16 17

usemtl m15
f 15 17 18

usemtl m16
f 18 17 19

usemtl m17
f 18 19 20

usemtl m18
f 20 19 21

usemtl m19
f 20 21 22

usemtl m20
f 22 21 23

usemtl m21
f 22 23 24

usemtl m22
f 24 23 1

usemtl m23
f 1 23 2

usemtl m24
f 2 23 3

usemtl m25
f 3 23 6

usemtl m26
f 6 23 21

usemtl m27
f 6 21 7

usemtl m28
f 7 21 19

usemtl m29
f 7 19 9

usemtl m30
f 9 19 11

usemtl m31
f 11 19 17

usemtl m32
f 11 17 16

usemtl m33
f 11 16 13

usemtl m34
f 25 26 27

usemtl m35
f 25 27 28

usemtl m36
f 25 28 29

usemtl m37
f 25 29 30

usemtl m38
f 25 30 31

usemtl m39
f 32 33 34

usemtl m40
f 32 34 35

usemtl m41
f 32 35 36

usemtl m42
f 32 36 37

usemtl m43
f 32 37 38

usemtl m44
f 39 40 41

usemtl m45
f 39 41 42

usemtl m46
f 39 42 43

usemtl m47
f 39 43 44

usemtl m48
f 39 44 45

usemtl m49
f 46 47 48

usemtl m50
f 46 48 49

usemtl m51
f 46 49 50

usemtl m52
f 46 50 51

usemtl m53
f 46 51 52

usemtl m54
f 53 54 55

usemtl m55
f 53 55 54

usemtl m56
f 56 54 57

usemtl m57
f 56 57 54

usemtl m58
f 58 59 60

usemtl m59
f 58 60 59

usemtl m60
f 61 59 62

usemtl m61
f 61 62 59

usemtl m62
f 63 64 65

usemtl m63
f 63 65 64

usemtl m64
f 66 64 67

usemtl m65
f 66 67 64

usemtl m66
f 68 69 70

usemtl m67
f 68 70 69

usemtl m68
f 71 69 72

usemtl m69
f 71 72 69

usemtl m70
f 73 74 75

usemtl m71
f 73 75 74

usemtl m72
f 76 74 77

usemtl m73
f 76 77 74

usemtl m74
f 78 79 80

usemtl m75
f 78 80 79

usemtl m76
f 81 79 82

usemtl m77
f 81 82 79

usemtl m78
f 83 84 85

usemtl m79
f 83 85 84

usemtl m80
f 86 84 87

usemtl m81
f 86 87 84

usemtl m82
f 88 89 90

usemtl m83
f 88 90 89

usemtl m84
f 91 89 92

usemtl m85
f 91 92 89

usemtl m86
f 93 94 95

usemtl m87
f 93 95 94

usemtl m88
f 96 94 97

usemtl m89
f 96 97 94

usemtl m90
f 98 99 100

usemtl m91
f 98 100 99

usemtl m92
f 101 99 102

usemtl m93
f 101 102 99

usemtl m94
f 103 104 105

usemtl m95
f 103 105 104

usemtl m96
f 106 104 107

usemtl m97
f 106 107 104

usemtl m98
f 108 109 110

usemtl m99
f 108 110 109

usemtl m100
f 111 109 112

usemtl m101
f 111 112 109

usemtl m102
f 113 114 115

usemtl m103
f 113 115 114

usemtl m104
f 116 114 117

usemtl m105
f 116 117 114

usemtl m106
f 118 119 120

usemtl m107
f 118 120 119

usemtl m108
f 121 119 122

usemtl m109
f 121 122 119

usemtl m110
f 123 124 125

usemtl m111
f 123 125 124

usemtl m112
f 126 124 127

usemtl m113
f 126 127 124

usemtl m114
f 128 129 130

usemtl m115
f 128 130 129

usemtl m116
f 131 129 132

usemtl m117
f 131 132 129

usemtl m118
f 133 134 135

usemtl m119
f 133 135 134

usemtl m120
f 136 134 137

usemtl m121
f 136 137 134

usemtl m122
f 138 139 140

usemtl m123
f 138 140 139

usemtl m124
f 141 139 142

usemtl m125
f 141 142 139

usemtl m126
f 143 144 145

usemtl m127
f 143 145 144

usemtl m128
f 146 144 147

usemtl m129
f 146 147 144

usemtl m130
f 148 149 150

usemtl m131
f 148 150 149

usemtl m132
f 151 149 152

usemtl m133
f 151 152 149

usemtl m134
f 153 154 155

usemtl m135
f 153 155 154

usemtl m136
f 156 154 157

usemtl m137
f 156 157 154

usemtl m138
f 158 159 160

usemtl m139
f 158 160 159

usemtl m140
f 161 159 162

usemtl m141
f 161 162 159

usemtl m142
f 163 164 165

usemtl m143
f 163 165 164

usemtl m144
f 166 164 167

usemtl m145
f 166 167 164

usemtl m146
f 168 169 170

usemtl m147
f 168 170 169

usemtl m148
f 171 169 172

usemtl m149
f 171 172 169

usemtl m150
f 173 174 175

usemtl m151
f 173 175 174

usemtl m152
f 176 174 177

usemtl m153
f 176 177 174

