newmtl m0
Kd 0.3215686274509804 0.2549019607843137 0.17647058823529413
newmtl m1
Kd 0.3215686274509804 0.2549019607843137 0.17647058823529413
newmtl m2
Kd 0.3764705882352941 0.3254901960784314 0.27058823529411763
newmtl m3
Kd 0.3764705882352941 0.3254901960784314 0.27058823529411763
newmtl m4
Kd 0.3764705882352941 0.3254901960784314 0.27058823529411763
newmtl m5
Kd 0.3764705882352941 0.3254901960784314 0.27058823529411763
newmtl m6
Kd 0.3764705882352941 0.3254901960784314 0.27058823529411763
newmtl m7
Kd 0.3764705882352941 0.3254901960784314 0.27058823529411763
newmtl m8
Kd 0.3764705882352941 0.3254901960784314 0.27058823529411763
newmtl m9
Kd 0.3764705882352941 0.3254901960784314 0.27058823529411763
newmtl m10
Kd 0.3764705882352941 0.3254901960784314 0.27058823529411763
newmtl m11
Kd 0.3764705882352941 0.3254901960784314 0.27058823529411763
newmtl m12
Kd 0.3764705882352941 0.3254901960784314 0.27058823529411763
newmtl m13
Kd 0.3764705882352941 0.3254901960784314 0.27058823529411763
newmtl m14
Kd 0.3764705882352941 0.3254901960784314 0.27058823529411763
newmtl m15
Kd 0.3764705882352941 0.3254901960784314 0.27058823529411763
newmtl m16
Kd 0.3764705882352941 0.3254901960784314 0.27058823529411763
newmtl m17
Kd 0.3764705882352941 0.3254901960784314 0.27058823529411763
newmtl m18
Kd 0.3764705882352941 0.3254901960784314 0.27058823529411763
newmtl m19
Kd 0.3764705882352941 0.3254901960784314 0.27058823529411763
newmtl m20
Kd 0.3764705882352941 0.3254901960784314 0.27058823529411763
newmtl m21
Kd 0.3764705882352941 0.3254901960784314 0.27058823529411763
newmtl m22
Kd 0.3764705882352941 0.3254901960784314 0.27058823529411763
newmtl m23
Kd 0.3764705882352941 0.3254901960784314 0.27058823529411763
newmtl m24
Kd 0.3764705882352941 0.3254901960784314 0.27058823529411763
newmtl m25
Kd 0.3764705882352941 0.3254901960784314 0.27058823529411763
newmtl m26
Kd 0.3764705882352941 0.3254901960784314 0.27058823529411763
newmtl m27
Kd 0.3764705882352941 0.3254901960784314 0.27058823529411763
newmtl m28
Kd 0.3764705882352941 0.3254901960784314 0.27058823529411763
newmtl m29
Kd 0.3764705882352941 0.3254901960784314 0.27058823529411763
newmtl m30
Kd 0.3764705882352941 0.3254901960784314 0.27058823529411763
newmtl m31
Kd 0.3764705882352941 0.3254901960784314 0.27058823529411763
newmtl m32
Kd 0.3764705882352941 0.3254901960784314 0.27058823529411763
newmtl m33
Kd 0.3764705882352941 0.3254901960784314 0.27058823529411763
newmtl m34
Kd 0.3764705882352941 0.3254901960784314 0.27058823529411763
newmtl m35
Kd 0.3764705882352941 0.3254901960784314 0.27058823529411763
newmtl m36
Kd 0.3764705882352941 0.3254901960784314 0.27058823529411763
newmtl m37
Kd 0.3764705882352941 0.3254901960784314 0.27058823529411763
newmtl m38
Kd 0.3764705882352941 0.3254901960784314 0.27058823529411763
newmtl m39
Kd 0.3764705882352941 0.3254901960784314 0.27058823529411763
newmtl m40
Kd 0.3764705882352941 0.3254901960784314 0.27058823529411763
newmtl m41
Kd 0.3764705882352941 0.3254901960784314 0.27058823529411763
newmtl m42
Kd 0.3215686274509804 0.2549019607843137 0.17647058823529413
newmtl m43
Kd 0.3215686274509804 0.2549019607843137 0.17647058823529413
newmtl m44
Kd 0.3215686274509804 0.2549019607843137 0.17647058823529413
newmtl m45
Kd 0.3215686274509804 0.2549019607843137 0.17647058823529413
newmtl m46
Kd 0.3764705882352941 0.3254901960784314 0.27058823529411763
newmtl m47
Kd 0.3764705882352941 0.3254901960784314 0.27058823529411763
newmtl m48
Kd 0.3764705882352941 0.3254901960784314 0.27058823529411763
newmtl m49
Kd 0.3764705882352941 0.3254901960784314 0.27058823529411763
newmtl m50
Kd 0.3764705882352941 0.3254901960784314 0.27058823529411763
newmtl m51
Kd 0.3764705882352941 0.3254901960784314 0.27058823529411763
newmtl m52
Kd 0.3764705882352941 0.3254901960784314 0.27058823529411763
newmtl m53
Kd 0.3764705882352941 0.3254901960784314 0.27058823529411763
newmtl m54
Kd 0.3764705882352941 0.3254901960784314 0.27058823529411763
newmtl m55
Kd 0.3764705882352941 0.3254901960784314 0.27058823529411763
newmtl m56
Kd 0.3764705882352941 0.3254901960784314 0.27058823529411763
newmtl m57
Kd 0.3764705882352941 0.3254901960784314 0.27058823529411763
newmtl m58
Kd 0.3764705882352941 0.3254901960784314 0.27058823529411763
newmtl m59
Kd 0.3764705882352941 0.3254901960784314 0.27058823529411763
newmtl m60
Kd 0.3764705882352941 0.3254901960784314 0.27058823529411763
newmtl m61
Kd 0.3764705882352941 0.3254901960784314 0.27058823529411763
newmtl m62
Kd 0.3764705882352941 0.3254901960784314 0.27058823529411763
newmtl m63
Kd 0.3764705882352941 0.3254901960784314 0.27058823529411763
newmtl m64
Kd 0.3764705882352941 0.3254901960784314 0.27058823529411763
newmtl m65
Kd 0.3764705882352941 0.3254901960784314 0.27058823529411763
newmtl m66
Kd 0.3764705882352941 0.3254901960784314 0.27058823529411763
newmtl m67
Kd 0.3764705882352941 0.3254901960784314 0.27058823529411763
newmtl m68
Kd 0.3764705882352941 0.3254901960784314 0.27058823529411763
newmtl m69
Kd 0.3764705882352941 0.3254901960784314 0.27058823529411763
newmtl m70
Kd 0.3764705882352941 0.3254901960784314 0.27058823529411763
newmtl m71
Kd 0.3764705882352941 0.3254901960784314 0.27058823529411763
newmtl m72
Kd 0.3764705882352941 0.3254901960784314 0.27058823529411763
newmtl m73
Kd 0.3764705882352941 0.3254901960784314 0.27058823529411763
newmtl m74
Kd 0.3764705882352941 0.3254901960784314 0.27058823529411763
newmtl m75
Kd 0.3764705882352941 0.3254901960784314 0.27058823529411763
newmtl m76
Kd 0.3764705882352941 0.3254901960784314 0.27058823529411763
newmtl m77
Kd 0.3764705882352941 0.3254901960784314 0.27058823529411763
newmtl m78
Kd 0.3764705882352941 0.3254901960784314 0.27058823529411763
newmtl m79
Kd 0.3764705882352941 0.3254901960784314 0.27058823529411763
newmtl m80
Kd 0.3764705882352941 0.3254901960784314 0.27058823529411763
newmtl m81
Kd 0.3764705882352941 0.3254901960784314 0.27058823529411763
newmtl m82
Kd 0.3764705882352941 0.3254901960784314 0.27058823529411763
newmtl m83
Kd 0.3764705882352941 0.3254901960784314 0.27058823529411763
newmtl m84
Kd 0.3764705882352941 0.3254901960784314 0.27058823529411763
newmtl m85
Kd 0.3764705882352941 0.3254901960784314 0.27058823529411763
newmtl m86
Kd 0.3215686274509804 0.2549019607843137 0.17647058823529413
newmtl m87
Kd 0.3215686274509804 0.2549019607843137 0.17647058823529413
