mtllib 16755.mtl
o runescapemodel
v 0 240 -32
v -64 240 -64
v -64 221 -64
v -32 221 -48
v 0 221 -32
v 32 240 0
v 16 221 -16
v 32 221 0
v 64 240 64
v 48 221 32
v 64 221 64
v 64 205 64
v 48 205 32
v 64 195 64
v 32 205 0
v 48 195 32
v 64 187 64
v 32 195 0
v 48 187 32
v 64 183 64
v 48 183 32
v 32 187 0
v 32 183 0
v 16 187 -16
v 0 187 -32
v 16 183 -16
v 0 183 -32
v -32 187 -48
v -32 183 -48
v -64 187 -64
v -64 183 -64
v 0 205 -32
v -32 205 -48
v 0 195 -32
v 16 195 -16
v 16 205 -16
v -64 205 -64
v -32 195 -48
v -64 195 -64
vn -523 0 -868
vn -114 0 -229
vn -570 0 -1145
vn -456 0 -916
vn -1133 0 -1363
vn -772 0 -657
vn -724 0 -724
vn -1507 0 -932
vn -687 0 -342
vn -916 0 -456
vn -458 0 -228
vn -916 0 -456
vn -916 0 -456
vn -916 0 -456
vn -1640 0 -1180
vn -916 0 -456
vn -916 0 -456
vn -1640 0 -1180
vn -1145 0 -570
vn -458 0 -228
vn -687 0 -342
vn -1412 0 -1067
vn -775 0 -660
vn -726 0 -726
vn -1183 0 -1643
vn -364 0 -364
vn -410 0 -640
vn -570 0 -1145
vn -342 0 -687
vn -342 0 -687
vn -114 0 -229
vn -1180 0 -1640
vn -456 0 -916
vn -1180 0 -1640
vn -724 0 -724
vn -724 0 -724
vn -456 0 -916
vn -456 0 -916
vn -456 0 -916
usemtl m0
f 1 2 3

usemtl m1
f 1 3 4

usemtl m2
f 1 4 5

usemtl m3
f 1 5 6

usemtl m4
f 6 5 7

usemtl m5
f 6 7 8

usemtl m6
f 6 8 9

usemtl m7
f 9 8 10

usemtl m8
f 9 10 11

usemtl m9
f 11 10 12

usemtl m10
f 12 10 8

usemtl m11
f 12 8 13

usemtl m12
f 12 13 14

usemtl m13
f 14 13 15

usemtl m14
f 14 15 16

usemtl m15
f 14 16 17

usemtl m16
f 17 16 18

usemtl m17
f 17 18 19

usemtl m18
f 17 19 20

usemtl m19
f 20 19 21

usemtl m20
f 21 19 22

usemtl m21
f 21 22 23

usemtl m22
f 23 22 24

usemtl m23
f 23 24 25

usemtl m24
f 23 25 26

usemtl m25
f 26 25 27

usemtl m26
f 27 25 28

usemtl m27
f 27 28 29

usemtl m28
f 29 28 30

usemtl m29
f 29 30 31

usemtl m30
f 32 4 3

usemtl m31
f 32 3 33

usemtl m32
f 32 33 34

usemtl m33
f 32 34 35

usemtl m34
f 32 35 18

usemtl m35
f 32 18 36

usemtl m36
f 32 36 5

usemtl m37
f 32 5 4

usemtl m38
f 15 7 5

usemtl m39
f 15 5 36

usemtl m40
f 15 36 18

usemtl m41
f 15 18 16

usemtl m42
f 34 33 37

usemtl m43
f 34 37 38

usemtl m44
f 34 38 25

usemtl m45
f 34 25 24

usemtl m46
f 34 24 22

usemtl m47
f 34 22 35

usemtl m48
f 35 22 18

usemtl m49
f 18 22 19

usemtl m50
f 25 38 39

usemtl m51
f 25 39 28

usemtl m52
f 28 39 30

usemtl m53
f 15 8 7

usemtl m54
f 8 15 13

usemtl m55
f 37 33 3

usemtl m56
f 39 38 37

