newmtl m0
map_Kd sprite/449-0.png
newmtl m1
map_Kd sprite/449-0.png
newmtl m2
map_Kd sprite/449-0.png
newmtl m3
map_Kd sprite/449-0.png
newmtl m4
map_Kd sprite/449-0.png
newmtl m5
map_Kd sprite/449-0.png
newmtl m6
map_Kd sprite/449-0.png
newmtl m7
map_Kd sprite/449-0.png
newmtl m8
map_Kd sprite/449-0.png
newmtl m9
map_Kd sprite/449-0.png
newmtl m10
map_Kd sprite/449-0.png
newmtl m11
map_Kd sprite/449-0.png
newmtl m12
map_Kd sprite/449-0.png
newmtl m13
map_Kd sprite/449-0.png
newmtl m14
map_Kd sprite/449-0.png
newmtl m15
map_Kd sprite/449-0.png
newmtl m16
map_Kd sprite/449-0.png
newmtl m17
map_Kd sprite/449-0.png
newmtl m18
map_Kd sprite/449-0.png
newmtl m19
map_Kd sprite/449-0.png
