mtllib 16907.mtl
o runescapemodel
v -42 1 64
v -64 1 64
v -64 -7 64
v -42 -7 64
v -21 -7 64
v -21 1 64
v -64 1 57
v 1 -7 57
v -34 -7 57
v -34 1 57
v 1 1 57
v 29 1 57
v 29 -7 57
v 64 -7 57
v 64 1 57
v 42 1 64
v 64 1 64
v 42 -7 64
v 64 -7 64
v 1 1 64
v -64 -7 57
v 1 -7 64
v 21 1 64
v 21 -7 64
vn 0 -512 -1024
vn 0 -256 -256
vn 0 0 -512
vn 0 0 -512
vn 0 0 -1024
vn 0 -1024 -512
vn 0 -768 256
vn 0 0 1024
vn 0 0 512
vn 0 -512 1024
vn 0 -1280 512
vn 0 -512 1024
vn 0 0 512
vn 0 0 512
vn 0 -512 256
vn 0 -1024 -512
vn 0 -256 -512
vn 0 0 -1024
vn 0 0 -256
vn 0 -512 -768
vn 0 0 512
vn 0 0 -768
vn 0 -512 -1024
vn 0 0 -512
usemtl m0
f 1 2 3

usemtl m1
f 1 3 4

usemtl m2
f 1 4 5

usemtl m3
f 1 5 6

usemtl m4
f 1 6 7

usemtl m5
f 1 7 2

usemtl m6
f 8 9 10

usemtl m7
f 8 10 11

usemtl m8
f 8 11 12

usemtl m9
f 8 12 13

usemtl m10
f 13 12 14

usemtl m11
f 14 12 15

usemtl m12
f 15 12 16

usemtl m13
f 15 16 17

usemtl m14
f 17 16 18

usemtl m15
f 17 18 19

usemtl m16
f 6 20 11

usemtl m17
f 6 11 10

usemtl m18
f 6 10 7

usemtl m19
f 7 10 21

usemtl m20
f 21 10 9

usemtl m21
f 5 22 20

usemtl m22
f 5 20 6

usemtl m23
f 23 20 22

usemtl m24
f 23 22 24

usemtl m25
f 23 24 18

usemtl m26
f 23 18 16

usemtl m27
f 23 16 11

usemtl m28
f 23 11 20

usemtl m29
f 11 16 12

