mtllib 1718.mtl
o runescapemodel
v -23 207 -10
v -41 207 -7
v -87 162 -10
v -68 162 -15
v -23 207 -34
v -4 243 -34
v -4 243 -16
v -34 216 -14
v -49 229 -13
v -41 207 -34
v -84 162 -34
v -28 54 -46
v -37 49 4
v -4 63 8
v -68 157 -34
v -34 216 -29
v -10 256 -34
v -8 297 -34
v -1 288 -34
v -1 288 -16
v -10 256 -16
v -47 279 -34
v -47 279 -16
v -59 270 -22
v -49 229 -34
v -59 270 -34
v -97 288 -31
v -91 297 -31
v -91 297 -25
v -97 288 -25
v 9 72 -40
v 9 0 -64
v -66 0 -60
v -91 0 20
v -41 0 32
v -28 36 32
v -4 45 44
v 46 0 32
v 65 0 2
v 68 36 -18
v 65 36 -34
v -97 324 -25
v -99 310 -25
v -97 324 -31
v -99 310 -31
v 36 306 -25
v 24 310 -22
v -8 297 -16
v 36 306 -28
v 24 310 -28
v 65 0 -46
v 96 18 -58
v 100 0 -72
v 88 0 -56
v 84 27 -44
v 84 27 -30
v 98 18 -48
v 102 0 -48
v 84 0 -18
v -16 27 68
v -34 27 56
v -53 18 86
v -16 0 68
v 2 0 44
v -34 0 56
v -66 0 74
v -59 18 68
v -53 0 86
vn 731 365 -935
vn -431 -446 -654
vn -466 125 -617
vn 665 218 -733
vn 505 321 930
vn 707 255 768
vn 710 87 -757
vn 415 -545 -1186
vn -728 108 -694
vn -555 -166 963
vn -561 -309 812
vn -650 -121 840
vn -1087 -903 -915
vn 912 -1422 -849
vn 593 -148 677
vn -55 -507 1179
vn -820 -178 750
vn -413 -513 764
vn 673 188 759
vn 523 444 -762
vn -682 -279 -768
vn 585 -347 765
vn 275 -497 -713
vn -818 383 -714
vn -527 143 462
vn -366 499 745
vn -646 252 766
vn 432 -538 767
vn 511 -297 -748
vn -489 475 -767
vn 411 -590 828
vn 135 -306 951
vn -394 -398 322
vn -227 -303 -160
vn -501 -289 -389
vn -1001 -784 -405
vn 104 -800 -782
vn 401 -345 -433
vn 451 -350 -474
vn 771 -956 -510
vn 375 -914 653
vn -5 -91 -512
vn -1024 -26 -256
vn -10 -182 256
vn -512 -13 512
vn 294 -31 -499
vn 27 -947 -249
vn -509 -274 -755
vn 404 -82 251
vn 36 -558 503
vn -106 -237 682
vn 137 -646 399
vn 288 -215 214
vn -464 -210 550
vn 28 -876 650
vn 989 -833 -416
vn 810 -417 -49
vn 672 -158 -247
vn 562 -211 -467
vn 327 -719 -733
vn -630 -690 365
vn -128 -491 -618
vn 428 0 -613
vn 489 -37 -529
vn -605 -83 218
vn -376 -77 289
vn -569 -320 -40
vn -285 -116 -478
usemtl m0
f 1 2 3

usemtl m1
f 1 3 4

usemtl m2
f 1 4 5

usemtl m3
f 1 5 6

usemtl m4
f 1 6 7

usemtl m5
f 1 7 8

usemtl m6
f 1 8 2

usemtl m7
f 2 8 9

usemtl m8
f 2 9 10

usemtl m9
f 2 10 11

usemtl m10
f 2 11 3

usemtl m11
f 3 11 12

usemtl m12
f 3 12 13

usemtl m13
f 3 13 4

usemtl m14
f 4 13 14

usemtl m15
f 4 14 15

usemtl m16
f 4 15 5

usemtl m17
f 5 15 10

usemtl m18
f 5 10 16

usemtl m19
f 5 16 17

usemtl m20
f 5 17 6

usemtl m21
f 6 17 18

usemtl m22
f 6 18 19

usemtl m23
f 6 19 7

usemtl m24
f 7 19 20

usemtl m25
f 7 20 21

usemtl m26
f 7 21 8

usemtl m27
f 8 21 16

usemtl m28
f 8 16 22

usemtl m29
f 8 22 23

usemtl m30
f 8 23 9

usemtl m31
f 9 23 24

usemtl m32
f 9 24 25

usemtl m33
f 9 25 10

usemtl m34
f 10 25 16

usemtl m35
f 16 25 26

usemtl m36
f 16 26 22

usemtl m37
f 22 26 27

usemtl m38
f 22 27 28

usemtl m39
f 22 28 23

usemtl m40
f 23 28 29

usemtl m41
f 23 29 24

usemtl m42
f 24 29 30

usemtl m43
f 24 30 26

usemtl m44
f 24 26 25

usemtl m45
f 10 15 11

usemtl m46
f 11 15 31

usemtl m47
f 11 31 12

usemtl m48
f 12 31 32

usemtl m49
f 12 32 33

usemtl m50
f 12 33 13

usemtl m51
f 13 33 34

usemtl m52
f 13 34 35

usemtl m53
f 13 35 36

usemtl m54
f 13 36 37

usemtl m55
f 13 37 14

usemtl m56
f 14 37 38

usemtl m57
f 14 38 39

usemtl m58
f 14 39 40

usemtl m59
f 14 40 41

usemtl m60
f 14 41 31

usemtl m61
f 14 31 15

usemtl m62
f 42 43 30

usemtl m63
f 42 30 29

usemtl m64
f 42 29 44

usemtl m65
f 42 44 43

usemtl m66
f 43 44 45

usemtl m67
f 43 45 27

usemtl m68
f 43 27 30

usemtl m69
f 30 27 26

usemtl m70
f 45 44 28

usemtl m71
f 45 28 27

usemtl m72
f 44 29 28

usemtl m73
f 46 47 48

usemtl m74
f 46 48 20

usemtl m75
f 46 20 49

usemtl m76
f 46 49 47

usemtl m77
f 47 49 50

usemtl m78
f 47 50 18

usemtl m79
f 47 18 48

usemtl m80
f 48 18 17

usemtl m81
f 48 17 21

usemtl m82
f 48 21 20

usemtl m83
f 50 49 19

usemtl m84
f 50 19 18

usemtl m85
f 49 20 19

usemtl m86
f 21 17 16

usemtl m87
f 41 51 32

usemtl m88
f 41 32 31

usemtl m89
f 52 53 54

usemtl m90
f 52 54 55

usemtl m91
f 52 55 56

usemtl m92
f 52 56 57

usemtl m93
f 52 57 53

usemtl m94
f 53 57 58

usemtl m95
f 58 57 56

usemtl m96
f 58 56 59

usemtl m97
f 59 56 40

usemtl m98
f 59 40 39

usemtl m99
f 55 41 40

usemtl m100
f 55 40 56

usemtl m101
f 55 54 51

usemtl m102
f 55 51 41

usemtl m103
f 60 37 36

usemtl m104
f 60 36 61

usemtl m105
f 60 61 62

usemtl m106
f 60 62 63

usemtl m107
f 60 63 64

usemtl m108
f 60 64 37

usemtl m109
f 37 64 38

usemtl m110
f 36 35 65

usemtl m111
f 36 65 61

usemtl m112
f 61 65 66

usemtl m113
f 61 66 67

usemtl m114
f 61 67 62

usemtl m115
f 62 67 68

usemtl m116
f 62 68 63

usemtl m117
f 68 67 66

