mtllib 17514.mtl
o runescapemodel
v -17 144 -8
v -21 130 -9
v -34 130 -9
v -31 145 -6
v -16 153 -6
v -17 144 8
v -21 130 8
v -23 112 -10
v -37 112 -10
v -37 113 9
v -34 130 8
v -31 145 5
v -30 152 4
v -30 152 -5
v -16 163 -4
v -16 153 6
v -23 113 9
v -23 108 10
v -23 106 -12
v -39 106 -12
v -39 108 10
v -32 114 2
v -25 114 2
v -25 114 -4
v -32 114 -4
v -16 163 4
v -28 159 -4
v -28 159 4
v 34 130 -9
v 21 130 -9
v 17 144 -8
v 31 145 -6
v 31 145 5
v 34 130 8
v 37 113 9
v 37 112 -10
v 23 112 -10
v 21 130 8
v 17 144 8
v 16 153 -6
v 30 152 -5
v 30 152 4
v 23 113 9
v 39 108 10
v 39 106 -12
v 23 106 -12
v 23 108 10
v 28 159 -4
v 16 163 -4
v 16 163 4
v 28 159 4
v 16 153 6
v 25 114 2
v 32 114 2
v 32 114 -4
v 25 114 -4
vn 687 37 751
vn 501 66 512
vn -1038 -287 1017
vn -845 -274 748
vn 696 -91 751
vn 618 10 -744
vn 950 102 -1015
vn 1021 -52 755
vn -733 -395 756
vn -743 -260 -758
vn -503 -159 -508
vn -860 -243 -750
vn -885 -253 -747
vn -805 -304 755
vn 397 -332 502
vn 677 -91 -750
vn 510 -86 -761
vn 266 431 48
vn -240 154 300
vn -58 375 -128
vn -129 299 -356
vn 167 603 306
vn -496 339 147
vn -250 424 -362
vn 351 553 -197
vn 78 -536 -251
vn -422 -595 252
vn -628 -443 -504
vn 1038 -287 1017
vn -501 66 512
vn -687 37 751
vn 845 -274 748
vn 860 -243 -750
vn 503 -159 -508
vn 743 -260 -758
vn 733 -395 756
vn -1021 -52 755
vn -950 102 -1015
vn -618 10 -744
vn -696 -91 751
vn 805 -304 755
vn 885 -253 -747
vn -510 -86 -761
vn 303 315 -203
vn -130 371 53
vn -8 268 119
vn -15 305 -105
vn 422 -595 252
vn -397 -332 502
vn -78 -536 -251
vn 628 -443 -504
vn -677 -91 -750
vn 249 491 306
vn -372 558 137
vn -195 532 -362
vn 497 332 -187
usemtl m0
f 1 2 3

usemtl m1
f 1 3 4

usemtl m2
f 1 4 5

usemtl m3
f 1 5 6

usemtl m4
f 1 6 7

usemtl m5
f 1 7 2

usemtl m6
f 2 7 8

usemtl m7
f 2 8 3

usemtl m8
f 3 8 9

usemtl m9
f 3 9 10

usemtl m10
f 3 10 11

usemtl m11
f 3 11 12

usemtl m12
f 3 12 4

usemtl m13
f 4 12 13

usemtl m14
f 4 13 14

usemtl m15
f 4 14 5

usemtl m16
f 5 14 15

usemtl m17
f 5 15 16

usemtl m18
f 5 16 6

usemtl m19
f 6 16 13

usemtl m20
f 6 13 12

usemtl m21
f 6 12 7

usemtl m22
f 7 12 11

usemtl m23
f 7 11 10

usemtl m24
f 7 10 17

usemtl m25
f 7 17 8

usemtl m26
f 8 17 18

usemtl m27
f 8 18 19

usemtl m28
f 8 19 9

usemtl m29
f 9 19 20

usemtl m30
f 9 20 21

usemtl m31
f 9 21 10

usemtl m32
f 10 21 17

usemtl m33
f 17 21 18

usemtl m34
f 18 21 22

usemtl m35
f 18 22 23

usemtl m36
f 18 23 19

usemtl m37
f 19 23 24

usemtl m38
f 19 24 20

usemtl m39
f 20 24 25

usemtl m40
f 20 25 21

usemtl m41
f 21 25 22

usemtl m42
f 26 15 27

usemtl m43
f 26 27 28

usemtl m44
f 26 28 16

usemtl m45
f 26 16 15

usemtl m46
f 13 16 28

usemtl m47
f 13 28 14

usemtl m48
f 14 28 27

usemtl m49
f 14 27 15

usemtl m50
f 29 30 31

usemtl m51
f 29 31 32

usemtl m52
f 29 32 33

usemtl m53
f 29 33 34

usemtl m54
f 29 34 35

usemtl m55
f 29 35 36

usemtl m56
f 29 36 37

usemtl m57
f 29 37 30

usemtl m58
f 30 37 38

usemtl m59
f 30 38 31

usemtl m60
f 31 38 39

usemtl m61
f 31 39 40

usemtl m62
f 31 40 32

usemtl m63
f 32 40 41

usemtl m64
f 32 41 42

usemtl m65
f 32 42 33

usemtl m66
f 33 42 39

usemtl m67
f 33 39 38

usemtl m68
f 33 38 34

usemtl m69
f 34 38 35

usemtl m70
f 35 38 43

usemtl m71
f 35 43 44

usemtl m72
f 35 44 36

usemtl m73
f 36 44 45

usemtl m74
f 36 45 46

usemtl m75
f 36 46 37

usemtl m76
f 37 46 47

usemtl m77
f 37 47 43

usemtl m78
f 37 43 38

usemtl m79
f 48 49 50

usemtl m80
f 48 50 51

usemtl m81
f 48 51 41

usemtl m82
f 48 41 49

usemtl m83
f 49 41 40

usemtl m84
f 49 40 52

usemtl m85
f 49 52 50

usemtl m86
f 50 52 51

usemtl m87
f 51 52 42

usemtl m88
f 51 42 41

usemtl m89
f 39 42 52

usemtl m90
f 39 52 40

usemtl m91
f 44 47 53

usemtl m92
f 44 53 54

usemtl m93
f 44 54 45

usemtl m94
f 45 54 55

usemtl m95
f 45 55 46

usemtl m96
f 46 55 56

usemtl m97
f 46 56 47

usemtl m98
f 47 56 53

usemtl m99
f 44 43 47

