mtllib 17566.mtl
o runescapemodel
v 58 12 -64
v 51 12 -64
v -9 12 64
v -1 12 64
v 58 6 -64
v -1 6 64
v 51 6 -64
v -9 6 64
v 0 6 61
v -15 6 52
v -15 0 52
v 0 0 61
v 7 0 64
v 7 6 64
v 7 6 48
v -8 6 39
v -8 0 39
v 7 0 48
v 37 6 64
v 37 0 64
v -10 8 51
v -11 8 47
v -11 6 47
v -10 6 51
v -6 8 50
v -7 8 46
v -7 6 46
v -6 6 50
v 10 6 32
v -5 6 24
v -5 0 24
v 10 0 32
v 34 0 46
v 34 6 46
v 16 6 19
v -1 6 11
v -1 0 11
v 16 0 19
v 41 6 33
v 41 0 33
v 64 6 44
v 64 0 44
v 64 6 60
v 64 0 60
v 20 6 11
v 5 6 2
v 5 0 2
v 20 0 11
v 45 0 25
v 45 6 25
v 27 6 -2
v 12 6 -11
v 12 0 -11
v 27 0 -2
v 50 6 11
v 50 0 11
v 64 6 16
v 64 0 16
v 64 6 34
v 64 0 34
v 34 6 -14
v 17 6 -22
v 17 0 -22
v 34 0 -14
v 64 0 3
v 64 6 3
v 41 6 -29
v 26 6 -37
v 26 0 -37
v 41 0 -29
v 64 6 -13
v 64 0 -13
v 45 6 -37
v 29 6 -45
v 29 0 -45
v 45 0 -37
v 64 0 -28
v 64 6 -28
v 52 6 -50
v 36 6 -58
v 36 0 -58
v 52 0 -50
v 64 6 -45
v 64 0 -45
v 12 8 1
v 11 8 -3
v 11 6 -3
v 12 6 1
v 16 8 0
v 15 8 -4
v 15 6 -4
v 16 6 0
v 36 8 -46
v 35 8 -50
v 35 6 -50
v 36 6 -46
v 40 8 -47
v 39 8 -51
v 39 6 -51
v 40 6 -47
v 24 8 -24
v 22 8 -28
v 22 6 -28
v 24 6 -24
v 28 8 -25
v 26 8 -29
v 26 6 -29
v 28 6 -25
v 1 8 23
v 0 8 19
v 0 6 19
v 1 6 23
v 5 8 21
v 4 8 17
v 4 6 17
v 5 6 21
vn 232 -512 -107
vn -462 -256 216
vn -231 -512 108
vn 464 -256 -214
vn 464 0 -214
vn 232 0 -107
vn -231 0 108
vn -462 0 216
vn -468 -512 -918
vn -584 -512 23
vn -490 0 -320
vn -234 0 -459
vn -204 0 -476
vn -102 -512 -238
vn 252 -1024 446
vn 38 -256 564
vn -320 0 465
vn 504 0 892
vn 240 -256 450
vn 120 0 225
vn -448 -256 -384
vn -384 -512 448
vn -576 0 128
vn -128 0 -576
vn 384 -512 -448
vn 448 -256 384
vn 128 0 576
vn 576 0 -128
vn -498 -512 -894
vn -612 -512 -75
vn -486 0 -375
vn -249 0 -447
vn -366 0 -676
vn -345 -768 -686
vn 234 -1024 457
vn -28 -256 541
vn -383 0 383
vn 468 0 914
vn 361 -768 680
vn 347 0 688
vn 222 -256 464
vn 111 0 232
vn -108 -512 -232
vn -216 0 -464
vn -514 -512 -890
vn -584 -512 23
vn -490 0 -320
vn -257 0 -445
vn -359 0 -679
vn -343 -768 -686
vn 258 -1024 444
vn 38 -256 564
vn -320 0 465
vn 516 0 888
vn 338 -768 687
vn 298 0 705
vn 172 -256 482
vn 86 0 241
vn -109 -512 -231
vn -218 0 -462
vn -470 -512 -912
vn -551 -512 31
vn -439 0 -334
vn -235 0 -456
vn -252 0 -446
vn -126 -512 -223
vn 266 -1024 435
vn 19 -256 582
vn -322 0 489
vn 532 0 870
vn 292 -256 420
vn 146 0 210
vn -446 -512 -920
vn -566 -512 15
vn -454 0 -336
vn -223 0 -460
vn -218 0 -462
vn -109 -512 -231
vn 212 -1024 465
vn 2 -256 580
vn -338 0 473
vn 424 0 930
vn 196 -256 472
vn 98 0 236
vn -448 -256 -384
vn -384 -512 448
vn -576 0 128
vn -128 0 -576
vn 384 -512 -448
vn 448 -256 384
vn 128 0 576
vn 576 0 -128
vn -448 -256 -384
vn -384 -512 448
vn -576 0 128
vn -128 0 -576
vn 384 -512 -448
vn 448 -256 384
vn 128 0 576
vn 576 0 -128
vn -448 -256 -512
vn -384 -512 384
vn -576 0 0
vn -128 0 -640
vn 384 -512 -384
vn 448 -256 512
vn 128 0 640
vn 576 0 0
vn -384 -256 -384
vn -512 -512 448
vn -640 0 128
vn 0 0 -576
vn 512 -512 -448
vn 384 -256 384
vn 0 0 576
vn 640 0 -128
usemtl m0
f 1 2 3

usemtl m1
f 1 3 4

usemtl m2
f 1 4 5

usemtl m3
f 5 4 6

usemtl m4
f 2 7 8

usemtl m5
f 2 8 3

usemtl m6
f 9 10 11

usemtl m7
f 9 11 12

usemtl m8
f 9 12 13

usemtl m9
f 9 13 14

usemtl m10
f 9 14 15

usemtl m11
f 9 15 10

usemtl m12
f 10 15 16

usemtl m13
f 10 16 17

usemtl m14
f 10 17 11

usemtl m15
f 16 15 18

usemtl m16
f 16 18 17

usemtl m17
f 18 15 19

usemtl m18
f 18 19 20

usemtl m19
f 15 14 19

usemtl m20
f 21 22 23

usemtl m21
f 21 23 24

usemtl m22
f 21 24 25

usemtl m23
f 21 25 22

usemtl m24
f 22 25 26

usemtl m25
f 22 26 27

usemtl m26
f 22 27 23

usemtl m27
f 26 25 28

usemtl m28
f 26 28 27

usemtl m29
f 25 24 28

usemtl m30
f 29 30 31

usemtl m31
f 29 31 32

usemtl m32
f 29 32 33

usemtl m33
f 29 33 34

usemtl m34
f 29 34 35

usemtl m35
f 29 35 30

usemtl m36
f 30 35 36

usemtl m37
f 30 36 37

usemtl m38
f 30 37 31

usemtl m39
f 36 35 38

usemtl m40
f 36 38 37

usemtl m41
f 38 35 39

usemtl m42
f 38 39 40

usemtl m43
f 40 39 41

usemtl m44
f 40 41 42

usemtl m45
f 35 34 39

usemtl m46
f 39 34 43

usemtl m47
f 39 43 41

usemtl m48
f 34 33 44

usemtl m49
f 34 44 43

usemtl m50
f 45 46 47

usemtl m51
f 45 47 48

usemtl m52
f 45 48 49

usemtl m53
f 45 49 50

usemtl m54
f 45 50 51

usemtl m55
f 45 51 46

usemtl m56
f 46 51 52

usemtl m57
f 46 52 53

usemtl m58
f 46 53 47

usemtl m59
f 52 51 54

usemtl m60
f 52 54 53

usemtl m61
f 54 51 55

usemtl m62
f 54 55 56

usemtl m63
f 56 55 57

usemtl m64
f 56 57 58

usemtl m65
f 51 50 55

usemtl m66
f 55 50 59

usemtl m67
f 55 59 57

usemtl m68
f 50 49 60

usemtl m69
f 50 60 59

usemtl m70
f 61 62 63

usemtl m71
f 61 63 64

usemtl m72
f 61 64 65

usemtl m73
f 61 65 66

usemtl m74
f 61 66 67

usemtl m75
f 61 67 62

usemtl m76
f 62 67 68

usemtl m77
f 62 68 69

usemtl m78
f 62 69 63

usemtl m79
f 68 67 70

usemtl m80
f 68 70 69

usemtl m81
f 70 67 71

usemtl m82
f 70 71 72

usemtl m83
f 67 66 71

usemtl m84
f 73 74 75

usemtl m85
f 73 75 76

usemtl m86
f 73 76 77

usemtl m87
f 73 77 78

usemtl m88
f 73 78 79

usemtl m89
f 73 79 74

usemtl m90
f 74 79 80

usemtl m91
f 74 80 81

usemtl m92
f 74 81 75

usemtl m93
f 80 79 82

usemtl m94
f 80 82 81

usemtl m95
f 82 79 83

usemtl m96
f 82 83 84

usemtl m97
f 79 78 83

usemtl m98
f 85 86 87

usemtl m99
f 85 87 88

usemtl m100
f 85 88 89

usemtl m101
f 85 89 86

usemtl m102
f 86 89 90

usemtl m103
f 86 90 91

usemtl m104
f 86 91 87

usemtl m105
f 90 89 92

usemtl m106
f 90 92 91

usemtl m107
f 89 88 92

usemtl m108
f 93 94 95

usemtl m109
f 93 95 96

usemtl m110
f 93 96 97

usemtl m111
f 93 97 94

usemtl m112
f 94 97 98

usemtl m113
f 94 98 99

usemtl m114
f 94 99 95

usemtl m115
f 98 97 100

usemtl m116
f 98 100 99

usemtl m117
f 97 96 100

usemtl m118
f 101 102 103

usemtl m119
f 101 103 104

usemtl m120
f 101 104 105

usemtl m121
f 101 105 102

usemtl m122
f 102 105 106

usemtl m123
f 102 106 107

usemtl m124
f 102 107 103

usemtl m125
f 106 105 108

usemtl m126
f 106 108 107

usemtl m127
f 105 104 108

usemtl m128
f 109 110 111

usemtl m129
f 109 111 112

usemtl m130
f 109 112 113

usemtl m131
f 109 113 110

usemtl m132
f 110 113 114

usemtl m133
f 110 114 115

usemtl m134
f 110 115 111

usemtl m135
f 114 113 116

usemtl m136
f 114 116 115

usemtl m137
f 113 112 116

