mtllib 1793.mtl
o runescapemodel
v 12 128 16
v 72 128 16
v 72 136 16
v 12 136 16
v 12 144 8
v 12 120 8
v 72 120 8
v 12 120 0
v 72 120 0
v 12 128 -8
v 72 128 -8
v 12 136 -8
v 72 136 -8
v 12 144 0
v 72 144 0
v 72 144 8
vn -512 181 -693
vn 0 362 -618
vn 0 -181 -693
vn -256 -362 -618
vn -1536 -693 -181
vn -512 618 -362
vn 0 693 -181
vn -512 693 181
vn 0 618 362
vn -512 362 618
vn 0 181 693
vn -512 -181 693
vn 0 -362 618
vn -256 -618 362
vn 0 -693 181
vn 0 -618 -362
usemtl m0
f 1 2 3

usemtl m1
f 1 3 4

usemtl m2
f 1 4 5

usemtl m3
f 1 5 6

usemtl m4
f 1 6 2

usemtl m5
f 2 6 7

usemtl m6
f 7 6 8

usemtl m7
f 7 8 9

usemtl m8
f 9 8 10

usemtl m9
f 9 10 11

usemtl m10
f 11 10 12

usemtl m11
f 11 12 13

usemtl m12
f 13 12 14

usemtl m13
f 13 14 15

usemtl m14
f 15 14 5

usemtl m15
f 15 5 16

usemtl m16
f 16 5 4

usemtl m17
f 16 4 3

usemtl m18
f 5 14 12

usemtl m19
f 5 12 10

usemtl m20
f 5 10 8

usemtl m21
f 5 8 6

