mtllib 17944.mtl
o runescapemodel
v -58 245 -110
v -58 248 -128
v -57 213 -128
v -57 215 -110
v -47 209 -108
v -52 246 -108
v -52 249 -128
v -58 248 0
v -58 246 -36
v -57 215 -42
v -57 213 -16
v -57 213 0
v -57 213 16
v -58 246 36
v -52 249 0
v -52 248 -37
v -47 215 -42
v -49 203 -116
v -49 206 -128
v -48 181 -128
v -48 184 -118
v -44 185 -115
v -47 204 -114
v -47 207 -128
v -52 202 -29
v -52 201 -56
v -49 182 -60
v -49 183 -52
v -44 183 -50
v -47 202 -27
v -47 209 -35
v -47 204 -63
v -44 184 -64
v -53 104 -111
v -53 105 -128
v -53 76 -128
v -53 78 -111
v -48 75 -108
v -45 105 -109
v -45 106 -128
v -59 107 -86
v -59 105 -104
v -59 76 -105
v -59 72 -89
v -59 74 -76
v -59 105 -72
v -45 106 -77
v -45 108 -107
v -58 41 -128
v -57 43 -114
v -57 70 -114
v -58 74 -128
v -48 72 -111
v -48 75 -128
v -48 42 -110
v -64 32 -111
v -64 39 -128
v -64 6 -128
v -64 6 -110
v -56 6 -107
v -48 38 -108
v -48 40 -128
v -62 35 -78
v -62 37 -90
v -65 4 -104
v -63 3 -87
v -63 4 -72
v -43 41 -69
v -53 40 -83
v -48 38 -106
v -62 34 -104
v -63 261 -128
v -55 262 -94
v -55 289 -94
v -63 292 -128
v -56 293 -85
v -56 293 -128
v -45 293 -128
v -43 290 -78
v -41 272 0
v -38 272 -78
v -41 272 -128
v -35 272 0
v -32 272 -78
v -35 272 -128
v -28 291 -78
v -31 293 -128
v -20 293 -128
v -20 293 0
v -24 259 0
v -24 259 -128
v -33 249 0
v -33 249 -128
v -39 213 -15
v -39 213 -128
v -39 176 -56
v -39 179 -128
v -39 106 -77
v -39 106 -128
v -39 75 -82
v -39 75 -128
v -39 0 -78
v -39 0 -128
v -56 270 -85
v -59 258 -82
v -59 254 -53
v -59 287 -24
v -59 287 -82
v -56 293 -21
v -56 270 -21
v -62 268 -17
v -63 289 -18
v -56 293 0
v -45 293 0
v -59 258 -24
v -63 261 0
v -63 292 0
v -56 293 21
v -43 290 78
v -49 199 -71
v -49 200 -103
v -48 183 -107
v -48 179 -79
v -48 182 -70
v -44 185 -68
v -47 200 -69
v -47 206 -80
v -47 203 -106
v -44 187 -110
v -54 170 -87
v -48 169 -125
v -50 147 -122
v -56 146 -103
v -56 149 -87
v -46 150 -85
v -45 172 -83
v -45 177 -110
v -45 171 -128
v -46 149 -125
v -50 169 -64
v -49 171 -74
v -51 145 -80
v -51 145 -70
v -46 149 -65
v -45 173 -59
v -44 176 -69
v -44 174 -78
v -46 148 -82
v -51 245 -46
v -51 243 -97
v -49 213 -100
v -49 209 -72
v -49 212 -50
v -44 215 -46
v -47 246 -46
v -47 248 -74
v -47 246 -100
v -44 215 -103
v -56 0 -128
v -56 0 -79
v -48 75 -82
v -44 176 -56
v -44 179 -128
v -47 213 -15
v -47 213 15
v -52 249 128
v -56 293 128
v -41 40 -81
v -39 4 -68
v -43 76 -76
v -43 105 -72
v -31 293 0
v -28 291 78
v -20 293 128
v -24 259 128
v -33 249 128
v -39 213 128
v -39 213 15
v -44 176 56
v -47 207 128
v -55 135 -76
v -49 134 -119
v -51 112 -122
v -57 111 -103
v -57 114 -82
v -47 115 -80
v -46 137 -72
v -46 142 -98
v -46 136 -122
v -47 114 -125
v -57 66 -93
v -56 65 -101
v -58 42 -102
v -58 42 -92
v -47 45 -84
v -46 68 -86
v -45 70 -93
v -45 68 -105
v -47 45 -104
v -41 248 0
v -41 213 0
v -41 213 -15
v -41 213 15
v -38 272 78
v -32 272 78
v -31 293 128
v -58 248 128
v -58 245 110
v -57 215 110
v -57 213 128
v -52 246 108
v -47 209 108
v -57 215 42
v -47 215 42
v -52 248 37
v -49 206 128
v -49 203 116
v -48 184 118
v -48 181 128
v -47 204 114
v -44 185 115
v -52 201 56
v -52 202 29
v -49 183 52
v -49 182 60
v -44 184 64
v -47 204 63
v -47 209 35
v -47 202 27
v -44 183 50
v -53 105 128
v -53 104 111
v -53 78 111
v -53 76 128
v -45 105 109
v -48 75 108
v -45 106 128
v -59 105 104
v -59 107 86
v -59 72 89
v -59 76 105
v -45 108 107
v -45 106 77
v -43 105 72
v -59 105 72
v -59 74 76
v -43 76 76
v -39 106 77
v -39 75 82
v -39 75 128
v -39 0 128
v -39 0 78
v -56 0 79
v -48 75 82
v -39 176 56
v -39 106 128
v -57 43 114
v -58 41 128
v -58 74 128
v -57 70 114
v -48 72 111
v -48 42 110
v -48 75 128
v -64 39 128
v -64 32 111
v -64 6 110
v -64 6 128
v -48 38 108
v -56 6 107
v -48 40 128
v -62 37 90
v -62 35 78
v -63 3 87
v -65 4 104
v -62 34 104
v -48 38 106
v -53 40 83
v -43 41 69
v -63 4 72
v -55 262 94
v -63 261 128
v -63 292 128
v -55 289 94
v -56 293 85
v -56 270 85
v -59 287 82
v -59 258 82
v -59 254 53
v -59 287 24
v -59 258 24
v -56 270 21
v -63 289 18
v -62 268 17
v -49 200 103
v -49 199 71
v -48 179 79
v -48 183 107
v -44 187 110
v -47 203 106
v -47 206 80
v -47 200 69
v -48 182 70
v -44 185 68
v -48 169 125
v -54 170 87
v -56 146 103
v -50 147 122
v -46 149 125
v -45 171 128
v -45 177 110
v -45 172 83
v -56 149 87
v -46 150 85
v -49 171 74
v -50 169 64
v -51 145 70
v -51 145 80
v -46 148 82
v -44 174 78
v -44 176 69
v -45 173 59
v -46 149 65
v -51 243 97
v -51 245 46
v -49 209 72
v -49 213 100
v -44 215 103
v -47 246 100
v -47 248 74
v -47 246 46
v -49 212 50
v -44 215 46
v -56 0 128
v -44 179 128
v -39 179 128
v -41 40 81
v -39 4 68
v -45 293 128
v -41 272 128
v -35 272 128
v -49 134 119
v -55 135 76
v -57 111 103
v -51 112 122
v -47 114 125
v -46 136 122
v -46 142 98
v -46 137 72
v -57 114 82
v -47 115 80
v -56 65 101
v -57 66 93
v -58 42 92
v -58 42 102
v -47 45 104
v -45 68 105
v -45 70 93
v -46 68 86
v -47 45 84
vn -736 -472 -571
vn -297 -244 -40
vn -512 15 1
vn -307 9 -250
vn -130 11 -494
vn -132 -237 -281
vn -856 -422 -78
vn -1447 -710 5
vn -395 -279 258
vn -568 -68 498
vn -512 14 0
vn -512 14 0
vn -768 22 0
vn -687 -557 -520
vn -1688 -283 -251
vn -181 -577 517
vn 0 -38 253
vn -1095 -348 -500
vn -369 -217 -54
vn -512 23 -2
vn -404 42 -211
vn -320 66 -397
vn -322 -173 -235
vn -1024 -345 -103
vn -1048 -59 -447
vn -600 -173 155
vn -869 100 345
vn -313 242 -158
vn -122 392 -306
vn -127 7 -318
vn -282 -323 -142
vn -719 -334 381
vn -156 13 202
vn -773 -522 -494
vn -287 -254 -14
vn -512 0 0
vn -388 0 -220
vn -261 -27 -220
vn -98 -268 -260
vn -832 -538 -27
vn -1081 -756 -26
vn -370 -256 276
vn -633 -21 496
vn -512 0 0
vn -508 32 -253
vn -257 -438 -592
vn -762 -914 -905
vn -173 -524 506
vn -511 0 -36
vn -360 0 -252
vn -773 -242 -584
vn -356 -485 -134
vn -183 -493 -358
vn -787 -326 -44
vn -186 -8 -476
vn -762 -503 -608
vn -270 -236 -97
vn -512 0 0
vn -345 -9 -239
vn -229 -59 -248
vn -147 -258 -272
vn -107 -473 -120
vn -1088 -536 -344
vn -746 -763 48
vn -886 -78 466
vn -510 -8 -29
vn -417 -56 -473
vn 250 -577 -536
vn -257 -964 -38
vn -254 -519 577
vn -366 -268 309
vn -498 0 -116
vn -503 0 -30
vn -1218 138 -97
vn -497 -115 -95
vn -987 -984 341
vn -290 -486 0
vn 790 -632 4
vn 629 -780 3
vn 1237 -753 11
vn 486 -147 6
vn 251 -303 15
vn -1002 -966 0
vn -500 -616 -6
vn -500 -355 -31
vn -1063 -958 -16
vn -250 -303 -26
vn 446 -446 -10
vn 638 -921 0
vn 1332 600 0
vn 634 371 0
vn 1326 933 236
vn 694 255 0
vn 760 470 -643
vn 764 42 0
vn 768 453 -587
vn 768 0 0
vn 969 -45 -950
vn 768 0 0
vn 1180 111 -1062
vn 768 0 0
vn 1003 -66 -541
vn 256 0 0
vn -690 0 238
vn -875 0 363
vn -512 0 0
vn -1360 -114 -363
vn -895 -228 181
vn -928 -1195 279
vn -505 0 -149
vn -747 27 465
vn -511 -445 277
vn -960 -1169 41
vn 536 -1116 0
vn -437 0 -181
vn -767 13 -5
vn -976 -705 19
vn -791 -1341 84
vn 867 -937 12
vn -1695 -316 -504
vn -688 -149 125
vn -897 -9 326
vn -512 26 -3
vn -374 8 -231
vn -294 16 -414
vn -349 -143 -277
vn -421 -226 -83
vn -845 -242 328
vn -165 -18 196
vn -1342 -666 -341
vn -591 -205 254
vn -812 -55 504
vn -491 -91 75
vn -305 -28 -247
vn -150 12 -486
vn -173 -226 -279
vn -288 -374 0
vn -700 -299 467
vn -146 21 209
vn -1327 -511 -408
vn -539 -308 163
vn -801 -131 423
vn -417 32 -195
vn -322 84 -390
vn -341 -138 -231
vn -385 -331 -3
vn -606 -478 401
vn -116 -43 225
vn -1332 -530 -463
vn -570 -194 208
vn -802 12 420
vn -510 27 -1
vn -401 49 -210
vn -146 34 -464
vn -62 -249 -273
vn -264 -406 -5
vn -651 -376 438
vn -134 -8 218
vn -508 -54 0
vn -269 -38 -255
vn -777 -62 -764
vn -767 349 -661
vn -765 43 -1
vn -762 559 -580
vn -762 472 645
vn -802 -163 38
vn -791 -399 30
vn 255 -271 -20
vn 212 -29 -242
vn 215 86 -650
vn 412 -429 -654
vn -502 -606 0
vn -813 -911 2
vn 192 -475 10
vn 698 229 0
vn 632 384 0
vn 760 84 0
vn 764 520 578
vn -765 498 587
vn -878 -153 50
vn -1297 -589 -351
vn -602 -265 226
vn -834 -194 461
vn -482 -119 70
vn -296 40 -241
vn -126 144 -473
vn -158 -162 -275
vn -279 -389 -9
vn -719 -419 422
vn -163 -33 194
vn -1041 -790 -359
vn -424 -282 312
vn -644 -44 524
vn -409 -24 -204
vn -293 -38 -417
vn -219 -262 -269
vn -159 -478 -16
vn -295 -492 570
vn -44 7 252
vn 512 0 0
vn 512 0 0
vn 256 0 0
vn 256 0 0
vn 743 -951 -11
vn -751 -919 23
vn -501 -355 42
vn -607 -482 77
vn -390 -236 283
vn -646 24 492
vn -256 7 0
vn -229 -488 571
vn -54 7 250
vn -256 -40 -251
vn -51 -78 -500
vn -133 -272 -255
vn -780 -412 100
vn -582 -163 236
vn -832 85 396
vn -256 10 3
vn -588 -373 496
vn -147 34 208
vn -1247 -249 -385
vn -589 -97 314
vn -628 474 312
vn -418 26 -192
vn -367 7 -352
vn -367 -171 -189
vn -440 -527 126
vn -188 203 471
vn -61 196 153
vn -578 -508 27
vn -353 -254 262
vn -697 -19 472
vn -256 0 0
vn -251 -527 499
vn -245 -39 -272
vn -795 -305 13
vn -648 -522 -508
vn -495 -756 65
vn -1024 0 0
vn -322 -8 -247
vn -106 -262 -233
vn -799 -853 839
vn 186 -672 807
vn -512 -221 289
vn -252 67 506
vn 415 79 554
vn 1179 -59 1103
vn 963 40 908
vn 768 0 0
vn 512 0 0
vn 497 -25 251
vn -523 -77 511
vn -762 -5 762
vn 768 336 661
vn 768 0 0
vn -695 -7 513
vn -255 0 18
vn -535 -245 107
vn -429 -488 374
vn -252 -250 519
vn -103 -7 234
vn -854 -566 113
vn -626 -472 115
vn -405 -227 341
vn -651 -38 489
vn -256 0 0
vn -253 -510 604
vn -212 -55 -256
vn -15 -254 25
vn -1001 -759 -20
vn -835 -522 313
vn -766 -25 31
vn -590 -43 -217
vn -452 -291 -550
vn -172 -505 -336
vn -257 -964 38
vn -5 -563 545
vn -417 -56 473
vn -1006 0 60
vn -249 0 58
vn -533 -251 146
vn -786 -189 60
vn -1289 -921 -225
vn -617 0 -391
vn -1104 -114 -363
vn -437 0 -181
vn -768 0 0
vn -1151 -228 181
vn -619 0 363
vn -420 16 -268
vn -886 -184 -505
vn -393 29 -235
vn -1363 -208 -346
vn -1112 -212 278
vn -768 40 2
vn -429 -19 -188
vn -386 -30 -331
vn -433 -128 -160
vn -638 -369 77
vn -466 -159 504
vn -549 20 418
vn -111 6 232
vn -1201 -350 -607
vn -888 -469 197
vn -747 -82 -120
vn -393 3 -284
vn -325 31 -396
vn -353 -160 -247
vn -457 -565 -51
vn -226 -232 528
vn -408 -14 480
vn -48 20 251
vn -1150 -510 -452
vn -784 -327 224
vn -832 49 368
vn -378 -78 -217
vn -294 -100 -401
vn -329 -243 -228
vn -526 -555 7
vn -502 -96 426
vn -161 42 195
vn -1145 -364 -444
vn -748 -368 266
vn -765 45 0
vn -390 4 -219
vn -291 -16 -420
vn -317 -204 -218
vn -406 -627 -5
vn -209 -205 475
vn -402 59 460
vn -154 14 204
vn -254 -27 0
vn -766 21 -1
vn 768 0 0
vn 510 -296 15
vn 465 -42 287
vn 547 -621 -7
vn 251 -559 -15
vn -251 -303 15
vn -1211 -507 -546
vn -863 -425 210
vn -742 -117 -112
vn -406 -73 -266
vn -354 -72 -360
vn -360 -217 -214
vn -443 -584 -31
vn -203 -99 517
vn -383 117 468
vn -39 84 238
vn -805 -525 -603
vn -552 -501 198
vn -803 -69 385
vn -305 -37 -250
vn -135 -13 -491
vn -166 -239 -281
vn -239 -719 -24
vn -372 -276 473
vn -154 -24 203
usemtl m0
f 1 2 3

usemtl m1
f 1 3 4

usemtl m2
f 1 4 5

usemtl m3
f 1 5 6

usemtl m4
f 1 6 7

usemtl m5
f 1 7 2

usemtl m6
f 8 9 10

usemtl m7
f 8 10 11

usemtl m8
f 8 11 12

usemtl m9
f 8 12 13

usemtl m10
f 8 13 14

usemtl m11
f 8 14 15

usemtl m12
f 8 15 16

usemtl m13
f 8 16 9

usemtl m14
f 9 16 10

usemtl m15
f 10 16 17

usemtl m16
f 18 19 20

usemtl m17
f 18 20 21

usemtl m18
f 18 21 22

usemtl m19
f 18 22 23

usemtl m20
f 18 23 24

usemtl m21
f 18 24 19

usemtl m22
f 25 26 27

usemtl m23
f 25 27 28

usemtl m24
f 25 28 29

usemtl m25
f 25 29 30

usemtl m26
f 25 30 31

usemtl m27
f 25 31 32

usemtl m28
f 25 32 26

usemtl m29
f 26 32 27

usemtl m30
f 27 32 33

usemtl m31
f 34 35 36

usemtl m32
f 34 36 37

usemtl m33
f 34 37 38

usemtl m34
f 34 38 39

usemtl m35
f 34 39 40

usemtl m36
f 34 40 35

usemtl m37
f 41 42 43

usemtl m38
f 41 43 44

usemtl m39
f 41 44 45

usemtl m40
f 41 45 46

usemtl m41
f 41 46 47

usemtl m42
f 41 47 48

usemtl m43
f 41 48 42

usemtl m44
f 42 48 43

usemtl m45
f 43 48 38

usemtl m46
f 49 50 51

usemtl m47
f 49 51 52

usemtl m48
f 52 51 53

usemtl m49
f 52 53 54

usemtl m50
f 55 53 51

usemtl m51
f 55 51 50

usemtl m52
f 56 57 58

usemtl m53
f 56 58 59

usemtl m54
f 56 59 60

usemtl m55
f 56 60 61

usemtl m56
f 56 61 62

usemtl m57
f 56 62 57

usemtl m58
f 63 64 65

usemtl m59
f 63 65 66

usemtl m60
f 63 66 67

usemtl m61
f 63 67 68

usemtl m62
f 63 68 69

usemtl m63
f 63 69 64

usemtl m64
f 64 69 70

usemtl m65
f 64 70 71

usemtl m66
f 64 71 65

usemtl m67
f 65 71 70

usemtl m68
f 65 70 60

usemtl m69
f 72 73 74

usemtl m70
f 72 74 75

usemtl m71
f 75 74 76

usemtl m72
f 75 76 77

usemtl m73
f 77 76 78

usemtl m74
f 78 76 79

usemtl m75
f 78 79 80

usemtl m76
f 78 80 81

usemtl m77
f 78 81 82

usemtl m78
f 82 81 83

usemtl m79
f 82 83 84

usemtl m80
f 82 84 85

usemtl m81
f 85 84 86

usemtl m82
f 85 86 87

usemtl m83
f 87 86 88

usemtl m84
f 88 86 89

usemtl m85
f 88 89 90

usemtl m86
f 88 90 91

usemtl m87
f 91 90 92

usemtl m88
f 91 92 93

usemtl m89
f 93 92 94

usemtl m90
f 93 94 95

usemtl m91
f 95 94 96

usemtl m92
f 95 96 97

usemtl m93
f 97 96 98

usemtl m94
f 97 98 99

usemtl m95
f 99 98 100

usemtl m96
f 99 100 101

usemtl m97
f 101 100 102

usemtl m98
f 101 102 103

usemtl m99
f 104 76 74

usemtl m100
f 104 74 73

usemtl m101
f 105 106 107

usemtl m102
f 105 107 108

usemtl m103
f 105 108 76

usemtl m104
f 105 76 104

usemtl m105
f 109 76 108

usemtl m106
f 109 108 107

usemtl m107
f 109 107 110

usemtl m108
f 109 110 111

usemtl m109
f 109 111 112

usemtl m110
f 109 112 113

usemtl m111
f 109 113 114

usemtl m112
f 109 114 79

usemtl m113
f 109 79 76

usemtl m114
f 110 107 115

usemtl m115
f 115 107 106

usemtl m116
f 111 116 117

usemtl m117
f 111 117 112

usemtl m118
f 112 117 113

usemtl m119
f 113 117 118

usemtl m120
f 113 118 114

usemtl m121
f 114 118 119

usemtl m122
f 114 119 80

usemtl m123
f 114 80 79

usemtl m124
f 120 121 122

usemtl m125
f 120 122 123

usemtl m126
f 120 123 124

usemtl m127
f 120 124 125

usemtl m128
f 120 125 126

usemtl m129
f 120 126 127

usemtl m130
f 120 127 128

usemtl m131
f 120 128 121

usemtl m132
f 121 128 122

usemtl m133
f 122 128 129

usemtl m134
f 130 131 132

usemtl m135
f 130 132 133

usemtl m136
f 130 133 134

usemtl m137
f 130 134 135

usemtl m138
f 130 135 136

usemtl m139
f 130 136 137

usemtl m140
f 130 137 138

usemtl m141
f 130 138 131

usemtl m142
f 131 138 132

usemtl m143
f 132 138 139

usemtl m144
f 140 141 142

usemtl m145
f 140 142 143

usemtl m146
f 140 143 144

usemtl m147
f 140 144 145

usemtl m148
f 140 145 146

usemtl m149
f 140 146 147

usemtl m150
f 140 147 141

usemtl m151
f 141 147 142

usemtl m152
f 142 147 148

usemtl m153
f 149 150 151

usemtl m154
f 149 151 152

usemtl m155
f 149 152 153

usemtl m156
f 149 153 154

usemtl m157
f 149 154 155

usemtl m158
f 149 155 156

usemtl m159
f 149 156 157

usemtl m160
f 149 157 150

usemtl m161
f 150 157 151

usemtl m162
f 151 157 158

usemtl m163
f 159 160 161

usemtl m164
f 159 161 54

usemtl m165
f 54 161 47

usemtl m166
f 54 47 40

usemtl m167
f 40 47 162

usemtl m168
f 40 162 163

usemtl m169
f 163 162 164

usemtl m170
f 163 164 24

usemtl m171
f 24 164 15

usemtl m172
f 24 15 7

usemtl m173
f 7 15 113

usemtl m174
f 7 113 77

usemtl m175
f 161 160 102

usemtl m176
f 161 102 100

usemtl m177
f 161 100 47

usemtl m178
f 47 100 98

usemtl m179
f 47 98 162

usemtl m180
f 162 98 96

usemtl m181
f 162 96 164

usemtl m182
f 164 96 94

usemtl m183
f 164 94 15

usemtl m184
f 15 94 92

usemtl m185
f 15 92 165

usemtl m186
f 15 165 166

usemtl m187
f 15 166 167

usemtl m188
f 15 167 113

usemtl m189
f 102 168 68

usemtl m190
f 102 68 169

usemtl m191
f 169 68 67

usemtl m192
f 69 68 168

usemtl m193
f 170 171 46

usemtl m194
f 170 46 45

usemtl m195
f 47 46 171

usemtl m196
f 47 171 98

usemtl m197
f 98 171 100

usemtl m198
f 100 171 170

usemtl m199
f 172 89 86

usemtl m200
f 172 86 83

usemtl m201
f 172 83 173

usemtl m202
f 172 173 89

usemtl m203
f 89 173 174

usemtl m204
f 89 174 175

usemtl m205
f 89 175 90

usemtl m206
f 90 175 176

usemtl m207
f 90 176 92

usemtl m208
f 92 176 177

usemtl m209
f 92 177 178

usemtl m210
f 92 178 165

usemtl m211
f 165 178 179

usemtl m212
f 165 179 180

usemtl m213
f 165 180 166

usemtl m214
f 181 182 183

usemtl m215
f 181 183 184

usemtl m216
f 181 184 185

usemtl m217
f 181 185 186

usemtl m218
f 181 186 187

usemtl m219
f 181 187 188

usemtl m220
f 181 188 189

usemtl m221
f 181 189 182

usemtl m222
f 182 189 183

usemtl m223
f 183 189 190

usemtl m224
f 191 192 193

usemtl m225
f 191 193 194

usemtl m226
f 191 194 195

usemtl m227
f 191 195 196

usemtl m228
f 191 196 197

usemtl m229
f 191 197 198

usemtl m230
f 191 198 192

usemtl m231
f 192 198 193

usemtl m232
f 193 198 199

usemtl m233
f 200 201 202

usemtl m234
f 201 200 203

usemtl m235
f 81 80 83

usemtl m236
f 83 80 204

usemtl m237
f 83 204 205

usemtl m238
f 83 205 173

usemtl m239
f 173 205 206

usemtl m240
f 173 206 174

usemtl m241
f 84 83 86

usemtl m242
f 207 208 209

usemtl m243
f 207 209 210

usemtl m244
f 211 212 209

usemtl m245
f 211 209 208

usemtl m246
f 211 208 207

usemtl m247
f 211 207 166

usemtl m248
f 14 13 213

usemtl m249
f 14 213 214

usemtl m250
f 14 214 215

usemtl m251
f 14 215 15

usemtl m252
f 216 217 218

usemtl m253
f 216 218 219

usemtl m254
f 220 221 218

usemtl m255
f 220 218 217

usemtl m256
f 220 217 216

usemtl m257
f 220 216 180

usemtl m258
f 222 223 224

usemtl m259
f 222 224 225

usemtl m260
f 222 225 226

usemtl m261
f 222 226 227

usemtl m262
f 222 227 228

usemtl m263
f 222 228 223

usemtl m264
f 223 228 229

usemtl m265
f 223 229 224

usemtl m266
f 224 229 230

usemtl m267
f 231 232 233

usemtl m268
f 231 233 234

usemtl m269
f 235 236 233

usemtl m270
f 235 233 232

usemtl m271
f 235 232 231

usemtl m272
f 235 231 237

usemtl m273
f 238 239 240

usemtl m274
f 238 240 241

usemtl m275
f 238 241 236

usemtl m276
f 238 236 242

usemtl m277
f 238 242 243

usemtl m278
f 238 243 239

usemtl m279
f 239 243 244

usemtl m280
f 239 244 245

usemtl m281
f 239 245 240

usemtl m282
f 240 245 246

usemtl m283
f 246 245 244

usemtl m284
f 246 244 247

usemtl m285
f 247 244 248

usemtl m286
f 247 248 249

usemtl m287
f 249 248 250

usemtl m288
f 249 250 251

usemtl m289
f 249 251 252

usemtl m290
f 249 252 253

usemtl m291
f 249 253 254

usemtl m292
f 249 254 248

usemtl m293
f 248 254 243

usemtl m294
f 248 243 255

usemtl m295
f 248 255 256

usemtl m296
f 248 256 250

usemtl m297
f 257 258 259

usemtl m298
f 257 259 260

usemtl m299
f 257 260 261

usemtl m300
f 257 261 262

usemtl m301
f 263 261 260

usemtl m302
f 263 260 259

usemtl m303
f 264 265 266

usemtl m304
f 264 266 267

usemtl m305
f 268 269 266

usemtl m306
f 268 266 265

usemtl m307
f 268 265 264

usemtl m308
f 268 264 270

usemtl m309
f 271 272 273

usemtl m310
f 271 273 274

usemtl m311
f 271 274 275

usemtl m312
f 271 275 276

usemtl m313
f 271 276 277

usemtl m314
f 271 277 272

usemtl m315
f 272 277 278

usemtl m316
f 272 278 279

usemtl m317
f 272 279 273

usemtl m318
f 269 276 275

usemtl m319
f 269 275 274

usemtl m320
f 280 281 282

usemtl m321
f 280 282 283

usemtl m322
f 280 283 284

usemtl m323
f 280 284 285

usemtl m324
f 285 284 286

usemtl m325
f 285 286 287

usemtl m326
f 287 286 288

usemtl m327
f 288 286 289

usemtl m328
f 288 289 290

usemtl m329
f 290 289 118

usemtl m330
f 290 118 291

usemtl m331
f 291 118 292

usemtl m332
f 291 292 293

usemtl m333
f 293 292 116

usemtl m334
f 116 292 117

usemtl m335
f 117 292 118

usemtl m336
f 167 284 283

usemtl m337
f 167 283 282

usemtl m338
f 284 118 289

usemtl m339
f 284 289 286

usemtl m340
f 294 295 296

usemtl m341
f 294 296 297

usemtl m342
f 294 297 298

usemtl m343
f 294 298 299

usemtl m344
f 294 299 300

usemtl m345
f 294 300 295

usemtl m346
f 295 300 301

usemtl m347
f 295 301 302

usemtl m348
f 295 302 296

usemtl m349
f 301 303 302

usemtl m350
f 304 305 306

usemtl m351
f 304 306 307

usemtl m352
f 304 307 308

usemtl m353
f 304 308 309

usemtl m354
f 304 309 310

usemtl m355
f 304 310 305

usemtl m356
f 305 310 311

usemtl m357
f 305 311 312

usemtl m358
f 305 312 306

usemtl m359
f 311 313 312

usemtl m360
f 314 315 316

usemtl m361
f 314 316 317

usemtl m362
f 314 317 318

usemtl m363
f 314 318 319

usemtl m364
f 314 319 320

usemtl m365
f 314 320 315

usemtl m366
f 315 320 321

usemtl m367
f 315 321 316

usemtl m368
f 316 321 322

usemtl m369
f 323 324 325

usemtl m370
f 323 325 326

usemtl m371
f 323 326 327

usemtl m372
f 323 327 328

usemtl m373
f 323 328 329

usemtl m374
f 323 329 324

usemtl m375
f 324 329 330

usemtl m376
f 324 330 331

usemtl m377
f 324 331 325

usemtl m378
f 330 332 331

usemtl m379
f 253 333 263

usemtl m380
f 253 263 254

usemtl m381
f 254 263 237

usemtl m382
f 254 237 243

usemtl m383
f 243 237 334

usemtl m384
f 243 334 179

usemtl m385
f 243 179 255

usemtl m386
f 255 179 178

usemtl m387
f 255 178 335

usemtl m388
f 255 335 256

usemtl m389
f 179 334 180

usemtl m390
f 336 252 337

usemtl m391
f 336 337 278

usemtl m392
f 336 278 277

usemtl m393
f 278 337 279

usemtl m394
f 243 248 244

usemtl m395
f 119 284 338

usemtl m396
f 119 338 204

usemtl m397
f 119 204 80

usemtl m398
f 118 284 119

usemtl m399
f 338 284 167

usemtl m400
f 204 339 205

usemtl m401
f 205 339 340

usemtl m402
f 205 340 206

usemtl m403
f 341 342 343

usemtl m404
f 341 343 344

usemtl m405
f 341 344 345

usemtl m406
f 341 345 346

usemtl m407
f 341 346 347

usemtl m408
f 341 347 342

usemtl m409
f 342 347 348

usemtl m410
f 342 348 349

usemtl m411
f 342 349 343

usemtl m412
f 348 350 349

usemtl m413
f 351 352 353

usemtl m414
f 351 353 354

usemtl m415
f 351 354 355

usemtl m416
f 351 355 356

usemtl m417
f 351 356 357

usemtl m418
f 351 357 352

usemtl m419
f 352 357 358

usemtl m420
f 352 358 353

usemtl m421
f 353 358 359

usemtl m422
f 178 177 335

usemtl m423
f 338 339 204

