mtllib 18016.mtl
o runescapemodel
v 16 2 28
v -12 2 28
v -14 0 28
v 16 0 28
v 16 2 -16
v 14 2 -14
v 14 2 26
v -12 2 26
v -14 4 26
v -14 4 28
v -16 3 28
v -14 0 -16
v -16 3 -16
v -14 4 -16
v -12 2 -16
v 16 0 -16
v 16 12 28
v -14 12 28
v -12 10 28
v 16 10 28
v 16 12 -16
v -14 12 -16
v -16 9 -16
v -16 9 28
v -14 8 28
v -12 10 26
v -14 8 26
v 14 10 26
v 14 10 -14
v -14 4 -14
v -14 8 -14
v -12 10 -14
v -12 10 -16
v -14 8 -16
v 16 10 -16
v -12 2 -14
v -10 3 28
v -6 3 28
v -6 4 26
v -10 4 26
v -10 1 30
v -6 1 30
v -10 0 32
v -6 0 32
v -8 0 35
v -10 0 35
v -10 0 38
v -6 0 35
v -6 0 38
v -4 12 -8
v -6 12 -8
v -6 12 -1
v -4 12 -1
v -13 12 13
v -11 12 13
v -10 12 20
v -8 12 20
v 1 12 13
v 0 12 6
v -7 12 3
v -9 12 22
v -7 12 22
v 8 12 22
v 9 12 20
v 10 12 22
v 11 12 20
v 14 12 13
v 12 12 13
v 1 12 20
v 7 12 -1
v 5 12 -1
v 7 12 -8
v 5 12 -8
v 7 12 -10
v 5 12 -10
v -4 12 -10
v -6 12 -10
v -7 12 -10
v -7 12 -8
v 8 12 -8
v 8 12 -10
v 8 12 4
v 16 2 28
v 16 2 28
v 16 2 28
v 16 2 28
vn 256 -768 -512
vn 408 -920 -512
vn -213 142 -1024
vn 512 0 -256
vn 512 -768 256
vn 512 -768 512
vn 256 -768 -768
vn 204 -460 -256
vn 664 -408 -512
vn 716 -204 -1024
vn -682 284 -512
vn -426 284 768
vn -725 142 768
vn 664 -408 768
vn 204 -460 768
vn 256 0 512
vn 256 -256 -512
vn -426 -796 -768
vn 204 204 -768
vn 512 0 -256
vn 512 -512 256
vn -213 -398 1024
vn -682 -284 512
vn -725 -142 -768
vn 664 408 -768
vn 408 408 -256
vn 716 204 -768
vn 512 0 -512
vn 256 0 768
vn 716 -204 768
vn 664 408 512
vn 204 204 256
vn 408 408 512
vn 716 204 1024
vn 256 0 512
vn 408 -920 256
vn 0 -698 -442
vn 0 -628 -500
vn 0 -512 -256
vn 0 -256 -128
vn 0 -628 -500
vn 0 -698 -442
vn 0 -1024 -256
vn 0 -768 -128
vn 0 -1280 0
vn 0 -512 0
vn 0 -256 0
vn 0 -512 0
vn 0 -256 0
vn 0 -768 0
vn 0 -1280 0
vn 0 -768 0
vn 0 -768 0
vn 0 -768 0
vn 0 -1536 0
vn 0 -768 0
vn 0 -1792 0
vn 0 -1536 0
vn 0 -1024 0
vn 0 -256 0
vn 0 -512 0
vn 0 -512 0
vn 0 -768 0
vn 0 -1792 0
vn 0 -512 0
vn 0 -512 0
vn 0 -768 0
vn 0 -1536 0
vn 0 -512 0
vn 0 -768 0
vn 0 -768 0
vn 0 -1024 0
vn 0 -768 0
vn 0 -1024 0
vn 0 -256 0
vn 0 -512 0
vn 0 -512 0
vn 0 -512 0
vn 0 -256 0
vn 0 -512 0
vn 0 -256 0
vn 0 -256 0
vn 0 0 0
vn 0 0 0
vn 0 0 0
vn 0 0 0
usemtl m0
f 1 2 3

usemtl m1
f 1 3 4

usemtl m2
f 1 4 5

usemtl m3
f 1 5 6

usemtl m4
f 1 6 7

usemtl m5
f 1 7 2

usemtl m6
f 2 7 8

usemtl m7
f 2 8 9

usemtl m8
f 2 9 10

usemtl m9
f 2 10 3

usemtl m10
f 3 10 11

usemtl m11
f 3 11 12

usemtl m12
f 12 11 13

usemtl m13
f 12 13 14

usemtl m14
f 12 14 15

usemtl m15
f 12 15 16

usemtl m16
f 16 15 5

usemtl m17
f 16 5 4

usemtl m18
f 17 18 19

usemtl m19
f 17 19 20

usemtl m20
f 17 20 21

usemtl m21
f 17 21 18

usemtl m22
f 18 21 22

usemtl m23
f 18 22 23

usemtl m24
f 18 23 24

usemtl m25
f 18 24 25

usemtl m26
f 18 25 19

usemtl m27
f 19 25 26

usemtl m28
f 26 25 27

usemtl m29
f 26 27 28

usemtl m30
f 28 27 7

usemtl m31
f 28 7 6

usemtl m32
f 28 6 29

usemtl m33
f 29 6 30

usemtl m34
f 29 30 31

usemtl m35
f 29 31 32

usemtl m36
f 32 31 33

usemtl m37
f 33 31 34

usemtl m38
f 33 34 22

usemtl m39
f 33 22 35

usemtl m40
f 35 22 21

usemtl m41
f 35 21 20

usemtl m42
f 36 6 5

usemtl m43
f 36 5 15

usemtl m44
f 36 15 14

usemtl m45
f 36 14 30

usemtl m46
f 36 30 6

usemtl m47
f 34 31 30

usemtl m48
f 34 30 14

usemtl m49
f 34 14 13

usemtl m50
f 34 13 23

usemtl m51
f 34 23 22

usemtl m52
f 27 25 10

usemtl m53
f 27 10 9

usemtl m54
f 27 9 7

usemtl m55
f 7 9 8

usemtl m56
f 24 23 13

usemtl m57
f 24 13 11

usemtl m58
f 24 11 10

usemtl m59
f 24 10 25

usemtl m60
f 37 38 39

usemtl m61
f 37 39 40

usemtl m62
f 41 42 38

usemtl m63
f 41 38 37

usemtl m64
f 43 44 42

usemtl m65
f 43 42 41

usemtl m66
f 45 44 43

usemtl m67
f 45 43 46

usemtl m68
f 45 46 47

usemtl m69
f 45 48 44

usemtl m70
f 48 45 49

usemtl m71
f 50 51 52

usemtl m72
f 50 52 53

usemtl m73
f 53 52 54

usemtl m74
f 53 54 55

usemtl m75
f 55 54 56

usemtl m76
f 55 56 57

usemtl m77
f 55 57 58

usemtl m78
f 55 58 59

usemtl m79
f 55 59 60

usemtl m80
f 57 56 61

usemtl m81
f 57 61 62

usemtl m82
f 57 62 63

usemtl m83
f 57 63 64

usemtl m84
f 64 63 65

usemtl m85
f 64 65 66

usemtl m86
f 64 66 67

usemtl m87
f 64 67 68

usemtl m88
f 64 68 58

usemtl m89
f 64 58 69

usemtl m90
f 69 58 57

usemtl m91
f 68 67 70

usemtl m92
f 68 70 71

usemtl m93
f 71 70 72

usemtl m94
f 71 72 73

usemtl m95
f 73 72 74

usemtl m96
f 73 74 75

usemtl m97
f 51 50 76

usemtl m98
f 51 76 77

usemtl m99
f 51 77 78

usemtl m100
f 51 78 79

usemtl m101
f 74 72 80

usemtl m102
f 74 80 81

usemtl m103
f 59 58 68

usemtl m104
f 59 68 82

