newmtl m0
Kd 0.5254901960784314 0.5254901960784314 0.4666666666666667
newmtl m1
Kd 0.5254901960784314 0.5254901960784314 0.4666666666666667
newmtl m2
Kd 0.5254901960784314 0.5254901960784314 0.4666666666666667
newmtl m3
Kd 0.5254901960784314 0.5254901960784314 0.4666666666666667
newmtl m4
Kd 0.49019607843137253 0.23137254901960785 0.01568627450980392
newmtl m5
Kd 0.49019607843137253 0.23137254901960785 0.01568627450980392
newmtl m6
Kd 0.5254901960784314 0.5254901960784314 0.4666666666666667
newmtl m7
Kd 0.5254901960784314 0.5254901960784314 0.4666666666666667
newmtl m8
Kd 0.5254901960784314 0.5254901960784314 0.4666666666666667
newmtl m9
Kd 0.5254901960784314 0.5254901960784314 0.4666666666666667
newmtl m10
Kd 0.5254901960784314 0.5254901960784314 0.4666666666666667
newmtl m11
Kd 0.5254901960784314 0.5254901960784314 0.4666666666666667
newmtl m12
Kd 0.5254901960784314 0.5254901960784314 0.4666666666666667
newmtl m13
Kd 0.49019607843137253 0.23137254901960785 0.01568627450980392
newmtl m14
Kd 0.49019607843137253 0.23137254901960785 0.01568627450980392
newmtl m15
Kd 0.5254901960784314 0.5254901960784314 0.4666666666666667
newmtl m16
Kd 0.5254901960784314 0.5254901960784314 0.4666666666666667
newmtl m17
Kd 0.5254901960784314 0.5254901960784314 0.4666666666666667
newmtl m18
Kd 0.5647058823529412 0.5607843137254902 0.5058823529411764
newmtl m19
Kd 0.5647058823529412 0.5607843137254902 0.5058823529411764
newmtl m20
Kd 0.5647058823529412 0.5607843137254902 0.5058823529411764
newmtl m21
Kd 0.5647058823529412 0.5607843137254902 0.5058823529411764
newmtl m22
Kd 0.5647058823529412 0.5607843137254902 0.5058823529411764
newmtl m23
Kd 0.49019607843137253 0.23137254901960785 0.01568627450980392
newmtl m24
Kd 0.49019607843137253 0.23137254901960785 0.01568627450980392
newmtl m25
Kd 0.5647058823529412 0.5607843137254902 0.5058823529411764
newmtl m26
Kd 0.5647058823529412 0.5607843137254902 0.5058823529411764
newmtl m27
Kd 0.5647058823529412 0.5607843137254902 0.5058823529411764
newmtl m28
Kd 0.5647058823529412 0.5607843137254902 0.5058823529411764
newmtl m29
Kd 0.5647058823529412 0.5607843137254902 0.5058823529411764
newmtl m30
Kd 0.5647058823529412 0.5607843137254902 0.5058823529411764
newmtl m31
Kd 0.5647058823529412 0.5607843137254902 0.5058823529411764
newmtl m32
Kd 0.49019607843137253 0.23137254901960785 0.01568627450980392
newmtl m33
Kd 0.49019607843137253 0.23137254901960785 0.01568627450980392
newmtl m34
Kd 0.5647058823529412 0.5607843137254902 0.5058823529411764
newmtl m35
Kd 0.5647058823529412 0.5607843137254902 0.5058823529411764
newmtl m36
Kd 0.5647058823529412 0.5607843137254902 0.5058823529411764
newmtl m37
Kd 0.5647058823529412 0.5607843137254902 0.5058823529411764
newmtl m38
Kd 0.49019607843137253 0.23137254901960785 0.01568627450980392
newmtl m39
Kd 0.49019607843137253 0.23137254901960785 0.01568627450980392
newmtl m40
Kd 0.5647058823529412 0.5607843137254902 0.5058823529411764
newmtl m41
Kd 0.5647058823529412 0.5607843137254902 0.5058823529411764
newmtl m42
Kd 0.4980392156862745 0.34901960784313724 0.10196078431372549
newmtl m43
Kd 0.4980392156862745 0.34901960784313724 0.10196078431372549
newmtl m44
Kd 0.4980392156862745 0.34901960784313724 0.10196078431372549
newmtl m45
Kd 0.4980392156862745 0.34901960784313724 0.10196078431372549
newmtl m46
Kd 0.4980392156862745 0.34901960784313724 0.10196078431372549
newmtl m47
Kd 0.4980392156862745 0.34901960784313724 0.10196078431372549
newmtl m48
Kd 0.4980392156862745 0.34901960784313724 0.10196078431372549
newmtl m49
Kd 0.4980392156862745 0.34901960784313724 0.10196078431372549
newmtl m50
Kd 0.4980392156862745 0.34901960784313724 0.10196078431372549
newmtl m51
Kd 0.4980392156862745 0.34901960784313724 0.10196078431372549
newmtl m52
Kd 0.4980392156862745 0.34901960784313724 0.10196078431372549
newmtl m53
Kd 0.403921568627451 0.27450980392156865 0.047058823529411764
newmtl m54
Kd 0.403921568627451 0.27450980392156865 0.047058823529411764
newmtl m55
Kd 0.403921568627451 0.27450980392156865 0.047058823529411764
newmtl m56
Kd 0.403921568627451 0.27450980392156865 0.047058823529411764
newmtl m57
Kd 0.403921568627451 0.27450980392156865 0.047058823529411764
newmtl m58
Kd 0.403921568627451 0.27450980392156865 0.047058823529411764
newmtl m59
Kd 0.403921568627451 0.27450980392156865 0.047058823529411764
newmtl m60
Kd 0.4980392156862745 0.34901960784313724 0.10196078431372549
newmtl m61
Kd 0.403921568627451 0.27450980392156865 0.047058823529411764
newmtl m62
Kd 0.4980392156862745 0.34901960784313724 0.10196078431372549
newmtl m63
Kd 0.4980392156862745 0.34901960784313724 0.10196078431372549
newmtl m64
Kd 0.4980392156862745 0.34901960784313724 0.10196078431372549
newmtl m65
Kd 0.4980392156862745 0.34901960784313724 0.10196078431372549
newmtl m66
Kd 0.4980392156862745 0.34901960784313724 0.10196078431372549
newmtl m67
Kd 0.4980392156862745 0.34901960784313724 0.10196078431372549
newmtl m68
Kd 0.4980392156862745 0.34901960784313724 0.10196078431372549
newmtl m69
Kd 0.4980392156862745 0.34901960784313724 0.10196078431372549
newmtl m70
Kd 0.4980392156862745 0.34901960784313724 0.10196078431372549
newmtl m71
Kd 0.403921568627451 0.27450980392156865 0.047058823529411764
newmtl m72
Kd 0.403921568627451 0.27450980392156865 0.047058823529411764
newmtl m73
Kd 0.403921568627451 0.27450980392156865 0.047058823529411764
newmtl m74
Kd 0.403921568627451 0.27450980392156865 0.047058823529411764
newmtl m75
Kd 0.403921568627451 0.27450980392156865 0.047058823529411764
newmtl m76
Kd 0.4980392156862745 0.34901960784313724 0.10196078431372549
newmtl m77
Kd 0.4980392156862745 0.34901960784313724 0.10196078431372549
newmtl m78
Kd 0.4980392156862745 0.34901960784313724 0.10196078431372549
newmtl m79
Kd 0.403921568627451 0.27450980392156865 0.047058823529411764
newmtl m80
Kd 0.403921568627451 0.27450980392156865 0.047058823529411764
newmtl m81
Kd 0.403921568627451 0.27450980392156865 0.047058823529411764
