newmtl m0
Kd 0.18823529411764706 0.15294117647058825 0.07450980392156863
newmtl m1
Kd 0.18823529411764706 0.15294117647058825 0.07450980392156863
newmtl m2
Kd 0.18823529411764706 0.15294117647058825 0.07450980392156863
newmtl m3
Kd 0.18823529411764706 0.15294117647058825 0.07450980392156863
newmtl m4
Kd 0.21568627450980393 0.18823529411764706 0.11764705882352941
newmtl m5
Kd 0.21568627450980393 0.18823529411764706 0.11764705882352941
newmtl m6
Kd 0.21568627450980393 0.18823529411764706 0.11764705882352941
newmtl m7
Kd 0.18823529411764706 0.15294117647058825 0.07450980392156863
newmtl m8
Kd 0.18823529411764706 0.15294117647058825 0.07450980392156863
newmtl m9
Kd 0.18823529411764706 0.15294117647058825 0.07450980392156863
newmtl m10
Kd 0.18823529411764706 0.15294117647058825 0.07450980392156863
newmtl m11
Kd 0.18823529411764706 0.15294117647058825 0.07450980392156863
newmtl m12
Kd 0.18823529411764706 0.15294117647058825 0.07450980392156863
newmtl m13
Kd 0.18823529411764706 0.15294117647058825 0.07450980392156863
newmtl m14
Kd 0.18823529411764706 0.15294117647058825 0.07450980392156863
newmtl m15
Kd 0.18823529411764706 0.15294117647058825 0.07450980392156863
newmtl m16
Kd 0.18823529411764706 0.15294117647058825 0.07450980392156863
newmtl m17
Kd 0.18823529411764706 0.15294117647058825 0.07450980392156863
newmtl m18
Kd 0.18823529411764706 0.15294117647058825 0.07450980392156863
newmtl m19
Kd 0.18823529411764706 0.15294117647058825 0.07450980392156863
newmtl m20
Kd 0.18823529411764706 0.15294117647058825 0.07450980392156863
newmtl m21
Kd 0.18823529411764706 0.15294117647058825 0.07450980392156863
newmtl m22
Kd 0.18823529411764706 0.15294117647058825 0.07450980392156863
newmtl m23
Kd 0.18823529411764706 0.15294117647058825 0.07450980392156863
newmtl m24
Kd 0.18823529411764706 0.15294117647058825 0.07450980392156863
newmtl m25
Kd 0.18823529411764706 0.15294117647058825 0.07450980392156863
newmtl m26
Kd 0.18823529411764706 0.15294117647058825 0.07450980392156863
newmtl m27
Kd 0.18823529411764706 0.15294117647058825 0.07450980392156863
newmtl m28
Kd 0.21568627450980393 0.18823529411764706 0.11764705882352941
newmtl m29
Kd 0.18823529411764706 0.15294117647058825 0.07450980392156863
newmtl m30
Kd 0.18823529411764706 0.15294117647058825 0.07450980392156863
newmtl m31
Kd 0.18823529411764706 0.15294117647058825 0.07450980392156863
newmtl m32
Kd 0.18823529411764706 0.15294117647058825 0.07450980392156863
newmtl m33
Kd 0.18823529411764706 0.15294117647058825 0.07450980392156863
newmtl m34
Kd 0.18823529411764706 0.15294117647058825 0.07450980392156863
newmtl m35
Kd 0.21568627450980393 0.18823529411764706 0.11764705882352941
newmtl m36
Kd 0.21568627450980393 0.18823529411764706 0.11764705882352941
newmtl m37
Kd 0.11372549019607843 0.11372549019607843 0.08235294117647059
newmtl m38
Kd 0.11372549019607843 0.11372549019607843 0.08235294117647059
newmtl m39
Kd 0.18823529411764706 0.15294117647058825 0.07450980392156863
newmtl m40
Kd 0.18823529411764706 0.15294117647058825 0.07450980392156863
newmtl m41
Kd 0.18823529411764706 0.15294117647058825 0.07450980392156863
newmtl m42
Kd 0.18823529411764706 0.15294117647058825 0.07450980392156863
newmtl m43
Kd 0.21568627450980393 0.18823529411764706 0.11764705882352941
newmtl m44
Kd 0.11372549019607843 0.11372549019607843 0.08235294117647059
newmtl m45
Kd 0.11372549019607843 0.11372549019607843 0.08235294117647059
newmtl m46
Kd 0.11372549019607843 0.11372549019607843 0.08235294117647059
newmtl m47
Kd 0.11372549019607843 0.11372549019607843 0.08235294117647059
newmtl m48
Kd 0.11372549019607843 0.11372549019607843 0.08235294117647059
newmtl m49
Kd 0.18823529411764706 0.15294117647058825 0.07450980392156863
newmtl m50
Kd 0.18823529411764706 0.15294117647058825 0.07450980392156863
newmtl m51
Kd 0.18823529411764706 0.15294117647058825 0.07450980392156863
newmtl m52
Kd 0.18823529411764706 0.15294117647058825 0.07450980392156863
newmtl m53
Kd 0.21568627450980393 0.18823529411764706 0.11764705882352941
newmtl m54
Kd 0.21568627450980393 0.18823529411764706 0.11764705882352941
newmtl m55
Kd 0.41568627450980394 0.3607843137254902 0.22745098039215686
newmtl m56
Kd 0.41568627450980394 0.3607843137254902 0.22745098039215686
newmtl m57
Kd 0.41568627450980394 0.3607843137254902 0.22745098039215686
newmtl m58
Kd 0.41568627450980394 0.3607843137254902 0.22745098039215686
newmtl m59
Kd 0.41568627450980394 0.3607843137254902 0.22745098039215686
newmtl m60
Kd 0.41568627450980394 0.3607843137254902 0.22745098039215686
newmtl m61
Kd 0.41568627450980394 0.3607843137254902 0.22745098039215686
newmtl m62
Kd 0.41568627450980394 0.3607843137254902 0.22745098039215686
newmtl m63
Kd 0.41568627450980394 0.3607843137254902 0.22745098039215686
newmtl m64
Kd 0.41568627450980394 0.3607843137254902 0.22745098039215686
newmtl m65
Kd 0.41568627450980394 0.3607843137254902 0.22745098039215686
newmtl m66
Kd 0.41568627450980394 0.3607843137254902 0.22745098039215686
newmtl m67
Kd 0.41568627450980394 0.3607843137254902 0.22745098039215686
newmtl m68
Kd 0.41568627450980394 0.3607843137254902 0.22745098039215686
newmtl m69
Kd 0.41568627450980394 0.3607843137254902 0.22745098039215686
newmtl m70
Kd 0.41568627450980394 0.3607843137254902 0.22745098039215686
newmtl m71
Kd 0.41568627450980394 0.3607843137254902 0.22745098039215686
newmtl m72
Kd 0.41568627450980394 0.3607843137254902 0.22745098039215686
newmtl m73
Kd 0.41568627450980394 0.3607843137254902 0.22745098039215686
newmtl m74
Kd 0.41568627450980394 0.3607843137254902 0.22745098039215686
newmtl m75
Kd 0.41568627450980394 0.3607843137254902 0.22745098039215686
newmtl m76
Kd 0.41568627450980394 0.3607843137254902 0.22745098039215686
newmtl m77
Kd 0.41568627450980394 0.3607843137254902 0.22745098039215686
newmtl m78
Kd 0.41568627450980394 0.3607843137254902 0.22745098039215686
newmtl m79
Kd 0.11372549019607843 0.11372549019607843 0.08235294117647059
newmtl m80
Kd 0.11372549019607843 0.11372549019607843 0.08235294117647059
newmtl m81
Kd 0.0 0.0 0.00392156862745098
newmtl m82
Kd 0.0 0.0 0.00392156862745098
newmtl m83
Kd 0.0 0.0 0.00392156862745098
newmtl m84
Kd 0.0 0.0 0.00392156862745098
newmtl m85
Kd 0.0 0.0 0.00392156862745098
newmtl m86
Kd 0.0 0.0 0.00392156862745098
newmtl m87
Kd 0.21568627450980393 0.18823529411764706 0.11764705882352941
newmtl m88
Kd 0.21568627450980393 0.18823529411764706 0.11764705882352941
newmtl m89
Kd 0.21568627450980393 0.18823529411764706 0.11764705882352941
newmtl m90
Kd 0.21568627450980393 0.18823529411764706 0.11764705882352941
newmtl m91
Kd 0.21568627450980393 0.18823529411764706 0.11764705882352941
newmtl m92
Kd 0.21568627450980393 0.18823529411764706 0.11764705882352941
newmtl m93
Kd 0.14901960784313725 0.14901960784313725 0.08235294117647059
newmtl m94
Kd 0.14901960784313725 0.14901960784313725 0.08235294117647059
newmtl m95
Kd 0.27450980392156865 0.25098039215686274 0.19607843137254902
newmtl m96
Kd 0.27450980392156865 0.25098039215686274 0.19607843137254902
newmtl m97
Kd 0.14901960784313725 0.14901960784313725 0.08235294117647059
newmtl m98
Kd 0.14901960784313725 0.14901960784313725 0.08235294117647059
newmtl m99
Kd 0.27450980392156865 0.25098039215686274 0.19607843137254902
newmtl m100
Kd 0.27450980392156865 0.25098039215686274 0.19607843137254902
newmtl m101
Kd 0.14901960784313725 0.14901960784313725 0.08235294117647059
newmtl m102
Kd 0.14901960784313725 0.14901960784313725 0.08235294117647059
newmtl m103
Kd 0.27450980392156865 0.25098039215686274 0.19607843137254902
newmtl m104
Kd 0.27450980392156865 0.25098039215686274 0.19607843137254902
newmtl m105
Kd 0.14901960784313725 0.14901960784313725 0.08235294117647059
newmtl m106
Kd 0.14901960784313725 0.14901960784313725 0.08235294117647059
newmtl m107
Kd 0.27450980392156865 0.25098039215686274 0.19607843137254902
newmtl m108
Kd 0.27450980392156865 0.25098039215686274 0.19607843137254902
newmtl m109
Kd 0.1568627450980392 0.1568627450980392 0.10980392156862745
newmtl m110
Kd 0.1568627450980392 0.1568627450980392 0.10980392156862745
newmtl m111
Kd 0.1568627450980392 0.1568627450980392 0.10980392156862745
newmtl m112
Kd 0.1568627450980392 0.1568627450980392 0.10980392156862745
newmtl m113
Kd 0.11372549019607843 0.11372549019607843 0.08235294117647059
newmtl m114
Kd 0.11372549019607843 0.11372549019607843 0.08235294117647059
newmtl m115
Kd 0.1568627450980392 0.1568627450980392 0.10980392156862745
newmtl m116
Kd 0.1568627450980392 0.1568627450980392 0.10980392156862745
newmtl m117
Kd 0.27450980392156865 0.25098039215686274 0.19607843137254902
newmtl m118
Kd 0.27450980392156865 0.25098039215686274 0.19607843137254902
newmtl m119
Kd 0.27450980392156865 0.25098039215686274 0.19607843137254902
newmtl m120
Kd 0.27450980392156865 0.25098039215686274 0.19607843137254902
newmtl m121
Kd 0.27450980392156865 0.25098039215686274 0.19607843137254902
newmtl m122
Kd 0.27450980392156865 0.25098039215686274 0.19607843137254902
newmtl m123
Kd 0.27450980392156865 0.25098039215686274 0.19607843137254902
newmtl m124
Kd 0.27450980392156865 0.25098039215686274 0.19607843137254902
newmtl m125
Kd 0.27450980392156865 0.25098039215686274 0.19607843137254902
newmtl m126
Kd 0.27450980392156865 0.25098039215686274 0.19607843137254902
newmtl m127
Kd 0.27450980392156865 0.25098039215686274 0.19607843137254902
newmtl m128
Kd 0.27450980392156865 0.25098039215686274 0.19607843137254902
newmtl m129
Kd 0.27450980392156865 0.25098039215686274 0.19607843137254902
newmtl m130
Kd 0.27450980392156865 0.25098039215686274 0.19607843137254902
newmtl m131
Kd 0.27450980392156865 0.25098039215686274 0.19607843137254902
newmtl m132
Kd 0.27450980392156865 0.25098039215686274 0.19607843137254902
newmtl m133
Kd 0.1568627450980392 0.1568627450980392 0.10980392156862745
newmtl m134
Kd 0.1568627450980392 0.1568627450980392 0.10980392156862745
newmtl m135
Kd 0.1568627450980392 0.1568627450980392 0.10980392156862745
newmtl m136
Kd 0.1568627450980392 0.1568627450980392 0.10980392156862745
newmtl m137
Kd 0.1568627450980392 0.1568627450980392 0.10980392156862745
newmtl m138
Kd 0.1568627450980392 0.1568627450980392 0.10980392156862745
newmtl m139
Kd 0.1568627450980392 0.1568627450980392 0.10980392156862745
newmtl m140
Kd 0.1568627450980392 0.1568627450980392 0.10980392156862745
newmtl m141
Kd 0.18823529411764706 0.15294117647058825 0.07450980392156863
newmtl m142
Kd 0.18823529411764706 0.15294117647058825 0.07450980392156863
newmtl m143
Kd 0.0 0.0 0.00392156862745098
newmtl m144
Kd 0.0 0.0 0.00392156862745098
newmtl m145
Kd 0.0 0.0 0.00392156862745098
newmtl m146
Kd 0.0 0.0 0.00392156862745098
newmtl m147
Kd 0.0 0.0 0.00392156862745098
newmtl m148
Kd 0.0 0.0 0.00392156862745098
newmtl m149
Kd 0.21568627450980393 0.18823529411764706 0.11764705882352941
newmtl m150
Kd 0.21568627450980393 0.18823529411764706 0.11764705882352941
newmtl m151
Kd 0.21568627450980393 0.18823529411764706 0.11764705882352941
newmtl m152
Kd 0.21568627450980393 0.18823529411764706 0.11764705882352941
newmtl m153
Kd 0.21568627450980393 0.18823529411764706 0.11764705882352941
newmtl m154
Kd 0.21568627450980393 0.18823529411764706 0.11764705882352941
newmtl m155
Kd 0.0 0.0 0.00392156862745098
newmtl m156
Kd 0.0 0.0 0.00392156862745098
newmtl m157
Kd 0.21568627450980393 0.18823529411764706 0.11764705882352941
newmtl m158
Kd 0.21568627450980393 0.18823529411764706 0.11764705882352941
newmtl m159
Kd 0.0 0.0 0.00392156862745098
newmtl m160
Kd 0.0 0.0 0.00392156862745098
newmtl m161
Kd 0.21568627450980393 0.18823529411764706 0.11764705882352941
newmtl m162
Kd 0.21568627450980393 0.18823529411764706 0.11764705882352941
newmtl m163
Kd 0.11372549019607843 0.11372549019607843 0.08235294117647059
newmtl m164
Kd 0.11372549019607843 0.11372549019607843 0.08235294117647059
