newmtl m0
map_Kd sprite/450-0.png
newmtl m1
map_Kd sprite/450-0.png
newmtl m2
Kd 0.5372549019607843 0.3607843137254902 0.16470588235294117
newmtl m3
Kd 0.5372549019607843 0.3607843137254902 0.16470588235294117
newmtl m4
map_Kd sprite/450-0.png
newmtl m5
map_Kd sprite/450-0.png
newmtl m6
Kd 0.5372549019607843 0.3607843137254902 0.16470588235294117
newmtl m7
Kd 0.5372549019607843 0.3607843137254902 0.16470588235294117
newmtl m8
Kd 0.5372549019607843 0.3607843137254902 0.16470588235294117
newmtl m9
Kd 0.5372549019607843 0.3607843137254902 0.16470588235294117
newmtl m10
map_Kd sprite/450-0.png
newmtl m11
map_Kd sprite/450-0.png
newmtl m12
Kd 0.5372549019607843 0.3607843137254902 0.16470588235294117
newmtl m13
Kd 0.5372549019607843 0.3607843137254902 0.16470588235294117
newmtl m14
map_Kd sprite/450-0.png
newmtl m15
map_Kd sprite/450-0.png
newmtl m16
map_Kd sprite/450-0.png
newmtl m17
map_Kd sprite/450-0.png
newmtl m18
Kd 0.5372549019607843 0.3607843137254902 0.16470588235294117
newmtl m19
Kd 0.5372549019607843 0.3607843137254902 0.16470588235294117
newmtl m20
map_Kd sprite/450-0.png
newmtl m21
map_Kd sprite/450-0.png
newmtl m22
Kd 0.5372549019607843 0.3607843137254902 0.16470588235294117
newmtl m23
Kd 0.5372549019607843 0.3607843137254902 0.16470588235294117
newmtl m24
Kd 0.5372549019607843 0.3607843137254902 0.16470588235294117
newmtl m25
Kd 0.5372549019607843 0.3607843137254902 0.16470588235294117
newmtl m26
Kd 0.49019607843137253 0.23137254901960785 0.01568627450980392
newmtl m27
Kd 0.49019607843137253 0.23137254901960785 0.01568627450980392
newmtl m28
Kd 0.49019607843137253 0.23137254901960785 0.01568627450980392
newmtl m29
Kd 0.49019607843137253 0.23137254901960785 0.01568627450980392
newmtl m30
map_Kd sprite/450-0.png
newmtl m31
map_Kd sprite/450-0.png
newmtl m32
map_Kd sprite/450-0.png
newmtl m33
map_Kd sprite/450-0.png
newmtl m34
map_Kd sprite/450-0.png
newmtl m35
map_Kd sprite/450-0.png
newmtl m36
map_Kd sprite/450-0.png
newmtl m37
map_Kd sprite/450-0.png
newmtl m38
map_Kd sprite/450-0.png
newmtl m39
map_Kd sprite/450-0.png
