mtllib 18640.mtl
o runescapemodel
v -30 112 64
v -19 112 64
v -19 160 64
v -27 160 64
v -61 166 64
v -32 110 64
v -62 9 64
v -32 105 64
v -63 166 -64
v -63 166 39
v -63 233 39
v -63 233 -64
v -61 233 41
v -62 166 41
v -63 233 44
v -63 166 43
v -63 233 64
v -63 166 64
v -27 233 64
v 62 239 61
v 62 239 -61
v -64 239 -61
v -64 239 61
v 64 238 64
v 64 238 -64
v -32 238 -64
v -64 238 -64
v -64 232 -64
v -64 232 64
v -64 238 64
v -31 238 64
v -64 0 64
v -64 7 64
v -64 7 -64
v -64 0 -64
v -62 9 59
v -62 9 -56
v -61 58 59
v -61 58 -56
v -62 9 -64
v -52 240 -51
v -56 240 -47
v -52 240 -44
v -49 240 -47
v 15 240 -54
v 11 240 -49
v 15 240 -45
v 20 240 -49
v 52 240 -52
v 49 240 -48
v 52 240 -45
v 56 240 -48
v -52 240 48
v -57 240 52
v -52 240 57
v -48 240 52
v 16 240 48
v 13 240 51
v 16 240 55
v 20 240 51
v 50 240 48
v 47 240 51
v 50 240 55
v 54 240 51
v -64 215 52
v -64 218 56
v -64 222 52
v -64 218 49
v -64 191 53
v -64 194 56
v -64 197 53
v -64 194 50
v -64 166 53
v -64 169 57
v -64 173 53
v -64 169 50
v -64 215 28
v -64 218 32
v -64 222 28
v -64 218 25
v -64 191 29
v -64 194 33
v -64 198 29
v -64 194 26
v -64 167 29
v -64 169 32
v -64 172 29
v -64 169 27
v -61 166 48
v -61 166 -48
v -61 117 -48
v -61 117 48
v -61 166 -64
v -60 112 -64
v -31 232 64
v -63 21 -58
v -63 21 -34
v -63 87 -34
v -63 87 -58
v -61 87 -58
v -61 21 -58
v -63 37 -20
v -63 37 11
v -63 71 11
v -63 71 -20
v -61 71 -20
v -61 37 -20
v -63 87 24
v -63 87 46
v -63 143 46
v -63 143 24
v -61 143 24
v -61 87 24
v -63 90 -55
v -63 90 -32
v -63 136 -32
v -63 136 -55
v -61 136 -55
v -61 90 -55
v -63 74 -23
v -63 74 20
v -63 161 20
v -63 161 -23
v -61 161 -23
v -61 74 -23
v -63 12 23
v -63 12 62
v -63 84 62
v -63 84 23
v -61 84 23
v -61 12 23
v -61 21 -34
v -61 87 -34
v -61 37 11
v -61 71 11
v -61 87 46
v -61 143 46
v -61 90 -32
v -61 136 -32
v -61 74 20
v -61 161 20
v -61 12 62
v -61 84 62
v -63 15 27
v -63 15 61
v -63 80 61
v -63 80 27
v -63 68 29
v -63 68 59
v -63 76 59
v -63 76 29
v -63 56 29
v -63 56 59
v -63 64 59
v -63 64 29
v -63 44 29
v -63 44 59
v -63 52 59
v -63 52 29
v -63 66 29
v -63 66 59
v -63 54 29
v -63 54 59
v -63 42 29
v -63 42 59
v -63 32 29
v -63 32 59
v -63 40 59
v -63 40 29
v -63 30 29
v -63 30 59
v -63 20 29
v -63 20 59
v -63 28 59
v -63 28 29
v -63 18 29
v -63 18 59
v -54 166 -64
v -58 112 -64
v 64 0 64
v 64 0 -64
vn 0 0 0
vn 0 0 0
vn 0 0 0
vn 0 0 0
vn -765 -1 34
vn 0 0 0
vn -509 -6 34
vn 0 0 0
vn -512 0 0
vn -667 -3 -296
vn -693 0 -181
vn -256 0 0
vn -624 -6 -154
vn -673 -7 142
vn -699 -4 257
vn -742 -1 115
vn -512 0 0
vn -256 0 0
vn 0 0 0
vn 114 -984 -81
vn 228 -1443 243
vn 0 -755 81
vn 0 -985 -243
vn 484 -944 -162
vn 626 -472 81
vn 0 -486 162
vn 0 -486 162
vn 0 0 0
vn 0 0 -256
vn 0 -243 -593
vn 0 -486 -418
vn -512 0 0
vn -256 0 0
vn -512 0 0
vn -256 0 0
vn -511 -10 0
vn -766 -15 0
vn -1531 -16 34
vn -1783 -10 61
vn -512 -9 -1
vn 0 -512 0
vn 0 -256 0
vn 0 -512 0
vn 0 -256 0
vn 0 -512 0
vn 0 -256 0
vn 0 -512 0
vn 0 -256 0
vn 0 -512 0
vn 0 -256 0
vn 0 -512 0
vn 0 -256 0
vn 0 -512 0
vn 0 -256 0
vn 0 -512 0
vn 0 -256 0
vn 0 -512 0
vn 0 -256 0
vn 0 -512 0
vn 0 -256 0
vn 0 -512 0
vn 0 -256 0
vn 0 -512 0
vn 0 -256 0
vn -512 0 0
vn -256 0 0
vn -512 0 0
vn -256 0 0
vn -512 0 0
vn -256 0 0
vn -512 0 0
vn -256 0 0
vn -512 0 0
vn -256 0 0
vn -512 0 0
vn -256 0 0
vn -512 0 0
vn -256 0 0
vn -512 0 0
vn -256 0 0
vn -512 0 0
vn -256 0 0
vn -512 0 0
vn -256 0 0
vn -512 0 0
vn -256 0 0
vn -512 0 0
vn -256 0 0
vn -768 0 0
vn -512 0 0
vn -1280 0 0
vn -1280 0 0
vn -760 4 62
vn -504 0 61
vn 0 0 -512
vn -512 0 512
vn -256 0 -256
vn -512 -256 -512
vn -256 -512 256
vn 0 -256 512
vn 0 0 256
vn -512 0 512
vn -256 0 -256
vn -512 -256 -512
vn -256 -512 256
vn 0 -256 512
vn 0 0 256
vn -512 0 512
vn -256 0 -256
vn -512 -256 -512
vn -256 -512 256
vn 0 -256 512
vn 0 0 256
vn -512 0 512
vn -256 0 -256
vn -512 -256 -512
vn -256 -512 256
vn 0 -256 512
vn 0 0 256
vn -512 0 512
vn -256 0 -256
vn -512 -256 -512
vn -256 -512 256
vn 0 -256 512
vn 0 0 256
vn -512 0 512
vn -256 0 -256
vn -512 -256 -512
vn -256 -512 256
vn 0 -256 512
vn 0 0 256
vn 0 0 -512
vn 0 -512 -256
vn 0 0 -512
vn 0 -512 -256
vn 0 0 -512
vn 0 -512 -256
vn 0 0 -512
vn 0 -512 -256
vn 0 0 -512
vn 0 -512 -256
vn 0 0 -512
vn 0 -512 -256
vn -512 0 0
vn -256 0 0
vn -512 0 0
vn -256 0 0
vn -512 0 0
vn -256 0 0
vn -512 0 0
vn -256 0 0
vn -512 0 0
vn -256 0 0
vn -512 0 0
vn -256 0 0
vn -512 0 0
vn -256 0 0
vn -512 0 0
vn -256 0 0
vn 0 0 0
vn 0 0 0
vn 0 0 0
vn 0 0 0
vn 0 0 0
vn 0 0 0
vn -512 0 0
vn -256 0 0
vn -512 0 0
vn -256 0 0
vn 0 0 0
vn 0 0 0
vn -512 0 0
vn -256 0 0
vn -512 0 0
vn -256 0 0
vn 0 0 0
vn 0 0 0
vn 0 0 0
vn 0 0 0
vn 512 0 0
vn 256 0 0
usemtl m0
f 1 2 3

usemtl m1
f 1 3 4

usemtl m2
f 1 4 5

usemtl m3
f 1 5 6

usemtl m4
f 6 5 7

usemtl m5
f 6 7 8

usemtl m6
f 9 10 11

usemtl m7
f 9 11 12

usemtl m8
f 13 11 10

usemtl m9
f 13 10 14

usemtl m10
f 13 14 15

usemtl m11
f 15 14 16

usemtl m12
f 15 16 17

usemtl m13
f 17 16 18

usemtl m14
f 17 18 4

usemtl m15
f 17 4 19

usemtl m16
f 20 21 22

usemtl m17
f 20 22 23

usemtl m18
f 20 23 24

usemtl m19
f 20 24 21

usemtl m20
f 21 24 25

usemtl m21
f 21 25 26

usemtl m22
f 21 26 27

usemtl m23
f 21 27 22

usemtl m24
f 22 27 28

usemtl m25
f 22 28 23

usemtl m26
f 23 28 29

usemtl m27
f 23 29 30

usemtl m28
f 23 30 31

usemtl m29
f 23 31 24

usemtl m30
f 32 33 34

usemtl m31
f 32 34 35

usemtl m32
f 36 37 34

usemtl m33
f 36 34 33

usemtl m34
f 36 33 7

usemtl m35
f 36 7 38

usemtl m36
f 36 38 37

usemtl m37
f 37 38 39

usemtl m38
f 37 39 40

usemtl m39
f 37 40 34

usemtl m40
f 41 42 43

usemtl m41
f 41 43 44

usemtl m42
f 45 46 47

usemtl m43
f 45 47 48

usemtl m44
f 49 50 51

usemtl m45
f 49 51 52

usemtl m46
f 53 54 55

usemtl m47
f 53 55 56

usemtl m48
f 57 58 59

usemtl m49
f 57 59 60

usemtl m50
f 61 62 63

usemtl m51
f 61 63 64

usemtl m52
f 65 66 67

usemtl m53
f 65 67 68

usemtl m54
f 69 70 71

usemtl m55
f 69 71 72

usemtl m56
f 73 74 75

usemtl m57
f 73 75 76

usemtl m58
f 77 78 79

usemtl m59
f 77 79 80

usemtl m60
f 81 82 83

usemtl m61
f 81 83 84

usemtl m62
f 85 86 87

usemtl m63
f 85 87 88

usemtl m64
f 89 90 91

usemtl m65
f 89 91 92

usemtl m66
f 89 92 5

usemtl m67
f 5 92 38

usemtl m68
f 5 38 7

usemtl m69
f 39 38 92

usemtl m70
f 39 92 91

usemtl m71
f 39 91 93

usemtl m72
f 39 93 94

usemtl m73
f 39 94 40

usemtl m74
f 30 29 95

usemtl m75
f 30 95 31

usemtl m76
f 91 90 93

usemtl m77
f 96 97 98

usemtl m78
f 96 98 99

usemtl m79
f 96 99 100

usemtl m80
f 96 100 101

usemtl m81
f 102 103 104

usemtl m82
f 102 104 105

usemtl m83
f 102 105 106

usemtl m84
f 102 106 107

usemtl m85
f 108 109 110

usemtl m86
f 108 110 111

usemtl m87
f 108 111 112

usemtl m88
f 108 112 113

usemtl m89
f 114 115 116

usemtl m90
f 114 116 117

usemtl m91
f 114 117 118

usemtl m92
f 114 118 119

usemtl m93
f 120 121 122

usemtl m94
f 120 122 123

usemtl m95
f 120 123 124

usemtl m96
f 120 124 125

usemtl m97
f 126 127 128

usemtl m98
f 126 128 129

usemtl m99
f 126 129 130

usemtl m100
f 126 130 131

usemtl m101
f 98 97 132

usemtl m102
f 98 132 133

usemtl m103
f 98 133 99

usemtl m104
f 99 133 100

usemtl m105
f 104 103 134

usemtl m106
f 104 134 135

usemtl m107
f 104 135 105

usemtl m108
f 105 135 106

usemtl m109
f 110 109 136

usemtl m110
f 110 136 137

usemtl m111
f 110 137 111

usemtl m112
f 111 137 112

usemtl m113
f 116 115 138

usemtl m114
f 116 138 139

usemtl m115
f 116 139 117

usemtl m116
f 117 139 118

usemtl m117
f 122 121 140

usemtl m118
f 122 140 141

usemtl m119
f 122 141 123

usemtl m120
f 123 141 124

usemtl m121
f 128 127 142

usemtl m122
f 128 142 143

usemtl m123
f 128 143 129

usemtl m124
f 129 143 130

usemtl m125
f 144 145 146

usemtl m126
f 144 146 147

usemtl m127
f 148 149 150

usemtl m128
f 148 150 151

usemtl m129
f 152 153 154

usemtl m130
f 152 154 155

usemtl m131
f 156 157 158

usemtl m132
f 156 158 159

usemtl m133
f 149 148 160

usemtl m134
f 149 160 161

usemtl m135
f 153 152 162

usemtl m136
f 153 162 163

usemtl m137
f 157 156 164

usemtl m138
f 157 164 165

usemtl m139
f 166 167 168

usemtl m140
f 166 168 169

usemtl m141
f 167 166 170

usemtl m142
f 167 170 171

usemtl m143
f 172 173 174

usemtl m144
f 172 174 175

usemtl m145
f 173 172 176

usemtl m146
f 173 176 177

usemtl m147
f 94 93 178

usemtl m148
f 94 178 179

usemtl m149
f 25 24 180

usemtl m150
f 25 180 181

