newmtl m0
Kd 0.4 0.18823529411764706 0.01568627450980392
newmtl m1
Kd 0.4 0.15294117647058825 0.01568627450980392
newmtl m2
Kd 0.4 0.15294117647058825 0.01568627450980392
newmtl m3
Kd 0.3686274509803922 0.17254901960784313 0.011764705882352941
newmtl m4
Kd 0.4 0.15294117647058825 0.01568627450980392
newmtl m5
Kd 0.4 0.15294117647058825 0.01568627450980392
newmtl m6
Kd 0.3764705882352941 0.33725490196078434 0.3333333333333333
newmtl m7
Kd 0.3764705882352941 0.33725490196078434 0.3333333333333333
newmtl m8
Kd 0.3764705882352941 0.33725490196078434 0.3333333333333333
newmtl m9
Kd 0.3764705882352941 0.33725490196078434 0.3333333333333333
newmtl m10
Kd 0.4745098039215686 0.4235294117647059 0.4235294117647059
newmtl m11
Kd 0.4745098039215686 0.4235294117647059 0.4235294117647059
newmtl m12
Kd 0.3764705882352941 0.33725490196078434 0.3333333333333333
newmtl m13
Kd 0.3764705882352941 0.33725490196078434 0.3333333333333333
newmtl m14
Kd 0.4745098039215686 0.4235294117647059 0.4235294117647059
newmtl m15
Kd 0.4745098039215686 0.4235294117647059 0.4235294117647059
newmtl m16
Kd 0.3764705882352941 0.33725490196078434 0.3333333333333333
newmtl m17
Kd 0.3764705882352941 0.33725490196078434 0.3333333333333333
newmtl m18
Kd 0.4745098039215686 0.4235294117647059 0.4235294117647059
newmtl m19
Kd 0.4745098039215686 0.4235294117647059 0.4235294117647059
