mtllib 18866.mtl
o runescapemodel
v -54 194 131
v -54 262 174
v -54 194 182
v 54 194 182
v 54 194 131
v -54 188 131
v -64 188 131
v -64 194 131
v -54 218 109
v -54 279 97
v -54 316 135
v -64 316 135
v -64 262 174
v -64 194 182
v -54 188 191
v 54 188 191
v 64 188 191
v 64 194 182
v 54 262 174
v 54 279 97
v 54 245 99
v 54 218 109
v 64 218 109
v 64 194 131
v 54 188 131
v -54 188 182
v -54 106 98
v -64 106 98
v -64 69 135
v -64 188 182
v -64 279 97
v -64 245 99
v -64 218 109
v -54 182 21
v -54 245 99
v -54 285 92
v 54 285 92
v 54 316 135
v 54 321 139
v -54 321 139
v -64 321 139
v -64 321 129
v -54 188 -131
v -54 188 -182
v 54 188 -182
v 54 188 -131
v -54 194 -131
v -64 194 -131
v -64 188 -131
v -54 163 -109
v -54 99 -93
v -54 62 -130
v -64 62 -130
v -64 188 -182
v -54 194 -191
v 54 194 -191
v 64 194 -191
v 64 188 -182
v 54 62 -130
v 54 99 -93
v 54 136 -99
v 54 163 -109
v 64 163 -109
v 64 188 -131
v 54 194 -131
v -54 194 -182
v -54 286 -92
v -64 286 -92
v -64 323 -129
v -64 194 -182
v -64 99 -93
v -64 136 -99
v -64 163 -109
v -54 194 -13
v -54 136 -99
v -54 94 -87
v 54 94 -87
v 54 57 -135
v -54 57 -135
v -64 57 -135
v -64 57 -124
v 54 194 -182
v -54 323 -129
v 54 323 -129
v 54 286 -92
v -54 292 -86
v -64 292 -86
v -64 329 -123
v -64 335 -129
v -54 335 -129
v 64 194 -182
v 64 62 -130
v 64 57 -135
v 54 57 -124
v -54 57 -124
v 64 194 -131
v 64 323 -129
v -64 194 -191
v 54 188 182
v -54 69 135
v 54 69 135
v 54 106 98
v -54 101 92
v -64 101 92
v -64 65 130
v -64 59 135
v -54 59 135
v 64 188 182
v 64 262 174
v 64 188 131
v 64 69 135
v -64 188 191
v -54 65 9
v -54 12 9
v 54 12 9
v 54 65 9
v -54 65 1
v -64 65 1
v -64 65 9
v -54 87 32
v -54 26 74
v -64 26 74
v -64 12 9
v -54 5 1
v 54 5 1
v 64 5 1
v 64 12 9
v 54 26 74
v 54 101 92
v 54 99 58
v 54 87 32
v 64 87 32
v 64 65 9
v 54 65 1
v -54 12 1
v -64 94 -87
v -64 12 1
v -64 99 58
v -64 87 32
v -54 172 -3
v -54 99 58
v 54 12 1
v 64 65 1
v 64 94 -87
v 64 99 -93
v 64 136 -99
v 54 172 -3
v 54 194 -13
v 64 194 -13
v 64 57 -124
v 64 12 1
v 64 26 74
v 54 65 130
v -54 65 130
v 64 106 98
v 64 101 92
v 64 99 58
v 54 182 21
v 64 172 -3
v 64 65 130
v 64 59 135
v 54 59 135
v -64 5 1
v -54 327 1
v -54 379 1
v 54 379 1
v 54 327 1
v -54 327 9
v -64 327 9
v -64 327 1
v -54 303 -26
v -54 369 -66
v -64 369 -66
v -64 379 1
v -54 387 9
v 54 387 9
v 64 387 9
v 64 379 1
v 54 369 -66
v 54 292 -86
v 54 293 -53
v 54 303 -26
v 64 303 -26
v 64 327 1
v 54 327 9
v -54 379 9
v -64 285 92
v -64 379 9
v -64 293 -53
v -64 303 -26
v -54 205 11
v -54 293 -53
v 54 379 9
v -54 321 129
v 54 321 129
v 64 327 9
v 64 285 92
v 64 279 97
v 64 245 99
v 54 205 11
v 64 182 21
v 64 316 135
v 64 321 139
v 64 379 9
v 64 369 -66
v 54 329 -123
v -54 329 -123
v 64 286 -92
v 64 292 -86
v 64 293 -53
v 64 205 11
v 64 329 -123
v 64 335 -129
v 54 335 -129
v -64 387 9
v 64 321 129
v -64 182 21
v -64 205 11
v -64 194 -13
v -64 172 -3
vn 768 -339 957
vn 768 -327 -668
vn 256 -953 -934
vn -256 -1180 -680
vn -1024 90 1146
vn 256 66 1242
vn -1024 -95 749
vn -1280 346 634
vn 768 583 281
vn 1024 703 922
vn 256 697 -1163
vn -768 22 -814
vn -768 -207 -715
vn -1024 -455 -538
vn 0 129 -426
vn 0 129 -426
vn 256 86 -284
vn 768 -271 -650
vn -768 -207 -715
vn -768 872 488
vn -768 -203 618
vn -768 647 -5
vn 768 583 281
vn 1280 173 701
vn -512 417 1005
vn 512 1374 -238
vn 512 -1045 366
vn -512 -386 638
vn -1280 94 -750
vn -768 700 -476
vn -1280 343 648
vn -768 -203 618
vn -768 647 -5
vn 1024 370 -428
vn 768 -451 468
vn 512 353 1059
vn -256 763 996
vn -256 365 -1192
vn 0 -288 -600
vn 0 -288 -600
vn -256 -96 -200
vn -1280 -742 -111
vn 768 243 -1195
vn 256 1089 898
vn -512 1248 662
vn -768 -282 -1622
vn 256 -58 -1238
vn -1024 99 -747
vn -1024 -538 -1110
vn 768 -581 -306
vn 768 -1051 -1285
vn 512 -809 1142
vn -768 -170 836
vn -1280 523 520
vn 0 -129 426
vn 0 -129 426
vn 256 -86 284
vn 768 407 614
vn -256 -532 1198
vn -768 -1091 -617
vn -768 157 -595
vn -768 -655 -36
vn 768 -581 -306
vn 1280 -269 -939
vn -512 -413 -1003
vn 512 -1377 236
vn 512 1006 -418
vn -512 380 -652
vn -1280 -97 748
vn -768 -706 472
vn -1280 -533 -816
vn -768 157 -595
vn -768 -655 -36
vn 1024 -391 393
vn 768 437 -431
vn 512 -469 -933
vn -256 -893 -831
vn 0 224 544
vn 0 223 545
vn -256 74 182
vn -1280 752 86
vn -256 -1218 472
vn 256 -13 1421
vn -512 265 1366
vn -256 923 -833
vn 1024 875 -739
vn -1280 620 -371
vn -768 -782 -70
vn -256 -182 74
vn 0 -545 223
vn 1280 -353 236
vn 1280 -85 418
vn 256 148 364
vn -512 1370 -276
vn 256 1429 -9
vn 512 198 -726
vn 768 -194 728
vn -256 -43 142
vn -256 1212 -476
vn 256 7 -1425
vn -512 -268 -1368
vn -256 -959 783
vn 1024 -915 696
vn -1280 -648 343
vn -768 748 100
vn -256 164 -60
vn 0 491 -180
vn 1280 350 -238
vn 768 -327 -668
vn 512 -190 730
vn 768 188 -732
vn -256 43 -142
vn 768 -953 -335
vn 256 1077 -867
vn -256 828 -1071
vn -1024 -1138 98
vn 256 -1254 96
vn -1024 -755 -80
vn -1280 -626 354
vn 768 -273 590
vn 768 670 -345
vn -768 710 -252
vn -1024 636 -391
vn 0 578 262
vn 0 577 263
vn 256 386 174
vn 768 693 -275
vn -768 710 -252
vn -768 -474 858
vn -768 -616 -204
vn -768 9 649
vn 768 -273 590
vn 1280 -697 177
vn -512 -1011 432
vn 512 240 1366
vn -512 -682 -324
vn -768 480 684
vn -768 -616 -204
vn -768 9 649
vn 1280 433 383
vn 768 -464 -453
vn -256 480 1196
vn 512 -742 -160
vn 1024 -635 -408
vn 1024 -478 -1140
vn 768 437 -431
vn -1024 575 58
vn -1280 -53 552
vn 1024 -391 393
vn 768 736 172
vn 1280 240 342
vn 768 670 -345
vn -256 1096 472
vn 256 1070 794
vn 1024 -487 565
vn 1280 -708 194
vn 768 -464 -453
vn -1280 29 -565
vn 1280 433 383
vn 1024 374 50
vn 256 328 -120
vn 0 490 -180
vn -256 193 87
vn 768 959 342
vn 256 -1049 873
vn -256 -796 1092
vn -1024 1150 -84
vn 256 1224 -26
vn -1024 740 115
vn -1280 638 -340
vn 768 292 -579
vn 768 -671 331
vn -768 -715 221
vn -1024 -615 399
vn 0 -543 -225
vn 0 -543 -225
vn 256 -362 -150
vn 768 -687 255
vn -768 -715 221
vn -768 439 -914
vn -768 607 223
vn -768 11 -648
vn 768 292 -579
vn 1280 703 -170
vn -512 996 -397
vn 512 -230 -1391
vn -512 620 426
vn -768 -460 -734
vn -768 607 223
vn -768 11 -648
vn 1280 -413 -372
vn 768 446 467
vn -256 -460 -1246
vn 256 -1411 -44
vn -512 -1364 245
vn 512 712 230
vn 1024 556 507
vn 1280 194 708
vn 768 -451 468
vn -1024 -556 -27
vn 1024 370 -428
vn 1024 11 -407
vn 256 -192 -400
vn 1280 -230 -367
vn 768 -671 331
vn -256 -1144 -432
vn 256 -1115 -759
vn 1024 463 -599
vn 1280 694 -196
vn 768 446 467
vn 1280 -413 -372
vn 1024 -391 -35
vn 256 -364 148
vn 0 -544 224
vn -256 -181 -75
vn 768 -716 -222
vn -1280 29 -565
vn -1024 -556 -27
vn -1280 -53 552
vn -1024 575 58
usemtl m0
f 1 2 3

usemtl m1
f 1 3 4

usemtl m2
f 1 4 5

usemtl m3
f 1 5 6

usemtl m4
f 1 6 7

usemtl m5
f 1 7 8

usemtl m6
f 1 8 9

usemtl m7
f 1 9 10

usemtl m8
f 1 10 2

usemtl m9
f 2 10 11

usemtl m10
f 2 11 12

usemtl m11
f 2 12 13

usemtl m12
f 2 13 3

usemtl m13
f 3 13 14

usemtl m14
f 3 14 15

usemtl m15
f 3 15 16

usemtl m16
f 3 16 4

usemtl m17
f 4 16 17

usemtl m18
f 4 17 18

usemtl m19
f 4 18 19

usemtl m20
f 4 19 5

usemtl m21
f 5 19 20

usemtl m22
f 5 20 21

usemtl m23
f 5 21 22

usemtl m24
f 5 22 23

usemtl m25
f 5 23 24

usemtl m26
f 5 24 25

usemtl m27
f 5 25 6

usemtl m28
f 6 25 26

usemtl m29
f 6 26 27

usemtl m30
f 6 27 28

usemtl m31
f 6 28 7

usemtl m32
f 7 28 29

usemtl m33
f 7 29 30

usemtl m34
f 7 30 14

usemtl m35
f 7 14 8

usemtl m36
f 8 14 13

usemtl m37
f 8 13 31

usemtl m38
f 8 31 32

usemtl m39
f 8 32 33

usemtl m40
f 8 33 9

usemtl m41
f 9 33 34

usemtl m42
f 9 34 35

usemtl m43
f 9 35 10

usemtl m44
f 10 35 32

usemtl m45
f 10 32 31

usemtl m46
f 10 31 36

usemtl m47
f 10 36 37

usemtl m48
f 10 37 20

usemtl m49
f 10 20 11

usemtl m50
f 11 20 38

usemtl m51
f 11 38 39

usemtl m52
f 11 39 40

usemtl m53
f 11 40 12

usemtl m54
f 12 40 41

usemtl m55
f 12 41 42

usemtl m56
f 12 42 31

usemtl m57
f 12 31 13

usemtl m58
f 43 44 45

usemtl m59
f 43 45 46

usemtl m60
f 43 46 47

usemtl m61
f 43 47 48

usemtl m62
f 43 48 49

usemtl m63
f 43 49 50

usemtl m64
f 43 50 51

usemtl m65
f 43 51 52

usemtl m66
f 43 52 44

usemtl m67
f 44 52 53

usemtl m68
f 44 53 54

usemtl m69
f 44 54 55

usemtl m70
f 44 55 56

usemtl m71
f 44 56 45

usemtl m72
f 45 56 57

usemtl m73
f 45 57 58

usemtl m74
f 45 58 59

usemtl m75
f 45 59 60

usemtl m76
f 45 60 46

usemtl m77
f 46 60 61

usemtl m78
f 46 61 62

usemtl m79
f 46 62 63

usemtl m80
f 46 63 64

usemtl m81
f 46 64 65

usemtl m82
f 46 65 47

usemtl m83
f 47 65 66

usemtl m84
f 47 66 67

usemtl m85
f 47 67 68

usemtl m86
f 47 68 48

usemtl m87
f 48 68 69

usemtl m88
f 48 69 70

usemtl m89
f 48 70 54

usemtl m90
f 48 54 49

usemtl m91
f 49 54 71

usemtl m92
f 49 71 72

usemtl m93
f 49 72 73

usemtl m94
f 49 73 50

usemtl m95
f 50 73 74

usemtl m96
f 50 74 75

usemtl m97
f 50 75 51

usemtl m98
f 51 75 72

usemtl m99
f 51 72 71

usemtl m100
f 51 71 76

usemtl m101
f 51 76 77

usemtl m102
f 51 77 60

usemtl m103
f 51 60 52

usemtl m104
f 52 60 59

usemtl m105
f 52 59 78

usemtl m106
f 52 78 79

usemtl m107
f 52 79 53

usemtl m108
f 53 79 80

usemtl m109
f 53 80 81

usemtl m110
f 53 81 71

usemtl m111
f 53 71 54

usemtl m112
f 66 65 82

usemtl m113
f 66 82 56

usemtl m114
f 66 56 55

usemtl m115
f 66 55 70

usemtl m116
f 66 70 83

usemtl m117
f 66 83 67

usemtl m118
f 67 83 84

usemtl m119
f 67 84 85

usemtl m120
f 67 85 86

usemtl m121
f 67 86 87

usemtl m122
f 67 87 68

usemtl m123
f 68 87 69

usemtl m124
f 69 87 88

usemtl m125
f 69 88 89

usemtl m126
f 69 89 90

usemtl m127
f 69 90 83

usemtl m128
f 69 83 70

usemtl m129
f 58 57 91

usemtl m130
f 58 91 64

usemtl m131
f 58 64 92

usemtl m132
f 58 92 59

usemtl m133
f 59 92 93

usemtl m134
f 59 93 78

usemtl m135
f 78 93 94

usemtl m136
f 78 94 95

usemtl m137
f 78 95 79

usemtl m138
f 79 95 81

usemtl m139
f 79 81 80

usemtl m140
f 64 91 96

usemtl m141
f 64 96 65

usemtl m142
f 65 96 85

usemtl m143
f 65 85 84

usemtl m144
f 65 84 82

usemtl m145
f 82 84 97

usemtl m146
f 82 97 91

usemtl m147
f 82 91 57

usemtl m148
f 82 57 56

usemtl m149
f 70 98 54

usemtl m150
f 54 98 55

usemtl m151
f 55 98 70

usemtl m152
f 26 25 99

usemtl m153
f 26 99 16

usemtl m154
f 26 16 15

usemtl m155
f 26 15 30

usemtl m156
f 26 30 100

usemtl m157
f 26 100 27

usemtl m158
f 27 100 101

usemtl m159
f 27 101 102

usemtl m160
f 27 102 103

usemtl m161
f 27 103 104

usemtl m162
f 27 104 28

usemtl m163
f 28 104 29

usemtl m164
f 29 104 105

usemtl m165
f 29 105 106

usemtl m166
f 29 106 107

usemtl m167
f 29 107 100

usemtl m168
f 29 100 30

usemtl m169
f 18 17 108

usemtl m170
f 18 108 24

usemtl m171
f 18 24 109

usemtl m172
f 18 109 19

usemtl m173
f 19 109 38

usemtl m174
f 19 38 20

usemtl m175
f 24 108 110

usemtl m176
f 24 110 25

usemtl m177
f 25 110 102

usemtl m178
f 25 102 101

usemtl m179
f 25 101 99

usemtl m180
f 99 101 111

usemtl m181
f 99 111 108

usemtl m182
f 99 108 17

usemtl m183
f 99 17 16

usemtl m184
f 30 112 14

usemtl m185
f 14 112 15

usemtl m186
f 15 112 30

usemtl m187
f 113 114 115

usemtl m188
f 113 115 116

usemtl m189
f 113 116 117

usemtl m190
f 113 117 118

usemtl m191
f 113 118 119

usemtl m192
f 113 119 120

usemtl m193
f 113 120 103

usemtl m194
f 113 103 121

usemtl m195
f 113 121 114

usemtl m196
f 114 121 122

usemtl m197
f 114 122 123

usemtl m198
f 114 123 124

usemtl m199
f 114 124 125

usemtl m200
f 114 125 115

usemtl m201
f 115 125 126

usemtl m202
f 115 126 127

usemtl m203
f 115 127 128

usemtl m204
f 115 128 116

usemtl m205
f 116 128 129

usemtl m206
f 116 129 130

usemtl m207
f 116 130 131

usemtl m208
f 116 131 132

usemtl m209
f 116 132 133

usemtl m210
f 116 133 134

usemtl m211
f 116 134 117

usemtl m212
f 117 134 135

usemtl m213
f 117 135 76

usemtl m214
f 117 76 136

usemtl m215
f 117 136 118

usemtl m216
f 118 136 81

usemtl m217
f 118 81 137

usemtl m218
f 118 137 123

usemtl m219
f 118 123 119

usemtl m220
f 119 123 122

usemtl m221
f 119 122 104

usemtl m222
f 119 104 138

usemtl m223
f 119 138 139

usemtl m224
f 119 139 120

usemtl m225
f 120 139 140

usemtl m226
f 120 140 141

usemtl m227
f 120 141 103

usemtl m228
f 103 141 138

usemtl m229
f 103 138 104

usemtl m230
f 135 134 142

usemtl m231
f 135 142 125

usemtl m232
f 135 125 124

usemtl m233
f 135 124 137

usemtl m234
f 135 137 95

usemtl m235
f 135 95 76

usemtl m236
f 76 95 94

usemtl m237
f 76 94 77

usemtl m238
f 77 94 134

usemtl m239
f 77 134 143

usemtl m240
f 77 143 144

usemtl m241
f 77 144 60

usemtl m242
f 60 144 145

usemtl m243
f 60 145 61

usemtl m244
f 61 145 146

usemtl m245
f 61 146 147

usemtl m246
f 61 147 62

usemtl m247
f 62 147 148

usemtl m248
f 62 148 149

usemtl m249
f 62 149 63

usemtl m250
f 63 149 146

usemtl m251
f 63 146 145

usemtl m252
f 63 145 64

usemtl m253
f 64 145 92

usemtl m254
f 92 145 144

usemtl m255
f 92 144 150

usemtl m256
f 92 150 93

usemtl m257
f 93 150 94

usemtl m258
f 94 150 142

usemtl m259
f 94 142 134

usemtl m260
f 127 126 151

usemtl m261
f 127 151 133

usemtl m262
f 127 133 152

usemtl m263
f 127 152 128

usemtl m264
f 128 152 153

usemtl m265
f 128 153 129

usemtl m266
f 129 153 154

usemtl m267
f 129 154 103

usemtl m268
f 129 103 102

usemtl m269
f 129 102 155

usemtl m270
f 129 155 156

usemtl m271
f 129 156 130

usemtl m272
f 130 156 157

usemtl m273
f 130 157 158

usemtl m274
f 130 158 131

usemtl m275
f 131 158 147

usemtl m276
f 131 147 159

usemtl m277
f 131 159 132

usemtl m278
f 132 159 157

usemtl m279
f 132 157 156

usemtl m280
f 132 156 133

usemtl m281
f 133 156 152

usemtl m282
f 152 156 160

usemtl m283
f 152 160 153

usemtl m284
f 153 160 161

usemtl m285
f 153 161 162

usemtl m286
f 153 162 154

usemtl m287
f 154 162 107

usemtl m288
f 154 107 105

usemtl m289
f 154 105 121

usemtl m290
f 154 121 103

usemtl m291
f 133 151 143

usemtl m292
f 133 143 134

usemtl m293
f 137 163 123

usemtl m294
f 123 163 124

usemtl m295
f 124 163 137

usemtl m296
f 164 165 166

usemtl m297
f 164 166 167

usemtl m298
f 164 167 168

usemtl m299
f 164 168 169

usemtl m300
f 164 169 170

usemtl m301
f 164 170 171

usemtl m302
f 164 171 86

usemtl m303
f 164 86 172

usemtl m304
f 164 172 165

usemtl m305
f 165 172 173

usemtl m306
f 165 173 174

usemtl m307
f 165 174 175

usemtl m308
f 165 175 176

usemtl m309
f 165 176 166

usemtl m310
f 166 176 177

usemtl m311
f 166 177 178

usemtl m312
f 166 178 179

usemtl m313
f 166 179 167

usemtl m314
f 167 179 180

usemtl m315
f 167 180 181

usemtl m316
f 167 181 182

usemtl m317
f 167 182 183

usemtl m318
f 167 183 184

usemtl m319
f 167 184 185

usemtl m320
f 167 185 168

usemtl m321
f 168 185 186

usemtl m322
f 168 186 36

usemtl m323
f 168 36 187

usemtl m324
f 168 187 169

usemtl m325
f 169 187 42

usemtl m326
f 169 42 188

usemtl m327
f 169 188 174

usemtl m328
f 169 174 170

usemtl m329
f 170 174 173

usemtl m330
f 170 173 87

usemtl m331
f 170 87 189

usemtl m332
f 170 189 190

usemtl m333
f 170 190 171

usemtl m334
f 171 190 191

usemtl m335
f 171 191 192

usemtl m336
f 171 192 86

usemtl m337
f 86 192 189

usemtl m338
f 86 189 87

usemtl m339
f 186 185 193

usemtl m340
f 186 193 176

usemtl m341
f 186 176 175

usemtl m342
f 186 175 188

usemtl m343
f 186 188 194

usemtl m344
f 186 194 36

usemtl m345
f 36 194 195

usemtl m346
f 36 195 37

usemtl m347
f 37 195 185

usemtl m348
f 37 185 196

usemtl m349
f 37 196 197

usemtl m350
f 37 197 20

usemtl m351
f 20 197 198

usemtl m352
f 20 198 21

usemtl m353
f 21 198 199

usemtl m354
f 21 199 200

usemtl m355
f 21 200 22

usemtl m356
f 22 200 158

usemtl m357
f 22 158 201

usemtl m358
f 22 201 23

usemtl m359
f 23 201 199

usemtl m360
f 23 199 198

usemtl m361
f 23 198 24

usemtl m362
f 24 198 109

usemtl m363
f 109 198 202

usemtl m364
f 109 202 38

usemtl m365
f 38 202 203

usemtl m366
f 38 203 39

usemtl m367
f 39 203 195

usemtl m368
f 39 195 194

usemtl m369
f 39 194 40

usemtl m370
f 40 194 42

usemtl m371
f 40 42 41

usemtl m372
f 178 177 204

usemtl m373
f 178 204 184

usemtl m374
f 178 184 205

usemtl m375
f 178 205 179

usemtl m376
f 179 205 206

usemtl m377
f 179 206 180

usemtl m378
f 180 206 207

usemtl m379
f 180 207 86

usemtl m380
f 180 86 85

usemtl m381
f 180 85 208

usemtl m382
f 180 208 209

usemtl m383
f 180 209 181

usemtl m384
f 181 209 210

usemtl m385
f 181 210 148

usemtl m386
f 181 148 182

usemtl m387
f 182 148 200

usemtl m388
f 182 200 211

usemtl m389
f 182 211 183

usemtl m390
f 183 211 210

usemtl m391
f 183 210 209

usemtl m392
f 183 209 184

usemtl m393
f 184 209 205

usemtl m394
f 205 209 212

usemtl m395
f 205 212 206

usemtl m396
f 206 212 213

usemtl m397
f 206 213 214

usemtl m398
f 206 214 207

usemtl m399
f 207 214 90

usemtl m400
f 207 90 88

usemtl m401
f 207 88 172

usemtl m402
f 207 172 86

usemtl m403
f 184 204 196

usemtl m404
f 184 196 185

usemtl m405
f 188 215 174

usemtl m406
f 174 215 175

usemtl m407
f 175 215 188

usemtl m408
f 71 81 136

usemtl m409
f 71 136 76

usemtl m410
f 216 203 202

usemtl m411
f 216 202 197

usemtl m412
f 216 197 204

usemtl m413
f 216 204 193

usemtl m414
f 216 193 195

usemtl m415
f 216 195 203

usemtl m416
f 197 202 198

usemtl m417
f 31 42 187

usemtl m418
f 31 187 36

usemtl m419
f 100 107 162

usemtl m420
f 100 162 101

usemtl m421
f 101 162 161

usemtl m422
f 101 161 111

usemtl m423
f 111 161 160

usemtl m424
f 111 160 155

usemtl m425
f 111 155 108

usemtl m426
f 108 155 110

usemtl m427
f 110 155 102

usemtl m428
f 155 160 156

usemtl m429
f 83 90 214

usemtl m430
f 83 214 84

usemtl m431
f 84 214 213

usemtl m432
f 84 213 97

usemtl m433
f 97 213 212

usemtl m434
f 97 212 208

usemtl m435
f 97 208 91

usemtl m436
f 91 208 96

usemtl m437
f 96 208 85

usemtl m438
f 208 212 209

usemtl m439
f 193 204 177

usemtl m440
f 193 177 176

usemtl m441
f 88 90 89

usemtl m442
f 142 151 126

usemtl m443
f 142 126 125

usemtl m444
f 105 107 106

usemtl m445
f 158 200 148

usemtl m446
f 158 148 147

usemtl m447
f 159 149 211

usemtl m448
f 159 211 201

usemtl m449
f 159 201 157

usemtl m450
f 157 201 158

usemtl m451
f 217 218 219

usemtl m452
f 217 219 220

usemtl m453
f 217 220 139

usemtl m454
f 217 139 138

usemtl m455
f 217 138 141

usemtl m456
f 217 141 34

usemtl m457
f 217 34 33

usemtl m458
f 217 33 218

usemtl m459
f 218 33 32

usemtl m460
f 218 32 35

usemtl m461
f 218 35 191

usemtl m462
f 218 191 190

usemtl m463
f 218 190 219

usemtl m464
f 219 190 189

usemtl m465
f 219 189 192

usemtl m466
f 219 192 74

usemtl m467
f 219 74 73

usemtl m468
f 219 73 220

usemtl m469
f 220 73 72

usemtl m470
f 220 72 75

usemtl m471
f 220 75 140

usemtl m472
f 220 140 139

usemtl m473
f 140 74 191

usemtl m474
f 140 191 34

usemtl m475
f 140 34 141

usemtl m476
f 194 188 42

usemtl m477
f 197 196 204

usemtl m478
f 195 193 185

usemtl m479
f 95 137 81

usemtl m480
f 150 151 142

usemtl m481
f 151 150 144

usemtl m482
f 151 144 143

usemtl m483
f 200 199 211

usemtl m484
f 211 199 201

usemtl m485
f 35 34 191

usemtl m486
f 173 88 87

usemtl m487
f 88 173 172

usemtl m488
f 192 191 74

usemtl m489
f 148 210 149

usemtl m490
f 149 210 211

usemtl m491
f 122 105 104

usemtl m492
f 105 122 121

usemtl m493
f 75 74 140

usemtl m494
f 147 146 159

usemtl m495
f 159 146 149

usemtl m496
f 51 43 49

usemtl m497
f 51 49 71

usemtl m498
f 145 64 46

usemtl m499
f 145 46 60

