newmtl m0
Kd 0.5215686274509804 0.5215686274509804 0.5764705882352941
newmtl m1
Kd 0.5215686274509804 0.5215686274509804 0.5764705882352941
newmtl m2
Kd 0.6470588235294118 0.6470588235294118 0.6901960784313725
newmtl m3
Kd 0.12156862745098039 0.10980392156862745 0.10980392156862745
newmtl m4
Kd 0.12156862745098039 0.10980392156862745 0.10980392156862745
newmtl m5
Kd 0.12156862745098039 0.10980392156862745 0.10980392156862745
newmtl m6
Kd 0.12156862745098039 0.10980392156862745 0.10980392156862745
newmtl m7
Kd 0.12156862745098039 0.10980392156862745 0.10980392156862745
newmtl m8
Kd 0.12156862745098039 0.10980392156862745 0.10980392156862745
newmtl m9
Kd 0.12156862745098039 0.10980392156862745 0.10980392156862745
newmtl m10
Kd 0.5215686274509804 0.5215686274509804 0.5764705882352941
newmtl m11
Kd 0.5215686274509804 0.5215686274509804 0.5764705882352941
newmtl m12
Kd 0.5215686274509804 0.5215686274509804 0.5764705882352941
newmtl m13
Kd 0.5215686274509804 0.5215686274509804 0.5764705882352941
newmtl m14
Kd 0.5215686274509804 0.5215686274509804 0.5764705882352941
newmtl m15
Kd 0.5215686274509804 0.5215686274509804 0.5764705882352941
newmtl m16
Kd 0.6470588235294118 0.6470588235294118 0.6901960784313725
newmtl m17
Kd 0.6470588235294118 0.6470588235294118 0.6901960784313725
newmtl m18
Kd 0.5215686274509804 0.5215686274509804 0.5764705882352941
newmtl m19
Kd 0.12156862745098039 0.10980392156862745 0.10980392156862745
newmtl m20
Kd 0.12156862745098039 0.10980392156862745 0.10980392156862745
newmtl m21
Kd 0.12156862745098039 0.10980392156862745 0.10980392156862745
newmtl m22
Kd 0.19607843137254902 0.17254901960784313 0.17254901960784313
newmtl m23
Kd 0.19607843137254902 0.17254901960784313 0.17254901960784313
newmtl m24
Kd 0.19607843137254902 0.17254901960784313 0.17254901960784313
newmtl m25
Kd 0.19607843137254902 0.17254901960784313 0.17254901960784313
newmtl m26
Kd 0.19607843137254902 0.17254901960784313 0.17254901960784313
newmtl m27
Kd 0.19607843137254902 0.17254901960784313 0.17254901960784313
newmtl m28
Kd 0.19607843137254902 0.17254901960784313 0.17254901960784313
newmtl m29
Kd 0.19607843137254902 0.17254901960784313 0.17254901960784313
newmtl m30
Kd 0.19607843137254902 0.17254901960784313 0.17254901960784313
newmtl m31
Kd 0.19607843137254902 0.17254901960784313 0.17254901960784313
newmtl m32
Kd 0.19607843137254902 0.17254901960784313 0.17254901960784313
newmtl m33
Kd 0.12156862745098039 0.10980392156862745 0.10980392156862745
newmtl m34
Kd 0.12156862745098039 0.10980392156862745 0.10980392156862745
newmtl m35
Kd 0.19607843137254902 0.17254901960784313 0.17254901960784313
newmtl m36
Kd 0.19607843137254902 0.17254901960784313 0.17254901960784313
newmtl m37
Kd 0.19607843137254902 0.17254901960784313 0.17254901960784313
newmtl m38
Kd 0.19607843137254902 0.17254901960784313 0.17254901960784313
newmtl m39
Kd 0.12156862745098039 0.10980392156862745 0.10980392156862745
newmtl m40
Kd 0.12156862745098039 0.10980392156862745 0.10980392156862745
newmtl m41
Kd 0.12156862745098039 0.10980392156862745 0.10980392156862745
newmtl m42
Kd 0.12156862745098039 0.10980392156862745 0.10980392156862745
newmtl m43
Kd 0.12156862745098039 0.10980392156862745 0.10980392156862745
newmtl m44
Kd 0.12156862745098039 0.10980392156862745 0.10980392156862745
newmtl m45
Kd 0.12156862745098039 0.10980392156862745 0.10980392156862745
newmtl m46
Kd 0.12156862745098039 0.10980392156862745 0.10980392156862745
newmtl m47
Kd 0.12156862745098039 0.10980392156862745 0.10980392156862745
newmtl m48
Kd 0.12156862745098039 0.10980392156862745 0.10980392156862745
newmtl m49
Kd 0.12156862745098039 0.10980392156862745 0.10980392156862745
newmtl m50
Kd 0.12156862745098039 0.10980392156862745 0.10980392156862745
newmtl m51
Kd 0.12156862745098039 0.10980392156862745 0.10980392156862745
newmtl m52
Kd 0.19607843137254902 0.17254901960784313 0.17254901960784313
newmtl m53
Kd 0.5215686274509804 0.5215686274509804 0.5764705882352941
newmtl m54
Kd 0.5215686274509804 0.5215686274509804 0.5764705882352941
newmtl m55
Kd 0.5215686274509804 0.5215686274509804 0.5764705882352941
newmtl m56
Kd 0.5215686274509804 0.5215686274509804 0.5764705882352941
newmtl m57
Kd 0.5215686274509804 0.5215686274509804 0.5764705882352941
newmtl m58
Kd 0.5215686274509804 0.5215686274509804 0.5764705882352941
newmtl m59
Kd 0.5215686274509804 0.5215686274509804 0.5764705882352941
newmtl m60
Kd 0.5215686274509804 0.5215686274509804 0.5764705882352941
newmtl m61
Kd 0.5215686274509804 0.5215686274509804 0.5764705882352941
newmtl m62
Kd 0.6470588235294118 0.6470588235294118 0.6901960784313725
newmtl m63
Kd 0.6470588235294118 0.6470588235294118 0.6901960784313725
newmtl m64
Kd 0.19607843137254902 0.17254901960784313 0.17254901960784313
newmtl m65
Kd 0.12156862745098039 0.10980392156862745 0.10980392156862745
newmtl m66
Kd 0.12156862745098039 0.10980392156862745 0.10980392156862745
newmtl m67
Kd 0.12156862745098039 0.10980392156862745 0.10980392156862745
newmtl m68
Kd 0.19607843137254902 0.17254901960784313 0.17254901960784313
newmtl m69
Kd 0.19607843137254902 0.17254901960784313 0.17254901960784313
newmtl m70
Kd 0.12156862745098039 0.10980392156862745 0.10980392156862745
newmtl m71
Kd 0.12156862745098039 0.10980392156862745 0.10980392156862745
newmtl m72
Kd 0.12156862745098039 0.10980392156862745 0.10980392156862745
newmtl m73
Kd 0.19607843137254902 0.17254901960784313 0.17254901960784313
newmtl m74
Kd 0.19607843137254902 0.17254901960784313 0.17254901960784313
newmtl m75
Kd 0.12156862745098039 0.10980392156862745 0.10980392156862745
newmtl m76
Kd 0.12156862745098039 0.10980392156862745 0.10980392156862745
newmtl m77
Kd 0.12156862745098039 0.10980392156862745 0.10980392156862745
newmtl m78
Kd 0.12156862745098039 0.10980392156862745 0.10980392156862745
newmtl m79
Kd 0.12156862745098039 0.10980392156862745 0.10980392156862745
newmtl m80
Kd 0.12156862745098039 0.10980392156862745 0.10980392156862745
newmtl m81
Kd 0.12156862745098039 0.10980392156862745 0.10980392156862745
newmtl m82
Kd 0.12156862745098039 0.10980392156862745 0.10980392156862745
newmtl m83
Kd 0.12156862745098039 0.10980392156862745 0.10980392156862745
newmtl m84
Kd 0.19607843137254902 0.17254901960784313 0.17254901960784313
newmtl m85
Kd 0.19607843137254902 0.17254901960784313 0.17254901960784313
newmtl m86
Kd 0.12156862745098039 0.10980392156862745 0.10980392156862745
newmtl m87
Kd 0.12156862745098039 0.10980392156862745 0.10980392156862745
newmtl m88
Kd 0.12156862745098039 0.10980392156862745 0.10980392156862745
newmtl m89
Kd 0.12156862745098039 0.10980392156862745 0.10980392156862745
newmtl m90
Kd 0.12156862745098039 0.10980392156862745 0.10980392156862745
newmtl m91
Kd 0.6470588235294118 0.6470588235294118 0.6901960784313725
newmtl m92
Kd 0.19607843137254902 0.17254901960784313 0.17254901960784313
newmtl m93
Kd 0.12156862745098039 0.10980392156862745 0.10980392156862745
newmtl m94
Kd 0.12156862745098039 0.10980392156862745 0.10980392156862745
newmtl m95
Kd 0.12156862745098039 0.10980392156862745 0.10980392156862745
newmtl m96
Kd 0.19607843137254902 0.17254901960784313 0.17254901960784313
newmtl m97
Kd 0.19607843137254902 0.17254901960784313 0.17254901960784313
newmtl m98
Kd 0.19607843137254902 0.17254901960784313 0.17254901960784313
newmtl m99
Kd 0.12156862745098039 0.10980392156862745 0.10980392156862745
newmtl m100
Kd 0.12156862745098039 0.10980392156862745 0.10980392156862745
newmtl m101
Kd 0.12156862745098039 0.10980392156862745 0.10980392156862745
newmtl m102
Kd 0.19607843137254902 0.17254901960784313 0.17254901960784313
newmtl m103
Kd 0.19607843137254902 0.17254901960784313 0.17254901960784313
newmtl m104
Kd 0.12156862745098039 0.10980392156862745 0.10980392156862745
newmtl m105
Kd 0.12156862745098039 0.10980392156862745 0.10980392156862745
newmtl m106
Kd 0.19607843137254902 0.17254901960784313 0.17254901960784313
newmtl m107
Kd 0.12156862745098039 0.10980392156862745 0.10980392156862745
newmtl m108
Kd 0.12156862745098039 0.10980392156862745 0.10980392156862745
newmtl m109
Kd 0.19607843137254902 0.17254901960784313 0.17254901960784313
newmtl m110
Kd 0.12156862745098039 0.10980392156862745 0.10980392156862745
newmtl m111
Kd 0.12156862745098039 0.10980392156862745 0.10980392156862745
newmtl m112
Kd 0.19607843137254902 0.17254901960784313 0.17254901960784313
newmtl m113
Kd 0.19607843137254902 0.17254901960784313 0.17254901960784313
newmtl m114
Kd 0.19607843137254902 0.17254901960784313 0.17254901960784313
newmtl m115
Kd 0.19607843137254902 0.17254901960784313 0.17254901960784313
newmtl m116
Kd 0.19607843137254902 0.17254901960784313 0.17254901960784313
newmtl m117
Kd 0.12156862745098039 0.10980392156862745 0.10980392156862745
newmtl m118
Kd 0.12156862745098039 0.10980392156862745 0.10980392156862745
newmtl m119
Kd 0.5215686274509804 0.5215686274509804 0.5764705882352941
newmtl m120
Kd 0.5215686274509804 0.5215686274509804 0.5764705882352941
newmtl m121
Kd 0.5215686274509804 0.5215686274509804 0.5764705882352941
newmtl m122
Kd 0.12156862745098039 0.10980392156862745 0.10980392156862745
newmtl m123
Kd 0.12156862745098039 0.10980392156862745 0.10980392156862745
newmtl m124
Kd 0.19607843137254902 0.17254901960784313 0.17254901960784313
newmtl m125
Kd 0.19607843137254902 0.17254901960784313 0.17254901960784313
newmtl m126
Kd 0.12156862745098039 0.10980392156862745 0.10980392156862745
newmtl m127
Kd 0.12156862745098039 0.10980392156862745 0.10980392156862745
newmtl m128
Kd 0.12156862745098039 0.10980392156862745 0.10980392156862745
newmtl m129
Kd 0.12156862745098039 0.10980392156862745 0.10980392156862745
newmtl m130
Kd 0.12156862745098039 0.10980392156862745 0.10980392156862745
newmtl m131
Kd 0.12156862745098039 0.10980392156862745 0.10980392156862745
newmtl m132
Kd 0.19607843137254902 0.17254901960784313 0.17254901960784313
newmtl m133
Kd 0.19607843137254902 0.17254901960784313 0.17254901960784313
newmtl m134
Kd 0.19607843137254902 0.17254901960784313 0.17254901960784313
newmtl m135
Kd 0.19607843137254902 0.17254901960784313 0.17254901960784313
newmtl m136
Kd 0.12156862745098039 0.10980392156862745 0.10980392156862745
newmtl m137
Kd 0.12156862745098039 0.10980392156862745 0.10980392156862745
newmtl m138
Kd 0.12156862745098039 0.10980392156862745 0.10980392156862745
newmtl m139
Kd 0.12156862745098039 0.10980392156862745 0.10980392156862745
newmtl m140
Kd 0.12156862745098039 0.10980392156862745 0.10980392156862745
newmtl m141
Kd 0.12156862745098039 0.10980392156862745 0.10980392156862745
newmtl m142
Kd 0.12156862745098039 0.10980392156862745 0.10980392156862745
newmtl m143
Kd 0.12156862745098039 0.10980392156862745 0.10980392156862745
newmtl m144
Kd 0.19607843137254902 0.17254901960784313 0.17254901960784313
newmtl m145
Kd 0.19607843137254902 0.17254901960784313 0.17254901960784313
newmtl m146
Kd 0.19607843137254902 0.17254901960784313 0.17254901960784313
newmtl m147
Kd 0.19607843137254902 0.17254901960784313 0.17254901960784313
newmtl m148
Kd 0.12156862745098039 0.10980392156862745 0.10980392156862745
newmtl m149
Kd 0.12156862745098039 0.10980392156862745 0.10980392156862745
newmtl m150
Kd 0.12156862745098039 0.10980392156862745 0.10980392156862745
newmtl m151
Kd 0.12156862745098039 0.10980392156862745 0.10980392156862745
newmtl m152
Kd 0.12156862745098039 0.10980392156862745 0.10980392156862745
newmtl m153
Kd 0.12156862745098039 0.10980392156862745 0.10980392156862745
newmtl m154
Kd 0.12156862745098039 0.10980392156862745 0.10980392156862745
newmtl m155
Kd 0.12156862745098039 0.10980392156862745 0.10980392156862745
newmtl m156
Kd 0.19607843137254902 0.17254901960784313 0.17254901960784313
newmtl m157
Kd 0.19607843137254902 0.17254901960784313 0.17254901960784313
newmtl m158
Kd 0.19607843137254902 0.17254901960784313 0.17254901960784313
newmtl m159
Kd 0.19607843137254902 0.17254901960784313 0.17254901960784313
newmtl m160
Kd 0.19607843137254902 0.17254901960784313 0.17254901960784313
newmtl m161
Kd 0.12156862745098039 0.10980392156862745 0.10980392156862745
newmtl m162
Kd 0.12156862745098039 0.10980392156862745 0.10980392156862745
newmtl m163
Kd 0.5215686274509804 0.5215686274509804 0.5764705882352941
newmtl m164
Kd 0.5215686274509804 0.5215686274509804 0.5764705882352941
newmtl m165
Kd 0.5215686274509804 0.5215686274509804 0.5764705882352941
newmtl m166
Kd 0.5215686274509804 0.5215686274509804 0.5764705882352941
newmtl m167
Kd 0.5215686274509804 0.5215686274509804 0.5764705882352941
newmtl m168
Kd 0.12156862745098039 0.10980392156862745 0.10980392156862745
newmtl m169
Kd 0.12156862745098039 0.10980392156862745 0.10980392156862745
newmtl m170
Kd 0.19607843137254902 0.17254901960784313 0.17254901960784313
newmtl m171
Kd 0.19607843137254902 0.17254901960784313 0.17254901960784313
newmtl m172
Kd 0.12156862745098039 0.10980392156862745 0.10980392156862745
newmtl m173
Kd 0.12156862745098039 0.10980392156862745 0.10980392156862745
newmtl m174
Kd 0.12156862745098039 0.10980392156862745 0.10980392156862745
newmtl m175
Kd 0.12156862745098039 0.10980392156862745 0.10980392156862745
newmtl m176
Kd 0.12156862745098039 0.10980392156862745 0.10980392156862745
newmtl m177
Kd 0.12156862745098039 0.10980392156862745 0.10980392156862745
newmtl m178
Kd 0.12156862745098039 0.10980392156862745 0.10980392156862745
newmtl m179
Kd 0.19607843137254902 0.17254901960784313 0.17254901960784313
newmtl m180
Kd 0.19607843137254902 0.17254901960784313 0.17254901960784313
newmtl m181
Kd 0.12156862745098039 0.10980392156862745 0.10980392156862745
newmtl m182
Kd 0.12156862745098039 0.10980392156862745 0.10980392156862745
newmtl m183
Kd 0.12156862745098039 0.10980392156862745 0.10980392156862745
newmtl m184
Kd 0.6470588235294118 0.6470588235294118 0.6901960784313725
newmtl m185
Kd 0.6470588235294118 0.6470588235294118 0.6901960784313725
newmtl m186
Kd 0.5215686274509804 0.5215686274509804 0.5764705882352941
newmtl m187
Kd 0.5215686274509804 0.5215686274509804 0.5764705882352941
newmtl m188
Kd 0.5215686274509804 0.5215686274509804 0.5764705882352941
newmtl m189
Kd 0.12156862745098039 0.10980392156862745 0.10980392156862745
newmtl m190
Kd 0.12156862745098039 0.10980392156862745 0.10980392156862745
newmtl m191
Kd 0.19607843137254902 0.17254901960784313 0.17254901960784313
newmtl m192
Kd 0.19607843137254902 0.17254901960784313 0.17254901960784313
newmtl m193
Kd 0.12156862745098039 0.10980392156862745 0.10980392156862745
newmtl m194
Kd 0.12156862745098039 0.10980392156862745 0.10980392156862745
newmtl m195
Kd 0.12156862745098039 0.10980392156862745 0.10980392156862745
newmtl m196
Kd 0.12156862745098039 0.10980392156862745 0.10980392156862745
newmtl m197
Kd 0.12156862745098039 0.10980392156862745 0.10980392156862745
newmtl m198
Kd 0.12156862745098039 0.10980392156862745 0.10980392156862745
newmtl m199
Kd 0.12156862745098039 0.10980392156862745 0.10980392156862745
newmtl m200
Kd 0.12156862745098039 0.10980392156862745 0.10980392156862745
newmtl m201
Kd 0.12156862745098039 0.10980392156862745 0.10980392156862745
newmtl m202
Kd 0.12156862745098039 0.10980392156862745 0.10980392156862745
newmtl m203
Kd 0.12156862745098039 0.10980392156862745 0.10980392156862745
newmtl m204
Kd 0.12156862745098039 0.10980392156862745 0.10980392156862745
newmtl m205
Kd 0.5215686274509804 0.5215686274509804 0.5764705882352941
newmtl m206
Kd 0.6470588235294118 0.6470588235294118 0.6901960784313725
newmtl m207
Kd 0.6470588235294118 0.6470588235294118 0.6901960784313725
newmtl m208
Kd 0.5215686274509804 0.5215686274509804 0.5764705882352941
newmtl m209
Kd 0.5215686274509804 0.5215686274509804 0.5764705882352941
newmtl m210
Kd 0.5215686274509804 0.5215686274509804 0.5764705882352941
newmtl m211
Kd 0.5215686274509804 0.5215686274509804 0.5764705882352941
newmtl m212
Kd 0.19607843137254902 0.17254901960784313 0.17254901960784313
newmtl m213
Kd 0.19607843137254902 0.17254901960784313 0.17254901960784313
newmtl m214
Kd 0.12156862745098039 0.10980392156862745 0.10980392156862745
newmtl m215
Kd 0.19607843137254902 0.17254901960784313 0.17254901960784313
newmtl m216
Kd 0.19607843137254902 0.17254901960784313 0.17254901960784313
newmtl m217
Kd 0.19607843137254902 0.17254901960784313 0.17254901960784313
newmtl m218
Kd 0.19607843137254902 0.17254901960784313 0.17254901960784313
newmtl m219
Kd 0.19607843137254902 0.17254901960784313 0.17254901960784313
