mtllib 19187.mtl
o runescapemodel
v -36 63 22
v -33 60 18
v -33 57 19
v -36 60 24
v -31 66 27
v -31 63 23
v -32 63 22
v -31 62 21
v -29 60 18
v -33 62 15
v -31 60 13
v -33 57 13
v -31 56 16
v -29 57 19
v -31 58 20
v -34 60 24
v -31 62 29
v -26 63 22
v -30 63 22
v -30 64 21
v -31 65 22
v -32 64 21
v -31 63 20
v -26 60 24
v -29 57 13
v -29 62 15
v -29 83 3
v -33 83 3
v -30 82 1
v -31 61 27
v -28 60 24
v -31 55 24
v -33 56 26
v -31 57 27
v -34 66 21
v -31 64 17
v -31 62 18
v -34 64 21
v -31 68 23
v -28 66 21
v -28 64 21
v -31 66 24
v -29 56 26
v -31 50 27
v -32 51 28
v -31 52 29
v -30 51 28
v -36 82 1
v -41 86 9
v -41 89 7
v -36 84 -1
v -21 86 9
v -31 91 17
v -33 94 12
v -31 86 2
v -33 88 -3
v -31 86 -5
v -26 84 -1
v -26 82 1
v -21 89 7
v -29 94 12
v -31 101 10
v -33 98 10
v -29 88 -3
v -28 93 -3
v -34 93 -3
v -31 96 -5
v -31 55 14
v -31 51 7
v -28 56 6
v -34 56 6
v -29 98 10
v -29 94 4
v -31 99 2
v -33 94 4
vn -615 -864 603
vn -1059 -428 507
vn -656 838 -68
vn -590 625 -585
vn -196 -657 -146
vn 342 -1346 -290
vn -682 -545 34
vn -256 -677 1244
vn 1283 -581 450
vn -573 -397 -336
vn 236 188 946
vn -1030 -61 104
vn 0 972 -147
vn 423 992 -311
vn -5 1141 -438
vn -773 939 -530
vn 171 491 -803
vn 559 -981 322
vn 768 -460 204
vn 768 299 -810
vn -170 726 -1236
vn -768 640 -384
vn 256 1408 -384
vn 659 733 -263
vn 1030 195 68
vn 421 -144 -153
vn 443 598 -588
vn -153 904 -509
vn -125 1279 721
vn -19 744 -713
vn 692 875 -533
vn -224 751 894
vn -664 86 -144
vn -212 -346 -1391
vn -551 -364 411
vn 195 -96 552
vn -201 652 217
vn -542 948 -948
vn -180 -353 -350
vn 566 -513 101
vn 600 1100 -654
vn 158 351 -771
vn 1102 122 -177
vn 192 527 164
vn -780 570 -602
vn 124 79 -799
vn 423 580 -554
vn -456 816 154
vn -404 642 -414
vn -828 -487 193
vn -548 277 786
vn 633 968 -443
vn 0 -439 -1014
vn -545 -604 76
vn 0 -1617 407
vn -626 -419 -126
vn 0 176 878
vn 775 344 887
vn 227 765 38
vn 601 -579 100
vn 545 -484 316
vn 0 -840 -462
vn -353 224 219
vn 626 -419 130
vn 128 25 -282
vn -128 25 -26
vn 0 50 824
vn 0 638 -340
vn 0 597 -12
vn 224 -337 279
vn -224 -81 243
vn 353 323 -167
vn 444 -3 -35
vn 0 -178 44
vn -444 216 -181
usemtl m0
f 1 2 3

usemtl m1
f 1 3 4

usemtl m2
f 1 4 5

usemtl m3
f 1 5 6

usemtl m4
f 1 6 7

usemtl m5
f 1 7 8

usemtl m6
f 1 8 2

usemtl m7
f 2 8 9

usemtl m8
f 2 9 10

usemtl m9
f 2 10 11

usemtl m10
f 2 11 12

usemtl m11
f 2 12 13

usemtl m12
f 2 13 3

usemtl m13
f 3 13 14

usemtl m14
f 3 14 15

usemtl m15
f 3 15 4

usemtl m16
f 4 15 16

usemtl m17
f 4 16 17

usemtl m18
f 4 17 5

usemtl m19
f 5 17 18

usemtl m20
f 5 18 6

usemtl m21
f 6 18 19

usemtl m22
f 6 19 20

usemtl m23
f 6 20 21

usemtl m24
f 6 21 7

usemtl m25
f 7 21 22

usemtl m26
f 7 22 8

usemtl m27
f 8 22 23

usemtl m28
f 8 23 19

usemtl m29
f 8 19 18

usemtl m30
f 8 18 9

usemtl m31
f 9 18 24

usemtl m32
f 9 24 14

usemtl m33
f 9 14 13

usemtl m34
f 9 13 25

usemtl m35
f 9 25 11

usemtl m36
f 9 11 26

usemtl m37
f 9 26 10

usemtl m38
f 10 26 27

usemtl m39
f 10 27 28

usemtl m40
f 10 28 29

usemtl m41
f 10 29 11

usemtl m42
f 11 29 27

usemtl m43
f 11 27 26

usemtl m44
f 18 17 24

usemtl m45
f 24 17 30

usemtl m46
f 24 30 31

usemtl m47
f 24 31 14

usemtl m48
f 14 31 15

usemtl m49
f 15 31 32

usemtl m50
f 15 32 16

usemtl m51
f 16 32 33

usemtl m52
f 16 33 34

usemtl m53
f 16 34 30

usemtl m54
f 16 30 17

usemtl m55
f 35 36 37

usemtl m56
f 35 37 38

usemtl m57
f 35 38 39

usemtl m58
f 35 39 40

usemtl m59
f 35 40 36

usemtl m60
f 36 40 41

usemtl m61
f 36 41 37

usemtl m62
f 37 41 23

usemtl m63
f 37 23 38

usemtl m64
f 38 23 22

usemtl m65
f 38 22 21

usemtl m66
f 38 21 42

usemtl m67
f 38 42 39

usemtl m68
f 39 42 40

usemtl m69
f 40 42 41

usemtl m70
f 41 42 21

usemtl m71
f 41 21 20

usemtl m72
f 41 20 23

usemtl m73
f 23 20 19

usemtl m74
f 31 43 32

usemtl m75
f 32 43 44

usemtl m76
f 32 44 45

usemtl m77
f 32 45 33

usemtl m78
f 33 45 34

usemtl m79
f 34 45 46

usemtl m80
f 34 46 43

usemtl m81
f 34 43 31

usemtl m82
f 34 31 30

usemtl m83
f 44 43 47

usemtl m84
f 44 47 45

usemtl m85
f 45 47 46

usemtl m86
f 46 47 43

usemtl m87
f 48 49 50

usemtl m88
f 48 50 51

usemtl m89
f 48 51 29

usemtl m90
f 48 29 28

usemtl m91
f 48 28 49

usemtl m92
f 49 28 52

usemtl m93
f 49 52 53

usemtl m94
f 49 53 50

usemtl m95
f 50 53 54

usemtl m96
f 50 54 55

usemtl m97
f 50 55 51

usemtl m98
f 51 55 56

usemtl m99
f 51 56 57

usemtl m100
f 51 57 58

usemtl m101
f 51 58 29

usemtl m102
f 29 58 59

usemtl m103
f 29 59 27

usemtl m104
f 27 59 52

usemtl m105
f 27 52 28

usemtl m106
f 52 59 58

usemtl m107
f 52 58 60

usemtl m108
f 52 60 53

usemtl m109
f 53 60 61

usemtl m110
f 53 61 62

usemtl m111
f 53 62 54

usemtl m112
f 54 62 63

usemtl m113
f 54 63 61

usemtl m114
f 54 61 55

usemtl m115
f 55 61 60

usemtl m116
f 55 60 58

usemtl m117
f 55 58 64

usemtl m118
f 55 64 56

usemtl m119
f 56 64 65

usemtl m120
f 56 65 66

usemtl m121
f 56 66 67

usemtl m122
f 56 67 57

usemtl m123
f 57 67 64

usemtl m124
f 57 64 58

usemtl m125
f 25 13 68

usemtl m126
f 25 68 69

usemtl m127
f 25 69 70

usemtl m128
f 25 70 12

usemtl m129
f 25 12 11

usemtl m130
f 13 12 68

usemtl m131
f 68 12 69

usemtl m132
f 69 12 71

usemtl m133
f 69 71 70

usemtl m134
f 70 71 12

usemtl m135
f 61 72 62

usemtl m136
f 62 72 73

usemtl m137
f 62 73 74

usemtl m138
f 62 74 75

usemtl m139
f 62 75 63

usemtl m140
f 63 75 72

usemtl m141
f 63 72 61

usemtl m142
f 67 65 64

usemtl m143
f 72 75 73

