mtllib 19224.mtl
o runescapemodel
v 15 8 -14
v -10 10 11
v -8 12 15
v 17 9 -14
v 47 5 -49
v 51 1 -48
v 17 6 -14
v -8 6 13
v 19 7 -12
v -6 10 17
v 54 4 -44
v 51 8 -48
v -20 4 20
v -15 6 17
v -12 8 19
v -10 10 21
v -9 12 25
v -9 14 29
v -12 18 26
v -22 8 17
v -17 10 16
v -14 11 16
v -11 7 18
v -7 8 15
v -8 10 19
v -10 13 17
v -12 14 18
v -12 16 21
v -13 10 23
v -16 10 26
v -17 10 26
v -15 9 22
v -19 11 24
v -16 10 21
v -18 12 25
v -15 12 22
v -13 3 15
v -10 3 11
v -13 8 7
v -8 12 13
v -2 12 20
v -4 12 23
v -8 16 19
v -6 16 18
v -12 10 15
v -15 8 11
v -29 1 40
v -34 6 41
v -36 6 37
v -36 2 33
v -24 -1 36
v -19 4 42
v -25 6 44
v -31 8 45
v -24 14 45
v -30 12 46
v -29 21 42
v -33 16 42
v -33 21 34
v -36 16 38
v -39 13 37
v -39 16 31
v -39 8 30
v -37 9 35
v -36 7 23
v -31 0 29
v -20 0 33
v -15 5 37
v -15 14 37
v -18 14 44
v -22 23 37
v -30 23 30
v -35 16 24
v -30 16 21
v -29 8 21
v -25 2 24
v -18 5 27
v -15 8 29
v -15 12 29
v -17 15 28
v -19 21 33
v -24 22 25
v -22 12 21
v -21 8 22
v -20 6 23
v -17 10 24
v -19 16 24
v -32 8 48
v -39 8 50
v -43 8 46
v -35 4 36
v -39 12 36
v -35 12 41
v -26 3 42
v -23 4 46
v -24 8 45
v -30 12 47
v -39 13 52
v -48 8 56
v -51 9 51
v -45 13 44
v -42 10 40
v -41 4 29
v -37 4 33
v -43 17 48
v -39 18 41
v -32 24 38
v -31 21 38
v -33 17 42
v -20 4 41
v -18 3 44
v -19 6 42
v -49 14 54
v -47 11 56
v -56 8 58
v -57 8 56
v -58 10 56
v -52 12 51
v -56 10 58
v -54 10 58
v -56 10 59
v -63 6 59
v -26 25 34
v -28 23 33
v -24 23 35
v -22 21 30
v -36 3 24
v -33 2 26
v -34 5 25
v -28 5 23
v -56 9 58
v -49 10 52
v -49 10 53
v -41 12 46
v -40 10 48
v -40 12 50
v -32 14 38
v -32 12 38
v -32 10 38
v -31 11 40
v -22 14 36
v -28 16 31
v -34 11 31
v -31 5 35
v -24 8 37
v -20 7 33
v -19 13 31
v -24 14 26
v -30 10 25
v -26 4 29
v -22 9 26
v -20 13 37
v -18 14 39
v -24 14 42
v -26 18 39
v -22 17 35
v -19 10 33
v -16 13 33
v -18 17 31
v -20 18 36
v -21 14 28
v -21 7 28
v -16 10 28
v -19 14 26
v -25 3 25
v -20 7 26
v -21 10 22
v -23 10 24
v -29 8 23
v 48 -1 -50
v 55 3 -43
v 53 9 -46
v 46 6 -51
v 48 6 -54
v 53 0 -52
v 56 3 -45
v 55 10 -49
v 50 5 -54
v 54 8 -52
v 58 6 -54
v 57 4 -55
v 54 1 -51
v 58 4 -49
v 59 4 -53
v 61 3 -62
v 57 2 -54
vn -723 -166 696
vn -370 65 366
vn 77 -857 27
vn 28 -1223 49
vn -87 -220 736
vn -78 449 328
vn -277 1156 175
vn 32 576 -41
vn 586 47 -523
vn 246 -20 -209
vn 622 56 -5
vn 130 -289 210
vn 60 988 -493
vn 195 456 616
vn 599 1245 -131
vn 883 242 -461
vn 931 157 31
vn 384 -44 -190
vn -738 -767 22
vn -360 -2 379
vn 0 -199 920
vn -584 -11 789
vn -140 719 -402
vn 1120 947 -182
vn -24 477 -874
vn 17 -982 -178
vn 153 -1036 489
vn 424 -345 176
vn 197 296 -221
vn 256 -128 -256
vn -49 724 -93
vn -195 687 -20
vn -337 236 219
vn -372 -153 372
vn -98 -564 171
vn 103 -537 -103
vn -446 264 -252
vn 169 679 116
vn 125 -32 447
vn 198 -1079 829
vn 627 -35 149
vn 142 46 -618
vn -390 -389 -354
vn 191 -886 191
vn -892 -390 268
vn -775 -152 138
vn -426 1059 -820
vn -20 1536 -339
vn -805 416 -402
vn -892 1034 -127
vn 31 1164 -241
vn 798 892 -1004
vn 26 617 -1304
vn 50 321 -639
vn 265 -269 -1369
vn -58 -130 -679
vn -355 -993 -809
vn -467 -433 -404
vn -930 -1102 215
vn -339 -346 -178
vn -815 -181 -254
vn -1200 -601 252
vn -1379 -288 290
vn -433 163 -205
vn -910 417 818
vn -301 1261 549
vn 631 1255 142
vn 1270 464 -5
vn 1329 -356 -269
vn 754 -331 -942
vn 408 -1197 -440
vn -605 -1512 334
vn -670 -435 829
vn -265 -401 1251
vn -272 408 1323
vn 249 985 951
vn 1048 920 597
vn 889 269 278
vn 1183 -233 252
vn 1095 -547 360
vn 1108 -935 83
vn 344 -1047 749
vn 369 -159 1136
vn 327 337 1439
vn 502 458 712
vn 1479 79 1232
vn 840 -520 686
vn 304 480 -1083
vn 139 1185 -515
vn -589 1151 192
vn 113 654 105
vn -327 -972 1318
vn 1259 70 1107
vn 0 458 579
vn 147 362 -888
vn 416 -772 67
vn 619 -373 -345
vn 725 -552 -1491
vn 285 653 -603
vn -630 1332 839
vn -999 -70 828
vn -933 353 300
vn -714 339 224
vn 728 308 -39
vn -457 -1344 28
vn -270 -676 -226
vn -277 -529 -152
vn 833 305 -658
vn 638 -692 -358
vn -270 43 747
vn 279 443 -200
vn 206 -675 -116
vn -193 -1209 -576
vn 347 -439 -1244
vn 421 1107 -879
vn -154 638 482
vn -707 -500 486
vn -708 -529 558
vn -292 -1341 -526
vn 206 -306 -620
vn 64 -240 -480
vn -205 -20 -59
vn 111 -920 47
vn -67 403 395
vn 235 148 -215
vn 101 -100 123
vn -375 260 660
vn 237 244 -185
vn 338 -692 -43
vn 45 -51 117
vn 0 0 0
vn -134 194 158
vn -22 -86 -183
vn -519 -384 457
vn -127 946 146
vn 401 -114 -550
vn -217 -798 -111
vn -1136 -9 523
vn -638 583 -340
vn 214 229 -1015
vn 638 -623 -836
vn -340 -1086 227
vn -1083 -316 222
vn -674 934 -305
vn 410 650 -820
vn 835 503 -236
vn 802 -501 156
vn 53 -684 729
vn -415 255 782
vn 119 955 215
vn 615 300 823
vn -320 1073 -81
vn 613 50 -417
vn 37 67 -315
vn -317 -90 185
vn -757 -101 324
vn -375 544 -316
vn 1184 463 -257
vn 430 -785 189
vn 139 -1162 -79
vn -1126 -748 213
vn -243 507 -629
vn 999 566 185
vn 278 -863 690
vn 128 327 -231
vn 459 587 580
vn 196 -161 656
vn -807 -751 -195
vn -20 -54 221
vn -531 430 -97
vn 197 335 -395
vn -63 -477 -650
vn -548 -377 -23
vn 0 -69 720
vn 309 488 229
vn 845 -32 -4
vn 148 -502 76
vn -217 -132 387
vn -139 -429 -311
vn 381 -905 379
vn -626 70 833
vn -178 627 -188
vn 385 -158 -390
vn 910 337 -270
vn -12 -20 148
vn -69 544 168
usemtl m0
f 1 2 3

usemtl m1
f 1 3 4

usemtl m2
f 1 4 5

usemtl m3
f 1 5 6

usemtl m4
f 1 6 7

usemtl m5
f 1 7 2

usemtl m6
f 2 7 8

usemtl m7
f 8 7 9

usemtl m8
f 8 9 10

usemtl m9
f 10 9 3

usemtl m10
f 3 9 4

usemtl m11
f 4 9 11

usemtl m12
f 4 11 12

usemtl m13
f 4 12 5

usemtl m14
f 5 12 11

usemtl m15
f 5 11 6

usemtl m16
f 6 11 7

usemtl m17
f 7 11 9

usemtl m18
f 13 14 15

usemtl m19
f 13 15 16

usemtl m20
f 13 16 17

usemtl m21
f 13 17 18

usemtl m22
f 13 18 19

usemtl m23
f 13 19 20

usemtl m24
f 13 20 14

usemtl m25
f 14 20 21

usemtl m26
f 14 21 15

usemtl m27
f 15 21 22

usemtl m28
f 15 22 23

usemtl m29
f 15 23 24

usemtl m30
f 15 24 25

usemtl m31
f 15 25 16

usemtl m32
f 16 25 26

usemtl m33
f 16 26 27

usemtl m34
f 16 27 17

usemtl m35
f 17 27 28

usemtl m36
f 17 28 18

usemtl m37
f 18 28 19

usemtl m38
f 19 28 27

usemtl m39
f 19 27 22

usemtl m40
f 19 22 21

usemtl m41
f 19 21 20

usemtl m42
f 29 30 31

usemtl m43
f 29 31 32

usemtl m44
f 32 31 33

usemtl m45
f 32 33 34

usemtl m46
f 34 33 35

usemtl m47
f 34 35 36

usemtl m48
f 36 35 30

usemtl m49
f 36 30 29

usemtl m50
f 23 37 38

usemtl m51
f 23 38 24

usemtl m52
f 24 38 39

usemtl m53
f 24 39 40

usemtl m54
f 24 40 41

usemtl m55
f 24 41 42

usemtl m56
f 24 42 25

usemtl m57
f 25 42 43

usemtl m58
f 25 43 26

usemtl m59
f 26 43 44

usemtl m60
f 26 44 40

usemtl m61
f 26 40 27

usemtl m62
f 27 40 45

usemtl m63
f 27 45 22

usemtl m64
f 22 45 23

usemtl m65
f 23 45 37

usemtl m66
f 37 45 46

usemtl m67
f 37 46 38

usemtl m68
f 38 46 39

usemtl m69
f 39 46 40

usemtl m70
f 40 46 45

usemtl m71
f 41 40 44

usemtl m72
f 41 44 42

usemtl m73
f 42 44 43

usemtl m74
f 47 48 49

usemtl m75
f 47 49 50

usemtl m76
f 47 50 51

usemtl m77
f 47 51 52

usemtl m78
f 47 52 53

usemtl m79
f 47 53 48

usemtl m80
f 48 53 54

usemtl m81
f 54 53 55

usemtl m82
f 54 55 56

usemtl m83
f 56 55 57

usemtl m84
f 56 57 58

usemtl m85
f 58 57 59

usemtl m86
f 58 59 60

usemtl m87
f 60 59 61

usemtl m88
f 61 59 62

usemtl m89
f 61 62 63

usemtl m90
f 61 63 64

usemtl m91
f 64 63 49

usemtl m92
f 49 63 50

usemtl m93
f 50 63 65

usemtl m94
f 50 65 66

usemtl m95
f 50 66 51

usemtl m96
f 51 66 67

usemtl m97
f 51 67 52

usemtl m98
f 52 67 68

usemtl m99
f 52 68 69

usemtl m100
f 52 69 70

usemtl m101
f 52 70 53

usemtl m102
f 53 70 55

usemtl m103
f 55 70 71

usemtl m104
f 55 71 57

usemtl m105
f 57 71 72

usemtl m106
f 57 72 59

usemtl m107
f 59 72 62

usemtl m108
f 62 72 73

usemtl m109
f 62 73 65

usemtl m110
f 62 65 63

usemtl m111
f 73 74 75

usemtl m112
f 73 75 65

usemtl m113
f 65 75 66

usemtl m114
f 66 75 76

usemtl m115
f 66 76 67

usemtl m116
f 67 76 77

usemtl m117
f 67 77 68

usemtl m118
f 68 77 78

usemtl m119
f 68 78 79

usemtl m120
f 68 79 69

usemtl m121
f 69 79 80

usemtl m122
f 69 80 81

usemtl m123
f 69 81 70

usemtl m124
f 70 81 71

usemtl m125
f 71 81 82

usemtl m126
f 71 82 72

usemtl m127
f 72 82 74

usemtl m128
f 72 74 73

usemtl m129
f 74 83 84

usemtl m130
f 74 84 75

usemtl m131
f 75 84 76

usemtl m132
f 76 84 85

usemtl m133
f 76 85 77

usemtl m134
f 77 85 86

usemtl m135
f 77 86 78

usemtl m136
f 78 86 79

usemtl m137
f 79 86 80

usemtl m138
f 80 86 87

usemtl m139
f 80 87 81

usemtl m140
f 81 87 82

usemtl m141
f 82 87 83

usemtl m142
f 82 83 74

usemtl m143
f 86 85 84

usemtl m144
f 86 84 83

usemtl m145
f 86 83 87

usemtl m146
f 48 88 89

usemtl m147
f 48 89 90

usemtl m148
f 48 90 91

usemtl m149
f 48 91 92

usemtl m150
f 48 92 93

usemtl m151
f 48 93 94

usemtl m152
f 48 94 95

usemtl m153
f 48 95 88

usemtl m154
f 88 95 96

usemtl m155
f 88 96 97

usemtl m156
f 88 97 98

usemtl m157
f 88 98 89

usemtl m158
f 89 98 99

usemtl m159
f 89 99 100

usemtl m160
f 89 100 90

usemtl m161
f 90 100 101

usemtl m162
f 90 101 102

usemtl m163
f 90 102 91

usemtl m164
f 91 102 103

usemtl m165
f 91 103 104

usemtl m166
f 91 104 92

usemtl m167
f 92 104 63

usemtl m168
f 92 63 103

usemtl m169
f 92 103 102

usemtl m170
f 92 102 101

usemtl m171
f 92 101 105

usemtl m172
f 92 105 106

usemtl m173
f 92 106 107

usemtl m174
f 92 107 59

usemtl m175
f 92 59 93

usemtl m176
f 93 59 108

usemtl m177
f 93 108 109

usemtl m178
f 93 109 97

usemtl m179
f 93 97 96

usemtl m180
f 93 96 94

usemtl m181
f 94 96 110

usemtl m182
f 94 110 111

usemtl m183
f 94 111 95

usemtl m184
f 95 111 112

usemtl m185
f 95 112 96

usemtl m186
f 96 112 110

usemtl m187
f 110 112 68

usemtl m188
f 110 68 111

usemtl m189
f 111 68 112

usemtl m190
f 97 109 98

usemtl m191
f 98 109 105

usemtl m192
f 98 105 113

usemtl m193
f 98 113 114

usemtl m194
f 98 114 99

usemtl m195
f 99 114 115

usemtl m196
f 99 115 100

usemtl m197
f 100 115 116

usemtl m198
f 100 116 117

usemtl m199
f 100 117 118

usemtl m200
f 100 118 101

usemtl m201
f 101 118 105

usemtl m202
f 105 118 113

usemtl m203
f 113 118 117

usemtl m204
f 113 117 119

usemtl m205
f 113 119 114

usemtl m206
f 114 119 120

usemtl m207
f 114 120 115

usemtl m208
f 115 120 121

usemtl m209
f 115 121 122

usemtl m210
f 115 122 116

usemtl m211
f 116 122 117

usemtl m212
f 117 122 119

usemtl m213
f 119 122 121

usemtl m214
f 119 121 120

usemtl m215
f 109 106 105

usemtl m216
f 106 109 108

usemtl m217
f 106 108 107

usemtl m218
f 107 108 123

usemtl m219
f 107 123 59

usemtl m220
f 59 123 124

usemtl m221
f 59 124 108

usemtl m222
f 108 124 125

usemtl m223
f 108 125 123

usemtl m224
f 123 125 126

usemtl m225
f 123 126 124

usemtl m226
f 124 126 125

usemtl m227
f 103 63 127

usemtl m228
f 103 127 104

usemtl m229
f 104 127 128

usemtl m230
f 104 128 129

usemtl m231
f 104 129 63

usemtl m232
f 63 129 127

usemtl m233
f 127 129 130

usemtl m234
f 127 130 128

usemtl m235
f 128 130 129

usemtl m236
f 131 132 133

usemtl m237
f 131 133 133

usemtl m238
f 131 133 132

usemtl m239
f 132 133 134

usemtl m240
f 132 134 135

usemtl m241
f 132 135 133

usemtl m242
f 133 135 136

usemtl m243
f 133 136 133

usemtl m244
f 133 136 134

usemtl m245
f 134 136 137

usemtl m246
f 134 137 138

usemtl m247
f 134 138 135

usemtl m248
f 135 138 139

usemtl m249
f 135 139 136

usemtl m250
f 136 139 140

usemtl m251
f 136 140 137

usemtl m252
f 137 140 141

usemtl m253
f 137 141 142

usemtl m254
f 137 142 138

usemtl m255
f 138 142 143

usemtl m256
f 138 143 139

usemtl m257
f 139 143 144

usemtl m258
f 139 144 140

usemtl m259
f 140 144 145

usemtl m260
f 140 145 141

usemtl m261
f 141 145 146

usemtl m262
f 141 146 147

usemtl m263
f 141 147 142

usemtl m264
f 142 147 148

usemtl m265
f 142 148 143

usemtl m266
f 143 148 149

usemtl m267
f 143 149 144

usemtl m268
f 144 149 150

usemtl m269
f 144 150 145

usemtl m270
f 145 150 146

usemtl m271
f 146 150 151

usemtl m272
f 146 151 147

usemtl m273
f 147 151 148

usemtl m274
f 148 151 149

usemtl m275
f 149 151 150

usemtl m276
f 152 153 154

usemtl m277
f 152 154 155

usemtl m278
f 152 155 156

usemtl m279
f 152 156 157

usemtl m280
f 152 157 158

usemtl m281
f 152 158 153

usemtl m282
f 153 158 159

usemtl m283
f 153 159 160

usemtl m284
f 153 160 154

usemtl m285
f 154 160 155

usemtl m286
f 155 160 156

usemtl m287
f 156 160 161

usemtl m288
f 156 161 157

usemtl m289
f 157 161 162

usemtl m290
f 157 162 158

usemtl m291
f 158 162 163

usemtl m292
f 158 163 164

usemtl m293
f 158 164 159

usemtl m294
f 159 164 161

usemtl m295
f 159 161 160

usemtl m296
f 163 162 165

usemtl m297
f 163 165 166

usemtl m298
f 163 166 167

usemtl m299
f 163 167 164

usemtl m300
f 164 167 168

usemtl m301
f 164 168 161

usemtl m302
f 161 168 162

usemtl m303
f 162 168 165

usemtl m304
f 165 168 169

usemtl m305
f 165 169 166

usemtl m306
f 166 169 167

usemtl m307
f 167 169 168

usemtl m308
f 170 171 172

usemtl m309
f 170 172 173

usemtl m310
f 170 173 174

usemtl m311
f 170 174 175

usemtl m312
f 170 175 171

usemtl m313
f 171 175 176

usemtl m314
f 171 176 172

usemtl m315
f 172 176 177

usemtl m316
f 172 177 173

usemtl m317
f 173 177 174

usemtl m318
f 174 177 176

usemtl m319
f 174 176 175

usemtl m320
f 178 179 180

usemtl m321
f 178 180 181

usemtl m322
f 178 181 182

usemtl m323
f 178 182 179

usemtl m324
f 179 182 183

usemtl m325
f 179 183 180

usemtl m326
f 180 183 184

usemtl m327
f 180 184 185

usemtl m328
f 180 185 181

usemtl m329
f 181 185 186

usemtl m330
f 181 186 182

usemtl m331
f 182 186 184

usemtl m332
f 182 184 183

usemtl m333
f 185 184 186

