newmtl m0
Kd 0.18823529411764706 0.1568627450980392 0.0392156862745098
newmtl m1
Kd 0.18823529411764706 0.1568627450980392 0.0392156862745098
newmtl m2
Kd 0.18823529411764706 0.1568627450980392 0.0392156862745098
newmtl m3
Kd 0.18823529411764706 0.1568627450980392 0.0392156862745098
newmtl m4
Kd 0.18823529411764706 0.1568627450980392 0.0392156862745098
newmtl m5
Kd 0.18823529411764706 0.1568627450980392 0.0392156862745098
newmtl m6
Kd 0.18823529411764706 0.1568627450980392 0.0392156862745098
newmtl m7
Kd 0.18823529411764706 0.1568627450980392 0.0392156862745098
newmtl m8
Kd 0.18823529411764706 0.1568627450980392 0.0392156862745098
newmtl m9
Kd 0.18823529411764706 0.1568627450980392 0.0392156862745098
newmtl m10
Kd 0.18823529411764706 0.1568627450980392 0.0392156862745098
newmtl m11
Kd 0.18823529411764706 0.1568627450980392 0.0392156862745098
newmtl m12
Kd 0.18823529411764706 0.1568627450980392 0.0392156862745098
newmtl m13
Kd 0.18823529411764706 0.1568627450980392 0.0392156862745098
newmtl m14
Kd 0.18823529411764706 0.1568627450980392 0.0392156862745098
newmtl m15
Kd 0.18823529411764706 0.1568627450980392 0.0392156862745098
newmtl m16
Kd 0.18823529411764706 0.1568627450980392 0.0392156862745098
newmtl m17
Kd 0.18823529411764706 0.1568627450980392 0.0392156862745098
newmtl m18
Kd 0.18823529411764706 0.1568627450980392 0.0392156862745098
newmtl m19
Kd 0.18823529411764706 0.1568627450980392 0.0392156862745098
newmtl m20
Kd 0.18823529411764706 0.1568627450980392 0.0392156862745098
newmtl m21
Kd 0.18823529411764706 0.1568627450980392 0.0392156862745098
newmtl m22
Kd 0.18823529411764706 0.1568627450980392 0.0392156862745098
newmtl m23
Kd 0.18823529411764706 0.1568627450980392 0.0392156862745098
newmtl m24
Kd 0.18823529411764706 0.1568627450980392 0.0392156862745098
newmtl m25
Kd 0.18823529411764706 0.1568627450980392 0.0392156862745098
newmtl m26
Kd 0.18823529411764706 0.1568627450980392 0.0392156862745098
newmtl m27
Kd 0.2901960784313726 0.14901960784313725 0.03137254901960784
newmtl m28
Kd 0.2901960784313726 0.14901960784313725 0.03137254901960784
newmtl m29
Kd 0.2901960784313726 0.14901960784313725 0.03137254901960784
newmtl m30
Kd 0.2901960784313726 0.14901960784313725 0.03137254901960784
newmtl m31
Kd 0.2901960784313726 0.14901960784313725 0.03137254901960784
newmtl m32
Kd 0.37254901960784315 0.25098039215686274 0.1568627450980392
newmtl m33
Kd 0.37254901960784315 0.25098039215686274 0.1568627450980392
newmtl m34
Kd 0.18823529411764706 0.1568627450980392 0.0392156862745098
newmtl m35
Kd 0.18823529411764706 0.1568627450980392 0.0392156862745098
newmtl m36
Kd 0.18823529411764706 0.1568627450980392 0.0392156862745098
newmtl m37
Kd 0.18823529411764706 0.1568627450980392 0.0392156862745098
newmtl m38
Kd 0.18823529411764706 0.1568627450980392 0.0392156862745098
newmtl m39
Kd 0.2901960784313726 0.14901960784313725 0.03137254901960784
newmtl m40
Kd 0.2901960784313726 0.14901960784313725 0.03137254901960784
newmtl m41
Kd 0.18823529411764706 0.1568627450980392 0.0392156862745098
newmtl m42
Kd 0.18823529411764706 0.1568627450980392 0.0392156862745098
newmtl m43
Kd 0.18823529411764706 0.1568627450980392 0.0392156862745098
newmtl m44
Kd 0.18823529411764706 0.1568627450980392 0.0392156862745098
newmtl m45
Kd 0.18823529411764706 0.1568627450980392 0.0392156862745098
newmtl m46
Kd 0.18823529411764706 0.1568627450980392 0.0392156862745098
newmtl m47
Kd 0.18823529411764706 0.1568627450980392 0.0392156862745098
newmtl m48
Kd 0.18823529411764706 0.1568627450980392 0.0392156862745098
newmtl m49
Kd 0.18823529411764706 0.1568627450980392 0.0392156862745098
newmtl m50
Kd 0.18823529411764706 0.1568627450980392 0.0392156862745098
newmtl m51
Kd 0.18823529411764706 0.1568627450980392 0.0392156862745098
newmtl m52
Kd 0.18823529411764706 0.1568627450980392 0.0392156862745098
newmtl m53
Kd 0.18823529411764706 0.1568627450980392 0.0392156862745098
newmtl m54
Kd 0.18823529411764706 0.1568627450980392 0.0392156862745098
newmtl m55
Kd 0.18823529411764706 0.1568627450980392 0.0392156862745098
newmtl m56
Kd 0.18823529411764706 0.1568627450980392 0.0392156862745098
newmtl m57
Kd 0.18823529411764706 0.1568627450980392 0.0392156862745098
newmtl m58
Kd 0.18823529411764706 0.1568627450980392 0.0392156862745098
newmtl m59
Kd 0.18823529411764706 0.1568627450980392 0.0392156862745098
newmtl m60
map_Kd sprite/471-0.png
newmtl m61
map_Kd sprite/471-0.png
newmtl m62
map_Kd sprite/471-0.png
newmtl m63
map_Kd sprite/471-0.png
newmtl m64
map_Kd sprite/471-0.png
newmtl m65
map_Kd sprite/471-0.png
newmtl m66
map_Kd sprite/471-0.png
newmtl m67
map_Kd sprite/471-0.png
newmtl m68
map_Kd sprite/471-0.png
newmtl m69
map_Kd sprite/471-0.png
newmtl m70
map_Kd sprite/471-0.png
newmtl m71
map_Kd sprite/471-0.png
newmtl m72
Kd 0.37254901960784315 0.25098039215686274 0.1568627450980392
newmtl m73
Kd 0.37254901960784315 0.25098039215686274 0.1568627450980392
newmtl m74
Kd 0.37254901960784315 0.25098039215686274 0.1568627450980392
newmtl m75
Kd 0.2901960784313726 0.14901960784313725 0.03137254901960784
newmtl m76
Kd 0.2901960784313726 0.14901960784313725 0.03137254901960784
newmtl m77
Kd 0.2901960784313726 0.14901960784313725 0.03137254901960784
newmtl m78
Kd 0.2901960784313726 0.14901960784313725 0.03137254901960784
newmtl m79
Kd 0.2901960784313726 0.14901960784313725 0.03137254901960784
newmtl m80
Kd 0.2901960784313726 0.14901960784313725 0.03137254901960784
newmtl m81
Kd 0.2901960784313726 0.14901960784313725 0.03137254901960784
newmtl m82
Kd 0.2901960784313726 0.14901960784313725 0.03137254901960784
newmtl m83
Kd 0.2901960784313726 0.14901960784313725 0.03137254901960784
newmtl m84
Kd 0.2901960784313726 0.14901960784313725 0.03137254901960784
newmtl m85
Kd 0.2901960784313726 0.14901960784313725 0.03137254901960784
newmtl m86
Kd 0.2901960784313726 0.14901960784313725 0.03137254901960784
newmtl m87
Kd 0.2901960784313726 0.14901960784313725 0.03137254901960784
newmtl m88
Kd 0.2901960784313726 0.14901960784313725 0.03137254901960784
newmtl m89
Kd 0.37254901960784315 0.25098039215686274 0.1568627450980392
newmtl m90
Kd 0.2901960784313726 0.14901960784313725 0.03137254901960784
newmtl m91
Kd 0.2901960784313726 0.14901960784313725 0.03137254901960784
newmtl m92
Kd 0.37254901960784315 0.25098039215686274 0.1568627450980392
newmtl m93
Kd 0.2901960784313726 0.14901960784313725 0.03137254901960784
newmtl m94
Kd 0.2901960784313726 0.14901960784313725 0.03137254901960784
newmtl m95
Kd 0.2901960784313726 0.14901960784313725 0.03137254901960784
newmtl m96
Kd 0.2901960784313726 0.14901960784313725 0.03137254901960784
newmtl m97
Kd 0.2901960784313726 0.14901960784313725 0.03137254901960784
newmtl m98
Kd 0.37254901960784315 0.25098039215686274 0.1568627450980392
newmtl m99
Kd 0.37254901960784315 0.25098039215686274 0.1568627450980392
newmtl m100
Kd 0.2901960784313726 0.14901960784313725 0.03137254901960784
newmtl m101
Kd 0.2901960784313726 0.14901960784313725 0.03137254901960784
newmtl m102
Kd 0.2901960784313726 0.14901960784313725 0.03137254901960784
newmtl m103
Kd 0.37254901960784315 0.25098039215686274 0.1568627450980392
newmtl m104
Kd 0.37254901960784315 0.25098039215686274 0.1568627450980392
newmtl m105
Kd 0.2901960784313726 0.14901960784313725 0.03137254901960784
newmtl m106
Kd 0.2901960784313726 0.14901960784313725 0.03137254901960784
newmtl m107
Kd 0.2901960784313726 0.14901960784313725 0.03137254901960784
newmtl m108
Kd 0.2901960784313726 0.14901960784313725 0.03137254901960784
newmtl m109
Kd 0.2901960784313726 0.14901960784313725 0.03137254901960784
newmtl m110
Kd 0.2901960784313726 0.14901960784313725 0.03137254901960784
newmtl m111
Kd 0.2901960784313726 0.14901960784313725 0.03137254901960784
newmtl m112
Kd 0.3411764705882353 0.3058823529411765 0.3058823529411765
newmtl m113
Kd 0.3411764705882353 0.3058823529411765 0.3058823529411765
newmtl m114
Kd 0.2901960784313726 0.14901960784313725 0.03137254901960784
newmtl m115
Kd 0.2901960784313726 0.14901960784313725 0.03137254901960784
newmtl m116
Kd 0.2901960784313726 0.14901960784313725 0.03137254901960784
newmtl m117
Kd 0.2901960784313726 0.14901960784313725 0.03137254901960784
newmtl m118
Kd 0.2901960784313726 0.14901960784313725 0.03137254901960784
newmtl m119
Kd 0.2901960784313726 0.14901960784313725 0.03137254901960784
newmtl m120
Kd 0.2901960784313726 0.14901960784313725 0.03137254901960784
newmtl m121
Kd 0.2901960784313726 0.14901960784313725 0.03137254901960784
newmtl m122
Kd 0.2901960784313726 0.14901960784313725 0.03137254901960784
newmtl m123
Kd 0.2901960784313726 0.14901960784313725 0.03137254901960784
newmtl m124
Kd 0.2901960784313726 0.14901960784313725 0.03137254901960784
newmtl m125
Kd 0.2901960784313726 0.14901960784313725 0.03137254901960784
newmtl m126
Kd 0.2901960784313726 0.14901960784313725 0.03137254901960784
newmtl m127
Kd 0.2901960784313726 0.14901960784313725 0.03137254901960784
newmtl m128
Kd 0.2901960784313726 0.14901960784313725 0.03137254901960784
newmtl m129
Kd 0.2901960784313726 0.14901960784313725 0.03137254901960784
newmtl m130
Kd 0.2901960784313726 0.14901960784313725 0.03137254901960784
newmtl m131
Kd 0.2901960784313726 0.14901960784313725 0.03137254901960784
newmtl m132
Kd 0.2901960784313726 0.14901960784313725 0.03137254901960784
newmtl m133
Kd 0.2901960784313726 0.14901960784313725 0.03137254901960784
newmtl m134
Kd 0.2901960784313726 0.14901960784313725 0.03137254901960784
newmtl m135
Kd 0.2901960784313726 0.14901960784313725 0.03137254901960784
newmtl m136
Kd 0.2901960784313726 0.14901960784313725 0.03137254901960784
newmtl m137
Kd 0.2901960784313726 0.14901960784313725 0.03137254901960784
newmtl m138
Kd 0.2901960784313726 0.14901960784313725 0.03137254901960784
newmtl m139
Kd 0.2901960784313726 0.14901960784313725 0.03137254901960784
newmtl m140
Kd 0.2901960784313726 0.14901960784313725 0.03137254901960784
newmtl m141
Kd 0.2901960784313726 0.14901960784313725 0.03137254901960784
newmtl m142
Kd 0.2901960784313726 0.14901960784313725 0.03137254901960784
newmtl m143
Kd 0.2901960784313726 0.14901960784313725 0.03137254901960784
newmtl m144
Kd 0.2901960784313726 0.14901960784313725 0.03137254901960784
newmtl m145
Kd 0.37254901960784315 0.25098039215686274 0.1568627450980392
newmtl m146
Kd 0.37254901960784315 0.25098039215686274 0.1568627450980392
newmtl m147
Kd 0.2901960784313726 0.14901960784313725 0.03137254901960784
newmtl m148
Kd 0.2901960784313726 0.14901960784313725 0.03137254901960784
newmtl m149
Kd 0.2901960784313726 0.14901960784313725 0.03137254901960784
newmtl m150
Kd 0.37254901960784315 0.25098039215686274 0.1568627450980392
newmtl m151
Kd 0.2901960784313726 0.14901960784313725 0.03137254901960784
newmtl m152
Kd 0.2901960784313726 0.14901960784313725 0.03137254901960784
newmtl m153
Kd 0.2901960784313726 0.14901960784313725 0.03137254901960784
newmtl m154
Kd 0.37254901960784315 0.25098039215686274 0.1568627450980392
newmtl m155
Kd 0.2901960784313726 0.14901960784313725 0.03137254901960784
newmtl m156
Kd 0.2901960784313726 0.14901960784313725 0.03137254901960784
newmtl m157
Kd 0.2901960784313726 0.14901960784313725 0.03137254901960784
newmtl m158
Kd 0.2901960784313726 0.14901960784313725 0.03137254901960784
newmtl m159
Kd 0.2901960784313726 0.14901960784313725 0.03137254901960784
newmtl m160
Kd 0.37254901960784315 0.25098039215686274 0.1568627450980392
newmtl m161
Kd 0.37254901960784315 0.25098039215686274 0.1568627450980392
newmtl m162
Kd 0.2901960784313726 0.14901960784313725 0.03137254901960784
newmtl m163
Kd 0.2901960784313726 0.14901960784313725 0.03137254901960784
newmtl m164
Kd 0.2901960784313726 0.14901960784313725 0.03137254901960784
newmtl m165
Kd 0.2901960784313726 0.14901960784313725 0.03137254901960784
newmtl m166
Kd 0.37254901960784315 0.25098039215686274 0.1568627450980392
newmtl m167
Kd 0.37254901960784315 0.25098039215686274 0.1568627450980392
newmtl m168
Kd 0.2901960784313726 0.14901960784313725 0.03137254901960784
newmtl m169
Kd 0.37254901960784315 0.25098039215686274 0.1568627450980392
newmtl m170
Kd 0.37254901960784315 0.25098039215686274 0.1568627450980392
newmtl m171
Kd 0.2901960784313726 0.14901960784313725 0.03137254901960784
newmtl m172
Kd 0.2901960784313726 0.14901960784313725 0.03137254901960784
newmtl m173
Kd 0.2901960784313726 0.14901960784313725 0.03137254901960784
newmtl m174
Kd 0.2901960784313726 0.14901960784313725 0.03137254901960784
newmtl m175
Kd 0.2901960784313726 0.14901960784313725 0.03137254901960784
newmtl m176
Kd 0.37254901960784315 0.25098039215686274 0.1568627450980392
newmtl m177
Kd 0.2901960784313726 0.14901960784313725 0.03137254901960784
newmtl m178
Kd 0.2901960784313726 0.14901960784313725 0.03137254901960784
newmtl m179
Kd 0.2901960784313726 0.14901960784313725 0.03137254901960784
newmtl m180
Kd 0.2901960784313726 0.14901960784313725 0.03137254901960784
newmtl m181
Kd 0.2901960784313726 0.14901960784313725 0.03137254901960784
newmtl m182
Kd 0.2901960784313726 0.14901960784313725 0.03137254901960784
newmtl m183
Kd 0.2901960784313726 0.14901960784313725 0.03137254901960784
newmtl m184
Kd 0.2901960784313726 0.14901960784313725 0.03137254901960784
newmtl m185
Kd 0.37254901960784315 0.25098039215686274 0.1568627450980392
newmtl m186
Kd 0.2901960784313726 0.14901960784313725 0.03137254901960784
newmtl m187
Kd 0.2901960784313726 0.14901960784313725 0.03137254901960784
newmtl m188
Kd 0.37254901960784315 0.25098039215686274 0.1568627450980392
newmtl m189
Kd 0.18823529411764706 0.1568627450980392 0.0392156862745098
newmtl m190
Kd 0.18823529411764706 0.1568627450980392 0.0392156862745098
newmtl m191
Kd 0.18823529411764706 0.1568627450980392 0.0392156862745098
newmtl m192
Kd 0.18823529411764706 0.1568627450980392 0.0392156862745098
newmtl m193
Kd 0.18823529411764706 0.1568627450980392 0.0392156862745098
newmtl m194
Kd 0.18823529411764706 0.1568627450980392 0.0392156862745098
newmtl m195
Kd 0.18823529411764706 0.1568627450980392 0.0392156862745098
newmtl m196
Kd 0.18823529411764706 0.1568627450980392 0.0392156862745098
newmtl m197
Kd 0.18823529411764706 0.1568627450980392 0.0392156862745098
newmtl m198
Kd 0.18823529411764706 0.1568627450980392 0.0392156862745098
newmtl m199
Kd 0.18823529411764706 0.1568627450980392 0.0392156862745098
newmtl m200
Kd 0.18823529411764706 0.1568627450980392 0.0392156862745098
newmtl m201
Kd 0.18823529411764706 0.1568627450980392 0.0392156862745098
newmtl m202
Kd 0.18823529411764706 0.1568627450980392 0.0392156862745098
newmtl m203
Kd 0.18823529411764706 0.1568627450980392 0.0392156862745098
newmtl m204
Kd 0.18823529411764706 0.1568627450980392 0.0392156862745098
newmtl m205
Kd 0.18823529411764706 0.1568627450980392 0.0392156862745098
newmtl m206
Kd 0.18823529411764706 0.1568627450980392 0.0392156862745098
newmtl m207
Kd 0.18823529411764706 0.1568627450980392 0.0392156862745098
newmtl m208
Kd 0.18823529411764706 0.1568627450980392 0.0392156862745098
newmtl m209
Kd 0.18823529411764706 0.1568627450980392 0.0392156862745098
newmtl m210
Kd 0.18823529411764706 0.1568627450980392 0.0392156862745098
newmtl m211
Kd 0.18823529411764706 0.1568627450980392 0.0392156862745098
newmtl m212
Kd 0.18823529411764706 0.1568627450980392 0.0392156862745098
newmtl m213
Kd 0.18823529411764706 0.1568627450980392 0.0392156862745098
newmtl m214
Kd 0.18823529411764706 0.1568627450980392 0.0392156862745098
newmtl m215
Kd 0.18823529411764706 0.1568627450980392 0.0392156862745098
newmtl m216
Kd 0.18823529411764706 0.1568627450980392 0.0392156862745098
newmtl m217
Kd 0.18823529411764706 0.1568627450980392 0.0392156862745098
newmtl m218
Kd 0.18823529411764706 0.1568627450980392 0.0392156862745098
newmtl m219
Kd 0.18823529411764706 0.1568627450980392 0.0392156862745098
newmtl m220
Kd 0.18823529411764706 0.1568627450980392 0.0392156862745098
newmtl m221
Kd 0.18823529411764706 0.1568627450980392 0.0392156862745098
newmtl m222
Kd 0.18823529411764706 0.1568627450980392 0.0392156862745098
newmtl m223
Kd 0.18823529411764706 0.1568627450980392 0.0392156862745098
newmtl m224
Kd 0.18823529411764706 0.1568627450980392 0.0392156862745098
newmtl m225
Kd 0.18823529411764706 0.1568627450980392 0.0392156862745098
newmtl m226
Kd 0.18823529411764706 0.1568627450980392 0.0392156862745098
newmtl m227
Kd 0.18823529411764706 0.1568627450980392 0.0392156862745098
newmtl m228
Kd 0.18823529411764706 0.1568627450980392 0.0392156862745098
newmtl m229
Kd 0.18823529411764706 0.1568627450980392 0.0392156862745098
newmtl m230
Kd 0.18823529411764706 0.1568627450980392 0.0392156862745098
newmtl m231
Kd 0.18823529411764706 0.1568627450980392 0.0392156862745098
newmtl m232
Kd 0.18823529411764706 0.1568627450980392 0.0392156862745098
newmtl m233
Kd 0.18823529411764706 0.1568627450980392 0.0392156862745098
newmtl m234
Kd 0.18823529411764706 0.1568627450980392 0.0392156862745098
newmtl m235
Kd 0.18823529411764706 0.1568627450980392 0.0392156862745098
newmtl m236
Kd 0.18823529411764706 0.1568627450980392 0.0392156862745098
newmtl m237
Kd 0.18823529411764706 0.1568627450980392 0.0392156862745098
newmtl m238
Kd 0.18823529411764706 0.1568627450980392 0.0392156862745098
newmtl m239
Kd 0.18823529411764706 0.1568627450980392 0.0392156862745098
newmtl m240
Kd 0.18823529411764706 0.1568627450980392 0.0392156862745098
newmtl m241
Kd 0.18823529411764706 0.1568627450980392 0.0392156862745098
newmtl m242
Kd 0.18823529411764706 0.1568627450980392 0.0392156862745098
newmtl m243
Kd 0.18823529411764706 0.1568627450980392 0.0392156862745098
newmtl m244
Kd 0.18823529411764706 0.1568627450980392 0.0392156862745098
newmtl m245
Kd 0.18823529411764706 0.1568627450980392 0.0392156862745098
newmtl m246
Kd 0.18823529411764706 0.1568627450980392 0.0392156862745098
newmtl m247
Kd 0.18823529411764706 0.1568627450980392 0.0392156862745098
newmtl m248
Kd 0.18823529411764706 0.1568627450980392 0.0392156862745098
newmtl m249
Kd 0.18823529411764706 0.1568627450980392 0.0392156862745098
newmtl m250
Kd 0.18823529411764706 0.1568627450980392 0.0392156862745098
newmtl m251
Kd 0.18823529411764706 0.1568627450980392 0.0392156862745098
newmtl m252
Kd 0.18823529411764706 0.1568627450980392 0.0392156862745098
newmtl m253
Kd 0.18823529411764706 0.1568627450980392 0.0392156862745098
newmtl m254
Kd 0.18823529411764706 0.1568627450980392 0.0392156862745098
newmtl m255
Kd 0.18823529411764706 0.1568627450980392 0.0392156862745098
newmtl m256
Kd 0.18823529411764706 0.1568627450980392 0.0392156862745098
newmtl m257
Kd 0.18823529411764706 0.1568627450980392 0.0392156862745098
newmtl m258
Kd 0.18823529411764706 0.1568627450980392 0.0392156862745098
newmtl m259
Kd 0.18823529411764706 0.1568627450980392 0.0392156862745098
newmtl m260
Kd 0.18823529411764706 0.1568627450980392 0.0392156862745098
newmtl m261
Kd 0.18823529411764706 0.1568627450980392 0.0392156862745098
newmtl m262
Kd 0.18823529411764706 0.1568627450980392 0.0392156862745098
newmtl m263
Kd 0.18823529411764706 0.1568627450980392 0.0392156862745098
newmtl m264
Kd 0.18823529411764706 0.1568627450980392 0.0392156862745098
newmtl m265
Kd 0.18823529411764706 0.1568627450980392 0.0392156862745098
newmtl m266
Kd 0.18823529411764706 0.1568627450980392 0.0392156862745098
newmtl m267
Kd 0.18823529411764706 0.1568627450980392 0.0392156862745098
newmtl m268
Kd 0.18823529411764706 0.1568627450980392 0.0392156862745098
newmtl m269
Kd 0.18823529411764706 0.1568627450980392 0.0392156862745098
newmtl m270
Kd 0.18823529411764706 0.1568627450980392 0.0392156862745098
newmtl m271
Kd 0.18823529411764706 0.1568627450980392 0.0392156862745098
newmtl m272
Kd 0.18823529411764706 0.1568627450980392 0.0392156862745098
newmtl m273
Kd 0.18823529411764706 0.1568627450980392 0.0392156862745098
newmtl m274
Kd 0.18823529411764706 0.1568627450980392 0.0392156862745098
newmtl m275
Kd 0.18823529411764706 0.1568627450980392 0.0392156862745098
newmtl m276
Kd 0.18823529411764706 0.1568627450980392 0.0392156862745098
newmtl m277
Kd 0.18823529411764706 0.1568627450980392 0.0392156862745098
newmtl m278
Kd 0.18823529411764706 0.1568627450980392 0.0392156862745098
newmtl m279
Kd 0.18823529411764706 0.1568627450980392 0.0392156862745098
newmtl m280
Kd 0.18823529411764706 0.1568627450980392 0.0392156862745098
newmtl m281
Kd 0.18823529411764706 0.1568627450980392 0.0392156862745098
newmtl m282
Kd 0.18823529411764706 0.1568627450980392 0.0392156862745098
newmtl m283
Kd 0.18823529411764706 0.1568627450980392 0.0392156862745098
newmtl m284
Kd 0.18823529411764706 0.1568627450980392 0.0392156862745098
newmtl m285
Kd 0.18823529411764706 0.1568627450980392 0.0392156862745098
newmtl m286
Kd 0.18823529411764706 0.1568627450980392 0.0392156862745098
newmtl m287
Kd 0.18823529411764706 0.1568627450980392 0.0392156862745098
newmtl m288
Kd 0.18823529411764706 0.1568627450980392 0.0392156862745098
newmtl m289
Kd 0.18823529411764706 0.1568627450980392 0.0392156862745098
newmtl m290
Kd 0.18823529411764706 0.1568627450980392 0.0392156862745098
newmtl m291
Kd 0.18823529411764706 0.1568627450980392 0.0392156862745098
newmtl m292
Kd 0.18823529411764706 0.1568627450980392 0.0392156862745098
newmtl m293
Kd 0.18823529411764706 0.1568627450980392 0.0392156862745098
newmtl m294
Kd 0.18823529411764706 0.1568627450980392 0.0392156862745098
newmtl m295
Kd 0.18823529411764706 0.1568627450980392 0.0392156862745098
newmtl m296
Kd 0.18823529411764706 0.1568627450980392 0.0392156862745098
newmtl m297
Kd 0.18823529411764706 0.1568627450980392 0.0392156862745098
newmtl m298
Kd 0.18823529411764706 0.1568627450980392 0.0392156862745098
newmtl m299
Kd 0.18823529411764706 0.1568627450980392 0.0392156862745098
newmtl m300
Kd 0.18823529411764706 0.1568627450980392 0.0392156862745098
newmtl m301
Kd 0.18823529411764706 0.1568627450980392 0.0392156862745098
newmtl m302
Kd 0.18823529411764706 0.1568627450980392 0.0392156862745098
newmtl m303
Kd 0.18823529411764706 0.1568627450980392 0.0392156862745098
newmtl m304
Kd 0.18823529411764706 0.1568627450980392 0.0392156862745098
newmtl m305
Kd 0.18823529411764706 0.1568627450980392 0.0392156862745098
newmtl m306
Kd 0.18823529411764706 0.1568627450980392 0.0392156862745098
newmtl m307
Kd 0.18823529411764706 0.1568627450980392 0.0392156862745098
newmtl m308
Kd 0.18823529411764706 0.1568627450980392 0.0392156862745098
newmtl m309
Kd 0.18823529411764706 0.1568627450980392 0.0392156862745098
newmtl m310
Kd 0.18823529411764706 0.1568627450980392 0.0392156862745098
newmtl m311
Kd 0.18823529411764706 0.1568627450980392 0.0392156862745098
newmtl m312
Kd 0.2901960784313726 0.14901960784313725 0.03137254901960784
newmtl m313
Kd 0.2901960784313726 0.14901960784313725 0.03137254901960784
newmtl m314
Kd 0.2901960784313726 0.14901960784313725 0.03137254901960784
newmtl m315
Kd 0.2901960784313726 0.14901960784313725 0.03137254901960784
newmtl m316
Kd 0.2901960784313726 0.14901960784313725 0.03137254901960784
newmtl m317
Kd 0.2901960784313726 0.14901960784313725 0.03137254901960784
