mtllib 1984.mtl
o runescapemodel
v -64 240 -64
v -64 240 -32
v -32 32 -32
v -64 32 -64
v -64 32 0
v -64 0 0
v -8 0 -32
v -8 0 32
v -32 32 32
v -64 0 64
v -64 240 0
v -64 240 32
v -64 32 64
v -64 240 64
v -64 0 -64
vn 0 0 0
vn 0 0 0
vn 0 0 0
vn 0 0 0
vn 0 0 0
vn 0 0 0
vn 0 0 0
vn 0 0 0
vn 0 0 0
vn 0 0 0
vn 0 0 0
vn 0 0 0
vn 0 0 0
vn 0 0 0
vn 0 0 0
usemtl m0
f 1 2 3

usemtl m1
f 1 3 4

usemtl m2
f 1 4 3

usemtl m3
f 1 3 2

usemtl m4
f 2 3 5

usemtl m5
f 2 5 3

usemtl m6
f 3 5 6

usemtl m7
f 3 6 7

usemtl m8
f 3 7 4

usemtl m9
f 3 4 7

usemtl m10
f 3 7 6

usemtl m11
f 3 6 5

usemtl m12
f 5 6 8

usemtl m13
f 5 8 6

usemtl m14
f 8 5 9

usemtl m15
f 8 9 10

usemtl m16
f 8 10 9

usemtl m17
f 8 9 5

usemtl m18
f 5 9 11

usemtl m19
f 5 11 9

usemtl m20
f 9 11 12

usemtl m21
f 9 12 13

usemtl m22
f 9 13 12

usemtl m23
f 9 12 11

usemtl m24
f 2 11 5

usemtl m25
f 2 5 11

usemtl m26
f 12 14 13

usemtl m27
f 12 13 14

usemtl m28
f 4 7 15

usemtl m29
f 4 15 7

usemtl m30
f 9 13 10

usemtl m31
f 9 10 13

