newmtl m0
Kd 0.3215686274509804 0.2549019607843137 0.17647058823529413
newmtl m1
Kd 0.3215686274509804 0.2549019607843137 0.17647058823529413
newmtl m2
Kd 0.21568627450980393 0.15294117647058825 0.11764705882352941
newmtl m3
Kd 0.21568627450980393 0.15294117647058825 0.11764705882352941
newmtl m4
Kd 0.21568627450980393 0.15294117647058825 0.11764705882352941
newmtl m5
Kd 0.3215686274509804 0.2549019607843137 0.17647058823529413
newmtl m6
Kd 0.3215686274509804 0.2549019607843137 0.17647058823529413
newmtl m7
Kd 0.21568627450980393 0.15294117647058825 0.11764705882352941
newmtl m8
Kd 0.21568627450980393 0.15294117647058825 0.11764705882352941
newmtl m9
Kd 0.21568627450980393 0.15294117647058825 0.11764705882352941
newmtl m10
Kd 0.21568627450980393 0.15294117647058825 0.11764705882352941
newmtl m11
Kd 0.21568627450980393 0.15294117647058825 0.11764705882352941
newmtl m12
Kd 0.21568627450980393 0.15294117647058825 0.11764705882352941
newmtl m13
Kd 0.21568627450980393 0.15294117647058825 0.11764705882352941
newmtl m14
Kd 0.21568627450980393 0.15294117647058825 0.11764705882352941
newmtl m15
Kd 0.21568627450980393 0.15294117647058825 0.11764705882352941
newmtl m16
Kd 0.21568627450980393 0.15294117647058825 0.11764705882352941
newmtl m17
Kd 0.21568627450980393 0.15294117647058825 0.11764705882352941
newmtl m18
Kd 0.21568627450980393 0.15294117647058825 0.11764705882352941
newmtl m19
Kd 0.3215686274509804 0.2549019607843137 0.17647058823529413
newmtl m20
Kd 0.3215686274509804 0.2549019607843137 0.17647058823529413
newmtl m21
Kd 0.21568627450980393 0.15294117647058825 0.11764705882352941
newmtl m22
Kd 0.21568627450980393 0.15294117647058825 0.11764705882352941
newmtl m23
Kd 0.21568627450980393 0.15294117647058825 0.11764705882352941
newmtl m24
Kd 0.21568627450980393 0.15294117647058825 0.11764705882352941
newmtl m25
Kd 0.21568627450980393 0.15294117647058825 0.11764705882352941
newmtl m26
Kd 0.21568627450980393 0.15294117647058825 0.11764705882352941
newmtl m27
Kd 0.21568627450980393 0.15294117647058825 0.11764705882352941
newmtl m28
Kd 0.21568627450980393 0.15294117647058825 0.11764705882352941
newmtl m29
Kd 0.21568627450980393 0.15294117647058825 0.11764705882352941
newmtl m30
Kd 0.3215686274509804 0.2549019607843137 0.17647058823529413
newmtl m31
Kd 0.3215686274509804 0.2549019607843137 0.17647058823529413
newmtl m32
Kd 0.3215686274509804 0.2549019607843137 0.17647058823529413
newmtl m33
Kd 0.3215686274509804 0.2549019607843137 0.17647058823529413
newmtl m34
Kd 0.21568627450980393 0.15294117647058825 0.11764705882352941
newmtl m35
Kd 0.21568627450980393 0.15294117647058825 0.11764705882352941
newmtl m36
Kd 0.21568627450980393 0.15294117647058825 0.11764705882352941
newmtl m37
Kd 0.3215686274509804 0.2549019607843137 0.17647058823529413
newmtl m38
Kd 0.3215686274509804 0.2549019607843137 0.17647058823529413
newmtl m39
Kd 0.21568627450980393 0.15294117647058825 0.11764705882352941
newmtl m40
Kd 0.21568627450980393 0.15294117647058825 0.11764705882352941
newmtl m41
Kd 0.21568627450980393 0.15294117647058825 0.11764705882352941
newmtl m42
Kd 0.21568627450980393 0.15294117647058825 0.11764705882352941
newmtl m43
Kd 0.21568627450980393 0.15294117647058825 0.11764705882352941
newmtl m44
Kd 0.3215686274509804 0.2549019607843137 0.17647058823529413
newmtl m45
Kd 0.3215686274509804 0.2549019607843137 0.17647058823529413
newmtl m46
Kd 0.21568627450980393 0.15294117647058825 0.11764705882352941
newmtl m47
Kd 0.21568627450980393 0.15294117647058825 0.11764705882352941
newmtl m48
Kd 0.21568627450980393 0.15294117647058825 0.11764705882352941
newmtl m49
Kd 0.21568627450980393 0.15294117647058825 0.11764705882352941
newmtl m50
Kd 0.21568627450980393 0.15294117647058825 0.11764705882352941
newmtl m51
Kd 0.21568627450980393 0.15294117647058825 0.11764705882352941
newmtl m52
Kd 0.21568627450980393 0.15294117647058825 0.11764705882352941
newmtl m53
Kd 0.21568627450980393 0.15294117647058825 0.11764705882352941
newmtl m54
Kd 0.3215686274509804 0.2549019607843137 0.17647058823529413
newmtl m55
Kd 0.3215686274509804 0.2549019607843137 0.17647058823529413
newmtl m56
Kd 0.2823529411764706 0.2196078431372549 0.1568627450980392
newmtl m57
Kd 0.2823529411764706 0.2196078431372549 0.1568627450980392
newmtl m58
Kd 0.21568627450980393 0.15294117647058825 0.11764705882352941
newmtl m59
Kd 0.3215686274509804 0.2549019607843137 0.17647058823529413
newmtl m60
Kd 0.3215686274509804 0.2549019607843137 0.17647058823529413
newmtl m61
Kd 0.21568627450980393 0.15294117647058825 0.11764705882352941
newmtl m62
Kd 0.21568627450980393 0.15294117647058825 0.11764705882352941
newmtl m63
Kd 0.21568627450980393 0.15294117647058825 0.11764705882352941
newmtl m64
Kd 0.21568627450980393 0.15294117647058825 0.11764705882352941
newmtl m65
Kd 0.21568627450980393 0.15294117647058825 0.11764705882352941
newmtl m66
Kd 0.3215686274509804 0.2549019607843137 0.17647058823529413
newmtl m67
Kd 0.3215686274509804 0.2549019607843137 0.17647058823529413
newmtl m68
Kd 0.21568627450980393 0.15294117647058825 0.11764705882352941
newmtl m69
Kd 0.21568627450980393 0.15294117647058825 0.11764705882352941
newmtl m70
Kd 0.21568627450980393 0.15294117647058825 0.11764705882352941
newmtl m71
Kd 0.21568627450980393 0.15294117647058825 0.11764705882352941
newmtl m72
Kd 0.2823529411764706 0.2196078431372549 0.1568627450980392
newmtl m73
Kd 0.2823529411764706 0.2196078431372549 0.1568627450980392
newmtl m74
Kd 0.21568627450980393 0.15294117647058825 0.11764705882352941
newmtl m75
Kd 0.21568627450980393 0.15294117647058825 0.11764705882352941
newmtl m76
Kd 0.3215686274509804 0.2549019607843137 0.17647058823529413
newmtl m77
Kd 0.3215686274509804 0.2549019607843137 0.17647058823529413
newmtl m78
Kd 0.2823529411764706 0.2196078431372549 0.1568627450980392
newmtl m79
Kd 0.2823529411764706 0.2196078431372549 0.1568627450980392
newmtl m80
Kd 0.3215686274509804 0.2549019607843137 0.17647058823529413
newmtl m81
Kd 0.3215686274509804 0.2549019607843137 0.17647058823529413
newmtl m82
Kd 0.2823529411764706 0.2196078431372549 0.1568627450980392
newmtl m83
Kd 0.2823529411764706 0.2196078431372549 0.1568627450980392
newmtl m84
Kd 0.2823529411764706 0.2196078431372549 0.1568627450980392
newmtl m85
Kd 0.2823529411764706 0.2196078431372549 0.1568627450980392
newmtl m86
Kd 0.2823529411764706 0.2196078431372549 0.1568627450980392
newmtl m87
Kd 0.2823529411764706 0.2196078431372549 0.1568627450980392
newmtl m88
Kd 0.2823529411764706 0.2196078431372549 0.1568627450980392
newmtl m89
Kd 0.2823529411764706 0.2196078431372549 0.1568627450980392
newmtl m90
Kd 0.2823529411764706 0.2196078431372549 0.1568627450980392
newmtl m91
Kd 0.3215686274509804 0.2549019607843137 0.17647058823529413
newmtl m92
Kd 0.3215686274509804 0.2549019607843137 0.17647058823529413
newmtl m93
Kd 0.3215686274509804 0.2549019607843137 0.17647058823529413
newmtl m94
Kd 0.2823529411764706 0.2196078431372549 0.1568627450980392
newmtl m95
Kd 0.3215686274509804 0.2549019607843137 0.17647058823529413
newmtl m96
Kd 0.44313725490196076 0.396078431372549 0.39215686274509803
newmtl m97
Kd 0.5411764705882353 0.48627450980392156 0.4823529411764706
newmtl m98
Kd 0.3764705882352941 0.33725490196078434 0.3333333333333333
newmtl m99
Kd 0.21568627450980393 0.15294117647058825 0.11764705882352941
newmtl m100
Kd 0.21568627450980393 0.15294117647058825 0.11764705882352941
newmtl m101
Kd 0.21568627450980393 0.15294117647058825 0.11764705882352941
newmtl m102
Kd 0.3215686274509804 0.2549019607843137 0.17647058823529413
newmtl m103
Kd 0.3215686274509804 0.2549019607843137 0.17647058823529413
newmtl m104
Kd 0.21568627450980393 0.15294117647058825 0.11764705882352941
newmtl m105
Kd 0.21568627450980393 0.15294117647058825 0.11764705882352941
newmtl m106
Kd 0.21568627450980393 0.15294117647058825 0.11764705882352941
newmtl m107
Kd 0.21568627450980393 0.15294117647058825 0.11764705882352941
newmtl m108
Kd 0.21568627450980393 0.15294117647058825 0.11764705882352941
newmtl m109
Kd 0.3215686274509804 0.2549019607843137 0.17647058823529413
newmtl m110
Kd 0.3215686274509804 0.2549019607843137 0.17647058823529413
newmtl m111
Kd 0.21568627450980393 0.15294117647058825 0.11764705882352941
newmtl m112
Kd 0.21568627450980393 0.15294117647058825 0.11764705882352941
newmtl m113
Kd 0.21568627450980393 0.15294117647058825 0.11764705882352941
newmtl m114
Kd 0.21568627450980393 0.15294117647058825 0.11764705882352941
newmtl m115
Kd 0.21568627450980393 0.15294117647058825 0.11764705882352941
newmtl m116
Kd 0.21568627450980393 0.15294117647058825 0.11764705882352941
newmtl m117
Kd 0.21568627450980393 0.15294117647058825 0.11764705882352941
newmtl m118
Kd 0.21568627450980393 0.15294117647058825 0.11764705882352941
newmtl m119
Kd 0.3215686274509804 0.2549019607843137 0.17647058823529413
newmtl m120
Kd 0.3215686274509804 0.2549019607843137 0.17647058823529413
newmtl m121
Kd 0.2823529411764706 0.2196078431372549 0.1568627450980392
newmtl m122
Kd 0.2823529411764706 0.2196078431372549 0.1568627450980392
newmtl m123
Kd 0.21568627450980393 0.15294117647058825 0.11764705882352941
newmtl m124
Kd 0.3215686274509804 0.2549019607843137 0.17647058823529413
newmtl m125
Kd 0.3215686274509804 0.2549019607843137 0.17647058823529413
newmtl m126
Kd 0.21568627450980393 0.15294117647058825 0.11764705882352941
newmtl m127
Kd 0.21568627450980393 0.15294117647058825 0.11764705882352941
newmtl m128
Kd 0.21568627450980393 0.15294117647058825 0.11764705882352941
newmtl m129
Kd 0.21568627450980393 0.15294117647058825 0.11764705882352941
newmtl m130
Kd 0.21568627450980393 0.15294117647058825 0.11764705882352941
newmtl m131
Kd 0.3215686274509804 0.2549019607843137 0.17647058823529413
newmtl m132
Kd 0.3215686274509804 0.2549019607843137 0.17647058823529413
newmtl m133
Kd 0.21568627450980393 0.15294117647058825 0.11764705882352941
newmtl m134
Kd 0.21568627450980393 0.15294117647058825 0.11764705882352941
newmtl m135
Kd 0.21568627450980393 0.15294117647058825 0.11764705882352941
newmtl m136
Kd 0.21568627450980393 0.15294117647058825 0.11764705882352941
newmtl m137
Kd 0.2823529411764706 0.2196078431372549 0.1568627450980392
newmtl m138
Kd 0.2823529411764706 0.2196078431372549 0.1568627450980392
newmtl m139
Kd 0.21568627450980393 0.15294117647058825 0.11764705882352941
newmtl m140
Kd 0.21568627450980393 0.15294117647058825 0.11764705882352941
newmtl m141
Kd 0.3215686274509804 0.2549019607843137 0.17647058823529413
newmtl m142
Kd 0.3215686274509804 0.2549019607843137 0.17647058823529413
newmtl m143
Kd 0.6627450980392157 0.6392156862745098 0.615686274509804
newmtl m144
Kd 0.6627450980392157 0.6392156862745098 0.615686274509804
newmtl m145
Kd 0.6627450980392157 0.6392156862745098 0.615686274509804
newmtl m146
Kd 0.6627450980392157 0.6392156862745098 0.615686274509804
newmtl m147
Kd 0.6627450980392157 0.6392156862745098 0.615686274509804
newmtl m148
Kd 0.6627450980392157 0.6392156862745098 0.615686274509804
newmtl m149
Kd 0.0 0.0 0.00392156862745098
newmtl m150
Kd 0.0 0.0 0.00392156862745098
newmtl m151
Kd 0.6627450980392157 0.6392156862745098 0.615686274509804
newmtl m152
Kd 0.6627450980392157 0.6392156862745098 0.615686274509804
newmtl m153
Kd 0.0 0.0 0.00392156862745098
newmtl m154
Kd 0.0 0.0 0.00392156862745098
newmtl m155
Kd 0.6627450980392157 0.6392156862745098 0.615686274509804
newmtl m156
Kd 0.6627450980392157 0.6392156862745098 0.615686274509804
newmtl m157
Kd 0.6627450980392157 0.6392156862745098 0.615686274509804
newmtl m158
Kd 0.6627450980392157 0.6392156862745098 0.615686274509804
newmtl m159
Kd 0.6627450980392157 0.6392156862745098 0.615686274509804
newmtl m160
Kd 0.6627450980392157 0.6392156862745098 0.615686274509804
newmtl m161
Kd 0.6627450980392157 0.6392156862745098 0.615686274509804
newmtl m162
Kd 0.6627450980392157 0.6392156862745098 0.615686274509804
newmtl m163
Kd 0.6627450980392157 0.6392156862745098 0.615686274509804
newmtl m164
Kd 0.6627450980392157 0.6392156862745098 0.615686274509804
newmtl m165
Kd 0.6627450980392157 0.6392156862745098 0.615686274509804
newmtl m166
Kd 0.6627450980392157 0.6392156862745098 0.615686274509804
newmtl m167
Kd 0.6627450980392157 0.6392156862745098 0.615686274509804
newmtl m168
Kd 0.6627450980392157 0.6392156862745098 0.615686274509804
newmtl m169
Kd 0.6627450980392157 0.6392156862745098 0.615686274509804
newmtl m170
Kd 0.6627450980392157 0.6392156862745098 0.615686274509804
newmtl m171
Kd 0.6627450980392157 0.6392156862745098 0.615686274509804
newmtl m172
Kd 0.6627450980392157 0.6392156862745098 0.615686274509804
newmtl m173
Kd 0.6627450980392157 0.6392156862745098 0.615686274509804
newmtl m174
Kd 0.6627450980392157 0.6392156862745098 0.615686274509804
newmtl m175
Kd 0.6627450980392157 0.6392156862745098 0.615686274509804
newmtl m176
Kd 0.6627450980392157 0.6392156862745098 0.615686274509804
newmtl m177
Kd 0.6627450980392157 0.6392156862745098 0.615686274509804
newmtl m178
Kd 0.6627450980392157 0.6392156862745098 0.615686274509804
newmtl m179
Kd 0.6627450980392157 0.6392156862745098 0.615686274509804
newmtl m180
Kd 0.6627450980392157 0.6392156862745098 0.615686274509804
newmtl m181
Kd 0.6627450980392157 0.6392156862745098 0.615686274509804
newmtl m182
Kd 0.6627450980392157 0.6392156862745098 0.615686274509804
newmtl m183
Kd 0.6627450980392157 0.6392156862745098 0.615686274509804
newmtl m184
Kd 0.6627450980392157 0.6392156862745098 0.615686274509804
newmtl m185
Kd 0.6627450980392157 0.6392156862745098 0.615686274509804
newmtl m186
Kd 0.6627450980392157 0.6392156862745098 0.615686274509804
newmtl m187
Kd 0.6627450980392157 0.6392156862745098 0.615686274509804
newmtl m188
Kd 0.6627450980392157 0.6392156862745098 0.615686274509804
newmtl m189
Kd 0.6627450980392157 0.6392156862745098 0.615686274509804
newmtl m190
Kd 0.6627450980392157 0.6392156862745098 0.615686274509804
newmtl m191
Kd 0.6627450980392157 0.6392156862745098 0.615686274509804
newmtl m192
Kd 0.6627450980392157 0.6392156862745098 0.615686274509804
newmtl m193
Kd 0.6627450980392157 0.6392156862745098 0.615686274509804
newmtl m194
Kd 0.6627450980392157 0.6392156862745098 0.615686274509804
newmtl m195
Kd 0.6627450980392157 0.6392156862745098 0.615686274509804
newmtl m196
Kd 0.6627450980392157 0.6392156862745098 0.615686274509804
newmtl m197
Kd 0.6627450980392157 0.6392156862745098 0.615686274509804
newmtl m198
Kd 0.6627450980392157 0.6392156862745098 0.615686274509804
newmtl m199
Kd 0.6627450980392157 0.6392156862745098 0.615686274509804
newmtl m200
Kd 0.6627450980392157 0.6392156862745098 0.615686274509804
newmtl m201
Kd 0.6627450980392157 0.6392156862745098 0.615686274509804
newmtl m202
Kd 0.6627450980392157 0.6392156862745098 0.615686274509804
newmtl m203
Kd 0.6627450980392157 0.6392156862745098 0.615686274509804
newmtl m204
Kd 0.6627450980392157 0.6392156862745098 0.615686274509804
newmtl m205
Kd 0.6627450980392157 0.6392156862745098 0.615686274509804
newmtl m206
Kd 0.0 0.0 0.00392156862745098
newmtl m207
Kd 0.6627450980392157 0.6392156862745098 0.615686274509804
newmtl m208
Kd 0.6627450980392157 0.6392156862745098 0.615686274509804
newmtl m209
Kd 0.6627450980392157 0.6392156862745098 0.615686274509804
newmtl m210
Kd 0.6627450980392157 0.6392156862745098 0.615686274509804
newmtl m211
Kd 0.6627450980392157 0.6392156862745098 0.615686274509804
newmtl m212
Kd 0.6627450980392157 0.6392156862745098 0.615686274509804
newmtl m213
Kd 0.6627450980392157 0.6392156862745098 0.615686274509804
newmtl m214
Kd 0.6627450980392157 0.6392156862745098 0.615686274509804
newmtl m215
Kd 0.6627450980392157 0.6392156862745098 0.615686274509804
newmtl m216
Kd 0.6627450980392157 0.6392156862745098 0.615686274509804
newmtl m217
Kd 0.6627450980392157 0.6392156862745098 0.615686274509804
newmtl m218
Kd 0.6627450980392157 0.6392156862745098 0.615686274509804
newmtl m219
Kd 0.6627450980392157 0.6392156862745098 0.615686274509804
newmtl m220
Kd 0.6627450980392157 0.6392156862745098 0.615686274509804
newmtl m221
Kd 0.6627450980392157 0.6392156862745098 0.615686274509804
newmtl m222
Kd 0.6627450980392157 0.6392156862745098 0.615686274509804
newmtl m223
Kd 0.6627450980392157 0.6392156862745098 0.615686274509804
newmtl m224
Kd 0.0 0.0 0.00392156862745098
newmtl m225
Kd 0.0 0.0 0.00392156862745098
newmtl m226
Kd 0.6627450980392157 0.6392156862745098 0.615686274509804
newmtl m227
Kd 0.6627450980392157 0.6392156862745098 0.615686274509804
newmtl m228
Kd 0.0 0.0 0.00392156862745098
newmtl m229
Kd 0.0 0.0 0.00392156862745098
newmtl m230
Kd 0.6627450980392157 0.6392156862745098 0.615686274509804
newmtl m231
Kd 0.6627450980392157 0.6392156862745098 0.615686274509804
newmtl m232
Kd 0.6627450980392157 0.6392156862745098 0.615686274509804
newmtl m233
Kd 0.6627450980392157 0.6392156862745098 0.615686274509804
newmtl m234
Kd 0.6627450980392157 0.6392156862745098 0.615686274509804
newmtl m235
Kd 0.6627450980392157 0.6392156862745098 0.615686274509804
newmtl m236
Kd 0.6627450980392157 0.6392156862745098 0.615686274509804
newmtl m237
Kd 0.6627450980392157 0.6392156862745098 0.615686274509804
newmtl m238
Kd 0.6627450980392157 0.6392156862745098 0.615686274509804
newmtl m239
Kd 0.6627450980392157 0.6392156862745098 0.615686274509804
newmtl m240
Kd 0.6627450980392157 0.6392156862745098 0.615686274509804
newmtl m241
Kd 0.6627450980392157 0.6392156862745098 0.615686274509804
newmtl m242
Kd 0.6627450980392157 0.6392156862745098 0.615686274509804
newmtl m243
Kd 0.6627450980392157 0.6392156862745098 0.615686274509804
newmtl m244
Kd 0.6627450980392157 0.6392156862745098 0.615686274509804
newmtl m245
Kd 0.6627450980392157 0.6392156862745098 0.615686274509804
newmtl m246
Kd 0.6627450980392157 0.6392156862745098 0.615686274509804
newmtl m247
Kd 0.6627450980392157 0.6392156862745098 0.615686274509804
newmtl m248
Kd 0.6627450980392157 0.6392156862745098 0.615686274509804
newmtl m249
Kd 0.6627450980392157 0.6392156862745098 0.615686274509804
newmtl m250
Kd 0.6627450980392157 0.6392156862745098 0.615686274509804
newmtl m251
Kd 0.6627450980392157 0.6392156862745098 0.615686274509804
newmtl m252
Kd 0.6627450980392157 0.6392156862745098 0.615686274509804
newmtl m253
Kd 0.6627450980392157 0.6392156862745098 0.615686274509804
newmtl m254
Kd 0.6627450980392157 0.6392156862745098 0.615686274509804
newmtl m255
Kd 0.6627450980392157 0.6392156862745098 0.615686274509804
newmtl m256
Kd 0.6627450980392157 0.6392156862745098 0.615686274509804
newmtl m257
Kd 0.6627450980392157 0.6392156862745098 0.615686274509804
newmtl m258
Kd 0.6627450980392157 0.6392156862745098 0.615686274509804
newmtl m259
Kd 0.6627450980392157 0.6392156862745098 0.615686274509804
newmtl m260
Kd 0.6627450980392157 0.6392156862745098 0.615686274509804
newmtl m261
Kd 0.6627450980392157 0.6392156862745098 0.615686274509804
newmtl m262
Kd 0.6627450980392157 0.6392156862745098 0.615686274509804
newmtl m263
Kd 0.6627450980392157 0.6392156862745098 0.615686274509804
newmtl m264
Kd 0.6627450980392157 0.6392156862745098 0.615686274509804
newmtl m265
Kd 0.6627450980392157 0.6392156862745098 0.615686274509804
newmtl m266
Kd 0.6627450980392157 0.6392156862745098 0.615686274509804
newmtl m267
Kd 0.6627450980392157 0.6392156862745098 0.615686274509804
newmtl m268
Kd 0.6627450980392157 0.6392156862745098 0.615686274509804
newmtl m269
Kd 0.6627450980392157 0.6392156862745098 0.615686274509804
newmtl m270
Kd 0.6627450980392157 0.6392156862745098 0.615686274509804
newmtl m271
Kd 0.6627450980392157 0.6392156862745098 0.615686274509804
newmtl m272
Kd 0.6627450980392157 0.6392156862745098 0.615686274509804
newmtl m273
Kd 0.6627450980392157 0.6392156862745098 0.615686274509804
newmtl m274
Kd 0.6627450980392157 0.6392156862745098 0.615686274509804
newmtl m275
Kd 0.6627450980392157 0.6392156862745098 0.615686274509804
newmtl m276
Kd 0.6627450980392157 0.6392156862745098 0.615686274509804
newmtl m277
Kd 0.6627450980392157 0.6392156862745098 0.615686274509804
newmtl m278
Kd 0.6627450980392157 0.6392156862745098 0.615686274509804
newmtl m279
Kd 0.6627450980392157 0.6392156862745098 0.615686274509804
newmtl m280
Kd 0.6627450980392157 0.6392156862745098 0.615686274509804
newmtl m281
Kd 0.0 0.0 0.00392156862745098
newmtl m282
Kd 0.6627450980392157 0.6392156862745098 0.615686274509804
newmtl m283
Kd 0.6627450980392157 0.6392156862745098 0.615686274509804
newmtl m284
Kd 0.6627450980392157 0.6392156862745098 0.615686274509804
newmtl m285
Kd 0.6627450980392157 0.6392156862745098 0.615686274509804
newmtl m286
Kd 0.6627450980392157 0.6392156862745098 0.615686274509804
newmtl m287
Kd 0.6627450980392157 0.6392156862745098 0.615686274509804
newmtl m288
Kd 0.6627450980392157 0.6392156862745098 0.615686274509804
newmtl m289
Kd 0.6627450980392157 0.6392156862745098 0.615686274509804
newmtl m290
Kd 0.6627450980392157 0.6392156862745098 0.615686274509804
newmtl m291
Kd 0.6627450980392157 0.6392156862745098 0.615686274509804
newmtl m292
Kd 0.6627450980392157 0.6392156862745098 0.615686274509804
newmtl m293
Kd 0.6627450980392157 0.6392156862745098 0.615686274509804
newmtl m294
Kd 0.6627450980392157 0.6392156862745098 0.615686274509804
newmtl m295
Kd 0.6627450980392157 0.6392156862745098 0.615686274509804
newmtl m296
Kd 0.6627450980392157 0.6392156862745098 0.615686274509804
newmtl m297
Kd 0.6627450980392157 0.6392156862745098 0.615686274509804
newmtl m298
Kd 0.6627450980392157 0.6392156862745098 0.615686274509804
newmtl m299
Kd 0.0 0.0 0.00392156862745098
newmtl m300
Kd 0.0 0.0 0.00392156862745098
newmtl m301
Kd 0.6627450980392157 0.6392156862745098 0.615686274509804
newmtl m302
Kd 0.6627450980392157 0.6392156862745098 0.615686274509804
newmtl m303
Kd 0.0 0.0 0.00392156862745098
newmtl m304
Kd 0.0 0.0 0.00392156862745098
newmtl m305
Kd 0.6627450980392157 0.6392156862745098 0.615686274509804
newmtl m306
Kd 0.6627450980392157 0.6392156862745098 0.615686274509804
newmtl m307
Kd 0.6627450980392157 0.6392156862745098 0.615686274509804
newmtl m308
Kd 0.6627450980392157 0.6392156862745098 0.615686274509804
newmtl m309
Kd 0.6627450980392157 0.6392156862745098 0.615686274509804
newmtl m310
Kd 0.6627450980392157 0.6392156862745098 0.615686274509804
newmtl m311
Kd 0.6627450980392157 0.6392156862745098 0.615686274509804
newmtl m312
Kd 0.6627450980392157 0.6392156862745098 0.615686274509804
newmtl m313
Kd 0.6627450980392157 0.6392156862745098 0.615686274509804
newmtl m314
Kd 0.6627450980392157 0.6392156862745098 0.615686274509804
newmtl m315
Kd 0.6627450980392157 0.6392156862745098 0.615686274509804
newmtl m316
Kd 0.6627450980392157 0.6392156862745098 0.615686274509804
newmtl m317
Kd 0.6627450980392157 0.6392156862745098 0.615686274509804
newmtl m318
Kd 0.6627450980392157 0.6392156862745098 0.615686274509804
newmtl m319
Kd 0.6627450980392157 0.6392156862745098 0.615686274509804
newmtl m320
Kd 0.6627450980392157 0.6392156862745098 0.615686274509804
newmtl m321
Kd 0.6627450980392157 0.6392156862745098 0.615686274509804
newmtl m322
Kd 0.6627450980392157 0.6392156862745098 0.615686274509804
newmtl m323
Kd 0.6627450980392157 0.6392156862745098 0.615686274509804
newmtl m324
Kd 0.6627450980392157 0.6392156862745098 0.615686274509804
newmtl m325
Kd 0.6627450980392157 0.6392156862745098 0.615686274509804
newmtl m326
Kd 0.6627450980392157 0.6392156862745098 0.615686274509804
newmtl m327
Kd 0.6627450980392157 0.6392156862745098 0.615686274509804
newmtl m328
Kd 0.6627450980392157 0.6392156862745098 0.615686274509804
newmtl m329
Kd 0.6627450980392157 0.6392156862745098 0.615686274509804
newmtl m330
Kd 0.6627450980392157 0.6392156862745098 0.615686274509804
newmtl m331
Kd 0.6627450980392157 0.6392156862745098 0.615686274509804
newmtl m332
Kd 0.6627450980392157 0.6392156862745098 0.615686274509804
newmtl m333
Kd 0.6627450980392157 0.6392156862745098 0.615686274509804
newmtl m334
Kd 0.6627450980392157 0.6392156862745098 0.615686274509804
newmtl m335
Kd 0.6627450980392157 0.6392156862745098 0.615686274509804
newmtl m336
Kd 0.6627450980392157 0.6392156862745098 0.615686274509804
newmtl m337
Kd 0.6627450980392157 0.6392156862745098 0.615686274509804
newmtl m338
Kd 0.6627450980392157 0.6392156862745098 0.615686274509804
newmtl m339
Kd 0.6627450980392157 0.6392156862745098 0.615686274509804
newmtl m340
Kd 0.6627450980392157 0.6392156862745098 0.615686274509804
newmtl m341
Kd 0.6627450980392157 0.6392156862745098 0.615686274509804
newmtl m342
Kd 0.6627450980392157 0.6392156862745098 0.615686274509804
newmtl m343
Kd 0.6627450980392157 0.6392156862745098 0.615686274509804
newmtl m344
Kd 0.6627450980392157 0.6392156862745098 0.615686274509804
newmtl m345
Kd 0.6627450980392157 0.6392156862745098 0.615686274509804
newmtl m346
Kd 0.6627450980392157 0.6392156862745098 0.615686274509804
newmtl m347
Kd 0.6627450980392157 0.6392156862745098 0.615686274509804
newmtl m348
Kd 0.6627450980392157 0.6392156862745098 0.615686274509804
newmtl m349
Kd 0.6627450980392157 0.6392156862745098 0.615686274509804
newmtl m350
Kd 0.6627450980392157 0.6392156862745098 0.615686274509804
newmtl m351
Kd 0.6627450980392157 0.6392156862745098 0.615686274509804
newmtl m352
Kd 0.6627450980392157 0.6392156862745098 0.615686274509804
newmtl m353
Kd 0.6627450980392157 0.6392156862745098 0.615686274509804
newmtl m354
Kd 0.6627450980392157 0.6392156862745098 0.615686274509804
newmtl m355
Kd 0.6627450980392157 0.6392156862745098 0.615686274509804
newmtl m356
Kd 0.0 0.0 0.00392156862745098
newmtl m357
Kd 0.6627450980392157 0.6392156862745098 0.615686274509804
newmtl m358
Kd 0.6627450980392157 0.6392156862745098 0.615686274509804
newmtl m359
Kd 0.6627450980392157 0.6392156862745098 0.615686274509804
newmtl m360
Kd 0.6627450980392157 0.6392156862745098 0.615686274509804
newmtl m361
Kd 0.6627450980392157 0.6392156862745098 0.615686274509804
newmtl m362
Kd 0.6627450980392157 0.6392156862745098 0.615686274509804
newmtl m363
Kd 0.6627450980392157 0.6392156862745098 0.615686274509804
newmtl m364
Kd 0.6627450980392157 0.6392156862745098 0.615686274509804
newmtl m365
Kd 0.6627450980392157 0.6392156862745098 0.615686274509804
newmtl m366
Kd 0.6627450980392157 0.6392156862745098 0.615686274509804
newmtl m367
Kd 0.6627450980392157 0.6392156862745098 0.615686274509804
newmtl m368
Kd 0.2823529411764706 0.2196078431372549 0.1568627450980392
newmtl m369
Kd 0.2823529411764706 0.2196078431372549 0.1568627450980392
newmtl m370
Kd 0.2823529411764706 0.2196078431372549 0.1568627450980392
newmtl m371
Kd 0.2823529411764706 0.2196078431372549 0.1568627450980392
newmtl m372
Kd 0.3215686274509804 0.2549019607843137 0.17647058823529413
newmtl m373
Kd 0.3215686274509804 0.2549019607843137 0.17647058823529413
newmtl m374
Kd 0.2823529411764706 0.2196078431372549 0.1568627450980392
newmtl m375
Kd 0.2823529411764706 0.2196078431372549 0.1568627450980392
newmtl m376
Kd 0.2823529411764706 0.2196078431372549 0.1568627450980392
newmtl m377
Kd 0.2823529411764706 0.2196078431372549 0.1568627450980392
newmtl m378
Kd 0.3215686274509804 0.2549019607843137 0.17647058823529413
newmtl m379
Kd 0.3215686274509804 0.2549019607843137 0.17647058823529413
newmtl m380
Kd 0.3215686274509804 0.2549019607843137 0.17647058823529413
newmtl m381
Kd 0.3215686274509804 0.2549019607843137 0.17647058823529413
newmtl m382
Kd 0.2823529411764706 0.2196078431372549 0.1568627450980392
newmtl m383
Kd 0.2823529411764706 0.2196078431372549 0.1568627450980392
newmtl m384
Kd 0.2823529411764706 0.2196078431372549 0.1568627450980392
newmtl m385
Kd 0.2823529411764706 0.2196078431372549 0.1568627450980392
newmtl m386
Kd 0.44313725490196076 0.396078431372549 0.39215686274509803
newmtl m387
Kd 0.5411764705882353 0.48627450980392156 0.4823529411764706
newmtl m388
Kd 0.3764705882352941 0.33725490196078434 0.3333333333333333
newmtl m389
Kd 0.2823529411764706 0.2196078431372549 0.1568627450980392
newmtl m390
Kd 0.2823529411764706 0.2196078431372549 0.1568627450980392
newmtl m391
Kd 0.3215686274509804 0.2549019607843137 0.17647058823529413
newmtl m392
Kd 0.3215686274509804 0.2549019607843137 0.17647058823529413
newmtl m393
Kd 0.2823529411764706 0.2196078431372549 0.1568627450980392
newmtl m394
Kd 0.2823529411764706 0.2196078431372549 0.1568627450980392
newmtl m395
Kd 0.2823529411764706 0.2196078431372549 0.1568627450980392
newmtl m396
Kd 0.2823529411764706 0.2196078431372549 0.1568627450980392
newmtl m397
Kd 0.2823529411764706 0.2196078431372549 0.1568627450980392
newmtl m398
Kd 0.2823529411764706 0.2196078431372549 0.1568627450980392
newmtl m399
Kd 0.2823529411764706 0.2196078431372549 0.1568627450980392
newmtl m400
Kd 0.2823529411764706 0.2196078431372549 0.1568627450980392
newmtl m401
Kd 0.2823529411764706 0.2196078431372549 0.1568627450980392
newmtl m402
Kd 0.3215686274509804 0.2549019607843137 0.17647058823529413
newmtl m403
Kd 0.3215686274509804 0.2549019607843137 0.17647058823529413
newmtl m404
Kd 0.3215686274509804 0.2549019607843137 0.17647058823529413
newmtl m405
Kd 0.2823529411764706 0.2196078431372549 0.1568627450980392
newmtl m406
Kd 0.3215686274509804 0.2549019607843137 0.17647058823529413
newmtl m407
Kd 0.44313725490196076 0.396078431372549 0.39215686274509803
newmtl m408
Kd 0.5411764705882353 0.48627450980392156 0.4823529411764706
newmtl m409
Kd 0.3764705882352941 0.33725490196078434 0.3333333333333333
newmtl m410
Kd 0.2823529411764706 0.2196078431372549 0.1568627450980392
newmtl m411
Kd 0.2823529411764706 0.2196078431372549 0.1568627450980392
newmtl m412
Kd 0.3215686274509804 0.2549019607843137 0.17647058823529413
newmtl m413
Kd 0.3215686274509804 0.2549019607843137 0.17647058823529413
newmtl m414
Kd 0.2823529411764706 0.2196078431372549 0.1568627450980392
newmtl m415
Kd 0.2823529411764706 0.2196078431372549 0.1568627450980392
newmtl m416
Kd 0.2823529411764706 0.2196078431372549 0.1568627450980392
newmtl m417
Kd 0.2823529411764706 0.2196078431372549 0.1568627450980392
newmtl m418
Kd 0.2823529411764706 0.2196078431372549 0.1568627450980392
newmtl m419
Kd 0.2823529411764706 0.2196078431372549 0.1568627450980392
newmtl m420
Kd 0.2823529411764706 0.2196078431372549 0.1568627450980392
newmtl m421
Kd 0.2823529411764706 0.2196078431372549 0.1568627450980392
newmtl m422
Kd 0.2823529411764706 0.2196078431372549 0.1568627450980392
newmtl m423
Kd 0.3215686274509804 0.2549019607843137 0.17647058823529413
newmtl m424
Kd 0.3215686274509804 0.2549019607843137 0.17647058823529413
newmtl m425
Kd 0.3215686274509804 0.2549019607843137 0.17647058823529413
newmtl m426
Kd 0.2823529411764706 0.2196078431372549 0.1568627450980392
newmtl m427
Kd 0.3215686274509804 0.2549019607843137 0.17647058823529413
newmtl m428
Kd 0.44313725490196076 0.396078431372549 0.39215686274509803
newmtl m429
Kd 0.5411764705882353 0.48627450980392156 0.4823529411764706
newmtl m430
Kd 0.3764705882352941 0.33725490196078434 0.3333333333333333
