newmtl m0
Kd 0.21568627450980393 0.18823529411764706 0.11764705882352941
newmtl m1
Kd 0.21568627450980393 0.18823529411764706 0.11764705882352941
newmtl m2
Kd 0.21568627450980393 0.18823529411764706 0.11764705882352941
newmtl m3
Kd 0.21568627450980393 0.18823529411764706 0.11764705882352941
newmtl m4
Kd 0.18823529411764706 0.15294117647058825 0.07450980392156863
newmtl m5
Kd 0.18823529411764706 0.15294117647058825 0.07450980392156863
newmtl m6
Kd 0.18823529411764706 0.15294117647058825 0.07450980392156863
newmtl m7
Kd 0.18823529411764706 0.15294117647058825 0.07450980392156863
newmtl m8
Kd 0.18823529411764706 0.15294117647058825 0.07450980392156863
newmtl m9
Kd 0.18823529411764706 0.15294117647058825 0.07450980392156863
newmtl m10
Kd 0.18823529411764706 0.15294117647058825 0.07450980392156863
newmtl m11
Kd 0.18823529411764706 0.15294117647058825 0.07450980392156863
newmtl m12
Kd 0.18823529411764706 0.15294117647058825 0.07450980392156863
newmtl m13
Kd 0.18823529411764706 0.15294117647058825 0.07450980392156863
newmtl m14
Kd 0.18823529411764706 0.15294117647058825 0.07450980392156863
newmtl m15
Kd 0.21568627450980393 0.18823529411764706 0.11764705882352941
newmtl m16
Kd 0.21568627450980393 0.18823529411764706 0.11764705882352941
newmtl m17
Kd 0.18823529411764706 0.15294117647058825 0.07450980392156863
newmtl m18
Kd 0.18823529411764706 0.15294117647058825 0.07450980392156863
newmtl m19
Kd 0.21568627450980393 0.18823529411764706 0.11764705882352941
newmtl m20
Kd 0.21568627450980393 0.18823529411764706 0.11764705882352941
newmtl m21
Kd 0.21568627450980393 0.18823529411764706 0.11764705882352941
newmtl m22
Kd 0.21568627450980393 0.18823529411764706 0.11764705882352941
newmtl m23
Kd 0.18823529411764706 0.15294117647058825 0.07450980392156863
newmtl m24
Kd 0.18823529411764706 0.15294117647058825 0.07450980392156863
newmtl m25
Kd 0.18823529411764706 0.15294117647058825 0.07450980392156863
newmtl m26
Kd 0.18823529411764706 0.15294117647058825 0.07450980392156863
newmtl m27
Kd 0.18823529411764706 0.15294117647058825 0.07450980392156863
newmtl m28
Kd 0.18823529411764706 0.15294117647058825 0.07450980392156863
newmtl m29
Kd 0.18823529411764706 0.15294117647058825 0.07450980392156863
newmtl m30
Kd 0.18823529411764706 0.15294117647058825 0.07450980392156863
newmtl m31
Kd 0.18823529411764706 0.15294117647058825 0.07450980392156863
newmtl m32
Kd 0.18823529411764706 0.15294117647058825 0.07450980392156863
newmtl m33
Kd 0.18823529411764706 0.15294117647058825 0.07450980392156863
newmtl m34
Kd 0.21568627450980393 0.18823529411764706 0.11764705882352941
newmtl m35
Kd 0.21568627450980393 0.18823529411764706 0.11764705882352941
newmtl m36
Kd 0.18823529411764706 0.15294117647058825 0.07450980392156863
newmtl m37
Kd 0.18823529411764706 0.15294117647058825 0.07450980392156863
newmtl m38
Kd 0.21568627450980393 0.18823529411764706 0.11764705882352941
newmtl m39
Kd 0.21568627450980393 0.18823529411764706 0.11764705882352941
newmtl m40
Kd 0.21568627450980393 0.18823529411764706 0.11764705882352941
newmtl m41
Kd 0.21568627450980393 0.18823529411764706 0.11764705882352941
newmtl m42
Kd 0.18823529411764706 0.15294117647058825 0.07450980392156863
newmtl m43
Kd 0.18823529411764706 0.15294117647058825 0.07450980392156863
newmtl m44
Kd 0.18823529411764706 0.15294117647058825 0.07450980392156863
newmtl m45
Kd 0.18823529411764706 0.15294117647058825 0.07450980392156863
newmtl m46
Kd 0.18823529411764706 0.15294117647058825 0.07450980392156863
newmtl m47
Kd 0.18823529411764706 0.15294117647058825 0.07450980392156863
newmtl m48
Kd 0.18823529411764706 0.15294117647058825 0.07450980392156863
newmtl m49
Kd 0.18823529411764706 0.15294117647058825 0.07450980392156863
newmtl m50
Kd 0.18823529411764706 0.15294117647058825 0.07450980392156863
newmtl m51
Kd 0.18823529411764706 0.15294117647058825 0.07450980392156863
newmtl m52
Kd 0.18823529411764706 0.15294117647058825 0.07450980392156863
newmtl m53
Kd 0.21568627450980393 0.18823529411764706 0.11764705882352941
newmtl m54
Kd 0.21568627450980393 0.18823529411764706 0.11764705882352941
newmtl m55
Kd 0.18823529411764706 0.15294117647058825 0.07450980392156863
newmtl m56
Kd 0.18823529411764706 0.15294117647058825 0.07450980392156863
newmtl m57
Kd 0.21568627450980393 0.18823529411764706 0.11764705882352941
newmtl m58
Kd 0.21568627450980393 0.18823529411764706 0.11764705882352941
newmtl m59
Kd 0.21568627450980393 0.18823529411764706 0.11764705882352941
newmtl m60
Kd 0.21568627450980393 0.18823529411764706 0.11764705882352941
newmtl m61
Kd 0.18823529411764706 0.15294117647058825 0.07450980392156863
newmtl m62
Kd 0.18823529411764706 0.15294117647058825 0.07450980392156863
newmtl m63
Kd 0.18823529411764706 0.15294117647058825 0.07450980392156863
newmtl m64
Kd 0.18823529411764706 0.15294117647058825 0.07450980392156863
newmtl m65
Kd 0.18823529411764706 0.15294117647058825 0.07450980392156863
newmtl m66
Kd 0.18823529411764706 0.15294117647058825 0.07450980392156863
newmtl m67
Kd 0.18823529411764706 0.15294117647058825 0.07450980392156863
newmtl m68
Kd 0.18823529411764706 0.15294117647058825 0.07450980392156863
newmtl m69
Kd 0.18823529411764706 0.15294117647058825 0.07450980392156863
newmtl m70
Kd 0.18823529411764706 0.15294117647058825 0.07450980392156863
newmtl m71
Kd 0.18823529411764706 0.15294117647058825 0.07450980392156863
newmtl m72
Kd 0.18823529411764706 0.15294117647058825 0.07450980392156863
newmtl m73
Kd 0.21568627450980393 0.18823529411764706 0.11764705882352941
newmtl m74
Kd 0.21568627450980393 0.18823529411764706 0.11764705882352941
newmtl m75
Kd 0.21568627450980393 0.18823529411764706 0.11764705882352941
newmtl m76
Kd 0.21568627450980393 0.18823529411764706 0.11764705882352941
newmtl m77
Kd 0.18823529411764706 0.15294117647058825 0.07450980392156863
newmtl m78
Kd 0.18823529411764706 0.15294117647058825 0.07450980392156863
newmtl m79
Kd 0.18823529411764706 0.15294117647058825 0.07450980392156863
newmtl m80
Kd 0.18823529411764706 0.15294117647058825 0.07450980392156863
newmtl m81
Kd 0.18823529411764706 0.15294117647058825 0.07450980392156863
newmtl m82
Kd 0.18823529411764706 0.15294117647058825 0.07450980392156863
newmtl m83
Kd 0.18823529411764706 0.15294117647058825 0.07450980392156863
newmtl m84
Kd 0.18823529411764706 0.15294117647058825 0.07450980392156863
newmtl m85
Kd 0.18823529411764706 0.15294117647058825 0.07450980392156863
newmtl m86
Kd 0.18823529411764706 0.15294117647058825 0.07450980392156863
newmtl m87
Kd 0.18823529411764706 0.15294117647058825 0.07450980392156863
newmtl m88
Kd 0.21568627450980393 0.18823529411764706 0.11764705882352941
newmtl m89
Kd 0.21568627450980393 0.18823529411764706 0.11764705882352941
newmtl m90
Kd 0.18823529411764706 0.15294117647058825 0.07450980392156863
newmtl m91
Kd 0.18823529411764706 0.15294117647058825 0.07450980392156863
newmtl m92
Kd 0.21568627450980393 0.18823529411764706 0.11764705882352941
newmtl m93
Kd 0.21568627450980393 0.18823529411764706 0.11764705882352941
newmtl m94
Kd 0.18823529411764706 0.15294117647058825 0.07450980392156863
newmtl m95
Kd 0.18823529411764706 0.15294117647058825 0.07450980392156863
newmtl m96
Kd 0.21568627450980393 0.18823529411764706 0.11764705882352941
newmtl m97
Kd 0.21568627450980393 0.18823529411764706 0.11764705882352941
newmtl m98
Kd 0.18823529411764706 0.15294117647058825 0.07450980392156863
newmtl m99
Kd 0.18823529411764706 0.15294117647058825 0.07450980392156863
newmtl m100
Kd 0.21568627450980393 0.18823529411764706 0.11764705882352941
newmtl m101
Kd 0.21568627450980393 0.18823529411764706 0.11764705882352941
newmtl m102
Kd 0.18823529411764706 0.15294117647058825 0.07450980392156863
newmtl m103
Kd 0.18823529411764706 0.15294117647058825 0.07450980392156863
newmtl m104
Kd 0.18823529411764706 0.15294117647058825 0.07450980392156863
newmtl m105
Kd 0.18823529411764706 0.15294117647058825 0.07450980392156863
newmtl m106
Kd 0.18823529411764706 0.15294117647058825 0.07450980392156863
newmtl m107
Kd 0.18823529411764706 0.15294117647058825 0.07450980392156863
newmtl m108
Kd 0.18823529411764706 0.15294117647058825 0.07450980392156863
newmtl m109
Kd 0.18823529411764706 0.15294117647058825 0.07450980392156863
newmtl m110
Kd 0.18823529411764706 0.15294117647058825 0.07450980392156863
newmtl m111
Kd 0.18823529411764706 0.15294117647058825 0.07450980392156863
newmtl m112
Kd 0.18823529411764706 0.15294117647058825 0.07450980392156863
newmtl m113
Kd 0.18823529411764706 0.15294117647058825 0.07450980392156863
newmtl m114
Kd 0.18823529411764706 0.15294117647058825 0.07450980392156863
newmtl m115
Kd 0.18823529411764706 0.15294117647058825 0.07450980392156863
