mtllib 2056.mtl
o runescapemodel
v -64 149 36
v -69 178 43
v -77 185 49
v -68 147 39
v -65 163 26
v -75 198 32
v -81 206 33
v -71 188 24
v -78 191 20
v -72 163 23
v -62 17 -28
v -62 31 -14
v -71 30 -8
v -66 9 -31
v -62 31 -41
v -69 49 -21
v -76 48 -19
v -70 52 -40
v -78 57 -47
v -71 30 -45
v -69 40 31
v -71 30 30
v -75 46 17
v -77 53 31
v -74 42 43
v -77 209 -36
v -79 203 -38
v -83 212 -47
v -85 221 -36
v -82 210 -30
v -66 173 -24
v -67 157 -29
v -74 173 -32
v -76 182 -19
v -73 171 -13
vn 471 152 -245
vn 1013 -327 -474
vn 487 -80 -529
vn 161 324 178
vn 846 134 548
vn 993 -565 95
vn 550 -391 -110
vn 619 -234 545
vn 445 -311 481
vn 307 155 639
vn 758 373 -227
vn 773 -184 -570
vn 382 150 -498
vn 483 327 137
vn 1161 -38 524
vn 630 -761 -337
vn 144 -493 -491
vn 631 -399 383
vn 283 -503 73
vn 380 31 619
vn 882 -173 -23
vn 455 90 8
vn 443 -99 147
vn 427 -263 -31
vn 439 -74 -170
vn 780 -118 -90
vn 392 140 -31
vn 426 -106 203
vn 388 -258 -59
vn 354 -12 -293
vn 690 -309 32
vn 395 9 51
vn 296 -239 296
vn 295 -318 -19
vn 394 -70 -264
usemtl m0
f 1 2 3

usemtl m1
f 1 3 4

usemtl m2
f 1 4 5

usemtl m3
f 1 5 2

usemtl m4
f 2 5 6

usemtl m5
f 2 6 7

usemtl m6
f 2 7 3

usemtl m7
f 6 8 9

usemtl m8
f 6 9 7

usemtl m9
f 8 5 10

usemtl m10
f 8 10 9

usemtl m11
f 5 4 10

usemtl m12
f 5 8 6

usemtl m13
f 11 12 13

usemtl m14
f 11 13 14

usemtl m15
f 11 14 15

usemtl m16
f 11 15 12

usemtl m17
f 12 15 16

usemtl m18
f 12 16 17

usemtl m19
f 12 17 13

usemtl m20
f 16 18 19

usemtl m21
f 16 19 17

usemtl m22
f 18 15 20

usemtl m23
f 18 20 19

usemtl m24
f 15 14 20

usemtl m25
f 15 18 16

usemtl m26
f 21 22 23

usemtl m27
f 21 23 24

usemtl m28
f 21 24 25

usemtl m29
f 21 25 22

usemtl m30
f 26 27 28

usemtl m31
f 26 28 29

usemtl m32
f 26 29 30

usemtl m33
f 26 30 27

usemtl m34
f 31 32 33

usemtl m35
f 31 33 34

usemtl m36
f 31 34 35

usemtl m37
f 31 35 32

