mtllib 20574.mtl
o runescapemodel
v -15 13 1
v -19 13 1
v -9 5 1
v -6 4 1
v -8 13 16
v -10 24 19
v -17 24 1
v 0 13 -12
v 0 4 -6
v -13 22 22
v -8 35 16
v -6 36 20
v 12 24 19
v 15 21 22
v -22 22 1
v -19 33 0
v -15 35 1
v 0 24 -14
v 16 13 -3
v 12 4 0
v 5 2 3
v -2 4 10
v 7 4 10
v 9 13 16
v 0 35 -12
v -4 33 -13
v 18 24 -3
v 0 57 1
v 3 52 6
v 6 52 0
v 0 52 -3
v -6 52 1
v -2 52 6
v 3 57 5
v 5 54 8
v 5 48 10
v 6 50 11
v 9 48 -1
v 0 48 -6
v -8 48 1
v -4 48 10
v 16 35 -3
v 12 35 16
v -2 49 14
vn -1276 389 -10
vn 165 176 188
vn 0 0 -256
vn -589 998 242
vn -569 760 -937
vn -852 244 -1427
vn -1228 -219 487
vn -150 466 1170
vn -208 897 609
vn 88 -243 293
vn -726 -531 -1313
vn 4 77 207
vn 722 173 -784
vn 1 -206 -151
vn 35 214 -201
vn -91 -228 361
vn -1069 -222 -82
vn -114 -5 1225
vn 1047 387 357
vn 556 790 316
vn 35 1232 -27
vn -224 809 -383
vn 528 934 -732
vn 690 502 -941
vn -196 -581 1301
vn 86 222 -99
vn 1103 43 439
vn 193 -803 146
vn 354 -692 -547
vn 732 -760 151
vn 60 -695 937
vn -738 -630 274
vn -514 -987 -896
vn -204 -47 -170
vn -22 -14 4
vn 452 -699 -1012
vn 246 -166 224
vn 952 -752 407
vn -105 -630 1152
vn -1055 -624 228
vn -423 -798 -629
vn 1076 -382 474
vn 677 -551 -885
vn -169 43 -307
usemtl m0
f 1 2 3

usemtl m1
f 1 3 4

usemtl m2
f 1 4 5

usemtl m3
f 1 5 6

usemtl m4
f 1 6 7

usemtl m5
f 1 7 8

usemtl m6
f 1 8 9

usemtl m7
f 1 9 4

usemtl m8
f 1 4 2

usemtl m9
f 1 2 10

usemtl m10
f 1 10 6

usemtl m11
f 1 6 2

usemtl m12
f 2 6 10

usemtl m13
f 10 6 11

usemtl m14
f 10 11 12

usemtl m15
f 10 12 6

usemtl m16
f 10 6 13

usemtl m17
f 10 13 14

usemtl m18
f 10 14 6

usemtl m19
f 10 6 7

usemtl m20
f 10 7 15

usemtl m21
f 10 15 6

usemtl m22
f 6 15 7

usemtl m23
f 7 15 16

usemtl m24
f 7 16 17

usemtl m25
f 7 17 18

usemtl m26
f 7 18 8

usemtl m27
f 8 18 19

usemtl m28
f 8 19 20

usemtl m29
f 8 20 9

usemtl m30
f 9 20 21

usemtl m31
f 9 21 4

usemtl m32
f 4 21 22

usemtl m33
f 4 22 5

usemtl m34
f 5 22 23

usemtl m35
f 5 23 24

usemtl m36
f 5 24 6

usemtl m37
f 6 24 13

usemtl m38
f 6 13 11

usemtl m39
f 6 11 7

usemtl m40
f 7 11 17

usemtl m41
f 7 17 15

usemtl m42
f 15 17 16

usemtl m43
f 16 17 25

usemtl m44
f 16 25 26

usemtl m45
f 16 26 17

usemtl m46
f 17 26 25

usemtl m47
f 17 25 18

usemtl m48
f 18 25 27

usemtl m49
f 18 27 19

usemtl m50
f 19 27 24

usemtl m51
f 19 24 23

usemtl m52
f 19 23 20

usemtl m53
f 20 23 21

usemtl m54
f 21 23 22

usemtl m55
f 28 29 30

usemtl m56
f 28 30 31

usemtl m57
f 28 31 32

usemtl m58
f 28 32 33

usemtl m59
f 28 33 29

usemtl m60
f 28 29 34

usemtl m61
f 28 34 35

usemtl m62
f 28 35 29

usemtl m63
f 29 35 34

usemtl m64
f 35 29 36

usemtl m65
f 35 36 37

usemtl m66
f 35 37 29

usemtl m67
f 29 37 36

usemtl m68
f 29 36 30

usemtl m69
f 30 36 38

usemtl m70
f 30 38 31

usemtl m71
f 31 38 39

usemtl m72
f 31 39 32

usemtl m73
f 32 39 40

usemtl m74
f 32 40 33

usemtl m75
f 33 40 41

usemtl m76
f 33 41 36

usemtl m77
f 33 36 29

usemtl m78
f 17 11 41

usemtl m79
f 17 41 40

usemtl m80
f 17 40 25

usemtl m81
f 25 40 39

usemtl m82
f 25 39 42

usemtl m83
f 25 42 27

usemtl m84
f 27 42 13

usemtl m85
f 27 13 24

usemtl m86
f 41 11 43

usemtl m87
f 41 43 36

usemtl m88
f 41 36 44

usemtl m89
f 41 44 12

usemtl m90
f 41 12 11

usemtl m91
f 41 11 44

usemtl m92
f 41 44 37

usemtl m93
f 41 37 36

usemtl m94
f 36 37 44

usemtl m95
f 38 36 43

usemtl m96
f 38 43 42

usemtl m97
f 38 42 39

usemtl m98
f 11 13 43

usemtl m99
f 43 13 42

usemtl m100
f 4 3 2

usemtl m101
f 6 12 11

usemtl m102
f 11 12 44

usemtl m103
f 6 14 13

