mtllib 20611.mtl
o runescapemodel
v 7 1 7
v 17 9 10
v 8 9 16
v 0 9 17
v 0 1 7
v 0 0 0
v 7 1 0
v 19 9 0
v 21 19 0
v 18 19 11
v 9 19 17
v 0 19 19
v -8 9 16
v -7 1 7
v -7 1 0
v -7 1 -7
v 0 1 -7
v 7 1 -7
v 17 9 -10
v 18 19 -11
v 17 29 -10
v 19 29 0
v 17 29 10
v 8 29 16
v 0 29 17
v -9 19 17
v -17 9 9
v -18 9 0
v -17 9 -10
v -8 9 -17
v 0 9 -19
v 8 9 -17
v 9 19 -19
v 8 29 -17
v 7 37 -7
v 7 37 0
v 7 37 7
v 0 37 7
v -7 37 7
v -8 29 16
v -18 19 10
v -20 19 0
v -18 19 -11
v -9 19 -19
v 0 19 -21
v 0 29 -19
v 0 37 -7
v 0 38 0
v -7 37 0
v -17 29 9
v -18 29 0
v -17 29 -10
v -8 29 -17
v -7 37 -7
v -2 45 -2
v -3 45 -1
v -3 49 -1
v -2 49 -2
v 1 45 -2
v 1 45 -5
v -3 45 -4
v -6 45 -1
v -3 45 2
v -3 49 2
v -2 49 3
v 1 49 3
v 2 49 2
v 2 49 -1
v 1 49 -2
v 2 45 -1
v 4 45 -2
v 4 42 -2
v 1 42 -5
v -3 42 -4
v -6 42 -1
v -5 45 3
v -2 45 6
v -2 45 3
v 1 45 3
v 2 45 2
v -5 42 3
v -2 42 6
v 2 45 5
v 5 45 2
v 2 42 5
v 5 42 2
v -3 37 -3
v -4 37 -1
v -4 42 -1
v -3 42 -3
v 0 38 -3
v 0 42 -3
v 3 37 -1
v 3 42 -1
v 3 37 2
v 3 42 2
v 2 37 4
v 2 42 4
v -1 38 4
v -1 42 4
v -4 37 2
v -4 42 2
vn 318 1288 -516
vn 1037 709 -506
vn 432 472 -993
vn 56 719 -1237
vn -20 1105 -563
vn 0 2048 0
vn 517 1139 -28
vn 1177 757 69
vn 1474 0 0
vn 1159 -12 -816
vn 561 12 -1382
vn 0 0 -1492
vn -374 684 -1175
vn -456 1290 -369
vn -533 1127 15
vn -343 1313 473
vn 35 1139 517
vn 439 1318 365
vn 833 510 606
vn 1229 -7 760
vn 1059 -713 482
vn 1177 -757 -69
vn 783 -486 -653
vn 346 -688 -1191
vn -56 -719 -1237
vn -606 -12 -1349
vn -833 477 -591
vn -1208 742 -54
vn -1074 708 423
vn -527 528 924
vn -59 776 1173
vn 410 755 1126
vn 658 -13 1310
vn 527 -528 924
vn 343 -1313 473
vn 517 -1139 28
vn 432 -1305 -387
vn 20 -1105 -563
vn -331 -1284 -511
vn -475 -468 -966
vn -1216 12 -727
vn -1498 -1 -11
vn -1243 7 692
vn -658 13 1310
vn 0 0 1470
vn 59 -776 1173
vn -35 -1139 517
vn 0 -2048 0
vn -534 -1127 -16
vn -1080 -701 -439
vn -1210 -742 42
vn -840 -505 566
vn -410 -755 1126
vn -450 -1308 350
vn -408 -1024 664
vn -716 -512 204
vn -664 -256 408
vn -204 -1536 716
vn 204 -512 716
vn 320 -1024 640
vn -320 -512 704
vn -640 -1024 320
vn -664 -1024 -408
vn -716 -512 -204
vn -408 -512 -664
vn 204 -512 -716
vn 664 -512 -408
vn 716 -512 204
vn 408 -256 664
vn 664 -768 408
vn 704 -768 320
vn 640 0 448
vn 64 0 704
vn -448 0 640
vn -704 0 64
vn -704 -512 -320
vn -320 -768 -640
vn -204 -768 -716
vn 408 -768 -664
vn 716 -768 -204
vn -640 0 -448
vn -64 0 -704
vn 320 -768 -704
vn 640 -768 -320
vn 448 0 -640
vn 704 0 -64
vn -464 0 488
vn -744 0 116
vn -720 0 232
vn -232 0 628
vn 146 0 731
vn 288 0 688
vn 544 0 432
vn 654 0 213
vn 744 0 -116
vn 720 0 -232
vn 464 0 -488
vn 232 0 -628
vn -146 0 -731
vn -288 0 -688
vn -544 0 -432
vn -654 0 -213
usemtl m0
f 1 2 3

usemtl m1
f 1 3 4

usemtl m2
f 1 4 5

usemtl m3
f 1 5 6

usemtl m4
f 1 6 7

usemtl m5
f 1 7 2

usemtl m6
f 2 7 8

usemtl m7
f 2 8 9

usemtl m8
f 2 9 10

usemtl m9
f 2 10 3

usemtl m10
f 3 10 11

usemtl m11
f 3 11 4

usemtl m12
f 4 11 12

usemtl m13
f 4 12 13

usemtl m14
f 4 13 5

usemtl m15
f 5 13 14

usemtl m16
f 5 14 6

usemtl m17
f 6 14 15

usemtl m18
f 6 15 16

usemtl m19
f 6 16 17

usemtl m20
f 6 17 18

usemtl m21
f 6 18 7

usemtl m22
f 7 18 8

usemtl m23
f 8 18 19

usemtl m24
f 8 19 20

usemtl m25
f 8 20 9

usemtl m26
f 9 20 21

usemtl m27
f 9 21 22

usemtl m28
f 9 22 10

usemtl m29
f 10 22 23

usemtl m30
f 10 23 11

usemtl m31
f 11 23 24

usemtl m32
f 11 24 12

usemtl m33
f 12 24 25

usemtl m34
f 12 25 26

usemtl m35
f 12 26 13

usemtl m36
f 13 26 27

usemtl m37
f 13 27 14

usemtl m38
f 14 27 28

usemtl m39
f 14 28 15

usemtl m40
f 15 28 29

usemtl m41
f 15 29 16

usemtl m42
f 16 29 30

usemtl m43
f 16 30 31

usemtl m44
f 16 31 17

usemtl m45
f 17 31 32

usemtl m46
f 17 32 18

usemtl m47
f 18 32 19

usemtl m48
f 19 32 33

usemtl m49
f 19 33 20

usemtl m50
f 20 33 34

usemtl m51
f 20 34 21

usemtl m52
f 21 34 35

usemtl m53
f 21 35 36

usemtl m54
f 21 36 22

usemtl m55
f 22 36 37

usemtl m56
f 22 37 23

usemtl m57
f 23 37 24

usemtl m58
f 24 37 38

usemtl m59
f 24 38 25

usemtl m60
f 25 38 39

usemtl m61
f 25 39 40

usemtl m62
f 25 40 26

usemtl m63
f 26 40 41

usemtl m64
f 26 41 27

usemtl m65
f 27 41 28

usemtl m66
f 28 41 42

usemtl m67
f 28 42 29

usemtl m68
f 29 42 43

usemtl m69
f 29 43 30

usemtl m70
f 30 43 44

usemtl m71
f 30 44 31

usemtl m72
f 31 44 45

usemtl m73
f 31 45 32

usemtl m74
f 32 45 33

usemtl m75
f 33 45 46

usemtl m76
f 33 46 34

usemtl m77
f 34 46 35

usemtl m78
f 35 46 47

usemtl m79
f 35 47 48

usemtl m80
f 35 48 36

usemtl m81
f 36 48 37

usemtl m82
f 37 48 38

usemtl m83
f 38 48 39

usemtl m84
f 39 48 49

usemtl m85
f 39 49 50

usemtl m86
f 39 50 40

usemtl m87
f 40 50 41

usemtl m88
f 41 50 42

usemtl m89
f 42 50 51

usemtl m90
f 42 51 43

usemtl m91
f 43 51 52

usemtl m92
f 43 52 44

usemtl m93
f 44 52 53

usemtl m94
f 44 53 45

usemtl m95
f 45 53 46

usemtl m96
f 46 53 47

usemtl m97
f 47 53 54

usemtl m98
f 47 54 48

usemtl m99
f 48 54 49

usemtl m100
f 49 54 51

usemtl m101
f 49 51 50

usemtl m102
f 54 53 52

usemtl m103
f 54 52 51

usemtl m104
f 55 56 57

usemtl m105
f 55 57 58

usemtl m106
f 55 58 59

usemtl m107
f 55 59 60

usemtl m108
f 55 60 61

usemtl m109
f 55 61 62

usemtl m110
f 55 62 56

usemtl m111
f 56 62 63

usemtl m112
f 56 63 64

usemtl m113
f 56 64 57

usemtl m114
f 57 64 58

usemtl m115
f 58 64 65

usemtl m116
f 58 65 66

usemtl m117
f 58 66 67

usemtl m118
f 58 67 68

usemtl m119
f 58 68 69

usemtl m120
f 58 69 59

usemtl m121
f 59 69 70

usemtl m122
f 59 70 60

usemtl m123
f 60 70 71

usemtl m124
f 60 71 72

usemtl m125
f 60 72 73

usemtl m126
f 60 73 61

usemtl m127
f 61 73 74

usemtl m128
f 61 74 62

usemtl m129
f 62 74 75

usemtl m130
f 62 75 76

usemtl m131
f 62 76 63

usemtl m132
f 63 76 77

usemtl m133
f 63 77 78

usemtl m134
f 63 78 65

usemtl m135
f 63 65 64

usemtl m136
f 78 79 66

usemtl m137
f 78 66 65

usemtl m138
f 79 80 67

usemtl m139
f 79 67 66

usemtl m140
f 80 70 68

usemtl m141
f 80 68 67

usemtl m142
f 70 69 68

usemtl m143
f 75 81 76

usemtl m144
f 76 81 77

usemtl m145
f 77 81 82

usemtl m146
f 77 82 83

usemtl m147
f 77 83 78

usemtl m148
f 78 83 79

usemtl m149
f 79 83 84

usemtl m150
f 79 84 80

usemtl m151
f 80 84 71

usemtl m152
f 80 71 70

usemtl m153
f 82 85 83

usemtl m154
f 83 85 84

usemtl m155
f 84 85 86

usemtl m156
f 84 86 71

usemtl m157
f 71 86 72

usemtl m158
f 87 88 89

usemtl m159
f 87 89 90

usemtl m160
f 87 90 91

usemtl m161
f 91 90 92

usemtl m162
f 91 92 93

usemtl m163
f 93 92 94

usemtl m164
f 93 94 95

usemtl m165
f 95 94 96

usemtl m166
f 95 96 97

usemtl m167
f 97 96 98

usemtl m168
f 97 98 99

usemtl m169
f 99 98 100

usemtl m170
f 99 100 101

usemtl m171
f 101 100 102

usemtl m172
f 101 102 88

usemtl m173
f 88 102 89

