mtllib 21286.mtl
o runescapemodel
v -24 199 -49
v -24 202 -64
v -24 162 -64
v -24 163 -49
v -10 162 -46
v -10 200 -47
v -10 203 -64
v -24 202 64
v -24 199 49
v -24 165 49
v -24 162 64
v -10 200 47
v -10 164 46
v -10 203 64
v -33 121 -64
v -32 121 -42
v -32 157 -42
v -33 159 -64
v -10 159 -39
v -10 161 -64
v -10 120 -38
v -29 120 43
v -33 121 64
v -33 159 64
v -29 156 43
v -10 158 41
v -10 119 40
v -10 161 64
v -49 114 -38
v -49 116 -64
v -49 60 -64
v -49 60 -38
v -10 60 -35
v -10 115 -36
v -10 117 -64
v -49 116 64
v -45 117 41
v -49 60 38
v -49 60 64
v -10 117 36
v -10 60 35
v -10 117 64
v -46 117 32
v -46 117 -32
v -49 60 -32
v -49 60 32
v -10 117 34
v -10 117 -34
v -53 224 32
v -59 224 30
v -59 208 30
v -53 208 32
v -59 224 34
v -59 224 62
v -53 224 64
v -39 224 64
v -53 224 0
v -59 224 2
v -59 208 2
v -53 208 0
v -59 208 62
v -53 208 64
v -59 208 34
v -53 224 -32
v -59 224 -34
v -59 208 -34
v -53 208 -32
v -39 224 -64
v -53 224 -64
v -59 224 -62
v -59 208 -62
v -53 208 -64
v -39 256 64
v -39 256 -64
v -53 60 0
v -59 60 -2
v -59 44 -2
v -53 44 0
v -53 44 32
v -53 60 32
v 0 60 64
v 0 60 -64
v -53 60 -32
v -59 60 -30
v -59 44 -30
v -53 44 -32
v -53 60 64
v -53 44 64
v -53 16 32
v -53 16 64
v -64 16 62
v -64 0 62
v -53 0 64
v -53 60 -64
v -53 44 -64
v -53 16 -64
v -53 16 -32
v -53 16 0
v -64 16 30
v -64 0 30
v -53 0 32
v -64 16 34
v -64 0 34
v -53 272 32
v -59 272 30
v -59 256 30
v -53 256 32
v -59 272 34
v -59 272 62
v -53 272 64
v 0 272 64
v -53 272 0
v -59 272 2
v -59 256 2
v -53 256 0
v -59 256 62
v -53 256 64
v -59 256 34
v -53 272 -32
v -59 272 -34
v -59 256 -34
v -53 256 -32
v 0 272 -64
v -53 272 -64
v -59 272 -62
v -59 256 -62
v -53 256 -64
v 0 208 64
v 0 208 -64
v 64 272 -64
v 64 272 64
v 64 0 64
v 64 0 -64
v 31 272 0
v 32 272 -64
v 21 251 -64
v 21 251 64
v 32 272 64
v 10 251 -64
v -2 272 0
v 10 251 64
v -41 120 24
v -33 120 11
v -31 117 15
v -36 117 24
v -33 120 37
v -35 126 39
v -44 126 24
v -35 126 9
v -20 120 11
v -22 117 15
v -13 120 24
v -18 117 24
v -31 117 33
v -20 120 37
v -19 126 39
v -19 137 39
v -34 137 39
v -44 137 24
v -34 137 9
v -19 126 9
v -10 126 24
v -22 117 33
v -10 137 24
v -13 152 24
v -22 152 37
v -32 152 37
v -41 152 24
v -32 152 11
v -19 137 9
v -22 152 11
v -23 161 17
v -19 161 24
v -23 161 31
v -31 161 31
v -35 161 24
v -31 161 17
v -33 170 12
v -21 170 12
v -14 170 24
v -21 170 36
v -33 170 36
v -40 170 24
v -38 170 24
v -31 170 14
v -23 170 14
v -16 170 24
v -23 170 34
v -31 170 34
v -27 163 28
v -32 163 24
v -27 163 19
v -22 163 24
v -27 152 24
v -45 120 -21
v -36 120 -30
v -33 117 -21
v -37 117 -17
v -45 120 -8
v -50 126 -6
v -50 126 -23
v -38 126 -35
v -23 120 -30
v -26 117 -21
v -37 117 -10
v -36 120 0
v -38 126 5
v -38 134 6
v -52 134 -6
v -52 134 -24
v -38 134 -37
v -21 126 -35
v -14 120 -21
v -23 117 -17
v -14 120 -8
v -23 117 -10
v -33 117 -7
v -23 120 0
v -21 126 5
v -20 134 6
v -22 134 4
v -38 134 4
v -49 134 -6
v -49 134 -23
v -38 134 -34
v -20 134 -37
v -9 126 -23
v -9 126 -6
v -26 117 -7
v -7 134 -6
v -10 134 -6
v -29 119 -14
v -22 134 -34
v -7 134 -24
v -10 134 -23
v -64 16 2
v -53 0 0
v -64 0 2
v -64 16 -34
v -64 0 -34
v -53 0 -32
v -64 16 -30
v -64 16 -2
v -64 0 -2
v -64 16 -62
v -53 0 -64
v -64 0 -62
v -64 0 -30
vn -642 -508 -597
vn -273 -251 -50
vn -512 0 0
vn -309 0 -250
vn -89 -6 -503
vn -60 -257 -297
vn -41 -502 -94
vn -554 -501 94
vn -317 -250 303
vn -601 -6 503
vn -256 0 0
vn -131 -507 597
vn -53 -6 250
vn -17 -251 44
vn -512 0 -22
vn -301 0 -263
vn -618 -259 -551
vn -304 -507 -55
vn -83 -513 -297
vn -22 -254 -20
vn -80 -6 -505
vn -567 -6 600
vn -251 0 47
vn -523 -252 134
vn -328 -504 373
vn -95 -258 538
vn -39 -6 252
vn -51 -504 72
vn -557 -514 -547
vn -262 -255 -19
vn -512 0 0
vn -275 0 -255
vn -51 -8 -255
vn -20 -259 -273
vn -13 -510 -37
vn -512 -531 31
vn -286 -290 283
vn -562 -38 549
vn -256 0 0
vn -60 -531 496
vn -52 -9 -255
vn -6 -256 0
vn -543 -543 -510
vn -269 -269 255
vn -543 -30 510
vn -274 -14 -255
vn -14 -260 -255
vn -33 -516 510
vn -243 -1280 -243
vn -593 -512 -243
vn -418 0 -486
vn -243 0 243
vn -418 -256 486
vn -593 -512 -243
vn -162 -512 -486
vn -256 -768 0
vn -337 -1280 243
vn -418 -256 486
vn -593 0 243
vn -674 0 486
vn -418 0 -486
vn -81 0 -243
vn -593 0 243
vn -674 -768 -486
vn -593 -512 -243
vn -418 0 -486
vn -337 0 -243
vn -512 -768 0
vn -81 -768 243
vn -418 -256 486
vn -593 0 243
vn -162 0 486
vn -512 0 0
vn -256 0 0
vn -674 -1024 -486
vn -593 -512 -243
vn -418 0 -486
vn -1105 0 -243
vn -1536 0 0
vn -768 -512 0
vn -256 -768 0
vn -512 -768 0
vn -593 -1024 243
vn -418 -256 486
vn -593 0 243
vn -1186 0 486
vn -256 -256 0
vn -1024 0 0
vn -906 -768 -253
vn -348 -256 -506
vn -558 -512 -253
vn -348 0 -506
vn -46 0 -253
vn -256 -256 0
vn -768 0 0
vn -558 -512 253
vn -906 -768 -253
vn -906 -768 -253
vn -558 -512 -253
vn -348 0 -506
vn -138 0 253
vn -348 -256 506
vn -558 0 253
vn -243 -768 -243
vn -593 -512 -243
vn -418 0 -486
vn -243 0 243
vn -418 -256 486
vn -593 -512 -243
vn -162 -256 -486
vn 231 -110 7
vn -337 -512 243
vn -418 -256 486
vn -593 0 243
vn -674 0 486
vn -418 0 -486
vn -81 0 -243
vn -593 0 243
vn -674 -256 -486
vn -593 -512 -243
vn -418 0 -486
vn -337 0 -243
vn 231 -110 -7
vn -81 -512 243
vn -418 -256 486
vn -593 0 243
vn -162 0 486
vn -512 0 0
vn -256 0 0
vn 512 0 0
vn 256 0 0
vn 512 0 0
vn 256 0 0
vn -683 -346 0
vn -226 -118 3
vn -457 -484 3
vn -457 -740 -3
vn -226 -118 -3
vn 453 -749 -7
vn 684 -347 0
vn 453 -493 7
vn -992 934 -41
vn -537 898 877
vn -264 620 308
vn -398 625 -86
vn -469 885 -918
vn -619 270 -1129
vn -1254 288 -18
vn -633 249 1136
vn 498 847 891
vn 153 601 374
vn 1029 910 59
vn 411 623 79
vn -144 610 -386
vn 561 869 -863
vn 649 238 -1131
vn 641 -136 -1169
vn -640 -131 -1176
vn -1273 -148 -11
vn -630 -140 1191
vn 639 257 1124
vn 1279 281 16
vn 274 621 -287
vn 1298 -143 11
vn 1197 -505 -12
vn 595 -492 -1109
vn -607 -513 -1096
vn -1193 -490 24
vn -597 -478 1110
vn 654 -125 1156
vn 612 -526 1085
vn 585 -24 1020
vn 1186 -22 -19
vn 607 -40 -1000
vn -585 -24 -1020
vn -1186 -22 19
vn -607 -40 1000
vn -200 -411 564
vn 401 -425 455
vn 601 -436 -115
vn 200 -411 -564
vn -401 -425 -455
vn -601 -436 115
vn 466 -1214 165
vn 307 -1239 -465
vn -158 -1087 -321
vn -487 -1218 -148
vn -284 -1267 456
vn 151 -1113 302
vn 182 -791 1005
vn 777 -592 -57
vn -180 -785 -959
vn -768 -614 122
vn 0 -298 38
vn -743 1216 260
vn -338 1217 697
vn -121 731 202
vn -241 726 61
vn -711 1207 -371
vn -1114 615 -528
vn -1147 677 453
vn -485 663 1140
vn 269 1219 726
vn 74 730 218
vn -219 719 -155
vn -258 1206 -796
vn -438 576 -1188
vn -337 -673 -635
vn -661 -603 -192
vn -595 -595 359
vn -171 -598 681
vn 453 677 1147
vn 693 1218 334
vn 211 730 112
vn 738 1209 -288
vn 227 728 -65
vn -59 713 -279
vn 331 1197 -766
vn 474 610 -1165
vn 171 -662 -694
vn -104 -1163 288
vn 105 -1167 280
vn 258 -1174 116
vn 259 -1178 -106
vn 106 -1178 -259
vn 350 -576 599
vn 1131 682 489
vn 1130 656 -481
vn 130 713 -239
vn 590 -620 -372
vn -262 -1167 124
vn -3 -1614 30
vn -105 -1174 -268
vn 672 -579 175
vn -263 -1171 -115
vn -348 -256 506
vn -138 0 253
vn -558 0 253
vn -558 -512 -253
vn -348 0 -506
vn -138 0 253
vn -348 -256 506
vn -558 -512 -253
vn -348 0 -506
vn -348 -256 506
vn -92 0 506
vn -558 0 253
vn -558 0 253
usemtl m0
f 1 2 3

usemtl m1
f 1 3 4

usemtl m2
f 1 4 5

usemtl m3
f 1 5 6

usemtl m4
f 1 6 7

usemtl m5
f 1 7 2

usemtl m6
f 8 9 10

usemtl m7
f 8 10 11

usemtl m8
f 12 13 10

usemtl m9
f 12 10 9

usemtl m10
f 12 9 8

usemtl m11
f 12 8 14

usemtl m12
f 15 16 17

usemtl m13
f 15 17 18

usemtl m14
f 18 17 19

usemtl m15
f 18 19 20

usemtl m16
f 21 19 17

usemtl m17
f 21 17 16

usemtl m18
f 22 23 24

usemtl m19
f 22 24 25

usemtl m20
f 22 25 26

usemtl m21
f 22 26 27

usemtl m22
f 28 26 25

usemtl m23
f 28 25 24

usemtl m24
f 29 30 31

usemtl m25
f 29 31 32

usemtl m26
f 29 32 33

usemtl m27
f 29 33 34

usemtl m28
f 29 34 35

usemtl m29
f 29 35 30

usemtl m30
f 36 37 38

usemtl m31
f 36 38 39

usemtl m32
f 40 41 38

usemtl m33
f 40 38 37

usemtl m34
f 40 37 36

usemtl m35
f 40 36 42

usemtl m36
f 43 44 45

usemtl m37
f 43 45 46

usemtl m38
f 43 46 41

usemtl m39
f 43 41 47

usemtl m40
f 43 47 48

usemtl m41
f 43 48 44

usemtl m42
f 44 48 45

usemtl m43
f 45 48 33

usemtl m44
f 49 50 51

usemtl m45
f 49 51 52

usemtl m46
f 49 52 53

usemtl m47
f 49 53 54

usemtl m48
f 49 54 55

usemtl m49
f 49 55 56

usemtl m50
f 49 56 57

usemtl m51
f 49 57 50

usemtl m52
f 50 57 58

usemtl m53
f 50 58 59

usemtl m54
f 50 59 51

usemtl m55
f 58 57 60

usemtl m56
f 58 60 59

usemtl m57
f 55 54 61

usemtl m58
f 55 61 62

usemtl m59
f 53 52 63

usemtl m60
f 53 63 54

usemtl m61
f 54 63 61

usemtl m62
f 64 65 66

usemtl m63
f 64 66 67

usemtl m64
f 64 67 60

usemtl m65
f 64 60 57

usemtl m66
f 64 57 68

usemtl m67
f 64 68 69

usemtl m68
f 64 69 65

usemtl m69
f 65 69 70

usemtl m70
f 65 70 71

usemtl m71
f 65 71 66

usemtl m72
f 70 69 72

usemtl m73
f 70 72 71

usemtl m74
f 57 56 68

usemtl m75
f 68 56 73

usemtl m76
f 68 73 74

usemtl m77
f 75 76 77

usemtl m78
f 75 77 78

usemtl m79
f 75 78 79

usemtl m80
f 75 79 80

usemtl m81
f 75 80 81

usemtl m82
f 75 81 82

usemtl m83
f 75 82 83

usemtl m84
f 75 83 76

usemtl m85
f 76 83 84

usemtl m86
f 76 84 85

usemtl m87
f 76 85 77

usemtl m88
f 84 83 86

usemtl m89
f 84 86 85

usemtl m90
f 80 87 81

usemtl m91
f 87 80 88

usemtl m92
f 88 80 79

usemtl m93
f 88 79 89

usemtl m94
f 88 89 90

usemtl m95
f 90 89 91

usemtl m96
f 90 91 92

usemtl m97
f 90 92 93

usemtl m98
f 94 83 82

usemtl m99
f 83 94 95

usemtl m100
f 83 95 86

usemtl m101
f 86 95 96

usemtl m102
f 86 96 97

usemtl m103
f 86 97 78

usemtl m104
f 78 97 98

usemtl m105
f 78 98 79

usemtl m106
f 79 98 89

usemtl m107
f 89 98 99

usemtl m108
f 89 99 100

usemtl m109
f 89 100 101

usemtl m110
f 89 101 102

usemtl m111
f 89 102 91

usemtl m112
f 91 102 103

usemtl m113
f 91 103 92

usemtl m114
f 104 105 106

usemtl m115
f 104 106 107

usemtl m116
f 104 107 108

usemtl m117
f 104 108 109

usemtl m118
f 104 109 110

usemtl m119
f 104 110 111

usemtl m120
f 104 111 112

usemtl m121
f 104 112 105

usemtl m122
f 105 112 113

usemtl m123
f 105 113 114

usemtl m124
f 105 114 106

usemtl m125
f 113 112 115

usemtl m126
f 113 115 114

usemtl m127
f 110 109 116

usemtl m128
f 110 116 117

usemtl m129
f 108 107 118

usemtl m130
f 108 118 109

usemtl m131
f 109 118 116

usemtl m132
f 119 120 121

usemtl m133
f 119 121 122

usemtl m134
f 119 122 115

usemtl m135
f 119 115 112

usemtl m136
f 119 112 123

usemtl m137
f 119 123 124

usemtl m138
f 119 124 120

usemtl m139
f 120 124 125

usemtl m140
f 120 125 126

usemtl m141
f 120 126 121

usemtl m142
f 125 124 127

usemtl m143
f 125 127 126

usemtl m144
f 82 81 128

usemtl m145
f 82 128 129

usemtl m146
f 130 131 132

usemtl m147
f 130 132 133

usemtl m148
f 134 130 135

usemtl m149
f 134 135 136

usemtl m150
f 134 136 137

usemtl m151
f 134 137 138

usemtl m152
f 134 138 131

usemtl m153
f 134 131 130

usemtl m154
f 139 123 140

usemtl m155
f 139 140 141

usemtl m156
f 139 141 137

usemtl m157
f 139 137 136

usemtl m158
f 111 141 140

usemtl m159
f 111 140 112

usemtl m160
f 112 140 123

usemtl m161
f 142 143 144

usemtl m162
f 142 144 145

usemtl m163
f 142 145 146

usemtl m164
f 142 146 147

usemtl m165
f 142 147 148

usemtl m166
f 142 148 143

usemtl m167
f 143 148 149

usemtl m168
f 143 149 150

usemtl m169
f 143 150 151

usemtl m170
f 143 151 144

usemtl m171
f 150 152 153

usemtl m172
f 150 153 151

usemtl m173
f 146 145 154

usemtl m174
f 146 154 155

usemtl m175
f 146 155 156

usemtl m176
f 146 156 147

usemtl m177
f 147 156 157

usemtl m178
f 147 157 158

usemtl m179
f 147 158 148

usemtl m180
f 148 158 159

usemtl m181
f 148 159 149

usemtl m182
f 149 159 160

usemtl m183
f 149 160 161

usemtl m184
f 149 161 150

usemtl m185
f 150 161 152

usemtl m186
f 152 161 162

usemtl m187
f 152 162 155

usemtl m188
f 152 155 163

usemtl m189
f 152 163 153

usemtl m190
f 155 154 163

usemtl m191
f 162 156 155

usemtl m192
f 156 162 164

usemtl m193
f 156 164 157

usemtl m194
f 157 164 165

usemtl m195
f 157 165 166

usemtl m196
f 157 166 158

usemtl m197
f 158 166 167

usemtl m198
f 158 167 159

usemtl m199
f 159 167 168

usemtl m200
f 159 168 160

usemtl m201
f 160 168 169

usemtl m202
f 160 169 170

usemtl m203
f 160 170 161

usemtl m204
f 161 170 162

usemtl m205
f 162 170 164

usemtl m206
f 164 170 171

usemtl m207
f 164 171 165

usemtl m208
f 165 171 172

usemtl m209
f 165 172 173

usemtl m210
f 165 173 166

usemtl m211
f 166 173 174

usemtl m212
f 166 174 167

usemtl m213
f 167 174 175

usemtl m214
f 167 175 168

usemtl m215
f 168 175 176

usemtl m216
f 168 176 169

usemtl m217
f 169 176 177

usemtl m218
f 169 177 171

usemtl m219
f 169 171 170

usemtl m220
f 171 177 172

usemtl m221
f 172 177 178

usemtl m222
f 172 178 179

usemtl m223
f 172 179 173

usemtl m224
f 173 179 180

usemtl m225
f 173 180 174

usemtl m226
f 174 180 181

usemtl m227
f 174 181 175

usemtl m228
f 175 181 182

usemtl m229
f 175 182 176

usemtl m230
f 176 182 183

usemtl m231
f 176 183 177

usemtl m232
f 177 183 178

usemtl m233
f 178 183 184

usemtl m234
f 178 184 185

usemtl m235
f 178 185 179

usemtl m236
f 179 185 186

usemtl m237
f 179 186 180

usemtl m238
f 180 186 187

usemtl m239
f 180 187 181

usemtl m240
f 181 187 188

usemtl m241
f 181 188 182

usemtl m242
f 182 188 189

usemtl m243
f 182 189 183

usemtl m244
f 183 189 184

usemtl m245
f 184 189 190

usemtl m246
f 184 190 191

usemtl m247
f 184 191 185

usemtl m248
f 185 191 192

usemtl m249
f 185 192 186

usemtl m250
f 186 192 187

usemtl m251
f 187 192 193

usemtl m252
f 187 193 188

usemtl m253
f 188 193 190

usemtl m254
f 188 190 189

usemtl m255
f 192 191 194

usemtl m256
f 192 194 193

usemtl m257
f 193 194 190

usemtl m258
f 190 194 191

usemtl m259
f 195 196 197

usemtl m260
f 195 197 198

usemtl m261
f 195 198 199

usemtl m262
f 195 199 200

usemtl m263
f 195 200 201

usemtl m264
f 195 201 196

usemtl m265
f 196 201 202

usemtl m266
f 196 202 203

usemtl m267
f 196 203 204

usemtl m268
f 196 204 197

usemtl m269
f 199 198 205

usemtl m270
f 199 205 206

usemtl m271
f 199 206 207

usemtl m272
f 199 207 200

usemtl m273
f 200 207 208

usemtl m274
f 200 208 209

usemtl m275
f 200 209 201

usemtl m276
f 201 209 210

usemtl m277
f 201 210 202

usemtl m278
f 202 210 211

usemtl m279
f 202 211 212

usemtl m280
f 202 212 203

usemtl m281
f 203 212 213

usemtl m282
f 203 213 214

usemtl m283
f 203 214 204

usemtl m284
f 213 215 216

usemtl m285
f 213 216 214

usemtl m286
f 206 205 217

usemtl m287
f 206 217 218

usemtl m288
f 206 218 219

usemtl m289
f 206 219 207

usemtl m290
f 207 219 220

usemtl m291
f 207 220 208

usemtl m292
f 208 220 221

usemtl m293
f 208 221 222

usemtl m294
f 208 222 209

usemtl m295
f 209 222 223

usemtl m296
f 209 223 210

usemtl m297
f 210 223 224

usemtl m298
f 210 224 211

usemtl m299
f 211 224 225

usemtl m300
f 211 225 226

usemtl m301
f 211 226 212

usemtl m302
f 212 226 227

usemtl m303
f 212 227 213

usemtl m304
f 213 227 215

usemtl m305
f 215 227 228

usemtl m306
f 215 228 218

usemtl m307
f 215 218 229

usemtl m308
f 215 229 216

usemtl m309
f 218 217 229

usemtl m310
f 218 228 219

usemtl m311
f 219 228 230

usemtl m312
f 219 230 220

usemtl m313
f 220 230 231

usemtl m314
f 220 231 221

usemtl m315
f 221 231 232

usemtl m316
f 221 232 222

usemtl m317
f 222 232 223

usemtl m318
f 223 232 224

usemtl m319
f 224 232 225

usemtl m320
f 225 232 233

usemtl m321
f 225 233 226

usemtl m322
f 226 233 234

usemtl m323
f 226 234 227

usemtl m324
f 227 234 228

usemtl m325
f 228 234 230

usemtl m326
f 230 234 235

usemtl m327
f 230 235 231

usemtl m328
f 231 235 232

usemtl m329
f 232 235 233

usemtl m330
f 233 235 234

usemtl m331
f 236 98 237

usemtl m332
f 236 237 238

usemtl m333
f 236 238 99

usemtl m334
f 236 99 98

usemtl m335
f 99 238 100

usemtl m336
f 102 101 103

usemtl m337
f 97 239 240

usemtl m338
f 97 240 241

usemtl m339
f 97 241 242

usemtl m340
f 97 242 243

usemtl m341
f 97 243 98

usemtl m342
f 98 243 244

usemtl m343
f 98 244 237

usemtl m344
f 245 96 246

usemtl m345
f 245 246 247

usemtl m346
f 245 247 239

usemtl m347
f 245 239 96

usemtl m348
f 96 239 97

usemtl m349
f 239 247 240

usemtl m350
f 242 241 248

usemtl m351
f 242 248 243

usemtl m352
f 243 248 244

