mtllib 21339.mtl
o runescapemodel
v -56 40 5
v -57 48 8
v -53 49 4
v -57 53 16
v -50 59 6
v -50 62 23
v -44 65 16
v -41 64 22
v -48 66 22
v -42 60 23
v -42 60 17
v -49 66 11
v -54 66 8
v -54 66 20
v -58 58 6
v -59 58 15
v -61 46 7
v -61 41 12
v -57 27 12
v -43 69 25
v -42 61 23
v -42 63 17
v -48 72 16
v -53 75 16
v -48 72 26
v -61 69 17
v -58 67 25
v -63 58 19
v -63 52 23
v -60 38 21
v -50 65 34
v -42 62 27
v -42 63 20
v -47 68 24
v -54 63 25
v -55 61 36
v -56 54 30
v -57 53 39
v -51 41 29
v -54 42 35
v -45 27 27
v -24 202 64
v -24 199 46
v -24 163 46
v -24 162 64
v -10 200 44
v -10 162 43
v -10 203 64
v -25 200 39
v -26 198 6
v -27 163 6
v -25 163 40
v -10 203 42
v -10 203 2
v -10 164 1
v -32 121 5
v -33 121 64
v -33 159 64
v -32 157 5
v -10 159 2
v -10 120 1
v -10 161 64
v -49 116 64
v -49 114 46
v -49 60 46
v -49 60 64
v -10 115 44
v -10 60 43
v -10 117 64
v -37 113 40
v -37 113 5
v -40 60 5
v -40 60 40
v -10 117 42
v -10 117 3
v -10 60 2
v -59 224 34
v -53 224 32
v -53 208 32
v -59 208 34
v -59 224 62
v -53 224 64
v -39 224 64
v -39 224 32
v -53 224 0
v -59 224 30
v -59 208 30
v -59 208 62
v -53 208 64
v -59 224 2
v -53 208 0
v -59 208 2
v -39 224 0
v -39 256 32
v -39 256 0
v -39 256 64
v -59 60 34
v -53 60 32
v -53 44 32
v -59 44 34
v -59 60 62
v -53 60 64
v 0 60 64
v 0 60 32
v -53 60 0
v -59 60 30
v -59 44 30
v -59 44 62
v -53 44 64
v -59 60 2
v -53 44 0
v -59 44 2
v 0 60 0
v -53 88 0
v -64 61 -2
v -64 86 -2
v -64 61 -62
v -64 86 -62
v -53 60 -64
v -53 88 -64
v 64 88 -64
v 64 60 -64
v -53 28 -64
v -64 58 -62
v -64 58 -2
v -64 29 -2
v -53 28 0
v -1 28 0
v -59 272 34
v -53 272 32
v -53 256 32
v -59 256 34
v -59 272 62
v -53 272 64
v 64 272 64
v -53 272 0
v -59 272 30
v -59 256 30
v -59 256 62
v -53 256 64
v -59 272 2
v -53 256 0
v -59 256 2
v -53 33 48
v -53 20 38
v -53 20 58
v -48 20 60
v -48 35 48
v -48 20 36
v -53 20 26
v -53 16 32
v -53 16 64
v -53 20 64
v -48 20 64
v -48 25 64
v -48 40 52
v -48 40 44
v -48 25 32
v -48 20 28
v -53 33 16
v -53 20 6
v -53 16 0
v -64 16 30
v -64 0 30
v -53 0 32
v -64 16 34
v -64 16 62
v -64 0 62
v -53 0 64
v -53 27 0
v -53 40 10
v -53 40 0
v -53 44 10
v -53 27 32
v -53 40 42
v -53 40 22
v -48 40 20
v -53 27 64
v -53 40 64
v -53 40 54
v -48 35 16
v -48 40 12
v -48 20 4
v -48 25 0
v -48 20 0
v -53 20 0
v -53 44 42
v -53 44 22
v -53 44 54
v -64 0 34
v -64 16 2
v -53 0 0
v -64 0 2
v 0 88 64
v 0 88 32
v 0 88 0
v -53 119 0
v -64 89 -2
v -64 117 -2
v -64 89 -62
v -64 117 -62
v -53 119 -64
v 64 119 -64
v 64 88 64
v 64 60 64
v 64 28 64
v 64 28 -64
v -53 0 -64
v -64 26 -62
v -64 26 -2
v -64 0 -2
v -1 0 0
v -64 0 -62
v -64 29 -62
v 64 0 -64
v 64 0 64
v 0 119 0
v -53 152 0
v -64 120 -2
v -64 150 -2
v -64 120 -62
v -64 150 -62
v -53 152 -64
v 64 152 -64
v 64 119 64
v 0 152 0
v -53 182 0
v -64 153 -2
v -64 180 -2
v -64 153 -62
v -64 180 -62
v -53 182 -64
v 64 182 -64
v 64 152 64
v 0 182 0
v -64 183 -2
v -64 206 -2
v -64 183 -62
v -64 206 -62
v -53 208 -64
v 64 208 -64
v 64 182 64
v 0 208 0
v -53 240 0
v -64 209 -2
v -64 238 -2
v -64 209 -62
v -64 238 -62
v -53 240 -64
v 64 240 -64
v 64 208 64
v 0 240 0
v -64 241 -2
v -64 270 -2
v -64 241 -62
v -64 270 -62
v -53 272 -64
v 64 272 -64
v 64 240 64
v 0 271 0
v 0 119 64
v 0 119 32
v 0 152 32
v 0 182 32
v 0 208 32
v 0 152 64
v 0 182 64
v 0 208 64
v -25 158 35
v -31 164 36
v -32 164 47
v -25 158 41
v -37 164 38
v -37 164 50
v -42 156 43
v -41 156 52
v -44 139 46
v -44 144 51
v -40 125 46
v -25 160 31
v -33 163 24
v -30 166 34
v -25 161 38
v -38 159 22
v -37 161 33
v -40 151 19
v -39 152 28
v -40 140 23
v -37 139 29
v -34 125 31
vn -186 -42 176
vn -341 -220 287
vn -559 -305 388
vn -562 -434 242
vn -553 -463 167
vn -382 -625 1
vn -193 -454 -29
vn -47 -247 -65
vn 358 -883 15
vn 184 -184 0
vn 358 -371 15
vn 174 -443 15
vn -229 -626 0
vn -438 -515 23
vn -687 -318 50
vn -714 -229 25
vn -743 -16 70
vn -494 43 43
vn -238 68 68
vn 730 -602 63
vn 256 -29 -9
vn 466 -161 63
vn 342 -353 72
vn 138 -630 -120
vn -108 -618 -215
vn -468 -457 -315
vn -572 -332 -291
vn -703 -80 -132
vn -475 -21 -32
vn -245 43 64
vn 15 -765 -171
vn 113 -227 -32
vn 316 -351 -130
vn 57 -333 -116
vn -554 -462 -27
vn -660 -307 12
vn -742 -14 71
vn -719 56 168
vn -690 191 245
vn -453 103 209
vn -223 81 98
vn -554 -505 79
vn -316 -252 295
vn -601 -6 503
vn -256 0 0
vn -131 -511 582
vn -153 -18 -252
vn -18 -253 37
vn -740 -513 -512
vn -397 -251 253
vn -645 -14 471
vn -304 -6 -266
vn -101 -257 -251
vn -263 -501 505
vn -72 -6 245
vn -591 -6 512
vn -256 0 4
vn -534 -255 17
vn -336 -509 274
vn -103 -260 512
vn -45 -6 251
vn -46 -509 17
vn -525 -508 53
vn -276 -254 283
vn -544 -4 510
vn -256 0 0
vn -45 -512 563
vn -63 -9 -254
vn -6 -254 25
vn -628 -539 -509
vn -311 -268 255
vn -554 -33 509
vn -280 -15 -254
vn -56 -257 -255
vn -118 -511 509
vn -25 -4 254
vn -418 -256 486
vn -243 -1536 -243
vn -243 0 243
vn -593 0 243
vn -593 -512 -243
vn -162 -512 -486
vn -256 -512 0
vn -768 -768 0
vn -81 -1024 243
vn -593 -512 -243
vn -418 0 -486
vn -418 0 -486
vn -81 0 -243
vn -418 -256 486
vn -342 -252 -1038
vn -593 0 243
vn -512 -256 0
vn -768 0 0
vn -256 0 0
vn -512 0 0
vn -418 -256 486
vn -243 -1536 -243
vn -243 0 243
vn -593 0 243
vn -593 -512 -243
vn -162 -512 -486
vn -256 -512 0
vn -768 -768 0
vn -261 -1276 -1280
vn -593 -512 -243
vn -418 0 -486
vn -418 0 -486
vn -593 0 -243
vn -418 -256 486
vn -418 0 486
vn -593 0 243
vn -512 -256 -768
vn -180 -252 -1523
vn -346 0 -503
vn -647 -504 -252
vn -557 0 252
vn -391 -252 503
vn -225 -504 1523
vn -225 -504 1522
vn 768 0 768
vn 768 0 768
vn -225 -504 1523
vn -391 -252 504
vn -647 -504 -252
vn -346 0 -504
vn -180 -252 -1523
vn 0 0 -768
vn -418 -256 486
vn -243 -768 -243
vn -243 0 243
vn -593 0 243
vn -593 -512 -243
vn -162 -256 -486
vn 512 0 0
vn -216 -764 -773
vn -593 -512 -243
vn -418 0 -486
vn -418 0 -486
vn -81 0 -243
vn -418 -256 486
vn -162 0 486
vn -593 0 243
vn -455 -455 -188
vn -904 -561 390
vn -1101 -660 -193
vn -651 -559 -386
vn -1222 -460 197
vn -844 -665 192
vn -1101 -660 -193
vn -1162 -768 -253
vn -604 -256 -506
vn -256 -256 0
vn -256 -512 0
vn -830 155 193
vn -651 303 386
vn -844 153 -192
vn -1222 460 -197
vn -651 -559 -386
vn -455 -455 -188
vn -904 -561 390
vn -814 -512 253
vn -558 -512 -253
vn -348 0 -506
vn -138 0 253
vn -348 -256 506
vn -558 -512 -253
vn -348 0 -506
vn -46 0 -253
vn -316 152 -198
vn -1160 305 -390
vn -768 0 0
vn -768 0 0
vn -455 455 188
vn -1160 305 -390
vn -1101 148 193
vn -651 303 386
vn -395 303 386
vn -512 0 0
vn -1101 148 193
vn -1222 -460 197
vn -844 153 -192
vn -844 -665 192
vn -648 305 -390
vn -256 -256 0
vn -256 -512 0
vn -768 0 0
vn -768 0 0
vn -768 0 0
vn -558 0 253
vn -348 -256 506
vn -137 0 -1
vn -558 0 253
vn -768 0 0
vn -1536 0 0
vn -768 0 -768
vn -180 -252 -1523
vn -346 0 -503
vn -647 -504 -251
vn -557 0 251
vn -391 -252 503
vn -225 -504 1524
vn 768 0 768
vn 768 0 0
vn 768 0 0
vn 768 0 0
vn 768 0 768
vn -90 0 1015
vn -391 -252 503
vn -647 -504 -252
vn -346 0 -503
vn 0 0 -512
vn -557 0 252
vn -557 0 252
vn 256 0 256
vn 512 0 0
vn -768 0 -768
vn -180 -252 -1524
vn -346 0 -504
vn -647 -504 -252
vn -557 0 252
vn -391 -252 504
vn -225 -504 1524
vn 768 0 768
vn 768 0 0
vn -768 0 -768
vn -180 -252 -1524
vn -346 0 -504
vn -647 -504 -252
vn -557 0 252
vn -391 -252 504
vn -225 -504 1524
vn 768 0 768
vn 768 0 0
vn -768 0 -768
vn -346 0 -504
vn -647 -504 -252
vn -557 0 252
vn -391 -252 504
vn -225 -504 1524
vn 768 0 768
vn 768 0 0
vn -256 0 -768
vn -180 -252 -1524
vn -346 0 -504
vn -647 -504 -252
vn -557 0 252
vn -391 -252 504
vn -225 -504 1524
vn 1024 0 768
vn 768 0 0
vn 0 0 -768
vn -346 0 -504
vn -647 -504 -252
vn -557 0 252
vn -391 -252 504
vn -135 -504 508
vn 256 0 512
vn 512 0 0
vn 0 0 -256
vn -768 0 0
vn -1536 0 0
vn -1536 0 0
vn -1536 0 0
vn -768 0 0
vn -768 0 0
vn -768 0 0
vn -512 0 0
vn 350 -375 -16
vn 183 -436 -16
vn 350 -887 -16
vn 167 -195 0
vn -217 -647 0
vn -444 -511 -25
vn -696 -289 -53
vn -721 -220 13
vn -732 -32 -30
vn -480 2 -2
vn -238 68 -68
vn 347 -351 124
vn -3 -383 113
vn 44 -764 161
vn 192 -172 24
vn -552 -470 25
vn -646 -309 -11
vn -757 -109 -62
vn -739 -25 -161
vn -717 51 -247
vn -461 60 -220
vn -230 33 -109
usemtl m0
f 1 2 3

usemtl m1
f 3 2 4

usemtl m2
f 3 4 5

usemtl m3
f 5 4 6

usemtl m4
f 5 6 7

usemtl m5
f 7 6 8

usemtl m6
f 9 10 11

usemtl m7
f 9 11 12

usemtl m8
f 9 12 13

usemtl m9
f 9 13 14

usemtl m10
f 14 13 15

usemtl m11
f 14 15 16

usemtl m12
f 16 15 17

usemtl m13
f 16 17 18

usemtl m14
f 18 17 19

usemtl m15
f 20 21 22

usemtl m16
f 20 22 23

usemtl m17
f 20 23 24

usemtl m18
f 20 24 25

usemtl m19
f 25 24 26

usemtl m20
f 25 26 27

usemtl m21
f 27 26 28

usemtl m22
f 27 28 29

usemtl m23
f 29 28 30

usemtl m24
f 31 32 33

usemtl m25
f 31 33 34

usemtl m26
f 31 34 35

usemtl m27
f 31 35 36

usemtl m28
f 36 35 37

usemtl m29
f 36 37 38

usemtl m30
f 38 37 39

usemtl m31
f 38 39 40

usemtl m32
f 40 39 41

usemtl m33
f 42 43 44

usemtl m34
f 42 44 45

usemtl m35
f 46 47 44

usemtl m36
f 46 44 43

usemtl m37
f 46 43 42

usemtl m38
f 46 42 48

usemtl m39
f 49 50 51

usemtl m40
f 49 51 52

usemtl m41
f 49 52 47

usemtl m42
f 49 47 53

usemtl m43
f 49 53 54

usemtl m44
f 49 54 50

usemtl m45
f 50 54 51

usemtl m46
f 51 54 55

usemtl m47
f 56 57 58

usemtl m48
f 56 58 59

usemtl m49
f 56 59 60

usemtl m50
f 56 60 61

usemtl m51
f 62 60 59

usemtl m52
f 62 59 58

usemtl m53
f 63 64 65

usemtl m54
f 63 65 66

usemtl m55
f 67 68 65

usemtl m56
f 67 65 64

usemtl m57
f 67 64 63

usemtl m58
f 67 63 69

usemtl m59
f 70 71 72

usemtl m60
f 70 72 73

usemtl m61
f 70 73 68

usemtl m62
f 70 68 74

usemtl m63
f 70 74 75

usemtl m64
f 70 75 71

usemtl m65
f 71 75 72

usemtl m66
f 72 75 76

usemtl m67
f 77 78 79

usemtl m68
f 77 79 80

usemtl m69
f 77 80 81

usemtl m70
f 77 81 78

usemtl m71
f 78 81 82

usemtl m72
f 78 82 83

usemtl m73
f 78 83 84

usemtl m74
f 78 84 85

usemtl m75
f 78 85 86

usemtl m76
f 78 86 87

usemtl m77
f 78 87 79

usemtl m78
f 82 81 88

usemtl m79
f 82 88 89

usemtl m80
f 81 80 88

usemtl m81
f 90 85 91

usemtl m82
f 90 91 92

usemtl m83
f 90 92 86

usemtl m84
f 90 86 85

usemtl m85
f 86 92 87

usemtl m86
f 85 84 93

usemtl m87
f 93 84 94

usemtl m88
f 93 94 95

usemtl m89
f 84 83 96

usemtl m90
f 84 96 94

usemtl m91
f 97 98 99

usemtl m92
f 97 99 100

usemtl m93
f 97 100 101

usemtl m94
f 97 101 98

usemtl m95
f 98 101 102

usemtl m96
f 98 102 103

usemtl m97
f 98 103 104

usemtl m98
f 98 104 105

usemtl m99
f 98 105 106

usemtl m100
f 98 106 107

usemtl m101
f 98 107 99

usemtl m102
f 102 101 108

usemtl m103
f 102 108 109

usemtl m104
f 101 100 108

usemtl m105
f 110 105 111

usemtl m106
f 110 111 112

usemtl m107
f 110 112 106

usemtl m108
f 110 106 105

usemtl m109
f 106 112 107

usemtl m110
f 105 104 113

usemtl m111
f 105 113 114

usemtl m112
f 105 114 115

usemtl m113
f 115 114 116

usemtl m114
f 115 116 117

usemtl m115
f 117 116 118

usemtl m116
f 117 118 119

usemtl m117
f 119 118 120

usemtl m118
f 119 120 121

usemtl m119
f 119 121 122

usemtl m120
f 119 122 123

usemtl m121
f 119 123 124

usemtl m122
f 119 124 125

usemtl m123
f 119 125 105

usemtl m124
f 105 125 126

usemtl m125
f 105 126 127

usemtl m126
f 105 127 128

usemtl m127
f 105 128 113

usemtl m128
f 129 130 131

usemtl m129
f 129 131 132

usemtl m130
f 129 132 133

usemtl m131
f 129 133 130

usemtl m132
f 130 133 134

usemtl m133
f 130 134 135

usemtl m134
f 130 135 136

usemtl m135
f 130 136 137

usemtl m136
f 130 137 138

usemtl m137
f 130 138 131

usemtl m138
f 134 133 139

usemtl m139
f 134 139 140

usemtl m140
f 133 132 139

usemtl m141
f 141 136 142

usemtl m142
f 141 142 143

usemtl m143
f 141 143 137

usemtl m144
f 141 137 136

usemtl m145
f 137 143 138

usemtl m146
f 144 145 146

usemtl m147
f 144 146 147

usemtl m148
f 144 147 148

usemtl m149
f 144 148 145

usemtl m150
f 145 148 149

usemtl m151
f 145 149 150

usemtl m152
f 145 150 151

usemtl m153
f 145 151 146

usemtl m154
f 146 151 152

usemtl m155
f 146 152 153

usemtl m156
f 146 153 154

usemtl m157
f 146 154 147

usemtl m158
f 147 154 155

usemtl m159
f 147 155 148

usemtl m160
f 148 155 156

usemtl m161
f 148 156 157

usemtl m162
f 148 157 149

usemtl m163
f 149 157 158

usemtl m164
f 149 158 159

usemtl m165
f 149 159 150

usemtl m166
f 150 159 160

usemtl m167
f 150 160 161

usemtl m168
f 150 161 162

usemtl m169
f 150 162 151

usemtl m170
f 151 162 163

usemtl m171
f 151 163 164

usemtl m172
f 151 164 165

usemtl m173
f 151 165 166

usemtl m174
f 151 166 167

usemtl m175
f 151 167 152

usemtl m176
f 152 167 168

usemtl m177
f 152 168 169

usemtl m178
f 170 171 172

usemtl m179
f 172 171 173

usemtl m180
f 172 173 111

usemtl m181
f 174 175 176

usemtl m182
f 174 176 177

usemtl m183
f 174 177 158

usemtl m184
f 174 158 175

usemtl m185
f 175 158 157

usemtl m186
f 178 179 180

usemtl m187
f 178 180 156

usemtl m188
f 178 156 155

usemtl m189
f 181 177 182

usemtl m190
f 181 182 183

usemtl m191
f 181 183 161

usemtl m192
f 181 161 160

usemtl m193
f 181 160 159

usemtl m194
f 181 159 158

usemtl m195
f 181 158 177

usemtl m196
f 183 184 185

usemtl m197
f 183 185 186

usemtl m198
f 183 186 161

usemtl m199
f 161 186 162

usemtl m200
f 183 182 184

usemtl m201
f 184 182 171

usemtl m202
f 184 171 170

usemtl m203
f 187 188 176

usemtl m204
f 187 176 175

usemtl m205
f 187 175 189

usemtl m206
f 189 175 180

usemtl m207
f 189 180 109

usemtl m208
f 109 180 179

usemtl m209
f 188 173 171

usemtl m210
f 188 171 176

usemtl m211
f 166 165 190

usemtl m212
f 166 190 167

usemtl m213
f 167 190 168

usemtl m214
f 191 162 192

usemtl m215
f 191 192 193

usemtl m216
f 191 193 163

usemtl m217
f 191 163 162

usemtl m218
f 163 193 164

usemtl m219
f 104 103 194

usemtl m220
f 104 194 195

usemtl m221
f 104 195 113

usemtl m222
f 113 195 196

usemtl m223
f 113 196 114

usemtl m224
f 114 196 197

usemtl m225
f 114 197 198

usemtl m226
f 198 197 199

usemtl m227
f 198 199 200

usemtl m228
f 200 199 201

usemtl m229
f 200 201 120

usemtl m230
f 120 201 202

usemtl m231
f 120 202 203

usemtl m232
f 120 203 121

usemtl m233
f 121 203 204

usemtl m234
f 121 204 205

usemtl m235
f 121 205 122

usemtl m236
f 122 205 206

usemtl m237
f 122 206 207

usemtl m238
f 122 207 123

usemtl m239
f 123 207 208

usemtl m240
f 123 208 209

usemtl m241
f 123 209 210

usemtl m242
f 123 210 127

usemtl m243
f 127 210 211

usemtl m244
f 127 211 192

usemtl m245
f 127 192 212

usemtl m246
f 127 212 128

usemtl m247
f 209 208 213

usemtl m248
f 209 213 210

usemtl m249
f 210 213 211

usemtl m250
f 124 123 214

usemtl m251
f 124 214 125

usemtl m252
f 125 214 126

usemtl m253
f 208 207 215

usemtl m254
f 215 207 216

usemtl m255
f 216 207 206

usemtl m256
f 116 114 120

usemtl m257
f 116 120 118

usemtl m258
f 199 197 202

usemtl m259
f 199 202 201

usemtl m260
f 197 196 217

usemtl m261
f 197 217 218

usemtl m262
f 197 218 219

usemtl m263
f 219 218 220

usemtl m264
f 219 220 221

usemtl m265
f 221 220 222

usemtl m266
f 221 222 202

usemtl m267
f 202 222 223

usemtl m268
f 202 223 224

usemtl m269
f 202 224 203

usemtl m270
f 203 224 225

usemtl m271
f 203 225 204

usemtl m272
f 220 218 223

usemtl m273
f 220 223 222

usemtl m274
f 218 217 226

usemtl m275
f 218 226 227

usemtl m276
f 218 227 228

usemtl m277
f 228 227 229

usemtl m278
f 228 229 230

usemtl m279
f 230 229 231

usemtl m280
f 230 231 223

usemtl m281
f 223 231 232

usemtl m282
f 223 232 233

usemtl m283
f 223 233 224

usemtl m284
f 224 233 234

usemtl m285
f 224 234 225

usemtl m286
f 229 227 232

usemtl m287
f 229 232 231

usemtl m288
f 227 226 235

usemtl m289
f 227 235 91

usemtl m290
f 227 91 236

usemtl m291
f 236 91 237

usemtl m292
f 236 237 238

usemtl m293
f 238 237 239

usemtl m294
f 238 239 232

usemtl m295
f 232 239 240

usemtl m296
f 232 240 241

usemtl m297
f 232 241 233

usemtl m298
f 233 241 242

usemtl m299
f 233 242 234

usemtl m300
f 237 91 240

usemtl m301
f 237 240 239

usemtl m302
f 91 235 243

usemtl m303
f 91 243 244

usemtl m304
f 91 244 245

usemtl m305
f 245 244 246

usemtl m306
f 245 246 247

usemtl m307
f 247 246 248

usemtl m308
f 247 248 240

usemtl m309
f 240 248 249

usemtl m310
f 240 249 250

usemtl m311
f 240 250 241

usemtl m312
f 241 250 251

usemtl m313
f 241 251 242

usemtl m314
f 246 244 249

usemtl m315
f 246 249 248

usemtl m316
f 244 243 252

usemtl m317
f 244 252 136

usemtl m318
f 244 136 253

usemtl m319
f 253 136 254

usemtl m320
f 253 254 255

usemtl m321
f 255 254 256

usemtl m322
f 255 256 249

usemtl m323
f 249 256 257

usemtl m324
f 249 257 258

usemtl m325
f 249 258 250

usemtl m326
f 250 258 135

usemtl m327
f 250 135 259

usemtl m328
f 250 259 251

usemtl m329
f 254 136 257

usemtl m330
f 254 257 256

usemtl m331
f 136 252 260

usemtl m332
f 136 135 258

usemtl m333
f 136 258 257

usemtl m334
f 195 194 261

usemtl m335
f 195 261 262

usemtl m336
f 195 262 196

usemtl m337
f 196 262 217

usemtl m338
f 217 262 263

usemtl m339
f 217 263 226

usemtl m340
f 226 263 264

usemtl m341
f 226 264 235

usemtl m342
f 235 264 265

usemtl m343
f 235 265 243

usemtl m344
f 262 261 266

usemtl m345
f 262 266 263

usemtl m346
f 263 266 267

usemtl m347
f 263 267 264

usemtl m348
f 264 267 268

usemtl m349
f 264 268 265

usemtl m350
f 269 270 271

usemtl m351
f 269 271 272

usemtl m352
f 271 270 273

usemtl m353
f 271 273 274

usemtl m354
f 274 273 275

usemtl m355
f 274 275 276

usemtl m356
f 276 275 277

usemtl m357
f 276 277 278

usemtl m358
f 278 277 279

usemtl m359
f 280 281 282

usemtl m360
f 280 282 283

usemtl m361
f 284 285 282

usemtl m362
f 284 282 281

usemtl m363
f 286 287 285

usemtl m364
f 286 285 284

usemtl m365
f 288 289 287

usemtl m366
f 288 287 286

usemtl m367
f 289 288 290

