mtllib 21415.mtl
o runescapemodel
v 23 165 -5
v 32 163 -5
v 30 157 -12
v 24 160 -10
v 25 152 -9
v 32 151 -12
v 26 147 -9
v 25 152 0
v 26 147 0
v 30 157 2
v 24 160 0
v 36 157 -5
v 37 148 -5
v 33 145 -11
v 29 143 -9
v 29 143 0
v 32 151 2
v 33 145 1
v 36 140 3
v 42 145 -5
v 36 140 -12
v 30 137 -10
v 29 137 1
v 34 136 -1
v 38 138 0
v 41 141 -5
v 38 138 -10
v 34 136 -8
v 34 129 -10
v 34 129 0
v 43 132 3
v 46 140 -5
v 43 133 -13
v 49 123 -10
v 44 120 -9
v 44 120 -2
v 49 123 1
v 54 127 -5
v 52 125 -5
v 49 123 -8
v 46 121 -7
v 46 121 -3
v 49 123 -2
v 55 119 -5
v 54 118 -7
v 52 116 -5
v 54 118 -3
v -32 162 -5
v -23 165 -5
v -24 160 -10
v -30 157 -12
v -32 151 -12
v -35 157 -5
v -30 157 2
v -24 160 0
v -25 152 0
v -32 151 2
v -26 147 0
v -25 152 -9
v -26 147 -9
v -37 148 -5
v -33 145 1
v -29 143 0
v -29 143 -9
v -33 145 -11
v -36 140 -12
v -41 144 -5
v -36 140 2
v -30 137 1
v -30 137 -10
v -34 136 -8
v -38 138 -10
v -41 141 -5
v -38 138 0
v -34 136 -1
v -32 131 0
v -32 131 -10
v -41 135 -13
v -46 140 -5
v -41 134 3
v -46 128 1
v -42 125 -2
v -40 124 -9
v -46 128 -10
v -51 132 -5
v -49 130 -4
v -45 127 -1
v -43 126 -3
v -42 125 -7
v -45 127 -8
v -55 119 -5
v -54 118 -3
v -52 116 -5
v -54 118 -7
vn 113 -552 175
vn 661 -847 -327
vn 231 -472 1125
vn -67 -142 412
vn -562 146 702
vn 322 12 1154
vn -987 392 707
vn -681 128 -492
vn -869 436 -746
vn 15 -212 -1037
vn -10 -361 -592
vn 1156 -339 -16
vn 970 -539 -44
vn 167 -164 1205
vn -951 406 714
vn -891 248 -727
vn 427 -75 -1192
vn 357 -217 -1192
vn 442 52 -1071
vn 979 -328 66
vn 361 50 1160
vn -618 645 616
vn -502 618 -632
vn -554 612 -593
vn 430 25 -1069
vn 826 -490 -11
vn 238 -72 1048
vn -565 631 610
vn -844 270 716
vn -813 406 -714
vn 112 -271 -1198
vn 647 -838 -46
vn 141 -305 1218
vn 573 737 720
vn 38 1128 280
vn 86 1117 -477
vn 701 586 -587
vn 1020 339 138
vn 996 327 118
vn 470 815 679
vn 216 1024 266
vn 159 1147 -475
vn 790 493 -658
vn 505 -305 -204
vn 243 -64 557
vn -314 582 243
vn 80 94 -604
vn -752 -865 309
vn -156 -559 -164
vn -8 -340 561
vn 47 -176 976
vn -355 -50 1103
vn -1210 -394 19
vn -327 -524 -1108
vn 55 -173 -422
vn 490 99 -742
vn -433 -37 -1170
vn 884 352 -753
vn 727 166 467
vn 956 471 707
vn -1054 -500 50
vn -334 -198 -1245
vn 835 341 -761
vn 1008 333 702
vn -289 -151 1143
vn -445 85 1106
vn -1061 -433 -18
vn -484 -60 -1186
vn 542 637 -629
vn 549 720 642
vn 659 317 532
vn -214 -274 1026
vn -776 -665 -13
vn -296 -192 -1079
vn 527 413 -626
vn 801 197 -656
vn 847 162 548
vn -142 -400 1158
vn -628 -838 19
vn -144 -420 -1208
vn -600 816 -740
vn -131 1198 -259
vn -207 1025 417
vn -814 621 698
vn -1012 315 -164
vn -987 323 -202
vn -389 863 -632
vn -123 962 -240
vn -98 1101 407
vn -754 485 689
vn -484 -323 203
vn -230 -31 -574
vn 442 568 -273
vn -42 55 599
usemtl m0
f 1 2 3

usemtl m1
f 1 3 4

usemtl m2
f 4 3 5

usemtl m3
f 5 3 6

usemtl m4
f 5 6 7

usemtl m5
f 5 7 8

usemtl m6
f 8 7 9

usemtl m7
f 8 9 10

usemtl m8
f 8 10 11

usemtl m9
f 11 10 2

usemtl m10
f 11 2 1

usemtl m11
f 3 2 12

usemtl m12
f 3 12 6

usemtl m13
f 6 12 13

usemtl m14
f 6 13 14

usemtl m15
f 6 14 7

usemtl m16
f 7 14 15

usemtl m17
f 7 15 9

usemtl m18
f 9 15 16

usemtl m19
f 9 16 17

usemtl m20
f 9 17 10

usemtl m21
f 10 17 2

usemtl m22
f 2 17 12

usemtl m23
f 12 17 18

usemtl m24
f 12 18 13

usemtl m25
f 13 18 19

usemtl m26
f 13 19 20

usemtl m27
f 13 20 14

usemtl m28
f 14 20 21

usemtl m29
f 14 21 15

usemtl m30
f 15 21 22

usemtl m31
f 15 22 16

usemtl m32
f 16 22 23

usemtl m33
f 16 23 18

usemtl m34
f 16 18 17

usemtl m35
f 18 23 19

usemtl m36
f 19 23 24

usemtl m37
f 19 24 25

usemtl m38
f 19 25 20

usemtl m39
f 20 25 26

usemtl m40
f 20 26 21

usemtl m41
f 21 26 27

usemtl m42
f 21 27 22

usemtl m43
f 22 27 28

usemtl m44
f 22 28 23

usemtl m45
f 23 28 24

usemtl m46
f 24 28 29

usemtl m47
f 24 29 30

usemtl m48
f 24 30 25

usemtl m49
f 25 30 31

usemtl m50
f 25 31 26

usemtl m51
f 26 31 32

usemtl m52
f 26 32 27

usemtl m53
f 27 32 33

usemtl m54
f 27 33 28

usemtl m55
f 28 33 29

usemtl m56
f 29 33 34

usemtl m57
f 29 34 35

usemtl m58
f 29 35 30

usemtl m59
f 30 35 36

usemtl m60
f 30 36 31

usemtl m61
f 31 36 37

usemtl m62
f 31 37 32

usemtl m63
f 32 37 38

usemtl m64
f 32 38 33

usemtl m65
f 33 38 34

usemtl m66
f 34 38 39

usemtl m67
f 34 39 40

usemtl m68
f 34 40 35

usemtl m69
f 35 40 41

usemtl m70
f 35 41 36

usemtl m71
f 36 41 42

usemtl m72
f 36 42 37

usemtl m73
f 37 42 43

usemtl m74
f 37 43 38

usemtl m75
f 38 43 39

usemtl m76
f 39 43 44

usemtl m77
f 39 44 45

usemtl m78
f 39 45 40

usemtl m79
f 40 45 46

usemtl m80
f 40 46 41

usemtl m81
f 41 46 42

usemtl m82
f 42 46 47

usemtl m83
f 42 47 43

usemtl m84
f 43 47 44

usemtl m85
f 48 49 50

usemtl m86
f 48 50 51

usemtl m87
f 48 51 52

usemtl m88
f 48 52 53

usemtl m89
f 48 53 54

usemtl m90
f 48 54 49

usemtl m91
f 49 54 55

usemtl m92
f 55 54 56

usemtl m93
f 56 54 57

usemtl m94
f 56 57 58

usemtl m95
f 56 58 59

usemtl m96
f 59 58 60

usemtl m97
f 59 60 51

usemtl m98
f 59 51 50

usemtl m99
f 54 53 57

usemtl m100
f 57 53 61

usemtl m101
f 57 61 62

usemtl m102
f 57 62 58

usemtl m103
f 58 62 63

usemtl m104
f 58 63 60

usemtl m105
f 60 63 64

usemtl m106
f 60 64 52

usemtl m107
f 60 52 51

usemtl m108
f 53 52 65

usemtl m109
f 53 65 61

usemtl m110
f 61 65 66

usemtl m111
f 61 66 67

usemtl m112
f 61 67 62

usemtl m113
f 62 67 68

usemtl m114
f 62 68 63

usemtl m115
f 63 68 69

usemtl m116
f 63 69 64

usemtl m117
f 64 69 70

usemtl m118
f 64 70 65

usemtl m119
f 64 65 52

usemtl m120
f 65 70 66

usemtl m121
f 66 70 71

usemtl m122
f 66 71 72

usemtl m123
f 66 72 67

usemtl m124
f 67 72 73

usemtl m125
f 67 73 68

usemtl m126
f 68 73 74

usemtl m127
f 68 74 69

usemtl m128
f 69 74 75

usemtl m129
f 69 75 70

usemtl m130
f 70 75 71

usemtl m131
f 71 75 76

usemtl m132
f 71 76 77

usemtl m133
f 71 77 72

usemtl m134
f 72 77 78

usemtl m135
f 72 78 73

usemtl m136
f 73 78 79

usemtl m137
f 73 79 74

usemtl m138
f 74 79 80

usemtl m139
f 74 80 75

usemtl m140
f 75 80 76

usemtl m141
f 76 80 81

usemtl m142
f 76 81 82

usemtl m143
f 76 82 77

usemtl m144
f 77 82 83

usemtl m145
f 77 83 78

usemtl m146
f 78 83 84

usemtl m147
f 78 84 79

usemtl m148
f 79 84 85

usemtl m149
f 79 85 80

usemtl m150
f 80 85 81

usemtl m151
f 81 85 86

usemtl m152
f 81 86 87

usemtl m153
f 81 87 82

usemtl m154
f 82 87 88

usemtl m155
f 82 88 83

usemtl m156
f 83 88 89

usemtl m157
f 83 89 84

usemtl m158
f 84 89 90

usemtl m159
f 84 90 85

usemtl m160
f 85 90 86

usemtl m161
f 86 90 91

usemtl m162
f 86 91 92

usemtl m163
f 86 92 87

usemtl m164
f 87 92 93

usemtl m165
f 87 93 88

usemtl m166
f 88 93 89

usemtl m167
f 89 93 94

usemtl m168
f 89 94 90

usemtl m169
f 90 94 91

