newmtl m0
Kd 0.6941176470588235 0.7333333333333333 0.792156862745098
newmtl m1
Kd 0.6941176470588235 0.7333333333333333 0.792156862745098
newmtl m2
Kd 0.7529411764705882 0.7843137254901961 0.8313725490196079
newmtl m3
Kd 0.7529411764705882 0.7843137254901961 0.8313725490196079
newmtl m4
Kd 0.7529411764705882 0.7843137254901961 0.8313725490196079
newmtl m5
Kd 0.6941176470588235 0.7333333333333333 0.792156862745098
newmtl m6
Kd 0.6941176470588235 0.7333333333333333 0.792156862745098
newmtl m7
Kd 0.6941176470588235 0.7333333333333333 0.792156862745098
newmtl m8
Kd 0.6941176470588235 0.7333333333333333 0.792156862745098
newmtl m9
Kd 0.6941176470588235 0.7333333333333333 0.792156862745098
newmtl m10
Kd 0.9019607843137255 0.9137254901960784 0.9137254901960784
newmtl m11
Kd 0.9019607843137255 0.9137254901960784 0.9137254901960784
newmtl m12
Kd 0.9019607843137255 0.9137254901960784 0.9137254901960784
newmtl m13
Kd 0.9019607843137255 0.9137254901960784 0.9137254901960784
newmtl m14
Kd 0.8705882352941177 0.8862745098039215 0.8901960784313725
newmtl m15
Kd 0.8705882352941177 0.8862745098039215 0.8901960784313725
newmtl m16
Kd 0.8705882352941177 0.8862745098039215 0.8901960784313725
newmtl m17
Kd 0.8705882352941177 0.8862745098039215 0.8901960784313725
newmtl m18
Kd 0.7529411764705882 0.7843137254901961 0.8313725490196079
newmtl m19
Kd 0.7529411764705882 0.7843137254901961 0.8313725490196079
newmtl m20
Kd 0.7529411764705882 0.7843137254901961 0.8313725490196079
newmtl m21
Kd 0.7529411764705882 0.7843137254901961 0.8313725490196079
newmtl m22
Kd 0.788235294117647 0.8196078431372549 0.8549019607843137
newmtl m23
Kd 0.803921568627451 0.8352941176470589 0.8666666666666667
newmtl m24
Kd 0.803921568627451 0.8352941176470589 0.8666666666666667
newmtl m25
Kd 0.803921568627451 0.8352941176470589 0.8666666666666667
newmtl m26
Kd 0.803921568627451 0.8352941176470589 0.8666666666666667
newmtl m27
Kd 0.803921568627451 0.8352941176470589 0.8666666666666667
newmtl m28
Kd 0.803921568627451 0.8352941176470589 0.8666666666666667
newmtl m29
Kd 0.803921568627451 0.8352941176470589 0.8666666666666667
newmtl m30
Kd 0.803921568627451 0.8352941176470589 0.8666666666666667
newmtl m31
Kd 0.803921568627451 0.8352941176470589 0.8666666666666667
newmtl m32
Kd 0.803921568627451 0.8352941176470589 0.8666666666666667
newmtl m33
Kd 0.0 0.0 0.00392156862745098
newmtl m34
Kd 0.0 0.0 0.00392156862745098
newmtl m35
Kd 0.0 0.0 0.00392156862745098
newmtl m36
Kd 0.0 0.0 0.00392156862745098
newmtl m37
Kd 0.0 0.0 0.00392156862745098
newmtl m38
Kd 0.0 0.0 0.00392156862745098
newmtl m39
Kd 0.0 0.0 0.00392156862745098
newmtl m40
Kd 0.9019607843137255 0.9137254901960784 0.9137254901960784
newmtl m41
Kd 0.9019607843137255 0.9137254901960784 0.9137254901960784
newmtl m42
Kd 0.9019607843137255 0.9137254901960784 0.9137254901960784
newmtl m43
Kd 0.9019607843137255 0.9137254901960784 0.9137254901960784
newmtl m44
Kd 0.9019607843137255 0.9137254901960784 0.9137254901960784
newmtl m45
Kd 0.9019607843137255 0.9137254901960784 0.9137254901960784
newmtl m46
Kd 0.8705882352941177 0.8862745098039215 0.8901960784313725
newmtl m47
Kd 0.8705882352941177 0.8862745098039215 0.8901960784313725
newmtl m48
Kd 0.8705882352941177 0.8862745098039215 0.8901960784313725
newmtl m49
Kd 0.9019607843137255 0.9137254901960784 0.9137254901960784
newmtl m50
Kd 0.9019607843137255 0.9137254901960784 0.9137254901960784
newmtl m51
Kd 0.0 0.0 0.00392156862745098
newmtl m52
Kd 0.803921568627451 0.8352941176470589 0.8666666666666667
newmtl m53
Kd 0.803921568627451 0.8352941176470589 0.8666666666666667
newmtl m54
Kd 0.803921568627451 0.8352941176470589 0.8666666666666667
newmtl m55
Kd 0.803921568627451 0.8352941176470589 0.8666666666666667
newmtl m56
Kd 0.803921568627451 0.8352941176470589 0.8666666666666667
newmtl m57
Kd 0.803921568627451 0.8352941176470589 0.8666666666666667
newmtl m58
Kd 0.803921568627451 0.8352941176470589 0.8666666666666667
newmtl m59
Kd 0.803921568627451 0.8352941176470589 0.8666666666666667
newmtl m60
Kd 0.803921568627451 0.8352941176470589 0.8666666666666667
newmtl m61
Kd 0.9019607843137255 0.9137254901960784 0.9137254901960784
newmtl m62
Kd 0.9019607843137255 0.9137254901960784 0.9137254901960784
newmtl m63
Kd 0.9019607843137255 0.9137254901960784 0.9137254901960784
newmtl m64
Kd 0.9019607843137255 0.9137254901960784 0.9137254901960784
newmtl m65
Kd 0.9019607843137255 0.9137254901960784 0.9137254901960784
newmtl m66
Kd 0.9019607843137255 0.9137254901960784 0.9137254901960784
newmtl m67
Kd 0.9019607843137255 0.9137254901960784 0.9137254901960784
newmtl m68
Kd 0.9019607843137255 0.9137254901960784 0.9137254901960784
newmtl m69
Kd 0.0 0.0 0.00392156862745098
newmtl m70
Kd 0.803921568627451 0.8352941176470589 0.8666666666666667
newmtl m71
Kd 0.803921568627451 0.8352941176470589 0.8666666666666667
newmtl m72
Kd 0.803921568627451 0.8352941176470589 0.8666666666666667
newmtl m73
Kd 0.6941176470588235 0.7333333333333333 0.792156862745098
newmtl m74
Kd 0.6941176470588235 0.7333333333333333 0.792156862745098
newmtl m75
Kd 0.803921568627451 0.8352941176470589 0.8666666666666667
newmtl m76
Kd 0.803921568627451 0.8352941176470589 0.8666666666666667
newmtl m77
Kd 0.803921568627451 0.8352941176470589 0.8666666666666667
newmtl m78
Kd 0.803921568627451 0.8352941176470589 0.8666666666666667
newmtl m79
Kd 0.803921568627451 0.8352941176470589 0.8666666666666667
newmtl m80
Kd 0.803921568627451 0.8352941176470589 0.8666666666666667
newmtl m81
Kd 0.803921568627451 0.8352941176470589 0.8666666666666667
newmtl m82
Kd 0.6941176470588235 0.7333333333333333 0.792156862745098
newmtl m83
Kd 0.6941176470588235 0.7333333333333333 0.792156862745098
newmtl m84
Kd 0.6941176470588235 0.7333333333333333 0.792156862745098
newmtl m85
Kd 0.6941176470588235 0.7333333333333333 0.792156862745098
newmtl m86
Kd 0.6941176470588235 0.7333333333333333 0.792156862745098
newmtl m87
Kd 0.6941176470588235 0.7333333333333333 0.792156862745098
newmtl m88
Kd 0.6941176470588235 0.7333333333333333 0.792156862745098
newmtl m89
Kd 0.6941176470588235 0.7333333333333333 0.792156862745098
newmtl m90
Kd 0.6941176470588235 0.7333333333333333 0.792156862745098
newmtl m91
Kd 0.6941176470588235 0.7333333333333333 0.792156862745098
newmtl m92
Kd 0.6941176470588235 0.7333333333333333 0.792156862745098
newmtl m93
Kd 0.6941176470588235 0.7333333333333333 0.792156862745098
newmtl m94
Kd 0.6941176470588235 0.7333333333333333 0.792156862745098
newmtl m95
Kd 0.6941176470588235 0.7333333333333333 0.792156862745098
newmtl m96
Kd 0.6941176470588235 0.7333333333333333 0.792156862745098
newmtl m97
Kd 0.0 0.0 0.00392156862745098
newmtl m98
Kd 0.0 0.0 0.00392156862745098
newmtl m99
Kd 0.803921568627451 0.8352941176470589 0.8666666666666667
newmtl m100
Kd 0.803921568627451 0.8352941176470589 0.8666666666666667
newmtl m101
Kd 0.803921568627451 0.8352941176470589 0.8666666666666667
newmtl m102
Kd 0.803921568627451 0.8352941176470589 0.8666666666666667
newmtl m103
Kd 0.803921568627451 0.8352941176470589 0.8666666666666667
newmtl m104
Kd 0.803921568627451 0.8352941176470589 0.8666666666666667
newmtl m105
Kd 0.803921568627451 0.8352941176470589 0.8666666666666667
newmtl m106
Kd 0.2549019607843137 0.28627450980392155 0.3607843137254902
newmtl m107
Kd 0.2549019607843137 0.28627450980392155 0.3607843137254902
newmtl m108
Kd 0.9019607843137255 0.9137254901960784 0.9137254901960784
newmtl m109
Kd 0.9019607843137255 0.9137254901960784 0.9137254901960784
newmtl m110
Kd 0.9019607843137255 0.9137254901960784 0.9137254901960784
newmtl m111
Kd 0.0 0.0 0.00392156862745098
newmtl m112
Kd 0.803921568627451 0.8352941176470589 0.8666666666666667
newmtl m113
Kd 0.803921568627451 0.8352941176470589 0.8666666666666667
newmtl m114
Kd 0.803921568627451 0.8352941176470589 0.8666666666666667
newmtl m115
Kd 0.803921568627451 0.8352941176470589 0.8666666666666667
newmtl m116
Kd 0.803921568627451 0.8352941176470589 0.8666666666666667
newmtl m117
Kd 0.803921568627451 0.8352941176470589 0.8666666666666667
newmtl m118
Kd 0.803921568627451 0.8352941176470589 0.8666666666666667
newmtl m119
Kd 0.803921568627451 0.8352941176470589 0.8666666666666667
newmtl m120
Kd 0.7529411764705882 0.7843137254901961 0.8313725490196079
newmtl m121
Kd 0.7529411764705882 0.7843137254901961 0.8313725490196079
newmtl m122
Kd 0.803921568627451 0.8352941176470589 0.8666666666666667
newmtl m123
Kd 0.803921568627451 0.8352941176470589 0.8666666666666667
newmtl m124
Kd 0.803921568627451 0.8352941176470589 0.8666666666666667
newmtl m125
Kd 0.803921568627451 0.8352941176470589 0.8666666666666667
newmtl m126
Kd 0.803921568627451 0.8352941176470589 0.8666666666666667
newmtl m127
Kd 0.803921568627451 0.8352941176470589 0.8666666666666667
newmtl m128
Kd 0.803921568627451 0.8352941176470589 0.8666666666666667
newmtl m129
Kd 0.803921568627451 0.8352941176470589 0.8666666666666667
newmtl m130
Kd 0.7529411764705882 0.7843137254901961 0.8313725490196079
newmtl m131
Kd 0.7529411764705882 0.7843137254901961 0.8313725490196079
newmtl m132
Kd 0.803921568627451 0.8352941176470589 0.8666666666666667
newmtl m133
Kd 0.803921568627451 0.8352941176470589 0.8666666666666667
newmtl m134
Kd 0.803921568627451 0.8352941176470589 0.8666666666666667
newmtl m135
Kd 0.803921568627451 0.8352941176470589 0.8666666666666667
newmtl m136
Kd 0.7529411764705882 0.7843137254901961 0.8313725490196079
newmtl m137
Kd 0.7529411764705882 0.7843137254901961 0.8313725490196079
newmtl m138
Kd 0.7529411764705882 0.7843137254901961 0.8313725490196079
newmtl m139
Kd 0.7529411764705882 0.7843137254901961 0.8313725490196079
newmtl m140
Kd 0.7529411764705882 0.7843137254901961 0.8313725490196079
newmtl m141
Kd 0.7529411764705882 0.7843137254901961 0.8313725490196079
newmtl m142
Kd 0.7529411764705882 0.7843137254901961 0.8313725490196079
newmtl m143
Kd 0.7529411764705882 0.7843137254901961 0.8313725490196079
newmtl m144
Kd 0.803921568627451 0.8352941176470589 0.8666666666666667
newmtl m145
Kd 0.7529411764705882 0.7843137254901961 0.8313725490196079
newmtl m146
Kd 0.7529411764705882 0.7843137254901961 0.8313725490196079
newmtl m147
Kd 0.7529411764705882 0.7843137254901961 0.8313725490196079
newmtl m148
Kd 0.7529411764705882 0.7843137254901961 0.8313725490196079
newmtl m149
Kd 0.7529411764705882 0.7843137254901961 0.8313725490196079
newmtl m150
Kd 0.7529411764705882 0.7843137254901961 0.8313725490196079
newmtl m151
Kd 0.7529411764705882 0.7843137254901961 0.8313725490196079
newmtl m152
Kd 0.7529411764705882 0.7843137254901961 0.8313725490196079
newmtl m153
Kd 0.803921568627451 0.8352941176470589 0.8666666666666667
newmtl m154
Kd 0.803921568627451 0.8352941176470589 0.8666666666666667
newmtl m155
Kd 0.803921568627451 0.8352941176470589 0.8666666666666667
newmtl m156
Kd 0.803921568627451 0.8352941176470589 0.8666666666666667
newmtl m157
Kd 0.803921568627451 0.8352941176470589 0.8666666666666667
newmtl m158
Kd 0.803921568627451 0.8352941176470589 0.8666666666666667
newmtl m159
Kd 0.7529411764705882 0.7843137254901961 0.8313725490196079
newmtl m160
Kd 0.7529411764705882 0.7843137254901961 0.8313725490196079
newmtl m161
Kd 0.803921568627451 0.8352941176470589 0.8666666666666667
newmtl m162
Kd 0.803921568627451 0.8352941176470589 0.8666666666666667
newmtl m163
Kd 0.803921568627451 0.8352941176470589 0.8666666666666667
newmtl m164
Kd 0.7529411764705882 0.7843137254901961 0.8313725490196079
newmtl m165
Kd 0.7529411764705882 0.7843137254901961 0.8313725490196079
newmtl m166
Kd 0.803921568627451 0.8352941176470589 0.8666666666666667
newmtl m167
Kd 0.7529411764705882 0.7843137254901961 0.8313725490196079
newmtl m168
Kd 0.7529411764705882 0.7843137254901961 0.8313725490196079
newmtl m169
Kd 0.7529411764705882 0.7843137254901961 0.8313725490196079
newmtl m170
Kd 0.7529411764705882 0.7843137254901961 0.8313725490196079
newmtl m171
Kd 0.7529411764705882 0.7843137254901961 0.8313725490196079
newmtl m172
Kd 0.803921568627451 0.8352941176470589 0.8666666666666667
newmtl m173
Kd 0.803921568627451 0.8352941176470589 0.8666666666666667
newmtl m174
Kd 0.7529411764705882 0.7843137254901961 0.8313725490196079
newmtl m175
Kd 0.803921568627451 0.8352941176470589 0.8666666666666667
newmtl m176
Kd 0.803921568627451 0.8352941176470589 0.8666666666666667
newmtl m177
Kd 0.7529411764705882 0.7843137254901961 0.8313725490196079
newmtl m178
Kd 0.7529411764705882 0.7843137254901961 0.8313725490196079
newmtl m179
Kd 0.7529411764705882 0.7843137254901961 0.8313725490196079
newmtl m180
Kd 0.7529411764705882 0.7843137254901961 0.8313725490196079
newmtl m181
Kd 0.7529411764705882 0.7843137254901961 0.8313725490196079
newmtl m182
Kd 0.7529411764705882 0.7843137254901961 0.8313725490196079
newmtl m183
Kd 0.803921568627451 0.8352941176470589 0.8666666666666667
newmtl m184
Kd 0.803921568627451 0.8352941176470589 0.8666666666666667
newmtl m185
Kd 0.7529411764705882 0.7843137254901961 0.8313725490196079
newmtl m186
Kd 0.7529411764705882 0.7843137254901961 0.8313725490196079
newmtl m187
Kd 0.7529411764705882 0.7843137254901961 0.8313725490196079
newmtl m188
Kd 0.7529411764705882 0.7843137254901961 0.8313725490196079
newmtl m189
Kd 0.803921568627451 0.8352941176470589 0.8666666666666667
newmtl m190
Kd 0.803921568627451 0.8352941176470589 0.8666666666666667
newmtl m191
Kd 0.7529411764705882 0.7843137254901961 0.8313725490196079
newmtl m192
Kd 0.7529411764705882 0.7843137254901961 0.8313725490196079
newmtl m193
Kd 0.803921568627451 0.8352941176470589 0.8666666666666667
newmtl m194
Kd 0.7529411764705882 0.7843137254901961 0.8313725490196079
newmtl m195
Kd 0.7529411764705882 0.7843137254901961 0.8313725490196079
newmtl m196
Kd 0.7529411764705882 0.7843137254901961 0.8313725490196079
newmtl m197
Kd 0.7529411764705882 0.7843137254901961 0.8313725490196079
