mtllib 21973.mtl
o runescapemodel
v -57 58 51
v -47 56 44
v -55 55 38
v -60 57 48
v -63 63 50
v -60 63 53
v -49 61 46
v -32 60 37
v -52 58 21
v -53 64 21
v -56 61 39
v -58 60 39
v -64 63 52
v -61 63 56
v -49 61 47
v -33 66 37
v -27 58 19
v -35 58 13
v -35 63 11
v -35 63 10
v -54 64 20
v -55 48 18
v -62 53 38
v -59 51 50
v -59 51 51
v -47 55 51
v -27 50 41
v -31 66 39
v -27 64 18
v -24 61 10
v -27 60 8
v -26 67 6
v -25 67 3
v -25 54 8
v -36 55 7
v -23 67 8
v -25 64 18
v -21 67 7
v -24 54 9
v -23 35 2
v -58 31 15
v -63 31 51
v -57 31 56
v -22 35 44
v -16 35 7
v -21 56 19
v -54 17 49
v -56 11 42
v -56 2 43
v -58 0 53
v -55 0 55
v -47 3 51
v -46 12 49
v -21 13 43
v -20 13 18
v -20 16 8
v -15 3 6
v -18 3 3
v -29 5 10
v -30 12 10
v -54 10 15
v -48 0 19
v -19 6 18
v -24 3 39
v -24 61 -11
v -28 57 -22
v -36 57 -16
v -27 60 -9
v -27 67 -6
v -23 67 -9
v -28 63 -20
v -31 60 -39
v -52 58 -23
v -53 64 -23
v -36 63 -14
v -36 63 -13
v -26 67 -3
v -21 67 -7
v -27 64 -20
v -32 66 -39
v -47 57 -47
v -55 56 -41
v -57 61 -43
v -58 60 -43
v -54 64 -22
v -55 48 -20
v -37 55 -9
v -25 55 -8
v -24 55 -9
v -21 57 -21
v -26 51 -42
v -30 66 -40
v -49 61 -49
v -55 58 -53
v -58 57 -51
v -61 63 -53
v -64 63 -55
v -57 50 -52
v -62 52 -42
v -58 63 -55
v -48 61 -50
v -58 63 -58
v -55 51 -53
v -61 31 -54
v -58 31 -17
v -23 35 -3
v -17 35 -7
v -21 35 -45
v -55 32 -59
v -46 54 -54
v -22 20 -10
v -30 14 -10
v -27 5 -9
v -19 3 -4
v -16 3 -6
v -18 6 -16
v -20 15 -18
v -20 13 -44
v -43 11 -50
v -54 13 -53
v -53 0 -58
v -56 0 -55
v -53 3 -43
v -53 10 -43
v -54 10 -18
v -48 0 -21
v -43 4 -50
v -23 3 -40
vn 128 -778 661
vn -495 -819 646
vn 663 -842 -126
vn 560 -463 4
vn 139 -860 444
vn -69 -951 563
vn -349 -825 650
vn -525 -740 526
vn 359 -898 -537
vn 609 -862 -348
vn 438 -821 -235
vn -1373 -672 374
vn -912 -284 70
vn 52 -615 -367
vn 224 -1035 -870
vn -718 -691 337
vn -762 -433 182
vn 200 -1223 -669
vn 102 -934 -626
vn -427 -897 877
vn -510 -799 221
vn -1413 -325 1131
vn -898 -259 35
vn -1340 -4 -250
vn -604 86 -813
vn 172 -342 -861
vn 1327 -561 -1124
vn 300 -881 -299
vn -708 -750 223
vn -759 -576 -59
vn -239 -459 -598
vn -49 -949 -610
vn -165 -588 428
vn 465 -22 1216
vn -207 -233 896
vn -494 -929 -457
vn 950 -992 -271
vn 631 -576 195
vn 1169 -242 642
vn 180 -90 1750
vn -722 6 784
vn -1692 260 -432
vn -286 85 -1550
vn 644 -160 -554
vn 1743 -160 346
vn 894 -333 12
vn -739 4 -1501
vn -908 199 -185
vn -956 90 48
vn -384 -129 -165
vn -50 -156 -434
vn 280 -62 -927
vn 141 -184 -730
vn 1320 178 -1257
vn 1012 21 -14
vn 870 -92 1032
vn 404 -172 111
vn 45 -154 383
vn -289 76 930
vn -246 158 1231
vn -1121 413 836
vn -271 270 268
vn 981 -65 -121
vn 342 201 -246
vn -679 -669 376
vn -754 -710 -227
vn 235 -897 710
vn 40 -478 597
vn -410 -991 545
vn -487 -768 127
vn -962 -463 -183
vn -686 -683 -326
vn 568 -894 302
vn 255 -823 525
vn 304 -992 611
vn -661 -902 -862
vn 52 -513 -604
vn 333 -519 -10
vn 492 -963 11
vn -699 -664 -511
vn -441 -552 -681
vn 571 -1239 139
vn 335 -765 -12
vn -1272 -725 -185
vn -379 -824 -239
vn -1437 -311 -1073
vn -314 -261 -874
vn 305 -170 -1223
vn 1165 -146 -597
vn 844 -409 4
vn 1363 -580 1051
vn 285 -888 342
vn -477 -826 -560
vn -262 -662 -707
vn 394 -606 -373
vn 551 -1041 -117
vn -531 -457 -62
vn -944 117 813
vn -876 -212 86
vn 158 -1029 -643
vn 364 -1028 835
vn 38 -508 641
vn -319 -140 1297
vn -1638 78 616
vn -931 52 -495
vn -60 108 -1806
vn 1659 -156 -575
vn 681 -154 516
vn 69 9 1781
vn 145 -319 857
vn 1165 -146 -1123
vn -94 133 -962
vn -311 40 -925
vn 11 -149 -418
vn 375 -173 -176
vn 979 -107 42
vn 732 -220 -12
vn 1540 183 974
vn 251 135 974
vn -824 63 989
vn -50 -142 382
vn -427 -83 124
vn -975 108 -99
vn -1243 221 -20
vn -1054 385 -937
vn -305 254 -238
vn 358 24 908
vn 336 198 245
usemtl m0
f 1 2 3

usemtl m1
f 1 3 4

usemtl m2
f 1 4 5

usemtl m3
f 1 5 6

usemtl m4
f 1 6 2

usemtl m5
f 2 6 7

usemtl m6
f 2 7 8

usemtl m7
f 2 8 9

usemtl m8
f 2 9 3

usemtl m9
f 3 9 10

usemtl m10
f 3 10 11

usemtl m11
f 3 11 4

usemtl m12
f 4 11 5

usemtl m13
f 5 11 12

usemtl m14
f 5 12 13

usemtl m15
f 5 13 6

usemtl m16
f 6 13 14

usemtl m17
f 6 14 7

usemtl m18
f 7 14 15

usemtl m19
f 7 15 16

usemtl m20
f 7 16 8

usemtl m21
f 8 16 17

usemtl m22
f 8 17 18

usemtl m23
f 8 18 9

usemtl m24
f 9 18 19

usemtl m25
f 9 19 10

usemtl m26
f 10 19 20

usemtl m27
f 10 20 21

usemtl m28
f 10 21 11

usemtl m29
f 11 21 12

usemtl m30
f 12 21 22

usemtl m31
f 12 22 23

usemtl m32
f 12 23 24

usemtl m33
f 12 24 13

usemtl m34
f 13 24 25

usemtl m35
f 13 25 14

usemtl m36
f 14 25 15

usemtl m37
f 15 25 26

usemtl m38
f 15 26 27

usemtl m39
f 15 27 28

usemtl m40
f 15 28 16

usemtl m41
f 16 28 29

usemtl m42
f 16 29 17

usemtl m43
f 17 29 30

usemtl m44
f 17 30 18

usemtl m45
f 18 30 31

usemtl m46
f 18 31 32

usemtl m47
f 18 32 19

usemtl m48
f 19 32 33

usemtl m49
f 19 33 20

usemtl m50
f 20 33 34

usemtl m51
f 20 34 35

usemtl m52
f 20 35 22

usemtl m53
f 20 22 21

usemtl m54
f 36 32 31

usemtl m55
f 36 31 30

usemtl m56
f 36 30 29

usemtl m57
f 36 29 37

usemtl m58
f 36 37 38

usemtl m59
f 36 38 32

usemtl m60
f 32 38 33

usemtl m61
f 33 38 34

usemtl m62
f 34 38 39

usemtl m63
f 34 39 40

usemtl m64
f 34 40 35

usemtl m65
f 35 40 22

usemtl m66
f 22 40 41

usemtl m67
f 22 41 42

usemtl m68
f 22 42 23

usemtl m69
f 23 42 24

usemtl m70
f 24 42 43

usemtl m71
f 24 43 25

usemtl m72
f 25 43 26

usemtl m73
f 26 43 27

usemtl m74
f 27 43 44

usemtl m75
f 27 44 45

usemtl m76
f 27 45 46

usemtl m77
f 27 46 37

usemtl m78
f 27 37 28

usemtl m79
f 28 37 29

usemtl m80
f 47 43 42

usemtl m81
f 47 42 48

usemtl m82
f 47 48 49

usemtl m83
f 47 49 50

usemtl m84
f 47 50 51

usemtl m85
f 47 51 52

usemtl m86
f 47 52 53

usemtl m87
f 47 53 54

usemtl m88
f 47 54 43

usemtl m89
f 43 54 44

usemtl m90
f 44 54 45

usemtl m91
f 45 54 55

usemtl m92
f 45 55 56

usemtl m93
f 45 56 40

usemtl m94
f 45 40 39

usemtl m95
f 45 39 46

usemtl m96
f 46 39 37

usemtl m97
f 37 39 38

usemtl m98
f 56 57 58

usemtl m99
f 56 58 59

usemtl m100
f 56 59 60

usemtl m101
f 56 60 40

usemtl m102
f 40 60 41

usemtl m103
f 41 60 61

usemtl m104
f 41 61 42

usemtl m105
f 42 61 48

usemtl m106
f 48 61 49

usemtl m107
f 49 61 62

usemtl m108
f 62 61 59

usemtl m109
f 59 61 60

usemtl m110
f 63 57 56

usemtl m111
f 63 56 55

usemtl m112
f 63 55 54

usemtl m113
f 63 54 64

usemtl m114
f 64 54 52

usemtl m115
f 52 54 53

usemtl m116
f 65 66 67

usemtl m117
f 65 67 68

usemtl m118
f 65 68 69

usemtl m119
f 65 69 70

usemtl m120
f 65 70 66

usemtl m121
f 66 70 71

usemtl m122
f 66 71 72

usemtl m123
f 66 72 73

usemtl m124
f 66 73 67

usemtl m125
f 67 73 74

usemtl m126
f 67 74 75

usemtl m127
f 67 75 68

usemtl m128
f 68 75 69

usemtl m129
f 69 75 76

usemtl m130
f 69 76 77

usemtl m131
f 69 77 70

usemtl m132
f 70 77 78

usemtl m133
f 70 78 71

usemtl m134
f 71 78 79

usemtl m135
f 71 79 80

usemtl m136
f 71 80 72

usemtl m137
f 72 80 81

usemtl m138
f 72 81 82

usemtl m139
f 72 82 73

usemtl m140
f 73 82 83

usemtl m141
f 73 83 74

usemtl m142
f 74 83 84

usemtl m143
f 74 84 85

usemtl m144
f 74 85 75

usemtl m145
f 75 85 76

usemtl m146
f 76 85 86

usemtl m147
f 76 86 87

usemtl m148
f 76 87 88

usemtl m149
f 76 88 77

usemtl m150
f 77 88 89

usemtl m151
f 77 89 78

usemtl m152
f 78 89 79

usemtl m153
f 79 89 90

usemtl m154
f 79 90 91

usemtl m155
f 79 91 92

usemtl m156
f 79 92 80

usemtl m157
f 80 92 93

usemtl m158
f 80 93 81

usemtl m159
f 81 93 94

usemtl m160
f 81 94 82

usemtl m161
f 82 94 95

usemtl m162
f 82 95 96

usemtl m163
f 82 96 83

usemtl m164
f 83 96 97

usemtl m165
f 83 97 84

usemtl m166
f 84 97 98

usemtl m167
f 84 98 99

usemtl m168
f 84 99 86

usemtl m169
f 84 86 85

usemtl m170
f 100 96 95

usemtl m171
f 100 95 94

usemtl m172
f 100 94 93

usemtl m173
f 100 93 101

usemtl m174
f 100 101 102

usemtl m175
f 100 102 96

usemtl m176
f 96 102 97

usemtl m177
f 97 102 98

usemtl m178
f 98 102 103

usemtl m179
f 98 103 104

usemtl m180
f 98 104 99

usemtl m181
f 99 104 86

usemtl m182
f 86 104 105

usemtl m183
f 86 105 106

usemtl m184
f 86 106 87

usemtl m185
f 87 106 88

usemtl m186
f 88 106 107

usemtl m187
f 88 107 89

usemtl m188
f 89 107 90

usemtl m189
f 90 107 91

usemtl m190
f 91 107 108

usemtl m191
f 91 108 109

usemtl m192
f 91 109 110

usemtl m193
f 91 110 101

usemtl m194
f 91 101 92

usemtl m195
f 92 101 93

usemtl m196
f 111 107 106

usemtl m197
f 111 106 112

usemtl m198
f 111 112 113

usemtl m199
f 111 113 114

usemtl m200
f 111 114 115

usemtl m201
f 111 115 116

usemtl m202
f 111 116 117

usemtl m203
f 111 117 118

usemtl m204
f 111 118 107

usemtl m205
f 107 118 108

usemtl m206
f 108 118 109

usemtl m207
f 109 118 119

usemtl m208
f 109 119 120

usemtl m209
f 109 120 104

usemtl m210
f 109 104 103

usemtl m211
f 109 103 110

usemtl m212
f 110 103 101

usemtl m213
f 101 103 102

usemtl m214
f 120 121 122

usemtl m215
f 120 122 123

usemtl m216
f 120 123 124

usemtl m217
f 120 124 104

usemtl m218
f 104 124 105

usemtl m219
f 105 124 125

usemtl m220
f 105 125 106

usemtl m221
f 106 125 112

usemtl m222
f 112 125 113

usemtl m223
f 113 125 126

usemtl m224
f 126 125 123

usemtl m225
f 123 125 124

usemtl m226
f 127 121 120

usemtl m227
f 127 120 119

usemtl m228
f 127 119 118

usemtl m229
f 127 118 128

usemtl m230
f 128 118 116

usemtl m231
f 116 118 117

