mtllib 22127.mtl
o runescapemodel
v -16 16 -64
v -16 16 -58
v 32 16 -58
v 32 16 -64
v 64 0 -64
v -48 0 -64
v -32 16 -64
v 0 120 -64
v 8 99 -64
v 8 99 -58
v 48 16 -64
v 48 224 -64
v 64 240 -64
v 64 0 -36
v 64 240 -36
v 48 16 -36
v 32 16 -36
v -48 0 -36
v -16 16 -36
v -32 16 -36
v -32 224 -36
v -48 240 -36
v -48 240 -64
v -32 224 -64
v -32 16 -58
v 0 120 -58
v -32 224 -58
v 8 141 -64
v 16 120 -64
v 48 16 -58
v 48 224 -58
v 16 120 -58
v 32 224 -64
v -16 224 -36
v 32 224 -36
v 48 224 -36
v 48 16 -42
v 16 120 -42
v 16 120 -36
v 8 99 -36
v 32 16 -42
v -16 16 -42
v 8 99 -42
v 0 120 -36
v -32 16 -42
v -32 224 -42
v 0 120 -42
v 56 232 -66
v 56 229 -64
v 53 232 -64
v 56 235 -64
v 59 232 -64
v -40 232 -66
v -40 229 -64
v -43 232 -64
v -40 235 -64
v -37 232 -64
v -16 224 -64
v 8 141 -58
v 32 224 -58
v 56 8 -66
v 56 5 -64
v 53 8 -64
v 56 11 -64
v 59 8 -64
v -40 8 -66
v -40 5 -64
v -43 8 -64
v -40 11 -64
v -37 8 -64
v 56 80 -66
v 56 77 -64
v 53 80 -64
v 56 83 -64
v 59 80 -64
v -40 80 -66
v -40 77 -64
v -43 80 -64
v -40 83 -64
v -37 80 -64
v 56 160 -66
v 56 157 -64
v 53 160 -64
v 56 163 -64
v 59 160 -64
v -40 160 -66
v -40 157 -64
v -43 160 -64
v -40 163 -64
v -37 160 -64
v 8 232 -66
v 8 229 -64
v 5 232 -64
v 8 235 -64
v 11 232 -64
v 8 7 -66
v 8 4 -64
v 5 7 -64
v 8 10 -64
v 11 7 -64
v -5 160 -66
v -5 157 -64
v -8 160 -64
v -5 163 -64
v -2 160 -64
v 21 80 -66
v 21 77 -64
v 18 80 -64
v 21 83 -64
v 24 80 -64
v 56 232 -34
v 53 232 -36
v 56 229 -36
v 59 232 -36
v 56 235 -36
v -40 232 -34
v -43 232 -36
v -40 229 -36
v -37 232 -36
v -40 235 -36
v 56 8 -34
v 53 8 -36
v 56 5 -36
v 59 8 -36
v 56 11 -36
v -40 8 -34
v -43 8 -36
v -40 5 -36
v -37 8 -36
v -40 11 -36
v 56 80 -34
v 53 80 -36
v 56 77 -36
v 59 80 -36
v 56 83 -36
v -40 80 -34
v -43 80 -36
v -40 77 -36
v -37 80 -36
v -40 83 -36
v 56 160 -34
v 53 160 -36
v 56 157 -36
v 59 160 -36
v 56 163 -36
v -40 160 -34
v -43 160 -36
v -40 157 -36
v -37 160 -36
v -40 163 -36
v 8 232 -34
v 5 232 -36
v 8 229 -36
v 11 232 -36
v 8 235 -36
v 8 7 -34
v 5 7 -36
v 8 4 -36
v 11 7 -36
v 8 10 -36
v -5 160 -34
v -8 160 -36
v -5 157 -36
v -2 160 -36
v -5 163 -36
v 21 80 -34
v 18 80 -36
v 21 77 -36
v 24 80 -36
v 21 83 -36
v 48 224 -42
v 8 141 -36
v -16 224 -58
v 8 141 -42
v -16 224 -42
v 32 224 -42
v -6 79 -66
v -6 82 -64
v -3 79 -64
v -6 76 -64
v -9 79 -64
v 21 160 -66
v 21 163 -64
v 24 160 -64
v 21 157 -64
v 18 160 -64
v -6 79 -34
v -3 79 -36
v -6 82 -36
v -9 79 -36
v -6 76 -36
v 21 160 -34
v 24 160 -36
v 21 163 -36
v 18 160 -36
v 21 157 -36
vn 246 -441 1280
vn 492 -114 256
vn -246 -441 256
vn -492 -114 768
vn 256 0 1280
vn -512 0 768
vn -234 -150 1024
vn -735 75 1024
vn 246 213 1280
vn -246 213 256
vn -267 -75 1024
vn 234 150 1024
vn 512 -256 768
vn 512 0 -768
vn 256 -512 -1280
vn 234 -150 -1024
vn -246 -441 -1280
vn -256 0 -1280
vn 492 -114 -768
vn 267 -75 -1024
vn -234 150 -1024
vn -512 -256 -768
vn -256 -512 1280
vn 267 75 1024
vn 267 -75 256
vn -735 -75 256
vn -234 150 256
vn -246 -213 1280
vn 735 -75 1024
vn 234 -150 256
vn -267 75 256
vn 735 75 256
vn -246 -71 1280
vn 246 -71 -1280
vn -492 -142 -768
vn -267 75 -1024
vn -267 -75 -256
vn 735 -75 -256
vn 735 75 -1280
vn -246 213 -1024
vn -492 -114 -256
vn 246 -441 -256
vn 246 213 -256
vn -735 -75 -1280
vn -234 -150 -256
vn 267 75 -256
vn -735 75 -256
vn 0 0 768
vn 0 256 384
vn -256 0 384
vn 0 -256 384
vn 256 0 384
vn 0 0 768
vn 0 256 384
vn -256 0 384
vn 0 -256 384
vn 256 0 384
vn 492 -142 768
vn 246 -213 256
vn -492 -142 256
vn 0 0 768
vn 0 256 384
vn -256 0 384
vn 0 -256 384
vn 256 0 384
vn 0 0 768
vn 0 256 384
vn -256 0 384
vn 0 -256 384
vn 256 0 384
vn 0 0 768
vn 0 256 384
vn -256 0 384
vn 0 -256 384
vn 256 0 384
vn 0 0 768
vn 0 256 384
vn -256 0 384
vn 0 -256 384
vn 256 0 384
vn 0 0 768
vn 0 256 384
vn -256 0 384
vn 0 -256 384
vn 256 0 384
vn 0 0 768
vn 0 256 384
vn -256 0 384
vn 0 -256 384
vn 256 0 384
vn 0 0 768
vn 0 256 384
vn -256 0 384
vn 0 -256 384
vn 256 0 384
vn 0 0 768
vn 0 256 384
vn -256 0 384
vn 0 -256 384
vn 256 0 384
vn 0 0 768
vn 0 256 384
vn -256 0 384
vn 0 -256 384
vn 256 0 384
vn 0 0 768
vn 0 256 384
vn -256 0 384
vn 0 -256 384
vn 256 0 384
vn 0 0 -768
vn -256 0 -384
vn 0 256 -384
vn 256 0 -384
vn 0 -256 -384
vn 0 0 -768
vn -256 0 -384
vn 0 256 -384
vn 256 0 -384
vn 0 -256 -384
vn 0 0 -768
vn -256 0 -384
vn 0 256 -384
vn 256 0 -384
vn 0 -256 -384
vn 0 0 -768
vn -256 0 -384
vn 0 256 -384
vn 256 0 -384
vn 0 -256 -384
vn 0 0 -768
vn -256 0 -384
vn 0 256 -384
vn 256 0 -384
vn 0 -256 -384
vn 0 0 -768
vn -256 0 -384
vn 0 256 -384
vn 256 0 -384
vn 0 -256 -384
vn 0 0 -768
vn -256 0 -384
vn 0 256 -384
vn 256 0 -384
vn 0 -256 -384
vn 0 0 -768
vn -256 0 -384
vn 0 256 -384
vn 256 0 -384
vn 0 -256 -384
vn 0 0 -768
vn -256 0 -384
vn 0 256 -384
vn 256 0 -384
vn 0 -256 -384
vn 0 0 -768
vn -256 0 -384
vn 0 256 -384
vn 256 0 -384
vn 0 -256 -384
vn 0 0 -768
vn -256 0 -384
vn 0 256 -384
vn 256 0 -384
vn 0 -256 -384
vn 0 0 -768
vn -256 0 -384
vn 0 256 -384
vn 256 0 -384
vn 0 -256 -384
vn 234 150 -256
vn 246 -213 -1024
vn 246 -71 256
vn -246 -213 -256
vn 492 -142 -256
vn -246 -71 -256
vn 0 0 768
vn 0 -256 384
vn 256 0 384
vn 0 256 384
vn -256 0 384
vn 0 0 768
vn 0 -256 384
vn 256 0 384
vn 0 256 384
vn -256 0 384
vn 0 0 -768
vn 256 0 -384
vn 0 -256 -384
vn -256 0 -384
vn 0 256 -384
vn 0 0 -768
vn 256 0 -384
vn 0 -256 -384
vn -256 0 -384
vn 0 256 -384
usemtl m0
f 1 2 3

usemtl m1
f 1 3 4

usemtl m2
f 1 4 5

usemtl m3
f 1 5 6

usemtl m4
f 1 6 7

usemtl m5
f 1 7 8

usemtl m6
f 1 8 9

usemtl m7
f 1 9 2

usemtl m8
f 2 9 10

usemtl m9
f 2 10 3

usemtl m10
f 3 10 4

usemtl m11
f 4 10 9

usemtl m12
f 4 9 11

usemtl m13
f 4 11 5

usemtl m14
f 5 11 12

usemtl m15
f 5 12 13

usemtl m16
f 5 13 14

usemtl m17
f 14 13 15

usemtl m18
f 14 15 16

usemtl m19
f 14 16 17

usemtl m20
f 14 17 18

usemtl m21
f 18 17 19

usemtl m22
f 18 19 20

usemtl m23
f 18 20 21

usemtl m24
f 18 21 22

usemtl m25
f 18 22 6

usemtl m26
f 6 22 23

usemtl m27
f 6 23 7

usemtl m28
f 7 23 24

usemtl m29
f 7 24 25

usemtl m30
f 7 25 26

usemtl m31
f 7 26 8

usemtl m32
f 8 26 27

usemtl m33
f 8 27 24

usemtl m34
f 8 24 28

usemtl m35
f 8 28 9

usemtl m36
f 9 28 29

usemtl m37
f 9 29 11

usemtl m38
f 11 29 30

usemtl m39
f 11 30 31

usemtl m40
f 11 31 12

usemtl m41
f 12 31 32

usemtl m42
f 12 32 29

usemtl m43
f 12 29 33

usemtl m44
f 12 33 13

usemtl m45
f 13 33 23

usemtl m46
f 13 23 15

usemtl m47
f 15 23 22

usemtl m48
f 15 22 34

usemtl m49
f 15 34 35

usemtl m50
f 15 35 36

usemtl m51
f 15 36 16

usemtl m52
f 16 36 37

usemtl m53
f 16 37 38

usemtl m54
f 16 38 39

usemtl m55
f 16 39 17

usemtl m56
f 17 39 40

usemtl m57
f 17 40 41

usemtl m58
f 17 41 42

usemtl m59
f 17 42 19

usemtl m60
f 19 42 43

usemtl m61
f 19 43 40

usemtl m62
f 19 40 20

usemtl m63
f 20 40 44

usemtl m64
f 20 44 45

usemtl m65
f 20 45 46

usemtl m66
f 20 46 21

usemtl m67
f 21 46 47

usemtl m68
f 21 47 44

usemtl m69
f 21 44 34

usemtl m70
f 21 34 22

usemtl m71
f 48 49 50

usemtl m72
f 48 50 51

usemtl m73
f 48 51 52

usemtl m74
f 48 52 49

usemtl m75
f 53 54 55

usemtl m76
f 53 55 56

usemtl m77
f 53 56 57

usemtl m78
f 53 57 54

usemtl m79
f 23 58 24

usemtl m80
f 24 58 28

usemtl m81
f 28 58 59

usemtl m82
f 28 59 60

usemtl m83
f 28 60 33

usemtl m84
f 28 33 29

usemtl m85
f 61 62 63

usemtl m86
f 61 63 64

usemtl m87
f 61 64 65

usemtl m88
f 61 65 62

usemtl m89
f 66 67 68

usemtl m90
f 66 68 69

usemtl m91
f 66 69 70

usemtl m92
f 66 70 67

usemtl m93
f 71 72 73

usemtl m94
f 71 73 74

usemtl m95
f 71 74 75

usemtl m96
f 71 75 72

usemtl m97
f 76 77 78

usemtl m98
f 76 78 79

usemtl m99
f 76 79 80

usemtl m100
f 76 80 77

usemtl m101
f 81 82 83

usemtl m102
f 81 83 84

usemtl m103
f 81 84 85

usemtl m104
f 81 85 82

usemtl m105
f 86 87 88

usemtl m106
f 86 88 89

usemtl m107
f 86 89 90

usemtl m108
f 86 90 87

usemtl m109
f 91 92 93

usemtl m110
f 91 93 94

usemtl m111
f 91 94 95

usemtl m112
f 91 95 92

usemtl m113
f 96 97 98

usemtl m114
f 96 98 99

usemtl m115
f 96 99 100

usemtl m116
f 96 100 97

usemtl m117
f 101 102 103

usemtl m118
f 101 103 104

usemtl m119
f 101 104 105

usemtl m120
f 101 105 102

usemtl m121
f 106 107 108

usemtl m122
f 106 108 109

usemtl m123
f 106 109 110

usemtl m124
f 106 110 107

usemtl m125
f 111 112 113

usemtl m126
f 111 113 114

usemtl m127
f 111 114 115

usemtl m128
f 111 115 112

usemtl m129
f 116 117 118

usemtl m130
f 116 118 119

usemtl m131
f 116 119 120

usemtl m132
f 116 120 117

usemtl m133
f 121 122 123

usemtl m134
f 121 123 124

usemtl m135
f 121 124 125

usemtl m136
f 121 125 122

usemtl m137
f 126 127 128

usemtl m138
f 126 128 129

usemtl m139
f 126 129 130

usemtl m140
f 126 130 127

usemtl m141
f 131 132 133

usemtl m142
f 131 133 134

usemtl m143
f 131 134 135

usemtl m144
f 131 135 132

usemtl m145
f 136 137 138

usemtl m146
f 136 138 139

usemtl m147
f 136 139 140

usemtl m148
f 136 140 137

usemtl m149
f 141 142 143

usemtl m150
f 141 143 144

usemtl m151
f 141 144 145

usemtl m152
f 141 145 142

usemtl m153
f 146 147 148

usemtl m154
f 146 148 149

usemtl m155
f 146 149 150

usemtl m156
f 146 150 147

usemtl m157
f 151 152 153

usemtl m158
f 151 153 154

usemtl m159
f 151 154 155

usemtl m160
f 151 155 152

usemtl m161
f 156 157 158

usemtl m162
f 156 158 159

usemtl m163
f 156 159 160

usemtl m164
f 156 160 157

usemtl m165
f 161 162 163

usemtl m166
f 161 163 164

usemtl m167
f 161 164 165

usemtl m168
f 161 165 162

usemtl m169
f 166 167 168

usemtl m170
f 166 168 169

usemtl m171
f 166 169 170

usemtl m172
f 166 170 167

usemtl m173
f 24 27 25

usemtl m174
f 25 27 26

usemtl m175
f 36 171 37

usemtl m176
f 37 171 38

usemtl m177
f 38 171 39

usemtl m178
f 39 171 36

usemtl m179
f 39 36 172

usemtl m180
f 39 172 44

usemtl m181
f 39 44 40

usemtl m182
f 33 58 23

usemtl m183
f 40 43 41

usemtl m184
f 41 43 42

usemtl m185
f 29 32 30

usemtl m186
f 30 32 31

usemtl m187
f 59 58 173

usemtl m188
f 59 173 60

usemtl m189
f 172 174 175

usemtl m190
f 172 175 34

usemtl m191
f 172 34 44

usemtl m192
f 174 172 35

usemtl m193
f 174 35 176

usemtl m194
f 174 176 175

usemtl m195
f 44 47 45

usemtl m196
f 45 47 46

usemtl m197
f 177 178 179

usemtl m198
f 177 179 180

usemtl m199
f 177 180 181

usemtl m200
f 177 181 178

usemtl m201
f 182 183 184

usemtl m202
f 182 184 185

usemtl m203
f 182 185 186

usemtl m204
f 182 186 183

usemtl m205
f 187 188 189

usemtl m206
f 187 189 190

usemtl m207
f 187 190 191

usemtl m208
f 187 191 188

usemtl m209
f 192 193 194

usemtl m210
f 192 194 195

usemtl m211
f 192 195 196

usemtl m212
f 192 196 193

usemtl m213
f 172 36 35

