mtllib 22308.mtl
o runescapemodel
v 5 -6 -7
v 15 -6 -7
v 15 -6 16
v 5 -6 16
v 6 3 3
v 5 -1 -9
v 15 -1 -9
v 15 3 3
v 15 -1 18
v 5 -1 18
v 4 10 5
v 6 4 -6
v 15 4 -6
v 14 10 5
v 2 22 8
v 2 22 -10
v 16 22 -10
v 16 22 8
v 12 18 4
v 6 18 4
v 6 19 -6
v 12 19 -6
v -15 -6 -7
v -5 -6 -7
v -5 -6 16
v -15 -6 16
v -15 3 3
v -15 -1 -9
v -5 -1 -9
v -6 3 3
v -5 -1 18
v -15 -1 18
v -4 10 5
v -14 10 5
v -15 4 -6
v -6 4 -6
v 6 -6 2
v -6 -6 2
v 0 -6 -6
v -2 22 -10
v -2 22 8
v -16 22 -10
v -12 19 -6
v -6 19 -6
v -6 18 4
v -16 22 8
v -12 18 4
vn -510 573 223
vn 512 448 482
vn 512 704 -482
vn -510 318 -226
vn -1006 -384 -430
vn -716 34 732
vn 764 -187 661
vn 1020 -146 -549
vn 256 -399 -373
vn -256 -61 -533
vn -962 284 -684
vn -469 -197 1050
vn 510 -49 411
vn 1015 226 -793
vn -71 -383 -130
vn -179 -448 89
vn 354 -452 168
vn -90 -454 -84
vn -190 -540 350
vn 323 -585 165
vn 141 -625 -327
vn -343 -581 -170
vn -512 704 482
vn 510 317 223
vn 510 574 -226
vn -512 448 -482
vn -1020 -146 -549
vn -764 -187 661
vn 716 34 732
vn 1006 -384 -430
vn 256 -61 -533
vn -256 -399 -373
vn 962 284 -684
vn -1015 226 -793
vn -510 -49 411
vn 469 -197 1050
vn 0 256 0
vn 0 256 0
vn 0 256 0
vn 349 -457 -43
vn -90 -392 -333
vn -184 -443 300
vn 141 -625 -327
vn -343 -581 -170
vn -190 -540 350
vn -71 -445 119
vn 323 -585 165
usemtl m0
f 1 2 3

usemtl m1
f 1 3 4

usemtl m2
f 1 4 5

usemtl m3
f 1 5 6

usemtl m4
f 1 6 2

usemtl m5
f 2 6 7

usemtl m6
f 2 7 8

usemtl m7
f 2 8 3

usemtl m8
f 3 8 9

usemtl m9
f 3 9 10

usemtl m10
f 3 10 4

usemtl m11
f 4 10 5

usemtl m12
f 5 10 9

usemtl m13
f 5 9 8

usemtl m14
f 5 8 11

usemtl m15
f 5 11 6

usemtl m16
f 6 11 12

usemtl m17
f 6 12 7

usemtl m18
f 7 12 13

usemtl m19
f 7 13 14

usemtl m20
f 7 14 8

usemtl m21
f 8 14 11

usemtl m22
f 11 14 15

usemtl m23
f 11 15 16

usemtl m24
f 11 16 12

usemtl m25
f 12 16 17

usemtl m26
f 12 17 13

usemtl m27
f 13 17 14

usemtl m28
f 14 17 18

usemtl m29
f 14 18 15

usemtl m30
f 15 18 19

usemtl m31
f 15 19 20

usemtl m32
f 15 20 16

usemtl m33
f 16 20 21

usemtl m34
f 16 21 17

usemtl m35
f 17 21 22

usemtl m36
f 17 22 18

usemtl m37
f 18 22 19

usemtl m38
f 23 24 25

usemtl m39
f 23 25 26

usemtl m40
f 23 26 27

usemtl m41
f 23 27 28

usemtl m42
f 23 28 29

usemtl m43
f 23 29 24

usemtl m44
f 24 29 30

usemtl m45
f 24 30 25

usemtl m46
f 25 30 31

usemtl m47
f 25 31 26

usemtl m48
f 26 31 32

usemtl m49
f 26 32 27

usemtl m50
f 27 32 30

usemtl m51
f 27 30 33

usemtl m52
f 27 33 34

usemtl m53
f 27 34 28

usemtl m54
f 28 34 35

usemtl m55
f 28 35 36

usemtl m56
f 28 36 29

usemtl m57
f 29 36 33

usemtl m58
f 29 33 30

usemtl m59
f 37 38 39

usemtl m60
f 30 32 31

usemtl m61
f 40 41 33

usemtl m62
f 40 33 36

usemtl m63
f 40 36 42

usemtl m64
f 40 42 43

usemtl m65
f 40 43 44

usemtl m66
f 40 44 41

usemtl m67
f 41 44 45

usemtl m68
f 41 45 46

usemtl m69
f 41 46 34

usemtl m70
f 41 34 33

usemtl m71
f 34 42 35

usemtl m72
f 35 42 36

usemtl m73
f 42 34 46

usemtl m74
f 42 46 47

usemtl m75
f 42 47 43

usemtl m76
f 46 45 47

