newmtl m0
Kd 0.40784313725490196 0.40784313725490196 0.4588235294117647
newmtl m1
Kd 0.40784313725490196 0.40784313725490196 0.4588235294117647
newmtl m2
Kd 0.4392156862745098 0.4392156862745098 0.49019607843137253
newmtl m3
Kd 0.4392156862745098 0.4392156862745098 0.49019607843137253
newmtl m4
Kd 0.4392156862745098 0.4392156862745098 0.49019607843137253
newmtl m5
Kd 0.40784313725490196 0.40784313725490196 0.4588235294117647
newmtl m6
Kd 0.40784313725490196 0.40784313725490196 0.4588235294117647
newmtl m7
Kd 0.40784313725490196 0.40784313725490196 0.4588235294117647
newmtl m8
Kd 0.3803921568627451 0.3803921568627451 0.4235294117647059
newmtl m9
Kd 0.40784313725490196 0.40784313725490196 0.4588235294117647
newmtl m10
Kd 0.40784313725490196 0.40784313725490196 0.4588235294117647
newmtl m11
Kd 0.40784313725490196 0.40784313725490196 0.4588235294117647
newmtl m12
Kd 0.40784313725490196 0.40784313725490196 0.4588235294117647
newmtl m13
Kd 0.40784313725490196 0.40784313725490196 0.4588235294117647
newmtl m14
Kd 0.40784313725490196 0.40784313725490196 0.4588235294117647
newmtl m15
Kd 0.40784313725490196 0.40784313725490196 0.4588235294117647
newmtl m16
Kd 0.40784313725490196 0.40784313725490196 0.4588235294117647
newmtl m17
Kd 0.40784313725490196 0.40784313725490196 0.4588235294117647
newmtl m18
Kd 0.40784313725490196 0.40784313725490196 0.4588235294117647
newmtl m19
Kd 0.40784313725490196 0.40784313725490196 0.4588235294117647
newmtl m20
Kd 0.40784313725490196 0.40784313725490196 0.4588235294117647
newmtl m21
Kd 0.40784313725490196 0.40784313725490196 0.4588235294117647
newmtl m22
Kd 0.40784313725490196 0.40784313725490196 0.4588235294117647
newmtl m23
Kd 0.4392156862745098 0.4392156862745098 0.49019607843137253
newmtl m24
Kd 0.40784313725490196 0.40784313725490196 0.4588235294117647
newmtl m25
Kd 0.3803921568627451 0.3803921568627451 0.4235294117647059
newmtl m26
Kd 0.3803921568627451 0.3803921568627451 0.4235294117647059
newmtl m27
Kd 0.3803921568627451 0.3803921568627451 0.4235294117647059
newmtl m28
Kd 0.3803921568627451 0.3803921568627451 0.4235294117647059
newmtl m29
Kd 0.3803921568627451 0.3803921568627451 0.4235294117647059
newmtl m30
Kd 0.3803921568627451 0.3803921568627451 0.4235294117647059
newmtl m31
Kd 0.3803921568627451 0.3803921568627451 0.4235294117647059
newmtl m32
Kd 0.3803921568627451 0.3803921568627451 0.4235294117647059
newmtl m33
Kd 0.40784313725490196 0.40784313725490196 0.4588235294117647
newmtl m34
Kd 0.3803921568627451 0.3803921568627451 0.4235294117647059
newmtl m35
Kd 0.3803921568627451 0.3803921568627451 0.4235294117647059
newmtl m36
Kd 0.3803921568627451 0.3803921568627451 0.4235294117647059
newmtl m37
Kd 0.3803921568627451 0.3803921568627451 0.4235294117647059
newmtl m38
Kd 0.3803921568627451 0.3803921568627451 0.4235294117647059
newmtl m39
Kd 0.3803921568627451 0.3803921568627451 0.4235294117647059
newmtl m40
Kd 0.40784313725490196 0.40784313725490196 0.4588235294117647
newmtl m41
Kd 0.40784313725490196 0.40784313725490196 0.4588235294117647
newmtl m42
Kd 0.40784313725490196 0.40784313725490196 0.4588235294117647
newmtl m43
Kd 0.3803921568627451 0.3803921568627451 0.4235294117647059
newmtl m44
Kd 0.40784313725490196 0.40784313725490196 0.4588235294117647
newmtl m45
Kd 0.40784313725490196 0.40784313725490196 0.4588235294117647
newmtl m46
Kd 0.40784313725490196 0.40784313725490196 0.4588235294117647
newmtl m47
Kd 0.40784313725490196 0.40784313725490196 0.4588235294117647
