mtllib 22895.mtl
o runescapemodel
v -64 -10 9
v -64 -16 12
v 64 -16 12
v 64 -10 9
v -64 -10 -23
v 64 -10 -23
v -64 -16 -26
v 64 -16 -26
v -64 -10 -29
v 64 -10 -29
v -64 -10 -61
v 64 -10 -61
v -64 -16 -64
v 64 -16 -64
v -64 0 16
v -64 0 64
v 64 0 64
v 64 0 16
vn 0 -484 -458
vn 0 -494 267
vn 0 -802 -210
vn 0 -626 -229
vn 0 -626 229
vn 0 -484 458
vn 0 -342 229
vn 0 -342 -229
vn 0 -484 -458
vn 0 -626 -229
vn 0 -626 229
vn 0 -484 458
vn 0 -740 458
vn 0 -370 229
vn 0 -574 248
vn 0 -256 0
vn 0 -512 0
vn 0 -380 496
usemtl m0
f 1 2 3

usemtl m1
f 1 3 4

usemtl m2
f 1 4 5

usemtl m3
f 5 4 6

usemtl m4
f 5 6 7

usemtl m5
f 7 6 8

usemtl m6
f 7 8 9

usemtl m7
f 9 8 10

usemtl m8
f 9 10 11

usemtl m9
f 11 10 12

usemtl m10
f 11 12 13

usemtl m11
f 13 12 14

usemtl m12
f 15 16 17

usemtl m13
f 15 17 18

usemtl m14
f 15 18 2

usemtl m15
f 2 18 3

usemtl m16
f 2 3 13

usemtl m17
f 13 3 14

