newmtl m0
Kd 0.3607843137254902 0.32941176470588235 0.2549019607843137
newmtl m1
Kd 0.3607843137254902 0.32941176470588235 0.2549019607843137
newmtl m2
Kd 0.27450980392156865 0.25098039215686274 0.19607843137254902
newmtl m3
Kd 0.27450980392156865 0.25098039215686274 0.19607843137254902
newmtl m4
Kd 0.27450980392156865 0.25098039215686274 0.19607843137254902
newmtl m5
Kd 0.27450980392156865 0.25098039215686274 0.19607843137254902
newmtl m6
Kd 0.27450980392156865 0.25098039215686274 0.19607843137254902
newmtl m7
Kd 0.27450980392156865 0.25098039215686274 0.19607843137254902
newmtl m8
Kd 0.21568627450980393 0.18823529411764706 0.11764705882352941
newmtl m9
Kd 0.21568627450980393 0.18823529411764706 0.11764705882352941
newmtl m10
Kd 0.3137254901960784 0.30980392156862746 0.2196078431372549
newmtl m11
Kd 0.3137254901960784 0.30980392156862746 0.2196078431372549
newmtl m12
Kd 0.3607843137254902 0.3568627450980392 0.2549019607843137
newmtl m13
Kd 0.3607843137254902 0.3568627450980392 0.2549019607843137
newmtl m14
Kd 0.396078431372549 0.396078431372549 0.2823529411764706
newmtl m15
Kd 0.396078431372549 0.396078431372549 0.2823529411764706
newmtl m16
Kd 0.3607843137254902 0.3568627450980392 0.2549019607843137
newmtl m17
Kd 0.3607843137254902 0.3568627450980392 0.2549019607843137
newmtl m18
Kd 0.3137254901960784 0.30980392156862746 0.2196078431372549
newmtl m19
Kd 0.3137254901960784 0.30980392156862746 0.2196078431372549
newmtl m20
Kd 0.3137254901960784 0.30980392156862746 0.2196078431372549
newmtl m21
Kd 0.3137254901960784 0.30980392156862746 0.2196078431372549
newmtl m22
Kd 0.3607843137254902 0.32941176470588235 0.2549019607843137
newmtl m23
Kd 0.3607843137254902 0.32941176470588235 0.2549019607843137
newmtl m24
Kd 0.3607843137254902 0.32941176470588235 0.2549019607843137
newmtl m25
Kd 0.3607843137254902 0.32941176470588235 0.2549019607843137
newmtl m26
Kd 0.27450980392156865 0.25098039215686274 0.19607843137254902
newmtl m27
Kd 0.27450980392156865 0.25098039215686274 0.19607843137254902
newmtl m28
Kd 0.27450980392156865 0.25098039215686274 0.19607843137254902
newmtl m29
Kd 0.27450980392156865 0.25098039215686274 0.19607843137254902
newmtl m30
Kd 0.21568627450980393 0.18823529411764706 0.11764705882352941
newmtl m31
Kd 0.21568627450980393 0.18823529411764706 0.11764705882352941
newmtl m32
Kd 0.3137254901960784 0.30980392156862746 0.2196078431372549
newmtl m33
Kd 0.3137254901960784 0.30980392156862746 0.2196078431372549
newmtl m34
Kd 0.3607843137254902 0.3568627450980392 0.2549019607843137
newmtl m35
Kd 0.3607843137254902 0.3568627450980392 0.2549019607843137
newmtl m36
Kd 0.396078431372549 0.396078431372549 0.2823529411764706
newmtl m37
Kd 0.396078431372549 0.396078431372549 0.2823529411764706
newmtl m38
Kd 0.3607843137254902 0.3568627450980392 0.2549019607843137
newmtl m39
Kd 0.3607843137254902 0.3568627450980392 0.2549019607843137
newmtl m40
Kd 0.3607843137254902 0.3568627450980392 0.2549019607843137
newmtl m41
Kd 0.3607843137254902 0.3568627450980392 0.2549019607843137
newmtl m42
Kd 0.3137254901960784 0.30980392156862746 0.2196078431372549
newmtl m43
Kd 0.3137254901960784 0.30980392156862746 0.2196078431372549
newmtl m44
Kd 0.3137254901960784 0.28627450980392155 0.2196078431372549
newmtl m45
Kd 0.3137254901960784 0.28627450980392155 0.2196078431372549
newmtl m46
Kd 0.3137254901960784 0.28627450980392155 0.2196078431372549
newmtl m47
Kd 0.3137254901960784 0.28627450980392155 0.2196078431372549
newmtl m48
Kd 0.3137254901960784 0.28627450980392155 0.2196078431372549
newmtl m49
Kd 0.3137254901960784 0.28627450980392155 0.2196078431372549
newmtl m50
Kd 0.27450980392156865 0.25098039215686274 0.19607843137254902
newmtl m51
Kd 0.27450980392156865 0.25098039215686274 0.19607843137254902
newmtl m52
Kd 0.21568627450980393 0.18823529411764706 0.11764705882352941
newmtl m53
Kd 0.21568627450980393 0.18823529411764706 0.11764705882352941
newmtl m54
Kd 0.3137254901960784 0.30980392156862746 0.2196078431372549
newmtl m55
Kd 0.3137254901960784 0.30980392156862746 0.2196078431372549
newmtl m56
Kd 0.3607843137254902 0.3568627450980392 0.2549019607843137
newmtl m57
Kd 0.3607843137254902 0.3568627450980392 0.2549019607843137
newmtl m58
Kd 0.396078431372549 0.396078431372549 0.2823529411764706
newmtl m59
Kd 0.396078431372549 0.396078431372549 0.2823529411764706
newmtl m60
Kd 0.27450980392156865 0.25098039215686274 0.19607843137254902
newmtl m61
Kd 0.27450980392156865 0.25098039215686274 0.19607843137254902
newmtl m62
Kd 0.27450980392156865 0.25098039215686274 0.19607843137254902
newmtl m63
Kd 0.27450980392156865 0.25098039215686274 0.19607843137254902
newmtl m64
Kd 0.27450980392156865 0.25098039215686274 0.19607843137254902
newmtl m65
Kd 0.27450980392156865 0.25098039215686274 0.19607843137254902
newmtl m66
Kd 0.21568627450980393 0.18823529411764706 0.11764705882352941
newmtl m67
Kd 0.21568627450980393 0.18823529411764706 0.11764705882352941
newmtl m68
Kd 0.21568627450980393 0.18823529411764706 0.11764705882352941
