mtllib 23306.mtl
o runescapemodel
v 64 21 64
v 64 36 64
v 23 36 64
v 23 21 64
v 64 0 64
v 23 0 64
v -60 6 64
v -59 0 64
v -55 6 0
v -59 0 2
v -60 6 -64
v -59 0 -64
v 23 21 -64
v 23 0 -64
v 64 21 -64
v 64 0 -64
v 64 95 64
v 64 95 -1
v 25 75 -1
v 25 75 64
v -18 48 64
v -45 24 64
v -35 24 -1
v -45 24 -64
v 23 36 -64
v 64 36 -64
v 64 95 -64
v 25 75 -64
v -18 48 -64
v -8 48 -1
vn 0 0 -768
vn 0 0 -768
vn 0 0 -1536
vn 0 0 -1536
vn 0 0 -512
vn 0 0 -768
vn -618 -309 -706
vn -465 -100 -237
vn -1211 -786 -25
vn -675 -245 -16
vn -658 -266 737
vn -252 42 512
vn 0 0 1536
vn 0 0 768
vn 0 0 768
vn 0 0 256
vn -232 -454 -256
vn -348 -681 0
vn -807 -1292 -25
vn -413 -641 -748
vn -304 -406 -466
vn -533 -542 -686
vn -1042 -1110 -9
vn -534 -542 701
vn 0 0 1536
vn 0 0 768
vn -116 -227 512
vn -368 -670 768
vn -635 -793 179
vn -965 -1181 21
usemtl m0
f 1 2 3

usemtl m1
f 1 3 4

usemtl m2
f 1 4 5

usemtl m3
f 5 4 6

usemtl m4
f 6 4 7

usemtl m5
f 6 7 8

usemtl m6
f 8 7 9

usemtl m7
f 8 9 10

usemtl m8
f 10 9 11

usemtl m9
f 10 11 12

usemtl m10
f 12 11 13

usemtl m11
f 12 13 14

usemtl m12
f 14 13 15

usemtl m13
f 14 15 16

usemtl m14
f 17 18 19

usemtl m15
f 17 19 20

usemtl m16
f 17 20 2

usemtl m17
f 2 20 3

usemtl m18
f 3 20 21

usemtl m19
f 3 21 22

usemtl m20
f 3 22 4

usemtl m21
f 4 22 7

usemtl m22
f 7 22 23

usemtl m23
f 7 23 9

usemtl m24
f 9 23 24

usemtl m25
f 9 24 11

usemtl m26
f 11 24 25

usemtl m27
f 11 25 13

usemtl m28
f 13 25 26

usemtl m29
f 13 26 15

usemtl m30
f 27 26 25

usemtl m31
f 27 25 28

usemtl m32
f 27 28 18

usemtl m33
f 18 28 19

usemtl m34
f 19 28 29

usemtl m35
f 19 29 30

usemtl m36
f 19 30 20

usemtl m37
f 20 30 21

usemtl m38
f 21 30 22

usemtl m39
f 22 30 23

usemtl m40
f 23 30 29

usemtl m41
f 23 29 24

usemtl m42
f 24 29 28

usemtl m43
f 24 28 25

