newmtl m0
Kd 0.3411764705882353 0.29411764705882354 0.24313725490196078
newmtl m1
Kd 0.3411764705882353 0.29411764705882354 0.24313725490196078
newmtl m2
Kd 0.3411764705882353 0.29411764705882354 0.24313725490196078
newmtl m3
Kd 0.29411764705882354 0.2549019607843137 0.20784313725490197
newmtl m4
Kd 0.29411764705882354 0.2549019607843137 0.20784313725490197
newmtl m5
Kd 0.29411764705882354 0.2549019607843137 0.20784313725490197
newmtl m6
Kd 0.29411764705882354 0.2549019607843137 0.20784313725490197
newmtl m7
Kd 0.29411764705882354 0.2549019607843137 0.20784313725490197
newmtl m8
Kd 0.3411764705882353 0.29411764705882354 0.24313725490196078
newmtl m9
Kd 0.3411764705882353 0.29411764705882354 0.24313725490196078
newmtl m10
Kd 0.3411764705882353 0.3254901960784314 0.3058823529411765
newmtl m11
Kd 0.3411764705882353 0.3254901960784314 0.3058823529411765
newmtl m12
Kd 0.3411764705882353 0.3254901960784314 0.3058823529411765
newmtl m13
Kd 0.3411764705882353 0.3254901960784314 0.3058823529411765
newmtl m14
Kd 0.3411764705882353 0.3254901960784314 0.3058823529411765
newmtl m15
Kd 0.3411764705882353 0.29411764705882354 0.24313725490196078
newmtl m16
Kd 0.3411764705882353 0.29411764705882354 0.24313725490196078
newmtl m17
Kd 0.29411764705882354 0.2549019607843137 0.20784313725490197
newmtl m18
Kd 0.29411764705882354 0.2549019607843137 0.20784313725490197
newmtl m19
Kd 0.3411764705882353 0.29411764705882354 0.24313725490196078
newmtl m20
Kd 0.3411764705882353 0.29411764705882354 0.24313725490196078
newmtl m21
Kd 0.3411764705882353 0.3254901960784314 0.3058823529411765
newmtl m22
Kd 0.3411764705882353 0.3254901960784314 0.3058823529411765
newmtl m23
Kd 0.3411764705882353 0.3254901960784314 0.3058823529411765
newmtl m24
Kd 0.3411764705882353 0.3254901960784314 0.3058823529411765
newmtl m25
Kd 0.40784313725490196 0.38823529411764707 0.36470588235294116
newmtl m26
Kd 0.40784313725490196 0.38823529411764707 0.36470588235294116
newmtl m27
Kd 0.40784313725490196 0.38823529411764707 0.36470588235294116
newmtl m28
Kd 0.40784313725490196 0.38823529411764707 0.36470588235294116
newmtl m29
Kd 0.40784313725490196 0.38823529411764707 0.36470588235294116
newmtl m30
Kd 0.40784313725490196 0.38823529411764707 0.36470588235294116
newmtl m31
Kd 0.40784313725490196 0.38823529411764707 0.36470588235294116
newmtl m32
Kd 0.3411764705882353 0.3254901960784314 0.3058823529411765
newmtl m33
Kd 0.3411764705882353 0.3254901960784314 0.3058823529411765
newmtl m34
Kd 0.3411764705882353 0.29411764705882354 0.24313725490196078
newmtl m35
Kd 0.3411764705882353 0.29411764705882354 0.24313725490196078
newmtl m36
Kd 0.29411764705882354 0.2549019607843137 0.20784313725490197
newmtl m37
Kd 0.29411764705882354 0.2549019607843137 0.20784313725490197
newmtl m38
Kd 0.3411764705882353 0.29411764705882354 0.24313725490196078
newmtl m39
Kd 0.3411764705882353 0.29411764705882354 0.24313725490196078
newmtl m40
Kd 0.3411764705882353 0.3254901960784314 0.3058823529411765
newmtl m41
Kd 0.3411764705882353 0.3254901960784314 0.3058823529411765
newmtl m42
Kd 0.3411764705882353 0.29411764705882354 0.24313725490196078
newmtl m43
Kd 0.3411764705882353 0.29411764705882354 0.24313725490196078
newmtl m44
Kd 0.3411764705882353 0.3254901960784314 0.3058823529411765
newmtl m45
Kd 0.3411764705882353 0.3254901960784314 0.3058823529411765
newmtl m46
Kd 0.3411764705882353 0.3254901960784314 0.3058823529411765
newmtl m47
Kd 0.3411764705882353 0.3254901960784314 0.3058823529411765
newmtl m48
Kd 0.3411764705882353 0.3254901960784314 0.3058823529411765
newmtl m49
Kd 0.3411764705882353 0.3254901960784314 0.3058823529411765
newmtl m50
Kd 0.3411764705882353 0.3254901960784314 0.3058823529411765
newmtl m51
Kd 0.3411764705882353 0.3254901960784314 0.3058823529411765
newmtl m52
Kd 0.3411764705882353 0.3254901960784314 0.3058823529411765
newmtl m53
Kd 0.3411764705882353 0.3254901960784314 0.3058823529411765
newmtl m54
Kd 0.3411764705882353 0.3254901960784314 0.3058823529411765
newmtl m55
Kd 0.3411764705882353 0.3254901960784314 0.3058823529411765
newmtl m56
Kd 0.3411764705882353 0.3254901960784314 0.3058823529411765
newmtl m57
Kd 0.3411764705882353 0.3254901960784314 0.3058823529411765
newmtl m58
Kd 0.3411764705882353 0.3254901960784314 0.3058823529411765
newmtl m59
Kd 0.3411764705882353 0.3254901960784314 0.3058823529411765
newmtl m60
Kd 0.3411764705882353 0.3254901960784314 0.3058823529411765
newmtl m61
Kd 0.3411764705882353 0.3254901960784314 0.3058823529411765
newmtl m62
Kd 0.3411764705882353 0.29411764705882354 0.24313725490196078
newmtl m63
Kd 0.3411764705882353 0.29411764705882354 0.24313725490196078
newmtl m64
Kd 0.3411764705882353 0.3254901960784314 0.3058823529411765
newmtl m65
Kd 0.3411764705882353 0.3254901960784314 0.3058823529411765
newmtl m66
Kd 0.40784313725490196 0.38823529411764707 0.36470588235294116
newmtl m67
Kd 0.40784313725490196 0.38823529411764707 0.36470588235294116
newmtl m68
Kd 0.40784313725490196 0.38823529411764707 0.36470588235294116
newmtl m69
Kd 0.40784313725490196 0.38823529411764707 0.36470588235294116
newmtl m70
Kd 0.40784313725490196 0.38823529411764707 0.36470588235294116
newmtl m71
Kd 0.3411764705882353 0.3254901960784314 0.3058823529411765
newmtl m72
Kd 0.3411764705882353 0.3254901960784314 0.3058823529411765
newmtl m73
Kd 0.40784313725490196 0.38823529411764707 0.36470588235294116
newmtl m74
Kd 0.40784313725490196 0.38823529411764707 0.36470588235294116
newmtl m75
Kd 0.40784313725490196 0.38823529411764707 0.36470588235294116
newmtl m76
Kd 0.40784313725490196 0.38823529411764707 0.36470588235294116
newmtl m77
Kd 0.40784313725490196 0.38823529411764707 0.36470588235294116
newmtl m78
Kd 0.40784313725490196 0.38823529411764707 0.36470588235294116
newmtl m79
Kd 0.3411764705882353 0.29411764705882354 0.24313725490196078
newmtl m80
Kd 0.3411764705882353 0.29411764705882354 0.24313725490196078
newmtl m81
Kd 0.3411764705882353 0.3254901960784314 0.3058823529411765
newmtl m82
Kd 0.3411764705882353 0.3254901960784314 0.3058823529411765
newmtl m83
Kd 0.40784313725490196 0.38823529411764707 0.36470588235294116
newmtl m84
Kd 0.40784313725490196 0.38823529411764707 0.36470588235294116
newmtl m85
Kd 0.3411764705882353 0.3254901960784314 0.3058823529411765
newmtl m86
Kd 0.3411764705882353 0.3254901960784314 0.3058823529411765
newmtl m87
Kd 0.3411764705882353 0.3254901960784314 0.3058823529411765
newmtl m88
Kd 0.3411764705882353 0.3254901960784314 0.3058823529411765
newmtl m89
Kd 0.3411764705882353 0.3254901960784314 0.3058823529411765
newmtl m90
Kd 0.3411764705882353 0.3254901960784314 0.3058823529411765
newmtl m91
Kd 0.3411764705882353 0.3254901960784314 0.3058823529411765
newmtl m92
Kd 0.40784313725490196 0.38823529411764707 0.36470588235294116
newmtl m93
Kd 0.3411764705882353 0.29411764705882354 0.24313725490196078
newmtl m94
Kd 0.3411764705882353 0.29411764705882354 0.24313725490196078
newmtl m95
Kd 0.3411764705882353 0.3254901960784314 0.3058823529411765
newmtl m96
Kd 0.3411764705882353 0.3254901960784314 0.3058823529411765
newmtl m97
Kd 0.40784313725490196 0.38823529411764707 0.36470588235294116
newmtl m98
Kd 0.40784313725490196 0.38823529411764707 0.36470588235294116
newmtl m99
Kd 0.3411764705882353 0.3254901960784314 0.3058823529411765
newmtl m100
Kd 0.3411764705882353 0.3254901960784314 0.3058823529411765
newmtl m101
Kd 0.6235294117647059 0.611764705882353 0.023529411764705882
newmtl m102
Kd 0.6235294117647059 0.611764705882353 0.023529411764705882
newmtl m103
Kd 0.6235294117647059 0.611764705882353 0.023529411764705882
newmtl m104
Kd 0.6235294117647059 0.611764705882353 0.023529411764705882
newmtl m105
Kd 0.6235294117647059 0.611764705882353 0.023529411764705882
newmtl m106
Kd 0.3411764705882353 0.3254901960784314 0.3058823529411765
newmtl m107
Kd 0.3411764705882353 0.3254901960784314 0.3058823529411765
newmtl m108
Kd 0.3411764705882353 0.3254901960784314 0.3058823529411765
newmtl m109
Kd 0.3411764705882353 0.3254901960784314 0.3058823529411765
newmtl m110
Kd 0.3411764705882353 0.3254901960784314 0.3058823529411765
newmtl m111
Kd 0.3411764705882353 0.3254901960784314 0.3058823529411765
newmtl m112
Kd 0.3411764705882353 0.3254901960784314 0.3058823529411765
newmtl m113
Kd 0.3411764705882353 0.3254901960784314 0.3058823529411765
newmtl m114
Kd 0.40784313725490196 0.38823529411764707 0.36470588235294116
newmtl m115
Kd 0.40784313725490196 0.38823529411764707 0.36470588235294116
newmtl m116
Kd 0.3411764705882353 0.3254901960784314 0.3058823529411765
newmtl m117
Kd 0.3411764705882353 0.3254901960784314 0.3058823529411765
newmtl m118
Kd 0.3411764705882353 0.29411764705882354 0.24313725490196078
newmtl m119
Kd 0.3411764705882353 0.29411764705882354 0.24313725490196078
newmtl m120
Kd 0.29411764705882354 0.2549019607843137 0.20784313725490197
newmtl m121
Kd 0.29411764705882354 0.2549019607843137 0.20784313725490197
newmtl m122
Kd 0.3411764705882353 0.29411764705882354 0.24313725490196078
newmtl m123
Kd 0.3411764705882353 0.29411764705882354 0.24313725490196078
newmtl m124
Kd 0.3411764705882353 0.3254901960784314 0.3058823529411765
newmtl m125
Kd 0.3411764705882353 0.3254901960784314 0.3058823529411765
newmtl m126
Kd 0.40784313725490196 0.38823529411764707 0.36470588235294116
newmtl m127
Kd 0.40784313725490196 0.38823529411764707 0.36470588235294116
newmtl m128
Kd 0.3411764705882353 0.3254901960784314 0.3058823529411765
newmtl m129
Kd 0.3411764705882353 0.3254901960784314 0.3058823529411765
newmtl m130
Kd 0.6235294117647059 0.611764705882353 0.023529411764705882
newmtl m131
Kd 0.6235294117647059 0.611764705882353 0.023529411764705882
newmtl m132
Kd 0.6235294117647059 0.611764705882353 0.023529411764705882
newmtl m133
Kd 0.6235294117647059 0.611764705882353 0.023529411764705882
newmtl m134
Kd 0.6235294117647059 0.611764705882353 0.023529411764705882
newmtl m135
Kd 0.6235294117647059 0.611764705882353 0.023529411764705882
newmtl m136
Kd 0.6235294117647059 0.611764705882353 0.023529411764705882
newmtl m137
Kd 0.3411764705882353 0.3254901960784314 0.3058823529411765
newmtl m138
Kd 0.3411764705882353 0.3254901960784314 0.3058823529411765
newmtl m139
Kd 0.40784313725490196 0.38823529411764707 0.36470588235294116
newmtl m140
Kd 0.40784313725490196 0.38823529411764707 0.36470588235294116
newmtl m141
Kd 0.3411764705882353 0.3254901960784314 0.3058823529411765
newmtl m142
Kd 0.3411764705882353 0.3254901960784314 0.3058823529411765
newmtl m143
Kd 0.3411764705882353 0.29411764705882354 0.24313725490196078
newmtl m144
Kd 0.3411764705882353 0.29411764705882354 0.24313725490196078
newmtl m145
Kd 0.29411764705882354 0.2549019607843137 0.20784313725490197
newmtl m146
Kd 0.29411764705882354 0.2549019607843137 0.20784313725490197
newmtl m147
Kd 0.3411764705882353 0.29411764705882354 0.24313725490196078
newmtl m148
Kd 0.3411764705882353 0.29411764705882354 0.24313725490196078
newmtl m149
Kd 0.3411764705882353 0.3254901960784314 0.3058823529411765
newmtl m150
Kd 0.3411764705882353 0.3254901960784314 0.3058823529411765
newmtl m151
Kd 0.40784313725490196 0.38823529411764707 0.36470588235294116
newmtl m152
Kd 0.40784313725490196 0.38823529411764707 0.36470588235294116
newmtl m153
Kd 0.3411764705882353 0.3254901960784314 0.3058823529411765
newmtl m154
Kd 0.3411764705882353 0.3254901960784314 0.3058823529411765
newmtl m155
Kd 0.3411764705882353 0.29411764705882354 0.24313725490196078
newmtl m156
Kd 0.3411764705882353 0.29411764705882354 0.24313725490196078
newmtl m157
Kd 0.3411764705882353 0.3254901960784314 0.3058823529411765
newmtl m158
Kd 0.3411764705882353 0.3254901960784314 0.3058823529411765
newmtl m159
Kd 0.40784313725490196 0.38823529411764707 0.36470588235294116
newmtl m160
Kd 0.40784313725490196 0.38823529411764707 0.36470588235294116
newmtl m161
Kd 0.3411764705882353 0.3254901960784314 0.3058823529411765
newmtl m162
Kd 0.3411764705882353 0.3254901960784314 0.3058823529411765
newmtl m163
Kd 0.3411764705882353 0.29411764705882354 0.24313725490196078
newmtl m164
Kd 0.3411764705882353 0.3254901960784314 0.3058823529411765
newmtl m165
Kd 0.3411764705882353 0.3254901960784314 0.3058823529411765
newmtl m166
Kd 0.40784313725490196 0.38823529411764707 0.36470588235294116
newmtl m167
Kd 0.40784313725490196 0.38823529411764707 0.36470588235294116
newmtl m168
Kd 0.3411764705882353 0.3254901960784314 0.3058823529411765
newmtl m169
Kd 0.3411764705882353 0.3254901960784314 0.3058823529411765
newmtl m170
Kd 0.3411764705882353 0.3254901960784314 0.3058823529411765
newmtl m171
Kd 0.40784313725490196 0.38823529411764707 0.36470588235294116
newmtl m172
Kd 0.40784313725490196 0.38823529411764707 0.36470588235294116
newmtl m173
Kd 0.3411764705882353 0.3254901960784314 0.3058823529411765
newmtl m174
Kd 0.3411764705882353 0.3254901960784314 0.3058823529411765
newmtl m175
Kd 0.40784313725490196 0.38823529411764707 0.36470588235294116
newmtl m176
Kd 0.3411764705882353 0.3254901960784314 0.3058823529411765
newmtl m177
Kd 0.3411764705882353 0.3254901960784314 0.3058823529411765
newmtl m178
Kd 0.3411764705882353 0.3254901960784314 0.3058823529411765
newmtl m179
Kd 0.29411764705882354 0.2549019607843137 0.20784313725490197
newmtl m180
Kd 0.29411764705882354 0.2549019607843137 0.20784313725490197
newmtl m181
Kd 0.29411764705882354 0.2549019607843137 0.20784313725490197
newmtl m182
Kd 0.29411764705882354 0.2549019607843137 0.20784313725490197
newmtl m183
Kd 0.29411764705882354 0.2549019607843137 0.20784313725490197
newmtl m184
Kd 0.29411764705882354 0.2549019607843137 0.20784313725490197
newmtl m185
Kd 0.29411764705882354 0.2549019607843137 0.20784313725490197
newmtl m186
Kd 0.29411764705882354 0.2549019607843137 0.20784313725490197
newmtl m187
Kd 0.29411764705882354 0.2549019607843137 0.20784313725490197
newmtl m188
Kd 0.29411764705882354 0.2549019607843137 0.20784313725490197
newmtl m189
Kd 0.29411764705882354 0.2549019607843137 0.20784313725490197
newmtl m190
Kd 0.29411764705882354 0.2549019607843137 0.20784313725490197
newmtl m191
Kd 0.29411764705882354 0.2549019607843137 0.20784313725490197
newmtl m192
Kd 0.29411764705882354 0.2549019607843137 0.20784313725490197
newmtl m193
Kd 0.29411764705882354 0.2549019607843137 0.20784313725490197
newmtl m194
Kd 0.29411764705882354 0.2549019607843137 0.20784313725490197
newmtl m195
Kd 0.29411764705882354 0.2549019607843137 0.20784313725490197
newmtl m196
Kd 0.29411764705882354 0.2549019607843137 0.20784313725490197
newmtl m197
Kd 0.29411764705882354 0.2549019607843137 0.20784313725490197
newmtl m198
Kd 0.6235294117647059 0.611764705882353 0.023529411764705882
newmtl m199
Kd 0.6235294117647059 0.611764705882353 0.023529411764705882
newmtl m200
Kd 0.7019607843137254 0.6470588235294118 0.4196078431372549
newmtl m201
Kd 0.7019607843137254 0.6470588235294118 0.4196078431372549
newmtl m202
Kd 0.7019607843137254 0.6470588235294118 0.4196078431372549
newmtl m203
Kd 0.7019607843137254 0.6470588235294118 0.4196078431372549
newmtl m204
Kd 0.7019607843137254 0.6470588235294118 0.4196078431372549
newmtl m205
Kd 0.7019607843137254 0.6470588235294118 0.4196078431372549
newmtl m206
Kd 0.7019607843137254 0.6470588235294118 0.4196078431372549
newmtl m207
Kd 0.7019607843137254 0.6470588235294118 0.4196078431372549
newmtl m208
Kd 0.7529411764705882 0.7333333333333333 0.6392156862745098
newmtl m209
Kd 0.7529411764705882 0.7333333333333333 0.6392156862745098
newmtl m210
Kd 0.7529411764705882 0.7333333333333333 0.6392156862745098
newmtl m211
Kd 0.7529411764705882 0.7333333333333333 0.6392156862745098
newmtl m212
Kd 0.7529411764705882 0.7333333333333333 0.6392156862745098
newmtl m213
Kd 0.7529411764705882 0.7333333333333333 0.6392156862745098
newmtl m214
Kd 0.7529411764705882 0.7333333333333333 0.6392156862745098
newmtl m215
Kd 0.7529411764705882 0.7333333333333333 0.6392156862745098
newmtl m216
Kd 0.7529411764705882 0.7333333333333333 0.6392156862745098
newmtl m217
Kd 0.7529411764705882 0.7333333333333333 0.6392156862745098
newmtl m218
Kd 0.7529411764705882 0.7333333333333333 0.6392156862745098
newmtl m219
Kd 0.7529411764705882 0.7333333333333333 0.6392156862745098
newmtl m220
Kd 0.7019607843137254 0.6470588235294118 0.4196078431372549
newmtl m221
Kd 0.7019607843137254 0.6470588235294118 0.4196078431372549
newmtl m222
Kd 0.7019607843137254 0.6470588235294118 0.4196078431372549
newmtl m223
Kd 0.7019607843137254 0.6470588235294118 0.4196078431372549
newmtl m224
Kd 0.7019607843137254 0.6470588235294118 0.4196078431372549
newmtl m225
Kd 0.7019607843137254 0.6470588235294118 0.4196078431372549
newmtl m226
Kd 0.7019607843137254 0.6470588235294118 0.4196078431372549
newmtl m227
Kd 0.7019607843137254 0.6470588235294118 0.4196078431372549
newmtl m228
Kd 0.7019607843137254 0.6470588235294118 0.4196078431372549
newmtl m229
Kd 0.7019607843137254 0.6470588235294118 0.4196078431372549
newmtl m230
Kd 0.7019607843137254 0.6470588235294118 0.4196078431372549
newmtl m231
Kd 0.7019607843137254 0.6470588235294118 0.4196078431372549
newmtl m232
Kd 0.7254901960784313 0.6705882352941176 0.4627450980392157
newmtl m233
Kd 0.7254901960784313 0.6705882352941176 0.4627450980392157
newmtl m234
Kd 0.7254901960784313 0.6705882352941176 0.4627450980392157
newmtl m235
Kd 0.7254901960784313 0.6705882352941176 0.4627450980392157
newmtl m236
Kd 0.7254901960784313 0.6705882352941176 0.4627450980392157
newmtl m237
Kd 0.7254901960784313 0.6705882352941176 0.4627450980392157
newmtl m238
Kd 0.7254901960784313 0.6705882352941176 0.4627450980392157
newmtl m239
Kd 0.7254901960784313 0.6705882352941176 0.4627450980392157
newmtl m240
Kd 0.7254901960784313 0.6705882352941176 0.4627450980392157
newmtl m241
Kd 0.7254901960784313 0.6705882352941176 0.4627450980392157
newmtl m242
Kd 0.7254901960784313 0.6705882352941176 0.4627450980392157
newmtl m243
Kd 0.7254901960784313 0.6705882352941176 0.4627450980392157
newmtl m244
Kd 0.5568627450980392 0.5294117647058824 0.30980392156862746
newmtl m245
Kd 0.5568627450980392 0.5294117647058824 0.30980392156862746
newmtl m246
Kd 0.5568627450980392 0.5294117647058824 0.30980392156862746
newmtl m247
Kd 0.5568627450980392 0.5294117647058824 0.30980392156862746
newmtl m248
Kd 0.5568627450980392 0.5294117647058824 0.30980392156862746
newmtl m249
Kd 0.5568627450980392 0.5294117647058824 0.30980392156862746
newmtl m250
Kd 0.5568627450980392 0.5294117647058824 0.30980392156862746
newmtl m251
Kd 0.5568627450980392 0.5294117647058824 0.30980392156862746
newmtl m252
Kd 0.5568627450980392 0.5294117647058824 0.30980392156862746
newmtl m253
Kd 0.5568627450980392 0.5294117647058824 0.30980392156862746
newmtl m254
Kd 0.5568627450980392 0.5294117647058824 0.30980392156862746
newmtl m255
Kd 0.4549019607843137 0.41568627450980394 0.2549019607843137
newmtl m256
Kd 0.4549019607843137 0.41568627450980394 0.2549019607843137
newmtl m257
Kd 0.4549019607843137 0.41568627450980394 0.2549019607843137
newmtl m258
Kd 0.28627450980392155 0.37254901960784315 0.20784313725490197
d 0.35294117647058826
newmtl m259
Kd 0.28627450980392155 0.37254901960784315 0.20784313725490197
d 0.35294117647058826
newmtl m260
Kd 0.3803921568627451 0.45098039215686275 0.3215686274509804
d 0.35294117647058826
newmtl m261
Kd 0.3803921568627451 0.45098039215686275 0.3215686274509804
d 0.35294117647058826
newmtl m262
Kd 0.3803921568627451 0.45098039215686275 0.3215686274509804
d 0.35294117647058826
newmtl m263
Kd 0.3803921568627451 0.45098039215686275 0.3215686274509804
d 0.35294117647058826
newmtl m264
Kd 0.28627450980392155 0.37254901960784315 0.20784313725490197
d 0.35294117647058826
newmtl m265
Kd 0.28627450980392155 0.37254901960784315 0.20784313725490197
d 0.35294117647058826
newmtl m266
Kd 0.3803921568627451 0.45098039215686275 0.3215686274509804
d 0.35294117647058826
newmtl m267
Kd 0.3803921568627451 0.45098039215686275 0.3215686274509804
d 0.35294117647058826
newmtl m268
Kd 0.3803921568627451 0.45098039215686275 0.3215686274509804
d 0.35294117647058826
newmtl m269
Kd 0.3803921568627451 0.45098039215686275 0.3215686274509804
d 0.35294117647058826
newmtl m270
Kd 0.3803921568627451 0.45098039215686275 0.3215686274509804
d 0.35294117647058826
newmtl m271
Kd 0.3803921568627451 0.45098039215686275 0.3215686274509804
d 0.35294117647058826
newmtl m272
Kd 0.3803921568627451 0.45098039215686275 0.3215686274509804
d 0.35294117647058826
newmtl m273
Kd 0.3803921568627451 0.45098039215686275 0.3215686274509804
d 0.35294117647058826
newmtl m274
Kd 0.3803921568627451 0.45098039215686275 0.3215686274509804
d 0.35294117647058826
newmtl m275
Kd 0.3803921568627451 0.45098039215686275 0.3215686274509804
d 0.35294117647058826
newmtl m276
Kd 0.28627450980392155 0.37254901960784315 0.20784313725490197
d 0.35294117647058826
newmtl m277
Kd 0.28627450980392155 0.37254901960784315 0.20784313725490197
d 0.35294117647058826
