mtllib 23473.mtl
o runescapemodel
v 47 11 -33
v 43 11 -48
v 45 37 -50
v 50 37 -33
v 31 11 -29
v 28 0 -24
v 53 0 -31
v 47 0 -52
v 27 11 -42
v 24 37 -44
v 24 60 -43
v 45 60 -49
v 50 60 -32
v 29 37 -27
v 22 0 -45
v 29 60 -26
v -34 11 -46
v -48 11 -41
v -51 37 -43
v -33 37 -49
v -29 11 -30
v -24 0 -27
v -32 0 -52
v -53 0 -44
v -43 11 -25
v -44 37 -23
v -44 60 -22
v -51 60 -42
v -33 60 -48
v -27 37 -28
v -45 0 -20
v -27 60 -27
v -43 11 25
v -47 11 40
v -51 37 41
v -45 37 23
v -27 11 31
v -22 0 29
v -47 0 20
v -53 0 42
v -32 11 45
v -31 37 47
v -31 60 48
v -51 60 42
v -45 60 24
v -25 37 30
v -29 0 50
v -25 60 31
v 47 16 25
v 30 16 27
v 28 37 25
v 48 37 23
v 48 16 44
v 53 0 47
v 49 0 20
v 26 0 23
v 32 16 45
v 31 37 48
v 31 60 49
v 28 60 26
v 48 60 24
v 50 37 45
v 29 0 50
v 50 60 46
v -60 73 -56
v -51 73 -60
v -51 60 -60
v -60 60 -56
v -60 73 41
v -13 73 -62
v -13 60 -62
v -20 73 42
v -13 73 28
v -54 73 56
v -13 73 54
v -13 60 54
v -20 60 42
v -13 60 28
v -14 73 42
v 61 73 42
v 61 73 -54
v 61 60 42
v 61 60 -54
v 45 73 -59
v 45 60 -59
v -60 60 41
v -54 60 56
v 56 71 57
v -8 73 54
v -8 60 54
v 56 58 57
v -14 60 42
v -24 199 41
v -45 199 41
v -45 199 58
v -24 199 58
v -26 187 57
v -26 189 43
v -43 188 43
v -43 186 57
v -41 184 54
v -29 185 54
v -29 187 45
v -41 186 45
v -41 168 40
v -41 166 49
v -29 167 49
v -29 169 40
v -27 141 43
v -43 141 43
v -27 133 55
v -27 121 43
v -27 134 36
v -43 134 36
v -43 133 55
v -43 121 43
v -43 117 31
v -27 117 31
v -27 133 31
v -43 133 31
v -23 115 -61
v -28 107 -61
v -37 107 -61
v -43 115 -61
v -38 123 -61
v -29 123 -61
v -23 115 -53
v -28 107 -53
v -37 107 -53
v -43 115 -53
v -38 123 -53
v -29 123 -53
v 41 137 23
v 49 137 15
v 69 161 27
v 53 161 43
v 33 137 23
v 29 121 19
v 45 121 19
v 49 137 7
v 69 161 -5
v 61 161 23
v 49 161 35
v 25 161 35
v 21 161 43
v 25 137 15
v 29 121 3
v 13 105 19
v 29 105 35
v 45 105 35
v 61 105 19
v 61 105 3
v 45 121 3
v 41 137 -1
v 53 161 -21
v 49 161 -13
v 61 161 -1
v 45 137 7
v 45 137 15
v 41 137 19
v 33 137 19
v 13 161 23
v 5 161 27
v 25 137 7
v 33 137 -1
v 29 105 -13
v 13 105 3
v 9 105 3
v 9 105 19
v 13 89 19
v 29 89 35
v 45 89 35
v 61 89 19
v 61 89 3
v 45 89 -13
v 45 105 -13
v 29 89 -13
v 13 89 3
v 9 89 3
v -3 97 3
v 1 109 3
v 1 109 19
v 9 89 19
v 29 73 19
v 45 73 19
v 45 73 3
v 29 73 3
v 21 161 -21
v 25 161 -13
v 33 137 3
v 41 137 3
v 5 161 -5
v 13 161 -1
v 29 137 7
v 29 137 15
v -27 101 19
v -27 101 3
v -27 109 3
v -27 109 19
v -43 101 19
v -59 81 35
v -11 81 35
v -11 81 -13
v -43 101 3
v -43 109 3
v -43 109 19
v -59 81 -13
v -59 73 -13
v -59 73 35
v -11 73 35
v -11 73 -13
v -19 133 19
v -19 117 19
v -11 113 19
v -7 129 19
v -19 133 3
v -19 141 -5
v -19 141 27
v -19 109 27
v -19 117 3
v -11 113 3
v -3 97 19
v -7 129 3
v -19 109 -5
v -27 117 -5
v -27 133 -5
v -51 141 -5
v -51 141 27
v -43 133 27
v -27 133 27
v -27 117 27
v -51 109 27
v -43 117 27
v -51 109 -5
v -43 133 -5
v -43 117 -5
v -43 133 -21
v -43 117 -21
v -27 133 -21
v -27 117 -21
v -19 80 -21
v -19 141 -21
v -51 141 -21
v -51 80 -21
v -51 73 -21
v -19 73 -21
v -19 80 -53
v -19 105 -41
v -19 105 -33
v -19 113 -33
v -19 113 -41
v -19 129 -53
v -51 129 -53
v -51 80 -53
v -51 73 -53
v 9 109 -41
v 1 103 -41
v 1 103 -33
v 9 109 -33
v 14 98 -33
v 14 98 -41
v 6 98 -41
v 6 98 -33
v 3 89 -33
v 11 89 -33
v 11 89 -41
v 3 89 -41
v -7 77 -25
v -7 77 -49
v -7 73 -49
v -7 73 -25
v 17 77 -25
v 17 77 -49
v 17 73 -49
v 17 73 -25
v -19 73 -53
v -43 149 11
v -38 149 19
v -29 149 19
v -23 149 11
v -28 149 3
v -37 149 3
v -43 141 11
v -38 141 19
v -29 141 19
v -23 141 11
v -28 141 3
v -37 141 3
v -43 131 -48
v -47 131 -48
v -47 140 -24
v -43 140 -24
v -36 131 -48
v -40 131 -48
v -40 140 -24
v -36 140 -24
v -29 131 -48
v -33 131 -48
v -33 140 -24
v -29 140 -24
v -22 131 -48
v -26 131 -48
v -26 140 -24
v -22 140 -24
vn 898 -220 -520
vn 446 -204 906
vn 525 42 946
vn 936 52 -525
vn -514 -223 -937
vn -107 -260 -532
vn 512 -294 -111
vn 72 -250 528
vn -959 -156 485
vn -963 59 514
vn -385 -17 420
vn 420 -16 390
vn 385 17 -420
vn -522 82 -956
vn -525 -269 94
vn -420 16 -390
vn 463 -202 924
vn -963 -224 449
vn -969 69 473
vn 494 32 944
vn 961 -212 -473
vn 537 -262 -79
vn 69 -285 515
vn -547 -260 72
vn -470 -194 -936
vn -510 75 -979
vn -410 16 -413
vn -403 -17 402
vn 411 -16 383
vn 967 58 -520
vn -77 -260 -528
vn 390 17 -420
vn -454 -192 901
vn -920 -231 -532
vn -949 96 -508
vn -471 34 963
vn 950 -225 467
vn 396 -243 382
vn -363 -292 349
vn -374 -276 -399
vn 473 -218 -951
vn 497 66 -986
vn 95 23 -575
vn -559 4 -83
vn -75 -23 563
vn 974 28 468
vn 376 -269 -385
vn 566 -4 71
vn 667 -127 813
vn -843 -134 653
vn -840 59 662
vn 688 35 821
vn 814 -154 -700
vn 525 -172 -199
vn 191 -183 525
vn -528 -179 190
vn -681 -121 -832
vn -643 92 -850
vn -469 13 -319
vn -304 -21 475
vn 483 -13 300
vn 855 78 -689
vn -202 -184 -520
vn 332 21 -483
vn -464 -256 468
vn -130 -512 746
vn -221 0 724
vn -616 0 234
vn -749 -1280 -95
vn 13 -1024 766
vn -13 0 767
vn 900 -768 30
vn -27 -1024 -96
vn -462 -512 -446
vn 245 -256 -383
vn 454 0 2
vn 450 0 15
vn -54 0 -192
vn -741 -512 -78
vn 748 -1533 -197
vn 588 -256 245
vn 755 0 -81
vn 408 0 490
vn 165 -512 745
vn 102 0 755
vn -730 0 -190
vn -213 0 -607
vn 225 -253 -628
vn -464 -509 -519
vn -253 0 -626
vn 474 0 -418
vn -714 0 -210
vn 505 -369 258
vn -249 -116 503
vn -504 -410 -251
vn 254 -174 -512
vn 697 747 -500
vn 541 756 759
vn -643 685 646
vn -610 634 -594
vn -681 655 -491
vn 560 781 -546
vn 647 518 657
vn -622 385 743
vn -791 -281 696
vn -800 -444 -869
vn 750 -286 -808
vn 719 -641 621
vn 769 -145 677
vn -767 -370 601
vn 767 284 -630
vn 768 667 -343
vn 768 -614 412
vn -768 -685 281
vn -770 74 -696
vn -768 605 -443
vn -768 742 -162
vn 768 755 -81
vn 768 -760 100
vn -768 -764 50
vn 640 119 1024
vn 218 648 256
vn -408 562 512
vn -640 -119 512
vn -218 -648 512
vn 408 -562 256
vn 626 -170 0
vn 436 528 0
vn -204 665 0
vn -626 170 0
vn -436 -528 0
vn 204 -665 0
vn 443 638 -1139
vn 955 565 -312
vn 458 2 -262
vn 131 -521 -524
vn -312 565 -955
vn -758 -504 -1189
vn 1189 -504 -758
vn 1139 638 443
vn 524 -521 131
vn -574 -1456 148
vn -296 -950 509
vn 148 -1456 574
vn -262 2 -458
vn -1139 638 -443
vn -1189 -504 758
vn -871 -1021 -765
vn -328 -328 -1021
vn 509 -509 -1127
vn 1021 -328 -328
vn 1127 -509 509
vn 758 -504 1189
vn 312 565 955
vn 262 2 458
vn -148 -1456 -574
vn -509 -950 -296
vn -574 -944 -148
vn -509 -694 296
vn -148 -1968 574
vn 296 -694 509
vn 509 -950 296
vn -524 -521 -131
vn -955 565 312
vn -443 638 1139
vn -509 -509 1127
vn -509 -584 840
vn 114 -741 768
vn 228 -714 -768
vn -509 584 -840
vn -509 509 -1127
vn 328 328 -1021
vn 1127 509 -509
vn 1021 328 328
vn 509 509 1127
vn 328 -328 1021
vn -328 328 1021
vn -871 1021 765
vn -284 682 768
vn -600 441 768
vn 466 -553 768
vn 590 -419 -768
vn -142 725 -768
vn -509 946 -328
vn 328 1202 -509
vn 509 946 328
vn -328 1202 509
vn -131 -521 524
vn 296 -950 -509
vn 148 -944 -574
vn -296 -950 -509
vn -458 2 262
vn 574 -1456 -148
vn 509 -950 -296
vn 574 -944 148
vn 712 -479 -655
vn 655 -479 712
vn 512 0 256
vn 256 0 -512
vn -655 -479 -712
vn -711 -478 -655
vn 655 -478 -711
vn 711 -478 655
vn -712 -479 655
vn -256 0 512
vn -512 0 -256
vn -655 -478 711
vn -512 0 256
vn -256 0 -512
vn 512 0 -256
vn 256 0 512
vn 849 -243 -512
vn 540 458 -256
vn -572 457 -768
vn 400 -581 -768
vn 930 -486 256
vn 768 -256 768
vn 768 -512 -768
vn 768 0 -768
vn 654 229 512
vn -457 572 768
vn -513 540 -768
vn 557 -433 768
vn 768 0 768
vn 512 0 768
vn 256 -256 768
vn -512 -512 768
vn -256 -256 -768
vn -512 -256 -768
vn 256 -512 -768
vn 512 256 -768
vn -512 0 -768
vn -256 512 -768
vn -256 0 768
vn -512 -512 768
vn -256 0 768
vn -256 -256 -768
vn -512 0 -768
vn 512 -512 -768
vn 256 0 -768
vn 1280 0 -1280
vn 768 -239 -679
vn -512 -478 -590
vn -768 0 -1024
vn -256 0 -512
vn 512 0 -256
vn 1024 0 768
vn 999 256 512
vn 462 512 -256
vn 804 -253 -512
vn 840 -506 256
vn 768 -478 434
vn -256 -239 601
vn -768 0 768
vn -512 0 256
vn 504 -465 768
vn -232 694 768
vn -389 620 -768
vn 306 -612 -768
vn 713 -131 -768
vn 724 56 768
vn -609 283 768
vn -672 20 -768
vn -245 -81 -512
vn 490 162 -256
vn 245 81 512
vn -490 -162 256
vn -512 -256 -256
vn -256 -512 512
vn -512 0 256
vn -256 0 -512
vn 256 -512 -512
vn 512 -256 256
vn 256 0 512
vn 512 0 -256
vn 256 0 512
vn -640 -1024 -119
vn -218 -256 -648
vn 408 -512 -562
vn 640 -512 119
vn 218 -512 648
vn -408 -256 562
vn -626 0 170
vn -436 0 -528
vn 204 0 -665
vn 626 0 -170
vn 436 0 528
vn -204 0 665
vn 0 -480 180
vn 0 -240 90
vn 0 -480 180
vn 0 -240 90
vn 0 -480 180
vn 0 -240 90
vn 0 -480 180
vn 0 -240 90
vn 0 -480 180
vn 0 -240 90
vn 0 -480 180
vn 0 -240 90
vn 0 -480 180
vn 0 -240 90
vn 0 -480 180
vn 0 -240 90
usemtl m0
f 1 2 3

usemtl m1
f 1 3 4

usemtl m2
f 1 4 5

usemtl m3
f 1 5 6

usemtl m4
f 1 6 7

usemtl m5
f 1 7 2

usemtl m6
f 2 7 8

usemtl m7
f 2 8 9

usemtl m8
f 2 9 10

usemtl m9
f 2 10 3

usemtl m10
f 3 10 11

usemtl m11
f 3 11 12

usemtl m12
f 3 12 4

usemtl m13
f 4 12 13

usemtl m14
f 4 13 14

usemtl m15
f 4 14 5

usemtl m16
f 5 14 9

usemtl m17
f 5 9 15

usemtl m18
f 5 15 6

usemtl m19
f 9 14 10

usemtl m20
f 10 14 16

usemtl m21
f 10 16 11

usemtl m22
f 9 8 15

usemtl m23
f 17 18 19

usemtl m24
f 17 19 20

usemtl m25
f 17 20 21

usemtl m26
f 17 21 22

usemtl m27
f 17 22 23

usemtl m28
f 17 23 18

usemtl m29
f 18 23 24

usemtl m30
f 18 24 25

usemtl m31
f 18 25 26

usemtl m32
f 18 26 19

usemtl m33
f 19 26 27

usemtl m34
f 19 27 28

usemtl m35
f 19 28 20

usemtl m36
f 20 28 29

usemtl m37
f 20 29 30

usemtl m38
f 20 30 21

usemtl m39
f 21 30 25

usemtl m40
f 21 25 31

usemtl m41
f 21 31 22

usemtl m42
f 25 30 26

usemtl m43
f 26 30 32

usemtl m44
f 26 32 27

usemtl m45
f 25 24 31

usemtl m46
f 33 34 35

usemtl m47
f 33 35 36

usemtl m48
f 33 36 37

usemtl m49
f 33 37 38

usemtl m50
f 33 38 39

usemtl m51
f 33 39 34

usemtl m52
f 34 39 40

usemtl m53
f 34 40 41

usemtl m54
f 34 41 42

usemtl m55
f 34 42 35

usemtl m56
f 35 42 43

usemtl m57
f 35 43 44

usemtl m58
f 35 44 36

usemtl m59
f 36 44 45

usemtl m60
f 36 45 46

usemtl m61
f 36 46 37

usemtl m62
f 37 46 41

usemtl m63
f 37 41 47

usemtl m64
f 37 47 38

usemtl m65
f 41 46 42

usemtl m66
f 42 46 48

usemtl m67
f 42 48 43

usemtl m68
f 41 40 47

usemtl m69
f 49 50 51

usemtl m70
f 49 51 52

usemtl m71
f 49 52 53

usemtl m72
f 49 53 54

usemtl m73
f 49 54 55

usemtl m74
f 49 55 50

usemtl m75
f 50 55 56

usemtl m76
f 50 56 57

usemtl m77
f 50 57 58

usemtl m78
f 50 58 51

usemtl m79
f 51 58 59

usemtl m80
f 51 59 60

usemtl m81
f 51 60 52

usemtl m82
f 52 60 61

usemtl m83
f 52 61 62

usemtl m84
f 52 62 53

usemtl m85
f 53 62 57

usemtl m86
f 53 57 63

usemtl m87
f 53 63 54

usemtl m88
f 57 62 58

usemtl m89
f 58 62 64

usemtl m90
f 58 64 59

usemtl m91
f 57 56 63

usemtl m92
f 65 66 67

usemtl m93
f 65 67 68

usemtl m94
f 65 68 69

usemtl m95
f 65 69 66

usemtl m96
f 66 69 70

usemtl m97
f 66 70 71

usemtl m98
f 66 71 67

usemtl m99
f 72 73 69

usemtl m100
f 72 69 74

usemtl m101
f 72 74 75

usemtl m102
f 72 75 76

usemtl m103
f 72 76 77

usemtl m104
f 72 77 78

usemtl m105
f 72 78 73

usemtl m106
f 73 78 79

usemtl m107
f 73 79 80

usemtl m108
f 73 80 70

usemtl m109
f 73 70 69

usemtl m110
f 81 80 82

usemtl m111
f 81 82 83

usemtl m112
f 81 83 84

usemtl m113
f 81 84 80

usemtl m114
f 80 84 70

usemtl m115
f 70 84 85

usemtl m116
f 70 85 71

usemtl m117
f 86 69 68

usemtl m118
f 69 86 74

usemtl m119
f 74 86 87

usemtl m120
f 74 87 75

usemtl m121
f 75 87 76

usemtl m122
f 88 89 90

usemtl m123
f 88 90 91

usemtl m124
f 88 91 80

usemtl m125
f 88 80 89

usemtl m126
f 89 80 79

usemtl m127
f 89 79 92

usemtl m128
f 89 92 90

usemtl m129
f 82 80 91

usemtl m130
f 79 78 92

usemtl m131
f 85 84 83

usemtl m132
f 14 13 16

usemtl m133
f 30 29 32

usemtl m134
f 46 45 48

usemtl m135
f 62 61 64

usemtl m136
f 93 94 95

usemtl m137
f 93 95 96

usemtl m138
f 93 96 97

usemtl m139
f 93 97 98

usemtl m140
f 93 98 94

usemtl m141
f 94 98 99

usemtl m142
f 94 99 95

usemtl m143
f 95 99 100

usemtl m144
f 95 100 96

usemtl m145
f 96 100 97

usemtl m146
f 97 100 101

usemtl m147
f 97 101 102

usemtl m148
f 97 102 98

usemtl m149
f 98 102 103

usemtl m150
f 98 103 99

usemtl m151
f 99 103 104

usemtl m152
f 99 104 100

usemtl m153
f 100 104 101

usemtl m154
f 101 104 105

usemtl m155
f 101 105 106

usemtl m156
f 101 106 102

usemtl m157
f 102 106 107

usemtl m158
f 102 107 103

usemtl m159
f 103 107 108

usemtl m160
f 103 108 104

usemtl m161
f 104 108 105

usemtl m162
f 105 108 109

usemtl m163
f 105 109 110

usemtl m164
f 105 110 106

usemtl m165
f 105 106 108

usemtl m166
f 108 106 107

usemtl m167
f 108 107 111

usemtl m168
f 108 111 109

usemtl m169
f 109 111 112

usemtl m170
f 109 112 113

usemtl m171
f 109 113 110

usemtl m172
f 110 113 114

usemtl m173
f 110 114 115

usemtl m174
f 110 115 106

usemtl m175
f 106 115 107

usemtl m176
f 107 115 111

usemtl m177
f 111 115 116

usemtl m178
f 111 116 112

usemtl m179
f 112 116 117

usemtl m180
f 112 117 118

usemtl m181
f 112 118 113

usemtl m182
f 113 118 119

usemtl m183
f 113 119 114

usemtl m184
f 114 119 120

usemtl m185
f 114 120 116

usemtl m186
f 114 116 115

usemtl m187
f 121 122 123

usemtl m188
f 121 123 124

usemtl m189
f 121 124 125

usemtl m190
f 121 125 126

usemtl m191
f 121 126 127

usemtl m192
f 121 127 128

usemtl m193
f 121 128 122

usemtl m194
f 122 128 129

usemtl m195
f 122 129 123

usemtl m196
f 123 129 130

usemtl m197
f 123 130 124

usemtl m198
f 124 130 131

usemtl m199
f 124 131 125

usemtl m200
f 125 131 132

usemtl m201
f 125 132 126

usemtl m202
f 126 132 127

usemtl m203
f 133 134 135

usemtl m204
f 133 135 136

usemtl m205
f 133 136 137

usemtl m206
f 133 137 138

usemtl m207
f 133 138 139

usemtl m208
f 133 139 134

usemtl m209
f 134 139 140

usemtl m210
f 134 140 141

usemtl m211
f 134 141 135

usemtl m212
f 135 141 142

usemtl m213
f 135 142 136

usemtl m214
f 136 142 143

usemtl m215
f 136 143 144

usemtl m216
f 136 144 145

usemtl m217
f 136 145 137

usemtl m218
f 137 145 146

usemtl m219
f 137 146 138

usemtl m220
f 138 146 147

usemtl m221
f 138 147 148

usemtl m222
f 138 148 149

usemtl m223
f 138 149 150

usemtl m224
f 138 150 139

usemtl m225
f 139 150 151

usemtl m226
f 139 151 152

usemtl m227
f 139 152 153

usemtl m228
f 139 153 140

usemtl m229
f 140 153 154

usemtl m230
f 140 154 155

usemtl m231
f 140 155 141

usemtl m232
f 141 155 156

usemtl m233
f 141 156 157

usemtl m234
f 141 157 142

usemtl m235
f 142 157 158

usemtl m236
f 142 158 159

usemtl m237
f 142 159 143

usemtl m238
f 143 159 160

usemtl m239
f 143 160 144

usemtl m240
f 144 160 161

usemtl m241
f 144 161 162

usemtl m242
f 144 162 163

usemtl m243
f 144 163 145

usemtl m244
f 145 163 146

usemtl m245
f 146 163 164

usemtl m246
f 146 164 147

usemtl m247
f 147 164 165

usemtl m248
f 147 165 153

usemtl m249
f 147 153 166

usemtl m250
f 147 166 167

usemtl m251
f 147 167 148

usemtl m252
f 148 167 168

usemtl m253
f 148 168 169

usemtl m254
f 148 169 170

usemtl m255
f 148 170 171

usemtl m256
f 148 171 149

usemtl m257
f 149 171 172

usemtl m258
f 149 172 150

usemtl m259
f 150 172 173

usemtl m260
f 150 173 151

usemtl m261
f 151 173 174

usemtl m262
f 151 174 152

usemtl m263
f 152 174 175

usemtl m264
f 152 175 176

usemtl m265
f 152 176 153

usemtl m266
f 153 176 166

usemtl m267
f 166 176 177

usemtl m268
f 166 177 178

usemtl m269
f 166 178 167

usemtl m270
f 167 178 179

usemtl m271
f 167 179 168

usemtl m272
f 168 179 180

usemtl m273
f 168 180 181

usemtl m274
f 168 181 169

usemtl m275
f 169 181 182

usemtl m276
f 169 182 183

usemtl m277
f 169 183 170

usemtl m278
f 170 183 178

usemtl m279
f 170 178 184

usemtl m280
f 170 184 171

usemtl m281
f 171 184 185

usemtl m282
f 171 185 172

usemtl m283
f 172 185 173

usemtl m284
f 173 185 186

usemtl m285
f 173 186 174

usemtl m286
f 174 186 175

usemtl m287
f 175 186 187

usemtl m288
f 175 187 177

usemtl m289
f 175 177 176

usemtl m290
f 154 165 188

usemtl m291
f 154 188 155

usemtl m292
f 155 188 156

usemtl m293
f 156 188 189

usemtl m294
f 156 189 190

usemtl m295
f 156 190 191

usemtl m296
f 156 191 157

usemtl m297
f 157 191 158

usemtl m298
f 158 191 160

usemtl m299
f 158 160 159

usemtl m300
f 165 164 192

usemtl m301
f 165 192 188

usemtl m302
f 188 192 193

usemtl m303
f 188 193 189

usemtl m304
f 189 193 194

usemtl m305
f 189 194 190

usemtl m306
f 190 194 160

usemtl m307
f 190 160 191

usemtl m308
f 164 163 192

usemtl m309
f 192 163 193

usemtl m310
f 193 163 162

usemtl m311
f 193 162 195

usemtl m312
f 193 195 194

usemtl m313
f 194 195 160

usemtl m314
f 160 195 161

usemtl m315
f 161 195 162

usemtl m316
f 196 197 198

usemtl m317
f 196 198 199

usemtl m318
f 196 199 200

usemtl m319
f 196 200 201

usemtl m320
f 196 201 202

usemtl m321
f 196 202 197

usemtl m322
f 197 202 203

usemtl m323
f 197 203 204

usemtl m324
f 197 204 205

usemtl m325
f 197 205 198

usemtl m326
f 204 200 206

usemtl m327
f 204 206 205

usemtl m328
f 200 199 206

usemtl m329
f 203 207 204

usemtl m330
f 204 207 200

usemtl m331
f 200 207 201

usemtl m332
f 201 207 208

usemtl m333
f 201 208 209

usemtl m334
f 201 209 202

usemtl m335
f 202 209 210

usemtl m336
f 202 210 203

usemtl m337
f 203 210 211

usemtl m338
f 203 211 207

usemtl m339
f 207 211 208

usemtl m340
f 212 213 214

usemtl m341
f 212 214 215

usemtl m342
f 212 215 216

usemtl m343
f 212 216 217

usemtl m344
f 212 217 218

usemtl m345
f 212 218 213

usemtl m346
f 213 218 219

usemtl m347
f 213 219 220

usemtl m348
f 213 220 221

usemtl m349
f 213 221 214

usemtl m350
f 214 221 180

usemtl m351
f 214 180 222

usemtl m352
f 214 222 215

usemtl m353
f 215 222 182

usemtl m354
f 215 182 223

usemtl m355
f 215 223 216

usemtl m356
f 216 223 220

usemtl m357
f 216 220 224

usemtl m358
f 216 224 217

usemtl m359
f 217 224 225

usemtl m360
f 217 225 226

usemtl m361
f 217 226 227

usemtl m362
f 217 227 218

usemtl m363
f 218 227 228

usemtl m364
f 218 228 229

usemtl m365
f 218 229 230

usemtl m366
f 218 230 219

usemtl m367
f 219 230 231

usemtl m368
f 219 231 232

usemtl m369
f 232 231 233

usemtl m370
f 232 233 228

usemtl m371
f 232 228 227

usemtl m372
f 232 227 234

usemtl m373
f 234 227 235

usemtl m374
f 234 235 236

usemtl m375
f 234 236 224

usemtl m376
f 224 236 225

usemtl m377
f 182 181 223

usemtl m378
f 223 181 221

usemtl m379
f 223 221 220

usemtl m380
f 181 180 221

usemtl m381
f 235 237 238

usemtl m382
f 235 238 236

usemtl m383
f 239 237 235

usemtl m384
f 239 235 226

usemtl m385
f 239 226 225

usemtl m386
f 239 225 240

usemtl m387
f 239 240 241

usemtl m388
f 239 241 242

usemtl m389
f 239 242 237

usemtl m390
f 237 242 243

usemtl m391
f 237 243 238

usemtl m392
f 238 243 244

usemtl m393
f 238 244 240

usemtl m394
f 240 244 241

usemtl m395
f 241 244 245

usemtl m396
f 241 245 246

usemtl m397
f 241 246 247

usemtl m398
f 241 247 248

usemtl m399
f 241 248 249

usemtl m400
f 241 249 250

usemtl m401
f 241 250 242

usemtl m402
f 242 250 251

usemtl m403
f 242 251 252

usemtl m404
f 242 252 243

usemtl m405
f 243 252 253

usemtl m406
f 243 253 254

usemtl m407
f 243 254 244

usemtl m408
f 244 254 255

usemtl m409
f 244 255 245

usemtl m410
f 227 226 235

usemtl m411
f 220 219 224

usemtl m412
f 228 233 229

usemtl m413
f 229 233 117

usemtl m414
f 229 117 120

usemtl m415
f 229 120 230

usemtl m416
f 230 120 119

usemtl m417
f 230 119 231

usemtl m418
f 231 119 118

usemtl m419
f 231 118 233

usemtl m420
f 233 118 117

usemtl m421
f 248 247 252

usemtl m422
f 248 252 251

usemtl m423
f 248 251 256

usemtl m424
f 248 256 257

usemtl m425
f 248 257 249

usemtl m426
f 249 257 258

usemtl m427
f 249 258 250

usemtl m428
f 250 258 259

usemtl m429
f 250 259 251

usemtl m430
f 251 259 256

usemtl m431
f 256 259 260

usemtl m432
f 256 260 261

usemtl m433
f 256 261 257

usemtl m434
f 257 261 262

usemtl m435
f 257 262 258

usemtl m436
f 258 262 263

usemtl m437
f 258 263 259

usemtl m438
f 259 263 260

usemtl m439
f 260 263 264

usemtl m440
f 260 264 265

usemtl m441
f 260 265 261

usemtl m442
f 261 265 266

usemtl m443
f 261 266 262

usemtl m444
f 262 266 267

usemtl m445
f 262 267 263

usemtl m446
f 263 267 264

usemtl m447
f 247 254 253

usemtl m448
f 247 253 252

usemtl m449
f 268 269 270

usemtl m450
f 268 270 271

usemtl m451
f 268 271 272

usemtl m452
f 268 272 269

usemtl m453
f 269 272 273

usemtl m454
f 269 273 274

usemtl m455
f 269 274 270

usemtl m456
f 273 272 275

usemtl m457
f 273 275 274

usemtl m458
f 272 271 275

usemtl m459
f 153 165 154

usemtl m460
f 185 184 187

usemtl m461
f 185 187 186

usemtl m462
f 184 178 187

usemtl m463
f 187 178 177

usemtl m464
f 247 246 276

usemtl m465
f 247 276 254

usemtl m466
f 254 276 255

usemtl m467
f 182 222 183

usemtl m468
f 183 222 179

usemtl m469
f 183 179 178

usemtl m470
f 222 180 179

usemtl m471
f 277 278 279

usemtl m472
f 277 279 280

usemtl m473
f 277 280 281

usemtl m474
f 277 281 282

usemtl m475
f 277 282 283

usemtl m476
f 277 283 284

usemtl m477
f 277 284 278

usemtl m478
f 278 284 285

usemtl m479
f 278 285 279

usemtl m480
f 279 285 286

usemtl m481
f 279 286 280

usemtl m482
f 280 286 287

usemtl m483
f 280 287 281

usemtl m484
f 281 287 288

usemtl m485
f 281 288 282

usemtl m486
f 282 288 283

usemtl m487
f 289 290 291

usemtl m488
f 289 291 292

usemtl m489
f 293 294 295

usemtl m490
f 293 295 296

usemtl m491
f 297 298 299

usemtl m492
f 297 299 300

usemtl m493
f 301 302 303

usemtl m494
f 301 303 304

usemtl m495
f 116 120 117

