mtllib 23699.mtl
o runescapemodel
v 10 151 44
v 13 153 44
v 13 155 44
v 1 155 44
v 3 151 44
v -10 151 44
v -13 155 44
v -13 153 44
v -13 162 31
v -13 156 33
v -8 162 40
v -6 163 37
v -5 171 34
v -5 171 25
v -5 165 17
v -13 159 23
v -15 167 24
v -16 167 24
v -14 161 31
v -14 156 33
v -13 153 31
v -12 155 38
v -8 161 40
v -3 162 40
v 6 163 37
v 5 171 34
v 5 171 25
v 5 165 17
v 5 150 15
v -5 150 15
v -13 153 26
v -16 153 26
v -16 159 23
v -17 166 20
v -15 166 20
v -20 172 18
v -20 171 19
v -14 152 31
v -9 146 24
v -11 145 36
v -8 150 42
v -8 151 42
v -11 155 38
v -9 155 41
v -8 158 42
v -3 161 40
v 0 155 42
v 3 162 40
v 8 162 40
v 13 162 31
v 13 159 23
v 13 153 26
v 9 146 24
v 13 153 31
v 11 145 36
v 6 139 27
v 3 137 36
v -6 139 27
v -3 137 36
v -3 155 43
v -8 153 42
v -4 153 43
v -3 151 42
v -1 155 42
v -4 158 42
v -3 150 42
v -1 148 45
v 0 150 45
v 1 148 45
v 3 150 42
v 3 151 42
v 1 155 42
v 3 161 40
v 8 161 40
v 12 155 38
v 13 156 33
v 14 161 31
v 16 167 24
v 15 167 24
v 15 166 20
v 17 166 20
v 16 159 23
v 16 153 26
v 14 152 31
v 14 156 33
v 8 150 42
v 8 145 39
v 3 142 41
v 5 138 40
v 0 136 42
v -5 138 40
v -3 142 41
v -8 145 39
v -5 144 40
v 9 155 41
v 7 158 42
v 3 155 43
v 8 153 42
v 8 151 42
v 11 155 38
v 4 158 42
v 4 153 43
v 5 144 40
v 3 147 42
v -3 147 42
v -2 146 44
v 0 147 46
v 2 146 44
v 2 139 44
v -2 139 44
v 20 171 19
v 20 172 18
v -3 151 44
v -3 155 44
v -1 155 44
vn 0 0 -768
vn -256 0 -256
vn 256 0 -512
vn 0 0 -512
vn 0 0 -256
vn 0 0 -768
vn 256 0 -512
vn -256 0 -256
vn -1272 -1363 -745
vn -532 -137 -1003
vn -642 -654 -824
vn -232 -1020 -863
vn -357 -859 -418
vn -398 -956 397
vn -548 -589 1010
vn -55 176 1373
vn 660 -903 -434
vn -612 -466 -645
vn -980 -342 -866
vn -378 196 -868
vn -659 760 -555
vn -1271 -115 -1221
vn -593 -171 -1461
vn -170 -832 -1271
vn 232 -1186 -708
vn 357 -693 -658
vn 398 -1008 244
vn 548 -760 909
vn 579 56 963
vn -579 89 709
vn -456 828 542
vn -230 435 409
vn -984 176 208
vn -915 572 682
vn 449 -32 548
vn -39 -99 265
vn -455 -130 -280
vn -176 537 -351
vn -892 413 222
vn -1734 891 -610
vn -683 352 -1475
vn -472 -88 -1305
vn -632 -141 -898
vn -842 -103 -848
vn -336 -376 -1015
vn -61 -482 -1419
vn -170 -621 -2462
vn 256 -656 -1188
vn 642 -654 -1080
vn 760 -1363 -745
vn 55 176 1373
vn 456 828 542
vn 892 413 222
vn 659 760 -555
vn 1734 891 -610
vn 405 547 82
vn 460 1356 168
vn -405 798 137
vn -460 1105 113
vn 128 -131 -1692
vn -629 -74 -1047
vn 0 148 -1000
vn 241 236 -1483
vn 331 -247 -1433
vn 218 -449 -913
vn -818 -43 -1666
vn -924 -306 -939
vn 0 -362 -832
vn 1206 -332 -1092
vn 588 -18 -1538
vn -185 262 -1734
vn 34 -126 -1214
vn 38 -360 -1419
vn 328 -254 -1377
vn 1067 -81 -1026
vn 1044 -137 -1003
vn 980 -342 -866
vn 612 -466 -645
vn -660 -903 -434
vn -449 -32 548
vn 915 572 682
vn 984 176 208
vn 230 435 409
vn 176 537 -351
vn 378 196 -868
vn 683 182 -1381
vn 490 310 -777
vn 563 -487 -1384
vn 754 515 -467
vn 0 1232 -475
vn -754 515 -467
vn -563 -411 -1424
vn -490 310 -777
vn -363 165 -1342
vn 842 -127 -1019
vn 489 -349 -1033
vn -237 -267 -1911
vn 454 32 -1231
vn 679 18 -1323
vn 832 -204 -1073
vn -109 -489 -918
vn -8 174 -739
vn 363 193 -1797
vn 678 587 -471
vn -448 524 -634
vn -652 723 -355
vn 0 86 -1024
vn 448 461 -345
vn 341 62 -693
vn -341 -122 -877
vn 455 -130 -280
vn 39 -99 265
vn 0 0 -512
vn 0 0 -768
vn 0 0 -256
usemtl m0
f 1 2 3

usemtl m1
f 1 3 4

usemtl m2
f 1 4 5

usemtl m3
f 6 7 8

usemtl m4
f 8 7 9

usemtl m5
f 8 9 10

usemtl m6
f 8 10 7

usemtl m7
f 7 10 9

usemtl m8
f 9 10 11

usemtl m9
f 9 11 12

usemtl m10
f 9 12 13

usemtl m11
f 9 13 14

usemtl m12
f 9 14 15

usemtl m13
f 9 15 16

usemtl m14
f 9 16 17

usemtl m15
f 9 17 18

usemtl m16
f 9 18 19

usemtl m17
f 9 19 10

usemtl m18
f 10 19 20

usemtl m19
f 10 20 21

usemtl m20
f 10 21 22

usemtl m21
f 10 22 11

usemtl m22
f 11 22 23

usemtl m23
f 11 23 24

usemtl m24
f 11 24 12

usemtl m25
f 12 24 25

usemtl m26
f 12 25 26

usemtl m27
f 12 26 13

usemtl m28
f 13 26 27

usemtl m29
f 13 27 14

usemtl m30
f 14 27 28

usemtl m31
f 14 28 15

usemtl m32
f 15 28 29

usemtl m33
f 15 29 30

usemtl m34
f 15 30 16

usemtl m35
f 16 30 31

usemtl m36
f 16 31 32

usemtl m37
f 16 32 33

usemtl m38
f 16 33 34

usemtl m39
f 16 34 35

usemtl m40
f 16 35 17

usemtl m41
f 17 35 36

usemtl m42
f 17 36 37

usemtl m43
f 17 37 18

usemtl m44
f 18 37 34

usemtl m45
f 18 34 19

usemtl m46
f 19 34 33

usemtl m47
f 19 33 20

usemtl m48
f 20 33 38

usemtl m49
f 20 38 21

usemtl m50
f 21 38 31

usemtl m51
f 21 31 39

usemtl m52
f 21 39 40

usemtl m53
f 21 40 22

usemtl m54
f 22 40 41

usemtl m55
f 22 41 42

usemtl m56
f 22 42 43

usemtl m57
f 22 43 23

usemtl m58
f 23 43 44

usemtl m59
f 23 44 45

usemtl m60
f 23 45 46

usemtl m61
f 23 46 24

usemtl m62
f 24 46 47

usemtl m63
f 24 47 48

usemtl m64
f 24 48 25

usemtl m65
f 25 48 49

usemtl m66
f 25 49 50

usemtl m67
f 25 50 26

usemtl m68
f 26 50 27

usemtl m69
f 27 50 28

usemtl m70
f 28 50 51

usemtl m71
f 28 51 29

usemtl m72
f 29 51 52

usemtl m73
f 29 52 53

usemtl m74
f 53 52 54

usemtl m75
f 53 54 55

usemtl m76
f 53 55 56

usemtl m77
f 56 55 57

usemtl m78
f 56 57 58

usemtl m79
f 58 57 59

usemtl m80
f 58 59 40

usemtl m81
f 58 40 39

usemtl m82
f 60 45 44

usemtl m83
f 60 44 61

usemtl m84
f 60 61 62

usemtl m85
f 60 62 63

usemtl m86
f 60 63 64

usemtl m87
f 60 64 65

usemtl m88
f 60 65 45

usemtl m89
f 45 65 46

usemtl m90
f 46 65 64

usemtl m91
f 46 64 47

usemtl m92
f 47 64 66

usemtl m93
f 47 66 67

usemtl m94
f 47 67 68

usemtl m95
f 47 68 69

usemtl m96
f 47 69 70

usemtl m97
f 47 70 71

usemtl m98
f 47 71 72

usemtl m99
f 47 72 48

usemtl m100
f 48 72 73

usemtl m101
f 48 73 49

usemtl m102
f 49 73 74

usemtl m103
f 49 74 75

usemtl m104
f 49 75 76

usemtl m105
f 49 76 50

usemtl m106
f 50 76 77

usemtl m107
f 50 77 78

usemtl m108
f 50 78 79

usemtl m109
f 50 79 51

usemtl m110
f 51 79 80

usemtl m111
f 51 80 81

usemtl m112
f 51 81 82

usemtl m113
f 51 82 83

usemtl m114
f 51 83 52

usemtl m115
f 52 83 84

usemtl m116
f 52 84 54

usemtl m117
f 54 84 85

usemtl m118
f 54 85 76

usemtl m119
f 54 76 75

usemtl m120
f 54 75 55

usemtl m121
f 55 75 86

usemtl m122
f 55 86 87

usemtl m123
f 55 87 88

usemtl m124
f 55 88 89

usemtl m125
f 55 89 57

usemtl m126
f 57 89 90

usemtl m127
f 57 90 59

usemtl m128
f 59 90 91

usemtl m129
f 59 91 40

usemtl m130
f 40 91 92

usemtl m131
f 40 92 93

usemtl m132
f 40 93 41

usemtl m133
f 41 93 94

usemtl m134
f 41 94 66

usemtl m135
f 41 66 63

usemtl m136
f 41 63 42

usemtl m137
f 42 63 62

usemtl m138
f 42 62 61

usemtl m139
f 42 61 43

usemtl m140
f 43 61 44

usemtl m141
f 95 96 97

usemtl m142
f 95 97 98

usemtl m143
f 95 98 99

usemtl m144
f 95 99 100

usemtl m145
f 95 100 96

usemtl m146
f 96 100 74

usemtl m147
f 96 74 101

usemtl m148
f 96 101 97

usemtl m149
f 97 101 73

usemtl m150
f 97 73 72

usemtl m151
f 97 72 71

usemtl m152
f 97 71 102

usemtl m153
f 97 102 98

usemtl m154
f 98 102 71

usemtl m155
f 98 71 99

usemtl m156
f 99 71 70

usemtl m157
f 99 70 86

usemtl m158
f 99 86 100

usemtl m159
f 100 86 75

usemtl m160
f 100 75 74

usemtl m161
f 101 74 73

usemtl m162
f 64 63 66

usemtl m163
f 103 94 92

usemtl m164
f 103 92 88

usemtl m165
f 103 88 87

usemtl m166
f 103 87 86

usemtl m167
f 103 86 70

usemtl m168
f 103 70 104

usemtl m169
f 103 104 105

usemtl m170
f 103 105 94

usemtl m171
f 94 105 66

usemtl m172
f 66 105 106

usemtl m173
f 66 106 67

usemtl m174
f 67 106 107

usemtl m175
f 67 107 68

usemtl m176
f 68 107 69

usemtl m177
f 69 107 108

usemtl m178
f 69 108 104

usemtl m179
f 69 104 70

usemtl m180
f 90 89 109

usemtl m181
f 90 109 110

usemtl m182
f 90 110 91

usemtl m183
f 91 110 92

usemtl m184
f 92 110 88

usemtl m185
f 88 110 109

usemtl m186
f 88 109 89

usemtl m187
f 38 32 31

usemtl m188
f 32 38 33

usemtl m189
f 31 30 39

usemtl m190
f 107 106 108

usemtl m191
f 108 106 104

usemtl m192
f 104 106 105

usemtl m193
f 34 37 36

usemtl m194
f 34 36 35

usemtl m195
f 79 78 111

usemtl m196
f 79 111 112

usemtl m197
f 79 112 80

usemtl m198
f 80 112 81

usemtl m199
f 81 112 111

usemtl m200
f 81 111 78

usemtl m201
f 81 78 77

usemtl m202
f 81 77 82

usemtl m203
f 82 77 85

usemtl m204
f 82 85 84

usemtl m205
f 82 84 83

usemtl m206
f 77 76 85

usemtl m207
f 92 94 93

usemtl m208
f 6 113 114

usemtl m209
f 6 114 7

usemtl m210
f 114 113 115

usemtl m211
f 76 50 3

usemtl m212
f 76 3 2

usemtl m213
f 76 2 50

usemtl m214
f 50 2 3

