mtllib 237.mtl
o runescapemodel
v -8 20 14
v -7 20 12
v -7 18 12
v -8 18 14
v -8 20 15
v -9 29 16
v -9 29 13
v -7 29 11
v -5 20 12
v -5 18 12
v -5 12 12
v -7 12 12
v -8 12 14
v -8 18 15
v -7 20 16
v -7 29 17
v -9 33 20
v -12 33 17
v -12 33 12
v -9 33 8
v -4 29 11
v -4 20 14
v -4 18 14
v -4 12 14
v -4 6 14
v -5 6 12
v -7 6 12
v -8 6 14
v -8 12 15
v -7 18 16
v -6 20 16
v -5 29 17
v -4 33 20
v -2 33 26
v -10 33 26
v 0 33 17
v 0 33 12
v -4 33 8
v -18 33 21
v -12 33 26
v -16 33 25
v -4 20 15
v -4 18 15
v -4 12 15
v -4 6 15
v -2 1 16
v -2 1 12
v -4 1 10
v -9 1 10
v -10 1 12
v -8 6 15
v -7 12 16
v -6 18 16
v -3 29 16
v 5 33 20
v 0 33 26
v 4 33 24
v -6 12 16
v -6 6 16
v -6 1 19
v -7 6 16
v -8 1 19
v -10 1 16
v -17 1 9
v -17 1 20
v -21 1 16
v -21 1 12
v 5 1 19
v 5 1 8
v 9 1 12
v 9 1 16
v 18 7 -2
v 16 7 -4
v 14 1 -3
v 17 1 0
v 20 7 -2
v 20 14 -2
v 18 14 -2
v 16 14 -4
v 17 7 -6
v 16 1 -8
v 19 7 -6
v 18 1 -9
v 20 7 -5
v 22 1 -7
v 28 1 -12
v 18 1 -17
v 23 1 -18
v 27 1 -17
v 20 7 -3
v 23 1 -2
v 22 1 0
v 20 14 -5
v 20 14 -3
v 19 14 -6
v 19 15 -6
v 20 15 -5
v 20 15 -3
v 17 14 -6
v 17 24 -2
v 15 24 -4
v 16 15 -4
v 18 15 -2
v 19 24 -1
v 19 28 3
v 14 28 0
v 12 28 -4
v 17 24 -7
v 17 15 -6
v 20 15 -2
v 20 24 -2
v 21 24 -3
v 21 24 -6
v 24 28 -8
v 25 28 -3
v 23 28 1
v 27 28 6
v 20 28 10
v 11 28 5
v 18 28 9
v 13 28 9
v 19 24 -7
v 19 28 -10
v 20 28 -17
v 27 28 -13
v 32 28 -4
v 29 28 -11
v 32 28 -9
v 7 1 3
v 17 1 8
v 12 1 9
v 8 1 8
v 31 28 -3
v 31 28 2
v 28 28 5
v 24 28 10
v 9 28 5
v 5 28 2
v 5 28 -2
v 5 28 -5
v 5 28 -9
v 9 28 -12
v 14 28 -8
v 11 28 -13
v 14 28 -17
v 19 28 -16
v 24 28 -17
v -9 7 -15
v -11 7 -17
v -13 1 -16
v -10 1 -13
v -7 7 -15
v -7 14 -15
v -9 14 -15
v -11 14 -17
v -10 7 -19
v -11 1 -21
v -8 7 -19
v -9 1 -22
v -7 7 -18
v -5 1 -20
v 1 1 -25
v -9 1 -30
v -4 1 -31
v 0 1 -30
v -7 7 -16
v -4 1 -15
v -5 1 -13
v -7 14 -18
v -7 14 -16
v -8 14 -19
v -8 15 -19
v -7 15 -18
v -7 15 -16
v -10 14 -19
v -10 24 -15
v -12 24 -17
v -11 15 -17
v -9 15 -15
v -8 24 -14
v -8 28 -10
v -13 28 -13
v -15 28 -17
v -10 24 -20
v -10 15 -19
v -7 15 -15
v -7 24 -15
v -6 24 -16
v -6 24 -19
v -3 28 -21
v -2 28 -16
v -4 28 -12
v 0 28 -7
v -7 28 -3
v -16 28 -8
v -9 28 -4
v -14 28 -4
v -8 24 -20
v -8 28 -23
v -7 28 -30
v 0 28 -26
v 5 28 -17
v 2 28 -24
v 5 28 -22
v -20 1 -10
v -10 1 -5
v -15 1 -4
v -19 1 -5
v 4 28 -16
v 4 28 -11
v 1 28 -8
v -3 28 -3
v -18 28 -8
v -22 28 -11
v -22 28 -15
v -22 28 -18
v -22 28 -22
v -18 28 -25
v -13 28 -21
v -16 28 -26
v -13 28 -30
v -8 28 -29
v -3 28 -30
v -3 29 13
v 6 33 10
v 6 33 18
v 8 33 14
v -1 33 3
v 4 33 4
v 5 33 9
v -11 33 2
v -7 33 0
v -3 33 2
v -18 33 9
v -17 33 4
v -13 33 3
v -18 33 19
v -20 33 15
v -18 33 11
v -6 33 28
vn -1510 94 371
vn -670 86 1195
vn -748 0 1142
vn -1496 0 364
vn -1331 87 -678
vn -1069 570 -553
vn -1235 549 456
vn -498 553 1175
vn 742 94 1139
vn 728 0 1132
vn 708 0 1122
vn -708 0 1122
vn -1476 0 354
vn -1472 0 -704
vn -704 77 -1472
vn -392 563 -1256
vn -238 -1060 -527
vn -561 203 -153
vn -518 -35 275
vn -157 -39 526
vn 687 495 1007
vn 1484 104 358
vn 1516 0 374
vn 1476 0 354
vn 1440 -327 342
vn 619 -332 1162
vn -685 -328 1100
vn -1430 -358 330
vn -1344 0 -576
vn -640 0 -1408
vn 358 104 -1484
vn 339 528 -1313
vn 122 203 -571
vn 0 256 0
vn 0 -256 0
vn 428 -78 -367
vn 559 -55 151
vn 378 -123 468
vn 0 -256 0
vn 0 256 0
vn 0 0 0
vn 1139 94 -742
vn 1132 0 -728
vn 1122 0 -708
vn 1139 -328 -645
vn 646 -41 -196
vn 626 -583 276
vn 170 -302 672
vn -426 -354 458
vn -712 -71 106
vn -1321 -308 -566
vn -576 0 -1344
vn 374 0 -1516
vn 996 538 -664
vn 0 256 0
vn 0 -256 0
vn 0 0 0
vn 354 0 -1476
vn 342 -420 -1429
vn 253 -365 -641
vn -566 -377 -1270
vn -192 -407 -616
vn -617 -577 -310
vn 0 0 0
vn 0 0 0
vn 0 256 0
vn 0 -256 0
vn 0 0 0
vn 0 0 0
vn 0 256 0
vn 0 -256 0
vn -528 -255 -1296
vn -1235 -220 -225
vn -572 24 -247
vn -170 -508 -673
vn 768 -252 -759
vn 768 0 -768
vn -632 0 -1400
vn -1432 0 -334
vn -804 -282 1058
vn -560 -226 421
vn 478 -322 1336
vn 0 -556 674
vn 1300 -327 616
vn 519 -44 437
vn 0 0 0
vn 0 0 0
vn 0 256 0
vn 0 -256 0
vn 1464 -322 -102
vn 680 -333 -54
vn 460 -286 -349
vn 1479 0 711
vn 1536 0 0
vn 654 0 1422
vn 704 77 1472
vn 1331 87 678
vn 1536 84 0
vn -750 0 1143
vn -806 554 -1074
vn -1141 512 -38
vn -1366 65 -253
vn -619 74 -1630
vn 205 586 -890
vn -102 246 -510
vn -433 -34 -403
vn -561 -69 116
vn -582 433 1125
vn -702 69 1155
vn 704 28 -960
vn 845 588 -1019
vn 1260 561 -326
vn 1011 557 630
vn 464 -20 232
vn 515 280 -215
vn 376 -990 -379
vn 0 256 0
vn 0 -256 0
vn 0 -256 0
vn 0 256 0
vn 0 0 0
vn 331 451 1334
vn 102 -55 596
vn 0 256 0
vn 0 -256 0
vn 0 -256 0
vn 0 256 0
vn 0 0 0
vn 0 0 0
vn 0 0 0
vn 0 256 0
vn 0 -256 0
vn 0 256 0
vn 0 0 0
vn 0 -256 0
vn 0 0 0
vn 0 256 0
vn 0 0 0
vn 0 -256 0
vn 0 256 0
vn 0 0 0
vn 0 -256 0
vn -264 -139 545
vn 0 256 0
vn 0 0 0
vn 0 -256 0
vn 0 0 0
vn -528 -255 -1296
vn -1235 -220 -225
vn -572 24 -247
vn -170 -508 -673
vn 768 -252 -759
vn 768 0 -768
vn -632 0 -1400
vn -1432 0 -334
vn -804 -282 1058
vn -560 -226 421
vn 478 -322 1336
vn 0 -556 674
vn 1300 -327 616
vn 519 -44 437
vn 0 0 0
vn 0 0 0
vn 0 256 0
vn 0 -256 0
vn 1464 -322 -102
vn 680 -333 -54
vn 460 -286 -349
vn 1479 0 711
vn 1536 0 0
vn 654 0 1422
vn 704 77 1472
vn 1331 87 678
vn 1536 84 0
vn -750 0 1143
vn -806 554 -1074
vn -1141 512 -38
vn -1366 65 -253
vn -619 74 -1630
vn 205 586 -890
vn -102 246 -510
vn -433 -34 -403
vn -561 -69 116
vn -582 433 1125
vn -702 69 1155
vn 704 28 -960
vn 845 588 -1019
vn 1260 561 -326
vn 1011 557 630
vn 464 -20 232
vn 515 280 -215
vn 376 -990 -379
vn 0 256 0
vn 0 -256 0
vn 0 -256 0
vn 0 256 0
vn 0 0 0
vn 331 451 1334
vn 102 -55 596
vn 0 256 0
vn 0 -256 0
vn 0 -256 0
vn 0 256 0
vn 0 0 0
vn 0 0 0
vn 0 0 0
vn 0 256 0
vn 0 -256 0
vn 0 256 0
vn 0 0 0
vn 0 -256 0
vn 0 0 0
vn 0 256 0
vn 0 0 0
vn 0 -256 0
vn 0 256 0
vn 0 0 0
vn 0 -256 0
vn -264 -139 545
vn 0 256 0
vn 0 0 0
vn 0 -256 0
vn 0 0 0
vn 1324 483 379
vn 0 256 0
vn 0 -256 0
vn 0 0 0
vn 0 256 0
vn 0 0 0
vn 0 -256 0
vn 0 256 0
vn 0 0 0
vn 0 -256 0
vn 0 256 0
vn 0 0 0
vn 0 -256 0
vn 0 256 0
vn 0 0 0
vn 0 -256 0
vn 0 0 0
usemtl m0
f 1 2 3

usemtl m1
f 1 3 4

usemtl m2
f 1 4 5

usemtl m3
f 1 5 6

usemtl m4
f 1 6 7

usemtl m5
f 1 7 2

usemtl m6
f 2 7 8

usemtl m7
f 2 8 9

usemtl m8
f 2 9 10

usemtl m9
f 2 10 3

usemtl m10
f 3 10 11

usemtl m11
f 3 11 12

usemtl m12
f 3 12 4

usemtl m13
f 4 12 13

usemtl m14
f 4 13 14

usemtl m15
f 4 14 5

usemtl m16
f 5 14 15

usemtl m17
f 5 15 16

usemtl m18
f 5 16 6

usemtl m19
f 6 16 17

usemtl m20
f 6 17 18

usemtl m21
f 6 18 7

usemtl m22
f 7 18 19

usemtl m23
f 7 19 8

usemtl m24
f 8 19 20

usemtl m25
f 8 20 21

usemtl m26
f 8 21 9

usemtl m27
f 9 21 22

usemtl m28
f 9 22 23

usemtl m29
f 9 23 10

usemtl m30
f 10 23 24

usemtl m31
f 10 24 11

usemtl m32
f 11 24 25

usemtl m33
f 11 25 26

usemtl m34
f 11 26 12

usemtl m35
f 12 26 27

usemtl m36
f 12 27 13

usemtl m37
f 13 27 28

usemtl m38
f 13 28 29

usemtl m39
f 13 29 14

usemtl m40
f 14 29 30

usemtl m41
f 14 30 15

usemtl m42
f 15 30 31

usemtl m43
f 15 31 32

usemtl m44
f 15 32 16

usemtl m45
f 16 32 33

usemtl m46
f 16 33 17

usemtl m47
f 17 33 34

usemtl m48
f 17 34 35

usemtl m49
f 17 35 33

usemtl m50
f 17 33 36

usemtl m51
f 17 36 37

usemtl m52
f 17 37 38

usemtl m53
f 17 38 20

usemtl m54
f 17 20 19

usemtl m55
f 17 19 18

usemtl m56
f 17 18 39

usemtl m57
f 17 39 40

usemtl m58
f 17 40 18

usemtl m59
f 18 40 39

usemtl m60
f 39 40 41

usemtl m61
f 39 41 40

usemtl m62
f 22 42 43

usemtl m63
f 22 43 23

usemtl m64
f 23 43 44

usemtl m65
f 23 44 24

usemtl m66
f 24 44 45

usemtl m67
f 24 45 25

usemtl m68
f 25 45 46

usemtl m69
f 25 46 47

usemtl m70
f 25 47 26

usemtl m71
f 26 47 48

usemtl m72
f 26 48 27

usemtl m73
f 27 48 49

usemtl m74
f 27 49 28

usemtl m75
f 28 49 50

usemtl m76
f 28 50 51

usemtl m77
f 28 51 29

usemtl m78
f 29 51 52

usemtl m79
f 29 52 30

usemtl m80
f 30 52 53

usemtl m81
f 30 53 31

usemtl m82
f 31 53 42

usemtl m83
f 31 42 54

usemtl m84
f 31 54 32

usemtl m85
f 32 54 36

usemtl m86
f 32 36 33

usemtl m87
f 33 36 55

usemtl m88
f 33 55 56

usemtl m89
f 33 56 36

usemtl m90
f 36 56 55

usemtl m91
f 55 56 57

usemtl m92
f 55 57 56

usemtl m93
f 42 53 43

usemtl m94
f 43 53 58

usemtl m95
f 43 58 44

usemtl m96
f 44 58 59

usemtl m97
f 44 59 45

usemtl m98
f 45 59 60

usemtl m99
f 45 60 46

usemtl m100
f 53 52 58

usemtl m101
f 58 52 61

usemtl m102
f 58 61 59

usemtl m103
f 59 61 62

usemtl m104
f 59 62 60

usemtl m105
f 52 51 61

usemtl m106
f 61 51 63

usemtl m107
f 61 63 62

usemtl m108
f 51 50 63

usemtl m109
f 63 50 64

usemtl m110
f 63 64 65

usemtl m111
f 63 65 50

usemtl m112
f 50 65 64

usemtl m113
f 64 65 66

usemtl m114
f 64 66 67

usemtl m115
f 64 67 65

usemtl m116
f 65 67 66

usemtl m117
f 68 69 70

usemtl m118
f 68 70 71

usemtl m119
f 68 71 69

usemtl m120
f 68 69 47

usemtl m121
f 68 47 46

usemtl m122
f 68 46 69

usemtl m123
f 69 46 47

usemtl m124
f 71 70 69

usemtl m125
f 72 73 74

usemtl m126
f 72 74 75

usemtl m127
f 72 75 76

usemtl m128
f 72 76 77

usemtl m129
f 72 77 78

usemtl m130
f 72 78 73

usemtl m131
f 73 78 79

usemtl m132
f 73 79 80

usemtl m133
f 73 80 81

usemtl m134
f 73 81 74

usemtl m135
f 80 82 83

usemtl m136
f 80 83 81

usemtl m137
f 82 84 85

usemtl m138
f 82 85 83

usemtl m139
f 83 85 86

usemtl m140
f 83 86 87

usemtl m141
f 83 87 85

usemtl m142
f 85 87 86

usemtl m143
f 86 87 88

usemtl m144
f 86 88 89

usemtl m145
f 86 89 87

usemtl m146
f 87 89 88

usemtl m147
f 84 90 91

usemtl m148
f 84 91 85

usemtl m149
f 90 76 92

usemtl m150
f 90 92 91

usemtl m151
f 76 75 92

usemtl m152
f 72 72 75

usemtl m153
f 72 75 75

usemtl m154
f 93 94 90

usemtl m155
f 93 90 84

usemtl m156
f 93 84 95

usemtl m157
f 93 95 96

usemtl m158
f 93 96 97

usemtl m159
f 93 97 94

usemtl m160
f 94 97 98

usemtl m161
f 94 98 77

usemtl m162
f 94 77 76

usemtl m163
f 94 76 90

usemtl m164
f 79 99 80

usemtl m165
f 80 99 82

usemtl m166
f 82 99 95

usemtl m167
f 82 95 84

usemtl m168
f 78 78 72

usemtl m169
f 78 72 72

usemtl m170
f 100 101 102

usemtl m171
f 100 102 103

usemtl m172
f 100 103 104

usemtl m173
f 100 104 105

usemtl m174
f 100 105 106

usemtl m175
f 100 106 101

usemtl m176
f 101 106 107

usemtl m177
f 101 107 108

usemtl m178
f 101 108 109

usemtl m179
f 101 109 102

usemtl m180
f 102 109 99

usemtl m181
f 102 99 79

usemtl m182
f 102 79 103

usemtl m183
f 103 79 78

usemtl m184
f 103 78 110

usemtl m185
f 103 110 111

usemtl m186
f 103 111 104

usemtl m187
f 103 104 103

usemtl m188
f 103 103 78

usemtl m189
f 103 78 78

usemtl m190
f 112 111 110

usemtl m191
f 112 110 98

usemtl m192
f 112 98 113

usemtl m193
f 112 113 114

usemtl m194
f 112 114 115

usemtl m195
f 112 115 111

usemtl m196
f 111 115 116

usemtl m197
f 111 116 104

usemtl m198
f 104 116 105

usemtl m199
f 105 116 117

usemtl m200
f 105 117 118

usemtl m201
f 105 118 116

usemtl m202
f 105 116 106

usemtl m203
f 105 106 119

usemtl m204
f 105 119 120

usemtl m205
f 105 120 106

usemtl m206
f 106 120 119

usemtl m207
f 119 120 121

usemtl m208
f 119 121 120

usemtl m209
f 113 98 97

usemtl m210
f 113 97 122

usemtl m211
f 113 122 123

usemtl m212
f 113 123 114

usemtl m213
f 114 123 124

usemtl m214
f 114 124 125

usemtl m215
f 114 125 123

usemtl m216
f 114 123 116

usemtl m217
f 114 116 115

usemtl m218
f 114 115 126

usemtl m219
f 114 126 127

usemtl m220
f 114 127 115

usemtl m221
f 115 127 126

usemtl m222
f 126 127 128

usemtl m223
f 126 128 127

usemtl m224
f 108 122 96

usemtl m225
f 108 96 109

usemtl m226
f 109 96 95

usemtl m227
f 109 95 99

usemtl m228
f 122 97 96

usemtl m229
f 110 78 77

usemtl m230
f 110 77 98

usemtl m231
f 129 130 131

usemtl m232
f 129 131 132

usemtl m233
f 129 132 130

usemtl m234
f 129 130 75

usemtl m235
f 129 75 74

usemtl m236
f 129 74 130

usemtl m237
f 130 74 75

usemtl m238
f 132 131 130

usemtl m239
f 133 134 135

usemtl m240
f 133 135 116

usemtl m241
f 133 116 115

usemtl m242
f 133 115 135

usemtl m243
f 133 135 134

usemtl m244
f 117 136 118

usemtl m245
f 117 118 136

usemtl m246
f 118 117 116

usemtl m247
f 137 138 139

usemtl m248
f 137 139 107

usemtl m249
f 137 107 106

usemtl m250
f 137 106 139

usemtl m251
f 137 139 138

usemtl m252
f 140 141 142

usemtl m253
f 140 142 143

usemtl m254
f 140 143 107

usemtl m255
f 140 107 142

usemtl m256
f 140 142 141

usemtl m257
f 144 145 146

usemtl m258
f 144 146 123

usemtl m259
f 144 123 143

usemtl m260
f 144 143 146

usemtl m261
f 144 146 145

usemtl m262
f 124 147 125

usemtl m263
f 124 125 147

usemtl m264
f 125 124 123

usemtl m265
f 135 115 116

usemtl m266
f 139 106 107

usemtl m267
f 107 106 116

usemtl m268
f 107 116 143

usemtl m269
f 107 143 142

usemtl m270
f 146 143 123

usemtl m271
f 123 143 116

usemtl m272
f 143 123 122

usemtl m273
f 143 122 108

usemtl m274
f 143 108 107

usemtl m275
f 148 149 150

usemtl m276
f 148 150 151

usemtl m277
f 148 151 152

usemtl m278
f 148 152 153

usemtl m279
f 148 153 154

usemtl m280
f 148 154 149

usemtl m281
f 149 154 155

usemtl m282
f 149 155 156

usemtl m283
f 149 156 157

usemtl m284
f 149 157 150

usemtl m285
f 156 158 159

usemtl m286
f 156 159 157

usemtl m287
f 158 160 161

usemtl m288
f 158 161 159

usemtl m289
f 159 161 162

usemtl m290
f 159 162 163

usemtl m291
f 159 163 161

usemtl m292
f 161 163 162

usemtl m293
f 162 163 164

usemtl m294
f 162 164 165

usemtl m295
f 162 165 163

usemtl m296
f 163 165 164

usemtl m297
f 160 166 167

usemtl m298
f 160 167 161

usemtl m299
f 166 152 168

usemtl m300
f 166 168 167

usemtl m301
f 152 151 168

usemtl m302
f 148 148 151

usemtl m303
f 148 151 151

usemtl m304
f 169 170 166

usemtl m305
f 169 166 160

usemtl m306
f 169 160 171

usemtl m307
f 169 171 172

usemtl m308
f 169 172 173

usemtl m309
f 169 173 170

usemtl m310
f 170 173 174

usemtl m311
f 170 174 153

usemtl m312
f 170 153 152

usemtl m313
f 170 152 166

usemtl m314
f 155 175 156

usemtl m315
f 156 175 158

usemtl m316
f 158 175 171

usemtl m317
f 158 171 160

usemtl m318
f 154 154 148

usemtl m319
f 154 148 148

usemtl m320
f 176 177 178

usemtl m321
f 176 178 179

usemtl m322
f 176 179 180

usemtl m323
f 176 180 181

usemtl m324
f 176 181 182

usemtl m325
f 176 182 177

usemtl m326
f 177 182 183

usemtl m327
f 177 183 184

usemtl m328
f 177 184 185

usemtl m329
f 177 185 178

usemtl m330
f 178 185 175

usemtl m331
f 178 175 155

usemtl m332
f 178 155 179

usemtl m333
f 179 155 154

usemtl m334
f 179 154 186

usemtl m335
f 179 186 187

usemtl m336
f 179 187 180

usemtl m337
f 179 180 179

usemtl m338
f 179 179 154

usemtl m339
f 179 154 154

usemtl m340
f 188 187 186

usemtl m341
f 188 186 174

usemtl m342
f 188 174 189

usemtl m343
f 188 189 190

usemtl m344
f 188 190 191

usemtl m345
f 188 191 187

usemtl m346
f 187 191 192

usemtl m347
f 187 192 180

usemtl m348
f 180 192 181

usemtl m349
f 181 192 193

usemtl m350
f 181 193 194

usemtl m351
f 181 194 192

usemtl m352
f 181 192 182

usemtl m353
f 181 182 195

usemtl m354
f 181 195 196

usemtl m355
f 181 196 182

usemtl m356
f 182 196 195

usemtl m357
f 195 196 197

usemtl m358
f 195 197 196

usemtl m359
f 189 174 173

usemtl m360
f 189 173 198

usemtl m361
f 189 198 199

usemtl m362
f 189 199 190

usemtl m363
f 190 199 200

usemtl m364
f 190 200 201

usemtl m365
f 190 201 199

usemtl m366
f 190 199 192

usemtl m367
f 190 192 191

usemtl m368
f 190 191 202

usemtl m369
f 190 202 203

usemtl m370
f 190 203 191

usemtl m371
f 191 203 202

usemtl m372
f 202 203 204

usemtl m373
f 202 204 203

usemtl m374
f 184 198 172

usemtl m375
f 184 172 185

usemtl m376
f 185 172 171

usemtl m377
f 185 171 175

usemtl m378
f 198 173 172

usemtl m379
f 186 154 153

usemtl m380
f 186 153 174

usemtl m381
f 205 206 207

usemtl m382
f 205 207 208

usemtl m383
f 205 208 206

usemtl m384
f 205 206 151

usemtl m385
f 205 151 150

usemtl m386
f 205 150 206

usemtl m387
f 206 150 151

usemtl m388
f 208 207 206

usemtl m389
f 209 210 211

usemtl m390
f 209 211 192

usemtl m391
f 209 192 191

usemtl m392
f 209 191 211

usemtl m393
f 209 211 210

usemtl m394
f 193 212 194

usemtl m395
f 193 194 212

usemtl m396
f 194 193 192

usemtl m397
f 213 214 215

usemtl m398
f 213 215 183

usemtl m399
f 213 183 182

usemtl m400
f 213 182 215

usemtl m401
f 213 215 214

usemtl m402
f 216 217 218

usemtl m403
f 216 218 219

usemtl m404
f 216 219 183

usemtl m405
f 216 183 218

usemtl m406
f 216 218 217

usemtl m407
f 220 221 222

usemtl m408
f 220 222 199

usemtl m409
f 220 199 219

usemtl m410
f 220 219 222

usemtl m411
f 220 222 221

usemtl m412
f 200 223 201

usemtl m413
f 200 201 223

usemtl m414
f 201 200 199

usemtl m415
f 211 191 192

usemtl m416
f 215 182 183

usemtl m417
f 183 182 192

usemtl m418
f 183 192 219

usemtl m419
f 183 219 218

usemtl m420
f 222 219 199

usemtl m421
f 199 219 192

usemtl m422
f 219 199 198

usemtl m423
f 219 198 184

usemtl m424
f 219 184 183

usemtl m425
f 21 224 22

usemtl m426
f 22 224 42

usemtl m427
f 42 224 54

usemtl m428
f 54 224 37

usemtl m429
f 54 37 36

usemtl m430
f 36 37 225

usemtl m431
f 36 225 226

usemtl m432
f 36 226 37

usemtl m433
f 37 226 225

usemtl m434
f 225 226 227

usemtl m435
f 225 227 226

usemtl m436
f 228 229 230

usemtl m437
f 228 230 37

usemtl m438
f 228 37 38

usemtl m439
f 228 38 230

usemtl m440
f 228 230 229

usemtl m441
f 231 232 233

usemtl m442
f 231 233 38

usemtl m443
f 231 38 20

usemtl m444
f 231 20 233

usemtl m445
f 231 233 232

usemtl m446
f 234 235 236

usemtl m447
f 234 236 20

usemtl m448
f 234 20 19

usemtl m449
f 234 19 236

usemtl m450
f 234 236 235

usemtl m451
f 237 238 239

usemtl m452
f 237 239 19

usemtl m453
f 237 19 18

usemtl m454
f 237 18 239

usemtl m455
f 237 239 238

usemtl m456
f 34 240 35

usemtl m457
f 34 35 240

usemtl m458
f 35 34 33

usemtl m459
f 230 38 37

usemtl m460
f 233 20 38

usemtl m461
f 236 19 20

usemtl m462
f 239 18 19

usemtl m463
f 20 38 21

usemtl m464
f 21 38 224

usemtl m465
f 224 38 37

