mtllib 23720.mtl
o runescapemodel
v -42 179 -50
v -44 198 -44
v -44 207 -51
v -41 207 -51
v -39 179 -50
v -44 151 -50
v -42 166 -44
v -39 166 -44
v -41 198 -44
v -42 235 -44
v -42 235 -51
v -39 236 -51
v -44 86 -45
v -44 95 -50
v -42 67 -50
v -42 70 -45
v -39 70 -45
v -41 86 -45
v -42 128 -45
v -42 123 -50
v -39 123 -50
v -41 95 -50
v -39 67 -50
v -44 39 -50
v -44 33 -45
v -41 33 -45
v -44 143 -44
v -41 151 -50
v -42 11 -50
v -41 39 -50
v -39 11 -50
v -39 128 -45
v -41 143 -44
v -42 11 -45
v -39 11 -45
v -39 236 -44
vn -759 34 787
vn -762 21 -727
vn -765 -3 775
vn 0 18 768
vn 0 9 768
vn -760 -22 724
vn -759 -25 -802
vn 0 0 -768
vn 0 0 -768
vn -592 -275 -529
vn -418 -506 256
vn -81 -244 512
vn -764 38 -776
vn -764 -12 797
vn -766 32 791
vn -768 1 -793
vn 0 0 -768
vn 0 0 -768
vn -762 23 -807
vn -762 36 774
vn 0 0 768
vn 0 0 768
vn 0 0 768
vn -768 -13 783
vn -768 28 -763
vn 0 0 -768
vn -760 66 -809
vn 0 0 768
vn -512 41 533
vn 0 0 768
vn 0 0 256
vn 0 34 -768
vn 0 17 -768
vn -256 23 -256
vn 0 0 -512
vn -162 -488 -256
usemtl m0
f 1 2 3

usemtl m1
f 1 3 4

usemtl m2
f 1 4 5

usemtl m3
f 1 5 6

usemtl m4
f 1 6 7

usemtl m5
f 1 7 2

usemtl m6
f 2 7 8

usemtl m7
f 2 8 9

usemtl m8
f 2 9 10

usemtl m9
f 2 10 3

usemtl m10
f 3 10 11

usemtl m11
f 3 11 12

usemtl m12
f 3 12 4

usemtl m13
f 13 14 15

usemtl m14
f 13 15 16

usemtl m15
f 13 16 17

usemtl m16
f 13 17 18

usemtl m17
f 13 18 19

usemtl m18
f 13 19 14

usemtl m19
f 14 19 20

usemtl m20
f 14 20 21

usemtl m21
f 14 21 22

usemtl m22
f 14 22 15

usemtl m23
f 15 22 23

usemtl m24
f 15 23 24

usemtl m25
f 15 24 16

usemtl m26
f 16 24 25

usemtl m27
f 16 25 26

usemtl m28
f 16 26 17

usemtl m29
f 20 27 6

usemtl m30
f 20 6 28

usemtl m31
f 20 28 21

usemtl m32
f 29 25 24

usemtl m33
f 29 24 30

usemtl m34
f 29 30 31

usemtl m35
f 19 27 20

usemtl m36
f 27 19 32

usemtl m37
f 27 32 33

usemtl m38
f 27 33 7

usemtl m39
f 27 7 6

usemtl m40
f 34 25 29

usemtl m41
f 25 34 35

usemtl m42
f 25 35 26

usemtl m43
f 11 10 36

usemtl m44
f 11 36 12

usemtl m45
f 19 18 32

usemtl m46
f 7 33 8

usemtl m47
f 6 5 28

usemtl m48
f 24 23 30

usemtl m49
f 10 9 36

