mtllib 23812.mtl
o runescapemodel
v 64 240 48
v 64 240 32
v 27 240 25
v 21 240 40
v 64 240 64
v 14 240 54
v -64 240 64
v -64 -331 64
v 64 -331 64
v 64 240 0
v 64 240 -32
v 52 240 -34
v 39 240 -4
v 64 240 16
v 33 240 10
v 0 240 -13
v -12 240 -3
v -25 240 7
v -38 240 16
v -64 240 -64
v -64 -331 -64
v 64 240 -48
v 58 240 -49
v 51 240 -53
v 38 240 -42
v 12 240 -22
v 0 240 -64
v -16 240 -64
v -32 240 -64
v -48 240 -64
v 64 240 -64
v 48 240 -64
v 32 240 -64
vn 0 -768 0
vn 0 -768 0
vn 0 -1536 0
vn 0 -1536 0
vn 0 -768 0
vn 0 -1280 0
vn 0 -768 0
vn 0 0 0
vn 0 0 0
vn 0 -768 0
vn 0 -768 0
vn 0 -1536 0
vn 0 -1536 0
vn 0 -768 0
vn 0 -1536 0
vn 0 -1536 0
vn 0 -1536 0
vn 0 -1536 0
vn 0 -1280 0
vn 0 -512 0
vn 0 0 0
vn 0 -512 0
vn 0 -1280 0
vn 0 -1280 0
vn 0 -1536 0
vn 0 -1536 0
vn 0 -768 0
vn 0 -768 0
vn 0 -768 0
vn 0 -768 0
vn 0 -768 0
vn 0 -768 0
vn 0 -768 0
usemtl m0
f 1 2 3

usemtl m1
f 1 3 4

usemtl m2
f 1 4 5

usemtl m3
f 5 4 6

usemtl m4
f 5 6 7

usemtl m5
f 5 7 8

usemtl m6
f 5 8 9

usemtl m7
f 10 11 12

usemtl m8
f 10 12 13

usemtl m9
f 10 13 14

usemtl m10
f 14 13 15

usemtl m11
f 14 15 2

usemtl m12
f 2 15 3

usemtl m13
f 3 15 16

usemtl m14
f 3 16 17

usemtl m15
f 3 17 4

usemtl m16
f 4 17 18

usemtl m17
f 4 18 6

usemtl m18
f 6 18 19

usemtl m19
f 6 19 7

usemtl m20
f 7 19 20

usemtl m21
f 7 20 21

usemtl m22
f 7 21 8

usemtl m23
f 11 22 23

usemtl m24
f 11 23 12

usemtl m25
f 12 23 24

usemtl m26
f 12 24 25

usemtl m27
f 12 25 13

usemtl m28
f 13 25 26

usemtl m29
f 13 26 15

usemtl m30
f 15 26 16

usemtl m31
f 16 26 27

usemtl m32
f 16 27 28

usemtl m33
f 16 28 17

usemtl m34
f 17 28 29

usemtl m35
f 17 29 18

usemtl m36
f 18 29 30

usemtl m37
f 18 30 19

usemtl m38
f 19 30 20

usemtl m39
f 22 31 23

usemtl m40
f 23 31 24

usemtl m41
f 24 31 32

usemtl m42
f 24 32 25

usemtl m43
f 25 32 33

usemtl m44
f 25 33 26

usemtl m45
f 26 33 27

