mtllib 2394.mtl
o runescapemodel
v 24 0 -9
v 2 0 -20
v 7 23 -32
v 32 19 -17
v 25 0 14
v 29 15 17
v -10 0 35
v -15 9 37
v -27 0 21
v -38 9 27
v -19 0 -10
v -25 15 -15
v 0 44 -11
v -15 44 -4
v 18 40 -2
v -12 38 19
v -2 35 20
v 19 38 16
vn 432 354 408
vn -4 215 415
vn -5 133 1147
vn 1026 -184 449
vn 606 246 -213
vn 1029 -140 -719
vn 87 188 -618
vn -67 -40 -1197
vn -386 490 -289
vn -731 91 -425
vn -578 491 557
vn -960 -255 669
vn 28 -852 614
vn -287 -672 42
vn 646 -1377 -139
vn -355 -773 -423
vn -33 -840 -780
vn 323 -537 -476
usemtl m0
f 1 2 3

usemtl m1
f 1 3 4

usemtl m2
f 1 4 5

usemtl m3
f 5 4 6

usemtl m4
f 5 6 7

usemtl m5
f 7 6 8

usemtl m6
f 7 8 9

usemtl m7
f 9 8 10

usemtl m8
f 9 10 11

usemtl m9
f 11 10 12

usemtl m10
f 11 12 3

usemtl m11
f 11 3 2

usemtl m12
f 13 3 12

usemtl m13
f 13 12 14

usemtl m14
f 13 14 15

usemtl m15
f 13 15 4

usemtl m16
f 13 4 3

usemtl m17
f 16 14 12

usemtl m18
f 16 12 10

usemtl m19
f 16 10 17

usemtl m20
f 16 17 15

usemtl m21
f 16 15 14

usemtl m22
f 17 10 8

usemtl m23
f 17 8 18

usemtl m24
f 17 18 15

usemtl m25
f 15 18 6

usemtl m26
f 15 6 4

usemtl m27
f 18 8 6

