mtllib 24442.mtl
o runescapemodel
v 25 15 10
v 17 15 10
v 17 9 12
v 27 9 12
v 25 15 1
v 27 8 0
v 17 15 1
v 17 8 0
v 16 0 -2
v 16 0 7
v 16 0 15
v 17 6 16
v 29 6 16
v 31 0 7
v 29 0 -2
v 33 0 15
v 34 0 21
v 16 0 21
v 17 4 21
v 30 4 21
v 29 4 25
v 33 0 26
v 27 0 27
v 15 0 27
v 16 5 26
v 27 5 26
v 17 4 28
v 24 4 28
v 24 0 29
v 16 0 29
v -17 15 10
v -25 15 10
v -27 9 12
v -17 9 12
v -17 15 1
v -17 8 0
v -25 15 1
v -27 8 0
v -29 0 -2
v -31 0 7
v -33 0 15
v -29 6 16
v -17 6 16
v -16 0 7
v -16 0 -2
v -16 0 15
v -16 0 21
v -34 0 21
v -30 4 21
v -17 4 21
v -16 5 26
v -15 0 27
v -27 0 27
v -33 0 26
v -29 4 25
v -27 5 26
v -24 4 28
v -17 4 28
v -16 0 29
v -24 0 29
vn 246 -244 -488
vn -512 -81 -245
vn -1280 -491 -667
vn 955 -866 -509
vn 493 -189 261
vn 722 -387 828
vn -256 -72 512
vn -768 -192 755
vn -512 390 250
vn -512 712 0
vn -768 661 -28
vn -768 -791 -455
vn 648 -1083 -280
vn 908 325 139
vn 242 58 550
vn 599 302 68
vn 542 473 -51
vn -757 601 15
vn -757 -893 -67
vn 709 -1471 -56
vn 668 -739 -581
vn 215 -27 -271
vn 320 1094 -681
vn -733 343 -17
vn -687 -930 -216
vn 537 -1089 -882
vn -199 -621 -634
vn 128 -420 -850
vn 270 96 -688
vn -431 230 -770
vn 256 -162 -488
vn -494 -230 -239
vn -1146 -903 -527
vn 1024 -538 -562
vn 512 -36 256
vn 768 -195 763
vn -248 -142 512
vn -742 -372 764
vn -468 262 302
vn -436 517 103
vn -641 353 88
vn -607 -1119 -404
vn 768 -783 -375
vn 1024 645 -13
vn 256 100 497
vn 768 622 -16
vn 755 858 102
vn -573 259 -38
vn -670 -1506 -289
vn 755 -904 49
vn 708 -894 -223
vn 692 572 -210
vn -322 876 -691
vn -561 -356 -455
vn -466 -605 -204
vn -464 -1247 -649
vn -281 -635 -936
vn 436 -520 -883
vn 227 107 -369
vn -146 330 -731
usemtl m0
f 1 2 3

usemtl m1
f 1 3 4

usemtl m2
f 1 4 5

usemtl m3
f 5 4 6

usemtl m4
f 5 6 7

usemtl m5
f 7 6 8

usemtl m6
f 7 8 2

usemtl m7
f 2 8 3

usemtl m8
f 3 8 9

usemtl m9
f 3 9 10

usemtl m10
f 3 10 11

usemtl m11
f 3 11 12

usemtl m12
f 3 12 4

usemtl m13
f 4 12 13

usemtl m14
f 4 13 14

usemtl m15
f 4 14 6

usemtl m16
f 6 14 15

usemtl m17
f 6 15 8

usemtl m18
f 8 15 9

usemtl m19
f 9 15 14

usemtl m20
f 9 14 10

usemtl m21
f 10 14 16

usemtl m22
f 10 16 11

usemtl m23
f 11 16 17

usemtl m24
f 11 17 18

usemtl m25
f 11 18 12

usemtl m26
f 12 18 19

usemtl m27
f 12 19 13

usemtl m28
f 13 19 20

usemtl m29
f 13 20 16

usemtl m30
f 13 16 14

usemtl m31
f 16 20 17

usemtl m32
f 17 20 21

usemtl m33
f 17 21 22

usemtl m34
f 17 22 23

usemtl m35
f 17 23 18

usemtl m36
f 18 23 24

usemtl m37
f 18 24 19

usemtl m38
f 19 24 25

usemtl m39
f 19 25 20

usemtl m40
f 20 25 26

usemtl m41
f 20 26 21

usemtl m42
f 21 26 23

usemtl m43
f 21 23 22

usemtl m44
f 26 25 27

usemtl m45
f 26 27 28

usemtl m46
f 26 28 29

usemtl m47
f 26 29 23

usemtl m48
f 23 29 30

usemtl m49
f 23 30 24

usemtl m50
f 24 30 25

usemtl m51
f 25 30 27

usemtl m52
f 27 30 28

usemtl m53
f 28 30 29

usemtl m54
f 31 32 33

usemtl m55
f 31 33 34

usemtl m56
f 31 34 35

usemtl m57
f 35 34 36

usemtl m58
f 35 36 37

usemtl m59
f 37 36 38

usemtl m60
f 37 38 32

usemtl m61
f 32 38 33

usemtl m62
f 33 38 39

usemtl m63
f 33 39 40

usemtl m64
f 33 40 41

usemtl m65
f 33 41 42

usemtl m66
f 33 42 34

usemtl m67
f 34 42 43

usemtl m68
f 34 43 44

usemtl m69
f 34 44 36

usemtl m70
f 36 44 45

usemtl m71
f 36 45 38

usemtl m72
f 38 45 39

usemtl m73
f 39 45 44

usemtl m74
f 39 44 40

usemtl m75
f 40 44 46

usemtl m76
f 40 46 41

usemtl m77
f 41 46 47

usemtl m78
f 41 47 48

usemtl m79
f 41 48 42

usemtl m80
f 42 48 49

usemtl m81
f 42 49 43

usemtl m82
f 43 49 50

usemtl m83
f 43 50 46

usemtl m84
f 43 46 44

usemtl m85
f 46 50 47

usemtl m86
f 47 50 51

usemtl m87
f 47 51 52

usemtl m88
f 47 52 53

usemtl m89
f 47 53 48

usemtl m90
f 48 53 54

usemtl m91
f 48 54 49

usemtl m92
f 49 54 55

usemtl m93
f 49 55 56

usemtl m94
f 49 56 50

usemtl m95
f 50 56 51

usemtl m96
f 51 56 57

usemtl m97
f 51 57 58

usemtl m98
f 51 58 52

usemtl m99
f 52 58 59

usemtl m100
f 52 59 60

usemtl m101
f 52 60 53

usemtl m102
f 53 60 57

usemtl m103
f 53 57 56

usemtl m104
f 53 56 54

usemtl m105
f 54 56 55

usemtl m106
f 58 57 60

usemtl m107
f 58 60 59

