newmtl m0
Kd 0.5019607843137255 0.2980392156862745 0.06274509803921569
newmtl m1
Kd 0.5019607843137255 0.2980392156862745 0.06274509803921569
newmtl m2
Kd 0.5019607843137255 0.2980392156862745 0.06274509803921569
newmtl m3
Kd 0.5019607843137255 0.2980392156862745 0.06274509803921569
newmtl m4
Kd 0.5019607843137255 0.2980392156862745 0.06274509803921569
newmtl m5
Kd 0.5019607843137255 0.2980392156862745 0.06274509803921569
newmtl m6
Kd 0.5019607843137255 0.2980392156862745 0.06274509803921569
newmtl m7
Kd 0.5019607843137255 0.2980392156862745 0.06274509803921569
newmtl m8
Kd 0.5019607843137255 0.2980392156862745 0.06274509803921569
newmtl m9
Kd 0.5019607843137255 0.2980392156862745 0.06274509803921569
newmtl m10
Kd 0.5019607843137255 0.2980392156862745 0.06274509803921569
newmtl m11
Kd 0.5019607843137255 0.2980392156862745 0.06274509803921569
newmtl m12
Kd 0.5019607843137255 0.2980392156862745 0.06274509803921569
newmtl m13
Kd 0.5019607843137255 0.2980392156862745 0.06274509803921569
newmtl m14
Kd 0.5019607843137255 0.2980392156862745 0.06274509803921569
newmtl m15
Kd 0.5019607843137255 0.2980392156862745 0.06274509803921569
newmtl m16
Kd 0.5019607843137255 0.2980392156862745 0.06274509803921569
newmtl m17
Kd 0.5019607843137255 0.2980392156862745 0.06274509803921569
newmtl m18
Kd 0.5019607843137255 0.2980392156862745 0.06274509803921569
newmtl m19
Kd 0.5019607843137255 0.2980392156862745 0.06274509803921569
newmtl m20
Kd 0.5019607843137255 0.2980392156862745 0.06274509803921569
newmtl m21
Kd 0.5019607843137255 0.2980392156862745 0.06274509803921569
newmtl m22
Kd 0.5019607843137255 0.2980392156862745 0.06274509803921569
newmtl m23
Kd 0.5019607843137255 0.2980392156862745 0.06274509803921569
newmtl m24
Kd 0.5019607843137255 0.2980392156862745 0.06274509803921569
newmtl m25
Kd 0.5019607843137255 0.2980392156862745 0.06274509803921569
newmtl m26
Kd 0.5019607843137255 0.2980392156862745 0.06274509803921569
newmtl m27
Kd 0.5019607843137255 0.2980392156862745 0.06274509803921569
newmtl m28
Kd 0.5019607843137255 0.2980392156862745 0.06274509803921569
newmtl m29
Kd 0.5019607843137255 0.2980392156862745 0.06274509803921569
newmtl m30
Kd 0.5019607843137255 0.2980392156862745 0.06274509803921569
newmtl m31
Kd 0.5019607843137255 0.2980392156862745 0.06274509803921569
newmtl m32
Kd 0.5019607843137255 0.2980392156862745 0.06274509803921569
newmtl m33
Kd 0.5019607843137255 0.2980392156862745 0.06274509803921569
newmtl m34
Kd 0.5019607843137255 0.2980392156862745 0.06274509803921569
newmtl m35
Kd 0.5019607843137255 0.2980392156862745 0.06274509803921569
newmtl m36
Kd 0.5019607843137255 0.2980392156862745 0.06274509803921569
newmtl m37
Kd 0.5019607843137255 0.2980392156862745 0.06274509803921569
newmtl m38
Kd 0.5019607843137255 0.2980392156862745 0.06274509803921569
newmtl m39
Kd 0.5019607843137255 0.2980392156862745 0.06274509803921569
newmtl m40
Kd 0.5019607843137255 0.2980392156862745 0.06274509803921569
newmtl m41
Kd 0.5019607843137255 0.2980392156862745 0.06274509803921569
newmtl m42
Kd 0.5019607843137255 0.2980392156862745 0.06274509803921569
newmtl m43
Kd 0.5019607843137255 0.2980392156862745 0.06274509803921569
newmtl m44
Kd 0.5019607843137255 0.2980392156862745 0.06274509803921569
newmtl m45
Kd 0.5019607843137255 0.2980392156862745 0.06274509803921569
newmtl m46
Kd 0.5019607843137255 0.2980392156862745 0.06274509803921569
newmtl m47
Kd 0.5019607843137255 0.2980392156862745 0.06274509803921569
newmtl m48
Kd 0.5019607843137255 0.2980392156862745 0.06274509803921569
newmtl m49
Kd 0.5019607843137255 0.2980392156862745 0.06274509803921569
newmtl m50
Kd 0.5019607843137255 0.2980392156862745 0.06274509803921569
newmtl m51
Kd 0.5019607843137255 0.2980392156862745 0.06274509803921569
newmtl m52
Kd 0.5019607843137255 0.2980392156862745 0.06274509803921569
newmtl m53
Kd 0.5019607843137255 0.2980392156862745 0.06274509803921569
newmtl m54
Kd 0.5019607843137255 0.2980392156862745 0.06274509803921569
newmtl m55
Kd 0.5019607843137255 0.2980392156862745 0.06274509803921569
newmtl m56
Kd 0.5019607843137255 0.2980392156862745 0.06274509803921569
newmtl m57
Kd 0.5019607843137255 0.2980392156862745 0.06274509803921569
newmtl m58
Kd 0.5019607843137255 0.2980392156862745 0.06274509803921569
newmtl m59
Kd 0.5019607843137255 0.2980392156862745 0.06274509803921569
newmtl m60
Kd 0.5019607843137255 0.2980392156862745 0.06274509803921569
newmtl m61
Kd 0.5019607843137255 0.2980392156862745 0.06274509803921569
newmtl m62
Kd 0.5019607843137255 0.2980392156862745 0.06274509803921569
newmtl m63
Kd 0.5019607843137255 0.2980392156862745 0.06274509803921569
newmtl m64
Kd 0.5019607843137255 0.2980392156862745 0.06274509803921569
newmtl m65
Kd 0.5019607843137255 0.2980392156862745 0.06274509803921569
newmtl m66
Kd 0.5019607843137255 0.2980392156862745 0.06274509803921569
newmtl m67
Kd 0.5019607843137255 0.2980392156862745 0.06274509803921569
newmtl m68
Kd 0.5019607843137255 0.2980392156862745 0.06274509803921569
newmtl m69
Kd 0.5019607843137255 0.2980392156862745 0.06274509803921569
newmtl m70
Kd 0.5019607843137255 0.2980392156862745 0.06274509803921569
newmtl m71
Kd 0.5019607843137255 0.2980392156862745 0.06274509803921569
newmtl m72
Kd 0.5019607843137255 0.2980392156862745 0.06274509803921569
newmtl m73
Kd 0.5019607843137255 0.2980392156862745 0.06274509803921569
newmtl m74
Kd 0.5019607843137255 0.2980392156862745 0.06274509803921569
newmtl m75
Kd 0.5019607843137255 0.2980392156862745 0.06274509803921569
newmtl m76
Kd 0.5019607843137255 0.2980392156862745 0.06274509803921569
newmtl m77
Kd 0.5019607843137255 0.2980392156862745 0.06274509803921569
newmtl m78
Kd 0.5019607843137255 0.2980392156862745 0.06274509803921569
newmtl m79
Kd 0.5019607843137255 0.2980392156862745 0.06274509803921569
newmtl m80
Kd 0.5019607843137255 0.2980392156862745 0.06274509803921569
newmtl m81
Kd 0.5019607843137255 0.2980392156862745 0.06274509803921569
newmtl m82
Kd 0.5019607843137255 0.2980392156862745 0.06274509803921569
newmtl m83
Kd 0.5019607843137255 0.2980392156862745 0.06274509803921569
newmtl m84
Kd 0.5019607843137255 0.2980392156862745 0.06274509803921569
newmtl m85
Kd 0.5019607843137255 0.2980392156862745 0.06274509803921569
newmtl m86
Kd 0.5019607843137255 0.2980392156862745 0.06274509803921569
newmtl m87
Kd 0.5019607843137255 0.2980392156862745 0.06274509803921569
newmtl m88
Kd 0.5019607843137255 0.2980392156862745 0.06274509803921569
newmtl m89
Kd 0.5019607843137255 0.2980392156862745 0.06274509803921569
newmtl m90
Kd 0.5019607843137255 0.2980392156862745 0.06274509803921569
newmtl m91
Kd 0.5019607843137255 0.2980392156862745 0.06274509803921569
newmtl m92
Kd 0.5019607843137255 0.2980392156862745 0.06274509803921569
newmtl m93
Kd 0.5019607843137255 0.2980392156862745 0.06274509803921569
newmtl m94
Kd 0.5019607843137255 0.2980392156862745 0.06274509803921569
newmtl m95
Kd 0.5372549019607843 0.3607843137254902 0.16470588235294117
newmtl m96
Kd 0.5372549019607843 0.3607843137254902 0.16470588235294117
newmtl m97
Kd 0.5372549019607843 0.3607843137254902 0.16470588235294117
newmtl m98
Kd 0.5372549019607843 0.3607843137254902 0.16470588235294117
newmtl m99
Kd 0.5372549019607843 0.3607843137254902 0.16470588235294117
newmtl m100
Kd 0.5372549019607843 0.3607843137254902 0.16470588235294117
newmtl m101
Kd 0.5372549019607843 0.3607843137254902 0.16470588235294117
newmtl m102
Kd 0.5372549019607843 0.3607843137254902 0.16470588235294117
newmtl m103
Kd 0.5372549019607843 0.3607843137254902 0.16470588235294117
newmtl m104
Kd 0.5372549019607843 0.3607843137254902 0.16470588235294117
newmtl m105
Kd 0.5372549019607843 0.3607843137254902 0.16470588235294117
newmtl m106
Kd 0.5372549019607843 0.3607843137254902 0.16470588235294117
newmtl m107
Kd 0.5019607843137255 0.2980392156862745 0.06274509803921569
newmtl m108
Kd 0.5372549019607843 0.3607843137254902 0.16470588235294117
newmtl m109
Kd 0.5372549019607843 0.3607843137254902 0.16470588235294117
newmtl m110
Kd 0.5372549019607843 0.3607843137254902 0.16470588235294117
newmtl m111
Kd 0.5372549019607843 0.3607843137254902 0.16470588235294117
