mtllib 24697.mtl
o runescapemodel
v -12 0 33
v -14 0 64
v -8 22 56
v 64 25 59
v 64 0 33
v 64 0 63
v -64 0 63
v -17 0 64
v -18 24 60
v -64 25 59
v -64 0 33
v -18 0 32
v 39 0 32
v 37 0 1
v 38 30 33
v -64 0 32
v -64 29 33
v -64 0 0
v 42 0 32
v 64 0 32
v 64 29 33
v 42 24 31
v 42 0 0
v 64 0 0
v -15 0 -30
v -15 0 0
v -10 20 -4
v 64 25 -5
v 64 0 -30
v 64 0 -1
v -64 0 -1
v -18 0 -1
v -19 24 -4
v -64 25 -5
v -64 0 -30
v -19 0 -30
v 31 0 -31
v 33 0 -62
v 29 26 -36
v -64 0 -31
v -64 28 -34
v -64 0 -62
v 38 0 -62
v 36 0 -32
v 38 25 -37
v 64 28 -34
v 64 0 -62
v 64 0 -31
vn 0 -369 353
vn -10 -130 -491
vn -13 -275 -63
vn -10 -499 -138
vn 0 -184 177
vn 3 -40 -252
vn -9 -81 -504
vn -5 -41 -252
vn -5 -459 -161
vn 3 -224 -75
vn 4 -378 343
vn -3 -194 166
vn 0 8 -255
vn 1 -186 175
vn 0 -362 -167
vn 0 16 -510
vn -1 -184 -87
vn 0 -378 343
vn -25 -2 -510
vn 0 8 -256
vn -56 -394 -186
vn -56 -210 -99
vn -31 -392 324
vn 0 -192 169
vn -15 -385 334
vn 3 -90 -503
vn -15 -254 -98
vn -12 -475 -169
vn 0 -181 181
vn 3 -40 -252
vn -4 -71 -506
vn 0 -31 -254
vn 4 -440 -152
vn 4 -221 -71
vn 8 -369 354
vn 0 -188 173
vn 0 -48 -251
vn 0 -181 181
vn 6 -437 -143
vn 6 -75 -505
vn 6 -208 -73
vn 0 -362 362
vn 0 -362 362
vn -43 -79 -502
vn -34 -233 -67
vn -43 -441 -140
vn 0 -181 181
vn -9 -27 -254
usemtl m0
f 1 2 3

usemtl m1
f 1 3 4

usemtl m2
f 1 4 5

usemtl m3
f 5 4 6

usemtl m4
f 6 4 2

usemtl m5
f 2 4 3

usemtl m6
f 7 8 9

usemtl m7
f 7 9 10

usemtl m8
f 7 10 11

usemtl m9
f 11 10 9

usemtl m10
f 11 9 12

usemtl m11
f 12 9 8

usemtl m12
f 13 14 15

usemtl m13
f 13 15 16

usemtl m14
f 16 15 17

usemtl m15
f 16 17 18

usemtl m16
f 18 17 15

usemtl m17
f 18 15 14

usemtl m18
f 19 20 21

usemtl m19
f 19 21 22

usemtl m20
f 19 22 23

usemtl m21
f 23 22 21

usemtl m22
f 23 21 24

usemtl m23
f 24 21 20

usemtl m24
f 25 26 27

usemtl m25
f 25 27 28

usemtl m26
f 25 28 29

usemtl m27
f 29 28 30

usemtl m28
f 30 28 26

usemtl m29
f 26 28 27

usemtl m30
f 31 32 33

usemtl m31
f 31 33 34

usemtl m32
f 31 34 35

usemtl m33
f 35 34 33

usemtl m34
f 35 33 36

usemtl m35
f 36 33 32

usemtl m36
f 37 38 39

usemtl m37
f 37 39 40

usemtl m38
f 40 39 41

usemtl m39
f 40 41 42

usemtl m40
f 42 41 39

usemtl m41
f 42 39 38

usemtl m42
f 43 44 45

usemtl m43
f 43 45 46

usemtl m44
f 43 46 47

usemtl m45
f 47 46 48

usemtl m46
f 48 46 44

usemtl m47
f 44 46 45

