mtllib 24790.mtl
o runescapemodel
v -49 35 -42
v -49 34 60
v -49 18 61
v -49 17 -42
v -61 35 -42
v -61 35 60
v -49 11 62
v -49 11 -42
v -61 0 -42
v -61 0 64
v -49 0 -42
v -49 1 64
v -63 33 5
v -63 33 -38
v -63 2 -38
v -63 3 3
v -61 2 5
v -61 34 8
v -61 34 -40
v -61 1 -40
v -63 34 58
v -63 33 13
v -63 2 9
v -63 3 62
v -61 0 62
v -61 35 58
v -61 34 10
v -61 1 7
vn 512 -256 254
vn 277 -511 -2
vn 768 0 0
vn 768 0 768
vn -491 -511 510
vn -235 -255 0
vn 1024 0 0
vn 512 0 512
vn -256 0 768
vn -512 0 0
vn 512 0 256
vn 256 0 0
vn -740 -458 0
vn -370 -229 0
vn -512 0 0
vn -256 0 0
vn 0 0 0
vn -114 -229 0
vn -228 -458 0
vn 0 0 0
vn -746 -454 9
vn -376 -225 5
vn -512 0 0
vn -256 0 0
vn 0 0 0
vn -114 -229 4
vn -234 -454 9
vn 0 0 0
usemtl m0
f 1 2 3

usemtl m1
f 1 3 4

usemtl m2
f 1 4 5

usemtl m3
f 1 5 2

usemtl m4
f 2 5 6

usemtl m5
f 2 6 3

usemtl m6
f 3 6 7

usemtl m7
f 3 7 4

usemtl m8
f 4 7 8

usemtl m9
f 4 8 9

usemtl m10
f 4 9 5

usemtl m11
f 5 9 10

usemtl m12
f 5 10 6

usemtl m13
f 5 6 9

usemtl m14
f 5 9 6

usemtl m15
f 7 11 8

usemtl m16
f 8 11 9

usemtl m17
f 6 10 12

usemtl m18
f 6 12 7

usemtl m19
f 7 12 11

usemtl m20
f 13 14 15

usemtl m21
f 13 15 16

usemtl m22
f 13 16 17

usemtl m23
f 13 17 18

usemtl m24
f 13 18 19

usemtl m25
f 13 19 14

usemtl m26
f 14 19 15

usemtl m27
f 15 19 20

usemtl m28
f 21 22 23

usemtl m29
f 21 23 24

usemtl m30
f 21 24 25

usemtl m31
f 21 25 26

usemtl m32
f 21 26 27

usemtl m33
f 21 27 22

usemtl m34
f 22 27 23

usemtl m35
f 23 27 28

