newmtl m0
Kd 0.2823529411764706 0.2823529411764706 0.2549019607843137
newmtl m1
Kd 0.2823529411764706 0.2823529411764706 0.2549019607843137
newmtl m2
Kd 0.2823529411764706 0.2823529411764706 0.2549019607843137
newmtl m3
Kd 0.2823529411764706 0.2823529411764706 0.2549019607843137
newmtl m4
Kd 0.2823529411764706 0.2823529411764706 0.2549019607843137
newmtl m5
Kd 0.2823529411764706 0.2823529411764706 0.2549019607843137
newmtl m6
Kd 0.2823529411764706 0.2823529411764706 0.2549019607843137
newmtl m7
Kd 0.2823529411764706 0.2823529411764706 0.2549019607843137
newmtl m8
Kd 0.2823529411764706 0.2823529411764706 0.2549019607843137
newmtl m9
Kd 0.2823529411764706 0.2823529411764706 0.2549019607843137
newmtl m10
Kd 0.2823529411764706 0.2823529411764706 0.2549019607843137
newmtl m11
Kd 0.2823529411764706 0.2823529411764706 0.2549019607843137
newmtl m12
Kd 0.2823529411764706 0.2823529411764706 0.2549019607843137
newmtl m13
Kd 0.2823529411764706 0.2823529411764706 0.2549019607843137
newmtl m14
Kd 0.2823529411764706 0.2823529411764706 0.2549019607843137
newmtl m15
Kd 0.2823529411764706 0.2823529411764706 0.2549019607843137
newmtl m16
Kd 0.2823529411764706 0.2823529411764706 0.2549019607843137
newmtl m17
Kd 0.2823529411764706 0.2823529411764706 0.2549019607843137
newmtl m18
Kd 0.2823529411764706 0.2823529411764706 0.2549019607843137
newmtl m19
Kd 0.2823529411764706 0.2823529411764706 0.2549019607843137
newmtl m20
Kd 0.3254901960784314 0.3254901960784314 0.2901960784313726
newmtl m21
Kd 0.3254901960784314 0.3254901960784314 0.2901960784313726
newmtl m22
Kd 0.3254901960784314 0.3254901960784314 0.2901960784313726
newmtl m23
Kd 0.3254901960784314 0.3254901960784314 0.2901960784313726
newmtl m24
Kd 0.3254901960784314 0.3254901960784314 0.2901960784313726
newmtl m25
Kd 0.3254901960784314 0.3254901960784314 0.2901960784313726
newmtl m26
Kd 0.3254901960784314 0.3254901960784314 0.2901960784313726
newmtl m27
Kd 0.3254901960784314 0.3254901960784314 0.2901960784313726
newmtl m28
Kd 0.3254901960784314 0.3254901960784314 0.2901960784313726
newmtl m29
Kd 0.3254901960784314 0.3254901960784314 0.2901960784313726
newmtl m30
Kd 0.3254901960784314 0.3254901960784314 0.2901960784313726
newmtl m31
Kd 0.3254901960784314 0.3254901960784314 0.2901960784313726
newmtl m32
Kd 0.3568627450980392 0.3568627450980392 0.3215686274509804
newmtl m33
Kd 0.3568627450980392 0.3568627450980392 0.3215686274509804
newmtl m34
Kd 0.3568627450980392 0.3568627450980392 0.3215686274509804
newmtl m35
Kd 0.3568627450980392 0.3568627450980392 0.3215686274509804
newmtl m36
Kd 0.3568627450980392 0.3568627450980392 0.3215686274509804
newmtl m37
Kd 0.3568627450980392 0.3568627450980392 0.3215686274509804
newmtl m38
Kd 0.3568627450980392 0.3568627450980392 0.3215686274509804
newmtl m39
Kd 0.3568627450980392 0.3568627450980392 0.3215686274509804
newmtl m40
Kd 0.3568627450980392 0.3568627450980392 0.3215686274509804
newmtl m41
Kd 0.3568627450980392 0.3568627450980392 0.3215686274509804
newmtl m42
Kd 0.3568627450980392 0.3568627450980392 0.3215686274509804
newmtl m43
Kd 0.3568627450980392 0.3568627450980392 0.3215686274509804
newmtl m44
Kd 0.3568627450980392 0.3568627450980392 0.3215686274509804
newmtl m45
Kd 0.3568627450980392 0.3568627450980392 0.3215686274509804
newmtl m46
Kd 0.3568627450980392 0.3568627450980392 0.3215686274509804
newmtl m47
Kd 0.3568627450980392 0.3568627450980392 0.3215686274509804
newmtl m48
Kd 0.3568627450980392 0.3568627450980392 0.3215686274509804
newmtl m49
Kd 0.3568627450980392 0.3568627450980392 0.3215686274509804
newmtl m50
Kd 0.3568627450980392 0.3568627450980392 0.3215686274509804
newmtl m51
Kd 0.3568627450980392 0.3568627450980392 0.3215686274509804
newmtl m52
Kd 0.25098039215686274 0.25098039215686274 0.2196078431372549
newmtl m53
Kd 0.25098039215686274 0.25098039215686274 0.2196078431372549
newmtl m54
Kd 0.25098039215686274 0.25098039215686274 0.2196078431372549
newmtl m55
Kd 0.25098039215686274 0.25098039215686274 0.2196078431372549
newmtl m56
Kd 0.25098039215686274 0.25098039215686274 0.2196078431372549
newmtl m57
Kd 0.25098039215686274 0.25098039215686274 0.2196078431372549
newmtl m58
Kd 0.25098039215686274 0.25098039215686274 0.2196078431372549
newmtl m59
Kd 0.25098039215686274 0.25098039215686274 0.2196078431372549
newmtl m60
Kd 0.3607843137254902 0.3568627450980392 0.2549019607843137
newmtl m61
Kd 0.3607843137254902 0.3568627450980392 0.2549019607843137
newmtl m62
Kd 0.3607843137254902 0.3568627450980392 0.2549019607843137
newmtl m63
Kd 0.3607843137254902 0.3568627450980392 0.2549019607843137
newmtl m64
Kd 0.3607843137254902 0.3568627450980392 0.2549019607843137
newmtl m65
Kd 0.3607843137254902 0.3568627450980392 0.2549019607843137
newmtl m66
Kd 0.3411764705882353 0.33725490196078434 0.24313725490196078
newmtl m67
Kd 0.3411764705882353 0.33725490196078434 0.24313725490196078
newmtl m68
Kd 0.3411764705882353 0.33725490196078434 0.24313725490196078
newmtl m69
Kd 0.3411764705882353 0.33725490196078434 0.24313725490196078
newmtl m70
Kd 0.3411764705882353 0.33725490196078434 0.24313725490196078
newmtl m71
Kd 0.3411764705882353 0.33725490196078434 0.24313725490196078
newmtl m72
Kd 0.3411764705882353 0.33725490196078434 0.24313725490196078
newmtl m73
Kd 0.3411764705882353 0.33725490196078434 0.24313725490196078
newmtl m74
Kd 0.3607843137254902 0.3568627450980392 0.2549019607843137
newmtl m75
Kd 0.3607843137254902 0.3568627450980392 0.2549019607843137
newmtl m76
Kd 0.3607843137254902 0.3568627450980392 0.2549019607843137
newmtl m77
Kd 0.3607843137254902 0.3568627450980392 0.2549019607843137
newmtl m78
Kd 0.3607843137254902 0.3568627450980392 0.2549019607843137
newmtl m79
Kd 0.3607843137254902 0.3568627450980392 0.2549019607843137
newmtl m80
Kd 0.3607843137254902 0.3568627450980392 0.2549019607843137
newmtl m81
Kd 0.3607843137254902 0.3568627450980392 0.2549019607843137
newmtl m82
Kd 0.3607843137254902 0.3568627450980392 0.2549019607843137
newmtl m83
Kd 0.3607843137254902 0.3568627450980392 0.2549019607843137
newmtl m84
Kd 0.3607843137254902 0.3568627450980392 0.2549019607843137
newmtl m85
Kd 0.3607843137254902 0.3568627450980392 0.2549019607843137
newmtl m86
Kd 0.3607843137254902 0.3568627450980392 0.2549019607843137
newmtl m87
Kd 0.3607843137254902 0.3568627450980392 0.2549019607843137
newmtl m88
Kd 0.3607843137254902 0.3568627450980392 0.2549019607843137
newmtl m89
Kd 0.3607843137254902 0.3568627450980392 0.2549019607843137
newmtl m90
Kd 0.3607843137254902 0.3568627450980392 0.2549019607843137
newmtl m91
Kd 0.3607843137254902 0.3568627450980392 0.2549019607843137
newmtl m92
Kd 0.3411764705882353 0.33725490196078434 0.24313725490196078
newmtl m93
Kd 0.3411764705882353 0.33725490196078434 0.24313725490196078
newmtl m94
Kd 0.3411764705882353 0.33725490196078434 0.24313725490196078
newmtl m95
Kd 0.3411764705882353 0.33725490196078434 0.24313725490196078
newmtl m96
Kd 0.3411764705882353 0.33725490196078434 0.24313725490196078
newmtl m97
Kd 0.3411764705882353 0.33725490196078434 0.24313725490196078
newmtl m98
Kd 0.3411764705882353 0.33725490196078434 0.24313725490196078
newmtl m99
Kd 0.3411764705882353 0.33725490196078434 0.24313725490196078
newmtl m100
Kd 0.3411764705882353 0.33725490196078434 0.24313725490196078
newmtl m101
Kd 0.3411764705882353 0.33725490196078434 0.24313725490196078
newmtl m102
Kd 0.3411764705882353 0.33725490196078434 0.24313725490196078
newmtl m103
Kd 0.3411764705882353 0.33725490196078434 0.24313725490196078
newmtl m104
Kd 0.39215686274509803 0.39215686274509803 0.34901960784313724
newmtl m105
Kd 0.39215686274509803 0.39215686274509803 0.34901960784313724
newmtl m106
Kd 0.3607843137254902 0.3568627450980392 0.2549019607843137
newmtl m107
Kd 0.3607843137254902 0.3568627450980392 0.2549019607843137
newmtl m108
Kd 0.3411764705882353 0.33725490196078434 0.24313725490196078
newmtl m109
Kd 0.3411764705882353 0.33725490196078434 0.24313725490196078
newmtl m110
Kd 0.29411764705882354 0.29411764705882354 0.20784313725490197
newmtl m111
Kd 0.29411764705882354 0.29411764705882354 0.20784313725490197
newmtl m112
Kd 0.29411764705882354 0.29411764705882354 0.20784313725490197
newmtl m113
Kd 0.29411764705882354 0.29411764705882354 0.20784313725490197
newmtl m114
Kd 0.25098039215686274 0.25098039215686274 0.2196078431372549
newmtl m115
Kd 0.25098039215686274 0.25098039215686274 0.2196078431372549
newmtl m116
Kd 0.29411764705882354 0.29411764705882354 0.20784313725490197
newmtl m117
Kd 0.29411764705882354 0.29411764705882354 0.20784313725490197
newmtl m118
Kd 0.29411764705882354 0.29411764705882354 0.20784313725490197
newmtl m119
Kd 0.29411764705882354 0.29411764705882354 0.20784313725490197
newmtl m120
Kd 0.29411764705882354 0.29411764705882354 0.20784313725490197
newmtl m121
Kd 0.29411764705882354 0.29411764705882354 0.20784313725490197
newmtl m122
Kd 0.29411764705882354 0.29411764705882354 0.20784313725490197
newmtl m123
Kd 0.29411764705882354 0.29411764705882354 0.20784313725490197
newmtl m124
Kd 0.29411764705882354 0.29411764705882354 0.20784313725490197
newmtl m125
Kd 0.29411764705882354 0.29411764705882354 0.20784313725490197
newmtl m126
Kd 0.29411764705882354 0.29411764705882354 0.20784313725490197
newmtl m127
Kd 0.29411764705882354 0.29411764705882354 0.20784313725490197
newmtl m128
Kd 0.29411764705882354 0.29411764705882354 0.20784313725490197
newmtl m129
Kd 0.29411764705882354 0.29411764705882354 0.20784313725490197
newmtl m130
Kd 0.29411764705882354 0.29411764705882354 0.20784313725490197
newmtl m131
Kd 0.29411764705882354 0.29411764705882354 0.20784313725490197
newmtl m132
Kd 0.17647058823529413 0.17647058823529413 0.1568627450980392
newmtl m133
Kd 0.17647058823529413 0.17647058823529413 0.1568627450980392
newmtl m134
Kd 0.11372549019607843 0.11372549019607843 0.08235294117647059
newmtl m135
Kd 0.11372549019607843 0.11372549019607843 0.08235294117647059
newmtl m136
Kd 0.0392156862745098 0.0392156862745098 0.0
