newmtl m0
Kd 0.2901960784313726 0.21568627450980393 0.03137254901960784
newmtl m1
Kd 0.2901960784313726 0.21568627450980393 0.03137254901960784
newmtl m2
Kd 0.2901960784313726 0.21568627450980393 0.03137254901960784
newmtl m3
Kd 0.2901960784313726 0.21568627450980393 0.03137254901960784
newmtl m4
Kd 0.6588235294117647 0.6274509803921569 0.4980392156862745
newmtl m5
Kd 0.6588235294117647 0.6274509803921569 0.4980392156862745
newmtl m6
Kd 0.6588235294117647 0.6274509803921569 0.4980392156862745
newmtl m7
Kd 0.6588235294117647 0.6274509803921569 0.4980392156862745
newmtl m8
Kd 0.42745098039215684 0.3568627450980392 0.1843137254901961
newmtl m9
Kd 0.42745098039215684 0.3568627450980392 0.1843137254901961
newmtl m10
Kd 0.6588235294117647 0.6274509803921569 0.4980392156862745
newmtl m11
Kd 0.6588235294117647 0.6274509803921569 0.4980392156862745
newmtl m12
Kd 0.6588235294117647 0.6274509803921569 0.4980392156862745
newmtl m13
Kd 0.6588235294117647 0.6274509803921569 0.4980392156862745
newmtl m14
Kd 0.6588235294117647 0.6274509803921569 0.4980392156862745
newmtl m15
Kd 0.6588235294117647 0.6274509803921569 0.4980392156862745
newmtl m16
Kd 0.6588235294117647 0.6274509803921569 0.4980392156862745
newmtl m17
Kd 0.42745098039215684 0.3568627450980392 0.1843137254901961
newmtl m18
Kd 0.42745098039215684 0.3568627450980392 0.1843137254901961
