mtllib 25660.mtl
o runescapemodel
v -9 184 19
v -9 182 19
v -8 182 19
v -8 184 19
v -9 184 18
v -9 182 18
v -8 180 19
v -7 180 19
v -5 180 19
v -1 182 19
v -1 184 19
v 0 184 19
v 0 182 19
v 1 184 19
v 1 182 19
v 8 182 19
v 8 184 19
v 9 182 19
v 9 184 19
v 9 184 18
v 9 182 18
v 8 180 18
v 8 180 19
v 7 179 19
v 7 179 18
v 5 179 18
v 5 179 19
v 2 179 18
v 2 179 19
v 0 182 18
v -2 179 18
v -2 179 19
v -5 179 18
v -5 179 19
v -7 179 18
v -7 179 19
v -8 180 18
v -3 180 19
v 7 180 19
v 5 180 19
v 3 180 19
vn -256 -256 -512
vn -768 128 -768
vn 0 0 -1536
vn 0 -256 -768
vn -512 -256 0
vn -768 256 0
vn -1024 768 -512
vn 0 0 -1536
vn 0 0 -1536
vn 0 0 -1792
vn 0 0 -512
vn 0 0 -768
vn 256 510 -1536
vn 0 0 -1024
vn 0 0 -1536
vn 0 0 -1792
vn 0 -256 -768
vn 768 256 -768
vn 512 -256 -256
vn 256 -256 0
vn 768 128 0
vn 1024 768 0
vn 512 384 -768
vn 512 1024 -768
vn 256 512 0
vn 0 768 0
vn 0 768 -768
vn -256 682 0
vn -512 596 -768
vn -256 510 0
vn 512 596 0
vn 256 682 -768
vn 0 768 0
vn 0 768 -768
vn -512 1024 0
vn -256 512 -512
vn -512 384 0
vn 0 0 -1024
vn 0 0 -1024
vn 0 0 -1536
vn 0 0 -1024
usemtl m0
f 1 2 3

usemtl m1
f 1 3 4

usemtl m2
f 1 4 5

usemtl m3
f 1 5 2

usemtl m4
f 2 5 6

usemtl m5
f 2 6 7

usemtl m6
f 2 7 8

usemtl m7
f 2 8 3

usemtl m8
f 3 8 9

usemtl m9
f 3 9 10

usemtl m10
f 3 10 4

usemtl m11
f 4 10 11

usemtl m12
f 11 10 12

usemtl m13
f 12 10 13

usemtl m14
f 12 13 14

usemtl m15
f 14 13 15

usemtl m16
f 14 15 16

usemtl m17
f 14 16 17

usemtl m18
f 17 16 18

usemtl m19
f 17 18 19

usemtl m20
f 17 19 20

usemtl m21
f 20 19 21

usemtl m22
f 21 19 18

usemtl m23
f 21 18 22

usemtl m24
f 22 18 23

usemtl m25
f 22 23 24

usemtl m26
f 22 24 25

usemtl m27
f 25 24 26

usemtl m28
f 26 24 27

usemtl m29
f 26 27 28

usemtl m30
f 28 27 29

usemtl m31
f 28 29 30

usemtl m32
f 30 29 13

usemtl m33
f 30 13 31

usemtl m34
f 31 13 32

usemtl m35
f 31 32 33

usemtl m36
f 33 32 34

usemtl m37
f 33 34 35

usemtl m38
f 35 34 36

usemtl m39
f 35 36 7

usemtl m40
f 35 7 37

usemtl m41
f 37 7 6

usemtl m42
f 9 34 32

usemtl m43
f 9 32 38

usemtl m44
f 9 38 10

usemtl m45
f 10 38 13

usemtl m46
f 13 38 32

usemtl m47
f 34 9 8

usemtl m48
f 34 8 36

usemtl m49
f 36 8 7

usemtl m50
f 23 18 16

usemtl m51
f 23 16 39

usemtl m52
f 23 39 24

usemtl m53
f 24 39 40

usemtl m54
f 24 40 27

usemtl m55
f 27 40 41

usemtl m56
f 27 41 29

usemtl m57
f 29 41 15

usemtl m58
f 29 15 13

usemtl m59
f 40 39 16

usemtl m60
f 40 16 15

usemtl m61
f 40 15 41

