mtllib 25860.mtl
o runescapemodel
v -1 86 -1
v -1 86 -3
v -1 84 -2
v -1 88 -3
v -4 173 10
v -19 174 -1
v -32 153 12
v -9 153 23
v 12 153 23
v 7 173 10
v 1 193 -3
v -6 193 -5
v -23 173 -10
v -38 153 -10
v -19 173 -22
v -4 173 -30
v -9 153 -43
v -32 153 -32
v -8 193 -10
v -6 193 -15
v 1 193 -17
v 7 173 -27
v 12 153 -43
v 21 176 -19
v 35 153 -32
v 25 176 -12
v 41 153 -11
v 35 153 12
v 21 177 0
v 1 197 -10
v 8 193 -5
v 10 193 -10
v 8 193 -15
v 17 6 0
v 12 6 -11
v 12 53 -11
v 17 53 0
v 12 6 11
v 22 6 21
v 33 6 0
v 22 6 -21
v 13 6 -21
v 11 6 -18
v 1 6 -16
v 1 53 -16
v 1 59 -16
v 12 59 -11
v 17 59 0
v 12 53 11
v 1 6 16
v 1 6 32
v 22 0 21
v 33 0 0
v 22 0 -21
v 1 0 -32
v 1 6 -32
v 11 6 -23
v 11 9 -23
v 13 9 -21
v 11 9 -18
v 8 6 -18
v 6 6 -20
v -10 6 -11
v -10 53 -11
v -10 59 -11
v -15 6 0
v -15 53 0
v -15 59 0
v -10 6 11
v -10 53 11
v -10 59 11
v 1 53 16
v -6 6 17
v -5 6 20
v -6 6 22
v -9 6 22
v -20 6 21
v 1 0 32
v -20 0 -21
v -20 6 -21
v -31 6 0
v -10 6 19
v -9 6 17
v -9 9 17
v -6 9 17
v -5 9 20
v -6 9 22
v -9 9 22
v -31 0 0
v -20 0 21
v 17 134 -11
v 12 134 -22
v 1 134 -27
v -10 134 -22
v -15 134 -11
v -10 134 0
v 1 134 5
v 12 134 0
v 13 133 -1
v 17 133 -10
v 17 130 -11
v 17 131 -12
v 17 133 -12
v 13 133 -21
v 12 130 -22
v 11 131 -23
v 11 133 -23
v 2 133 -27
v 1 130 -27
v -1 131 -27
v -1 133 -27
v -9 133 -23
v -10 130 -22
v -11 131 -21
v -11 133 -21
v -15 133 -12
v -15 130 -11
v -15 131 -10
v -15 133 -10
v -11 133 -1
v -10 130 0
v -9 131 1
v -9 133 1
v 0 133 5
v 1 130 5
v 2 131 5
v 2 133 5
v 11 133 1
v 12 130 0
v 13 131 -1
v 23 141 3
v 21 141 2
v 24 141 -4
v 17 131 -10
v 12 122 1
v 17 122 -10
v 13 131 -21
v 23 141 -24
v 26 141 -16
v 24 141 -16
v 21 141 -23
v -9 131 -23
v -12 141 -31
v -13 141 -33
v -7 141 -36
v -6 141 -34
v -6 153 -34
v -12 153 -31
v -13 153 -33
v -7 153 -36
v -15 131 -12
v -10 122 -21
v -15 122 -10
v -11 131 -1
v -21 141 4
v -25 141 -4
v -23 141 -5
v -19 141 2
v -23 141 -17
v -21 141 -24
v -19 141 -23
v -21 141 -16
v -21 153 -16
v -23 153 -17
v -21 153 -24
v -19 153 -23
v 0 131 5
v -10 122 1
v 1 122 6
v 11 131 1
v 15 141 12
v 7 141 15
v 6 141 13
v 14 141 10
v -6 141 15
v -13 141 11
v -12 141 9
v -5 141 13
v -5 153 13
v -6 153 15
v -13 153 11
v -12 153 9
v 26 141 -3
v 26 153 -3
v 23 153 3
v 21 153 2
v 24 153 -4
v 2 131 -27
v 7 141 -34
v 7 141 -36
v 15 141 -33
v 14 141 -31
v 14 153 -31
v 7 153 -34
v 7 153 -36
v 15 153 -33
v -19 153 2
v -21 153 4
v -25 153 -4
v -23 153 -5
v 14 153 10
v 15 153 12
v 7 153 15
v 6 153 13
v 21 153 -23
v 23 153 -24
v 26 153 -16
v 24 153 -16
v 14 59 -13
v 1 59 -20
v 1 64 -20
v 14 64 -13
v 21 59 0
v 21 64 0
v 14 59 13
v 14 64 13
v 1 59 20
v 1 64 20
v -12 59 13
v -12 64 13
v -19 59 0
v -19 64 0
v -12 59 -13
v -12 64 -13
v -10 64 -11
v 1 64 -16
v 12 64 -11
v 17 64 0
v 12 64 11
v 1 64 16
v -10 64 11
v -15 64 0
v 1 122 -26
v 12 122 -21
v 8 6 -23
v 8 9 -23
v 8 9 -18
v 1 59 16
v 6 9 -20
v -10 9 19
v 12 59 11
v 19 128 6
v 19 126 7
v 27 133 11
v 25 134 4
v 20 126 4
v 21 124 6
v 20 125 7
v 35 130 11
v 41 144 13
v 33 144 13
v 29 145 5
v 31 131 0
v 37 128 4
v 45 143 5
v 49 160 3
v 45 160 15
v 33 160 15
v 28 160 3
v 37 144 -1
v 39 160 -5
v 39 185 -6
v 51 185 2
v 46 185 17
v 31 185 17
v 26 185 2
v 30 191 4
v 39 191 -3
v 47 191 4
v 44 191 13
v 33 191 13
vn 0 0 0
vn 0 0 0
vn -256 0 0
vn 256 0 0
vn -316 -873 -1169
vn -879 -854 -761
vn -393 -468 -404
vn -90 -285 -404
vn 90 -424 -618
vn 336 -858 -1197
vn -127 -963 -1070
vn -595 -843 -544
vn -983 -738 -87
vn -786 -604 -5
vn -1074 -1032 824
vn -142 -675 1009
vn -130 -581 786
vn -285 -305 239
vn -782 -1146 142
vn -351 -688 470
vn 153 -1431 1083
vn 273 -702 1016
vn 156 -480 566
vn 657 -869 992
vn 465 -457 339
vn 1333 -1080 170
vn 409 -284 5
vn 589 -583 -484
vn 762 -763 -555
vn 0 -1328 -94
vn 472 -910 -630
vn 748 -1199 29
vn 421 -684 397
vn 699 -768 106
vn 445 -1280 572
vn 1018 0 1019
vn 1401 0 0
vn 572 -768 -445
vn 572 -768 -463
vn 681 -768 118
vn 463 -1024 572
vn 614 -768 231
vn 460 -768 -562
vn -106 -1280 699
vn 0 0 1401
vn 106 0 702
vn 574 0 446
vn 702 0 -106
vn 1019 0 -1018
vn 106 -1024 -699
vn 118 -1536 -681
vn 463 0 -572
vn 681 0 -118
vn 572 0 463
vn 118 0 681
vn -118 -1536 681
vn 192 -768 704
vn 384 -768 640
vn 652 -256 -114
vn 230 -512 -665
vn -192 -512 -704
vn -614 -768 -231
vn -572 -768 445
vn -1019 0 1018
vn -446 0 574
vn -699 -768 -106
vn -1401 0 0
vn -702 0 106
vn -445 -1536 -572
vn -1018 0 -1019
vn -574 0 -446
vn 0 0 -1401
vn 256 -768 597
vn 768 -768 42
vn 512 -512 -512
vn -256 -768 -597
vn -463 -1024 -572
vn -118 0 -681
vn -463 0 572
vn -572 -768 463
vn -681 -768 -118
vn -768 -768 -42
vn -512 -512 512
vn -256 -512 640
vn 512 -768 426
vn 768 -256 -171
vn 256 -512 -640
vn -512 -768 -426
vn -681 0 118
vn -572 0 -463
vn 1430 -1854 -102
vn 1187 -588 1071
vn 115 -902 1401
vn -1078 -913 1176
vn -1430 -830 102
vn -1187 -844 -1071
vn -102 -830 -1430
vn 1071 -588 -1187
vn 332 -434 -855
vn 599 -480 244
vn 2132 305 -4
vn 1184 467 -4
vn 622 -516 -364
vn 273 -482 665
vn 1644 387 1631
vn 929 487 898
vn 855 -434 332
vn -248 -474 570
vn 20 473 2066
vn -22 545 1140
vn 326 -512 772
vn -657 -487 283
vn -1631 403 1641
vn -934 476 933
vn -349 -458 866
vn -536 -452 -243
vn -2132 331 4
vn -1180 487 -23
vn -775 -436 325
vn -273 -497 -638
vn -1644 277 -1631
vn -951 498 -878
vn -855 -434 -332
vn 278 -484 -580
vn -3 231 -2126
vn -3 487 -1171
vn -350 -404 -761
vn 682 -503 -272
vn 1631 261 -1641
vn 885 495 -944
vn 288 160 -1014
vn -892 -406 -437
vn -209 -250 973
vn 1124 347 170
vn 1013 -151 -1009
vn 1398 -5 1
vn 685 359 1016
vn 223 319 930
vn 759 60 -494
vn -568 -486 -997
vn -936 -230 451
vn -989 452 592
vn -400 -210 -941
vn -975 352 190
vn 374 146 993
vn 970 -416 -195
vn 466 0 -342
vn -357 0 -466
vn -466 0 342
vn 357 0 466
vn -1114 366 -184
vn -1013 151 1009
vn -1398 5 -1
vn -598 326 -935
vn 8 300 -799
vn -971 166 383
vn 181 -409 982
vn 1048 -272 -252
vn -940 337 -510
vn -357 129 907
vn 948 -406 503
vn 302 -191 -880
vn 11 0 -542
vn -612 0 -96
vn -11 0 542
vn 612 0 96
vn 200 385 -1092
vn -1012 -146 -1010
vn 1 -204 -1386
vn 1011 380 -653
vn 921 351 -201
vn -468 191 -995
vn -929 -387 196
vn 486 -231 955
vn 421 359 -882
vn -1049 160 -273
vn -418 -410 877
vn 1033 -219 216
vn 600 0 -12
vn -20 0 -566
vn -600 0 12
vn 20 0 566
vn 895 321 441
vn 578 0 6
vn -6 0 -587
vn -578 0 -6
vn 6 0 587
vn -179 281 994
vn -969 -302 -484
vn -521 255 566
vn 947 160 315
vn 458 -400 -907
vn 34 0 -590
vn -613 0 -236
vn -76 0 480
vn 562 0 4
vn 596 0 -244
vn -272 0 -414
vn -465 0 358
vn 330 0 492
vn 382 0 476
vn 416 0 -362
vn -382 0 -476
vn -416 0 362
vn -472 0 371
vn 362 0 416
vn 240 0 -422
vn -472 0 -458
vn 471 0 576
vn -122 0 681
vn 122 -768 681
vn 576 -768 471
vn 681 0 122
vn 681 -768 -122
vn 576 0 -471
vn 471 -768 -576
vn 122 0 -681
vn -122 -768 -681
vn -471 0 -576
vn -576 -768 -471
vn -681 0 -122
vn -681 -768 122
vn -576 0 471
vn -471 -768 576
vn -568 -693 440
vn -104 -651 690
vn 440 -672 565
vn 696 -750 105
vn 568 -843 -440
vn 104 -885 -690
vn -440 -864 -565
vn -696 -786 -105
vn -1 204 1386
vn 1012 146 1010
vn -460 -512 562
vn -230 -512 665
vn -384 -768 -640
vn -106 0 -702
vn -652 -256 114
vn -768 -256 171
vn 446 0 -574
vn -1125 11 310
vn -380 185 -416
vn -593 -208 -1073
vn -985 -589 350
vn -512 139 583
vn -414 763 285
vn -318 687 -159
vn 372 634 -1039
vn 653 319 -1073
vn -667 -50 -1070
vn -1100 -128 297
vn -224 250 1227
vn 606 814 218
vn 1079 449 273
vn 1160 209 331
vn 720 183 -1005
vn -700 113 -1073
vn -1166 133 335
vn -51 218 1233
vn 25 195 1225
vn 39 -295 1201
vn 1112 -313 337
vn 673 -325 -947
vn -692 -341 -930
vn -1070 -332 385
vn -476 -1119 301
vn 124 -595 546
vn 570 -897 16
vn 216 -916 -498
vn -431 -637 -356
usemtl m0
f 1 2 3

usemtl m1
f 1 2 4

usemtl m2
f 5 6 7

usemtl m3
f 5 7 8

usemtl m4
f 5 8 9

usemtl m5
f 5 9 10

usemtl m6
f 5 10 11

usemtl m7
f 5 11 6

usemtl m8
f 6 11 12

usemtl m9
f 6 12 13

usemtl m10
f 6 13 14

usemtl m11
f 6 14 7

usemtl m12
f 15 16 17

usemtl m13
f 15 17 18

usemtl m14
f 15 18 14

usemtl m15
f 15 14 13

usemtl m16
f 15 13 19

usemtl m17
f 15 19 20

usemtl m18
f 15 20 16

usemtl m19
f 16 20 21

usemtl m20
f 16 21 22

usemtl m21
f 16 22 17

usemtl m22
f 17 22 23

usemtl m23
f 23 22 24

usemtl m24
f 23 24 25

usemtl m25
f 25 24 26

usemtl m26
f 25 26 27

usemtl m27
f 27 26 28

usemtl m28
f 28 26 29

usemtl m29
f 28 29 10

usemtl m30
f 28 10 9

usemtl m31
f 30 19 12

usemtl m32
f 30 12 11

usemtl m33
f 30 11 31

usemtl m34
f 30 31 32

usemtl m35
f 30 32 21

usemtl m36
f 30 21 19

usemtl m37
f 19 21 20

usemtl m38
f 21 32 33

usemtl m39
f 21 33 24

usemtl m40
f 21 24 22

usemtl m41
f 13 12 19

usemtl m42
f 29 26 32

usemtl m43
f 29 32 31

usemtl m44
f 29 31 10

usemtl m45
f 10 31 11

usemtl m46
f 26 24 33

usemtl m47
f 26 33 32

usemtl m48
f 34 35 36

usemtl m49
f 34 36 37

usemtl m50
f 34 37 38

usemtl m51
f 34 38 39

usemtl m52
f 34 39 40

usemtl m53
f 34 40 35

usemtl m54
f 35 40 41

usemtl m55
f 35 41 42

usemtl m56
f 35 42 43

usemtl m57
f 35 43 44

usemtl m58
f 35 44 45

usemtl m59
f 35 45 36

usemtl m60
f 36 45 46

usemtl m61
f 36 46 47

usemtl m62
f 36 47 37

usemtl m63
f 37 47 48

usemtl m64
f 37 48 49

usemtl m65
f 37 49 38

usemtl m66
f 38 49 50

usemtl m67
f 38 50 51

usemtl m68
f 38 51 39

usemtl m69
f 39 51 52

usemtl m70
f 39 52 53

usemtl m71
f 39 53 40

usemtl m72
f 40 53 54

usemtl m73
f 40 54 41

usemtl m74
f 41 54 55

usemtl m75
f 41 55 56

usemtl m76
f 41 56 57

usemtl m77
f 41 57 42

usemtl m78
f 42 57 58

usemtl m79
f 42 58 59

usemtl m80
f 42 59 43

usemtl m81
f 43 59 60

usemtl m82
f 43 60 61

usemtl m83
f 43 61 44

usemtl m84
f 44 61 62

usemtl m85
f 44 62 56

usemtl m86
f 44 56 63

usemtl m87
f 44 63 64

usemtl m88
f 44 64 45

usemtl m89
f 45 64 65

usemtl m90
f 45 65 46

usemtl m91
f 63 66 67

usemtl m92
f 63 67 64

usemtl m93
f 64 67 68

usemtl m94
f 64 68 65

usemtl m95
f 66 69 70

usemtl m96
f 66 70 67

usemtl m97
f 67 70 71

usemtl m98
f 67 71 68

usemtl m99
f 50 49 72

usemtl m100
f 50 72 69

usemtl m101
f 50 69 73

usemtl m102
f 50 73 74

usemtl m103
f 50 74 51

usemtl m104
f 51 74 75

usemtl m105
f 51 75 76

usemtl m106
f 51 76 77

usemtl m107
f 51 77 78

usemtl m108
f 51 78 52

usemtl m109
f 56 55 79

usemtl m110
f 56 79 80

usemtl m111
f 56 80 63

usemtl m112
f 63 80 66

usemtl m113
f 66 80 81

usemtl m114
f 66 81 69

usemtl m115
f 69 81 77

usemtl m116
f 69 77 82

usemtl m117
f 69 82 83

usemtl m118
f 69 83 73

usemtl m119
f 73 83 84

usemtl m120
f 73 84 85

usemtl m121
f 73 85 74

usemtl m122
f 74 85 86

usemtl m123
f 74 86 75

usemtl m124
f 75 86 87

usemtl m125
f 75 87 76

usemtl m126
f 76 87 88

usemtl m127
f 76 88 82

usemtl m128
f 76 82 77

usemtl m129
f 80 79 89

usemtl m130
f 80 89 81

usemtl m131
f 81 89 90

usemtl m132
f 81 90 77

usemtl m133
f 77 90 78

usemtl m134
f 91 92 93

usemtl m135
f 91 93 94

usemtl m136
f 91 94 95

usemtl m137
f 91 95 96

usemtl m138
f 91 96 97

usemtl m139
f 91 97 98

usemtl m140
f 91 98 99

usemtl m141
f 91 99 100

usemtl m142
f 91 100 101

usemtl m143
f 91 101 102

usemtl m144
f 91 102 103

usemtl m145
f 91 103 92

usemtl m146
f 92 103 104

usemtl m147
f 92 104 105

usemtl m148
f 92 105 106

usemtl m149
f 92 106 107

usemtl m150
f 92 107 93

usemtl m151
f 93 107 108

usemtl m152
f 93 108 109

usemtl m153
f 93 109 110

usemtl m154
f 93 110 111

usemtl m155
f 93 111 94

usemtl m156
f 94 111 112

usemtl m157
f 94 112 113

usemtl m158
f 94 113 114

usemtl m159
f 94 114 115

usemtl m160
f 94 115 95

usemtl m161
f 95 115 116

usemtl m162
f 95 116 117

usemtl m163
f 95 117 118

usemtl m164
f 95 118 119

usemtl m165
f 95 119 96

usemtl m166
f 96 119 120

usemtl m167
f 96 120 121

usemtl m168
f 96 121 122

usemtl m169
f 96 122 123

usemtl m170
f 96 123 97

usemtl m171
f 97 123 124

usemtl m172
f 97 124 125

usemtl m173
f 97 125 126

usemtl m174
f 97 126 127

usemtl m175
f 97 127 98

usemtl m176
f 98 127 128

usemtl m177
f 98 128 129

usemtl m178
f 98 129 130

usemtl m179
f 98 130 99

usemtl m180
f 99 130 131

usemtl m181
f 99 131 132

usemtl m182
f 99 132 100

usemtl m183
f 100 132 133

usemtl m184
f 100 133 134

usemtl m185
f 100 134 101

usemtl m186
f 101 134 129

usemtl m187
f 101 129 135

usemtl m188
f 101 135 136

usemtl m189
f 101 136 105

usemtl m190
f 101 105 137

usemtl m191
f 101 137 102

usemtl m192
f 102 137 138

usemtl m193
f 102 138 139

usemtl m194
f 102 139 103

usemtl m195
f 103 139 140

usemtl m196
f 103 140 104

usemtl m197
f 104 140 141

usemtl m198
f 104 141 137

usemtl m199
f 104 137 105

usemtl m200
f 142 110 109

usemtl m201
f 142 109 113

usemtl m202
f 142 113 112

usemtl m203
f 142 112 143

usemtl m204
f 142 143 144

usemtl m205
f 142 144 110

usemtl m206
f 110 144 145

usemtl m207
f 110 145 111

usemtl m208
f 111 145 146

usemtl m209
f 111 146 112

usemtl m210
f 112 146 143

usemtl m211
f 143 146 147

usemtl m212
f 143 147 148

usemtl m213
f 143 148 144

usemtl m214
f 144 148 149

usemtl m215
f 144 149 145

usemtl m216
f 145 149 150

usemtl m217
f 145 150 146

usemtl m218
f 146 150 147

usemtl m219
f 117 116 151

usemtl m220
f 117 151 113

usemtl m221
f 117 113 152

usemtl m222
f 117 152 153

usemtl m223
f 117 153 121

usemtl m224
f 117 121 154

usemtl m225
f 117 154 118

usemtl m226
f 118 154 155

usemtl m227
f 118 155 156

usemtl m228
f 118 156 119

usemtl m229
f 119 156 157

usemtl m230
f 119 157 120

usemtl m231
f 120 157 158

usemtl m232
f 120 158 154

usemtl m233
f 120 154 121

usemtl m234
f 113 151 114

usemtl m235
f 114 151 159

usemtl m236
f 114 159 160

usemtl m237
f 114 160 115

usemtl m238
f 115 160 161

usemtl m239
f 115 161 116

usemtl m240
f 116 161 162

usemtl m241
f 116 162 151

usemtl m242
f 151 162 159

usemtl m243
f 159 162 163

usemtl m244
f 159 163 164

usemtl m245
f 159 164 160

usemtl m246
f 160 164 165

usemtl m247
f 160 165 161

usemtl m248
f 161 165 166

usemtl m249
f 161 166 162

usemtl m250
f 162 166 163

usemtl m251
f 125 124 167

usemtl m252
f 125 167 121

usemtl m253
f 125 121 168

usemtl m254
f 125 168 169

usemtl m255
f 125 169 129

usemtl m256
f 125 129 170

usemtl m257
f 125 170 126

usemtl m258
f 126 170 171

usemtl m259
f 126 171 172

usemtl m260
f 126 172 127

usemtl m261
f 127 172 173

usemtl m262
f 127 173 128

usemtl m263
f 128 173 174

usemtl m264
f 128 174 170

usemtl m265
f 128 170 129

usemtl m266
f 121 167 122

usemtl m267
f 122 167 175

usemtl m268
f 122 175 176

usemtl m269
f 122 176 123

usemtl m270
f 123 176 177

usemtl m271
f 123 177 124

usemtl m272
f 124 177 178

usemtl m273
f 124 178 167

usemtl m274
f 167 178 175

usemtl m275
f 175 178 179

usemtl m276
f 175 179 180

usemtl m277
f 175 180 176

usemtl m278
f 176 180 181

usemtl m279
f 176 181 177

usemtl m280
f 177 181 182

usemtl m281
f 177 182 178

usemtl m282
f 178 182 179

usemtl m283
f 129 134 130

usemtl m284
f 130 134 183

usemtl m285
f 130 183 131

usemtl m286
f 131 183 184

usemtl m287
f 131 184 185

usemtl m288
f 131 185 132

usemtl m289
f 132 185 186

usemtl m290
f 132 186 133

usemtl m291
f 133 186 187

usemtl m292
f 133 187 183

usemtl m293
f 133 183 134

usemtl m294
f 188 106 105

usemtl m295
f 188 105 109

usemtl m296
f 188 109 108

usemtl m297
f 188 108 189

usemtl m298
f 188 189 190

usemtl m299
f 188 190 106

usemtl m300
f 106 190 191

usemtl m301
f 106 191 107

usemtl m302
f 107 191 192

usemtl m303
f 107 192 108

usemtl m304
f 108 192 189

usemtl m305
f 189 192 193

usemtl m306
f 189 193 194

usemtl m307
f 189 194 190

usemtl m308
f 190 194 195

usemtl m309
f 190 195 191

usemtl m310
f 191 195 196

usemtl m311
f 191 196 192

usemtl m312
f 192 196 193

usemtl m313
f 158 155 154

usemtl m314
f 155 158 197

usemtl m315
f 155 197 198

usemtl m316
f 155 198 156

usemtl m317
f 156 198 199

usemtl m318
f 156 199 157

usemtl m319
f 157 199 200

usemtl m320
f 157 200 158

usemtl m321
f 158 200 197

usemtl m322
f 174 171 170

usemtl m323
f 171 174 201

usemtl m324
f 171 201 202

usemtl m325
f 171 202 172

usemtl m326
f 172 202 203

usemtl m327
f 172 203 173

usemtl m328
f 173 203 204

usemtl m329
f 173 204 174

usemtl m330
f 174 204 201

usemtl m331
f 141 138 137

usemtl m332
f 138 141 205

usemtl m333
f 138 205 206

usemtl m334
f 138 206 139

usemtl m335
f 139 206 207

usemtl m336
f 139 207 140

usemtl m337
f 140 207 208

usemtl m338
f 140 208 141

usemtl m339
f 141 208 205

usemtl m340
f 183 187 184

usemtl m341
f 209 210 211

usemtl m342
f 209 211 212

usemtl m343
f 209 212 213

usemtl m344
f 213 212 214

usemtl m345
f 213 214 215

usemtl m346
f 215 214 216

usemtl m347
f 215 216 217

usemtl m348
f 217 216 218

usemtl m349
f 217 218 219

usemtl m350
f 219 218 220

usemtl m351
f 219 220 221

usemtl m352
f 221 220 222

usemtl m353
f 221 222 223

usemtl m354
f 223 222 224

usemtl m355
f 223 224 210

usemtl m356
f 210 224 211

usemtl m357
f 211 224 225

usemtl m358
f 211 225 226

usemtl m359
f 211 226 212

usemtl m360
f 212 226 227

usemtl m361
f 212 227 214

usemtl m362
f 214 227 228

usemtl m363
f 214 228 216

usemtl m364
f 216 228 229

usemtl m365
f 216 229 218

usemtl m366
f 218 229 230

usemtl m367
f 218 230 220

usemtl m368
f 220 230 231

usemtl m369
f 220 231 222

usemtl m370
f 222 231 232

usemtl m371
f 222 232 224

usemtl m372
f 224 232 225

usemtl m373
f 225 232 153

usemtl m374
f 225 153 152

usemtl m375
f 225 152 226

usemtl m376
f 226 152 233

usemtl m377
f 226 233 227

usemtl m378
f 227 233 234

usemtl m379
f 227 234 228

usemtl m380
f 228 234 136

usemtl m381
f 228 136 229

usemtl m382
f 229 136 135

usemtl m383
f 229 135 230

usemtl m384
f 230 135 169

usemtl m385
f 230 169 231

usemtl m386
f 231 169 168

usemtl m387
f 231 168 232

usemtl m388
f 232 168 153

usemtl m389
f 153 168 121

usemtl m390
f 56 62 235

usemtl m391
f 56 235 57

usemtl m392
f 57 235 236

usemtl m393
f 57 236 58

usemtl m394
f 58 236 237

usemtl m395
f 58 237 60

usemtl m396
f 58 60 59

usemtl m397
f 69 72 70

usemtl m398
f 70 72 238

usemtl m399
f 70 238 71

usemtl m400
f 237 236 239

usemtl m401
f 237 239 62

usemtl m402
f 237 62 61

usemtl m403
f 237 61 60

usemtl m404
f 84 240 88

usemtl m405
f 84 88 85

usemtl m406
f 85 88 87

usemtl m407
f 85 87 86

usemtl m408
f 235 62 239

usemtl m409
f 235 239 236

usemtl m410
f 82 88 240

usemtl m411
f 82 240 83

usemtl m412
f 83 240 84

usemtl m413
f 72 49 241

usemtl m414
f 72 241 238

usemtl m415
f 49 48 241

usemtl m416
f 234 233 109

usemtl m417
f 234 109 105

usemtl m418
f 234 105 136

usemtl m419
f 233 152 113

usemtl m420
f 233 113 109

usemtl m421
f 169 135 129

usemtl m422
f 242 243 244

usemtl m423
f 242 244 245

usemtl m424
f 242 245 246

usemtl m425
f 242 246 247

usemtl m426
f 242 247 248

usemtl m427
f 242 248 243

usemtl m428
f 243 248 249

usemtl m429
f 243 249 244

usemtl m430
f 244 249 250

usemtl m431
f 244 250 251

usemtl m432
f 244 251 245

usemtl m433
f 245 251 252

usemtl m434
f 245 252 253

usemtl m435
f 245 253 246

usemtl m436
f 246 253 247

usemtl m437
f 247 253 254

usemtl m438
f 247 254 248

usemtl m439
f 248 254 249

usemtl m440
f 249 254 255

usemtl m441
f 249 255 250

usemtl m442
f 250 255 256

usemtl m443
f 250 256 257

usemtl m444
f 250 257 251

usemtl m445
f 251 257 258

usemtl m446
f 251 258 252

usemtl m447
f 252 258 259

usemtl m448
f 252 259 260

usemtl m449
f 252 260 253

usemtl m450
f 253 260 254

usemtl m451
f 254 260 255

usemtl m452
f 255 260 261

usemtl m453
f 255 261 256

usemtl m454
f 256 261 262

usemtl m455
f 256 262 263

usemtl m456
f 256 263 257

usemtl m457
f 257 263 264

usemtl m458
f 257 264 258

usemtl m459
f 258 264 265

usemtl m460
f 258 265 259

usemtl m461
f 259 265 266

usemtl m462
f 259 266 261

usemtl m463
f 259 261 260

usemtl m464
f 261 266 262

usemtl m465
f 262 266 267

usemtl m466
f 262 267 268

usemtl m467
f 262 268 263

usemtl m468
f 263 268 269

usemtl m469
f 263 269 264

usemtl m470
f 264 269 270

usemtl m471
f 264 270 265

usemtl m472
f 265 270 271

usemtl m473
f 265 271 266

usemtl m474
f 266 271 267

usemtl m475
f 267 271 270

usemtl m476
f 267 270 269

usemtl m477
f 267 269 268

