mtllib 25929.mtl
o runescapemodel
v 0 32 11
v 0 27 17
v 4 32 11
v 4 36 14
v 0 36 19
v -4 36 14
v -4 32 11
v -6 27 15
v -6 27 17
v 0 27 19
v 6 27 15
v 10 27 14
v 10 28 5
v 6 31 4
v 2 33 3
v 2 37 2
v -2 37 2
v -2 33 3
v -6 31 4
v -10 28 5
v -10 27 14
v -10 27 15
v -7 22 19
v 0 23 21
v 7 22 19
v 6 27 17
v 10 27 15
v 11 22 13
v 12 21 5
v 8 25 -3
v 2 29 -4
v 2 31 -8
v -2 31 -8
v -2 29 -4
v -8 25 -3
v -9 16 -5
v -12 21 5
v -11 22 13
v -11 22 14
v -11 19 13
v -7 19 19
v 0 19 21
v 7 19 19
v 11 19 13
v 11 22 14
v 12 19 6
v 13 18 4
v 9 16 -5
v 2 24 -7
v 2 26 -10
v -2 26 -10
v -2 24 -7
v 0 15 -8
v -11 7 -5
v -13 18 4
v -12 19 6
v -11 19 12
v 11 19 12
v 11 7 -5
v 0 6 -9
v 0 0 -16
v -11 1 -7
v -14 8 5
v -13 8 6
v -11 18 5
v -8 16 -4
v -10 7 -4
v 0 6 -8
v 0 15 -7
v 10 7 -4
v 8 16 -4
v 11 18 5
v 13 8 6
v 14 8 5
v 14 3 3
v 11 1 -7
v 0 0 -15
v 10 1 -6
v 13 3 4
v 11 15 13
v 12 15 6
v 11 15 6
v 11 19 6
v 10 19 12
v 10 15 13
v 11 9 15
v 12 7 9
v 11 7 9
v 10 9 15
v 10 5 18
v 11 2 16
v 10 2 16
v 9 5 18
v -14 3 3
v -13 3 4
v -10 1 -6
v -12 15 6
v -11 15 13
v -10 15 13
v -10 19 12
v -11 19 6
v -11 15 6
v -12 7 9
v -11 9 15
v -10 9 15
v -11 7 9
v -11 2 16
v -10 5 18
v -9 5 18
v -10 2 16
vn 0 318 -942
vn 0 -1504 -694
vn 1037 -1041 -671
vn 400 -185 -300
vn -6 -104 -234
vn -654 69 -224
vn -781 -1069 -719
vn -107 -1108 -371
vn -181 -979 -438
vn 0 -1202 -898
vn 107 -1108 -371
vn 965 -1051 -244
vn 950 -721 145
vn 693 -993 319
vn 1004 -415 177
vn 760 -714 349
vn -774 -980 125
vn -1004 -463 212
vn -693 -993 319
vn -1182 -761 238
vn -1221 -846 -244
vn -562 -677 -373
vn -955 -278 -1385
vn 0 -224 -1454
vn 955 -278 -1385
vn 181 -979 -438
vn 818 -472 -373
vn 1536 -148 -98
vn 1692 -402 127
vn 1012 -652 811
vn 1150 -501 430
vn 768 -416 619
vn -768 -541 509
vn -1150 -501 430
vn -783 -581 710
vn -1188 -352 1102
vn -1448 -352 50
vn -1536 -97 -98
vn -1170 -57 -321
vn -933 53 -307
vn -362 0 -649
vn 0 0 -494
vn 362 0 -649
vn 677 53 -307
vn 1170 -6 -321
vn 1280 -62 260
vn 811 -204 -113
vn 1289 -336 1332
vn 581 218 1206
vn 512 122 389
vn -256 244 778
vn -837 -1 1060
vn -86 -116 1470
vn -1074 -393 1107
vn -1231 -307 -215
vn -1024 -52 40
vn -1024 -123 -632
vn 1024 -60 -340
vn 891 -206 706
vn 223 -520 1276
vn -88 -435 513
vn -642 -122 351
vn -1098 -37 -134
vn 60 185 -1018
vn 121 -8 -319
vn 657 137 -643
vn 905 206 -700
vn 243 514 -1262
vn -92 71 -718
vn -1108 417 -1071
vn -322 71 -329
vn -178 4 -580
vn -365 116 -595
vn 1380 -37 -519
vn 669 17 -28
vn 428 -281 464
vn -94 428 -503
vn -652 120 -344
vn 119 178 -444
vn 768 -235 -882
vn 768 166 659
vn -768 118 882
vn -256 0 298
vn -512 -119 -434
vn -768 -200 -658
vn 768 -324 -840
vn 760 515 424
vn -1016 456 861
vn -512 -404 -575
vn 504 -151 -779
vn 248 524 -416
vn -248 658 128
vn -504 202 -601
vn -609 114 -284
vn 305 129 -336
vn 443 276 -459
vn -768 74 654
vn -768 -268 -878
vn 768 -191 -654
vn 256 -54 -214
vn 512 10 590
vn 768 218 877
vn -768 386 558
vn -753 -422 -841
vn 1009 -278 -504
vn 512 563 653
vn -497 599 -75
vn -241 173 -815
vn 241 -122 -565
vn 497 583 -213
usemtl m0
f 1 2 3

usemtl m1
f 1 3 4

usemtl m2
f 1 4 5

usemtl m3
f 1 5 6

usemtl m4
f 1 6 7

usemtl m5
f 1 7 2

usemtl m6
f 2 7 8

usemtl m7
f 2 8 9

usemtl m8
f 2 9 10

usemtl m9
f 2 10 11

usemtl m10
f 2 11 3

usemtl m11
f 3 11 12

usemtl m12
f 3 12 13

usemtl m13
f 3 13 14

usemtl m14
f 3 14 15

usemtl m15
f 3 15 16

usemtl m16
f 3 16 4

usemtl m17
f 4 16 17

usemtl m18
f 4 17 5

usemtl m19
f 5 17 6

usemtl m20
f 6 17 18

usemtl m21
f 6 18 7

usemtl m22
f 7 18 19

usemtl m23
f 7 19 20

usemtl m24
f 7 20 21

usemtl m25
f 7 21 8

usemtl m26
f 8 21 22

usemtl m27
f 8 22 9

usemtl m28
f 9 22 23

usemtl m29
f 9 23 10

usemtl m30
f 10 23 24

usemtl m31
f 10 24 25

usemtl m32
f 10 25 26

usemtl m33
f 10 26 11

usemtl m34
f 11 26 12

usemtl m35
f 12 26 27

usemtl m36
f 12 27 28

usemtl m37
f 12 28 29

usemtl m38
f 12 29 13

usemtl m39
f 13 29 30

usemtl m40
f 13 30 14

usemtl m41
f 14 30 31

usemtl m42
f 14 31 15

usemtl m43
f 15 31 32

usemtl m44
f 15 32 16

usemtl m45
f 16 32 33

usemtl m46
f 16 33 17

usemtl m47
f 17 33 34

usemtl m48
f 17 34 18

usemtl m49
f 18 34 19

usemtl m50
f 19 34 35

usemtl m51
f 19 35 20

usemtl m52
f 20 35 36

usemtl m53
f 20 36 37

usemtl m54
f 20 37 21

usemtl m55
f 21 37 38

usemtl m56
f 21 38 39

usemtl m57
f 21 39 22

usemtl m58
f 22 39 23

usemtl m59
f 23 39 40

usemtl m60
f 23 40 41

usemtl m61
f 23 41 24

usemtl m62
f 24 41 42

usemtl m63
f 24 42 43

usemtl m64
f 24 43 25

usemtl m65
f 25 43 44

usemtl m66
f 25 44 45

usemtl m67
f 25 45 27

usemtl m68
f 25 27 26

usemtl m69
f 29 46 47

usemtl m70
f 29 47 48

usemtl m71
f 29 48 30

usemtl m72
f 30 48 49

usemtl m73
f 30 49 31

usemtl m74
f 31 49 50

usemtl m75
f 31 50 32

usemtl m76
f 32 50 51

usemtl m77
f 32 51 33

usemtl m78
f 33 51 52

usemtl m79
f 33 52 34

usemtl m80
f 34 52 35

usemtl m81
f 35 52 36

usemtl m82
f 36 52 53

usemtl m83
f 36 53 54

usemtl m84
f 36 54 55

usemtl m85
f 36 55 37

usemtl m86
f 37 55 56

usemtl m87
f 37 56 38

usemtl m88
f 38 56 57

usemtl m89
f 38 57 40

usemtl m90
f 38 40 39

usemtl m91
f 28 58 46

usemtl m92
f 28 46 29

usemtl m93
f 49 48 53

usemtl m94
f 49 53 52

usemtl m95
f 49 52 51

usemtl m96
f 49 51 50

usemtl m97
f 48 59 60

usemtl m98
f 48 60 53

usemtl m99
f 53 60 54

usemtl m100
f 54 60 61

usemtl m101
f 54 61 62

usemtl m102
f 54 62 63

usemtl m103
f 54 63 55

usemtl m104
f 55 63 64

usemtl m105
f 55 64 65

usemtl m106
f 65 64 66

usemtl m107
f 66 64 67

usemtl m108
f 66 67 68

usemtl m109
f 66 68 69

usemtl m110
f 69 68 70

usemtl m111
f 69 70 71

usemtl m112
f 71 70 72

usemtl m113
f 72 70 73

usemtl m114
f 72 73 74

usemtl m115
f 72 74 47

usemtl m116
f 47 74 48

usemtl m117
f 48 74 59

usemtl m118
f 59 74 75

usemtl m119
f 59 75 76

usemtl m120
f 59 76 60

usemtl m121
f 60 76 61

usemtl m122
f 58 28 45

usemtl m123
f 58 45 44

usemtl m124
f 28 27 45

usemtl m125
f 70 68 77

usemtl m126
f 70 77 78

usemtl m127
f 70 78 73

usemtl m128
f 73 78 79

usemtl m129
f 73 79 74

usemtl m130
f 74 79 75

usemtl m131
f 46 58 80

usemtl m132
f 46 80 81

usemtl m133
f 46 81 82

usemtl m134
f 46 82 83

usemtl m135
f 83 82 84

usemtl m136
f 84 82 85

usemtl m137
f 84 85 80

usemtl m138
f 84 80 58

usemtl m139
f 81 80 86

usemtl m140
f 81 86 87

usemtl m141
f 81 87 88

usemtl m142
f 81 88 82

usemtl m143
f 82 88 85

usemtl m144
f 85 88 89

usemtl m145
f 85 89 86

usemtl m146
f 85 86 80

usemtl m147
f 87 86 90

usemtl m148
f 87 90 91

usemtl m149
f 87 91 92

usemtl m150
f 87 92 88

usemtl m151
f 88 92 93

usemtl m152
f 88 93 89

usemtl m153
f 89 93 90

usemtl m154
f 89 90 86

usemtl m155
f 91 90 93

usemtl m156
f 91 93 92

usemtl m157
f 63 62 94

usemtl m158
f 63 94 64

usemtl m159
f 64 94 95

usemtl m160
f 64 95 67

usemtl m161
f 67 95 96

usemtl m162
f 67 96 68

usemtl m163
f 68 96 77

usemtl m164
f 57 56 97

usemtl m165
f 57 97 98

usemtl m166
f 57 98 99

usemtl m167
f 57 99 100

usemtl m168
f 100 99 101

usemtl m169
f 101 99 102

usemtl m170
f 101 102 97

usemtl m171
f 101 97 56

usemtl m172
f 98 97 103

usemtl m173
f 98 103 104

usemtl m174
f 98 104 105

usemtl m175
f 98 105 99

usemtl m176
f 99 105 102

usemtl m177
f 102 105 106

usemtl m178
f 102 106 103

usemtl m179
f 102 103 97

usemtl m180
f 104 103 107

usemtl m181
f 104 107 108

usemtl m182
f 104 108 109

usemtl m183
f 104 109 105

usemtl m184
f 105 109 110

usemtl m185
f 105 110 106

usemtl m186
f 106 110 107

usemtl m187
f 106 107 103

usemtl m188
f 108 107 110

usemtl m189
f 108 110 109

