mtllib 25958.mtl
o runescapemodel
v -95 477 77
v -68 471 67
v -68 486 60
v -97 490 73
v -114 476 74
v -100 461 48
v -71 463 48
v -70 468 49
v -70 473 58
v -66 478 54
v -74 476 48
v -98 471 48
v -114 487 69
v -135 476 75
v -121 465 51
v -119 473 48
v -69 473 48
v -54 469 48
v -54 455 48
v -52 461 64
v -52 476 61
v -134 484 74
v -167 481 66
v -137 468 50
v -137 473 48
v -45 490 75
v -49 474 48
v -49 438 48
v -45 453 75
v -43 476 82
v -22 526 82
v -23 484 48
v -44 453 44
v -12 425 45
v -26 444 67
v -19 492 109
v 0 555 100
v -24 652 111
v 34 605 44
v -11 234 -15
v 0 228 6
v 4 240 6
v -6 244 -15
v -10 228 -29
v 3 222 -30
v 4 227 -17
v 6 219 -17
v 4 221 5
v 4 226 6
v 4 228 5
v 4 235 5
v 6 234 4
v 6 228 -16
v -6 236 -31
v -11 226 -40
v 1 221 -37
v 4 219 -30
v -10 230 -41
v -6 227 -65
v 4 219 -42
v 4 221 -41
v 4 226 -31
v 4 230 5
v 6 228 18
v 6 221 18
v 4 222 18
v 4 232 19
v 2 240 21
v 7 232 20
v 6 212 20
v -3 219 21
v -18 239 27
v 4 244 38
v 25 218 29
v 43 212 35
v 19 186 43
v 6 147 44
v -8 175 49
v -16 228 54
v -24 245 39
v -8 254 38
v 13 330 43
v 19 230 47
v 21 218 62
v 42 190 48
v 26 184 48
v 18 135 47
v 6 147 46
v -22 154 47
v -25 143 47
v -11 152 72
v 3 155 84
v 6 191 73
v -9 238 76
v -35 247 71
v -40 247 47
v -30 267 47
v -16 270 47
v -14 338 44
v 8 392 33
v 32 387 47
v 43 378 51
v 30 338 60
v 16 247 57
v 6 247 73
v 7 192 89
v 24 196 76
v 36 181 64
v 30 176 51
v 27 130 58
v 26 104 49
v 38 101 47
v 20 124 28
v 8 132 24
v -5 148 27
v -14 147 32
v -20 148 44
v -24 140 47
v -3 128 47
v -7 141 50
v 8 146 67
v 7 174 92
v 106 581 62
v 77 565 63
v 74 582 70
v 103 591 65
v 118 575 67
v 103 565 103
v 73 556 85
v 73 561 81
v 74 566 70
v 73 574 74
v 70 574 91
v 99 577 106
v 123 582 74
v 137 573 73
v 117 563 97
v 119 574 103
v 71 570 83
v 58 569 79
v 61 556 78
v 67 562 65
v 63 573 69
v 139 581 74
v 170 566 86
v 137 562 97
v 136 571 99
v 95 390 100
v 68 382 92
v 64 395 96
v 93 399 102
v 104 390 111
v 79 376 129
v 60 374 106
v 61 381 103
v 64 382 96
v 62 387 98
v 56 387 110
v 75 384 131
v 101 395 114
v 116 389 119
v 94 380 132
v 93 387 135
v 59 386 105
v 50 387 96
v 48 375 97
v 55 382 88
v 54 390 88
v 115 392 121
v 138 387 143
v 104 382 138
v 103 383 139
v -69 276 66
v -49 261 62
v -47 276 53
v -69 284 61
v -83 276 62
v -75 259 47
v -50 254 47
v -49 259 48
v -49 263 53
v -48 270 50
v -50 266 47
v -71 266 47
v -83 286 55
v -99 280 61
v -87 270 47
v -85 274 47
v -50 262 47
v -35 263 47
v -39 258 47
v -37 260 59
v -32 266 59
v -97 286 56
v -123 286 50
v -103 274 47
v -102 276 47
v 1 450 -37
v 4 443 -9
v 5 459 -6
v 4 463 -37
v 4 450 -51
v 7 444 -51
v 7 444 -38
v 22 437 -35
v 7 437 -7
v 7 441 -6
v 6 444 -9
v 7 450 -7
v 13 451 -6
v 27 447 -33
v 6 461 -52
v 4 449 -68
v 7 444 -62
v 15 438 -51
v 6 455 -68
v 7 454 -96
v 17 438 -69
v 16 444 -68
v 20 447 -49
v 7 446 -6
v 7 445 7
v 7 436 6
v 7 438 2
v 7 452 5
v -48 143 37
v -30 143 46
v -28 149 40
v -47 148 34
v -54 140 26
v -34 138 16
v -21 140 32
v -24 143 36
v -25 146 40
v -25 146 37
v -21 146 29
v -33 143 15
v -54 146 24
v -64 140 19
v -47 136 12
v -47 143 9
v -24 146 36
v -15 143 32
v -19 146 43
v -65 143 16
v -75 139 1
v -54 138 7
v -54 140 6
v 31 341 95
v 25 315 83
v 63 378 74
v 39 392 99
v 28 376 112
v 8 322 108
v 7 299 100
v 29 399 79
v 52 399 81
v 45 429 63
v 22 437 96
v 8 364 102
v -10 314 82
v 4 301 104
v 4 254 85
v 64 387 52
v 57 399 41
v 36 438 48
v 29 533 46
v 41 517 68
v 21 510 95
v 4 470 94
v 4 437 98
v -22 338 56
v -24 270 71
v -8 263 94
v -23 252 88
v 43 430 20
v 14 444 44
v -4 580 25
v 28 593 12
v 55 561 38
v 65 551 50
v 55 527 84
v 38 551 108
v 8 526 121
v 13 425 15
v 13 452 16
v 4 461 16
v -5 465 43
v -36 598 55
v -25 612 12
v 8 602 2
v 12 634 34
v 41 578 64
v 58 577 60
v 48 570 87
v 25 566 88
v 11 561 97
v 4 429 8
v -26 439 16
v 26 644 79
v 8 644 102
v -11 691 118
v -46 663 105
v -38 635 85
v 41 767 82
v 23 767 99
v -12 767 113
v -15 709 115
v -28 694 100
v -42 681 61
v -62 644 51
v -54 637 31
v -21 651 32
v -4 644 29
v 22 644 42
v 34 571 76
v 37 767 46
v 22 767 56
v 24 767 78
v 14 767 87
v -8 767 96
v -33 767 94
v -44 767 63
v 16 76 73
v 20 76 48
v 40 91 49
v 10 93 64
v 10 70 74
v 9 64 61
v 25 29 47
v 22 33 47
v 23 92 48
v 15 130 71
v 8 130 72
v 7 90 61
v -6 62 66
v 5 29 66
v 13 32 53
v 15 21 56
v 32 21 47
v 24 21 46
v 13 32 41
v 9 101 45
v 12 21 39
v 15 0 31
v 10 0 39
v -1 8 39
v -7 24 47
v 22 0 39
v 32 8 39
v 32 0 34
v 39 8 47
v 45 0 40
v 49 0 47
v 45 0 54
v 32 8 55
v 32 0 60
v 22 0 55
v 15 0 63
v 6 21 62
v -2 0 60
v -1 8 55
v -17 0 54
v -11 0 63
v -10 11 52
v -18 0 47
v -8 32 54
v -12 68 48
v -3 76 48
v 1 71 46
v -9 136 26
v -2 0 34
v -17 0 40
v 14 155 67
v 26 176 81
v 20 182 88
v 13 180 90
v 13 186 89
v 19 187 87
v 6 767 31
v 4 767 47
v 0 767 71
v -20 767 84
v -26 767 66
v -19 767 35
v 24 186 93
v 24 186 91
v 20 180 95
v 19 186 95
v 13 186 99
v 25 192 92
v 30 182 90
v 17 176 96
v 19 180 120
v 44 189 108
v 47 183 106
v 21 174 117
v 28 176 129
v 47 186 123
v 47 176 118
v 30 174 127
v 35 175 136
v 51 180 131
v 52 176 129
v 36 174 136
v 52 180 155
v -12 767 50
vn 157 197 -920
vn 858 366 -315
vn 720 -462 -180
vn -85 -862 -227
vn -129 404 -1049
vn -69 986 290
vn 525 333 691
vn 581 261 464
vn 429 237 -441
vn 429 -602 -40
vn 110 -723 1173
vn -22 -616 1218
vn -38 -1090 -174
vn -97 537 -996
vn -121 957 412
vn -29 -256 1021
vn 507 -424 992
vn -343 -490 1015
vn -553 440 522
vn -902 121 -813
vn -572 -588 -140
vn -60 -528 -303
vn -260 41 -27
vn -250 647 276
vn -197 -416 1009
vn -1248 -733 28
vn -430 -428 1153
vn -773 631 300
vn -890 349 -779
vn -659 67 -801
vn -1732 -245 -537
vn -801 -358 1142
vn -467 -45 1103
vn -913 761 651
vn -1213 793 -1043
vn -684 178 -1026
vn -376 -225 -1219
vn -580 293 -1077
vn 851 -484 486
vn -929 391 -354
vn -693 307 -806
vn 226 -201 -666
vn -44 -718 202
vn -879 123 -25
vn -1118 1115 -450
vn -690 574 -86
vn -194 333 18
vn 632 217 -512
vn 539 -78 -454
vn -245 95 -431
vn 218 51 -488
vn 1005 -165 -599
vn 1334 -443 166
vn -47 -961 354
vn -1021 453 -92
vn -726 960 -106
vn 147 377 -76
vn -238 -512 147
vn -114 136 172
vn 202 378 95
vn 1170 -603 325
vn 1111 -346 204
vn 1229 -109 -405
vn 1072 -261 698
vn 348 256 519
vn -830 309 824
vn 5 -233 733
vn 86 -581 1063
vn 1075 -376 768
vn 521 367 1608
vn -1315 460 1474
vn -335 -402 692
vn 766 -837 935
vn 668 -590 698
vn 715 -230 499
vn 579 547 1211
vn -483 538 795
vn -1746 -30 -331
vn -1037 787 33
vn -787 160 837
vn -289 -498 1507
vn 946 146 1716
vn 1095 -595 221
vn 1290 -779 -1006
vn 618 367 202
vn 792 430 997
vn 983 -294 762
vn -10 -296 465
vn -515 -486 713
vn -411 402 -785
vn -453 191 -432
vn -706 74 -554
vn -694 -131 -734
vn -395 842 -1084
vn -1169 267 -718
vn -870 290 510
vn -398 -689 1206
vn -948 -423 548
vn -980 9 1321
vn 2 547 1408
vn 370 538 1313
vn 1025 716 852
vn 1073 304 230
vn 1113 -59 -139
vn 1449 335 -1038
vn -404 -501 -993
vn 885 -649 -926
vn 1065 140 -165
vn 998 283 -63
vn 1047 129 50
vn 606 -184 -705
vn 392 -40 21
vn 364 95 775
vn 396 -252 947
vn -150 -719 943
vn -699 -479 996
vn -820 -372 414
vn -676 118 570
vn -614 400 -34
vn -980 305 -384
vn 43 733 -1217
vn 490 411 -1189
vn 59 202 841
vn -523 522 619
vn -913 -386 606
vn 147 -957 396
vn 198 349 869
vn 76 1156 -345
vn -842 530 -232
vn -712 528 -208
vn -364 428 569
vn -644 -494 487
vn -981 -379 -268
vn -127 -480 -914
vn 395 -1222 321
vn 159 522 998
vn 20 1005 -388
vn 236 -173 -826
vn -931 -349 -291
vn 106 -619 -952
vn 752 452 -629
vn 1002 -30 450
vn 421 -1025 142
vn 180 -498 300
vn 242 45 9
vn 64 562 -275
vn 254 -476 -975
vn 443 240 765
vn -225 654 751
vn -560 -406 859
vn 278 -993 186
vn 697 302 616
vn 124 1225 -353
vn -900 533 178
vn -679 637 -37
vn -90 583 686
vn -248 -320 677
vn -959 -252 15
vn -534 -405 -794
vn 382 -1408 15
vn 558 257 659
vn 0 1120 -380
vn -186 -182 -850
vn -835 -200 111
vn 26 -475 -977
vn 371 541 -714
vn 1074 243 83
vn 809 -788 -283
vn 238 -764 105
vn 170 45 -76
vn 67 871 -231
vn -166 -205 -843
vn 34 -14 -958
vn 746 377 -484
vn 866 -360 37
vn 61 -826 -2
vn -371 153 -1014
vn -339 740 199
vn 393 278 582
vn 672 313 520
vn 594 409 -417
vn 576 -274 133
vn 344 -370 1022
vn 174 -422 1371
vn 148 -1028 191
vn -228 175 -927
vn -274 618 441
vn 89 -267 1191
vn 526 -216 849
vn -243 -634 849
vn -364 396 517
vn -924 -111 -742
vn -397 -854 -166
vn 3 -660 0
vn -131 -135 152
vn -189 413 284
vn 19 -483 1366
vn -1337 349 81
vn -993 452 -508
vn -462 -110 -792
vn -278 -753 25
vn -1201 85 134
vn -1267 1177 -11
vn -575 823 43
vn 78 1103 158
vn 290 417 -549
vn 260 0 -316
vn -537 -225 -792
vn -466 -2 -758
vn 460 -292 -930
vn 1089 -276 -84
vn -52 -874 283
vn -1370 211 87
vn -853 915 122
vn 250 798 62
vn -113 -500 103
vn -151 63 178
vn 201 321 104
vn 1275 -475 186
vn 1021 -25 367
vn 996 -33 -501
vn 1353 -158 279
vn 763 -315 130
vn -360 -317 31
vn 26 -54 118
vn -384 79 -562
vn 445 236 -681
vn 393 -1002 -585
vn -479 -1026 -257
vn -589 528 -626
vn 360 1225 376
vn 1030 302 -129
vn 500 217 -92
vn 577 -48 -521
vn 208 -912 -216
vn 650 -833 66
vn 522 -541 686
vn -557 -1211 -255
vn -631 508 -569
vn 242 1029 522
vn 257 -238 778
vn 258 -812 70
vn -532 466 487
vn -753 219 172
vn -373 -663 -149
vn -171 64 138
vn 96 719 419
vn 233 -419 866
vn 1360 698 -828
vn 1304 460 -409
vn 1108 265 -169
vn 117 -701 -1090
vn 97 -94 -621
vn 165 246 -1153
vn 1003 308 -691
vn 246 -481 -735
vn 945 -969 -769
vn 1524 -454 -260
vn 861 3 -1358
vn -589 -389 -1154
vn -1911 -125 -1027
vn 40 183 -846
vn 721 670 -985
vn 855 142 440
vn 716 -54 467
vn 783 -494 458
vn 1050 623 1597
vn 998 338 -315
vn 735 312 -824
vn 26 306 -1254
vn -497 -64 -1036
vn -902 44 110
vn -1265 -1146 -396
vn -438 57 -867
vn -391 270 -801
vn 637 -163 849
vn 719 -738 642
vn -498 706 1569
vn 591 52 935
vn 790 -257 682
vn 1089 112 574
vn 1122 508 -352
vn 497 -147 -1074
vn 171 -52 -1117
vn 670 223 911
vn 912 -540 626
vn 312 -768 451
vn -172 -540 917
vn -1463 608 227
vn -526 77 1046
vn 160 -87 898
vn 734 -506 836
vn 957 -668 -181
vn 542 -1303 -62
vn 537 -962 -911
vn 285 -685 -754
vn 371 -508 -1182
vn -653 498 975
vn -514 -37 540
vn 1699 -29 -743
vn 1223 69 -1772
vn 110 -2 -803
vn -1146 -94 -858
vn -983 458 -549
vn 627 -694 -313
vn 270 -747 -422
vn 52 -779 -647
vn -316 -229 -946
vn -861 -254 -342
vn -1242 -343 114
vn -1041 -83 106
vn -535 -60 468
vn -714 -582 1581
vn 415 -452 1536
vn 1103 -199 697
vn 399 -728 -565
vn 729 -698 513
vn 0 -1280 0
vn 0 -1280 0
vn 0 -1280 0
vn 0 -1280 0
vn -844 -767 -530
vn -639 -767 234
vn 579 288 -538
vn 590 339 27
vn 444 -59 -150
vn 206 -193 -1538
vn -165 136 -721
vn 1032 555 -974
vn 601 -209 -53
vn 348 -70 682
vn 276 297 1136
vn 535 -57 -1282
vn -492 8 -981
vn -1130 -176 -879
vn -801 -112 -939
vn -11 311 -961
vn 799 -73 -901
vn 807 -491 -1445
vn 457 -360 -55
vn 756 -518 1933
vn 236 -154 1617
vn -399 496 1347
vn -142 -275 1278
vn 93 -152 507
vn -130 -140 601
vn -318 -625 1125
vn -1458 -145 844
vn 24 -246 600
vn 162 -469 720
vn 151 -413 512
vn 1036 -1131 428
vn 221 -378 241
vn 300 -376 0
vn 370 -507 -400
vn 410 -653 -1125
vn -7 -252 -403
vn 95 -171 -621
vn 281 -116 -622
vn -234 -122 -1402
vn -353 -464 -535
vn -460 -224 -747
vn -344 -609 -470
vn 0 -256 0
vn -734 -345 -780
vn -660 -521 78
vn -836 242 -388
vn -657 -136 74
vn -791 -286 394
vn -570 -22 1397
vn -975 459 875
vn 7 -256 412
vn -195 -365 218
vn 595 351 -776
vn 1214 451 -803
vn 515 30 -541
vn 207 242 -945
vn -174 -614 -1036
vn 625 -833 -331
vn 30 -777 734
vn 0 -1280 0
vn 0 -2048 0
vn 0 -1280 0
vn 0 -1280 0
vn -230 -782 422
vn -352 -729 359
vn -344 189 496
vn -503 235 477
vn -411 -734 225
vn -593 -608 216
vn -134 -537 706
vn 78 377 971
vn -707 406 666
vn -810 -356 -488
vn 480 -956 -98
vn 622 125 453
vn -335 1385 -27
vn -551 129 -576
vn 510 -1021 -272
vn 775 557 249
vn -327 1347 -255
vn -594 -145 -634
vn 399 -599 -96
vn 810 550 156
vn -236 809 -296
vn 77 80 -196
vn 0 -1280 0
usemtl m0
f 1 2 3

usemtl m1
f 1 3 4

usemtl m2
f 1 4 5

usemtl m3
f 1 5 6

usemtl m4
f 1 6 2

usemtl m5
f 2 6 7

usemtl m6
f 2 7 8

usemtl m7
f 2 8 9

usemtl m8
f 2 9 3

usemtl m9
f 3 9 10

usemtl m10
f 3 10 11

usemtl m11
f 3 11 4

usemtl m12
f 4 11 12

usemtl m13
f 4 12 13

usemtl m14
f 4 13 5

usemtl m15
f 5 13 14

usemtl m16
f 5 14 15

usemtl m17
f 5 15 6

usemtl m18
f 6 15 16

usemtl m19
f 6 16 12

usemtl m20
f 6 12 7

usemtl m21
f 7 12 11

usemtl m22
f 7 11 17

usemtl m23
f 7 17 8

usemtl m24
f 8 17 18

usemtl m25
f 8 18 19

usemtl m26
f 8 19 9

usemtl m27
f 9 19 20

usemtl m28
f 9 20 10

usemtl m29
f 10 20 21

usemtl m30
f 10 21 17

usemtl m31
f 10 17 11

usemtl m32
f 14 13 22

usemtl m33
f 14 22 23

usemtl m34
f 14 23 24

usemtl m35
f 14 24 15

usemtl m36
f 15 24 25

usemtl m37
f 15 25 16

usemtl m38
f 16 25 13

usemtl m39
f 16 13 12

usemtl m40
f 25 22 13

usemtl m41
f 22 25 23

usemtl m42
f 23 25 24

usemtl m43
f 17 21 18

usemtl m44
f 18 21 26

usemtl m45
f 18 26 27

usemtl m46
f 18 27 19

usemtl m47
f 19 27 28

usemtl m48
f 19 28 20

usemtl m49
f 20 28 29

usemtl m50
f 20 29 21

usemtl m51
f 21 29 26

usemtl m52
f 26 29 30

usemtl m53
f 26 30 31

usemtl m54
f 26 31 32

usemtl m55
f 26 32 27

usemtl m56
f 27 32 33

usemtl m57
f 27 33 28

usemtl m58
f 28 33 34

usemtl m59
f 28 34 35

usemtl m60
f 28 35 29

usemtl m61
f 29 35 30

usemtl m62
f 30 35 36

usemtl m63
f 30 36 31

usemtl m64
f 31 36 37

usemtl m65
f 31 37 38

usemtl m66
f 31 38 39

usemtl m67
f 40 41 42

usemtl m68
f 40 42 43

usemtl m69
f 40 43 44

usemtl m70
f 40 44 45

usemtl m71
f 40 45 46

usemtl m72
f 40 46 41

usemtl m73
f 41 46 47

usemtl m74
f 41 47 48

usemtl m75
f 41 48 49

usemtl m76
f 41 49 50

usemtl m77
f 41 50 42

usemtl m78
f 42 50 51

usemtl m79
f 42 51 52

usemtl m80
f 42 52 43

usemtl m81
f 43 52 53

usemtl m82
f 43 53 54

usemtl m83
f 43 54 44

usemtl m84
f 44 54 55

usemtl m85
f 44 55 45

usemtl m86
f 45 55 56

usemtl m87
f 45 56 57

usemtl m88
f 45 57 47

usemtl m89
f 45 47 46

usemtl m90
f 55 54 58

usemtl m91
f 55 58 59

usemtl m92
f 55 59 56

usemtl m93
f 56 59 60

usemtl m94
f 56 60 57

usemtl m95
f 57 60 61

usemtl m96
f 57 61 62

usemtl m97
f 57 62 47

usemtl m98
f 47 62 53

usemtl m99
f 47 53 48

usemtl m100
f 48 53 52

usemtl m101
f 48 52 63

usemtl m102
f 48 63 49

usemtl m103
f 49 63 64

usemtl m104
f 49 64 65

usemtl m105
f 49 65 50

usemtl m106
f 50 65 66

usemtl m107
f 50 66 51

usemtl m108
f 51 66 67

usemtl m109
f 51 67 63

usemtl m110
f 51 63 52

usemtl m111
f 61 58 54

usemtl m112
f 61 54 62

usemtl m113
f 62 54 53

usemtl m114
f 59 58 61

usemtl m115
f 59 61 60

usemtl m116
f 63 67 64

usemtl m117
f 64 67 68

usemtl m118
f 64 68 69

usemtl m119
f 64 69 65

usemtl m120
f 65 69 70

usemtl m121
f 65 70 66

usemtl m122
f 66 70 71

usemtl m123
f 66 71 67

usemtl m124
f 67 71 68

usemtl m125
f 68 71 72

usemtl m126
f 68 72 73

usemtl m127
f 68 73 69

usemtl m128
f 69 73 74

usemtl m129
f 69 74 70

usemtl m130
f 70 74 75

usemtl m131
f 70 75 76

usemtl m132
f 70 76 77

usemtl m133
f 70 77 71

usemtl m134
f 71 77 78

usemtl m135
f 71 78 79

usemtl m136
f 71 79 80

usemtl m137
f 71 80 72

usemtl m138
f 72 80 81

usemtl m139
f 72 81 73

usemtl m140
f 73 81 82

usemtl m141
f 73 82 83

usemtl m142
f 73 83 74

usemtl m143
f 74 83 75

usemtl m144
f 75 83 84

usemtl m145
f 75 84 85

usemtl m146
f 75 85 76

usemtl m147
f 76 85 86

usemtl m148
f 76 86 87

usemtl m149
f 76 87 77

usemtl m150
f 77 87 88

usemtl m151
f 77 88 78

usemtl m152
f 78 88 89

usemtl m153
f 78 89 90

usemtl m154
f 78 90 91

usemtl m155
f 78 91 92

usemtl m156
f 78 92 93

usemtl m157
f 78 93 94

usemtl m158
f 78 94 79

usemtl m159
f 79 94 95

usemtl m160
f 79 95 96

usemtl m161
f 79 96 80

usemtl m162
f 80 96 97

usemtl m163
f 80 97 81

usemtl m164
f 81 97 98

usemtl m165
f 81 98 99

usemtl m166
f 81 99 82

usemtl m167
f 82 99 100

usemtl m168
f 82 100 101

usemtl m169
f 82 101 102

usemtl m170
f 82 102 103

usemtl m171
f 82 103 104

usemtl m172
f 82 104 83

usemtl m173
f 83 104 84

usemtl m174
f 84 104 105

usemtl m175
f 84 105 93

usemtl m176
f 84 93 106

usemtl m177
f 84 106 107

usemtl m178
f 84 107 108

usemtl m179
f 84 108 85

usemtl m180
f 85 108 86

usemtl m181
f 86 108 109

usemtl m182
f 86 109 110

usemtl m183
f 86 110 87

usemtl m184
f 87 110 111

usemtl m185
f 87 111 112

usemtl m186
f 87 112 113

usemtl m187
f 87 113 114

usemtl m188
f 87 114 88

usemtl m189
f 88 114 115

usemtl m190
f 88 115 89

usemtl m191
f 89 115 116

usemtl m192
f 89 116 117

usemtl m193
f 89 117 118

usemtl m194
f 89 118 90

usemtl m195
f 90 118 119

usemtl m196
f 90 119 120

usemtl m197
f 90 120 121

usemtl m198
f 90 121 91

usemtl m199
f 91 121 92

usemtl m200
f 92 121 122

usemtl m201
f 92 122 106

usemtl m202
f 92 106 93

usemtl m203
f 123 124 125

usemtl m204
f 123 125 126

usemtl m205
f 123 126 127

usemtl m206
f 123 127 128

usemtl m207
f 123 128 124

usemtl m208
f 124 128 129

usemtl m209
f 124 129 130

usemtl m210
f 124 130 131

usemtl m211
f 124 131 125

usemtl m212
f 125 131 132

usemtl m213
f 125 132 133

usemtl m214
f 125 133 126

usemtl m215
f 126 133 134

usemtl m216
f 126 134 135

usemtl m217
f 126 135 127

usemtl m218
f 127 135 136

usemtl m219
f 127 136 137

usemtl m220
f 127 137 128

usemtl m221
f 128 137 138

usemtl m222
f 128 138 134

usemtl m223
f 128 134 129

usemtl m224
f 129 134 133

usemtl m225
f 129 133 139

usemtl m226
f 129 139 130

usemtl m227
f 130 139 140

usemtl m228
f 130 140 141

usemtl m229
f 130 141 131

usemtl m230
f 131 141 142

usemtl m231
f 131 142 132

usemtl m232
f 132 142 143

usemtl m233
f 132 143 139

usemtl m234
f 132 139 133

usemtl m235
f 136 135 144

usemtl m236
f 136 144 145

usemtl m237
f 136 145 146

usemtl m238
f 136 146 137

usemtl m239
f 137 146 147

usemtl m240
f 137 147 138

usemtl m241
f 138 147 135

usemtl m242
f 138 135 134

usemtl m243
f 147 144 135

usemtl m244
f 144 147 145

usemtl m245
f 145 147 146

usemtl m246
f 148 149 150

usemtl m247
f 148 150 151

usemtl m248
f 148 151 152

usemtl m249
f 148 152 153

usemtl m250
f 148 153 149

usemtl m251
f 149 153 154

usemtl m252
f 149 154 155

usemtl m253
f 149 155 156

usemtl m254
f 149 156 150

usemtl m255
f 150 156 157

usemtl m256
f 150 157 158

usemtl m257
f 150 158 151

usemtl m258
f 151 158 159

usemtl m259
f 151 159 160

usemtl m260
f 151 160 152

usemtl m261
f 152 160 161

usemtl m262
f 152 161 162

usemtl m263
f 152 162 153

usemtl m264
f 153 162 163

usemtl m265
f 153 163 159

usemtl m266
f 153 159 154

usemtl m267
f 154 159 158

usemtl m268
f 154 158 164

usemtl m269
f 154 164 155

usemtl m270
f 155 164 165

usemtl m271
f 155 165 166

usemtl m272
f 155 166 156

usemtl m273
f 156 166 167

usemtl m274
f 156 167 157

usemtl m275
f 157 167 168

usemtl m276
f 157 168 164

usemtl m277
f 157 164 158

usemtl m278
f 161 160 169

usemtl m279
f 161 169 170

usemtl m280
f 161 170 171

usemtl m281
f 161 171 162

usemtl m282
f 162 171 172

usemtl m283
f 162 172 163

usemtl m284
f 163 172 160

usemtl m285
f 163 160 159

usemtl m286
f 172 169 160

usemtl m287
f 169 172 170

usemtl m288
f 170 172 171

usemtl m289
f 173 174 175

usemtl m290
f 173 175 176

usemtl m291
f 173 176 177

usemtl m292
f 173 177 178

usemtl m293
f 173 178 174

usemtl m294
f 174 178 179

usemtl m295
f 174 179 180

usemtl m296
f 174 180 181

usemtl m297
f 174 181 175

usemtl m298
f 175 181 182

usemtl m299
f 175 182 183

usemtl m300
f 175 183 176

usemtl m301
f 176 183 184

usemtl m302
f 176 184 185

usemtl m303
f 176 185 177

usemtl m304
f 177 185 186

usemtl m305
f 177 186 187

usemtl m306
f 177 187 178

usemtl m307
f 178 187 188

usemtl m308
f 178 188 184

usemtl m309
f 178 184 179

usemtl m310
f 179 184 183

usemtl m311
f 179 183 189

usemtl m312
f 179 189 180

usemtl m313
f 180 189 190

usemtl m314
f 180 190 191

usemtl m315
f 180 191 181

usemtl m316
f 181 191 192

usemtl m317
f 181 192 182

usemtl m318
f 182 192 193

usemtl m319
f 182 193 189

usemtl m320
f 182 189 183

usemtl m321
f 186 185 194

usemtl m322
f 186 194 195

usemtl m323
f 186 195 196

usemtl m324
f 186 196 187

usemtl m325
f 187 196 197

usemtl m326
f 187 197 188

usemtl m327
f 188 197 185

usemtl m328
f 188 185 184

usemtl m329
f 197 194 185

usemtl m330
f 194 197 195

usemtl m331
f 195 197 196

usemtl m332
f 198 199 200

usemtl m333
f 198 200 201

usemtl m334
f 198 201 202

usemtl m335
f 198 202 203

usemtl m336
f 198 203 204

usemtl m337
f 198 204 199

usemtl m338
f 199 204 205

usemtl m339
f 199 205 206

usemtl m340
f 199 206 207

usemtl m341
f 199 207 208

usemtl m342
f 199 208 200

usemtl m343
f 200 208 209

usemtl m344
f 200 209 210

usemtl m345
f 200 210 201

usemtl m346
f 201 210 211

usemtl m347
f 201 211 212

usemtl m348
f 201 212 202

usemtl m349
f 202 212 213

usemtl m350
f 202 213 203

usemtl m351
f 203 213 214

usemtl m352
f 203 214 215

usemtl m353
f 203 215 205

usemtl m354
f 203 205 204

usemtl m355
f 213 212 216

usemtl m356
f 213 216 217

usemtl m357
f 213 217 214

usemtl m358
f 214 217 218

usemtl m359
f 214 218 215

usemtl m360
f 215 218 219

usemtl m361
f 215 219 220

usemtl m362
f 215 220 205

usemtl m363
f 205 220 211

usemtl m364
f 205 211 206

usemtl m365
f 206 211 210

usemtl m366
f 206 210 221

usemtl m367
f 206 221 207

usemtl m368
f 207 221 222

usemtl m369
f 207 222 223

usemtl m370
f 207 223 208

usemtl m371
f 208 223 224

usemtl m372
f 208 224 209

usemtl m373
f 209 224 225

usemtl m374
f 209 225 221

usemtl m375
f 209 221 210

usemtl m376
f 219 216 212

usemtl m377
f 219 212 220

usemtl m378
f 220 212 211

usemtl m379
f 217 216 219

usemtl m380
f 217 219 218

usemtl m381
f 226 227 228

usemtl m382
f 226 228 229

usemtl m383
f 226 229 230

usemtl m384
f 226 230 231

usemtl m385
f 226 231 227

usemtl m386
f 227 231 232

usemtl m387
f 227 232 233

usemtl m388
f 227 233 234

usemtl m389
f 227 234 228

usemtl m390
f 228 234 235

usemtl m391
f 228 235 236

usemtl m392
f 228 236 229

usemtl m393
f 229 236 237

usemtl m394
f 229 237 238

usemtl m395
f 229 238 230

usemtl m396
f 230 238 239

usemtl m397
f 230 239 240

usemtl m398
f 230 240 231

usemtl m399
f 231 240 241

usemtl m400
f 231 241 237

usemtl m401
f 231 237 232

usemtl m402
f 232 237 236

usemtl m403
f 232 236 242

usemtl m404
f 232 242 233

usemtl m405
f 233 242 116

usemtl m406
f 233 116 243

usemtl m407
f 233 243 234

usemtl m408
f 234 243 244

usemtl m409
f 234 244 235

usemtl m410
f 235 244 117

usemtl m411
f 235 117 242

usemtl m412
f 235 242 236

usemtl m413
f 239 238 245

usemtl m414
f 239 245 246

usemtl m415
f 239 246 247

usemtl m416
f 239 247 240

usemtl m417
f 240 247 248

usemtl m418
f 240 248 241

usemtl m419
f 241 248 238

usemtl m420
f 241 238 237

usemtl m421
f 248 245 238

usemtl m422
f 245 248 246

usemtl m423
f 246 248 247

usemtl m424
f 249 250 102

usemtl m425
f 249 102 251

usemtl m426
f 249 251 167

usemtl m427
f 249 167 166

usemtl m428
f 249 166 252

usemtl m429
f 249 252 253

usemtl m430
f 249 253 254

usemtl m431
f 249 254 250

usemtl m432
f 250 254 255

usemtl m433
f 250 255 105

usemtl m434
f 250 105 103

usemtl m435
f 250 103 102

usemtl m436
f 256 252 257

usemtl m437
f 256 257 258

usemtl m438
f 256 258 259

usemtl m439
f 256 259 260

usemtl m440
f 256 260 252

usemtl m441
f 252 260 253

usemtl m442
f 253 260 254

usemtl m443
f 254 260 261

usemtl m444
f 254 261 262

usemtl m445
f 254 262 255

usemtl m446
f 255 262 263

usemtl m447
f 255 263 105

usemtl m448
f 105 263 94

usemtl m449
f 105 94 93

usemtl m450
f 251 102 264

usemtl m451
f 251 264 257

usemtl m452
f 251 257 168

usemtl m453
f 251 168 167

usemtl m454
f 258 257 264

usemtl m455
f 258 264 265

usemtl m456
f 258 265 266

usemtl m457
f 258 266 267

usemtl m458
f 258 267 268

usemtl m459
f 258 268 259

usemtl m460
f 259 268 269

usemtl m461
f 259 269 270

usemtl m462
f 259 270 271

usemtl m463
f 259 271 260

usemtl m464
f 260 271 261

usemtl m465
f 261 271 35

usemtl m466
f 261 35 272

usemtl m467
f 261 272 98

usemtl m468
f 261 98 273

usemtl m469
f 261 273 274

usemtl m470
f 261 274 262

usemtl m471
f 262 274 263

usemtl m472
f 263 274 275

usemtl m473
f 263 275 94

usemtl m474
f 94 275 95

usemtl m475
f 95 275 273

usemtl m476
f 95 273 193

usemtl m477
f 95 193 192

usemtl m478
f 95 192 96

usemtl m479
f 96 192 191

usemtl m480
f 96 191 97

usemtl m481
f 97 191 190

usemtl m482
f 97 190 273

usemtl m483
f 97 273 98

usemtl m484
f 264 102 101

usemtl m485
f 264 101 265

usemtl m486
f 265 101 276

usemtl m487
f 265 276 266

usemtl m488
f 266 276 277

usemtl m489
f 266 277 267

usemtl m490
f 267 277 278

usemtl m491
f 267 278 279

usemtl m492
f 267 279 280

usemtl m493
f 267 280 281

usemtl m494
f 267 281 282

usemtl m495
f 267 282 268

usemtl m496
f 268 282 283

usemtl m497
f 268 283 269

usemtl m498
f 269 283 284

usemtl m499
f 269 284 270

usemtl m500
f 270 284 36

usemtl m501
f 270 36 35

usemtl m502
f 270 35 271

usemtl m503
f 276 285 286

usemtl m504
f 276 286 277

usemtl m505
f 277 286 287

usemtl m506
f 277 287 288

usemtl m507
f 277 288 278

usemtl m508
f 278 288 32

usemtl m509
f 278 32 289

usemtl m510
f 278 289 290

usemtl m511
f 278 290 291

usemtl m512
f 278 291 279

usemtl m513
f 279 291 292

usemtl m514
f 279 292 39

usemtl m515
f 279 39 280

usemtl m516
f 280 39 293

usemtl m517
f 280 293 294

usemtl m518
f 280 294 281

usemtl m519
f 281 294 143

usemtl m520
f 281 143 142

usemtl m521
f 281 142 282

usemtl m522
f 282 142 141

usemtl m523
f 282 141 295

usemtl m524
f 282 295 283

usemtl m525
f 283 295 296

usemtl m526
f 283 296 297

usemtl m527
f 283 297 284

usemtl m528
f 284 297 37

usemtl m529
f 284 37 36

usemtl m530
f 276 101 100

usemtl m531
f 276 100 285

usemtl m532
f 285 100 298

usemtl m533
f 285 298 224

usemtl m534
f 285 224 223

usemtl m535
f 285 223 286

usemtl m536
f 286 223 222

usemtl m537
f 286 222 287

usemtl m538
f 287 222 225

usemtl m539
f 287 225 298

usemtl m540
f 287 298 299

usemtl m541
f 287 299 288

usemtl m542
f 288 299 33

usemtl m543
f 288 33 32

usemtl m544
f 99 272 35

usemtl m545
f 99 35 34

usemtl m546
f 99 34 100

usemtl m547
f 100 34 298

usemtl m548
f 298 34 299

usemtl m549
f 299 34 33

usemtl m550
f 297 300 301

usemtl m551
f 297 301 37

usemtl m552
f 37 301 38

usemtl m553
f 38 301 302

usemtl m554
f 38 302 303

usemtl m555
f 38 303 304

usemtl m556
f 38 304 31

usemtl m557
f 31 304 289

usemtl m558
f 31 289 32

usemtl m559
f 301 300 305

usemtl m560
f 301 305 306

usemtl m561
f 301 306 307

usemtl m562
f 301 307 308

usemtl m563
f 301 308 302

usemtl m564
f 302 308 303

usemtl m565
f 303 308 309

usemtl m566
f 303 309 310

usemtl m567
f 303 310 311

usemtl m568
f 303 311 304

usemtl m569
f 304 311 289

usemtl m570
f 289 311 312

usemtl m571
f 289 312 290

usemtl m572
f 290 312 313

usemtl m573
f 290 313 314

usemtl m574
f 290 314 291

usemtl m575
f 291 314 292

usemtl m576
f 292 314 315

usemtl m577
f 292 315 39

usemtl m578
f 39 315 293

usemtl m579
f 293 315 300

usemtl m580
f 293 300 316

usemtl m581
f 293 316 294

usemtl m582
f 294 316 295

usemtl m583
f 294 295 140

usemtl m584
f 294 140 143

usemtl m585
f 143 140 139

usemtl m586
f 300 315 317

usemtl m587
f 300 317 305

usemtl m588
f 305 317 318

usemtl m589
f 305 318 319

usemtl m590
f 305 319 306

usemtl m591
f 306 319 320

usemtl m592
f 306 320 307

usemtl m593
f 307 320 321

usemtl m594
f 307 321 322

usemtl m595
f 307 322 308

usemtl m596
f 308 322 309

usemtl m597
f 309 322 310

usemtl m598
f 310 322 323

usemtl m599
f 310 323 313

usemtl m600
f 310 313 311

usemtl m601
f 311 313 312

usemtl m602
f 296 295 316

usemtl m603
f 296 316 300

usemtl m604
f 296 300 297

usemtl m605
f 324 325 326

usemtl m606
f 324 326 327

usemtl m607
f 324 327 328

usemtl m608
f 324 328 329

usemtl m609
f 324 329 325

usemtl m610
f 325 329 330

usemtl m611
f 325 330 331

usemtl m612
f 325 331 332

usemtl m613
f 325 332 326

usemtl m614
f 326 332 112

usemtl m615
f 326 112 111

usemtl m616
f 326 111 327

usemtl m617
f 327 111 110

usemtl m618
f 327 110 333

usemtl m619
f 327 333 334

usemtl m620
f 327 334 335

usemtl m621
f 327 335 328

usemtl m622
f 328 335 336

usemtl m623
f 328 336 329

usemtl m624
f 329 336 337

usemtl m625
f 329 337 338

usemtl m626
f 329 338 330

usemtl m627
f 330 338 339

usemtl m628
f 330 339 340

usemtl m629
f 330 340 341

usemtl m630
f 330 341 331

usemtl m631
f 331 341 342

usemtl m632
f 331 342 332

usemtl m633
f 332 342 343

usemtl m634
f 332 343 113

usemtl m635
f 332 113 112

usemtl m636
f 344 345 346

usemtl m637
f 344 346 347

usemtl m638
f 344 347 348

usemtl m639
f 344 348 342

usemtl m640
f 344 342 341

usemtl m641
f 344 341 345

usemtl m642
f 345 341 349

usemtl m643
f 349 341 350

usemtl m644
f 349 350 351

usemtl m645
f 351 350 352

usemtl m646
f 351 352 353

usemtl m647
f 353 352 354

usemtl m648
f 354 352 355

usemtl m649
f 355 352 356

usemtl m650
f 355 356 357

usemtl m651
f 357 356 358

usemtl m652
f 358 356 339

usemtl m653
f 358 339 359

usemtl m654
f 359 339 360

usemtl m655
f 359 360 361

usemtl m656
f 361 360 362

usemtl m657
f 361 362 363

usemtl m658
f 361 363 364

usemtl m659
f 365 348 366

usemtl m660
f 365 366 363

usemtl m661
f 365 363 362

usemtl m662
f 365 362 360

usemtl m663
f 365 360 348

usemtl m664
f 348 360 337

usemtl m665
f 348 337 367

usemtl m666
f 348 367 368

usemtl m667
f 348 368 369

usemtl m668
f 348 369 370

usemtl m669
f 348 370 342

usemtl m670
f 342 370 343

usemtl m671
f 343 370 119

usemtl m672
f 343 119 371

usemtl m673
f 343 371 114

usemtl m674
f 343 114 113

usemtl m675
f 347 346 372

usemtl m676
f 347 372 373

usemtl m677
f 347 373 366

usemtl m678
f 347 366 348

usemtl m679
f 356 352 340

usemtl m680
f 356 340 339

usemtl m681
f 340 352 341

usemtl m682
f 341 352 350

usemtl m683
f 360 339 338

usemtl m684
f 360 338 337

usemtl m685
f 370 369 120

usemtl m686
f 370 120 119

usemtl m687
f 120 369 335

usemtl m688
f 120 335 334

usemtl m689
f 120 334 121

usemtl m690
f 121 334 333

usemtl m691
f 121 333 374

usemtl m692
f 121 374 122

usemtl m693
f 122 374 375

usemtl m694
f 122 375 376

usemtl m695
f 122 376 377

usemtl m696
f 122 377 106

usemtl m697
f 106 377 378

usemtl m698
f 106 378 107

usemtl m699
f 107 378 379

usemtl m700
f 107 379 375

usemtl m701
f 107 375 108

usemtl m702
f 108 375 109

usemtl m703
f 109 375 374

usemtl m704
f 109 374 333

usemtl m705
f 109 333 110

usemtl m706
f 105 104 103

usemtl m707
f 367 337 336

usemtl m708
f 367 336 368

usemtl m709
f 368 336 369

usemtl m710
f 369 336 335

usemtl m711
f 114 371 115

usemtl m712
f 115 371 243

usemtl m713
f 115 243 116

usemtl m714
f 371 119 118

usemtl m715
f 371 118 244

usemtl m716
f 371 244 243

usemtl m717
f 274 273 275

usemtl m718
f 272 99 98

usemtl m719
f 317 315 314

usemtl m720
f 317 314 380

usemtl m721
f 317 380 381

usemtl m722
f 317 381 318

usemtl m723
f 318 381 382

usemtl m724
f 318 382 319

usemtl m725
f 319 382 320

usemtl m726
f 320 382 321

usemtl m727
f 321 382 383

usemtl m728
f 321 383 322

usemtl m729
f 322 383 323

usemtl m730
f 323 383 384

usemtl m731
f 323 384 385

usemtl m732
f 323 385 313

usemtl m733
f 313 385 380

usemtl m734
f 313 380 314

usemtl m735
f 117 244 118

usemtl m736
f 242 117 116

usemtl m737
f 190 193 273

usemtl m738
f 193 190 189

usemtl m739
f 225 224 298

usemtl m740
f 221 225 222

usemtl m741
f 379 376 375

usemtl m742
f 376 379 386

usemtl m743
f 376 386 387

usemtl m744
f 376 387 377

usemtl m745
f 377 387 388

usemtl m746
f 377 388 378

usemtl m747
f 378 388 389

usemtl m748
f 378 389 379

usemtl m749
f 379 389 386

usemtl m750
f 386 389 390

usemtl m751
f 386 390 391

usemtl m752
f 386 391 387

usemtl m753
f 387 391 392

usemtl m754
f 387 392 388

usemtl m755
f 388 392 393

usemtl m756
f 388 393 389

usemtl m757
f 389 393 390

usemtl m758
f 390 393 394

usemtl m759
f 390 394 395

usemtl m760
f 390 395 391

usemtl m761
f 391 395 396

usemtl m762
f 391 396 392

usemtl m763
f 392 396 397

usemtl m764
f 392 397 393

usemtl m765
f 393 397 394

usemtl m766
f 394 397 398

usemtl m767
f 394 398 399

usemtl m768
f 394 399 395

usemtl m769
f 395 399 400

usemtl m770
f 395 400 396

usemtl m771
f 396 400 397

usemtl m772
f 397 400 401

usemtl m773
f 397 401 398

usemtl m774
f 398 401 402

usemtl m775
f 398 402 399

usemtl m776
f 399 402 403

usemtl m777
f 399 403 404

usemtl m778
f 399 404 400

usemtl m779
f 400 404 401

usemtl m780
f 401 404 405

usemtl m781
f 401 405 402

usemtl m782
f 402 405 406

usemtl m783
f 402 406 403

usemtl m784
f 403 406 404

usemtl m785
f 404 406 405

usemtl m786
f 166 165 252

usemtl m787
f 252 165 257

usemtl m788
f 257 165 168

usemtl m789
f 168 165 164

usemtl m790
f 141 140 295

usemtl m791
f 385 384 407

usemtl m792
f 385 407 380

usemtl m793
f 380 407 381

usemtl m794
f 381 407 382

usemtl m795
f 382 407 384

usemtl m796
f 382 384 383

