mtllib 26024.mtl
o runescapemodel
v -24 7 -48
v -64 7 -48
v -64 7 48
v -24 7 48
v 64 7 -48
v 64 0 -48
v -24 0 -48
v -64 0 -48
v 64 7 48
v -24 0 48
v 64 0 48
v -64 0 48
v 64 7 35
v 64 7 25
v 14 7 21
v 14 7 29
v -64 7 18
v -64 7 24
v 64 7 20
v 64 7 10
v 14 7 9
v 14 7 18
v -64 7 7
v -64 7 14
v 64 7 4
v 64 7 -6
v 13 7 -5
v 13 7 3
v -64 7 -7
v -64 7 0
v 64 7 -10
v 64 7 -20
v 13 7 -17
v 13 7 -9
v -64 7 -20
v -64 7 -12
v 64 7 -28
v 64 7 -40
v 13 7 -34
v 13 7 -24
v -64 7 -35
v -64 7 -26
v 64 7 -44
v 13 7 -48
v 13 7 -40
v -64 7 -42
v 41 7 48
v 64 7 42
v 14 7 35
v 14 7 43
v -64 7 30
v -64 7 36
v -50 7 48
v 14 7 48
v -64 7 41
vn 0 -768 768
vn 0 -768 512
vn 0 -768 -256
vn 0 -768 -768
vn 0 -768 256
vn 0 0 512
vn 0 0 768
vn 0 0 256
vn 0 -512 -512
vn 0 0 -768
vn 0 0 -256
vn 0 0 -512
vn 0 -512 0
vn 0 -256 0
vn 0 -768 0
vn 0 -768 0
vn 0 -512 0
vn 0 -256 0
vn 0 -512 0
vn 0 -256 0
vn 0 -768 0
vn 0 -768 0
vn 0 -512 0
vn 0 -256 0
vn 0 -512 0
vn 0 -256 0
vn 0 -768 0
vn 0 -768 0
vn 0 -512 0
vn 0 -256 0
vn 0 -512 0
vn 0 -256 0
vn 0 -768 0
vn 0 -768 0
vn 0 -512 0
vn 0 -256 0
vn 0 -512 0
vn 0 -256 0
vn 0 -768 0
vn 0 -768 0
vn 0 -512 0
vn 0 -256 0
vn 0 -512 0
vn 0 -768 0
vn 0 -768 0
vn 0 -256 0
vn 0 -768 0
vn 0 -512 0
vn 0 -768 0
vn 0 -768 0
vn 0 -512 0
vn 0 -256 0
vn 0 -512 0
vn 0 -256 0
vn 0 -512 0
usemtl m0
f 1 2 3

usemtl m1
f 1 3 4

usemtl m2
f 1 4 5

usemtl m3
f 1 5 6

usemtl m4
f 1 6 7

usemtl m5
f 1 7 2

usemtl m6
f 2 7 8

usemtl m7
f 5 4 9

usemtl m8
f 9 4 10

usemtl m9
f 9 10 11

usemtl m10
f 4 3 12

usemtl m11
f 4 12 10

usemtl m12
f 13 14 15

usemtl m13
f 13 15 16

usemtl m14
f 16 15 17

usemtl m15
f 16 17 18

usemtl m16
f 19 20 21

usemtl m17
f 19 21 22

usemtl m18
f 22 21 23

usemtl m19
f 22 23 24

usemtl m20
f 25 26 27

usemtl m21
f 25 27 28

usemtl m22
f 28 27 29

usemtl m23
f 28 29 30

usemtl m24
f 31 32 33

usemtl m25
f 31 33 34

usemtl m26
f 34 33 35

usemtl m27
f 34 35 36

usemtl m28
f 37 38 39

usemtl m29
f 37 39 40

usemtl m30
f 40 39 41

usemtl m31
f 40 41 42

usemtl m32
f 43 5 44

usemtl m33
f 43 44 45

usemtl m34
f 45 44 2

usemtl m35
f 45 2 46

usemtl m36
f 47 48 49

usemtl m37
f 47 49 50

usemtl m38
f 50 49 51

usemtl m39
f 50 51 52

usemtl m40
f 9 48 47

usemtl m41
f 53 54 55

usemtl m42
f 53 55 3

