mtllib 26507.mtl
o runescapemodel
v 24 130 13
v 19 131 -26
v 4 220 -25
v 8 199 2
v -3 129 26
v -6 68 37
v 34 80 13
v 27 88 -27
v -10 116 -34
v -11 195 -29
v -16 170 -13
v -4 169 13
v -31 124 2
v -40 68 25
v -41 32 38
v 6 37 43
v 42 36 25
v 40 45 -39
v -14 79 -39
v -24 116 -8
v -30 151 -2
v -39 74 -6
v -43 35 -3
v -51 0 49
v 11 0 61
v 62 -1 27
v 49 1 -54
v -38 0 -44
v -25 37 -40
v -61 0 1
v 43 607 -65
v 55 609 46
v 58 609 1
v 23 571 -31
v -3 566 -45
v -27 606 -66
v -58 606 -1
v -36 608 56
v 22 573 27
v 35 575 -9
v 25 531 -9
v 12 522 -21
v -9 521 -36
v -40 570 -2
v -19 575 34
v -20 536 27
v 25 539 16
v 8 481 15
v 13 488 -7
v 8 490 -21
v -11 488 -25
v -33 527 -4
v -23 486 -4
v -20 486 15
v -7 410 13
v 5 411 6
v 8 443 -13
v -3 443 -13
v -15 440 -10
v -19 411 -3
vn 1086 -270 -622
vn 914 -181 842
vn 137 -328 56
vn -29 -424 -688
vn -178 -371 -1287
vn 145 -309 -1381
vn 1088 -318 -554
vn 920 -278 799
vn -507 -121 1055
vn -345 -136 470
vn -1413 -535 -8
vn -662 -461 -815
vn -1124 -271 -251
vn -1088 -302 -645
vn -686 -412 -970
vn 390 -486 -1322
vn 1190 -429 -367
vn 521 -313 987
vn -506 -273 1146
vn -1205 -176 890
vn -690 -202 45
vn -1321 -257 574
vn -1415 -350 137
vn -507 -294 -296
vn 49 -310 -653
vn 464 -301 -376
vn 446 -246 275
vn -242 -190 605
vn -858 -289 974
vn -649 -305 162
vn 276 -565 415
vn 375 -44 -274
vn 594 157 122
vn 1062 648 743
vn 33 600 1060
vn -368 121 449
vn -607 -157 -100
vn -145 -94 -502
vn 567 570 -1055
vn 1301 555 37
vn 1343 378 349
vn 1042 311 1019
vn -253 228 1105
vn -1180 436 277
vn -766 479 -905
vn -546 248 -976
vn 857 266 -861
vn 867 198 -838
vn 1416 213 257
vn 742 239 1113
vn -568 317 1123
vn -1300 221 82
vn -1358 160 232
vn -646 126 -981
vn 2 565 132
vn 525 187 -60
vn 385 351 749
vn 4 483 1139
vn -272 325 886
vn -454 125 126
usemtl m0
f 1 2 3

usemtl m1
f 1 3 4

usemtl m2
f 1 4 5

usemtl m3
f 1 5 6

usemtl m4
f 1 6 7

usemtl m5
f 1 7 2

usemtl m6
f 2 7 8

usemtl m7
f 2 8 9

usemtl m8
f 2 9 10

usemtl m9
f 2 10 3

usemtl m10
f 3 10 11

usemtl m11
f 3 11 4

usemtl m12
f 4 11 12

usemtl m13
f 4 12 5

usemtl m14
f 5 12 13

usemtl m15
f 5 13 14

usemtl m16
f 5 14 6

usemtl m17
f 6 14 15

usemtl m18
f 6 15 16

usemtl m19
f 6 16 7

usemtl m20
f 7 16 17

usemtl m21
f 7 17 8

usemtl m22
f 8 17 18

usemtl m23
f 8 18 19

usemtl m24
f 8 19 9

usemtl m25
f 9 19 20

usemtl m26
f 9 20 11

usemtl m27
f 9 11 10

usemtl m28
f 12 21 13

usemtl m29
f 13 21 20

usemtl m30
f 13 20 22

usemtl m31
f 13 22 14

usemtl m32
f 14 22 23

usemtl m33
f 14 23 15

usemtl m34
f 15 23 24

usemtl m35
f 15 24 25

usemtl m36
f 15 25 16

usemtl m37
f 16 25 26

usemtl m38
f 16 26 17

usemtl m39
f 17 26 27

usemtl m40
f 17 27 18

usemtl m41
f 18 27 28

usemtl m42
f 18 28 29

usemtl m43
f 18 29 19

usemtl m44
f 19 29 22

usemtl m45
f 19 22 20

usemtl m46
f 21 11 20

usemtl m47
f 11 21 12

usemtl m48
f 29 28 30

usemtl m49
f 29 30 23

usemtl m50
f 29 23 22

usemtl m51
f 23 30 24

usemtl m52
f 31 32 33

usemtl m53
f 31 33 34

usemtl m54
f 31 34 35

usemtl m55
f 31 35 36

usemtl m56
f 31 36 37

usemtl m57
f 31 37 38

usemtl m58
f 31 38 32

usemtl m59
f 32 38 39

usemtl m60
f 32 39 40

usemtl m61
f 32 40 33

usemtl m62
f 33 40 34

usemtl m63
f 34 40 41

usemtl m64
f 34 41 42

usemtl m65
f 34 42 35

usemtl m66
f 35 42 43

usemtl m67
f 35 43 44

usemtl m68
f 35 44 36

usemtl m69
f 36 44 37

usemtl m70
f 37 44 45

usemtl m71
f 37 45 38

usemtl m72
f 38 45 39

usemtl m73
f 39 45 46

usemtl m74
f 39 46 47

usemtl m75
f 39 47 40

usemtl m76
f 40 47 41

usemtl m77
f 41 47 48

usemtl m78
f 41 48 49

usemtl m79
f 41 49 42

usemtl m80
f 42 49 50

usemtl m81
f 42 50 43

usemtl m82
f 43 50 51

usemtl m83
f 43 51 52

usemtl m84
f 43 52 44

usemtl m85
f 44 52 45

usemtl m86
f 45 52 46

usemtl m87
f 46 52 53

usemtl m88
f 46 53 54

usemtl m89
f 46 54 47

usemtl m90
f 47 54 48

usemtl m91
f 48 54 55

usemtl m92
f 48 55 56

usemtl m93
f 48 56 49

usemtl m94
f 49 56 57

usemtl m95
f 49 57 50

usemtl m96
f 50 57 58

usemtl m97
f 50 58 51

usemtl m98
f 51 58 59

usemtl m99
f 51 59 53

usemtl m100
f 51 53 52

usemtl m101
f 59 60 53

usemtl m102
f 53 60 54

usemtl m103
f 54 60 55

usemtl m104
f 55 60 59

usemtl m105
f 55 59 58

usemtl m106
f 55 58 57

usemtl m107
f 55 57 56

