mtllib 26536.mtl
o runescapemodel
v -64 -56 -64
v -64 -64 -64
v -64 -64 64
v -64 -56 64
v -64 -48 -64
v -64 -48 64
v -64 -40 -64
v -64 -40 64
v -64 -32 -64
v -64 -32 64
v -64 -24 -64
v -64 -24 64
v -64 -16 -64
v -64 -16 64
v -64 -8 -64
v -64 -8 64
v -64 0 -64
v -64 0 64
v -64 -72 -64
v -64 -72 64
v -64 -88 -64
v -64 -96 -64
v -64 -96 64
v -64 -88 64
v -64 -80 -64
v -64 -80 64
v -64 -104 -64
v -64 -112 -64
v -64 -112 64
v -64 -104 64
v -64 -120 -64
v -64 -128 -64
v -64 -128 64
v -64 -120 64
v -64 -136 -64
v -64 -144 -64
v -64 -144 64
v -64 -136 64
v -64 -152 -64
v -64 -152 64
vn -768 0 0
vn -768 0 0
vn -768 0 0
vn -768 0 0
vn -768 0 0
vn -768 0 0
vn -768 0 0
vn -768 0 0
vn -768 0 0
vn -768 0 0
vn -768 0 0
vn -768 0 0
vn -768 0 0
vn -768 0 0
vn -768 0 0
vn -768 0 0
vn -512 0 0
vn -256 0 0
vn -768 0 0
vn -768 0 0
vn -768 0 0
vn -768 0 0
vn -768 0 0
vn -768 0 0
vn -768 0 0
vn -768 0 0
vn -768 0 0
vn -768 0 0
vn -768 0 0
vn -768 0 0
vn -768 0 0
vn -768 0 0
vn -768 0 0
vn -768 0 0
vn -768 0 0
vn -768 0 0
vn -768 0 0
vn -768 0 0
vn -256 0 0
vn -512 0 0
usemtl m0
f 1 2 3

usemtl m1
f 1 3 4

usemtl m2
f 1 4 5

usemtl m3
f 5 4 6

usemtl m4
f 5 6 7

usemtl m5
f 7 6 8

usemtl m6
f 7 8 9

usemtl m7
f 9 8 10

usemtl m8
f 9 10 11

usemtl m9
f 11 10 12

usemtl m10
f 11 12 13

usemtl m11
f 13 12 14

usemtl m12
f 13 14 15

usemtl m13
f 15 14 16

usemtl m14
f 15 16 17

usemtl m15
f 17 16 18

usemtl m16
f 2 19 20

usemtl m17
f 2 20 3

usemtl m18
f 21 22 23

usemtl m19
f 21 23 24

usemtl m20
f 21 24 25

usemtl m21
f 25 24 26

usemtl m22
f 25 26 19

usemtl m23
f 19 26 20

usemtl m24
f 27 28 29

usemtl m25
f 27 29 30

usemtl m26
f 27 30 22

usemtl m27
f 22 30 23

usemtl m28
f 31 32 33

usemtl m29
f 31 33 34

usemtl m30
f 31 34 28

usemtl m31
f 28 34 29

usemtl m32
f 35 36 37

usemtl m33
f 35 37 38

usemtl m34
f 35 38 32

usemtl m35
f 32 38 33

usemtl m36
f 36 39 40

usemtl m37
f 36 40 37

