newmtl m0
Kd 0.7647058823529411 0.5529411764705883 0.3843137254901961
newmtl m1
Kd 0.7647058823529411 0.5529411764705883 0.3843137254901961
newmtl m2
Kd 0.7647058823529411 0.5529411764705883 0.3843137254901961
newmtl m3
Kd 0.7647058823529411 0.5529411764705883 0.3843137254901961
newmtl m4
Kd 0.7647058823529411 0.5529411764705883 0.3843137254901961
newmtl m5
Kd 0.7647058823529411 0.5529411764705883 0.3843137254901961
newmtl m6
Kd 0.7647058823529411 0.5529411764705883 0.3843137254901961
newmtl m7
Kd 0.7647058823529411 0.5529411764705883 0.3843137254901961
newmtl m8
Kd 0.7647058823529411 0.5529411764705883 0.3843137254901961
newmtl m9
Kd 0.7647058823529411 0.5529411764705883 0.3843137254901961
newmtl m10
Kd 0.7647058823529411 0.5529411764705883 0.3843137254901961
newmtl m11
Kd 0.7647058823529411 0.5529411764705883 0.3843137254901961
newmtl m12
Kd 0.7647058823529411 0.5529411764705883 0.3843137254901961
newmtl m13
Kd 0.7647058823529411 0.5529411764705883 0.3843137254901961
newmtl m14
Kd 0.7647058823529411 0.5529411764705883 0.3843137254901961
newmtl m15
Kd 0.7647058823529411 0.5529411764705883 0.3843137254901961
newmtl m16
Kd 0.7647058823529411 0.5529411764705883 0.3843137254901961
newmtl m17
Kd 0.7647058823529411 0.5529411764705883 0.3843137254901961
newmtl m18
Kd 0.7647058823529411 0.5529411764705883 0.3843137254901961
newmtl m19
Kd 0.7647058823529411 0.5529411764705883 0.3843137254901961
newmtl m20
Kd 0.6784313725490196 0.06274509803921569 0.027450980392156862
newmtl m21
Kd 0.6784313725490196 0.06274509803921569 0.027450980392156862
newmtl m22
Kd 0.6784313725490196 0.06274509803921569 0.027450980392156862
newmtl m23
Kd 0.5058823529411764 0.5058823529411764 0.5647058823529412
newmtl m24
Kd 0.5058823529411764 0.5058823529411764 0.5647058823529412
newmtl m25
Kd 0.6784313725490196 0.06274509803921569 0.027450980392156862
newmtl m26
Kd 0.6784313725490196 0.06274509803921569 0.027450980392156862
newmtl m27
Kd 0.6784313725490196 0.06274509803921569 0.027450980392156862
newmtl m28
Kd 0.6784313725490196 0.06274509803921569 0.027450980392156862
newmtl m29
Kd 0.6784313725490196 0.06274509803921569 0.027450980392156862
newmtl m30
Kd 0.7647058823529411 0.5529411764705883 0.3843137254901961
newmtl m31
Kd 0.7647058823529411 0.5529411764705883 0.3843137254901961
newmtl m32
Kd 0.7647058823529411 0.5529411764705883 0.3843137254901961
newmtl m33
Kd 0.7647058823529411 0.5529411764705883 0.3843137254901961
newmtl m34
Kd 0.7647058823529411 0.5529411764705883 0.3843137254901961
newmtl m35
Kd 0.7647058823529411 0.5529411764705883 0.3843137254901961
newmtl m36
Kd 0.7647058823529411 0.5529411764705883 0.3843137254901961
newmtl m37
Kd 0.7647058823529411 0.5529411764705883 0.3843137254901961
newmtl m38
Kd 0.7647058823529411 0.5529411764705883 0.3843137254901961
newmtl m39
Kd 0.7647058823529411 0.5529411764705883 0.3843137254901961
newmtl m40
Kd 0.7647058823529411 0.5529411764705883 0.3843137254901961
newmtl m41
Kd 0.7647058823529411 0.5529411764705883 0.3843137254901961
newmtl m42
Kd 0.7647058823529411 0.5529411764705883 0.3843137254901961
newmtl m43
Kd 0.7647058823529411 0.5529411764705883 0.3843137254901961
newmtl m44
Kd 0.7647058823529411 0.5529411764705883 0.3843137254901961
newmtl m45
Kd 0.7647058823529411 0.5529411764705883 0.3843137254901961
newmtl m46
Kd 0.7647058823529411 0.5529411764705883 0.3843137254901961
newmtl m47
Kd 0.7647058823529411 0.5529411764705883 0.3843137254901961
newmtl m48
Kd 0.7647058823529411 0.5529411764705883 0.3843137254901961
newmtl m49
Kd 0.7647058823529411 0.5529411764705883 0.3843137254901961
newmtl m50
Kd 0.7647058823529411 0.5529411764705883 0.3843137254901961
newmtl m51
Kd 0.7647058823529411 0.5529411764705883 0.3843137254901961
newmtl m52
Kd 0.7647058823529411 0.5529411764705883 0.3843137254901961
newmtl m53
Kd 0.7647058823529411 0.5529411764705883 0.3843137254901961
newmtl m54
Kd 0.7647058823529411 0.5529411764705883 0.3843137254901961
newmtl m55
Kd 0.7647058823529411 0.5529411764705883 0.3843137254901961
newmtl m56
Kd 0.7647058823529411 0.5529411764705883 0.3843137254901961
newmtl m57
Kd 0.7647058823529411 0.5529411764705883 0.3843137254901961
newmtl m58
Kd 0.7647058823529411 0.5529411764705883 0.3843137254901961
newmtl m59
Kd 0.7647058823529411 0.5529411764705883 0.3843137254901961
