newmtl m0
Kd 0.1843137254901961 0.2549019607843137 0.25882352941176473
newmtl m1
Kd 0.10980392156862745 0.19215686274509805 0.19607843137254902
newmtl m2
Kd 0.10980392156862745 0.19215686274509805 0.19607843137254902
newmtl m3
Kd 0.10980392156862745 0.19215686274509805 0.19607843137254902
newmtl m4
Kd 0.10980392156862745 0.19215686274509805 0.19607843137254902
newmtl m5
Kd 0.10980392156862745 0.19215686274509805 0.19607843137254902
newmtl m6
Kd 0.10980392156862745 0.19215686274509805 0.19607843137254902
newmtl m7
Kd 0.10980392156862745 0.19215686274509805 0.19607843137254902
newmtl m8
Kd 0.0392156862745098 0.11764705882352941 0.12156862745098039
newmtl m9
Kd 0.0392156862745098 0.11764705882352941 0.12156862745098039
newmtl m10
Kd 0.0392156862745098 0.11764705882352941 0.12156862745098039
newmtl m11
Kd 0.0392156862745098 0.11764705882352941 0.12156862745098039
newmtl m12
Kd 0.0392156862745098 0.11764705882352941 0.12156862745098039
newmtl m13
Kd 0.0392156862745098 0.11764705882352941 0.12156862745098039
newmtl m14
Kd 0.1843137254901961 0.2549019607843137 0.25882352941176473
newmtl m15
Kd 0.1843137254901961 0.2549019607843137 0.25882352941176473
newmtl m16
Kd 0.20784313725490197 0.2901960784313726 0.29411764705882354
newmtl m17
Kd 0.20784313725490197 0.2901960784313726 0.29411764705882354
newmtl m18
Kd 0.10980392156862745 0.19215686274509805 0.19607843137254902
newmtl m19
Kd 0.24313725490196078 0.33725490196078434 0.3411764705882353
newmtl m20
Kd 0.24313725490196078 0.33725490196078434 0.3411764705882353
newmtl m21
Kd 0.1843137254901961 0.2549019607843137 0.25882352941176473
newmtl m22
Kd 0.1843137254901961 0.2549019607843137 0.25882352941176473
newmtl m23
Kd 0.1843137254901961 0.2549019607843137 0.25882352941176473
newmtl m24
Kd 0.15294117647058825 0.21176470588235294 0.21568627450980393
newmtl m25
Kd 0.15294117647058825 0.21176470588235294 0.21568627450980393
newmtl m26
Kd 0.15294117647058825 0.21176470588235294 0.21568627450980393
newmtl m27
Kd 0.15294117647058825 0.21176470588235294 0.21568627450980393
newmtl m28
Kd 0.15294117647058825 0.21176470588235294 0.21568627450980393
newmtl m29
Kd 0.15294117647058825 0.21176470588235294 0.21568627450980393
newmtl m30
Kd 0.1843137254901961 0.2549019607843137 0.25882352941176473
newmtl m31
Kd 0.1843137254901961 0.2549019607843137 0.25882352941176473
newmtl m32
Kd 0.10980392156862745 0.19215686274509805 0.19607843137254902
newmtl m33
Kd 0.10980392156862745 0.19215686274509805 0.19607843137254902
newmtl m34
Kd 0.10980392156862745 0.19215686274509805 0.19607843137254902
newmtl m35
Kd 0.10980392156862745 0.19215686274509805 0.19607843137254902
newmtl m36
Kd 0.10980392156862745 0.19215686274509805 0.19607843137254902
newmtl m37
Kd 0.08235294117647059 0.1450980392156863 0.14901960784313725
newmtl m38
Kd 0.08235294117647059 0.1450980392156863 0.14901960784313725
newmtl m39
Kd 0.08235294117647059 0.1450980392156863 0.14901960784313725
newmtl m40
Kd 0.08235294117647059 0.1450980392156863 0.14901960784313725
newmtl m41
Kd 0.08235294117647059 0.1450980392156863 0.14901960784313725
newmtl m42
Kd 0.08235294117647059 0.1450980392156863 0.14901960784313725
newmtl m43
Kd 0.1843137254901961 0.2549019607843137 0.25882352941176473
newmtl m44
Kd 0.20784313725490197 0.2901960784313726 0.29411764705882354
newmtl m45
Kd 0.08235294117647059 0.1450980392156863 0.14901960784313725
newmtl m46
Kd 0.08235294117647059 0.1450980392156863 0.14901960784313725
newmtl m47
Kd 0.10980392156862745 0.19215686274509805 0.19607843137254902
newmtl m48
Kd 0.10980392156862745 0.19215686274509805 0.19607843137254902
newmtl m49
Kd 0.10980392156862745 0.19215686274509805 0.19607843137254902
newmtl m50
Kd 0.24313725490196078 0.33725490196078434 0.3411764705882353
newmtl m51
Kd 0.24313725490196078 0.33725490196078434 0.3411764705882353
newmtl m52
Kd 0.1843137254901961 0.2549019607843137 0.25882352941176473
newmtl m53
Kd 0.15294117647058825 0.21176470588235294 0.21568627450980393
newmtl m54
Kd 0.15294117647058825 0.21176470588235294 0.21568627450980393
newmtl m55
Kd 0.15294117647058825 0.21176470588235294 0.21568627450980393
newmtl m56
Kd 0.15294117647058825 0.21176470588235294 0.21568627450980393
newmtl m57
Kd 0.15294117647058825 0.21176470588235294 0.21568627450980393
newmtl m58
Kd 0.15294117647058825 0.21176470588235294 0.21568627450980393
newmtl m59
Kd 0.1843137254901961 0.2549019607843137 0.25882352941176473
newmtl m60
Kd 0.10980392156862745 0.19215686274509805 0.19607843137254902
newmtl m61
Kd 0.10980392156862745 0.19215686274509805 0.19607843137254902
newmtl m62
Kd 0.08235294117647059 0.1450980392156863 0.14901960784313725
newmtl m63
Kd 0.08235294117647059 0.1450980392156863 0.14901960784313725
newmtl m64
Kd 0.08235294117647059 0.1450980392156863 0.14901960784313725
newmtl m65
Kd 0.10980392156862745 0.19215686274509805 0.19607843137254902
newmtl m66
Kd 0.10980392156862745 0.19215686274509805 0.19607843137254902
newmtl m67
Kd 0.08235294117647059 0.1450980392156863 0.14901960784313725
newmtl m68
Kd 0.1843137254901961 0.2549019607843137 0.25882352941176473
newmtl m69
Kd 0.1843137254901961 0.2549019607843137 0.25882352941176473
newmtl m70
Kd 0.1843137254901961 0.2549019607843137 0.25882352941176473
newmtl m71
Kd 0.1843137254901961 0.2549019607843137 0.25882352941176473
newmtl m72
Kd 0.1843137254901961 0.2549019607843137 0.25882352941176473
newmtl m73
Kd 0.1843137254901961 0.2549019607843137 0.25882352941176473
newmtl m74
Kd 0.10980392156862745 0.19215686274509805 0.19607843137254902
newmtl m75
Kd 0.24313725490196078 0.33725490196078434 0.3411764705882353
newmtl m76
Kd 0.15294117647058825 0.21176470588235294 0.21568627450980393
newmtl m77
Kd 0.15294117647058825 0.21176470588235294 0.21568627450980393
newmtl m78
Kd 0.15294117647058825 0.21176470588235294 0.21568627450980393
newmtl m79
Kd 0.15294117647058825 0.21176470588235294 0.21568627450980393
newmtl m80
Kd 0.15294117647058825 0.21176470588235294 0.21568627450980393
newmtl m81
Kd 0.15294117647058825 0.21176470588235294 0.21568627450980393
newmtl m82
Kd 0.1843137254901961 0.2549019607843137 0.25882352941176473
newmtl m83
Kd 0.1843137254901961 0.2549019607843137 0.25882352941176473
newmtl m84
Kd 0.1843137254901961 0.2549019607843137 0.25882352941176473
newmtl m85
Kd 0.1843137254901961 0.2549019607843137 0.25882352941176473
newmtl m86
Kd 0.1843137254901961 0.2549019607843137 0.25882352941176473
newmtl m87
Kd 0.15294117647058825 0.21176470588235294 0.21568627450980393
newmtl m88
Kd 0.15294117647058825 0.21176470588235294 0.21568627450980393
newmtl m89
Kd 0.15294117647058825 0.21176470588235294 0.21568627450980393
newmtl m90
Kd 0.15294117647058825 0.21176470588235294 0.21568627450980393
newmtl m91
Kd 0.15294117647058825 0.21176470588235294 0.21568627450980393
newmtl m92
Kd 0.1843137254901961 0.2549019607843137 0.25882352941176473
newmtl m93
Kd 0.1843137254901961 0.2549019607843137 0.25882352941176473
newmtl m94
Kd 0.1843137254901961 0.2549019607843137 0.25882352941176473
newmtl m95
Kd 0.15294117647058825 0.21176470588235294 0.21568627450980393
newmtl m96
Kd 0.15294117647058825 0.21176470588235294 0.21568627450980393
newmtl m97
Kd 0.15294117647058825 0.21176470588235294 0.21568627450980393
newmtl m98
Kd 0.1843137254901961 0.2549019607843137 0.25882352941176473
newmtl m99
Kd 0.15294117647058825 0.21176470588235294 0.21568627450980393
