mtllib 27038.mtl
o runescapemodel
v 64 73 -6
v 50 73 20
v 64 49 -6
v 27 49 64
v 27 0 64
v 64 0 -6
v 50 167 20
v 27 167 64
v 32 73 8
v 32 167 8
v 2 167 64
v 37 175 -4
v 2 175 64
v 2 208 64
v 35 208 0
v 64 207 -52
v 64 175 -52
v 44 167 -16
v 64 167 -52
v 44 73 -16
v 64 167 -6
v 64 197 -6
v 55 175 8
v 64 175 -6
v 27 73 64
v 27 197 64
v 52 210 14
v 27 210 64
v 2 210 64
v 34 210 2
v 64 210 12
v 52 197 14
v 27 175 64
v 64 240 7
v 62 223 16
v 60 210 14
v 37 237 64
v 37 240 64
v 38 240 -5
v 2 240 64
v 2 237 64
v 17 234 33
v 2 235 64
v 17 232 33
v 32 225 7
v 33 221 6
v 59 221 18
v 45 232 45
v 48 234 43
v 35 234 64
v 64 240 -52
v 35 218 1
v 34 232 2
v 64 0 -52
v 64 73 -52
v 2 73 64
v 2 0 64
vn -3 0 -579
vn 1271 -2 -381
vn 903 -2 -478
vn 678 -2 -356
vn 452 0 -238
vn 226 0 -119
vn 734 -35 191
vn 905 -35 -467
vn -844 6 1020
vn -306 39 452
vn -900 39 476
vn -1573 44 844
vn -454 0 234
vn -681 0 351
vn -1358 -28 727
vn -893 -13 495
vn -670 6 374
vn -898 6 -85
vn -670 0 372
vn -1011 6 257
vn 101 0 -367
vn 612 153 -376
vn 1560 -30 -866
vn 430 0 -276
vn 452 0 -236
vn 916 0 -456
vn 217 189 -1159
vn 229 0 -114
vn -455 -3 234
vn -826 54 147
vn 644 255 -632
vn 965 221 -943
vn 458 0 -228
vn 929 -611 -404
vn 1101 310 -883
vn 385 262 -1134
vn 822 220 -445
vn 231 -512 -109
vn -1116 -822 610
vn -227 -256 118
vn -681 -59 343
vn -1356 -41 709
vn -466 0 224
vn -746 506 205
vn -1158 101 552
vn -989 396 -210
vn 163 762 -962
vn 685 763 -589
vn 805 186 -470
vn 192 128 -114
vn -448 -253 245
vn -1845 23 914
vn -902 33 483
vn -676 6 358
vn -446 0 248
vn -450 0 240
vn -450 0 240
usemtl m0
f 1 2 3

usemtl m1
f 3 2 4

usemtl m2
f 3 4 5

usemtl m3
f 3 5 6

usemtl m4
f 7 8 2

usemtl m5
f 7 2 9

usemtl m6
f 7 9 10

usemtl m7
f 10 9 11

usemtl m8
f 10 11 12

usemtl m9
f 12 11 13

usemtl m10
f 12 13 14

usemtl m11
f 12 14 15

usemtl m12
f 12 15 16

usemtl m13
f 12 16 17

usemtl m14
f 12 17 18

usemtl m15
f 18 17 19

usemtl m16
f 18 19 20

usemtl m17
f 18 20 1

usemtl m18
f 18 1 21

usemtl m19
f 22 23 24

usemtl m20
f 24 23 21

usemtl m21
f 25 2 8

usemtl m22
f 2 25 4

usemtl m23
f 26 27 28

usemtl m24
f 28 27 29

usemtl m25
f 29 27 30

usemtl m26
f 29 30 15

usemtl m27
f 29 15 14

usemtl m28
f 31 32 22

usemtl m29
f 22 32 23

usemtl m30
f 23 32 26

usemtl m31
f 23 26 33

usemtl m32
f 23 33 8

usemtl m33
f 23 8 7

usemtl m34
f 31 34 35

usemtl m35
f 31 35 36

usemtl m36
f 31 36 32

usemtl m37
f 32 36 27

usemtl m38
f 32 27 26

usemtl m39
f 37 34 38

usemtl m40
f 38 34 39

usemtl m41
f 38 39 40

usemtl m42
f 40 39 41

usemtl m43
f 41 39 42

usemtl m44
f 41 42 43

usemtl m45
f 43 42 44

usemtl m46
f 44 42 45

usemtl m47
f 44 45 46

usemtl m48
f 44 46 47

usemtl m49
f 44 47 48

usemtl m50
f 48 47 35

usemtl m51
f 48 35 49

usemtl m52
f 48 49 37

usemtl m53
f 48 37 50

usemtl m54
f 49 34 37

usemtl m55
f 34 49 35

usemtl m56
f 39 51 52

usemtl m57
f 39 52 53

usemtl m58
f 39 53 42

usemtl m59
f 42 53 45

usemtl m60
f 45 53 52

usemtl m61
f 45 52 46

usemtl m62
f 46 52 30

usemtl m63
f 46 30 27

usemtl m64
f 46 27 47

usemtl m65
f 47 27 36

usemtl m66
f 47 36 35

usemtl m67
f 54 9 20

usemtl m68
f 54 20 55

usemtl m69
f 55 20 19

usemtl m70
f 11 9 56

usemtl m71
f 56 9 57

usemtl m72
f 57 9 54

usemtl m73
f 2 1 20

usemtl m74
f 2 20 9

usemtl m75
f 52 15 30

usemtl m76
f 15 52 16

usemtl m77
f 16 52 51

usemtl m78
f 51 39 34

