mtllib 27219.mtl
o runescapemodel
v -320 0 -128
v 320 0 -128
v 320 95 -151
v -320 95 -151
v 320 190 -136
v -320 190 -136
v 320 356 -160
v -320 356 -160
v -320 356 -256
v 320 356 -256
v -63 356 -191
v -63 353 -157
v -63 366 -156
v -63 370 -191
v -19 368 -188
v -19 354 -193
v -22 353 -159
v -22 365 -158
v 64 52 -132
v -18 48 -131
v -13 11 -129
v 64 2 -128
v 64 0 -141
v 64 49 -145
v -18 45 -144
v -13 9 -142
v -25 49 -131
v -64 2 -128
v -20 3 -128
v -20 2 -141
v -25 46 -144
v -64 52 -132
v -141 11 -129
v -146 48 -131
v -146 45 -144
v -141 9 -142
v -18 106 -141
v -62 103 -141
v -60 66 -135
v -13 64 -134
v -12 60 -145
v -18 103 -154
v -62 98 -154
v -60 64 -134
v -60 57 -145
v 64 64 -133
v 59 109 -143
v -9 109 -143
v -4 58 -132
v -9 106 -154
v -4 52 -144
v 20 113 -143
v 64 110 -145
v 64 149 -133
v 22 155 -133
v 22 161 -144
v 20 122 -155
v 16 113 -143
v 15 152 -133
v -48 149 -133
v -44 110 -145
v -48 155 -147
v -44 119 -157
v -51 138 -137
v -64 149 -133
v -64 110 -145
v -52 113 -143
v -52 122 -155
v -51 146 -148
v -64 155 -146
v -106 155 -133
v -108 113 -143
v 32 162 -131
v 26 199 -129
v -28 205 -129
v -32 162 -131
v -28 207 -141
v -32 164 -143
v 64 205 -128
v 37 199 -128
v 38 162 -130
v 64 161 -131
v 92 199 -128
v 92 201 -141
v 64 207 -141
v 37 201 -141
v 38 164 -143
v -64 161 -131
v -36 199 -128
v -64 205 -128
v -90 162 -130
v -91 199 -128
v -91 201 -141
v -90 164 -143
v -40 161 -131
v -40 162 -143
v -36 201 -141
v -64 207 -141
v -18 214 -128
v 19 252 -133
v -20 255 -133
v -18 210 -141
v -18 249 -146
v 18 244 -145
v 15 211 -141
v 15 216 -128
v -27 255 -133
v -64 258 -133
v -108 208 -128
v -103 255 -133
v -103 252 -145
v -108 205 -141
v -28 211 -128
v -26 208 -141
v -29 250 -145
v -64 255 -146
v 6 271 -134
v 7 302 -138
v -59 314 -139
v -64 264 -133
v -59 310 -153
v -64 261 -146
v 15 272 -133
v 60 268 -132
v 60 314 -138
v 18 311 -139
v 18 307 -152
v 15 264 -146
v 20 208 -128
v 64 258 -133
v 25 255 -133
v 25 252 -145
v 20 205 -141
v 101 255 -133
v 99 250 -145
v 64 255 -146
v 44 319 -140
v -14 348 -144
v -17 324 -141
v -15 345 -158
v -16 320 -153
v 48 351 -144
v 48 348 -158
v 50 324 -141
v 64 319 -140
v 64 351 -144
v 52 351 -144
v 52 348 -157
v 50 320 -153
v -19 345 -144
v -64 351 -144
v -64 319 -140
v -22 327 -141
v -21 320 -153
v -21 345 -157
v -64 348 -157
v -76 351 -144
v -78 324 -141
v -10 368 -189
v -11 365 -164
v 55 365 -155
v 60 368 -194
v -12 353 -190
v -13 351 -159
v 55 353 -157
v 60 354 -195
v 44 314 -153
v 64 348 -157
v 8 268 -147
v 9 307 -153
v 60 310 -152
v 60 261 -145
v 32 164 -143
v 26 201 -141
v 15 125 -156
v 15 158 -146
v 64 155 -146
v 77 146 -148
v 77 138 -137
v 76 122 -155
v 76 113 -143
v 59 106 -154
v 64 57 -145
v -64 49 -145
v 62 356 -203
v 62 353 -233
v 62 366 -234
v 62 370 -203
v 11 368 -206
v 11 354 -201
v 11 353 -235
v 11 365 -236
v 2 368 -205
v 0 365 -230
v -57 365 -235
v -62 368 -200
v 4 353 -204
v 2 351 -235
v -57 353 -233
v -62 354 -199
v -191 356 -191
v -191 353 -157
v -191 366 -156
v -191 370 -191
v -147 368 -188
v -147 354 -193
v -150 353 -159
v -150 365 -158
v -153 49 -131
v -192 2 -128
v -148 3 -128
v -148 2 -141
v -153 46 -144
v -192 52 -132
v -269 11 -129
v -274 48 -131
v -274 45 -144
v -269 9 -142
v -146 106 -141
v -190 103 -141
v -188 66 -135
v -141 64 -134
v -140 60 -145
v -146 103 -154
v -190 98 -154
v -188 64 -134
v -188 57 -145
v -64 64 -133
v -69 109 -143
v -137 109 -143
v -132 58 -132
v -137 106 -154
v -132 52 -144
v -112 113 -143
v -113 152 -133
v -176 149 -133
v -172 110 -145
v -176 155 -147
v -172 119 -157
v -179 138 -137
v -192 149 -133
v -192 110 -145
v -180 113 -143
v -180 122 -155
v -179 146 -148
v -192 155 -146
v -234 155 -133
v -236 113 -143
v -96 162 -131
v -102 199 -129
v -156 205 -129
v -160 162 -131
v -156 207 -141
v -160 164 -143
v -192 161 -131
v -164 199 -128
v -192 205 -128
v -218 162 -130
v -219 199 -128
v -219 201 -141
v -218 164 -143
v -168 161 -131
v -168 162 -143
v -164 201 -141
v -192 207 -141
v -146 214 -128
v -109 252 -133
v -148 255 -133
v -146 210 -141
v -146 249 -146
v -110 244 -145
v -113 211 -141
v -113 216 -128
v -155 255 -133
v -192 258 -133
v -236 208 -128
v -231 255 -133
v -231 252 -145
v -236 205 -141
v -156 211 -128
v -154 208 -141
v -157 250 -145
v -192 255 -146
v -122 271 -134
v -121 302 -138
v -187 314 -139
v -192 264 -133
v -187 310 -153
v -192 261 -146
v -113 272 -133
v -68 268 -132
v -68 314 -138
v -110 311 -139
v -110 307 -152
v -113 264 -146
v -84 319 -140
v -142 348 -144
v -145 324 -141
v -143 345 -158
v -144 320 -153
v -80 351 -144
v -80 348 -158
v -147 345 -144
v -192 351 -144
v -192 319 -140
v -150 327 -141
v -149 320 -153
v -149 345 -157
v -192 348 -157
v -204 351 -144
v -206 324 -141
v -138 368 -189
v -139 365 -164
v -73 365 -155
v -68 368 -194
v -140 353 -190
v -141 351 -159
v -73 353 -157
v -68 354 -195
v -76 348 -157
v -78 320 -153
v -84 314 -153
v -120 268 -147
v -119 307 -153
v -68 310 -152
v -68 261 -145
v -96 164 -143
v -102 201 -141
v -113 125 -156
v -113 158 -146
v -106 161 -144
v -108 122 -155
v -69 106 -154
v -64 57 -145
v -192 49 -145
v -66 356 -203
v -66 353 -233
v -66 366 -234
v -66 370 -203
v -117 368 -206
v -117 354 -201
v -117 353 -235
v -117 365 -236
v -126 368 -205
v -128 365 -230
v -185 365 -235
v -190 368 -200
v -124 353 -204
v -126 351 -235
v -185 353 -233
v -190 354 -199
v -319 356 -191
v -319 353 -157
v -319 366 -156
v -319 370 -191
v -275 368 -188
v -275 354 -193
v -278 353 -159
v -278 365 -158
v -281 49 -131
v -320 2 -128
v -276 3 -128
v -276 2 -141
v -281 46 -144
v -320 52 -132
v -320 49 -145
v -320 0 -141
v -274 106 -141
v -318 103 -141
v -316 66 -135
v -269 64 -134
v -268 60 -145
v -274 103 -154
v -318 98 -154
v -316 64 -134
v -316 57 -145
v -192 64 -133
v -197 109 -143
v -265 109 -143
v -260 58 -132
v -265 106 -154
v -260 52 -144
v -240 113 -143
v -241 152 -133
v -304 149 -133
v -300 110 -145
v -304 155 -147
v -300 119 -157
v -307 138 -137
v -320 149 -133
v -320 110 -145
v -308 113 -143
v -308 122 -155
v -307 146 -148
v -320 155 -146
v -320 119 -156
v -224 162 -131
v -230 199 -129
v -284 205 -129
v -288 162 -131
v -284 207 -141
v -288 164 -143
v -320 161 -131
v -292 199 -128
v -320 205 -128
v -320 207 -141
v -320 162 -143
v -296 161 -131
v -296 162 -143
v -292 201 -141
v -274 214 -128
v -237 252 -133
v -276 255 -133
v -274 210 -141
v -274 249 -146
v -238 244 -145
v -241 211 -141
v -241 216 -128
v -283 255 -133
v -320 258 -133
v -320 255 -146
v -320 202 -140
v -284 211 -128
v -282 208 -141
v -285 250 -145
v -250 271 -134
v -249 302 -138
v -315 314 -139
v -320 264 -133
v -315 310 -153
v -320 261 -146
v -241 272 -133
v -196 268 -132
v -196 314 -138
v -238 311 -139
v -238 307 -152
v -241 264 -146
v -212 319 -140
v -270 348 -144
v -273 324 -141
v -271 345 -158
v -272 320 -153
v -208 351 -144
v -208 348 -158
v -275 345 -144
v -320 351 -144
v -320 319 -140
v -278 327 -141
v -277 320 -153
v -277 345 -157
v -320 348 -157
v -320 314 -153
v -266 368 -189
v -267 365 -164
v -201 365 -155
v -196 368 -194
v -268 353 -190
v -269 351 -159
v -201 353 -157
v -196 354 -195
v -204 348 -157
v -206 320 -153
v -212 314 -153
v -248 268 -147
v -247 307 -153
v -196 310 -152
v -196 261 -145
v -224 164 -143
v -230 201 -141
v -241 125 -156
v -241 158 -146
v -234 161 -144
v -236 122 -155
v -197 106 -154
v -192 57 -145
v -194 356 -203
v -194 353 -233
v -194 366 -234
v -194 370 -203
v -245 368 -206
v -245 354 -201
v -245 353 -235
v -245 365 -236
v -254 368 -205
v -256 365 -230
v -313 365 -235
v -318 368 -200
v -252 353 -204
v -254 351 -235
v -313 353 -233
v -318 354 -199
v 65 356 -191
v 65 353 -157
v 65 366 -156
v 65 370 -191
v 109 368 -188
v 109 354 -193
v 106 353 -159
v 106 365 -158
v 192 52 -132
v 110 48 -131
v 115 11 -129
v 192 2 -128
v 231 49 -131
v 231 46 -144
v 192 49 -145
v 110 45 -144
v 115 9 -142
v 103 49 -131
v 108 3 -128
v 108 2 -141
v 103 46 -144
v 110 106 -141
v 66 103 -141
v 68 66 -135
v 115 64 -134
v 116 60 -145
v 110 103 -154
v 66 98 -154
v 68 64 -134
v 68 57 -145
v 192 64 -133
v 187 109 -143
v 119 109 -143
v 124 58 -132
v 119 106 -154
v 124 52 -144
v 148 113 -143
v 192 110 -145
v 192 149 -133
v 150 155 -133
v 150 161 -144
v 148 122 -155
v 144 113 -143
v 143 152 -133
v 80 149 -133
v 84 110 -145
v 80 155 -147
v 84 119 -157
v 160 162 -131
v 154 199 -129
v 100 205 -129
v 96 162 -131
v 100 207 -141
v 96 164 -143
v 192 205 -128
v 165 199 -128
v 166 162 -130
v 192 161 -131
v 220 199 -128
v 220 201 -141
v 192 207 -141
v 165 201 -141
v 166 164 -143
v 88 161 -131
v 88 162 -143
v 110 214 -128
v 147 252 -133
v 108 255 -133
v 110 210 -141
v 110 249 -146
v 146 244 -145
v 143 211 -141
v 143 216 -128
v 100 211 -128
v 102 208 -141
v 134 271 -134
v 135 302 -138
v 69 314 -139
v 64 264 -133
v 69 310 -153
v 64 261 -146
v 143 272 -133
v 188 268 -132
v 188 314 -138
v 146 311 -139
v 146 307 -152
v 143 264 -146
v 148 208 -128
v 192 258 -133
v 153 255 -133
v 153 252 -145
v 148 205 -141
v 229 255 -133
v 227 250 -145
v 192 255 -146
v 172 319 -140
v 114 348 -144
v 111 324 -141
v 113 345 -158
v 112 320 -153
v 176 351 -144
v 176 348 -158
v 178 324 -141
v 192 319 -140
v 192 351 -144
v 180 351 -144
v 180 348 -157
v 178 320 -153
v 109 345 -144
v 106 327 -141
v 107 320 -153
v 107 345 -157
v 118 368 -189
v 117 365 -164
v 183 365 -155
v 188 368 -194
v 116 353 -190
v 115 351 -159
v 183 353 -157
v 188 354 -195
v 172 314 -153
v 192 348 -157
v 136 268 -147
v 137 307 -153
v 188 310 -152
v 188 261 -145
v 160 164 -143
v 154 201 -141
v 143 125 -156
v 143 158 -146
v 192 155 -146
v 205 146 -148
v 205 138 -137
v 204 122 -155
v 204 113 -143
v 187 106 -154
v 192 57 -145
v 190 356 -203
v 190 353 -233
v 190 366 -234
v 190 370 -203
v 139 368 -206
v 139 354 -201
v 139 353 -235
v 139 365 -236
v 130 368 -205
v 128 365 -230
v 71 365 -235
v 66 368 -200
v 132 353 -204
v 130 351 -235
v 71 353 -233
v 66 354 -199
v 193 356 -191
v 193 353 -157
v 193 366 -156
v 193 370 -191
v 237 368 -188
v 237 354 -193
v 234 353 -159
v 234 365 -158
v 320 52 -132
v 238 48 -131
v 243 11 -129
v 320 2 -128
v 320 0 -141
v 320 49 -145
v 238 45 -144
v 243 9 -142
v 236 3 -128
v 236 2 -141
v 238 106 -141
v 194 103 -141
v 196 66 -135
v 243 64 -134
v 244 60 -145
v 238 103 -154
v 194 98 -154
v 196 64 -134
v 196 57 -145
v 320 64 -133
v 315 109 -143
v 247 109 -143
v 252 58 -132
v 247 106 -154
v 252 52 -144
v 276 113 -143
v 320 110 -145
v 320 149 -133
v 278 155 -133
v 278 161 -144
v 276 122 -155
v 272 113 -143
v 271 152 -133
v 208 149 -133
v 212 110 -145
v 208 155 -147
v 212 119 -157
v 288 162 -131
v 282 199 -129
v 228 205 -129
v 224 162 -131
v 228 207 -141
v 224 164 -143
v 320 205 -128
v 293 199 -128
v 294 162 -130
v 320 161 -131
v 320 162 -143
v 320 207 -141
v 293 201 -141
v 294 164 -143
v 216 161 -131
v 216 162 -143
v 238 214 -128
v 275 252 -133
v 236 255 -133
v 238 210 -141
v 238 249 -146
v 274 244 -145
v 271 211 -141
v 271 216 -128
v 228 211 -128
v 230 208 -141
v 262 271 -134
v 263 302 -138
v 197 314 -139
v 192 264 -133
v 197 310 -153
v 192 261 -146
v 271 272 -133
v 316 268 -132
v 316 314 -138
v 274 311 -139
v 274 307 -152
v 271 264 -146
v 276 208 -128
v 320 258 -133
v 281 255 -133
v 281 252 -145
v 276 205 -141
v 320 202 -140
v 320 255 -146
v 300 319 -140
v 242 348 -144
v 239 324 -141
v 241 345 -158
v 240 320 -153
v 304 351 -144
v 304 348 -158
v 306 324 -141
v 320 319 -140
v 320 351 -144
v 308 351 -144
v 308 348 -157
v 306 320 -153
v 237 345 -144
v 234 327 -141
v 235 320 -153
v 235 345 -157
v 246 368 -189
v 245 365 -164
v 311 365 -155
v 316 368 -194
v 244 353 -190
v 243 351 -159
v 311 353 -157
v 316 354 -195
v 300 314 -153
v 320 348 -157
v 320 314 -153
v 264 268 -147
v 265 307 -153
v 316 310 -152
v 316 261 -145
v 288 164 -143
v 282 201 -141
v 320 119 -156
v 320 155 -146
v 271 125 -156
v 271 158 -146
v 315 106 -154
v 320 57 -145
v 318 356 -203
v 318 353 -233
v 318 366 -234
v 318 370 -203
v 267 368 -206
v 267 354 -201
v 267 353 -235
v 267 365 -236
v 258 368 -205
v 256 365 -230
v 199 365 -235
v 194 368 -200
v 260 353 -204
v 258 351 -235
v 199 353 -233
v 194 354 -199
v -320 0 128
v 320 0 128
vn 0 -376 -496
vn 0 -572 -248
vn 0 -81 -748
vn 0 18 -752
vn 0 42 -757
vn 0 -33 -758
vn 0 -584 -506
vn 0 -292 -253
vn 0 -512 0
vn 0 -256 0
vn -502 -86 496
vn -233 40 -509
vn -485 -489 -310
vn -230 -254 226
vn 535 -585 394
vn 247 -79 219
vn 521 30 -301
vn 285 -212 -560
vn 538 -799 -594
vn -275 -479 -148
vn -504 33 -522
vn 252 -56 -765
vn 512 0 0
vn 252 -746 171
vn -518 -182 45
vn -253 34 -5
vn 524 -339 -445
vn -4 -56 -765
vn 254 -43 -253
vn 508 -55 8
vn 294 -524 120
vn 26 -799 -594
vn -504 33 -522
vn -275 -479 -148
vn -518 -182 45
vn -253 34 -5
vn 485 -395 -451
vn -301 -514 -108
vn -5 -81 -504
vn 250 -73 -263
vn 506 -65 -4
vn 210 -519 155
vn -539 -215 81
vn -512 22 -10
vn -256 10 -6
vn 253 -133 -485
vn 509 -351 -162
vn -256 -579 -371
vn -510 -9 -266
vn -509 -203 51
vn -254 21 -10
vn -515 113 -506
vn -10 208 -736
vn 354 -370 -1045
vn -195 -404 -481
vn -475 -242 -134
vn -256 -10 -8
vn 254 129 -481
vn 503 -178 -344
vn -279 -306 -690
vn -513 121 -218
vn -521 -189 -74
vn -254 23 17
vn 665 -8 -594
vn 354 -370 -1045
vn -10 208 -736
vn 230 66 -242
vn 512 16 12
vn 570 -340 -196
vn 215 -643 -315
vn -195 -404 -481
vn -515 113 -506
vn 252 -15 -516
vn 532 -317 -308
vn -202 -500 -595
vn -510 -35 -261
vn -483 -297 -47
vn -255 -23 -3
vn 58 -771 -1641
vn -363 -475 -330
vn -500 42 -508
vn 6 54 -765
vn 559 -159 -543
vn 361 -469 -73
vn -57 -741 -114
vn -567 -235 -36
vn -256 6 1
vn 6 54 -765
vn 559 -159 -543
vn 58 -771 -1641
vn -500 42 -508
vn -363 -475 -330
vn -567 -235 -36
vn -256 6 1
vn 254 46 -253
vn 509 51 5
vn 361 -469 -73
vn -57 -741 -114
vn -256 -54 -510
vn 525 -229 -370
vn -456 -459 22
vn -509 16 33
vn -218 -228 137
vn 306 -421 248
vn 509 49 -5
vn 252 -9 -263
vn 519 -299 -399
vn 36 -805 -547
vn -509 -103 -496
vn -295 -550 -129
vn -528 -300 74
vn -254 -26 6
vn 248 -28 -293
vn 503 -12 8
vn 306 -494 205
vn -3 -744 176
vn 254 -59 -546
vn 549 -266 -409
vn -201 -570 -514
vn -508 -79 -242
vn -498 -295 82
vn -254 -25 5
vn -520 -106 -490
vn 254 -33 -253
vn 487 -317 -435
vn -295 -546 -102
vn -527 -278 90
vn -255 -16 10
vn -509 -103 -496
vn 36 -805 -547
vn -295 -550 -129
vn -528 -300 74
vn -254 -26 6
vn 519 -299 -399
vn 306 -494 205
vn -3 -744 176
vn 252 -32 -519
vn -278 -595 -414
vn -509 -69 -242
vn -519 -288 64
vn -255 -5 23
vn 495 -222 -218
vn 231 -471 99
vn -518 -94 -500
vn -4 -104 -760
vn 48 -840 -644
vn -256 -544 -137
vn -512 -284 66
vn -256 -17 5
vn 538 -286 -503
vn 48 -840 -644
vn -4 -104 -760
vn 248 -8 -293
vn 503 40 -2
vn 303 -495 101
vn 17 -746 171
vn -256 -544 -137
vn -518 -94 -500
vn -274 -562 211
vn -543 -411 -256
vn 213 -551 -570
vn 474 -285 424
vn -542 -105 519
vn -292 -81 -484
vn 502 49 -317
vn 237 -16 221
vn 508 59 -17
vn 17 -746 171
vn 506 4 -72
vn 305 -483 -47
vn 224 -489 145
vn 512 0 0
vn 506 -80 -12
vn 307 -542 -88
vn 511 -9 11
vn 233 -467 -207
vn 215 -643 -315
vn 570 -340 -196
vn 665 -8 -594
vn 512 16 12
vn 230 66 -242
vn 255 -518 140
vn 509 -49 20
vn -4 -746 171
vn 503 -86 -496
vn 276 40 510
vn 511 -488 312
vn 233 -253 -223
vn -532 -593 -439
vn -250 -86 -241
vn -502 21 255
vn -239 -214 535
vn 273 -560 -178
vn 527 -416 312
vn -240 -550 578
vn -469 -285 -414
vn 542 -111 -465
vn 263 -88 510
vn -515 49 324
vn -234 -16 -217
vn -502 -86 496
vn -233 40 -509
vn -485 -489 -310
vn -230 -254 226
vn 535 -585 394
vn 247 -79 219
vn 521 30 -301
vn 285 -212 -560
vn 524 -339 -445
vn -4 -56 -765
vn 254 -43 -253
vn 508 -55 8
vn 294 -524 120
vn 26 -799 -594
vn -504 33 -522
vn -275 -479 -148
vn -518 -182 45
vn -253 34 -5
vn 485 -395 -451
vn -301 -514 -108
vn -5 -81 -504
vn 250 -73 -263
vn 506 -65 -4
vn 210 -519 155
vn -539 -215 81
vn -512 22 -10
vn -256 10 -6
vn 253 -133 -485
vn 509 -351 -162
vn -256 -579 -371
vn -510 -9 -266
vn -509 -203 51
vn -254 21 -10
vn 254 129 -481
vn 503 -178 -344
vn -279 -306 -690
vn -513 121 -218
vn -521 -189 -74
vn -254 23 17
vn 665 -8 -594
vn 354 -370 -1045
vn -10 208 -736
vn 230 66 -242
vn 512 16 12
vn 570 -340 -196
vn 215 -643 -315
vn -195 -404 -481
vn -515 113 -506
vn 252 -15 -516
vn 532 -317 -308
vn -202 -500 -595
vn -510 -35 -261
vn -483 -297 -47
vn -255 -23 -3
vn 6 54 -765
vn 559 -159 -543
vn 58 -771 -1641
vn -500 42 -508
vn -363 -475 -330
vn -567 -235 -36
vn -256 6 1
vn 254 46 -253
vn 509 51 5
vn 361 -469 -73
vn -57 -741 -114
vn -256 -54 -510
vn 525 -229 -370
vn -456 -459 22
vn -509 16 33
vn -218 -228 137
vn 306 -421 248
vn 509 49 -5
vn 252 -9 -263
vn 519 -299 -399
vn 36 -805 -547
vn -509 -103 -496
vn -295 -550 -129
vn -528 -300 74
vn -254 -26 6
vn 248 -28 -293
vn 503 -12 8
vn 306 -494 205
vn -3 -744 176
vn 254 -59 -546
vn 549 -266 -409
vn -201 -570 -514
vn -508 -79 -242
vn -498 -295 82
vn -254 -25 5
vn -520 -106 -490
vn 254 -33 -253
vn 487 -317 -435
vn -295 -546 -102
vn -527 -278 90
vn -255 -16 10
vn 252 -32 -519
vn -278 -595 -414
vn -509 -69 -242
vn -519 -288 64
vn -255 -5 23
vn 495 -222 -218
vn 231 -471 99
vn 538 -286 -503
vn 48 -840 -644
vn -4 -104 -760
vn 248 -8 -293
vn 503 40 -2
vn 303 -495 101
vn 17 -746 171
vn -256 -544 -137
vn -518 -94 -500
vn -274 -562 211
vn -543 -411 -256
vn 213 -551 -570
vn 474 -285 424
vn -542 -105 519
vn -292 -81 -484
vn 502 49 -317
vn 237 -16 221
vn -512 -284 66
vn -256 -17 5
vn 508 59 -17
vn 506 4 -72
vn 305 -483 -47
vn 224 -489 145
vn 512 0 0
vn 506 -80 -12
vn 307 -542 -88
vn 511 -9 11
vn 233 -467 -207
vn -475 -242 -134
vn -256 -10 -8
vn 255 -518 140
vn 509 -49 20
vn -4 -746 171
vn 503 -86 -496
vn 276 40 510
vn 511 -488 312
vn 233 -253 -223
vn -532 -593 -439
vn -250 -86 -241
vn -502 21 255
vn -239 -214 535
vn 273 -560 -178
vn 527 -416 312
vn -240 -550 578
vn -469 -285 -414
vn 542 -111 -465
vn 263 -88 510
vn -515 49 324
vn -234 -16 -217
vn -502 -86 496
vn -233 40 -509
vn -485 -489 -310
vn -230 -254 226
vn 535 -585 394
vn 247 -79 219
vn 521 30 -301
vn 285 -212 -560
vn 524 -339 -445
vn -516 -36 -510
vn 254 -43 -253
vn 508 -55 8
vn 294 -524 120
vn -220 -516 -141
vn -492 -248 57
vn -256 0 0
vn 485 -395 -451
vn -301 -514 -108
vn -5 -81 -504
vn 250 -73 -263
vn 506 -65 -4
vn 210 -519 155
vn -539 -215 81
vn -512 22 -10
vn -256 10 -6
vn 253 -133 -485
vn 509 -351 -162
vn -256 -579 -371
vn -510 -9 -266
vn -509 -203 51
vn -254 21 -10
vn 254 129 -481
vn 503 -178 -344
vn -279 -306 -690
vn -513 121 -218
vn -521 -189 -74
vn -254 23 17
vn 665 -8 -594
vn 69 -273 -446
vn -527 133 -492
vn 230 66 -242
vn 512 16 12
vn 570 -340 -196
vn -366 -191 -88
vn -256 0 0
vn 252 -15 -516
vn 532 -317 -308
vn -202 -500 -595
vn -510 -35 -261
vn -483 -297 -47
vn -255 -23 -3
vn -515 37 -510
vn 559 -159 -543
vn -668 -530 -839
vn -459 -247 -38
vn -256 0 0
vn 254 46 -253
vn 509 51 5
vn 361 -469 -73
vn -256 -54 -510
vn 525 -229 -370
vn -456 -459 22
vn -509 16 33
vn -218 -228 137
vn 306 -421 248
vn 509 49 -5
vn 252 -9 -263
vn 519 -299 -399
vn -200 -505 -96
vn -476 -247 57
vn -256 0 0
vn 248 -28 -293
vn 503 -12 8
vn 306 -494 205
vn 254 -59 -546
vn 549 -266 -409
vn -201 -570 -514
vn -508 -79 -242
vn -498 -295 82
vn -254 -25 5
vn -520 -106 -490
vn 254 -33 -253
vn 487 -317 -435
vn -295 -546 -102
vn -527 -278 90
vn -255 -16 10
vn 252 -32 -519
vn -278 -595 -414
vn -509 -69 -242
vn -519 -288 64
vn -255 -5 23
vn 495 -222 -218
vn 231 -471 99
vn 538 -286 -503
vn -202 -532 -192
vn -510 -73 -506
vn 248 -8 -293
vn 503 40 -2
vn 303 -495 101
vn -495 -248 57
vn -256 0 0
vn -274 -562 211
vn -543 -411 -256
vn 213 -551 -570
vn 474 -285 424
vn -542 -105 519
vn -292 -81 -484
vn 502 49 -317
vn 237 -16 221
vn -512 -284 66
vn -256 -17 5
vn 508 59 -17
vn 506 4 -72
vn 305 -483 -47
vn 224 -489 145
vn 512 0 0
vn 506 -80 -12
vn 307 -542 -88
vn 511 -9 11
vn 233 -467 -207
vn -475 -242 -134
vn -256 -10 -8
vn 255 -518 140
vn 509 -49 20
vn 503 -86 -496
vn 276 40 510
vn 511 -488 312
vn 233 -253 -223
vn -532 -593 -439
vn -250 -86 -241
vn -502 21 255
vn -239 -214 535
vn 273 -560 -178
vn 527 -416 312
vn -240 -550 578
vn -469 -285 -414
vn 542 -111 -465
vn 263 -88 510
vn -515 49 324
vn -234 -16 -217
vn -502 -86 496
vn -233 40 -509
vn -485 -489 -310
vn -230 -254 226
vn 535 -585 394
vn 247 -79 219
vn 521 30 -301
vn 285 -212 -560
vn 26 -799 -594
vn -275 -479 -148
vn -504 33 -522
vn -4 -56 -765
vn 524 -339 -445
vn 294 -524 120
vn -4 -746 171
vn -518 -182 45
vn -253 34 -5
vn 524 -339 -445
vn 254 -43 -253
vn 508 -55 8
vn 294 -524 120
vn 485 -395 -451
vn -301 -514 -108
vn -5 -81 -504
vn 250 -73 -263
vn 506 -65 -4
vn 210 -519 155
vn -539 -215 81
vn -512 22 -10
vn -256 10 -6
vn 253 -133 -485
vn 509 -351 -162
vn -256 -579 -371
vn -510 -9 -266
vn -509 -203 51
vn -254 21 -10
vn -515 113 -506
vn -10 208 -736
vn 354 -370 -1045
vn -195 -404 -481
vn -475 -242 -134
vn -256 -10 -8
vn 254 129 -481
vn 503 -178 -344
vn -279 -306 -690
vn -513 121 -218
vn -521 -189 -74
vn -254 23 17
vn 252 -15 -516
vn 532 -317 -308
vn -202 -500 -595
vn -510 -35 -261
vn -483 -297 -47
vn -255 -23 -3
vn 58 -771 -1641
vn -363 -475 -330
vn -500 42 -508
vn 6 54 -765
vn 559 -159 -543
vn 361 -469 -73
vn -57 -741 -114
vn -567 -235 -36
vn -256 6 1
vn 254 46 -253
vn 509 51 5
vn -256 -54 -510
vn 525 -229 -370
vn -456 -459 22
vn -509 16 33
vn -218 -228 137
vn 306 -421 248
vn 509 49 -5
vn 252 -9 -263
vn 248 -28 -293
vn 503 -12 8
vn 254 -59 -546
vn 549 -266 -409
vn -201 -570 -514
vn -508 -79 -242
vn -498 -295 82
vn -254 -25 5
vn -520 -106 -490
vn 254 -33 -253
vn 487 -317 -435
vn -295 -546 -102
vn -527 -278 90
vn -255 -16 10
vn -509 -103 -496
vn 36 -805 -547
vn -295 -550 -129
vn -528 -300 74
vn -254 -26 6
vn 519 -299 -399
vn 306 -494 205
vn -3 -744 176
vn 252 -32 -519
vn -278 -595 -414
vn -509 -69 -242
vn -519 -288 64
vn -255 -5 23
vn 495 -222 -218
vn 231 -471 99
vn -518 -94 -500
vn -4 -104 -760
vn 48 -840 -644
vn -256 -544 -137
vn -512 -284 66
vn -256 -17 5
vn 538 -286 -503
vn 248 -8 -293
vn 503 40 -2
vn 303 -495 101
vn -274 -562 211
vn -543 -411 -256
vn 213 -551 -570
vn 474 -285 424
vn -542 -105 519
vn -292 -81 -484
vn 502 49 -317
vn 237 -16 221
vn 508 59 -17
vn 17 -746 171
vn 506 4 -72
vn 305 -483 -47
vn 224 -489 145
vn 512 0 0
vn 506 -80 -12
vn 307 -542 -88
vn 511 -9 11
vn 233 -467 -207
vn 215 -643 -315
vn 570 -340 -196
vn 665 -8 -594
vn 512 16 12
vn 230 66 -242
vn 255 -518 140
vn 509 -49 20
vn 503 -86 -496
vn 276 40 510
vn 511 -488 312
vn 233 -253 -223
vn -532 -593 -439
vn -250 -86 -241
vn -502 21 255
vn -239 -214 535
vn 273 -560 -178
vn 527 -416 312
vn -240 -550 578
vn -469 -285 -414
vn 542 -111 -465
vn 263 -88 510
vn -515 49 324
vn -234 -16 -217
vn -502 -86 496
vn -233 40 -509
vn -485 -489 -310
vn -230 -254 226
vn 535 -585 394
vn 247 -79 219
vn 521 30 -301
vn 285 -212 -560
vn 502 -283 -453
vn -275 -479 -148
vn -504 33 -522
vn 256 -20 -255
vn 512 0 0
vn 232 -498 114
vn -518 -182 45
vn -253 34 -5
vn 254 -43 -253
vn 508 -55 8
vn 485 -395 -451
vn -301 -514 -108
vn -5 -81 -504
vn 250 -73 -263
vn 506 -65 -4
vn 210 -519 155
vn -539 -215 81
vn -512 22 -10
vn -256 10 -6
vn 253 -133 -485
vn 509 -351 -162
vn -256 -579 -371
vn -510 -9 -266
vn -509 -203 51
vn -254 21 -10
vn -515 113 -506
vn 261 75 -244
vn 541 -97 -599
vn -195 -404 -481
vn -475 -242 -134
vn -256 -10 -8
vn 254 129 -481
vn 503 -178 -344
vn -279 -306 -690
vn -513 121 -218
vn -521 -189 -74
vn -254 23 17
vn 252 -15 -516
vn 532 -317 -308
vn -202 -500 -595
vn -510 -35 -261
vn -483 -297 -47
vn -255 -23 -3
vn 726 -241 -802
vn -363 -475 -330
vn -500 42 -508
vn 265 17 -255
vn 512 0 0
vn 146 -494 -76
vn -567 -235 -36
vn -256 6 1
vn 254 46 -253
vn 509 51 5
vn -256 -54 -510
vn 525 -229 -370
vn -456 -459 22
vn -509 16 33
vn -218 -228 137
vn 306 -421 248
vn 509 49 -5
vn 252 -9 -263
vn 248 -28 -293
vn 503 -12 8
vn 254 -59 -546
vn 549 -266 -409
vn -201 -570 -514
vn -508 -79 -242
vn -498 -295 82
vn -254 -25 5
vn -520 -106 -490
vn 254 -33 -253
vn 487 -317 -435
vn -295 -546 -102
vn -527 -278 90
vn -255 -16 10
vn -509 -103 -496
vn 492 -300 -451
vn -295 -550 -129
vn -528 -300 74
vn -254 -26 6
vn 512 0 0
vn 217 -497 119
vn 252 -32 -519
vn -278 -595 -414
vn -509 -69 -242
vn -519 -288 64
vn -255 -5 23
vn 495 -222 -218
vn 231 -471 99
vn -518 -94 -500
vn 250 -31 -254
vn 506 -308 -452
vn -256 -544 -137
vn -512 -284 66
vn -256 -17 5
vn 538 -286 -503
vn 248 -8 -293
vn 503 40 -2
vn 303 -495 101
vn -274 -562 211
vn -543 -411 -256
vn 213 -551 -570
vn 474 -285 424
vn -542 -105 519
vn -292 -81 -484
vn 502 49 -317
vn 237 -16 221
vn 508 59 -17
vn 256 -498 114
vn 512 0 0
vn 506 4 -72
vn 305 -483 -47
vn 224 -489 145
vn 512 0 0
vn 506 -80 -12
vn 307 -542 -88
vn 512 0 0
vn 325 -452 -227
vn 511 -9 11
vn 233 -467 -207
vn 255 -518 140
vn 509 -49 20
vn 503 -86 -496
vn 276 40 510
vn 511 -488 312
vn 233 -253 -223
vn -532 -593 -439
vn -250 -86 -241
vn -502 21 255
vn -239 -214 535
vn 273 -560 -178
vn 527 -416 312
vn -240 -550 578
vn -469 -285 -414
vn 542 -111 -465
vn 263 -88 510
vn -515 49 324
vn -234 -16 -217
vn 0 -512 0
vn 0 -256 0
usemtl m0
f 1 2 3

usemtl m1
f 1 3 4

usemtl m2
f 4 3 5

usemtl m3
f 4 5 6

usemtl m4
f 6 5 7

usemtl m5
f 6 7 8

usemtl m6
f 8 7 9

usemtl m7
f 9 7 10

usemtl m8
f 11 12 13

usemtl m9
f 11 13 14

usemtl m10
f 11 14 15

usemtl m11
f 11 15 16

usemtl m12
f 16 15 17

usemtl m13
f 17 15 18

usemtl m14
f 17 18 12

usemtl m15
f 12 18 13

usemtl m16
f 13 18 15

usemtl m17
f 13 15 14

usemtl m18
f 19 20 21

usemtl m19
f 19 21 22

usemtl m20
f 19 22 23

usemtl m21
f 19 23 24

usemtl m22
f 19 24 20

usemtl m23
f 20 24 25

usemtl m24
f 20 25 21

usemtl m25
f 21 25 26

usemtl m26
f 27 28 29

usemtl m27
f 27 29 30

usemtl m28
f 27 30 31

usemtl m29
f 27 31 32

usemtl m30
f 27 32 28

usemtl m31
f 28 32 33

usemtl m32
f 33 32 34

usemtl m33
f 33 34 35

usemtl m34
f 33 35 36

usemtl m35
f 37 38 39

usemtl m36
f 37 39 40

usemtl m37
f 37 40 41

usemtl m38
f 37 41 42

usemtl m39
f 37 42 38

usemtl m40
f 38 42 43

usemtl m41
f 38 43 44

usemtl m42
f 44 43 45

usemtl m43
f 46 47 48

usemtl m44
f 46 48 49

usemtl m45
f 49 48 50

usemtl m46
f 49 50 51

usemtl m47
f 52 53 54

usemtl m48
f 52 54 55

usemtl m49
f 52 55 56

usemtl m50
f 52 56 57

usemtl m51
f 58 59 60

usemtl m52
f 58 60 61

usemtl m53
f 61 60 62

usemtl m54
f 61 62 63

usemtl m55
f 64 65 66

usemtl m56
f 64 66 67

usemtl m57
f 64 67 68

usemtl m58
f 64 68 69

usemtl m59
f 64 69 65

usemtl m60
f 65 69 70

usemtl m61
f 65 70 71

usemtl m62
f 65 71 72

usemtl m63
f 65 72 66

usemtl m64
f 73 74 75

usemtl m65
f 73 75 76

usemtl m66
f 76 75 77

usemtl m67
f 76 77 78

usemtl m68
f 79 80 81

usemtl m69
f 79 81 82

usemtl m70
f 79 82 83

usemtl m71
f 79 83 84

usemtl m72
f 79 84 85

usemtl m73
f 79 85 80

usemtl m74
f 80 85 86

usemtl m75
f 80 86 81

usemtl m76
f 81 86 87

usemtl m77
f 88 89 90

usemtl m78
f 88 90 91

usemtl m79
f 91 90 92

usemtl m80
f 91 92 93

usemtl m81
f 91 93 94

usemtl m82
f 88 95 89

usemtl m83
f 89 95 96

usemtl m84
f 89 96 97

usemtl m85
f 89 97 90

usemtl m86
f 90 97 98

usemtl m87
f 90 98 92

usemtl m88
f 92 98 93

usemtl m89
f 99 100 101

usemtl m90
f 99 101 102

usemtl m91
f 102 101 103

usemtl m92
f 103 101 104

usemtl m93
f 104 101 100

usemtl m94
f 104 100 105

usemtl m95
f 105 100 106

usemtl m96
f 106 100 99

usemtl m97
f 90 107 108

usemtl m98
f 90 108 109

usemtl m99
f 109 108 110

usemtl m100
f 109 110 111

usemtl m101
f 109 111 112

usemtl m102
f 90 113 107

usemtl m103
f 107 113 114

usemtl m104
f 107 114 115

usemtl m105
f 107 115 108

usemtl m106
f 108 115 116

usemtl m107
f 108 116 110

usemtl m108
f 110 116 111

usemtl m109
f 117 118 119

usemtl m110
f 117 119 120

usemtl m111
f 120 119 121

usemtl m112
f 120 121 122

usemtl m113
f 123 124 125

usemtl m114
f 123 125 126

usemtl m115
f 123 126 127

usemtl m116
f 123 127 128

usemtl m117
f 129 130 131

usemtl m118
f 129 131 132

usemtl m119
f 129 132 133

usemtl m120
f 129 79 130

usemtl m121
f 130 79 134

usemtl m122
f 130 134 135

usemtl m123
f 130 135 136

usemtl m124
f 130 136 131

usemtl m125
f 131 136 132

usemtl m126
f 137 138 139

usemtl m127
f 139 138 140

usemtl m128
f 139 140 141

usemtl m129
f 137 142 138

usemtl m130
f 138 142 143

usemtl m131
f 138 143 140

usemtl m132
f 144 145 146

usemtl m133
f 144 146 147

usemtl m134
f 144 147 148

usemtl m135
f 144 148 149

usemtl m136
f 150 151 152

usemtl m137
f 150 152 153

usemtl m138
f 150 153 154

usemtl m139
f 150 154 155

usemtl m140
f 150 155 151

usemtl m141
f 151 155 156

usemtl m142
f 151 156 157

usemtl m143
f 151 157 158

usemtl m144
f 151 158 152

usemtl m145
f 159 160 161

usemtl m146
f 159 161 162

usemtl m147
f 159 162 163

usemtl m148
f 159 163 160

usemtl m149
f 160 163 164

usemtl m150
f 160 164 161

usemtl m151
f 161 164 165

usemtl m152
f 161 165 162

usemtl m153
f 162 165 166

usemtl m154
f 162 166 163

usemtl m155
f 142 137 167

usemtl m156
f 142 167 143

usemtl m157
f 147 146 168

usemtl m158
f 147 168 148

usemtl m159
f 118 117 169

usemtl m160
f 118 169 170

usemtl m161
f 118 170 119

usemtl m162
f 119 170 121

usemtl m163
f 126 125 171

usemtl m164
f 126 171 127

usemtl m165
f 172 171 125

usemtl m166
f 172 125 124

usemtl m167
f 74 73 173

usemtl m168
f 74 173 174

usemtl m169
f 74 174 75

usemtl m170
f 75 174 77

usemtl m171
f 175 176 59

usemtl m172
f 175 59 58

usemtl m173
f 176 62 60

usemtl m174
f 176 60 59

usemtl m175
f 177 56 55

usemtl m176
f 177 55 54

usemtl m177
f 177 54 178

usemtl m178
f 178 54 179

usemtl m179
f 178 179 180

usemtl m180
f 180 179 181

usemtl m181
f 181 179 53

usemtl m182
f 53 179 54

usemtl m183
f 182 48 47

usemtl m184
f 182 47 183

usemtl m185
f 183 47 46

usemtl m186
f 182 50 48

usemtl m187
f 31 184 32

usemtl m188
f 32 184 34

usemtl m189
f 34 184 35

usemtl m190
f 185 186 187

usemtl m191
f 185 187 188

usemtl m192
f 185 188 189

usemtl m193
f 185 189 190

usemtl m194
f 190 189 191

usemtl m195
f 191 189 192

usemtl m196
f 191 192 186

usemtl m197
f 186 192 187

usemtl m198
f 187 192 189

usemtl m199
f 187 189 188

usemtl m200
f 193 194 195

usemtl m201
f 193 195 196

usemtl m202
f 193 196 197

usemtl m203
f 193 197 194

usemtl m204
f 194 197 198

usemtl m205
f 194 198 195

usemtl m206
f 195 198 199

usemtl m207
f 195 199 196

usemtl m208
f 196 199 200

usemtl m209
f 196 200 197

usemtl m210
f 201 202 203

usemtl m211
f 201 203 204

usemtl m212
f 201 204 205

usemtl m213
f 201 205 206

usemtl m214
f 206 205 207

usemtl m215
f 207 205 208

usemtl m216
f 207 208 202

usemtl m217
f 202 208 203

usemtl m218
f 203 208 205

usemtl m219
f 203 205 204

usemtl m220
f 209 210 211

usemtl m221
f 209 211 212

usemtl m222
f 209 212 213

usemtl m223
f 209 213 214

usemtl m224
f 209 214 210

usemtl m225
f 210 214 215

usemtl m226
f 215 214 216

usemtl m227
f 215 216 217

usemtl m228
f 215 217 218

usemtl m229
f 219 220 221

usemtl m230
f 219 221 222

usemtl m231
f 219 222 223

usemtl m232
f 219 223 224

usemtl m233
f 219 224 220

usemtl m234
f 220 224 225

usemtl m235
f 220 225 226

usemtl m236
f 226 225 227

usemtl m237
f 228 229 230

usemtl m238
f 228 230 231

usemtl m239
f 231 230 232

usemtl m240
f 231 232 233

usemtl m241
f 234 235 236

usemtl m242
f 234 236 237

usemtl m243
f 237 236 238

usemtl m244
f 237 238 239

usemtl m245
f 240 241 242

usemtl m246
f 240 242 243

usemtl m247
f 240 243 244

usemtl m248
f 240 244 245

usemtl m249
f 240 245 241

usemtl m250
f 241 245 246

usemtl m251
f 241 246 247

usemtl m252
f 241 247 248

usemtl m253
f 241 248 242

usemtl m254
f 249 250 251

usemtl m255
f 249 251 252

usemtl m256
f 252 251 253

usemtl m257
f 252 253 254

usemtl m258
f 255 256 257

usemtl m259
f 255 257 258

usemtl m260
f 258 257 259

usemtl m261
f 258 259 260

usemtl m262
f 258 260 261

usemtl m263
f 255 262 256

usemtl m264
f 256 262 263

usemtl m265
f 256 263 264

usemtl m266
f 256 264 257

usemtl m267
f 257 264 265

usemtl m268
f 257 265 259

usemtl m269
f 259 265 260

usemtl m270
f 266 267 268

usemtl m271
f 266 268 269

usemtl m272
f 269 268 270

usemtl m273
f 270 268 271

usemtl m274
f 271 268 267

usemtl m275
f 271 267 272

usemtl m276
f 272 267 273

usemtl m277
f 273 267 266

usemtl m278
f 257 274 275

usemtl m279
f 257 275 276

usemtl m280
f 276 275 277

usemtl m281
f 276 277 278

usemtl m282
f 276 278 279

usemtl m283
f 257 280 274

usemtl m284
f 274 280 281

usemtl m285
f 274 281 282

usemtl m286
f 274 282 275

usemtl m287
f 275 282 283

usemtl m288
f 275 283 277

usemtl m289
f 277 283 278

usemtl m290
f 284 285 286

usemtl m291
f 284 286 287

usemtl m292
f 287 286 288

usemtl m293
f 287 288 289

usemtl m294
f 290 291 292

usemtl m295
f 290 292 293

usemtl m296
f 290 293 294

usemtl m297
f 290 294 295

usemtl m298
f 296 297 298

usemtl m299
f 298 297 299

usemtl m300
f 298 299 300

usemtl m301
f 296 301 297

usemtl m302
f 297 301 302

usemtl m303
f 297 302 299

usemtl m304
f 303 304 305

usemtl m305
f 303 305 306

usemtl m306
f 303 306 307

usemtl m307
f 303 307 308

usemtl m308
f 303 308 304

usemtl m309
f 304 308 309

usemtl m310
f 304 309 310

usemtl m311
f 304 310 311

usemtl m312
f 304 311 305

usemtl m313
f 312 313 314

usemtl m314
f 312 314 315

usemtl m315
f 312 315 316

usemtl m316
f 312 316 313

usemtl m317
f 313 316 317

usemtl m318
f 313 317 314

usemtl m319
f 314 317 318

usemtl m320
f 314 318 315

usemtl m321
f 315 318 319

usemtl m322
f 315 319 316

usemtl m323
f 158 157 320

usemtl m324
f 158 320 321

usemtl m325
f 301 296 322

usemtl m326
f 301 322 302

usemtl m327
f 157 156 320

usemtl m328
f 285 284 323

usemtl m329
f 285 323 324

usemtl m330
f 285 324 286

usemtl m331
f 286 324 288

usemtl m332
f 293 292 325

usemtl m333
f 293 325 294

usemtl m334
f 326 325 292

usemtl m335
f 326 292 291

usemtl m336
f 250 249 327

usemtl m337
f 250 327 328

usemtl m338
f 250 328 251

usemtl m339
f 251 328 253

usemtl m340
f 329 330 235

usemtl m341
f 329 235 234

usemtl m342
f 331 332 72

usemtl m343
f 331 72 71

usemtl m344
f 331 71 70

usemtl m345
f 330 238 236

usemtl m346
f 330 236 235

usemtl m347
f 333 230 229

usemtl m348
f 333 229 334

usemtl m349
f 334 229 228

usemtl m350
f 333 232 230

usemtl m351
f 213 335 214

usemtl m352
f 214 335 216

usemtl m353
f 216 335 217

usemtl m354
f 336 337 338

usemtl m355
f 336 338 339

usemtl m356
f 336 339 340

usemtl m357
f 336 340 341

usemtl m358
f 341 340 342

usemtl m359
f 342 340 343

usemtl m360
f 342 343 337

usemtl m361
f 337 343 338

usemtl m362
f 338 343 340

usemtl m363
f 338 340 339

usemtl m364
f 344 345 346

usemtl m365
f 344 346 347

usemtl m366
f 344 347 348

usemtl m367
f 344 348 345

usemtl m368
f 345 348 349

usemtl m369
f 345 349 346

usemtl m370
f 346 349 350

usemtl m371
f 346 350 347

usemtl m372
f 347 350 351

usemtl m373
f 347 351 348

usemtl m374
f 352 353 354

usemtl m375
f 352 354 355

usemtl m376
f 352 355 356

usemtl m377
f 352 356 357

usemtl m378
f 357 356 358

usemtl m379
f 358 356 359

usemtl m380
f 358 359 353

usemtl m381
f 353 359 354

usemtl m382
f 354 359 356

usemtl m383
f 354 356 355

usemtl m384
f 360 361 362

usemtl m385
f 360 362 363

usemtl m386
f 360 363 364

usemtl m387
f 360 364 365

usemtl m388
f 360 365 361

usemtl m389
f 361 365 366

usemtl m390
f 361 366 367

usemtl m391
f 368 369 370

usemtl m392
f 368 370 371

usemtl m393
f 368 371 372

usemtl m394
f 368 372 373

usemtl m395
f 368 373 369

usemtl m396
f 369 373 374

usemtl m397
f 369 374 375

usemtl m398
f 375 374 376

usemtl m399
f 377 378 379

usemtl m400
f 377 379 380

usemtl m401
f 380 379 381

usemtl m402
f 380 381 382

usemtl m403
f 383 384 385

usemtl m404
f 383 385 386

usemtl m405
f 386 385 387

usemtl m406
f 386 387 388

usemtl m407
f 389 390 391

usemtl m408
f 389 391 392

usemtl m409
f 389 392 393

usemtl m410
f 389 393 394

usemtl m411
f 389 394 390

usemtl m412
f 390 394 395

usemtl m413
f 390 395 391

usemtl m414
f 391 395 396

usemtl m415
f 397 398 399

usemtl m416
f 397 399 400

usemtl m417
f 400 399 401

usemtl m418
f 400 401 402

usemtl m419
f 403 404 405

usemtl m420
f 403 405 406

usemtl m421
f 403 406 407

usemtl m422
f 403 408 404

usemtl m423
f 404 408 409

usemtl m424
f 404 409 410

usemtl m425
f 404 410 405

usemtl m426
f 405 410 406

usemtl m427
f 411 412 413

usemtl m428
f 411 413 414

usemtl m429
f 414 413 415

usemtl m430
f 415 413 416

usemtl m431
f 416 413 412

usemtl m432
f 416 412 417

usemtl m433
f 417 412 418

usemtl m434
f 418 412 411

usemtl m435
f 405 419 420

usemtl m436
f 405 420 421

usemtl m437
f 405 421 422

usemtl m438
f 405 423 419

usemtl m439
f 419 423 424

usemtl m440
f 419 424 425

usemtl m441
f 419 425 420

usemtl m442
f 420 425 421

usemtl m443
f 426 427 428

usemtl m444
f 426 428 429

usemtl m445
f 429 428 430

usemtl m446
f 429 430 431

usemtl m447
f 432 433 434

usemtl m448
f 432 434 435

usemtl m449
f 432 435 436

usemtl m450
f 432 436 437

usemtl m451
f 438 439 440

usemtl m452
f 440 439 441

usemtl m453
f 440 441 442

usemtl m454
f 438 443 439

usemtl m455
f 439 443 444

usemtl m456
f 439 444 441

usemtl m457
f 445 446 447

usemtl m458
f 445 447 448

usemtl m459
f 445 448 449

usemtl m460
f 445 449 450

usemtl m461
f 445 450 446

usemtl m462
f 446 450 451

usemtl m463
f 446 451 447

usemtl m464
f 447 451 452

usemtl m465
f 453 454 455

usemtl m466
f 453 455 456

usemtl m467
f 453 456 457

usemtl m468
f 453 457 454

usemtl m469
f 454 457 458

usemtl m470
f 454 458 455

usemtl m471
f 455 458 459

usemtl m472
f 455 459 456

usemtl m473
f 456 459 460

usemtl m474
f 456 460 457

usemtl m475
f 311 310 461

usemtl m476
f 311 461 462

usemtl m477
f 443 438 463

usemtl m478
f 443 463 444

usemtl m479
f 310 309 461

usemtl m480
f 427 426 464

usemtl m481
f 427 464 465

usemtl m482
f 427 465 428

usemtl m483
f 428 465 430

usemtl m484
f 435 434 466

usemtl m485
f 435 466 436

usemtl m486
f 467 466 434

usemtl m487
f 467 434 433

usemtl m488
f 398 397 468

usemtl m489
f 398 468 469

usemtl m490
f 398 469 399

usemtl m491
f 399 469 401

usemtl m492
f 470 471 384

usemtl m493
f 470 384 383

usemtl m494
f 472 473 248

usemtl m495
f 472 248 247

usemtl m496
f 472 247 246

usemtl m497
f 471 387 385

usemtl m498
f 471 385 384

usemtl m499
f 474 379 378

usemtl m500
f 474 378 475

usemtl m501
f 475 378 377

usemtl m502
f 474 381 379

usemtl m503
f 364 366 365

usemtl m504
f 476 477 478

usemtl m505
f 476 478 479

usemtl m506
f 476 479 480

usemtl m507
f 476 480 481

usemtl m508
f 481 480 482

usemtl m509
f 482 480 483

usemtl m510
f 482 483 477

usemtl m511
f 477 483 478

usemtl m512
f 478 483 480

usemtl m513
f 478 480 479

usemtl m514
f 484 485 486

usemtl m515
f 484 486 487

usemtl m516
f 484 487 488

usemtl m517
f 484 488 485

usemtl m518
f 485 488 489

usemtl m519
f 485 489 486

usemtl m520
f 486 489 490

usemtl m521
f 486 490 487

usemtl m522
f 487 490 491

usemtl m523
f 487 491 488

usemtl m524
f 492 493 494

usemtl m525
f 492 494 495

usemtl m526
f 492 495 496

usemtl m527
f 492 496 497

usemtl m528
f 497 496 498

usemtl m529
f 498 496 499

usemtl m530
f 498 499 493

usemtl m531
f 493 499 494

usemtl m532
f 494 499 496

usemtl m533
f 494 496 495

usemtl m534
f 500 501 502

usemtl m535
f 500 502 503

usemtl m536
f 500 503 504

usemtl m537
f 500 504 505

usemtl m538
f 500 505 506

usemtl m539
f 500 506 501

usemtl m540
f 501 506 507

usemtl m541
f 501 507 502

usemtl m542
f 502 507 508

usemtl m543
f 509 22 510

usemtl m544
f 509 510 511

usemtl m545
f 509 511 512

usemtl m546
f 509 512 19

usemtl m547
f 509 19 22

usemtl m548
f 513 514 515

usemtl m549
f 513 515 516

usemtl m550
f 513 516 517

usemtl m551
f 513 517 518

usemtl m552
f 513 518 514

usemtl m553
f 514 518 519

usemtl m554
f 514 519 520

usemtl m555
f 520 519 521

usemtl m556
f 522 523 524

usemtl m557
f 522 524 525

usemtl m558
f 525 524 526

usemtl m559
f 525 526 527

usemtl m560
f 528 529 530

usemtl m561
f 528 530 531

usemtl m562
f 528 531 532

usemtl m563
f 528 532 533

usemtl m564
f 534 535 536

usemtl m565
f 534 536 537

usemtl m566
f 537 536 538

usemtl m567
f 537 538 539

usemtl m568
f 540 541 542

usemtl m569
f 540 542 543

usemtl m570
f 543 542 544

usemtl m571
f 543 544 545

usemtl m572
f 546 547 548

usemtl m573
f 546 548 549

usemtl m574
f 546 549 550

usemtl m575
f 546 550 551

usemtl m576
f 546 551 552

usemtl m577
f 546 552 547

usemtl m578
f 547 552 553

usemtl m579
f 547 553 548

usemtl m580
f 548 553 554

usemtl m581
f 82 555 83

usemtl m582
f 83 555 556

usemtl m583
f 83 556 84

usemtl m584
f 557 558 559

usemtl m585
f 557 559 560

usemtl m586
f 560 559 561

usemtl m587
f 561 559 562

usemtl m588
f 562 559 558

usemtl m589
f 562 558 563

usemtl m590
f 563 558 564

usemtl m591
f 564 558 557

usemtl m592
f 79 565 134

usemtl m593
f 134 565 566

usemtl m594
f 134 566 135

usemtl m595
f 567 568 569

usemtl m596
f 567 569 570

usemtl m597
f 570 569 571

usemtl m598
f 570 571 572

usemtl m599
f 573 574 575

usemtl m600
f 573 575 576

usemtl m601
f 573 576 577

usemtl m602
f 573 577 578

usemtl m603
f 579 580 581

usemtl m604
f 579 581 582

usemtl m605
f 579 582 583

usemtl m606
f 579 546 580

usemtl m607
f 580 546 584

usemtl m608
f 580 584 585

usemtl m609
f 580 585 586

usemtl m610
f 580 586 581

usemtl m611
f 581 586 582

usemtl m612
f 587 588 589

usemtl m613
f 589 588 590

usemtl m614
f 589 590 591

usemtl m615
f 587 592 588

usemtl m616
f 588 592 593

usemtl m617
f 588 593 590

usemtl m618
f 594 595 596

usemtl m619
f 594 596 597

usemtl m620
f 594 597 598

usemtl m621
f 594 598 599

usemtl m622
f 600 146 145

usemtl m623
f 600 145 601

usemtl m624
f 600 601 602

usemtl m625
f 600 602 603

usemtl m626
f 600 603 146

usemtl m627
f 146 603 168

usemtl m628
f 604 605 606

usemtl m629
f 604 606 607

usemtl m630
f 604 607 608

usemtl m631
f 604 608 605

usemtl m632
f 605 608 609

usemtl m633
f 605 609 606

usemtl m634
f 606 609 610

usemtl m635
f 606 610 607

usemtl m636
f 607 610 611

usemtl m637
f 607 611 608

usemtl m638
f 592 587 612

usemtl m639
f 592 612 593

usemtl m640
f 597 596 613

usemtl m641
f 597 613 598

usemtl m642
f 568 567 614

usemtl m643
f 568 614 615

usemtl m644
f 568 615 569

usemtl m645
f 569 615 571

usemtl m646
f 576 575 616

usemtl m647
f 576 616 577

usemtl m648
f 617 616 575

usemtl m649
f 617 575 574

usemtl m650
f 541 540 618

usemtl m651
f 541 618 619

usemtl m652
f 541 619 542

usemtl m653
f 542 619 544

usemtl m654
f 620 621 535

usemtl m655
f 620 535 534

usemtl m656
f 621 538 536

usemtl m657
f 621 536 535

usemtl m658
f 622 532 531

usemtl m659
f 622 531 530

usemtl m660
f 622 530 623

usemtl m661
f 623 530 624

usemtl m662
f 623 624 625

usemtl m663
f 625 624 626

usemtl m664
f 626 624 529

usemtl m665
f 529 624 530

usemtl m666
f 627 524 523

usemtl m667
f 627 523 628

usemtl m668
f 628 523 522

usemtl m669
f 627 526 524

usemtl m670
f 512 24 19

usemtl m671
f 629 630 631

usemtl m672
f 629 631 632

usemtl m673
f 629 632 633

usemtl m674
f 629 633 634

usemtl m675
f 634 633 635

usemtl m676
f 635 633 636

usemtl m677
f 635 636 630

usemtl m678
f 630 636 631

usemtl m679
f 631 636 633

usemtl m680
f 631 633 632

usemtl m681
f 637 638 639

usemtl m682
f 637 639 640

usemtl m683
f 637 640 641

usemtl m684
f 637 641 638

usemtl m685
f 638 641 642

usemtl m686
f 638 642 639

usemtl m687
f 639 642 643

usemtl m688
f 639 643 640

usemtl m689
f 640 643 644

usemtl m690
f 640 644 641

usemtl m691
f 645 646 647

usemtl m692
f 645 647 648

usemtl m693
f 645 648 649

usemtl m694
f 645 649 650

usemtl m695
f 650 649 651

usemtl m696
f 651 649 652

usemtl m697
f 651 652 646

usemtl m698
f 646 652 647

usemtl m699
f 647 652 649

usemtl m700
f 647 649 648

usemtl m701
f 653 654 655

usemtl m702
f 653 655 656

usemtl m703
f 653 656 657

usemtl m704
f 653 657 658

usemtl m705
f 653 658 654

usemtl m706
f 654 658 659

usemtl m707
f 654 659 655

usemtl m708
f 655 659 660

usemtl m709
f 504 503 661

usemtl m710
f 504 661 662

usemtl m711
f 504 662 505

usemtl m712
f 663 664 665

usemtl m713
f 663 665 666

usemtl m714
f 663 666 667

usemtl m715
f 663 667 668

usemtl m716
f 663 668 664

usemtl m717
f 664 668 669

usemtl m718
f 664 669 670

usemtl m719
f 670 669 671

usemtl m720
f 672 673 674

usemtl m721
f 672 674 675

usemtl m722
f 675 674 676

usemtl m723
f 675 676 677

usemtl m724
f 678 679 680

usemtl m725
f 678 680 681

usemtl m726
f 678 681 682

usemtl m727
f 678 682 683

usemtl m728
f 684 685 686

usemtl m729
f 684 686 687

usemtl m730
f 687 686 688

usemtl m731
f 687 688 689

usemtl m732
f 690 691 692

usemtl m733
f 690 692 693

usemtl m734
f 693 692 694

usemtl m735
f 693 694 695

usemtl m736
f 696 697 698

usemtl m737
f 696 698 699

usemtl m738
f 696 699 700

usemtl m739
f 696 700 701

usemtl m740
f 696 701 697

usemtl m741
f 697 701 702

usemtl m742
f 697 702 698

usemtl m743
f 698 702 703

usemtl m744
f 549 704 550

usemtl m745
f 550 704 705

usemtl m746
f 550 705 551

usemtl m747
f 706 707 708

usemtl m748
f 706 708 709

usemtl m749
f 709 708 710

usemtl m750
f 710 708 711

usemtl m751
f 711 708 707

usemtl m752
f 711 707 712

usemtl m753
f 712 707 713

usemtl m754
f 713 707 706

usemtl m755
f 546 714 584

usemtl m756
f 584 714 715

usemtl m757
f 584 715 585

usemtl m758
f 716 717 718

usemtl m759
f 716 718 719

usemtl m760
f 719 718 720

usemtl m761
f 719 720 721

usemtl m762
f 722 723 724

usemtl m763
f 722 724 725

usemtl m764
f 722 725 726

usemtl m765
f 722 726 727

usemtl m766
f 728 729 730

usemtl m767
f 728 730 731

usemtl m768
f 728 731 732

usemtl m769
f 728 696 729

usemtl m770
f 729 696 733

usemtl m771
f 729 733 734

usemtl m772
f 729 734 730

usemtl m773
f 730 734 731

usemtl m774
f 735 736 737

usemtl m775
f 737 736 738

usemtl m776
f 737 738 739

usemtl m777
f 735 740 736

usemtl m778
f 736 740 741

usemtl m779
f 736 741 738

usemtl m780
f 742 743 744

usemtl m781
f 742 744 745

usemtl m782
f 742 745 746

usemtl m783
f 742 746 747

usemtl m784
f 748 596 595

usemtl m785
f 748 595 749

usemtl m786
f 748 749 750

usemtl m787
f 748 750 751

usemtl m788
f 748 751 596

usemtl m789
f 596 751 613

usemtl m790
f 752 753 754

usemtl m791
f 752 754 755

usemtl m792
f 752 755 756

usemtl m793
f 752 756 753

usemtl m794
f 753 756 757

usemtl m795
f 753 757 754

usemtl m796
f 754 757 758

usemtl m797
f 754 758 755

usemtl m798
f 755 758 759

usemtl m799
f 755 759 756

usemtl m800
f 740 735 760

usemtl m801
f 740 760 741

usemtl m802
f 745 744 761

usemtl m803
f 745 761 746

usemtl m804
f 762 761 744

usemtl m805
f 762 744 743

usemtl m806
f 717 716 763

usemtl m807
f 717 763 764

usemtl m808
f 717 764 718

usemtl m809
f 718 764 720

usemtl m810
f 725 724 765

usemtl m811
f 725 765 726

usemtl m812
f 766 765 724

usemtl m813
f 766 724 723

usemtl m814
f 691 690 767

usemtl m815
f 691 767 768

usemtl m816
f 691 768 692

usemtl m817
f 692 768 694

usemtl m818
f 769 770 680

usemtl m819
f 769 680 679

usemtl m820
f 771 772 685

usemtl m821
f 771 685 684

usemtl m822
f 772 688 686

usemtl m823
f 772 686 685

usemtl m824
f 770 682 681

usemtl m825
f 770 681 680

usemtl m826
f 773 674 673

usemtl m827
f 773 673 774

usemtl m828
f 774 673 672

usemtl m829
f 773 676 674

usemtl m830
f 775 776 777

usemtl m831
f 775 777 778

usemtl m832
f 775 778 779

usemtl m833
f 775 779 780

usemtl m834
f 780 779 781

usemtl m835
f 781 779 782

usemtl m836
f 781 782 776

usemtl m837
f 776 782 777

usemtl m838
f 777 782 779

usemtl m839
f 777 779 778

usemtl m840
f 783 784 785

usemtl m841
f 783 785 786

usemtl m842
f 783 786 787

usemtl m843
f 783 787 784

usemtl m844
f 784 787 788

usemtl m845
f 784 788 785

usemtl m846
f 785 788 789

usemtl m847
f 785 789 786

usemtl m848
f 786 789 790

usemtl m849
f 786 790 787

usemtl m850
f 2 1 791

usemtl m851
f 2 791 792

