newmtl m0
Kd 0.043137254901960784 0.0392156862745098 0.0392156862745098
newmtl m1
Kd 0.043137254901960784 0.0392156862745098 0.0392156862745098
newmtl m2
Kd 0.40784313725490196 0.36470588235294116 0.36470588235294116
newmtl m3
Kd 0.40784313725490196 0.36470588235294116 0.36470588235294116
newmtl m4
Kd 0.4745098039215686 0.4235294117647059 0.4235294117647059
newmtl m5
Kd 0.44313725490196076 0.396078431372549 0.39215686274509803
newmtl m6
Kd 0.44313725490196076 0.396078431372549 0.39215686274509803
newmtl m7
Kd 0.3764705882352941 0.33725490196078434 0.3333333333333333
newmtl m8
Kd 0.3764705882352941 0.33725490196078434 0.3333333333333333
newmtl m9
Kd 0.5098039215686274 0.4549019607843137 0.45098039215686275
newmtl m10
Kd 0.5098039215686274 0.4549019607843137 0.45098039215686275
newmtl m11
Kd 0.4745098039215686 0.4235294117647059 0.4235294117647059
