mtllib 27505.mtl
o runescapemodel
v -48 297 -50
v -48 270 -50
v -64 278 -48
v -64 305 -48
v -48 297 -26
v -32 289 -26
v -32 289 -52
v -32 262 -52
v -16 281 -54
v -16 254 -54
v 0 246 -56
v 0 273 -56
v 16 265 -58
v 16 238 -58
v 32 230 -60
v 32 257 -60
v -64 278 -26
v -48 270 -26
v -64 305 -26
v -64 305 -22
v -64 278 -22
v -48 270 -22
v -48 297 -22
v -32 289 -22
v -32 262 -22
v -16 254 -22
v -16 281 -22
v 0 273 -22
v 0 246 -22
v 16 238 -22
v 16 265 -22
v 32 257 -22
v 32 230 -22
v -64 278 -2
v -48 270 -2
v -32 262 -2
v -16 254 -2
v 0 246 -2
v 16 238 -2
v 32 230 -2
v -64 305 -2
v -48 297 -2
v -32 289 -2
v -16 281 -2
v 0 273 -2
v 16 265 -2
v 32 257 -2
v -64 305 2
v -64 278 2
v -48 270 2
v -48 297 2
v -32 289 2
v -32 262 2
v -16 254 2
v -16 281 2
v 0 273 2
v 0 246 2
v 16 238 2
v 16 265 2
v 32 257 2
v 32 230 2
v -64 278 22
v -48 270 22
v -32 262 22
v -16 254 22
v 0 246 22
v 16 238 22
v 32 230 22
v -64 305 22
v -48 297 22
v -32 289 22
v -16 281 22
v 0 273 22
v 16 265 22
v 32 257 22
v -64 305 26
v -64 278 26
v -48 270 26
v -48 297 26
v -32 289 26
v -32 262 26
v -16 254 26
v -16 281 26
v 0 273 26
v 0 246 26
v 16 238 26
v 16 265 26
v 32 257 26
v 32 230 26
v -64 278 48
v -48 270 50
v -32 262 52
v -16 254 54
v 0 246 56
v 16 238 58
v 32 230 60
v -64 305 48
v -48 297 50
v -32 289 52
v -16 281 54
v 0 273 56
v 16 265 58
v 32 257 60
v -32 262 -26
v -16 254 -26
v 0 246 -26
v 16 238 -26
v 32 230 -26
v -16 281 -26
v 0 273 -26
v 16 265 -26
v 32 257 -26
vn 342 -687 0
vn 342 -687 0
vn 197 -458 254
vn 259 -458 -254
vn 342 -687 0
vn 342 -687 0
vn 342 -687 0
vn 342 -687 0
vn 342 -687 0
vn 342 -687 0
vn 342 -687 0
vn 342 -687 0
vn 342 -687 0
vn 342 -687 0
vn 145 -229 -254
vn 83 -229 254
vn 114 -229 256
vn 342 -687 0
vn 114 -229 -256
vn 228 -458 -256
vn 228 -458 256
vn 342 -687 0
vn 342 -687 0
vn 342 -687 0
vn 342 -687 0
vn 342 -687 0
vn 342 -687 0
vn 342 -687 0
vn 342 -687 0
vn 342 -687 0
vn 342 -687 0
vn 114 -229 256
vn 114 -229 -256
vn 114 -229 256
vn 342 -687 0
vn 342 -687 0
vn 342 -687 0
vn 342 -687 0
vn 342 -687 0
vn 228 -458 -256
vn 114 -229 -256
vn 342 -687 0
vn 342 -687 0
vn 342 -687 0
vn 342 -687 0
vn 342 -687 0
vn 228 -458 256
vn 228 -458 -256
vn 228 -458 256
vn 342 -687 0
vn 342 -687 0
vn 342 -687 0
vn 342 -687 0
vn 342 -687 0
vn 342 -687 0
vn 342 -687 0
vn 342 -687 0
vn 342 -687 0
vn 342 -687 0
vn 114 -229 256
vn 114 -229 -256
vn 114 -229 256
vn 342 -687 0
vn 342 -687 0
vn 342 -687 0
vn 342 -687 0
vn 342 -687 0
vn 228 -458 -256
vn 114 -229 -256
vn 342 -687 0
vn 342 -687 0
vn 342 -687 0
vn 342 -687 0
vn 342 -687 0
vn 228 -458 256
vn 228 -458 -256
vn 228 -458 256
vn 342 -687 0
vn 342 -687 0
vn 342 -687 0
vn 342 -687 0
vn 342 -687 0
vn 342 -687 0
vn 342 -687 0
vn 342 -687 0
vn 342 -687 0
vn 342 -687 0
vn 114 -229 256
vn 114 -229 -256
vn 145 -229 254
vn 342 -687 0
vn 342 -687 0
vn 342 -687 0
vn 342 -687 0
vn 342 -687 0
vn 197 -458 -254
vn 83 -229 -254
vn 342 -687 0
vn 342 -687 0
vn 342 -687 0
vn 342 -687 0
vn 342 -687 0
vn 259 -458 254
vn 342 -687 0
vn 342 -687 0
vn 342 -687 0
vn 342 -687 0
vn 228 -458 -256
vn 342 -687 0
vn 342 -687 0
vn 342 -687 0
vn 228 -458 256
usemtl m0
f 1 2 3

usemtl m1
f 1 3 4

usemtl m2
f 1 4 5

usemtl m3
f 1 5 6

usemtl m4
f 1 6 7

usemtl m5
f 1 7 2

usemtl m6
f 1 2 8

usemtl m7
f 1 8 7

usemtl m8
f 7 8 2

usemtl m9
f 8 7 9

usemtl m10
f 8 9 10

usemtl m11
f 8 10 7

usemtl m12
f 7 10 9

usemtl m13
f 9 10 11

usemtl m14
f 9 11 12

usemtl m15
f 9 12 10

usemtl m16
f 10 12 11

usemtl m17
f 11 12 13

usemtl m18
f 11 13 14

usemtl m19
f 11 14 12

usemtl m20
f 12 14 13

usemtl m21
f 13 14 15

usemtl m22
f 13 15 16

usemtl m23
f 13 16 14

usemtl m24
f 14 16 15

usemtl m25
f 3 17 18

usemtl m26
f 3 18 2

usemtl m27
f 3 2 4

usemtl m28
f 4 2 1

usemtl m29
f 17 19 5

usemtl m30
f 17 5 18

usemtl m31
f 17 18 19

usemtl m32
f 19 18 5

usemtl m33
f 19 5 4

usemtl m34
f 20 21 22

usemtl m35
f 20 22 23

usemtl m36
f 20 23 21

usemtl m37
f 21 23 22

usemtl m38
f 22 23 24

usemtl m39
f 22 24 25

usemtl m40
f 22 25 23

usemtl m41
f 23 25 24

usemtl m42
f 24 25 26

usemtl m43
f 24 26 27

usemtl m44
f 24 27 25

usemtl m45
f 25 27 26

usemtl m46
f 26 27 28

usemtl m47
f 26 28 29

usemtl m48
f 26 29 27

usemtl m49
f 27 29 28

usemtl m50
f 28 29 30

usemtl m51
f 28 30 31

usemtl m52
f 28 31 29

usemtl m53
f 29 31 30

usemtl m54
f 30 31 32

usemtl m55
f 30 32 33

usemtl m56
f 30 33 31

usemtl m57
f 31 33 32

usemtl m58
f 21 34 35

usemtl m59
f 21 35 22

usemtl m60
f 22 35 36

usemtl m61
f 22 36 25

usemtl m62
f 25 36 37

usemtl m63
f 25 37 26

usemtl m64
f 26 37 38

usemtl m65
f 26 38 29

usemtl m66
f 29 38 39

usemtl m67
f 29 39 30

usemtl m68
f 30 39 40

usemtl m69
f 30 40 33

usemtl m70
f 34 41 42

usemtl m71
f 34 42 35

usemtl m72
f 34 35 41

usemtl m73
f 41 35 42

usemtl m74
f 41 42 20

usemtl m75
f 20 42 23

usemtl m76
f 23 42 43

usemtl m77
f 23 43 24

usemtl m78
f 24 43 44

usemtl m79
f 24 44 27

usemtl m80
f 27 44 45

usemtl m81
f 27 45 28

usemtl m82
f 28 45 46

usemtl m83
f 28 46 31

usemtl m84
f 31 46 47

usemtl m85
f 31 47 32

usemtl m86
f 48 49 50

usemtl m87
f 48 50 51

usemtl m88
f 48 51 49

usemtl m89
f 49 51 50

usemtl m90
f 50 51 52

usemtl m91
f 50 52 53

usemtl m92
f 50 53 51

usemtl m93
f 51 53 52

usemtl m94
f 52 53 54

usemtl m95
f 52 54 55

usemtl m96
f 52 55 53

usemtl m97
f 53 55 54

usemtl m98
f 54 55 56

usemtl m99
f 54 56 57

usemtl m100
f 54 57 55

usemtl m101
f 55 57 56

usemtl m102
f 56 57 58

usemtl m103
f 56 58 59

usemtl m104
f 56 59 57

usemtl m105
f 57 59 58

usemtl m106
f 58 59 60

usemtl m107
f 58 60 61

usemtl m108
f 58 61 59

usemtl m109
f 59 61 60

usemtl m110
f 49 62 63

usemtl m111
f 49 63 50

usemtl m112
f 50 63 64

usemtl m113
f 50 64 53

usemtl m114
f 53 64 65

usemtl m115
f 53 65 54

usemtl m116
f 54 65 66

usemtl m117
f 54 66 57

usemtl m118
f 57 66 67

usemtl m119
f 57 67 58

usemtl m120
f 58 67 68

usemtl m121
f 58 68 61

usemtl m122
f 62 69 70

usemtl m123
f 62 70 63

usemtl m124
f 62 63 69

usemtl m125
f 69 63 70

usemtl m126
f 69 70 48

usemtl m127
f 48 70 51

usemtl m128
f 51 70 71

usemtl m129
f 51 71 52

usemtl m130
f 52 71 72

usemtl m131
f 52 72 55

usemtl m132
f 55 72 73

usemtl m133
f 55 73 56

usemtl m134
f 56 73 74

usemtl m135
f 56 74 59

usemtl m136
f 59 74 75

usemtl m137
f 59 75 60

usemtl m138
f 76 77 78

usemtl m139
f 76 78 79

usemtl m140
f 76 79 77

usemtl m141
f 77 79 78

usemtl m142
f 78 79 80

usemtl m143
f 78 80 81

usemtl m144
f 78 81 79

usemtl m145
f 79 81 80

usemtl m146
f 80 81 82

usemtl m147
f 80 82 83

usemtl m148
f 80 83 81

usemtl m149
f 81 83 82

usemtl m150
f 82 83 84

usemtl m151
f 82 84 85

usemtl m152
f 82 85 83

usemtl m153
f 83 85 84

usemtl m154
f 84 85 86

usemtl m155
f 84 86 87

usemtl m156
f 84 87 85

usemtl m157
f 85 87 86

usemtl m158
f 86 87 88

usemtl m159
f 86 88 89

usemtl m160
f 86 89 87

usemtl m161
f 87 89 88

usemtl m162
f 77 90 91

usemtl m163
f 77 91 78

usemtl m164
f 78 91 92

usemtl m165
f 78 92 81

usemtl m166
f 81 92 93

usemtl m167
f 81 93 82

usemtl m168
f 82 93 94

usemtl m169
f 82 94 85

usemtl m170
f 85 94 95

usemtl m171
f 85 95 86

usemtl m172
f 86 95 96

usemtl m173
f 86 96 89

usemtl m174
f 90 97 98

usemtl m175
f 90 98 91

usemtl m176
f 90 91 97

usemtl m177
f 97 91 98

usemtl m178
f 97 98 76

usemtl m179
f 76 98 79

usemtl m180
f 79 98 99

usemtl m181
f 79 99 80

usemtl m182
f 80 99 100

usemtl m183
f 80 100 83

usemtl m184
f 83 100 101

usemtl m185
f 83 101 84

usemtl m186
f 84 101 102

usemtl m187
f 84 102 87

usemtl m188
f 87 102 103

usemtl m189
f 87 103 88

usemtl m190
f 2 18 104

usemtl m191
f 2 104 8

usemtl m192
f 8 104 105

usemtl m193
f 8 105 10

usemtl m194
f 10 105 106

usemtl m195
f 10 106 11

usemtl m196
f 11 106 107

usemtl m197
f 11 107 14

usemtl m198
f 14 107 108

usemtl m199
f 14 108 15

usemtl m200
f 18 5 6

usemtl m201
f 18 6 104

usemtl m202
f 18 104 5

usemtl m203
f 5 104 6

usemtl m204
f 6 104 105

usemtl m205
f 6 105 109

usemtl m206
f 6 109 104

usemtl m207
f 104 109 105

usemtl m208
f 105 109 110

usemtl m209
f 105 110 106

usemtl m210
f 105 106 109

usemtl m211
f 109 106 110

usemtl m212
f 109 110 9

usemtl m213
f 109 9 7

usemtl m214
f 109 7 6

usemtl m215
f 35 42 43

usemtl m216
f 35 43 36

usemtl m217
f 35 36 42

usemtl m218
f 42 36 43

usemtl m219
f 43 36 37

usemtl m220
f 43 37 44

usemtl m221
f 43 44 36

usemtl m222
f 36 44 37

usemtl m223
f 37 44 45

usemtl m224
f 37 45 38

usemtl m225
f 37 38 44

usemtl m226
f 44 38 45

usemtl m227
f 45 38 39

usemtl m228
f 45 39 46

usemtl m229
f 45 46 38

usemtl m230
f 38 46 39

usemtl m231
f 39 46 47

usemtl m232
f 39 47 40

usemtl m233
f 39 40 46

usemtl m234
f 46 40 47

usemtl m235
f 63 70 71

usemtl m236
f 63 71 64

usemtl m237
f 63 64 70

usemtl m238
f 70 64 71

usemtl m239
f 71 64 65

usemtl m240
f 71 65 72

usemtl m241
f 71 72 64

usemtl m242
f 64 72 65

usemtl m243
f 65 72 73

usemtl m244
f 65 73 66

usemtl m245
f 65 66 72

usemtl m246
f 72 66 73

usemtl m247
f 73 66 67

usemtl m248
f 73 67 74

usemtl m249
f 73 74 66

usemtl m250
f 66 74 67

usemtl m251
f 67 74 75

usemtl m252
f 67 75 68

usemtl m253
f 67 68 74

usemtl m254
f 74 68 75

usemtl m255
f 91 98 99

usemtl m256
f 91 99 92

usemtl m257
f 91 92 98

usemtl m258
f 98 92 99

usemtl m259
f 99 92 93

usemtl m260
f 99 93 100

usemtl m261
f 99 100 92

usemtl m262
f 92 100 93

usemtl m263
f 93 100 101

usemtl m264
f 93 101 94

usemtl m265
f 93 94 100

usemtl m266
f 100 94 101

usemtl m267
f 101 94 95

usemtl m268
f 101 95 102

usemtl m269
f 101 102 94

usemtl m270
f 94 102 95

usemtl m271
f 95 102 103

usemtl m272
f 95 103 96

usemtl m273
f 95 96 102

usemtl m274
f 102 96 103

usemtl m275
f 9 110 12

usemtl m276
f 12 110 111

usemtl m277
f 12 111 13

usemtl m278
f 13 111 112

usemtl m279
f 13 112 16

usemtl m280
f 106 110 111

usemtl m281
f 106 111 107

usemtl m282
f 106 107 110

usemtl m283
f 110 107 111

usemtl m284
f 111 107 108

usemtl m285
f 111 108 112

usemtl m286
f 111 112 107

usemtl m287
f 107 112 108

