mtllib 27777.mtl
o runescapemodel
v -192 131 73
v -117 160 58
v -192 155 91
v -118 175 58
v -119 190 86
v -192 167 105
v -192 171 0
v -119 199 -42
v -119 190 -104
v -192 167 -105
v -192 155 -91
v -118 175 -76
v -117 160 -76
v -192 131 -73
v -56 134 -76
v -192 107 -71
v -129 84 -78
v -192 82 -72
v -192 31 -71
v -162 28 -63
v -147 0 -69
v -192 0 -92
v 11 236 4
v 102 256 46
v 192 285 35
v 192 293 -32
v 192 285 -77
v 102 256 -88
v 74 207 21
v 97 232 21
v 192 265 6
v -56 134 58
v -192 107 71
v -129 84 60
v -129 84 0
v -56 134 0
v -192 31 71
v -192 82 72
v 192 249 6
v -162 28 63
v -147 0 69
v -146 0 0
v -162 28 0
v -192 0 92
v 74 207 0
v 192 249 0
v 192 249 -48
v 74 207 -63
v 97 232 -63
v 192 265 -48
v 171 283 33
v 169 182 15
v 178 182 5
v 191 289 6
v 171 182 -4
v 175 285 -19
v 159 182 -3
v 146 277 -12
v 157 182 10
v 141 276 16
v 166 118 10
v 174 118 5
v 169 118 -3
v 161 118 0
v 161 118 6
v 166 16 5
v 117 260 13
v 105 184 20
v 93 184 20
v 84 252 8
v 86 184 27
v 80 251 28
v 93 184 31
v 89 254 44
v 105 184 31
v 113 259 44
v 99 83 27
v 134 264 32
v 141 225 28
v 143 225 28
v 147 266 34
v 147 225 26
v 148 267 26
v 143 225 26
v 143 267 19
v 141 225 26
v 136 265 19
v 142 170 26
v 41 230 51
v 40 196 46
v 40 196 42
v 44 228 39
v 38 196 39
v 37 225 37
v 36 196 42
v 31 223 41
v 36 196 46
v 30 225 49
v 38 157 44
v -51 201 53
v -40 139 52
v -34 139 57
v -34 204 67
v -29 139 53
v -20 211 56
v -30 139 47
v -25 209 39
v -37 139 45
v -41 203 36
v -37 101 50
v -34 101 55
v -30 101 52
v -31 101 48
v -34 101 48
v -34 40 50
v 10 216 52
v 5 201 51
v 4 201 47
v 6 216 42
v 1 201 47
v -2 216 44
v 0 201 51
v -5 216 51
v 1 201 52
v 1 216 57
v 4 191 50
v 3 191 48
v 2 191 48
v 1 191 50
v 2 191 51
v 3 171 50
v -161 165 60
v -166 120 65
v -175 120 65
v -186 159 56
v -181 120 71
v -189 158 72
v -175 120 74
v -182 160 84
v -166 120 74
v -164 164 84
v -171 43 71
v -108 184 72
v -100 151 68
v -96 151 68
v -92 187 75
v -92 151 66
v -91 188 65
v -96 151 64
v -96 188 57
v -100 151 64
v -105 185 57
v -98 89 66
v 62 190 -80
v 63 234 -88
v 72 236 -76
v 66 190 -76
v 64 163 -76
v 61 163 -78
v 58 190 -78
v 51 230 -81
v 59 190 -74
v 54 231 -70
v 63 190 -73
v 65 234 -67
v 62 163 -74
v 61 119 -76
v 60 163 -76
v 60 163 -75
v 141 225 -70
v 134 264 -74
v 147 266 -76
v 143 225 -70
v 142 170 -68
v 141 225 -68
v 136 265 -61
v 143 225 -68
v 143 267 -61
v 147 225 -68
v 148 267 -68
v 40 196 -64
v 41 230 -69
v 44 228 -57
v 40 196 -60
v 38 157 -62
v 36 196 -64
v 30 225 -67
v 36 196 -60
v 31 223 -59
v 38 196 -57
v 37 225 -55
v -55 153 -69
v -64 202 -70
v -50 204 -81
v -50 153 -73
v -50 122 -72
v -53 122 -68
v -53 153 -64
v -56 204 -57
v -48 153 -66
v -44 208 -60
v -47 153 -70
v -40 210 -72
v -48 122 -69
v -50 73 -68
v -50 122 -67
v -49 122 -67
v 5 201 -69
v 10 216 -70
v 6 216 -60
v 4 201 -65
v 3 191 -66
v 4 191 -68
v 1 201 -70
v 1 216 -75
v 0 201 -69
v -5 216 -69
v 1 201 -65
v -2 216 -62
v 2 191 -66
v 3 171 -68
v 2 191 -69
v 1 191 -68
v -166 120 -65
v -161 165 -60
v -186 159 -56
v -175 120 -65
v -171 43 -71
v -166 120 -74
v -164 164 -84
v -175 120 -74
v -182 160 -84
v -181 120 -71
v -189 158 -72
v -100 151 -86
v -108 184 -90
v -92 187 -93
v -96 151 -86
v -98 89 -84
v -100 151 -82
v -105 185 -75
v -96 151 -82
v -96 188 -75
v -92 151 -84
v -91 188 -83
vn 146 104 -690
vn 297 4 -1166
vn 396 520 -691
vn 313 413 -717
vn 128 -114 -846
vn 22 -65 -163
vn -339 -958 16
vn -321 -960 34
vn -1 -108 899
vn -15 -56 170
vn 242 547 728
vn 193 429 742
vn 122 133 1215
vn 40 183 710
vn 379 632 1017
vn -44 -22 762
vn 497 605 993
vn -48 -6 508
vn 197 -121 911
vn 787 145 462
vn 616 -465 428
vn 99 -132 195
vn -571 -1946 -3
vn 113 77 -524
vn -62 -286 -208
vn -154 -482 13
vn -77 -282 200
vn 90 77 496
vn 600 952 -1091
vn 339 484 -1045
vn 208 381 -547
vn 527 571 -995
vn 106 46 -755
vn 773 522 -999
vn 1092 1020 0
vn 807 1302 0
vn 280 -190 -922
vn 95 -6 -502
vn 255 525 -501
vn 800 -181 -479
vn 394 -339 -428
vn 669 -375 0
vn 1329 13 3
vn 99 -132 -195
vn 715 1633 0
vn 170 482 0
vn 255 525 501
vn 384 753 1121
vn 296 460 1066
vn 208 381 547
vn 277 97 -539
vn -95 152 -1230
vn 1121 125 -390
vn 624 76 142
vn 793 108 1088
vn 144 92 633
vn -684 128 1070
vn -549 106 331
vn -1201 152 -348
vn -463 107 -412
vn 141 57 -1001
vn 904 54 -6
vn 234 57 1003
vn -942 67 516
vn -928 65 -633
vn -153 63 -41
vn 297 96 472
vn 760 118 479
vn -310 154 1114
vn -380 112 475
vn -858 128 -36
vn -593 71 -299
vn -469 122 -1079
vn -208 126 -631
vn 518 142 -758
vn 514 107 -282
vn -51 81 -43
vn -282 99 -466
vn -761 111 -471
vn 193 122 -1216
vn 333 83 -507
vn 480 60 28
vn 461 30 373
vn 207 66 1168
vn 219 108 652
vn -500 120 760
vn -493 114 293
vn -142 23 28
vn 473 67 -316
vn 483 95 -763
vn 1182 101 218
vn 532 77 320
vn 72 106 811
vn -272 63 602
vn -1069 126 500
vn -636 127 234
vn -759 147 -494
vn -279 111 -489
vn 0 75 28
vn -536 98 -262
vn -1151 145 154
vn -385 131 -1118
vn 165 88 -588
vn 1139 111 -711
vn 661 82 -82
vn 1136 107 704
vn 372 88 560
vn -271 145 1193
vn -392 95 478
vn -885 45 -33
vn 27 51 -871
vn 1055 52 -242
vn 567 58 882
vn -517 60 1037
vn 41 54 195
vn 592 192 -66
vn 847 279 -813
vn 952 295 831
vn 171 202 578
vn -552 282 1120
vn -528 195 397
vn -1313 273 -30
vn -584 194 -263
vn -602 287 -1208
vn 3 192 -631
vn 945 102 -170
vn 464 120 1000
vn -713 115 806
vn -1010 124 -314
vn -70 111 -1077
vn -66 82 74
vn 302 95 471
vn 764 98 479
vn -301 200 1106
vn -367 180 466
vn -824 204 -57
vn -567 149 -311
vn -435 184 -1092
vn -195 188 -629
vn 523 155 -753
vn 521 92 -279
vn -39 81 -49
vn -283 128 -453
vn -755 137 -460
vn 188 150 -1214
vn 329 106 -497
vn 709 93 -19
vn 585 40 340
vn 444 100 1101
vn 232 121 638
vn -494 149 759
vn -483 139 303
vn -28 46 0
vn 481 138 1179
vn -25 106 599
vn 589 80 177
vn 1105 120 -332
vn 827 68 245
vn -290 72 885
vn -1071 163 672
vn -607 111 94
vn -1117 138 -687
vn -362 98 -562
vn 64 122 -1332
vn 324 89 -578
vn 314 49 -1002
vn -276 38 -83
vn -1220 57 167
vn -803 36 -708
vn -541 126 764
vn -535 114 211
vn 219 96 536
vn 480 86 997
vn -142 23 -28
vn -758 131 -549
vn -238 124 -545
vn 12 128 -1268
vn 220 88 -652
vn 436 58 -199
vn 574 34 109
vn 759 111 574
vn 216 85 570
vn 585 80 -176
vn 1021 97 -524
vn 0 75 -28
vn -538 147 762
vn -533 131 233
vn -1182 174 -302
vn -599 110 -375
vn -134 101 -782
vn 159 53 -597
vn -1147 140 565
vn -602 104 -27
vn -133 91 580
vn 436 108 1081
vn -141 51 790
vn -806 77 -275
vn -576 154 -1039
vn -49 88 -615
vn 757 112 -1096
vn 562 82 -381
vn 1331 103 46
vn 602 83 284
vn 1068 36 235
vn 158 39 -320
vn -66 61 -1235
vn 709 33 -804
vn 1076 232 167
vn 410 179 372
vn 412 194 -391
vn 432 256 -1130
vn 713 103 -806
vn 758 69 481
vn -5 247 1308
vn -239 191 575
vn -1208 287 602
vn -640 202 21
vn -944 271 -846
vn -287 188 -593
vn -464 132 -1000
vn -66 82 -74
vn -314 106 1010
vn -1077 129 70
vn 556 153 -753
vn 554 79 -219
vn -191 168 -547
vn -597 210 -912
vn -39 81 49
vn 762 127 535
vn 266 133 527
vn -210 212 1200
vn -309 181 599
vn -795 192 220
vn -630 159 -96
vn -545 164 758
vn -535 145 198
vn 214 120 524
vn 481 97 988
vn -28 46 0
vn -752 173 -560
vn -231 144 -555
vn 242 159 -1214
vn 345 98 -612
vn 672 70 -132
vn 584 38 116
usemtl m0
f 1 2 3

usemtl m1
f 3 2 4

usemtl m2
f 3 4 5

usemtl m3
f 3 5 6

usemtl m4
f 6 5 7

usemtl m5
f 7 5 8

usemtl m6
f 7 8 9

usemtl m7
f 7 9 10

usemtl m8
f 10 9 11

usemtl m9
f 11 9 12

usemtl m10
f 11 12 13

usemtl m11
f 11 13 14

usemtl m12
f 14 13 15

usemtl m13
f 14 15 16

usemtl m14
f 16 15 17

usemtl m15
f 16 17 18

usemtl m16
f 18 17 19

usemtl m17
f 19 17 20

usemtl m18
f 19 20 21

usemtl m19
f 19 21 22

usemtl m20
f 23 8 5

usemtl m21
f 23 5 24

usemtl m22
f 23 24 25

usemtl m23
f 23 25 26

usemtl m24
f 23 26 27

usemtl m25
f 23 27 28

usemtl m26
f 23 28 9

usemtl m27
f 23 9 8

usemtl m28
f 5 4 29

usemtl m29
f 5 29 30

usemtl m30
f 5 30 24

usemtl m31
f 24 30 31

usemtl m32
f 24 31 25

usemtl m33
f 32 33 34

usemtl m34
f 32 34 35

usemtl m35
f 32 35 36

usemtl m36
f 32 36 29

usemtl m37
f 32 29 2

usemtl m38
f 32 2 1

usemtl m39
f 32 1 33

usemtl m40
f 37 34 38

usemtl m41
f 38 34 33

usemtl m42
f 4 2 29

usemtl m43
f 30 29 39

usemtl m44
f 30 39 31

usemtl m45
f 40 41 42

usemtl m46
f 40 42 43

usemtl m47
f 40 43 34

usemtl m48
f 40 34 37

usemtl m49
f 40 37 41

usemtl m50
f 41 37 44

usemtl m51
f 34 43 35

usemtl m52
f 35 43 20

usemtl m53
f 35 20 17

usemtl m54
f 35 17 36

usemtl m55
f 36 17 15

usemtl m56
f 36 15 45

usemtl m57
f 36 45 29

usemtl m58
f 29 45 39

usemtl m59
f 39 45 46

usemtl m60
f 46 45 47

usemtl m61
f 47 45 48

usemtl m62
f 47 48 49

usemtl m63
f 47 49 50

usemtl m64
f 50 49 28

usemtl m65
f 50 28 27

usemtl m66
f 51 52 53

usemtl m67
f 51 53 54

usemtl m68
f 54 53 55

usemtl m69
f 54 55 56

usemtl m70
f 56 55 57

usemtl m71
f 56 57 58

usemtl m72
f 58 57 59

usemtl m73
f 58 59 60

usemtl m74
f 60 59 52

usemtl m75
f 60 52 51

usemtl m76
f 53 52 61

usemtl m77
f 53 61 62

usemtl m78
f 53 62 55

usemtl m79
f 55 62 63

usemtl m80
f 55 63 57

usemtl m81
f 57 63 64

usemtl m82
f 57 64 59

usemtl m83
f 59 64 65

usemtl m84
f 59 65 52

usemtl m85
f 52 65 61

usemtl m86
f 61 65 66

usemtl m87
f 61 66 62

usemtl m88
f 62 66 63

usemtl m89
f 63 66 64

usemtl m90
f 64 66 65

usemtl m91
f 67 68 69

usemtl m92
f 67 69 70

usemtl m93
f 70 69 71

usemtl m94
f 70 71 72

usemtl m95
f 72 71 73

usemtl m96
f 72 73 74

usemtl m97
f 74 73 75

usemtl m98
f 74 75 76

usemtl m99
f 76 75 68

usemtl m100
f 76 68 67

usemtl m101
f 69 68 77

usemtl m102
f 69 77 71

usemtl m103
f 71 77 73

usemtl m104
f 73 77 75

usemtl m105
f 75 77 68

usemtl m106
f 78 79 80

usemtl m107
f 78 80 81

usemtl m108
f 81 80 82

usemtl m109
f 81 82 83

usemtl m110
f 83 82 84

usemtl m111
f 83 84 85

usemtl m112
f 85 84 86

usemtl m113
f 85 86 87

usemtl m114
f 87 86 79

usemtl m115
f 87 79 78

usemtl m116
f 80 79 88

usemtl m117
f 80 88 82

usemtl m118
f 82 88 84

usemtl m119
f 84 88 86

usemtl m120
f 86 88 79

usemtl m121
f 89 90 91

usemtl m122
f 89 91 92

usemtl m123
f 92 91 93

usemtl m124
f 92 93 94

usemtl m125
f 94 93 95

usemtl m126
f 94 95 96

usemtl m127
f 96 95 97

usemtl m128
f 96 97 98

usemtl m129
f 98 97 90

usemtl m130
f 98 90 89

usemtl m131
f 91 90 99

usemtl m132
f 91 99 93

usemtl m133
f 93 99 95

usemtl m134
f 95 99 97

usemtl m135
f 97 99 90

usemtl m136
f 100 101 102

usemtl m137
f 100 102 103

usemtl m138
f 103 102 104

usemtl m139
f 103 104 105

usemtl m140
f 105 104 106

usemtl m141
f 105 106 107

usemtl m142
f 107 106 108

usemtl m143
f 107 108 109

usemtl m144
f 109 108 101

usemtl m145
f 109 101 100

usemtl m146
f 102 101 110

usemtl m147
f 102 110 111

usemtl m148
f 102 111 104

usemtl m149
f 104 111 112

usemtl m150
f 104 112 106

usemtl m151
f 106 112 113

usemtl m152
f 106 113 108

usemtl m153
f 108 113 114

usemtl m154
f 108 114 101

usemtl m155
f 101 114 110

usemtl m156
f 110 114 115

usemtl m157
f 110 115 111

usemtl m158
f 111 115 112

usemtl m159
f 112 115 113

usemtl m160
f 113 115 114

usemtl m161
f 116 117 118

usemtl m162
f 116 118 119

usemtl m163
f 119 118 120

usemtl m164
f 119 120 121

usemtl m165
f 121 120 122

usemtl m166
f 121 122 123

usemtl m167
f 123 122 124

usemtl m168
f 123 124 125

usemtl m169
f 125 124 117

usemtl m170
f 125 117 116

usemtl m171
f 118 117 126

usemtl m172
f 118 126 127

usemtl m173
f 118 127 120

usemtl m174
f 120 127 128

usemtl m175
f 120 128 122

usemtl m176
f 122 128 129

usemtl m177
f 122 129 124

usemtl m178
f 124 129 130

usemtl m179
f 124 130 117

usemtl m180
f 117 130 126

usemtl m181
f 126 130 131

usemtl m182
f 126 131 127

usemtl m183
f 127 131 128

usemtl m184
f 128 131 129

usemtl m185
f 129 131 130

usemtl m186
f 132 133 134

usemtl m187
f 132 134 135

usemtl m188
f 135 134 136

usemtl m189
f 135 136 137

usemtl m190
f 137 136 138

usemtl m191
f 137 138 139

usemtl m192
f 139 138 140

usemtl m193
f 139 140 141

usemtl m194
f 141 140 133

usemtl m195
f 141 133 132

usemtl m196
f 134 133 142

usemtl m197
f 134 142 136

usemtl m198
f 136 142 138

usemtl m199
f 138 142 140

usemtl m200
f 140 142 133

usemtl m201
f 143 144 145

usemtl m202
f 143 145 146

usemtl m203
f 146 145 147

usemtl m204
f 146 147 148

usemtl m205
f 148 147 149

usemtl m206
f 148 149 150

usemtl m207
f 150 149 151

usemtl m208
f 150 151 152

usemtl m209
f 152 151 144

usemtl m210
f 152 144 143

usemtl m211
f 145 144 153

usemtl m212
f 145 153 147

usemtl m213
f 147 153 149

usemtl m214
f 149 153 151

usemtl m215
f 151 153 144

usemtl m216
f 9 48 12

usemtl m217
f 12 48 13

usemtl m218
f 13 48 15

usemtl m219
f 15 48 45

usemtl m220
f 9 49 48

usemtl m221
f 49 9 28

usemtl m222
f 21 20 43

usemtl m223
f 21 43 42

usemtl m224
f 154 155 156

usemtl m225
f 154 156 157

usemtl m226
f 154 157 158

usemtl m227
f 154 158 159

usemtl m228
f 154 159 160

usemtl m229
f 154 160 155

usemtl m230
f 155 160 161

usemtl m231
f 161 160 162

usemtl m232
f 161 162 163

usemtl m233
f 163 162 164

usemtl m234
f 163 164 165

usemtl m235
f 165 164 157

usemtl m236
f 165 157 156

usemtl m237
f 157 164 166

usemtl m238
f 157 166 158

usemtl m239
f 158 166 167

usemtl m240
f 158 167 159

usemtl m241
f 159 167 168

usemtl m242
f 159 168 160

usemtl m243
f 160 168 162

usemtl m244
f 162 168 169

usemtl m245
f 162 169 164

usemtl m246
f 164 169 166

usemtl m247
f 166 169 167

usemtl m248
f 167 169 168

usemtl m249
f 170 171 172

usemtl m250
f 170 172 173

usemtl m251
f 170 173 174

usemtl m252
f 170 174 175

usemtl m253
f 170 175 171

usemtl m254
f 171 175 176

usemtl m255
f 176 175 177

usemtl m256
f 176 177 178

usemtl m257
f 178 177 179

usemtl m258
f 178 179 180

usemtl m259
f 180 179 173

usemtl m260
f 180 173 172

usemtl m261
f 179 174 173

usemtl m262
f 174 179 177

usemtl m263
f 174 177 175

usemtl m264
f 181 182 183

usemtl m265
f 181 183 184

usemtl m266
f 181 184 185

usemtl m267
f 181 185 186

usemtl m268
f 181 186 182

usemtl m269
f 182 186 187

usemtl m270
f 187 186 188

usemtl m271
f 187 188 189

usemtl m272
f 189 188 190

usemtl m273
f 189 190 191

usemtl m274
f 191 190 184

usemtl m275
f 191 184 183

usemtl m276
f 190 185 184

usemtl m277
f 185 190 188

usemtl m278
f 185 188 186

usemtl m279
f 192 193 194

usemtl m280
f 192 194 195

usemtl m281
f 192 195 196

usemtl m282
f 192 196 197

usemtl m283
f 192 197 198

usemtl m284
f 192 198 193

usemtl m285
f 193 198 199

usemtl m286
f 199 198 200

usemtl m287
f 199 200 201

usemtl m288
f 201 200 202

usemtl m289
f 201 202 203

usemtl m290
f 203 202 195

usemtl m291
f 203 195 194

usemtl m292
f 195 202 204

usemtl m293
f 195 204 196

usemtl m294
f 196 204 205

usemtl m295
f 196 205 197

usemtl m296
f 197 205 206

usemtl m297
f 197 206 198

usemtl m298
f 198 206 200

usemtl m299
f 200 206 207

usemtl m300
f 200 207 202

usemtl m301
f 202 207 204

usemtl m302
f 204 207 205

usemtl m303
f 205 207 206

usemtl m304
f 208 209 210

usemtl m305
f 208 210 211

usemtl m306
f 208 211 212

usemtl m307
f 208 212 213

usemtl m308
f 208 213 214

usemtl m309
f 208 214 209

usemtl m310
f 209 214 215

usemtl m311
f 215 214 216

usemtl m312
f 215 216 217

usemtl m313
f 217 216 218

usemtl m314
f 217 218 219

usemtl m315
f 219 218 211

usemtl m316
f 219 211 210

usemtl m317
f 211 218 220

usemtl m318
f 211 220 212

usemtl m319
f 212 220 221

usemtl m320
f 212 221 213

usemtl m321
f 213 221 222

usemtl m322
f 213 222 214

usemtl m323
f 214 222 216

usemtl m324
f 216 222 223

usemtl m325
f 216 223 218

usemtl m326
f 218 223 220

usemtl m327
f 220 223 221

usemtl m328
f 221 223 222

usemtl m329
f 224 225 226

usemtl m330
f 224 226 227

usemtl m331
f 224 227 228

usemtl m332
f 224 228 229

usemtl m333
f 224 229 225

usemtl m334
f 225 229 230

usemtl m335
f 230 229 231

usemtl m336
f 230 231 232

usemtl m337
f 232 231 233

usemtl m338
f 232 233 234

usemtl m339
f 234 233 227

usemtl m340
f 234 227 226

usemtl m341
f 233 228 227

usemtl m342
f 228 233 231

usemtl m343
f 228 231 229

usemtl m344
f 235 236 237

usemtl m345
f 235 237 238

usemtl m346
f 235 238 239

usemtl m347
f 235 239 240

usemtl m348
f 235 240 236

usemtl m349
f 236 240 241

usemtl m350
f 241 240 242

usemtl m351
f 241 242 243

usemtl m352
f 243 242 244

usemtl m353
f 243 244 245

usemtl m354
f 245 244 238

usemtl m355
f 245 238 237

usemtl m356
f 244 239 238

usemtl m357
f 239 244 242

usemtl m358
f 239 242 240

