mtllib 28602.mtl
o runescapemodel
v -3 32 1
v 0 33 0
v 0 30 -6
v -3 29 -5
v -8 25 0
v -4 28 9
v -3 35 7
v 0 36 6
v 3 32 1
v 3 29 -5
v 0 25 -11
v -3 24 -10
v -10 16 -9
v -8 20 -3
v -7 16 1
v -5 16 4
v -8 16 6
v -7 16 8
v -8 22 10
v -4 24 9
v 0 25 11
v -2 29 12
v -4 33 12
v -4 37 9
v 0 41 9
v 3 35 7
v 4 28 9
v 8 25 0
v 3 24 -10
v 0 17 -14
v -2 15 -14
v -2 12 -12
v -8 12 -10
v -13 17 -4
v -10 18 -4
v -8 13 1
v -7 12 3
v -4 9 0
v 0 13 6
v -2 16 5
v -2 16 8
v -7 12 10
v -5 13 13
v -5 17 11
v -4 17 11
v -1 20 7
v 0 20 7
v 1 20 7
v 4 24 9
v 2 29 12
v 0 28 13
v -1 29 16
v -2 32 16
v -4 36 16
v -4 36 14
v -4 37 11
v -7 40 6
v -4 40 9
v -4 40 11
v 0 40 15
v 4 40 11
v 4 40 9
v 4 37 9
v 4 33 12
v -4 13 13
v -2 12 10
v -2 9 12
v -7 9 12
v -5 12 14
v -7 -2 0
v -8 -2 -2
v -8 1 -1
v -7 -2 1
v -14 -2 1
v -13 -2 -3
v -7 -2 -4
v -7 2 -4
v -13 1 -3
v -13 0 1
v -8 0 1
v -8 -2 4
v -13 -2 4
v -13 -2 -8
v -7 -2 -8
v -7 1 -7
v -7 1 -10
v -8 6 -6
v -8 8 -2
v -10 5 1
v -13 2 -4
v -13 2 -10
v -10 0 -11
v -10 -2 -12
v -7 -2 -11
v -11 6 -6
v -13 8 -2
v -11 9 -7
v -8 8 -7
v -10 10 3
v -13 10 3
v -13 5 1
v -4 14 -16
v 0 17 -15
v 0 14 -18
v -3 11 -17
v 0 9 -16
v 0 10 -12
v 0 9 -10
v -13 13 1
v 2 15 -14
v 4 14 -16
v 3 11 -17
v 2 12 -12
v 8 12 -10
v 8 8 -7
v 4 8 -1
v 0 6 -4
v -4 8 -1
v 0 8 1
v 4 9 0
v 5 16 4
v 2 16 5
v 0 16 7
v 2 16 8
v 4 17 11
v 8 22 10
v 7 16 8
v 8 16 6
v 7 16 1
v 8 20 -3
v 10 16 -9
v 0 33 20
v -1 33 20
v 0 32 20
v 1 33 20
v 0 37 18
v -2 36 18
v 0 31 19
v 2 32 16
v 2 36 18
v -4 39 15
v -4 37 15
v -4 41 6
v -8 44 4
v -4 44 4
v -5 47 7
v -7 44 11
v -4 39 14
v -4 37 13
v 0 29 16
v 1 29 16
v 4 36 16
v 4 37 15
v 4 39 15
v 4 39 14
v 4 37 11
v 7 44 11
v 4 41 6
v 7 40 6
v 4 36 14
v 4 37 13
v -13 -1 4
v -10 -1 4
v 8 8 -2
v 7 12 3
v 8 13 1
v 10 18 -4
v 13 17 -4
v 11 9 -7
v -4 12 14
v -4 10 16
v -2 8 17
v -7 8 17
v -5 10 16
v -10 48 9
v -11 52 5
v -10 51 4
v 5 17 11
v 5 13 13
v 7 12 10
v 4 13 13
v 4 12 14
v 5 12 14
v 7 9 12
v 2 12 10
v 2 9 12
v 2 8 17
v 4 10 16
v 5 10 16
v 7 8 17
v 7 -2 0
v 8 1 -1
v 8 -2 -2
v 13 -2 -3
v 14 -2 1
v 7 -2 1
v 8 1 1
v 13 0 1
v 13 1 -3
v 7 2 -4
v 7 -2 -4
v 13 -2 -8
v 13 -2 4
v 8 -2 4
v 10 -1 4
v 13 -1 4
v 13 2 -4
v 13 5 1
v 10 5 1
v 8 6 -6
v 7 1 -10
v 7 1 -7
v 7 -2 -8
v 10 -2 -12
v 10 0 -11
v 13 2 -10
v 11 6 -6
v 13 8 -2
v 13 10 3
v 10 10 3
v 7 -2 -11
v 10 48 9
v 5 47 7
v 4 44 4
v 8 44 4
v 11 52 5
v 10 51 4
v 13 13 1
vn -1077 -1161 462
vn 0 -836 416
vn 0 -1168 748
vn -723 -803 623
vn -2288 -504 -12
vn -1124 -259 -851
vn -1291 -391 553
vn 0 -1078 820
vn 1077 -1161 462
vn 723 -803 623
vn 0 -834 1118
vn -815 -683 1054
vn -1194 -405 917
vn -1025 -265 -373
vn -1129 -187 -604
vn -684 513 -747
vn -343 563 77
vn -1118 550 -280
vn -569 -144 -949
vn 380 98 -1317
vn 0 1150 -2014
vn -1131 638 -474
vn -1936 469 -77
vn -640 118 713
vn 0 -1522 1216
vn 1291 -391 553
vn 1124 -259 -851
vn 2288 -504 -12
vn 815 -683 1054
vn 0 -868 918
vn -966 -599 412
vn -1074 567 329
vn -764 651 1287
vn -1043 -520 137
vn -466 -695 -177
vn -683 -777 -1435
vn -604 212 -758
vn -371 1150 -1021
vn 0 656 -1592
vn -207 906 -874
vn 698 323 204
vn -440 374 644
vn -920 -692 -988
vn -419 -286 -1054
vn 692 -414 -1147
vn -250 485 -1097
vn 0 340 -938
vn 250 485 -1097
vn -380 98 -1317
vn 1131 638 -474
vn 0 1216 -618
vn -821 1003 -569
vn -1318 530 -639
vn -1079 28 -425
vn -1280 0 0
vn -1701 290 -334
vn -572 850 378
vn 469 0 533
vn 20 -901 -406
vn 0 -2176 -978
vn -20 -901 -406
vn -469 0 533
vn 640 118 713
vn 1936 469 -77
vn 480 -960 -1280
vn 923 -71 -48
vn 628 178 236
vn -701 340 69
vn -570 -1174 -1066
vn 512 641 128
vn 768 495 -76
vn 969 -974 -267
vn 731 190 -137
vn -702 802 -37
vn -512 1024 64
vn 768 768 -128
vn 1725 -299 -709
vn -1050 -817 -295
vn -727 -966 -366
vn 584 -1200 -569
vn 328 184 -475
vn -475 147 -585
vn -1108 794 357
vn 512 768 0
vn 1280 0 0
vn 949 -761 1143
vn 512 -507 354
vn 638 625 -311
vn 452 695 -998
vn -985 49 -408
vn -574 -344 624
vn -273 -255 843
vn -77 223 665
vn 597 171 256
vn -686 -933 760
vn -1249 126 347
vn -567 670 529
vn -295 1198 292
vn 454 56 -697
vn -512 -103 -923
vn -735 310 -241
vn -805 -401 121
vn 0 -1236 212
vn 0 -333 1068
vn -512 465 589
vn 0 888 2
vn 0 982 606
vn 0 1624 838
vn -512 -342 -373
vn 1042 -570 654
vn 805 -401 121
vn 512 465 589
vn 931 602 107
vn 643 793 1380
vn 295 1198 292
vn 458 977 -288
vn 0 846 -14
vn -458 977 -288
vn 0 1166 -874
vn 371 1150 -1021
vn 684 513 -747
vn 207 906 -874
vn 0 220 -1268
vn -698 323 204
vn -692 -414 -1147
vn 569 -144 -949
vn 1118 550 -280
vn 343 563 77
vn 1292 -286 -774
vn 812 -204 -233
vn 1285 -538 919
vn 0 -256 -1024
vn -775 178 -1150
vn 0 512 -1024
vn 775 178 -1150
vn 0 -852 -1300
vn -1006 -517 -1152
vn 0 1460 -1278
vn 1318 530 -639
vn 1006 -517 -1152
vn -581 -426 -345
vn -1413 -170 -316
vn 1067 307 332
vn -677 485 933
vn 441 -46 521
vn 1051 -757 -387
vn 90 -119 -759
vn -1166 -492 -78
vn -1024 0 0
vn 0 1024 -510
vn 821 1003 -569
vn 1079 28 -425
vn 1413 -170 -316
vn 581 -426 -345
vn 1166 -492 -78
vn 1701 290 -334
vn -90 -119 -759
vn -1067 307 332
vn 572 850 378
vn 1280 0 0
vn 1024 0 0
vn -256 -512 -426
vn 109 -475 -743
vn -393 769 -250
vn 604 212 -758
vn 437 -341 -896
vn 686 -992 -467
vn 618 -389 103
vn 1011 700 708
vn 707 -1062 -1098
vn 409 -673 -644
vn 177 72 -425
vn -314 -164 -377
vn -85 -926 -1170
vn -505 -62 -362
vn -188 -234 55
vn 140 -298 538
vn 419 -286 -1054
vn 704 -896 -1152
vn 699 109 312
vn -696 -756 -1116
vn -570 -1174 -1066
vn 707 -1062 -1098
vn 628 178 236
vn -664 194 284
vn -701 340 69
vn -314 -164 -377
vn -85 -926 -1170
vn 409 -673 -644
vn 177 72 -425
vn -512 641 128
vn -918 -955 -87
vn -768 495 -76
vn 512 1024 64
vn 702 802 -37
vn -768 257 -85
vn -498 -1066 -488
vn 826 -974 -245
vn 1050 -817 -295
vn -1479 -129 -811
vn -768 768 -128
vn 1108 794 357
vn 475 147 -585
vn -341 257 -511
vn -85 -400 -835
vn 304 -470 -489
vn 1226 -129 -194
vn 512 642 -750
vn -692 370 -616
vn -742 -648 389
vn -947 -591 951
vn -1280 0 0
vn -512 768 0
vn 77 223 665
vn 273 -255 843
vn 576 -527 826
vn 458 -822 559
vn 1228 -71 385
vn 512 -57 -470
vn -454 10 -1150
vn -597 171 256
vn 505 -62 -362
vn -1051 -757 -387
vn -441 -46 521
vn 677 485 933
vn 188 -234 55
vn -140 -298 538
vn 812 -682 -663
usemtl m0
f 1 2 3

usemtl m1
f 1 3 4

usemtl m2
f 1 4 5

usemtl m3
f 1 5 6

usemtl m4
f 1 6 7

usemtl m5
f 1 7 8

usemtl m6
f 1 8 2

usemtl m7
f 2 8 9

usemtl m8
f 2 9 3

usemtl m9
f 3 9 10

usemtl m10
f 3 10 11

usemtl m11
f 3 11 4

usemtl m12
f 4 11 12

usemtl m13
f 4 12 5

usemtl m14
f 5 12 13

usemtl m15
f 5 13 14

usemtl m16
f 5 14 15

usemtl m17
f 5 15 16

usemtl m18
f 5 16 17

usemtl m19
f 5 17 18

usemtl m20
f 5 18 19

usemtl m21
f 5 19 6

usemtl m22
f 6 19 20

usemtl m23
f 6 20 21

usemtl m24
f 6 21 22

usemtl m25
f 6 22 7

usemtl m26
f 7 22 23

usemtl m27
f 7 23 24

usemtl m28
f 7 24 25

usemtl m29
f 7 25 8

usemtl m30
f 8 25 26

usemtl m31
f 8 26 9

usemtl m32
f 9 26 27

usemtl m33
f 9 27 28

usemtl m34
f 9 28 10

usemtl m35
f 10 28 29

usemtl m36
f 10 29 11

usemtl m37
f 11 29 30

usemtl m38
f 11 30 12

usemtl m39
f 12 30 31

usemtl m40
f 12 31 13

usemtl m41
f 13 31 32

usemtl m42
f 13 32 33

usemtl m43
f 13 33 34

usemtl m44
f 13 34 35

usemtl m45
f 13 35 14

usemtl m46
f 14 35 36

usemtl m47
f 14 36 15

usemtl m48
f 15 36 37

usemtl m49
f 15 37 16

usemtl m50
f 16 37 38

usemtl m51
f 16 38 39

usemtl m52
f 16 39 40

usemtl m53
f 16 40 17

usemtl m54
f 17 40 18

usemtl m55
f 18 40 41

usemtl m56
f 18 41 42

usemtl m57
f 18 42 43

usemtl m58
f 18 43 44

usemtl m59
f 18 44 19

usemtl m60
f 19 44 45

usemtl m61
f 19 45 20

usemtl m62
f 20 45 41

usemtl m63
f 20 41 40

usemtl m64
f 20 40 46

usemtl m65
f 20 46 21

usemtl m66
f 21 46 47

usemtl m67
f 21 47 48

usemtl m68
f 21 48 49

usemtl m69
f 21 49 27

usemtl m70
f 21 27 50

usemtl m71
f 21 50 51

usemtl m72
f 21 51 22

usemtl m73
f 22 51 52

usemtl m74
f 22 52 23

usemtl m75
f 23 52 53

usemtl m76
f 23 53 54

usemtl m77
f 23 54 55

usemtl m78
f 23 55 56

usemtl m79
f 23 56 24

usemtl m80
f 24 56 57

usemtl m81
f 24 57 58

usemtl m82
f 24 58 25

usemtl m83
f 25 58 59

usemtl m84
f 25 59 60

usemtl m85
f 25 60 61

usemtl m86
f 25 61 62

usemtl m87
f 25 62 63

usemtl m88
f 25 63 26

usemtl m89
f 26 63 64

usemtl m90
f 26 64 50

usemtl m91
f 26 50 27

usemtl m92
f 44 65 45

usemtl m93
f 45 65 66

usemtl m94
f 45 66 41

usemtl m95
f 41 66 42

usemtl m96
f 42 66 67

usemtl m97
f 42 67 68

usemtl m98
f 42 68 43

usemtl m99
f 43 68 69

usemtl m100
f 43 69 65

usemtl m101
f 43 65 44

usemtl m102
f 70 71 72

usemtl m103
f 70 72 73

usemtl m104
f 70 73 74

usemtl m105
f 70 74 75

usemtl m106
f 70 75 71

usemtl m107
f 71 75 76

usemtl m108
f 71 76 77

usemtl m109
f 71 77 72

usemtl m110
f 72 77 78

usemtl m111
f 72 78 79

usemtl m112
f 72 79 80

usemtl m113
f 72 80 73

usemtl m114
f 73 80 81

usemtl m115
f 73 81 74

usemtl m116
f 74 81 82

usemtl m117
f 74 82 79

usemtl m118
f 74 79 78

usemtl m119
f 74 78 75

usemtl m120
f 75 78 83

usemtl m121
f 75 83 76

usemtl m122
f 76 83 84

usemtl m123
f 76 84 85

usemtl m124
f 76 85 77

usemtl m125
f 77 85 86

usemtl m126
f 77 86 87

usemtl m127
f 77 87 88

usemtl m128
f 77 88 89

usemtl m129
f 77 89 90

usemtl m130
f 77 90 78

usemtl m131
f 78 90 83

usemtl m132
f 83 90 91

usemtl m133
f 83 91 92

usemtl m134
f 83 92 93

usemtl m135
f 83 93 84

usemtl m136
f 84 93 94

usemtl m137
f 84 94 85

usemtl m138
f 85 94 86

usemtl m139
f 86 94 93

usemtl m140
f 86 93 92

usemtl m141
f 86 92 91

usemtl m142
f 86 91 95

usemtl m143
f 86 95 87

usemtl m144
f 87 95 88

usemtl m145
f 88 95 96

usemtl m146
f 88 96 97

usemtl m147
f 88 97 98

usemtl m148
f 88 98 38

usemtl m149
f 88 38 37

usemtl m150
f 88 37 36

usemtl m151
f 88 36 99

usemtl m152
f 88 99 89

usemtl m153
f 89 99 100

usemtl m154
f 89 100 101

usemtl m155
f 89 101 90

usemtl m156
f 90 101 95

usemtl m157
f 90 95 91

usemtl m158
f 102 32 31

usemtl m159
f 102 31 103

usemtl m160
f 102 103 104

usemtl m161
f 102 104 105

usemtl m162
f 102 105 32

usemtl m163
f 32 105 106

usemtl m164
f 32 106 107

usemtl m165
f 32 107 33

usemtl m166
f 33 107 108

usemtl m167
f 33 108 98

usemtl m168
f 33 98 97

usemtl m169
f 33 97 34

usemtl m170
f 34 97 96

usemtl m171
f 34 96 109

usemtl m172
f 34 109 36

usemtl m173
f 34 36 35

usemtl m174
f 31 30 103

usemtl m175
f 103 30 110

usemtl m176
f 103 110 111

usemtl m177
f 103 111 104

usemtl m178
f 104 111 112

usemtl m179
f 104 112 105

usemtl m180
f 105 112 106

usemtl m181
f 106 112 113

usemtl m182
f 106 113 107

usemtl m183
f 107 113 114

usemtl m184
f 107 114 108

usemtl m185
f 108 114 115

usemtl m186
f 108 115 116

usemtl m187
f 108 116 117

usemtl m188
f 108 117 118

usemtl m189
f 108 118 98

usemtl m190
f 98 118 38

usemtl m191
f 38 118 119

usemtl m192
f 38 119 39

usemtl m193
f 39 119 120

usemtl m194
f 39 120 121

usemtl m195
f 39 121 122

usemtl m196
f 39 122 123

usemtl m197
f 39 123 40

usemtl m198
f 40 123 46

usemtl m199
f 46 123 47

usemtl m200
f 47 123 48

usemtl m201
f 48 123 122

usemtl m202
f 48 122 49

usemtl m203
f 49 122 124

usemtl m204
f 49 124 125

usemtl m205
f 49 125 126

usemtl m206
f 49 126 27

usemtl m207
f 27 126 28

usemtl m208
f 28 126 127

usemtl m209
f 28 127 128

usemtl m210
f 28 128 121

usemtl m211
f 28 121 129

usemtl m212
f 28 129 130

usemtl m213
f 28 130 131

usemtl m214
f 28 131 29

usemtl m215
f 29 131 110

usemtl m216
f 29 110 30

usemtl m217
f 132 133 134

usemtl m218
f 132 134 135

usemtl m219
f 132 135 136

usemtl m220
f 132 136 133

usemtl m221
f 133 136 137

usemtl m222
f 133 137 53

usemtl m223
f 133 53 138

usemtl m224
f 133 138 134

usemtl m225
f 134 138 135

usemtl m226
f 135 138 139

usemtl m227
f 135 139 140

usemtl m228
f 135 140 136

usemtl m229
f 136 140 60

usemtl m230
f 136 60 137

usemtl m231
f 137 60 141

usemtl m232
f 137 141 142

usemtl m233
f 137 142 54

usemtl m234
f 137 54 53

usemtl m235
f 143 59 58

usemtl m236
f 143 58 57

usemtl m237
f 143 57 144

usemtl m238
f 143 144 145

usemtl m239
f 143 145 146

usemtl m240
f 143 146 147

usemtl m241
f 143 147 59

usemtl m242
f 59 147 56

usemtl m243
f 59 56 148

usemtl m244
f 59 148 60

usemtl m245
f 60 148 141

usemtl m246
f 141 148 142

usemtl m247
f 142 148 149

usemtl m248
f 142 149 55

usemtl m249
f 142 55 54

usemtl m250
f 53 52 138

usemtl m251
f 138 52 150

usemtl m252
f 138 150 151

usemtl m253
f 138 151 139

usemtl m254
f 139 151 64

usemtl m255
f 139 64 152

usemtl m256
f 139 152 140

usemtl m257
f 140 152 153

usemtl m258
f 140 153 154

usemtl m259
f 140 154 60

usemtl m260
f 60 154 155

usemtl m261
f 60 155 61

usemtl m262
f 61 155 156

usemtl m263
f 61 156 157

usemtl m264
f 61 157 158

usemtl m265
f 61 158 62

usemtl m266
f 62 158 159

usemtl m267
f 62 159 63

usemtl m268
f 63 159 156

usemtl m269
f 63 156 64

usemtl m270
f 64 156 160

usemtl m271
f 64 160 152

usemtl m272
f 152 160 153

usemtl m273
f 153 160 161

usemtl m274
f 153 161 155

usemtl m275
f 153 155 154

usemtl m276
f 79 162 80

usemtl m277
f 80 162 163

usemtl m278
f 80 163 81

usemtl m279
f 81 163 82

usemtl m280
f 82 163 162

usemtl m281
f 82 162 79

usemtl m282
f 148 56 149

usemtl m283
f 149 56 55

usemtl m284
f 51 150 52

usemtl m285
f 150 51 151

usemtl m286
f 151 51 50

usemtl m287
f 151 50 64

usemtl m288
f 119 118 117

usemtl m289
f 119 117 116

usemtl m290
f 119 116 120

usemtl m291
f 120 116 115

usemtl m292
f 120 115 164

usemtl m293
f 120 164 165

usemtl m294
f 120 165 121

usemtl m295
f 121 165 129

usemtl m296
f 129 165 166

usemtl m297
f 129 166 167

usemtl m298
f 129 167 130

usemtl m299
f 130 167 131

usemtl m300
f 131 167 168

usemtl m301
f 131 168 169

usemtl m302
f 131 169 114

usemtl m303
f 131 114 110

usemtl m304
f 110 114 113

usemtl m305
f 110 113 111

usemtl m306
f 111 113 112

usemtl m307
f 65 69 170

usemtl m308
f 65 170 66

usemtl m309
f 66 170 67

usemtl m310
f 67 170 171

usemtl m311
f 67 171 172

usemtl m312
f 67 172 68

usemtl m313
f 68 172 173

usemtl m314
f 68 173 69

usemtl m315
f 69 173 174

usemtl m316
f 69 174 170

usemtl m317
f 170 174 171

usemtl m318
f 171 174 172

usemtl m319
f 172 174 173

usemtl m320
f 57 56 147

usemtl m321
f 57 147 175

usemtl m322
f 57 175 144

usemtl m323
f 144 175 176

usemtl m324
f 144 176 177

usemtl m325
f 144 177 145

usemtl m326
f 145 177 146

usemtl m327
f 146 177 176

usemtl m328
f 146 176 175

usemtl m329
f 146 175 147

usemtl m330
f 100 99 36

usemtl m331
f 100 36 109

usemtl m332
f 100 109 96

usemtl m333
f 100 96 101

usemtl m334
f 101 96 95

usemtl m335
f 126 125 178

usemtl m336
f 126 178 127

usemtl m337
f 127 178 179

usemtl m338
f 127 179 180

usemtl m339
f 127 180 124

usemtl m340
f 127 124 122

usemtl m341
f 127 122 128

usemtl m342
f 128 122 121

usemtl m343
f 178 125 181

usemtl m344
f 178 181 179

usemtl m345
f 179 181 182

usemtl m346
f 179 182 183

usemtl m347
f 179 183 180

usemtl m348
f 180 183 184

usemtl m349
f 180 184 185

usemtl m350
f 180 185 124

usemtl m351
f 124 185 125

usemtl m352
f 125 185 181

usemtl m353
f 181 185 186

usemtl m354
f 181 186 182

usemtl m355
f 182 186 187

usemtl m356
f 182 187 188

usemtl m357
f 182 188 183

usemtl m358
f 183 188 189

usemtl m359
f 183 189 184

usemtl m360
f 184 189 190

usemtl m361
f 184 190 186

usemtl m362
f 184 186 185

usemtl m363
f 191 192 193

usemtl m364
f 191 193 194

usemtl m365
f 191 194 195

usemtl m366
f 191 195 196

usemtl m367
f 191 196 192

usemtl m368
f 192 196 197

usemtl m369
f 192 197 198

usemtl m370
f 192 198 199

usemtl m371
f 192 199 200

usemtl m372
f 192 200 193

usemtl m373
f 193 200 201

usemtl m374
f 193 201 194

usemtl m375
f 194 201 202

usemtl m376
f 194 202 199

usemtl m377
f 194 199 195

usemtl m378
f 195 199 198

usemtl m379
f 195 198 203

usemtl m380
f 195 203 204

usemtl m381
f 195 204 196

usemtl m382
f 196 204 197

usemtl m383
f 197 204 205

usemtl m384
f 197 205 206

usemtl m385
f 197 206 198

usemtl m386
f 198 206 203

usemtl m387
f 203 206 205

usemtl m388
f 203 205 204

usemtl m389
f 202 207 199

usemtl m390
f 199 207 200

usemtl m391
f 200 207 208

usemtl m392
f 200 208 209

usemtl m393
f 200 209 210

usemtl m394
f 200 210 211

usemtl m395
f 200 211 212

usemtl m396
f 200 212 201

usemtl m397
f 201 212 213

usemtl m398
f 201 213 202

usemtl m399
f 202 213 214

usemtl m400
f 202 214 215

usemtl m401
f 202 215 216

usemtl m402
f 202 216 207

usemtl m403
f 207 216 217

usemtl m404
f 207 217 218

usemtl m405
f 207 218 208

usemtl m406
f 208 218 219

usemtl m407
f 208 219 220

usemtl m408
f 208 220 209

usemtl m409
f 209 220 164

usemtl m410
f 209 164 210

usemtl m411
f 210 164 217

usemtl m412
f 210 217 216

usemtl m413
f 210 216 211

usemtl m414
f 211 216 215

usemtl m415
f 211 215 214

usemtl m416
f 211 214 221

usemtl m417
f 211 221 212

usemtl m418
f 212 221 213

usemtl m419
f 213 221 214

usemtl m420
f 155 161 156

usemtl m421
f 156 161 160

usemtl m422
f 159 157 156

usemtl m423
f 157 159 222

usemtl m424
f 157 222 223

usemtl m425
f 157 223 158

usemtl m426
f 158 223 224

usemtl m427
f 158 224 225

usemtl m428
f 158 225 159

usemtl m429
f 159 225 222

usemtl m430
f 222 225 226

usemtl m431
f 222 226 223

usemtl m432
f 223 226 227

usemtl m433
f 223 227 224

usemtl m434
f 224 227 225

usemtl m435
f 225 227 226

usemtl m436
f 167 166 228

usemtl m437
f 167 228 168

usemtl m438
f 168 228 169

usemtl m439
f 169 228 218

usemtl m440
f 169 218 164

usemtl m441
f 169 164 115

usemtl m442
f 169 115 114

usemtl m443
f 220 219 228

usemtl m444
f 220 228 166

usemtl m445
f 220 166 164

usemtl m446
f 164 166 165

usemtl m447
f 218 228 219

usemtl m448
f 217 164 218

usemtl m449
f 188 187 190

usemtl m450
f 188 190 189

usemtl m451
f 190 187 186

