mtllib 28699.mtl
o runescapemodel
v -38 28 44
v -22 28 -18
v 9 28 -10
v -6 28 52
v -6 32 52
v -38 32 44
v -22 32 -18
v 9 32 -10
v 37 5 33
v 30 6 31
v 28 4 34
v 36 3 36
v 44 3 39
v 45 5 36
v 38 3 30
v 31 4 28
v 31 4 27
v 29 7 31
v 27 4 34
v 28 0 34
v 27 4 43
v 34 4 46
v 41 3 52
v 41 -1 52
v 44 -1 39
v 44 -1 40
v 44 3 40
v 45 6 36
v 46 3 33
v 38 -1 30
v 31 0 28
v 31 0 27
v 26 0 26
v 26 4 26
v 25 6 30
v 24 3 34
v 27 0 35
v 30 -2 31
v 36 -1 36
v 34 0 46
v 27 0 43
v 22 0 56
v 22 4 56
v 31 4 56
v 37 4 64
v 37 0 64
v 31 0 56
v 45 -3 36
v 45 -4 36
v 48 -3 36
v 48 -1 40
v 48 3 40
v 49 6 36
v 47 3 31
v 46 -1 33
v 37 -3 33
v 29 -3 31
v 25 -2 30
v 24 -1 34
v 47 -1 31
v 50 -1 33
v 50 3 33
v 18 1 -21
v 18 1 43
v -13 1 43
v -13 1 -21
v -13 3 -21
v 18 3 -21
v 18 3 43
v -13 3 43
v -13 27 43
v -13 27 -21
v 18 27 -21
v 18 27 43
v 14 27 40
v -9 27 40
v -9 27 -17
v 14 27 -17
v 14 4 -17
v 14 4 40
v -9 4 40
v -9 4 -17
v -15 32 25
v -13 32 20
v -15 33 19
v -17 33 25
v -16 33 23
v -14 32 24
v -12 32 26
v -12 32 20
v -10 32 27
v -9 32 27
v -11 33 29
v -13 35 22
v -14 33 29
v -17 33 28
v -14 35 22
v -16 36 21
v -20 34 27
v -17 36 21
v -22 34 25
v -16 33 19
v -23 33 23
v -22 33 24
v -20 33 24
v -19 33 22
v -10 35 3
v -12 36 12
v -10 35 12
v -9 35 3
v -7 34 2
v -10 34 1
v -11 35 3
v -14 36 11
v -13 36 16
v -11 35 16
v -8 34 13
v -6 34 4
v -6 33 2
v -6 33 0
v -12 34 -2
v -13 34 0
v -14 34 2
v -16 35 11
v -15 36 15
v -15 36 22
v -12 36 24
v -9 34 17
v -9 32 17
v -9 32 14
v -6 32 6
v -7 32 4
v -6 32 2
v -6 32 0
v -12 33 -2
v -13 33 0
v -13 33 2
v -14 33 4
v -16 33 12
v -17 33 14
v -17 35 14
v -18 37 21
v -19 36 23
v -16 35 24
v -13 35 25
v -10 34 24
v -9 32 23
v -10 32 23
v -10 32 25
v -10 32 24
v -9 32 26
v -12 32 24
v -21 33 20
v -20 35 21
v -20 35 22
v -22 35 24
v -19 36 24
v -16 35 25
v -13 35 26
v -11 34 26
v -10 34 27
v -22 33 22
v -21 33 22
v -21 33 21
v -20 33 21
v -19 33 19
vt 0.0 0.0
vt 0.0 0.0
vt 0.0 0.0
vt 0.0 0.0
vt 0.0 0.0
vt 0.0 0.0
vt 0.0 0.0
vt 0.0 0.0
vt 0.0 0.0
vt 0.0 0.0
vt 0.0 0.0
vt 0.0 0.0
vt 0.0 0.0
vt 0.0 0.0
vt 0.0 0.0
vt 0.0 0.0
vt 0.0 0.0
vt 0.0 0.0
vt 0.0 0.0
vt 0.0 0.0
vt 0.0 0.0
vt 0.0 0.0
vt 0.0 0.0
vt 0.0 0.0
vt 0.0 0.0
vt 0.0 0.0
vt 0.0 0.0
vt 0.0 0.0
vt 0.0 0.0
vt 0.0 0.0
vt 0.0 0.0
vt 0.0 0.0
vt 0.0 0.0
vt 0.0 0.0
vt 0.0 0.0
vt 0.0 0.0
vt 0.0 0.0
vt 0.0 0.0
vt 0.0 0.0
vt 0.0 0.0
vt 0.0 0.0
vt 0.0 0.0
vt 0.0 0.0
vt 0.0 0.0
vt 0.0 0.0
vt 0.0 0.0
vt 0.0 0.0
vt 0.0 0.0
vt 0.0 0.0
vt 0.0 0.0
vt 0.0 0.0
vt 0.0 0.0
vt 0.0 0.0
vt 0.0 0.0
vt 0.0 0.0
vt 0.0 0.0
vt 0.0 0.0
vt 0.0 0.0
vt 0.0 0.0
vt 0.0 0.0
vt 0.0 0.0
vt 0.0 0.0
vt 0.0 0.0
vt 0.0 0.0
vt 0.0 0.0
vt 0.0 0.0
vt 0.0 0.0
vt 0.0 0.0
vt 0.0 0.0
vt 0.0 0.0
vt 0.0 0.0
vt 0.0 0.0
vt 0.0 0.0
vt 0.0 0.0
vt 0.0 0.0
vt 0.0 0.0
vt 0.0 0.0
vt 0.0 0.0
vt 0.0 0.0
vt 0.0 0.0
vt 0.0 0.0
vt 0.0 0.0
vt 0.0 0.0
vt 0.0 0.0
vt 0.0 0.0
vt 0.0 0.0
vt 0.0 0.0
vt 0.0 0.0
vt 0.0 0.0
vt 0.0 0.0
vt 0.0 0.0
vt 0.0 0.0
vt 0.0 0.0
vt 0.0 0.0
vt 0.0 0.0
vt 0.0 0.0
vt 0.0 0.0
vt 0.0 0.0
vt 0.0 0.0
vt 0.0 0.0
vt 0.0 0.0
vt 0.0 0.0
vt 0.0 0.0
vt 0.0 0.0
vt 0.0 0.0
vt 0.0 0.0
vt 0.0 0.0
vt 0.0 0.0
vt 0.0 0.0
vt 0.0 0.0
vt 0.0 0.0
vt 0.0 0.0
vt 0.0 0.0
vt 0.0 0.0
vt 0.0 0.0
vt 0.0 0.0
vt 0.0 0.0
vt 0.0 0.0
vt 0.0 0.0
vt 0.0 0.0
vt 0.0 0.0
vt 0.0 0.0
vt 0.0 0.0
vt 0.0 0.0
vt 0.0 0.0
vt 0.0 0.0
vt 0.0 0.0
vt 0.0 0.0
vt 0.0 0.0
vt 0.0 0.0
vt 0.0 0.0
vt 0.0 0.0
vt 0.0 0.0
vt 0.0 0.0
vt 0.0 0.0
vt 0.0 0.0
vt 0.0 0.0
vt 0.0 0.0
vt 0.0 0.0
vt 0.0 0.0
vt 0.0 0.0
vt 0.0 0.0
vt 0.0 0.0
vt 0.0 0.0
vt 0.0 0.0
vt 0.0 0.0
vt 0.0 0.0
vt 0.0 0.0
vt 0.0 0.0
vt 0.0 0.0
vt 0.0 0.0
vt 0.0 0.0
vt 0.0 0.0
vt 0.0 0.0
vt 0.0 0.0
vt 0.0 0.0
vt 0.0 0.0
vt 0.0 0.0
vt 0.0 0.0
vt 0.0 0.0
vt 0.0 0.0
vt 0.0 0.0
vt 0.0 0.0
vt 0.0 0.0
vt 0.0 0.0
vt 0.0 0.0
vt 0.0 0.0
vt 0.0 0.0
vt 0.0 0.0
vt 0.0 0.0
vt 0.0 0.0
vt 0.0 0.0
vt 0.0 0.0
vt 0.0 0.0
vt 0.0 0.0
vt 0.0 0.0
vt 0.0 0.0
vt 0.0 0.0
vt 0.0 0.0
vt 0.0 0.0
vt 0.0 0.0
vt 0.0 0.0
vt 0.0 0.0
vt 0.0 0.0
vt 0.0 0.0
vt 0.0 0.0
vt 0.0 0.0
vt 0.0 0.0
vt 0.0 0.0
vt 0.0 0.0
vt 0.0 0.0
vt 0.0 0.0
vt 0.0 0.0
vt 0.0 0.0
vt 0.0 0.0
vt 0.0 0.0
vt 0.0 0.0
vt 0.0 0.0
vt 0.0 0.0
vt 0.0 0.0
vt 0.0 0.0
vt 0.0 0.0
vt 0.0 0.0
vt 0.0 0.0
vt 0.0 0.0
vt 0.0 0.0
vt 0.0 0.0
vt 0.0 0.0
vt 0.0 0.0
vt 0.0 0.0
vt 0.0 0.0
vt 0.0 0.0
vt 0.0 0.0
vt 0.0 0.0
vt 0.0 0.0
vt 0.0 0.0
vt 0.0 0.0
vt 0.0 0.0
vt 0.0 0.0
vt 0.0 0.0
vt 0.0 0.0
vt 0.0 0.0
vt 0.0 0.0
vt 0.0 0.0
vt 0.0 0.0
vt 0.0 0.0
vt 0.0 0.0
vt 0.0 0.0
vt 0.0 0.0
vt 0.0 0.0
vt 0.0 0.0
vt 0.0 0.0
vt 0.0 0.0
vt 0.0 0.0
vt 0.0 0.0
vt 0.0 0.0
vt 0.0 0.0
vt 0.0 0.0
vt 0.0 0.0
vt 0.0 0.0
vt 0.0 0.0
vt 0.0 0.0
vt 0.0 0.0
vt 0.0 0.0
vt 0.0 0.0
vt 0.0 0.0
vt 0.0 0.0
vt 0.0 0.0
vt 0.0 0.0
vt 0.0 0.0
vt 0.0 0.0
vt 0.0 0.0
vt 0.0 0.0
vt 0.0 0.0
vt 0.0 0.0
vt 0.0 0.0
vt 0.0 0.0
vt 0.0 0.0
vt 0.0 0.0
vt 0.0 0.0
vt 0.0 0.0
vt 0.0 0.0
vt 0.0 0.0
vt 0.0 0.0
vt 0.0 0.0
vt 0.0 0.0
vt 0.0 0.0
vt 0.0 0.0
vt 0.0 0.0
vt 0.0 0.0
vt 0.0 0.0
vt 0.0 0.0
vt 0.0 0.0
vt 0.0 0.0
vt 0.0 0.0
vt 0.0 0.0
vt 0.0 0.0
vt 0.0 0.0
vt 0.0 0.0
vt 0.0 0.0
vt 0.0 0.0
vt 0.0 0.0
vt 0.0 0.0
vt 0.0 0.0
vt 0.0 0.0
vt 0.0 0.0
vt 0.0 0.0
vt 0.0 0.0
vt 0.0 0.0
vt 0.0 0.0
vt 0.0 0.0
vt 0.0 0.0
vt 0.0 0.0
vt 0.0 0.0
vt 0.0 0.0
vt 0.0 0.0
vt 0.0 0.0
vt 0.0 0.0
vt 0.0 0.0
vt 0.0 0.0
vt 0.0 0.0
vt 0.0 0.0
vt 0.0 0.0
vt 0.0 0.0
vt 0.0 0.0
vt 0.0 0.0
vt 0.0 0.0
vt 0.0 0.0
vt 0.0 0.0
vt 0.0 0.0
vt 0.0 0.0
vt 0.0 0.0
vt 0.0 0.0
vt 0.0 0.0
vt 0.0 0.0
vt 0.0 0.0
vt 0.0 0.0
vt 0.0 0.0
vt 0.0 0.0
vt 0.0 0.0
vt 0.0 0.0
vt 0.0 0.0
vt 0.0 0.0
vt 0.0 0.0
vt 0.0 0.0
vt 0.0 0.0
vt 0.0 0.0
vt 0.0 0.0
vt 0.0 0.0
vt 0.0 0.0
vt 0.0 0.0
vt 0.0 0.0
vt 0.0 0.0
vt 0.0 0.0
vt 0.0 0.0
vt 0.0 0.0
vt 0.0 0.0
vt 0.0 0.0
vt 0.0 0.0
vt 0.0 0.0
vt 0.0 0.0
vt 0.0 0.0
vt 0.0 0.0
vt 0.0 0.0
vt 0.0 0.0
vt 0.0 0.0
vt 0.0 0.0
vt 0.0 0.0
vt 0.0 0.0
vt 0.0 0.0
vt 0.0 0.0
vt 0.0 0.0
vt 0.0 0.0
vt 0.0 0.0
vt 0.0 0.0
vt 0.0 0.0
vt 0.0 0.0
vt 0.0 0.0
vt 0.0 0.0
vt 0.0 0.0
vt 0.0 0.0
vt 0.0 0.0
vt 0.0 0.0
vt 0.0 0.0
vt 0.0 0.0
vt 0.0 0.0
vt 0.0 0.0
vt 0.0 0.0
vt 0.0 0.0
vt 0.0 0.0
vt 0.0 0.0
vt 0.0 0.0
vt 0.0 0.0
vt 0.0 0.0
vt 0.0 0.0
vt 0.0 0.0
vt 0.0 0.0
vt 0.0 0.0
vt 0.0 0.0
vt 0.0 0.0
vt 0.0 0.0
vt 0.0 0.0
vt 0.0 0.0
vt 0.0 0.0
vt 0.0 0.0
vt 0.0 0.0
vt 0.0 0.0
vt 0.0 0.0
vt 0.0 0.0
vt 0.0 0.0
vt 0.0 0.0
vt 0.0 0.0
vt 0.0 0.0
vt 0.0 0.0
vt 0.0 0.0
vt 0.0 0.0
vt 0.0 0.0
vt 0.0 0.0
vt 0.0 0.0
vt 0.0 0.0
vt 0.0 0.0
vt 0.0 0.0
vt 0.0 0.0
vt 0.0 0.0
vt 0.0 0.0
vt 0.0 0.0
vt 0.0 0.0
vt 0.0 0.0
vt 0.0 0.0
vt 0.0 0.0
vt 0.0 0.0
vt 0.0 0.0
vt 0.0 0.0
vt 0.0 0.0
vt 0.0 0.0
vt 0.0 0.0
vt 0.0 0.0
vt 0.0 0.0
vt 0.0 0.0
vt 0.0 0.0
vt 0.0 0.0
vt 0.0 0.0
vt 0.0 0.0
vt 0.0 0.0
vt 0.0 0.0
vt 0.0 0.0
vt 0.0 0.0
vt 0.0 0.0
vt 0.0 0.0
vt 0.0 0.0
vt 0.0 0.0
vt 0.0 0.0
vt 0.0 0.0
vt 0.0 0.0
vt 0.0 0.0
vt 0.0 0.0
vt 0.0 0.0
vt 0.0 0.0
vt 0.0 0.0
vt 0.0 0.0
vt 0.0 0.0
vt 0.0 0.0
vt 0.0 0.0
vt 0.0 0.0
vt 0.0 0.0
vt 0.0 0.0
vt 0.0 0.0
vt 0.0 0.0
vt 0.0 0.0
vt 0.0 0.0
vt 0.0 0.0
vt 0.0 0.0
vt 0.0 0.0
vt 0.0 0.0
vt 0.0 0.0
vt 0.0 0.0
vt 0.0 0.0
vt 0.0 0.0
vt 0.0 0.0
vt 0.0 0.0
vt 0.0 0.0
vt 0.0 0.0
vt 0.0 0.0
vt 0.0 0.0
vt 0.0 0.0
vt 0.0 0.0
vt 0.0 0.0
vt 0.0 0.0
vt 0.0 0.0
vt 0.0 0.0
vt 0.0 0.0
vt 0.0 0.0
vt 0.0 0.0
vt 0.0 0.0
vt 0.0 0.0
vt 0.0 0.0
vt 0.0 0.0
vt 0.0 0.0
vt 0.0 0.0
vt 0.0 0.0
vt 0.0 0.0
vt 0.0 0.0
vt 0.0 0.0
vt 0.0 0.0
vt 0.0 0.0
vt 0.0 0.0
vt 0.0 0.0
vt 0.0 0.0
vt 0.0 0.0
vt 0.0 0.0
vt 0.0 0.0
vt 0.0 0.0
vt 0.0 0.0
vt 0.0 0.0
vt 0.0 0.0
vt 0.0 0.0
vt 0.0 0.0
vt 0.0 0.0
vt 0.0 0.0
vt 0.0 0.0
vt 0.0 0.0
vt 0.0 0.0
vt 0.0 0.0
vt 0.0 0.0
vt 0.0 0.0
vt 0.0 0.0
vt 0.0 0.0
vt 0.0 0.0
vt 0.0 0.0
vt 0.0 0.0
vt 0.0 0.0
vt 0.0 0.0
vt 0.0 0.0
vt 0.0 0.0
vt 0.0 0.0
vt 0.0 0.0
vt 0.0 0.0
vt 0.0 0.0
vt 0.0 0.0
vt 0.0 0.0
vt 0.0 0.0
vt 0.0 0.0
vt 0.0 0.0
vt 0.0 0.0
vt 0.0 0.0
vt 0.0 0.0
vt 0.0 0.0
vt 0.0 0.0
vt 0.0 0.0
vt 0.0 0.0
vt 0.0 0.0
vt 0.0 0.0
vt 0.0 0.0
vt 0.0 0.0
vt 0.0 0.0
vt 0.0 0.0
vt 0.0 0.0
vt 0.0 0.0
vt 0.0 0.0
vt 0.0 0.0
vt 0.0 0.0
vt 0.0 0.0
vt 0.0 0.0
vt 0.0 0.0
vt 0.0 0.0
vt 0.0 0.0
vt 0.0 0.0
vt 0.0 0.0
vt 0.0 0.0
vt 0.0 0.0
vt 0.0 0.0
vt 0.0 0.0
vt 0.0 0.0
vt 0.0 0.0
vt 0.0 0.0
vt 0.0 0.0
vt 0.0 0.0
vt 0.0 0.0
vt 0.0 0.0
vt 0.0 0.0
vt 0.0 0.0
vt 0.0 0.0
vt 0.0 0.0
vt 0.0 0.0
vt 0.0 0.0
vt 0.0 0.0
vt 0.0 0.0
vt 0.0 0.0
vt 0.0 0.0
vt 0.0 0.0
vt 0.0 0.0
vt 0.0 0.0
vt 0.0 0.0
vt 0.0 0.0
vt 0.0 0.0
vt 0.0 0.0
vt 0.0 0.0
vt 0.0 0.0
vt 0.0 0.0
vt 0.0 0.0
vt 0.0 0.0
vt 0.0 0.0
vt 0.0 0.0
vt 0.0 0.0
vt 0.0 0.0
vt 0.0 0.0
vt 0.0 0.0
vt 0.0 0.0
vt 0.0 0.0
vt 0.0 0.0
vt 0.0 0.0
vt 0.0 0.0
vt 0.0 0.0
vt 0.0 0.0
vt 0.0 0.0
vt 0.0 0.0
vt 0.0 0.0
vt 0.0 0.0
vt 0.0 0.0
vt 0.0 0.0
vt 0.0 0.0
vt 0.0 0.0
vt 0.0 0.0
vt 0.0 0.0
vt 0.0 0.0
vt 0.0 0.0
vt 0.0 0.0
vt 0.0 0.0
vt 0.0 0.0
vt 0.0 0.0
vt 0.0 0.0
vt 0.0 0.0
vt 0.0 0.0
vt 0.0 0.0
vt 0.0 0.0
vt 0.0 0.0
vt 0.0 0.0
vt 0.0 0.0
vt 0.0 0.0
vt 0.0 0.0
vt 0.0 0.0
vt 0.0 0.0
vt 0.0 0.0
vt 0.0 0.0
vt 0.0 0.0
vt 0.0 0.0
vt 0.0 0.0
vt 0.0 0.0
vt 0.0 0.0
vt 0.0 0.0
vt 0.0 0.0
vt 0.0 0.0
vt 0.0 0.0
vt 0.0 0.0
vt 0.0 0.0
vt 0.0 0.0
vt 0.0 0.0
vt 0.0 0.0
vt 0.0 0.0
vt 0.0 0.0
vt 0.0 0.0
vt 0.0 0.0
vt 0.0 0.0
vt 0.0 0.0
vt 0.0 0.0
vt 0.0 0.0
vt 0.0 0.0
vt 0.0 0.0
vt 0.0 0.0
vt 0.0 0.0
vt 0.0 0.0
vt 0.0 0.0
vt 0.0 0.0
vt 0.0 0.0
vt 0.0 0.0
vt 0.0 0.0
vt 0.0 0.0
vt 0.0 0.0
vt 0.0 0.0
vt 0.0 0.0
vt 0.0 0.0
vt 0.0 0.0
vt 0.0 0.0
vt 0.0 0.0
vt 0.0 0.0
vt 0.0 0.0
vt 0.0 0.0
vt 0.0 0.0
vt 0.0 0.0
vt 0.0 0.0
vt 0.0 0.0
vt 0.0 0.0
vt 0.0 0.0
vt 0.0 0.0
vt 0.0 0.0
vt 0.0 0.0
vt 0.0 0.0
vt 0.0 0.0
vt 0.0 0.0
vt 0.0 0.0
vt 0.0 0.0
vt 0.0 0.0
vt 0.0 0.0
vt 0.0 0.0
vt 0.0 0.0
vt 0.0 0.0
vt 0.0 0.0
vt 0.0 0.0
vt 0.0 0.0
vt 0.0 0.0
vt 0.0 0.0
vt 0.0 0.0
vt 0.0 0.0
vt 0.0 0.0
vt 0.0 0.0
vt 0.0 0.0
vt 0.0 0.0
vt 0.0 0.0
vt 0.0 0.0
vt 0.0 0.0
vt 0.0 0.0
vt 0.0 0.0
vt 0.0 0.0
vt 0.0 0.0
vt 0.0 0.0
vt 0.0 0.0
vt 0.0 0.0
vt 0.0 0.0
vt 0.0 0.0
vt 0.0 0.0
vt 0.0 0.0
vt 0.0 0.0
vt 0.0 0.0
vt 0.0 0.0
vt 0.0 0.0
vt 0.0 0.0
vt 0.0 0.0
vt 0.0 0.0
vt 0.0 0.0
vt 0.0 0.0
vt 0.0 0.0
vt 0.0 0.0
vt 0.0 0.0
vt 0.0 0.0
vt 0.0 0.0
vt 0.0 0.0
vt 0.0 0.0
vt 0.0 0.0
vt 0.0 0.0
vt 0.0 0.0
vt 0.0 0.0
vt 0.0 0.0
vt 0.0 0.0
vt 0.0 0.0
vt 0.0 0.0
vt 0.0 0.0
vt 0.0 0.0
vt 0.0 0.0
vt 0.0 0.0
vt 0.0 0.0
vt 0.0 0.0
vt 0.0 0.0
vt 0.0 0.0
vt 0.0 0.0
vt 0.0 0.0
vt 0.0 0.0
vt 0.0 0.0
vt 0.0 0.0
vt 0.0 0.0
vt 0.0 0.0
vt 0.0 0.0
vt 0.0 0.0
vt 0.0 0.0
vt 0.0 0.0
vt 0.0 0.0
vt 0.0 0.0
vt 0.0 0.0
vt 0.0 0.0
vt 0.0 0.0
vt 0.0 0.0
vt 0.0 0.0
vt 0.0 0.0
vt 0.0 0.0
vt 0.0 0.0
vt 0.0 0.0
vt 0.0 0.0
vt 0.0 0.0
vt 0.0 0.0
vt 0.0 0.0
vt 0.0 0.0
vt 0.0 0.0
vt 0.0 0.0
vt 0.0 0.0
vt 0.0 0.0
vt 0.0 0.0
vt 0.0 0.0
vt 0.0 0.0
vt 0.0 0.0
vt 0.0 0.0
vt 0.0 0.0
vt 0.0 0.0
vt 0.0 0.0
vt 0.0 0.0
vt 0.0 0.0
vt 0.0 0.0
vt 0.0 0.0
vt 0.0 0.0
vt 0.0 0.0
vt 0.0 0.0
vt 0.0 0.0
vt 0.0 0.0
vt 0.0 0.0
vt 0.0 0.0
vt 0.0 0.0
vt 0.0 0.0
vt 0.0 0.0
vt 0.0 0.0
vt 0.0 0.0
vt 0.0 0.0
vt 0.0 0.0
vt 0.0 0.0
vt 0.0 0.0
vt 0.0 0.0
vt 0.0 0.0
vt 0.0 0.0
vt 0.0 0.0
vt 0.0 0.0
vt 0.0 0.0
vt 0.0 0.0
vt 0.0 0.0
vt 0.0 0.0
vt 0.0 0.0
vt 0.0 0.0
vt 0.0 0.0
vt 0.0 0.0
vt 0.0 0.0
vt 0.0 0.0
vt 0.0 0.0
vt 0.0 0.0
vt 0.0 0.0
vt 0.0 0.0
vt 0.0 0.0
vt 0.0 0.0
vt 0.0 0.0
vt 0.0 0.0
vt 0.0 0.0
vt 0.0 0.0
vt 0.0 0.0
vt 0.0 0.0
vt 0.0 0.0
vt 0.0 0.0
vt 0.0 0.0
vt 0.0 0.0
vt 0.0 0.0
vt 0.0 0.0
vt 0.0 0.0
vt 0.0 0.0
vt 0.0 0.0
vt 0.0 0.0
vt 0.0 0.0
vt 0.0 0.0
vt 0.0 0.0
vt 0.0 0.0
vt 0.0 0.0
vt 0.0 0.0
vt 0.0 0.0
vt 0.0 0.0
vt 0.0 0.0
vt 0.0 0.0
vt 0.0 0.0
vt 0.0 0.0
vt 0.0 0.0
vt 0.0 0.0
vt 0.0 0.0
vt 0.0 0.0
vt 0.0 0.0
vt 0.0 0.0
vt 0.0 0.0
vt 0.0 0.0
vt 0.0 0.0
vt 0.0 0.0
vt 0.0 0.0
vt 0.0 0.0
vt 0.0 0.0
vt 0.0 0.0
vt 0.0 0.0
vt 0.0 0.0
vt 0.0 0.0
vt 0.0 0.0
vt 0.0 0.0
vt 0.0 0.0
vt 0.0 0.0
vt 0.0 0.0
vt 0.0 0.0
vt 0.0 0.0
vt 0.0 0.0
vt 0.0 0.0
vt 0.0 0.0
vt 0.0 0.0
vt 0.0 0.0
vt 0.0 0.0
vt 0.0 0.0
vn -372 512 -436
vn -432 256 376
vn 376 512 436
vn 434 256 -370
vn 124 -256 -560
vn -558 -512 -122
vn -120 -256 560
vn 560 -512 128
vn 1 -1318 -290
vn 124 -656 105
vn -16 -434 -281
vn -57 -436 -272
vn -98 -444 -264
vn 49 -666 132
vn 390 -880 997
vn 206 -218 617
vn 0 0 0
vn 0 0 0
vn 0 0 0
vn -56 224 -112
vn 0 0 0
vn 0 0 0
vn 0 0 0
vn 0 0 0
vn -49 222 -132
vn 0 0 0
vn 0 0 0
vn 0 0 0
vn 229 -222 612
vn 378 440 1248
vn 88 436 531
vn 0 0 0
vn -763 0 190
vn -256 0 64
vn -763 0 190
vn -256 0 64
vn 0 0 0
vn -113 660 -93
vn -220 886 -499
vn 0 0 0
vn 0 0 0
vn 0 0 -512
vn 0 0 -256
vn -408 0 -818
vn -204 0 -153
vn -408 0 -306
vn -204 0 -409
vn -49 666 -132
vn 0 0 0
vn 719 46 -215
vn 256 0 0
vn 756 34 -142
vn 256 -12 -73
vn 0 0 0
vn 188 444 504
vn 1 1320 293
vn 0 0 0
vn -256 0 64
vn -763 0 190
vn 0 0 0
vn 219 0 -146
vn 719 34 -288
vn 256 512 512
vn 512 256 -256
vn -256 512 -512
vn -512 256 256
vn -256 0 512
vn 512 0 256
vn 256 0 -512
vn -512 0 -256
vn 0 0 0
vn 0 0 0
vn 0 0 0
vn 0 0 0
vn 0 0 0
vn 0 0 0
vn 0 0 0
vn 0 0 0
vn 0 -512 0
vn 0 -256 0
vn 0 -512 0
vn 0 -256 0
vn 3 40 71
vn 98 -748 -39
vn 216 -984 -78
vn -10 276 25
vn -213 768 149
vn -85 768 85
vn 0 0 0
vn -322 -421 -73
vn 0 256 0
vn 43 243 -36
vn 62 40 -281
vn -214 872 190
vn -2 -189 -274
vn -150 294 -62
vn -60 481 190
vn -102 715 296
vn -57 93 -164
vn 226 576 -40
vn -154 58 -609
vn 223 -462 -275
vn -373 -13 -9
vn 0 256 0
vn 0 0 0
vn 0 768 0
vn 169 -1766 569
vn 240 -969 -3
vn 637 -1675 -115
vn 444 -1234 101
vn 590 -1280 237
vn 168 -1536 510
vn -101 -1270 359
vn -280 -1727 190
vn 344 -1458 -95
vn 597 -1460 -81
vn 1084 -522 -196
vn 1273 -433 4
vn 1389 -603 -339
vn 1028 -768 657
vn -373 -512 548
vn -719 -598 358
vn -1075 -253 420
vn -1105 -623 381
vn -221 -1479 144
vn 218 -1696 -362
vn 341 -1261 -489
vn 1172 -775 -139
vn 768 384 -64
vn 725 137 -138
vn 483 43 43
vn 768 256 -64
vn 732 256 -128
vn 269 512 274
vn -122 256 658
vn -840 512 274
vn -596 340 170
vn -397 283 141
vn -739 203 237
vn -731 320 359
vn -1042 -817 508
vn -594 -1335 28
vn -256 -1408 -128
vn 87 -1452 -377
vn 307 -1356 -460
vn 912 -738 -495
vn 1006 282 -290
vn 0 512 0
vn 596 620 212
vn 0 0 0
vn 554 -221 17
vn 0 768 0
vn -674 498 231
vn -1146 -833 161
vn -1172 -1172 468
vn -873 -1129 191
vn -71 -1400 -454
vn 81 -1426 -437
vn 185 -1445 -299
vn 1040 -1066 -9
vn 745 -1116 38
vn -510 258 510
vn 0 1280 0
vn -682 342 170
vn 0 768 0
vn 0 512 0
usemtl m0
f 1/1 2/2 3/3

usemtl m1
f 1/4 3/5 4/6

usemtl m2
f 1/7 4/8 5/9

usemtl m3
f 1/10 5/11 6/12

usemtl m4
f 1/13 6/14 2/15

usemtl m5
f 2/16 6/17 7/18

usemtl m6
f 2/19 7/20 3/21

usemtl m7
f 3/22 7/23 8/24

usemtl m8
f 3/25 8/26 4/27

usemtl m9
f 4/28 8/29 5/30

usemtl m10
f 5/31 8/32 6/33

usemtl m11
f 6/34 8/35 7/36

usemtl m12
f 9/37 10/38 11/39

usemtl m13
f 9/40 11/41 12/42

usemtl m14
f 9/43 12/44 13/45

usemtl m15
f 9/46 13/47 14/48

usemtl m16
f 9/49 14/50 15/51

usemtl m17
f 9/52 15/53 10/54

usemtl m18
f 10/55 15/56 16/57

usemtl m19
f 10/58 16/59 17/60

usemtl m20
f 10/61 17/62 18/63

usemtl m21
f 10/64 18/65 11/66

usemtl m22
f 11/67 18/68 19/69

usemtl m23
f 11/70 19/71 20/72

usemtl m24
f 11/73 20/74 21/75

usemtl m25
f 11/76 21/77 22/78

usemtl m26
f 11/79 22/80 12/81

usemtl m27
f 12/82 22/83 13/84

usemtl m28
f 13/85 22/86 23/87

usemtl m29
f 13/88 23/89 24/90

usemtl m30
f 13/91 24/92 25/93

usemtl m31
f 13/94 25/95 26/96

usemtl m32
f 13/97 26/98 27/99

usemtl m33
f 13/100 27/101 14/102

usemtl m34
f 14/103 27/104 28/105

usemtl m35
f 14/106 28/107 29/108

usemtl m36
f 14/109 29/110 15/111

usemtl m37
f 15/112 29/113 30/114

usemtl m38
f 15/115 30/116 16/117

usemtl m39
f 16/118 30/119 31/120

usemtl m40
f 16/121 31/122 32/123

usemtl m41
f 16/124 32/125 17/126

usemtl m42
f 17/127 32/128 33/129

usemtl m43
f 17/130 33/131 34/132

usemtl m44
f 17/133 34/134 18/135

usemtl m45
f 18/136 34/137 35/138

usemtl m46
f 18/139 35/140 19/141

usemtl m47
f 19/142 35/143 36/144

usemtl m48
f 19/145 36/146 37/147

usemtl m49
f 19/148 37/149 20/150

usemtl m50
f 20/151 37/152 38/153

usemtl m51
f 20/154 38/155 39/156

usemtl m52
f 20/157 39/158 40/159

usemtl m53
f 20/160 40/161 41/162

usemtl m54
f 20/163 41/164 21/165

usemtl m55
f 21/166 41/167 42/168

usemtl m56
f 21/169 42/170 43/171

usemtl m57
f 21/172 43/173 44/174

usemtl m58
f 21/175 44/176 22/177

usemtl m59
f 22/178 44/179 23/180

usemtl m60
f 23/181 44/182 45/183

usemtl m61
f 23/184 45/185 24/186

usemtl m62
f 24/187 45/188 46/189

usemtl m63
f 24/190 46/191 47/192

usemtl m64
f 24/193 47/194 40/195

usemtl m65
f 24/196 40/197 25/198

usemtl m66
f 25/199 40/200 39/201

usemtl m67
f 25/202 39/203 48/204

usemtl m68
f 25/205 48/206 49/207

usemtl m69
f 25/208 49/209 26/210

usemtl m70
f 26/211 49/212 50/213

usemtl m71
f 26/214 50/215 51/216

usemtl m72
f 26/217 51/218 27/219

usemtl m73
f 27/220 51/221 52/222

usemtl m74
f 27/223 52/224 28/225

usemtl m75
f 28/226 52/227 53/228

usemtl m76
f 28/229 53/230 54/231

usemtl m77
f 28/232 54/233 29/234

usemtl m78
f 29/235 54/236 55/237

usemtl m79
f 29/238 55/239 30/240

usemtl m80
f 30/241 55/242 56/243

usemtl m81
f 30/244 56/245 31/246

usemtl m82
f 31/247 56/248 38/249

usemtl m83
f 31/250 38/251 57/252

usemtl m84
f 31/253 57/254 32/255

usemtl m85
f 32/256 57/257 58/258

usemtl m86
f 32/259 58/260 33/261

usemtl m87
f 33/262 58/263 59/264

usemtl m88
f 33/265 59/266 35/267

usemtl m89
f 33/268 35/269 34/270

usemtl m90
f 44/271 43/272 42/273

usemtl m91
f 44/274 42/275 47/276

usemtl m92
f 44/277 47/278 46/279

usemtl m93
f 44/280 46/281 45/282

usemtl m94
f 39/283 38/284 56/285

usemtl m95
f 39/286 56/287 48/288

usemtl m96
f 48/289 56/290 55/291

usemtl m97
f 48/292 55/293 60/294

usemtl m98
f 48/295 60/296 49/297

usemtl m99
f 49/298 60/299 61/300

usemtl m100
f 49/301 61/302 50/303

usemtl m101
f 50/304 61/305 62/306

usemtl m102
f 50/307 62/308 52/309

usemtl m103
f 50/310 52/311 51/312

usemtl m104
f 59/313 36/314 35/315

usemtl m105
f 36/316 59/317 37/318

usemtl m106
f 37/319 59/320 57/321

usemtl m107
f 37/322 57/323 38/324

usemtl m108
f 62/325 53/326 52/327

usemtl m109
f 53/328 62/329 54/330

usemtl m110
f 54/331 62/332 60/333

usemtl m111
f 54/334 60/335 55/336

usemtl m112
f 59/337 58/338 57/339

usemtl m113
f 62/340 61/341 60/342

usemtl m114
f 41/343 40/344 47/345

usemtl m115
f 41/346 47/347 42/348

usemtl m116
f 63/349 64/350 65/351

usemtl m117
f 63/352 65/353 66/354

usemtl m118
f 63/355 66/356 67/357

usemtl m119
f 63/358 67/359 68/360

usemtl m120
f 63/361 68/362 64/363

usemtl m121
f 64/364 68/365 69/366

usemtl m122
f 64/367 69/368 65/369

usemtl m123
f 65/370 69/371 70/372

usemtl m124
f 65/373 70/374 66/375

usemtl m125
f 66/376 70/377 67/378

usemtl m126
f 67/379 70/380 71/381

usemtl m127
f 67/382 71/383 72/384

usemtl m128
f 67/385 72/386 68/387

usemtl m129
f 68/388 72/389 73/390

usemtl m130
f 68/391 73/392 69/393

usemtl m131
f 69/394 73/395 74/396

usemtl m132
f 69/397 74/398 70/399

usemtl m133
f 70/400 74/401 71/402

usemtl m134
f 71/403 74/404 75/405

usemtl m135
f 71/406 75/407 76/408

usemtl m136
f 71/409 76/410 72/411

usemtl m137
f 72/412 76/413 77/414

usemtl m138
f 72/415 77/416 73/417

usemtl m139
f 73/418 77/419 78/420

usemtl m140
f 73/421 78/422 74/423

usemtl m141
f 74/424 78/425 75/426

usemtl m142
f 75/427 78/428 79/429

usemtl m143
f 75/430 79/431 80/432

usemtl m144
f 75/433 80/434 76/435

usemtl m145
f 76/436 80/437 81/438

usemtl m146
f 76/439 81/440 77/441

usemtl m147
f 77/442 81/443 82/444

usemtl m148
f 77/445 82/446 78/447

usemtl m149
f 78/448 82/449 79/450

usemtl m150
f 79/451 82/452 81/453

usemtl m151
f 79/454 81/455 80/456

usemtl m152
f 83/457 84/458 85/459

usemtl m153
f 83/460 85/461 86/462

usemtl m154
f 83/463 86/464 87/465

usemtl m155
f 83/466 87/467 88/468

usemtl m156
f 83/469 88/470 89/471

usemtl m157
f 83/472 89/473 84/474

usemtl m158
f 84/475 89/476 90/477

usemtl m159
f 90/478 89/479 91/480

usemtl m160
f 90/481 91/482 92/483

usemtl m161
f 90/484 92/485 93/486

usemtl m162
f 90/487 93/488 94/489

usemtl m163
f 94/490 93/491 95/492

usemtl m164
f 94/493 95/494 96/495

usemtl m165
f 94/496 96/497 97/498

usemtl m166
f 97/499 96/500 98/501

usemtl m167
f 98/502 96/503 99/504

usemtl m168
f 98/505 99/506 100/507

usemtl m169
f 100/508 99/509 101/510

usemtl m170
f 100/511 101/512 102/513

usemtl m171
f 102/514 101/515 103/516

usemtl m172
f 102/517 103/518 104/519

usemtl m173
f 102/520 104/521 105/522

usemtl m174
f 102/523 105/524 85/525

usemtl m175
f 85/526 105/527 86/528

usemtl m176
f 86/529 105/530 106/531

usemtl m177
f 86/532 106/533 87/534

usemtl m178
f 107/535 108/536 109/537

usemtl m179
f 107/538 109/539 110/540

usemtl m180
f 107/541 110/542 111/543

usemtl m181
f 107/544 111/545 112/546

usemtl m182
f 107/547 112/548 113/549

usemtl m183
f 107/550 113/551 114/552

usemtl m184
f 107/553 114/554 108/555

usemtl m185
f 108/556 114/557 115/558

usemtl m186
f 108/559 115/560 109/561

usemtl m187
f 109/562 115/563 116/564

usemtl m188
f 109/565 116/566 117/567

usemtl m189
f 109/568 117/569 118/570

usemtl m190
f 109/571 118/572 110/573

usemtl m191
f 110/574 118/575 119/576

usemtl m192
f 110/577 119/578 111/579

usemtl m193
f 111/580 119/581 120/582

usemtl m194
f 111/583 120/584 112/585

usemtl m195
f 112/586 120/587 121/588

usemtl m196
f 112/589 121/590 122/591

usemtl m197
f 112/592 122/593 113/594

usemtl m198
f 113/595 122/596 123/597

usemtl m199
f 113/598 123/599 114/600

usemtl m200
f 114/601 123/602 124/603

usemtl m201
f 114/604 124/605 125/606

usemtl m202
f 114/607 125/608 115/609

usemtl m203
f 115/610 125/611 126/612

usemtl m204
f 115/613 126/614 116/615

usemtl m205
f 116/616 126/617 127/618

usemtl m206
f 116/619 127/620 128/621

usemtl m207
f 116/622 128/623 117/624

usemtl m208
f 117/625 128/626 129/627

usemtl m209
f 117/628 129/629 130/630

usemtl m210
f 117/631 130/632 118/633

usemtl m211
f 118/634 130/635 131/636

usemtl m212
f 118/637 131/638 132/639

usemtl m213
f 118/640 132/641 119/642

usemtl m214
f 119/643 132/644 133/645

usemtl m215
f 119/646 133/647 120/648

usemtl m216
f 120/649 133/650 134/651

usemtl m217
f 120/652 134/653 135/654

usemtl m218
f 120/655 135/656 121/657

usemtl m219
f 121/658 135/659 136/660

usemtl m220
f 121/661 136/662 122/663

usemtl m221
f 122/664 136/665 137/666

usemtl m222
f 122/667 137/668 123/669

usemtl m223
f 123/670 137/671 138/672

usemtl m224
f 123/673 138/674 139/675

usemtl m225
f 123/676 139/677 124/678

usemtl m226
f 124/679 139/680 140/681

usemtl m227
f 124/682 140/683 141/684

usemtl m228
f 124/685 141/686 125/687

usemtl m229
f 125/688 141/689 142/690

usemtl m230
f 125/691 142/692 126/693

usemtl m231
f 126/694 142/695 143/696

usemtl m232
f 126/697 143/698 144/699

usemtl m233
f 126/700 144/701 127/702

usemtl m234
f 127/703 144/704 145/705

usemtl m235
f 127/706 145/707 146/708

usemtl m236
f 127/709 146/710 128/711

usemtl m237
f 128/712 146/713 147/714

usemtl m238
f 128/715 147/716 129/717

usemtl m239
f 129/718 147/719 148/720

usemtl m240
f 148/721 147/722 149/723

usemtl m241
f 148/724 149/725 150/726

usemtl m242
f 150/727 149/728 151/729

usemtl m243
f 150/730 151/731 149/732

usemtl m244
f 149/733 151/734 92/735

usemtl m245
f 149/736 92/737 91/738

usemtl m246
f 149/739 91/740 152/741

usemtl m247
f 152/742 91/743 89/744

usemtl m248
f 152/745 89/746 88/747

usemtl m249
f 136/748 135/749 134/750

usemtl m250
f 136/751 134/752 133/753

usemtl m251
f 141/754 140/755 153/756

usemtl m252
f 141/757 153/758 154/759

usemtl m253
f 141/760 154/761 142/762

usemtl m254
f 142/763 154/764 155/765

usemtl m255
f 142/766 155/767 143/768

usemtl m256
f 143/769 155/770 156/771

usemtl m257
f 143/772 156/773 157/774

usemtl m258
f 143/775 157/776 144/777

usemtl m259
f 144/778 157/779 158/780

usemtl m260
f 144/781 158/782 145/783

usemtl m261
f 145/784 158/785 159/786

usemtl m262
f 145/787 159/788 160/789

usemtl m263
f 145/790 160/791 146/792

usemtl m264
f 146/793 160/794 147/795

usemtl m265
f 147/796 160/797 149/798

usemtl m266
f 149/799 160/800 161/801

usemtl m267
f 149/802 161/803 151/804

usemtl m268
f 151/805 161/806 93/807

usemtl m269
f 151/808 93/809 92/810

usemtl m270
f 156/811 103/812 101/813

usemtl m271
f 156/814 101/815 157/816

usemtl m272
f 157/817 101/818 99/819

usemtl m273
f 157/820 99/821 158/822

usemtl m274
f 158/823 99/824 96/825

usemtl m275
f 158/826 96/827 159/828

usemtl m276
f 159/829 96/830 95/831

usemtl m277
f 159/832 95/833 161/834

usemtl m278
f 159/835 161/836 160/837

usemtl m279
f 103/838 162/839 104/840

usemtl m280
f 104/841 162/842 163/843

usemtl m281
f 104/844 163/845 105/846

usemtl m282
f 105/847 163/848 106/849

usemtl m283
f 164/850 163/851 162/852

usemtl m284
f 164/853 162/854 155/855

usemtl m285
f 164/856 155/857 154/858

usemtl m286
f 164/859 154/860 153/861

usemtl m287
f 164/862 153/863 165/864

usemtl m288
f 164/865 165/866 163/867

usemtl m289
f 155/868 162/869 156/870

usemtl m290
f 156/871 162/872 103/873

usemtl m291
f 140/874 166/875 153/876

usemtl m292
f 153/877 166/878 165/879

usemtl m293
f 95/880 93/881 161/882

