newmtl m0
Kd 0.7450980392156863 0.7058823529411765 0.6235294117647059
newmtl m1
Kd 0.7450980392156863 0.7058823529411765 0.6235294117647059
newmtl m2
Kd 0.8666666666666667 0.8470588235294118 0.803921568627451
newmtl m3
Kd 0.8666666666666667 0.8470588235294118 0.803921568627451
newmtl m4
Kd 0.8666666666666667 0.8470588235294118 0.803921568627451
newmtl m5
Kd 0.8666666666666667 0.8470588235294118 0.803921568627451
newmtl m6
Kd 0.7450980392156863 0.7058823529411765 0.6235294117647059
newmtl m7
Kd 0.7450980392156863 0.7058823529411765 0.6235294117647059
newmtl m8
Kd 0.0 0.0392156862745098 0.07450980392156863
newmtl m9
Kd 0.5647058823529412 0.5058823529411764 0.5058823529411764
newmtl m10
Kd 0.5647058823529412 0.5058823529411764 0.5058823529411764
newmtl m11
Kd 0.0 0.0392156862745098 0.07450980392156863
newmtl m12
Kd 0.7450980392156863 0.7058823529411765 0.6235294117647059
newmtl m13
Kd 0.7450980392156863 0.7058823529411765 0.6235294117647059
newmtl m14
Kd 0.8666666666666667 0.8470588235294118 0.803921568627451
newmtl m15
Kd 0.8666666666666667 0.8470588235294118 0.803921568627451
newmtl m16
Kd 0.8196078431372549 0.796078431372549 0.7372549019607844
newmtl m17
Kd 0.8196078431372549 0.796078431372549 0.7372549019607844
newmtl m18
Kd 0.8196078431372549 0.796078431372549 0.7372549019607844
newmtl m19
Kd 0.8196078431372549 0.796078431372549 0.7372549019607844
newmtl m20
Kd 0.8196078431372549 0.796078431372549 0.7372549019607844
newmtl m21
Kd 0.8196078431372549 0.796078431372549 0.7372549019607844
newmtl m22
Kd 0.8666666666666667 0.8470588235294118 0.803921568627451
newmtl m23
Kd 0.8666666666666667 0.8470588235294118 0.803921568627451
newmtl m24
Kd 0.8666666666666667 0.8470588235294118 0.803921568627451
newmtl m25
Kd 0.7450980392156863 0.7058823529411765 0.6235294117647059
newmtl m26
Kd 0.7450980392156863 0.7058823529411765 0.6235294117647059
newmtl m27
Kd 0.0 0.0392156862745098 0.07450980392156863
newmtl m28
Kd 0.0 0.0392156862745098 0.07450980392156863
newmtl m29
Kd 0.6549019607843137 0.5686274509803921 0.3607843137254902
newmtl m30
Kd 0.6901960784313725 0.6470588235294118 0.6470588235294118
newmtl m31
Kd 0.6901960784313725 0.6470588235294118 0.6470588235294118
newmtl m32
Kd 0.6549019607843137 0.5686274509803921 0.3607843137254902
newmtl m33
Kd 0.0 0.0392156862745098 0.07450980392156863
newmtl m34
Kd 0.0 0.0392156862745098 0.07450980392156863
newmtl m35
Kd 0.0 0.0392156862745098 0.07450980392156863
newmtl m36
Kd 0.7450980392156863 0.7058823529411765 0.6235294117647059
newmtl m37
Kd 0.7450980392156863 0.7058823529411765 0.6235294117647059
newmtl m38
Kd 0.7450980392156863 0.7058823529411765 0.6235294117647059
newmtl m39
Kd 0.8666666666666667 0.8470588235294118 0.803921568627451
newmtl m40
Kd 0.8666666666666667 0.8470588235294118 0.803921568627451
newmtl m41
Kd 0.8196078431372549 0.796078431372549 0.7372549019607844
newmtl m42
Kd 0.8196078431372549 0.796078431372549 0.7372549019607844
newmtl m43
Kd 0.8196078431372549 0.796078431372549 0.7372549019607844
newmtl m44
Kd 0.8196078431372549 0.796078431372549 0.7372549019607844
newmtl m45
Kd 0.8196078431372549 0.796078431372549 0.7372549019607844
newmtl m46
Kd 0.8196078431372549 0.796078431372549 0.7372549019607844
newmtl m47
Kd 0.8196078431372549 0.796078431372549 0.7372549019607844
newmtl m48
Kd 0.8196078431372549 0.796078431372549 0.7372549019607844
newmtl m49
Kd 0.8196078431372549 0.796078431372549 0.7372549019607844
newmtl m50
Kd 0.8196078431372549 0.796078431372549 0.7372549019607844
newmtl m51
Kd 0.8196078431372549 0.796078431372549 0.7372549019607844
newmtl m52
Kd 0.8196078431372549 0.796078431372549 0.7372549019607844
newmtl m53
Kd 0.8196078431372549 0.796078431372549 0.7372549019607844
newmtl m54
Kd 0.8666666666666667 0.8470588235294118 0.803921568627451
newmtl m55
Kd 0.8666666666666667 0.8470588235294118 0.803921568627451
newmtl m56
Kd 0.7450980392156863 0.7058823529411765 0.6235294117647059
newmtl m57
Kd 0.7450980392156863 0.7058823529411765 0.6235294117647059
newmtl m58
Kd 0.0 0.0392156862745098 0.07450980392156863
newmtl m59
Kd 0.0 0.0392156862745098 0.07450980392156863
newmtl m60
Kd 0.0 0.0392156862745098 0.07450980392156863
newmtl m61
Kd 0.0 0.0392156862745098 0.07450980392156863
newmtl m62
Kd 0.6549019607843137 0.5686274509803921 0.3607843137254902
newmtl m63
Kd 0.6549019607843137 0.5686274509803921 0.3607843137254902
newmtl m64
Kd 0.7254901960784313 0.6470588235294118 0.4627450980392157
newmtl m65
Kd 0.6470588235294118 0.6039215686274509 0.6
newmtl m66
Kd 0.6470588235294118 0.6039215686274509 0.6
newmtl m67
Kd 0.7254901960784313 0.6470588235294118 0.4627450980392157
newmtl m68
Kd 0.7254901960784313 0.6470588235294118 0.4627450980392157
newmtl m69
Kd 0.6549019607843137 0.5686274509803921 0.3607843137254902
newmtl m70
Kd 0.5176470588235295 0.4470588235294118 0.28627450980392155
newmtl m71
Kd 0.0 0.0392156862745098 0.07450980392156863
newmtl m72
Kd 0.0 0.0392156862745098 0.07450980392156863
newmtl m73
Kd 0.6901960784313725 0.5019607843137255 0.29411764705882354
newmtl m74
Kd 0.7647058823529411 0.6980392156862745 0.5450980392156862
newmtl m75
Kd 0.7647058823529411 0.6980392156862745 0.5450980392156862
newmtl m76
Kd 0.7647058823529411 0.6980392156862745 0.5450980392156862
newmtl m77
Kd 0.8666666666666667 0.8470588235294118 0.803921568627451
newmtl m78
Kd 0.8666666666666667 0.8470588235294118 0.803921568627451
newmtl m79
Kd 0.8666666666666667 0.8470588235294118 0.803921568627451
newmtl m80
Kd 0.7450980392156863 0.7058823529411765 0.6235294117647059
newmtl m81
Kd 0.7450980392156863 0.7058823529411765 0.6235294117647059
newmtl m82
Kd 0.7450980392156863 0.7058823529411765 0.6235294117647059
newmtl m83
Kd 0.7450980392156863 0.7058823529411765 0.6235294117647059
newmtl m84
Kd 0.7450980392156863 0.7058823529411765 0.6235294117647059
newmtl m85
Kd 0.7450980392156863 0.7058823529411765 0.6235294117647059
newmtl m86
Kd 0.7450980392156863 0.7058823529411765 0.6235294117647059
newmtl m87
Kd 0.7450980392156863 0.7058823529411765 0.6235294117647059
newmtl m88
Kd 0.8666666666666667 0.8470588235294118 0.803921568627451
newmtl m89
Kd 0.8666666666666667 0.8470588235294118 0.803921568627451
newmtl m90
Kd 0.7450980392156863 0.7058823529411765 0.6235294117647059
newmtl m91
Kd 0.0 0.0392156862745098 0.07450980392156863
newmtl m92
Kd 0.0 0.0392156862745098 0.07450980392156863
newmtl m93
Kd 0.7450980392156863 0.7058823529411765 0.6235294117647059
newmtl m94
Kd 0.7450980392156863 0.7058823529411765 0.6235294117647059
newmtl m95
Kd 0.8666666666666667 0.8470588235294118 0.803921568627451
newmtl m96
Kd 0.8666666666666667 0.8470588235294118 0.803921568627451
newmtl m97
Kd 0.8666666666666667 0.8470588235294118 0.803921568627451
newmtl m98
Kd 0.8196078431372549 0.796078431372549 0.7372549019607844
newmtl m99
Kd 0.8196078431372549 0.796078431372549 0.7372549019607844
newmtl m100
Kd 0.8196078431372549 0.796078431372549 0.7372549019607844
newmtl m101
Kd 0.8196078431372549 0.796078431372549 0.7372549019607844
newmtl m102
Kd 0.8666666666666667 0.8470588235294118 0.803921568627451
newmtl m103
Kd 0.8666666666666667 0.8470588235294118 0.803921568627451
newmtl m104
Kd 0.8666666666666667 0.8470588235294118 0.803921568627451
newmtl m105
Kd 0.8666666666666667 0.8470588235294118 0.803921568627451
newmtl m106
Kd 0.8666666666666667 0.8470588235294118 0.803921568627451
newmtl m107
Kd 0.8196078431372549 0.796078431372549 0.7372549019607844
newmtl m108
Kd 0.8196078431372549 0.796078431372549 0.7372549019607844
newmtl m109
Kd 0.8196078431372549 0.796078431372549 0.7372549019607844
newmtl m110
Kd 0.8196078431372549 0.796078431372549 0.7372549019607844
newmtl m111
Kd 0.8666666666666667 0.8470588235294118 0.803921568627451
newmtl m112
Kd 0.8666666666666667 0.8470588235294118 0.803921568627451
newmtl m113
Kd 0.7450980392156863 0.7058823529411765 0.6235294117647059
newmtl m114
Kd 0.7450980392156863 0.7058823529411765 0.6235294117647059
newmtl m115
Kd 0.7450980392156863 0.7058823529411765 0.6235294117647059
newmtl m116
Kd 0.7450980392156863 0.7058823529411765 0.6235294117647059
newmtl m117
Kd 0.8666666666666667 0.8470588235294118 0.803921568627451
newmtl m118
Kd 0.7450980392156863 0.7058823529411765 0.6235294117647059
newmtl m119
Kd 0.7450980392156863 0.7058823529411765 0.6235294117647059
newmtl m120
Kd 0.7647058823529411 0.6980392156862745 0.5450980392156862
newmtl m121
Kd 0.7647058823529411 0.6980392156862745 0.5450980392156862
newmtl m122
Kd 0.7647058823529411 0.6980392156862745 0.5450980392156862
newmtl m123
Kd 0.7450980392156863 0.7058823529411765 0.6235294117647059
newmtl m124
Kd 0.7450980392156863 0.7058823529411765 0.6235294117647059
newmtl m125
Kd 0.8666666666666667 0.8470588235294118 0.803921568627451
newmtl m126
Kd 0.8666666666666667 0.8470588235294118 0.803921568627451
newmtl m127
Kd 0.8666666666666667 0.8470588235294118 0.803921568627451
newmtl m128
Kd 0.8666666666666667 0.8470588235294118 0.803921568627451
newmtl m129
Kd 0.8666666666666667 0.8470588235294118 0.803921568627451
newmtl m130
Kd 0.7450980392156863 0.7058823529411765 0.6235294117647059
newmtl m131
Kd 0.7450980392156863 0.7058823529411765 0.6235294117647059
newmtl m132
Kd 0.7450980392156863 0.7058823529411765 0.6235294117647059
newmtl m133
Kd 0.7450980392156863 0.7058823529411765 0.6235294117647059
newmtl m134
Kd 0.7647058823529411 0.6980392156862745 0.5450980392156862
newmtl m135
Kd 0.0 0.0392156862745098 0.07450980392156863
newmtl m136
Kd 0.0 0.0392156862745098 0.07450980392156863
newmtl m137
Kd 0.0 0.0392156862745098 0.07450980392156863
newmtl m138
Kd 0.0 0.0392156862745098 0.07450980392156863
newmtl m139
Kd 0.6901960784313725 0.5019607843137255 0.29411764705882354
newmtl m140
Kd 0.6901960784313725 0.5019607843137255 0.29411764705882354
newmtl m141
Kd 0.0 0.0392156862745098 0.07450980392156863
newmtl m142
Kd 0.0 0.0392156862745098 0.07450980392156863
newmtl m143
Kd 0.0 0.0392156862745098 0.07450980392156863
newmtl m144
Kd 0.0 0.0392156862745098 0.07450980392156863
newmtl m145
Kd 0.7647058823529411 0.6980392156862745 0.5450980392156862
newmtl m146
Kd 0.7450980392156863 0.7058823529411765 0.6235294117647059
newmtl m147
Kd 0.7450980392156863 0.7058823529411765 0.6235294117647059
newmtl m148
Kd 0.7450980392156863 0.7058823529411765 0.6235294117647059
newmtl m149
Kd 0.8666666666666667 0.8470588235294118 0.803921568627451
newmtl m150
Kd 0.8666666666666667 0.8470588235294118 0.803921568627451
newmtl m151
Kd 0.8196078431372549 0.796078431372549 0.7372549019607844
newmtl m152
Kd 0.8196078431372549 0.796078431372549 0.7372549019607844
newmtl m153
Kd 0.8196078431372549 0.796078431372549 0.7372549019607844
newmtl m154
Kd 0.8196078431372549 0.796078431372549 0.7372549019607844
newmtl m155
Kd 0.8666666666666667 0.8470588235294118 0.803921568627451
newmtl m156
Kd 0.8666666666666667 0.8470588235294118 0.803921568627451
newmtl m157
Kd 0.8666666666666667 0.8470588235294118 0.803921568627451
newmtl m158
Kd 0.7450980392156863 0.7058823529411765 0.6235294117647059
newmtl m159
Kd 0.7450980392156863 0.7058823529411765 0.6235294117647059
newmtl m160
Kd 0.5647058823529412 0.5058823529411764 0.5058823529411764
newmtl m161
Kd 0.0 0.0392156862745098 0.07450980392156863
newmtl m162
Kd 0.7450980392156863 0.7058823529411765 0.6235294117647059
newmtl m163
Kd 0.7450980392156863 0.7058823529411765 0.6235294117647059
newmtl m164
Kd 0.8666666666666667 0.8470588235294118 0.803921568627451
newmtl m165
Kd 0.8666666666666667 0.8470588235294118 0.803921568627451
newmtl m166
Kd 0.8196078431372549 0.796078431372549 0.7372549019607844
newmtl m167
Kd 0.8196078431372549 0.796078431372549 0.7372549019607844
newmtl m168
Kd 0.8196078431372549 0.796078431372549 0.7372549019607844
newmtl m169
Kd 0.8196078431372549 0.796078431372549 0.7372549019607844
newmtl m170
Kd 0.7450980392156863 0.7058823529411765 0.6235294117647059
newmtl m171
Kd 0.7450980392156863 0.7058823529411765 0.6235294117647059
newmtl m172
Kd 0.0 0.0392156862745098 0.07450980392156863
newmtl m173
Kd 0.5647058823529412 0.5058823529411764 0.5058823529411764
newmtl m174
Kd 0.6901960784313725 0.6470588235294118 0.6470588235294118
newmtl m175
Kd 0.6901960784313725 0.6470588235294118 0.6470588235294118
newmtl m176
Kd 0.6549019607843137 0.5686274509803921 0.3607843137254902
newmtl m177
Kd 0.6549019607843137 0.5686274509803921 0.3607843137254902
newmtl m178
Kd 0.5176470588235295 0.4470588235294118 0.28627450980392155
newmtl m179
Kd 0.0 0.0392156862745098 0.07450980392156863
newmtl m180
Kd 0.0 0.0392156862745098 0.07450980392156863
newmtl m181
Kd 0.7647058823529411 0.6980392156862745 0.5450980392156862
newmtl m182
Kd 0.7647058823529411 0.6980392156862745 0.5450980392156862
newmtl m183
Kd 0.0 0.0392156862745098 0.07450980392156863
newmtl m184
Kd 0.0 0.0392156862745098 0.07450980392156863
newmtl m185
Kd 0.5176470588235295 0.4470588235294118 0.28627450980392155
newmtl m186
Kd 0.5176470588235295 0.4470588235294118 0.28627450980392155
newmtl m187
Kd 0.6549019607843137 0.5686274509803921 0.3607843137254902
newmtl m188
Kd 0.6549019607843137 0.5686274509803921 0.3607843137254902
newmtl m189
Kd 0.6901960784313725 0.6470588235294118 0.6470588235294118
newmtl m190
Kd 0.5647058823529412 0.5058823529411764 0.5058823529411764
newmtl m191
Kd 0.0 0.0392156862745098 0.07450980392156863
newmtl m192
Kd 0.3764705882352941 0.33725490196078434 0.3333333333333333
newmtl m193
Kd 0.3764705882352941 0.33725490196078434 0.3333333333333333
newmtl m194
Kd 0.00392156862745098 0.0392156862745098 0.14901960784313725
newmtl m195
Kd 0.00392156862745098 0.0392156862745098 0.14901960784313725
newmtl m196
Kd 0.00392156862745098 0.0392156862745098 0.14901960784313725
newmtl m197
Kd 0.7254901960784313 0.6470588235294118 0.4627450980392157
newmtl m198
Kd 0.7254901960784313 0.6470588235294118 0.4627450980392157
newmtl m199
Kd 0.00392156862745098 0.0392156862745098 0.14901960784313725
newmtl m200
Kd 0.00392156862745098 0.0392156862745098 0.14901960784313725
newmtl m201
Kd 0.00392156862745098 0.0392156862745098 0.14901960784313725
newmtl m202
Kd 0.00392156862745098 0.0392156862745098 0.14901960784313725
newmtl m203
Kd 0.3764705882352941 0.33725490196078434 0.3333333333333333
newmtl m204
Kd 0.3764705882352941 0.33725490196078434 0.3333333333333333
newmtl m205
Kd 0.6470588235294118 0.6039215686274509 0.6
newmtl m206
Kd 0.6470588235294118 0.6039215686274509 0.6
newmtl m207
Kd 0.6470588235294118 0.6039215686274509 0.6
newmtl m208
Kd 0.6470588235294118 0.6039215686274509 0.6
newmtl m209
Kd 0.7254901960784313 0.6470588235294118 0.4627450980392157
newmtl m210
Kd 0.7254901960784313 0.6470588235294118 0.4627450980392157
newmtl m211
Kd 0.6470588235294118 0.6039215686274509 0.6
newmtl m212
Kd 0.6470588235294118 0.6039215686274509 0.6
newmtl m213
Kd 0.6901960784313725 0.6470588235294118 0.6470588235294118
newmtl m214
Kd 0.6549019607843137 0.5686274509803921 0.3607843137254902
newmtl m215
Kd 0.7254901960784313 0.6470588235294118 0.4627450980392157
newmtl m216
Kd 0.7254901960784313 0.6470588235294118 0.4627450980392157
newmtl m217
Kd 0.6470588235294118 0.6039215686274509 0.6
newmtl m218
Kd 0.6470588235294118 0.6039215686274509 0.6
newmtl m219
Kd 0.5647058823529412 0.5058823529411764 0.5058823529411764
newmtl m220
Kd 0.5647058823529412 0.5058823529411764 0.5058823529411764
newmtl m221
Kd 0.6470588235294118 0.6039215686274509 0.6
newmtl m222
Kd 0.6470588235294118 0.6039215686274509 0.6
newmtl m223
Kd 0.6470588235294118 0.6039215686274509 0.6
newmtl m224
Kd 0.6470588235294118 0.6039215686274509 0.6
newmtl m225
Kd 0.6470588235294118 0.6039215686274509 0.6
newmtl m226
Kd 0.6470588235294118 0.6039215686274509 0.6
newmtl m227
Kd 0.6470588235294118 0.6039215686274509 0.6
newmtl m228
Kd 0.3764705882352941 0.33725490196078434 0.3333333333333333
newmtl m229
Kd 0.5176470588235295 0.4470588235294118 0.28627450980392155
newmtl m230
Kd 0.00392156862745098 0.0392156862745098 0.14901960784313725
newmtl m231
Kd 0.3764705882352941 0.33725490196078434 0.3333333333333333
newmtl m232
Kd 0.7137254901960784 0.6352941176470588 0.4392156862745098
newmtl m233
Kd 0.5607843137254902 0.5137254901960784 0.396078431372549
newmtl m234
Kd 0.5607843137254902 0.5137254901960784 0.396078431372549
newmtl m235
Kd 0.3764705882352941 0.33725490196078434 0.3333333333333333
newmtl m236
Kd 0.6470588235294118 0.6039215686274509 0.6
newmtl m237
Kd 0.6470588235294118 0.6039215686274509 0.6
newmtl m238
Kd 0.6470588235294118 0.6039215686274509 0.6
newmtl m239
Kd 0.6470588235294118 0.6039215686274509 0.6
newmtl m240
Kd 0.6470588235294118 0.6039215686274509 0.6
newmtl m241
Kd 0.6470588235294118 0.6039215686274509 0.6
newmtl m242
Kd 0.6470588235294118 0.6039215686274509 0.6
newmtl m243
Kd 0.6470588235294118 0.6039215686274509 0.6
newmtl m244
Kd 0.7254901960784313 0.6470588235294118 0.4627450980392157
newmtl m245
Kd 0.6470588235294118 0.6039215686274509 0.6
newmtl m246
Kd 0.6470588235294118 0.6039215686274509 0.6
newmtl m247
Kd 0.5647058823529412 0.5058823529411764 0.5058823529411764
newmtl m248
Kd 0.5647058823529412 0.5058823529411764 0.5058823529411764
newmtl m249
Kd 0.6470588235294118 0.6039215686274509 0.6
newmtl m250
Kd 0.6470588235294118 0.6039215686274509 0.6
newmtl m251
Kd 0.6470588235294118 0.6039215686274509 0.6
newmtl m252
Kd 0.6470588235294118 0.6039215686274509 0.6
newmtl m253
Kd 0.5647058823529412 0.5058823529411764 0.5058823529411764
newmtl m254
Kd 0.5647058823529412 0.5058823529411764 0.5058823529411764
newmtl m255
Kd 0.6470588235294118 0.6039215686274509 0.6
newmtl m256
Kd 0.3764705882352941 0.33725490196078434 0.3333333333333333
newmtl m257
Kd 0.7137254901960784 0.6352941176470588 0.4392156862745098
newmtl m258
Kd 0.596078431372549 0.5176470588235295 0.32941176470588235
newmtl m259
Kd 0.6470588235294118 0.6039215686274509 0.6
newmtl m260
Kd 0.6470588235294118 0.6039215686274509 0.6
newmtl m261
Kd 0.6470588235294118 0.6039215686274509 0.6
newmtl m262
Kd 0.596078431372549 0.5176470588235295 0.32941176470588235
newmtl m263
Kd 0.596078431372549 0.5176470588235295 0.32941176470588235
newmtl m264
Kd 0.6470588235294118 0.6039215686274509 0.6
newmtl m265
Kd 0.6470588235294118 0.6039215686274509 0.6
newmtl m266
Kd 0.596078431372549 0.5176470588235295 0.32941176470588235
newmtl m267
Kd 0.596078431372549 0.5176470588235295 0.32941176470588235
newmtl m268
Kd 0.6470588235294118 0.6039215686274509 0.6
newmtl m269
Kd 0.6470588235294118 0.6039215686274509 0.6
newmtl m270
Kd 0.6470588235294118 0.6039215686274509 0.6
newmtl m271
Kd 0.6470588235294118 0.6039215686274509 0.6
newmtl m272
Kd 0.6470588235294118 0.6039215686274509 0.6
newmtl m273
Kd 0.7254901960784313 0.6470588235294118 0.4627450980392157
newmtl m274
Kd 0.7254901960784313 0.6470588235294118 0.4627450980392157
newmtl m275
Kd 0.3764705882352941 0.33725490196078434 0.3333333333333333
newmtl m276
Kd 0.4980392156862745 0.45098039215686275 0.27450980392156865
newmtl m277
Kd 0.4980392156862745 0.45098039215686275 0.27450980392156865
newmtl m278
Kd 0.3764705882352941 0.33725490196078434 0.3333333333333333
newmtl m279
Kd 0.3764705882352941 0.33725490196078434 0.3333333333333333
newmtl m280
Kd 0.7137254901960784 0.6352941176470588 0.4392156862745098
newmtl m281
Kd 0.7137254901960784 0.6352941176470588 0.4392156862745098
newmtl m282
Kd 0.7137254901960784 0.6352941176470588 0.4392156862745098
newmtl m283
Kd 0.7137254901960784 0.6352941176470588 0.4392156862745098
newmtl m284
Kd 0.3764705882352941 0.33725490196078434 0.3333333333333333
newmtl m285
Kd 0.3764705882352941 0.33725490196078434 0.3333333333333333
newmtl m286
Kd 0.6470588235294118 0.6039215686274509 0.6
newmtl m287
Kd 0.4980392156862745 0.45098039215686275 0.27450980392156865
newmtl m288
Kd 0.4980392156862745 0.45098039215686275 0.27450980392156865
newmtl m289
Kd 0.3764705882352941 0.33725490196078434 0.3333333333333333
newmtl m290
Kd 0.00392156862745098 0.0392156862745098 0.14901960784313725
newmtl m291
Kd 0.00392156862745098 0.0392156862745098 0.14901960784313725
newmtl m292
Kd 0.0 0.0392156862745098 0.07450980392156863
newmtl m293
Kd 0.7647058823529411 0.6980392156862745 0.5450980392156862
newmtl m294
Kd 0.6901960784313725 0.5019607843137255 0.29411764705882354
newmtl m295
Kd 0.0 0.0392156862745098 0.07450980392156863
newmtl m296
Kd 0.0 0.0392156862745098 0.07450980392156863
newmtl m297
Kd 0.0 0.0392156862745098 0.07450980392156863
newmtl m298
Kd 0.0 0.0392156862745098 0.07450980392156863
newmtl m299
Kd 0.7647058823529411 0.6980392156862745 0.5450980392156862
newmtl m300
Kd 0.7647058823529411 0.6980392156862745 0.5450980392156862
newmtl m301
Kd 0.6470588235294118 0.6039215686274509 0.6
newmtl m302
Kd 0.4980392156862745 0.45098039215686275 0.27450980392156865
newmtl m303
Kd 0.4980392156862745 0.45098039215686275 0.27450980392156865
newmtl m304
Kd 0.6470588235294118 0.6039215686274509 0.6
newmtl m305
Kd 0.6470588235294118 0.6039215686274509 0.6
newmtl m306
Kd 0.6470588235294118 0.6039215686274509 0.6
newmtl m307
Kd 0.596078431372549 0.5176470588235295 0.32941176470588235
newmtl m308
Kd 0.596078431372549 0.5176470588235295 0.32941176470588235
newmtl m309
Kd 0.6470588235294118 0.6039215686274509 0.6
newmtl m310
Kd 0.6470588235294118 0.6039215686274509 0.6
newmtl m311
Kd 0.3764705882352941 0.33725490196078434 0.3333333333333333
newmtl m312
Kd 0.4980392156862745 0.45098039215686275 0.27450980392156865
newmtl m313
Kd 0.4980392156862745 0.45098039215686275 0.27450980392156865
newmtl m314
Kd 0.5607843137254902 0.5137254901960784 0.396078431372549
newmtl m315
Kd 0.5607843137254902 0.5137254901960784 0.396078431372549
newmtl m316
Kd 0.5647058823529412 0.5058823529411764 0.5058823529411764
newmtl m317
Kd 0.5647058823529412 0.5058823529411764 0.5058823529411764
newmtl m318
Kd 0.6470588235294118 0.6039215686274509 0.6
newmtl m319
Kd 0.6470588235294118 0.6039215686274509 0.6
newmtl m320
Kd 0.6470588235294118 0.6039215686274509 0.6
newmtl m321
Kd 0.6470588235294118 0.6039215686274509 0.6
newmtl m322
Kd 0.596078431372549 0.5176470588235295 0.32941176470588235
newmtl m323
Kd 0.596078431372549 0.5176470588235295 0.32941176470588235
newmtl m324
Kd 0.596078431372549 0.5176470588235295 0.32941176470588235
newmtl m325
Kd 0.596078431372549 0.5176470588235295 0.32941176470588235
newmtl m326
Kd 0.6470588235294118 0.6039215686274509 0.6
newmtl m327
Kd 0.00392156862745098 0.0392156862745098 0.14901960784313725
newmtl m328
Kd 0.00392156862745098 0.0392156862745098 0.14901960784313725
newmtl m329
Kd 0.3764705882352941 0.33725490196078434 0.3333333333333333
newmtl m330
Kd 0.0 0.0392156862745098 0.07450980392156863
newmtl m331
Kd 0.0 0.0392156862745098 0.07450980392156863
newmtl m332
Kd 0.00392156862745098 0.0392156862745098 0.14901960784313725
newmtl m333
Kd 0.00392156862745098 0.0392156862745098 0.14901960784313725
newmtl m334
Kd 0.5607843137254902 0.5137254901960784 0.396078431372549
newmtl m335
Kd 0.5607843137254902 0.5137254901960784 0.396078431372549
newmtl m336
Kd 0.00392156862745098 0.0392156862745098 0.14901960784313725
newmtl m337
Kd 0.7254901960784313 0.6470588235294118 0.4627450980392157
newmtl m338
Kd 0.7647058823529411 0.6980392156862745 0.5450980392156862
newmtl m339
Kd 0.0 0.0392156862745098 0.07450980392156863
newmtl m340
Kd 0.8196078431372549 0.796078431372549 0.7372549019607844
newmtl m341
Kd 0.8196078431372549 0.796078431372549 0.7372549019607844
newmtl m342
Kd 0.8666666666666667 0.8470588235294118 0.803921568627451
newmtl m343
Kd 0.8666666666666667 0.8470588235294118 0.803921568627451
newmtl m344
Kd 0.8196078431372549 0.796078431372549 0.7372549019607844
newmtl m345
Kd 0.8196078431372549 0.796078431372549 0.7372549019607844
newmtl m346
Kd 0.8196078431372549 0.796078431372549 0.7372549019607844
newmtl m347
Kd 0.8666666666666667 0.8470588235294118 0.803921568627451
newmtl m348
Kd 0.8666666666666667 0.8470588235294118 0.803921568627451
newmtl m349
Kd 0.8666666666666667 0.8470588235294118 0.803921568627451
newmtl m350
Kd 0.8196078431372549 0.796078431372549 0.7372549019607844
newmtl m351
Kd 0.596078431372549 0.5176470588235295 0.32941176470588235
newmtl m352
Kd 0.7450980392156863 0.7058823529411765 0.6235294117647059
newmtl m353
Kd 0.7450980392156863 0.7058823529411765 0.6235294117647059
newmtl m354
Kd 0.7450980392156863 0.7058823529411765 0.6235294117647059
newmtl m355
Kd 0.7450980392156863 0.7058823529411765 0.6235294117647059
newmtl m356
Kd 0.7450980392156863 0.7058823529411765 0.6235294117647059
newmtl m357
Kd 0.0 0.0392156862745098 0.07450980392156863
newmtl m358
Kd 0.0 0.0392156862745098 0.07450980392156863
newmtl m359
Kd 0.6549019607843137 0.5686274509803921 0.3607843137254902
newmtl m360
Kd 0.6549019607843137 0.5686274509803921 0.3607843137254902
newmtl m361
Kd 0.7254901960784313 0.6470588235294118 0.4627450980392157
newmtl m362
Kd 0.7254901960784313 0.6470588235294118 0.4627450980392157
newmtl m363
Kd 0.7254901960784313 0.6470588235294118 0.4627450980392157
newmtl m364
Kd 0.7254901960784313 0.6470588235294118 0.4627450980392157
newmtl m365
Kd 0.6470588235294118 0.6039215686274509 0.6
newmtl m366
Kd 0.6470588235294118 0.6039215686274509 0.6
newmtl m367
Kd 0.7254901960784313 0.6470588235294118 0.4627450980392157
newmtl m368
Kd 0.6549019607843137 0.5686274509803921 0.3607843137254902
newmtl m369
Kd 0.6549019607843137 0.5686274509803921 0.3607843137254902
newmtl m370
Kd 0.5176470588235295 0.4470588235294118 0.28627450980392155
newmtl m371
Kd 0.5176470588235295 0.4470588235294118 0.28627450980392155
newmtl m372
Kd 0.7450980392156863 0.7058823529411765 0.6235294117647059
newmtl m373
Kd 0.7450980392156863 0.7058823529411765 0.6235294117647059
newmtl m374
Kd 0.0 0.0392156862745098 0.07450980392156863
newmtl m375
Kd 0.5647058823529412 0.5058823529411764 0.5058823529411764
newmtl m376
Kd 0.6470588235294118 0.6039215686274509 0.6
newmtl m377
Kd 0.6470588235294118 0.6039215686274509 0.6
newmtl m378
Kd 0.6470588235294118 0.6039215686274509 0.6
newmtl m379
Kd 0.6470588235294118 0.6039215686274509 0.6
newmtl m380
Kd 0.6470588235294118 0.6039215686274509 0.6
newmtl m381
Kd 0.6470588235294118 0.6039215686274509 0.6
newmtl m382
Kd 0.6470588235294118 0.6039215686274509 0.6
newmtl m383
Kd 0.6470588235294118 0.6039215686274509 0.6
newmtl m384
Kd 0.596078431372549 0.5176470588235295 0.32941176470588235
newmtl m385
Kd 0.596078431372549 0.5176470588235295 0.32941176470588235
newmtl m386
Kd 0.596078431372549 0.5176470588235295 0.32941176470588235
newmtl m387
Kd 0.6470588235294118 0.6039215686274509 0.6
newmtl m388
Kd 0.6470588235294118 0.6039215686274509 0.6
newmtl m389
Kd 0.6470588235294118 0.6039215686274509 0.6
newmtl m390
Kd 0.6470588235294118 0.6039215686274509 0.6
newmtl m391
Kd 0.6470588235294118 0.6039215686274509 0.6
newmtl m392
Kd 0.596078431372549 0.5176470588235295 0.32941176470588235
newmtl m393
Kd 0.596078431372549 0.5176470588235295 0.32941176470588235
newmtl m394
Kd 0.596078431372549 0.5176470588235295 0.32941176470588235
newmtl m395
Kd 0.596078431372549 0.5176470588235295 0.32941176470588235
newmtl m396
Kd 0.596078431372549 0.5176470588235295 0.32941176470588235
newmtl m397
Kd 0.6470588235294118 0.6039215686274509 0.6
newmtl m398
Kd 0.6470588235294118 0.6039215686274509 0.6
newmtl m399
Kd 0.596078431372549 0.5176470588235295 0.32941176470588235
newmtl m400
Kd 0.596078431372549 0.5176470588235295 0.32941176470588235
newmtl m401
Kd 0.596078431372549 0.5176470588235295 0.32941176470588235
newmtl m402
Kd 0.596078431372549 0.5176470588235295 0.32941176470588235
newmtl m403
Kd 0.8196078431372549 0.796078431372549 0.7372549019607844
newmtl m404
Kd 0.6470588235294118 0.6039215686274509 0.6
newmtl m405
Kd 0.6470588235294118 0.6039215686274509 0.6
newmtl m406
Kd 0.6470588235294118 0.6039215686274509 0.6
newmtl m407
Kd 0.596078431372549 0.5176470588235295 0.32941176470588235
newmtl m408
Kd 0.596078431372549 0.5176470588235295 0.32941176470588235
newmtl m409
Kd 0.596078431372549 0.5176470588235295 0.32941176470588235
newmtl m410
Kd 0.596078431372549 0.5176470588235295 0.32941176470588235
newmtl m411
Kd 0.596078431372549 0.5176470588235295 0.32941176470588235
newmtl m412
Kd 0.596078431372549 0.5176470588235295 0.32941176470588235
newmtl m413
Kd 0.596078431372549 0.5176470588235295 0.32941176470588235
newmtl m414
Kd 0.596078431372549 0.5176470588235295 0.32941176470588235
newmtl m415
Kd 0.6470588235294118 0.6039215686274509 0.6
newmtl m416
Kd 0.6470588235294118 0.6039215686274509 0.6
newmtl m417
Kd 0.6470588235294118 0.6039215686274509 0.6
newmtl m418
Kd 0.6470588235294118 0.6039215686274509 0.6
newmtl m419
Kd 0.6470588235294118 0.6039215686274509 0.6
newmtl m420
Kd 0.6470588235294118 0.6039215686274509 0.6
newmtl m421
Kd 0.6470588235294118 0.6039215686274509 0.6
newmtl m422
Kd 0.6470588235294118 0.6039215686274509 0.6
newmtl m423
Kd 0.6470588235294118 0.6039215686274509 0.6
newmtl m424
Kd 0.6470588235294118 0.6039215686274509 0.6
newmtl m425
Kd 0.6470588235294118 0.6039215686274509 0.6
newmtl m426
Kd 0.7450980392156863 0.7058823529411765 0.6235294117647059
newmtl m427
Kd 0.7450980392156863 0.7058823529411765 0.6235294117647059
newmtl m428
Kd 0.8666666666666667 0.8470588235294118 0.803921568627451
newmtl m429
Kd 0.8666666666666667 0.8470588235294118 0.803921568627451
newmtl m430
Kd 0.8666666666666667 0.8470588235294118 0.803921568627451
newmtl m431
Kd 0.7450980392156863 0.7058823529411765 0.6235294117647059
newmtl m432
Kd 0.7450980392156863 0.7058823529411765 0.6235294117647059
newmtl m433
Kd 0.7450980392156863 0.7058823529411765 0.6235294117647059
newmtl m434
Kd 0.0 0.0392156862745098 0.07450980392156863
newmtl m435
Kd 0.3764705882352941 0.33725490196078434 0.3333333333333333
newmtl m436
Kd 0.3764705882352941 0.33725490196078434 0.3333333333333333
newmtl m437
Kd 0.3764705882352941 0.33725490196078434 0.3333333333333333
newmtl m438
Kd 0.7019607843137254 0.6235294117647059 0.4196078431372549
newmtl m439
Kd 0.7019607843137254 0.6235294117647059 0.4196078431372549
newmtl m440
Kd 0.3764705882352941 0.33725490196078434 0.3333333333333333
newmtl m441
Kd 0.3764705882352941 0.33725490196078434 0.3333333333333333
newmtl m442
Kd 0.0 0.0392156862745098 0.07450980392156863
newmtl m443
Kd 0.7450980392156863 0.7058823529411765 0.6235294117647059
newmtl m444
Kd 0.7450980392156863 0.7058823529411765 0.6235294117647059
newmtl m445
Kd 0.8666666666666667 0.8470588235294118 0.803921568627451
newmtl m446
Kd 0.8666666666666667 0.8470588235294118 0.803921568627451
newmtl m447
Kd 0.8196078431372549 0.796078431372549 0.7372549019607844
newmtl m448
Kd 0.8196078431372549 0.796078431372549 0.7372549019607844
newmtl m449
Kd 0.8196078431372549 0.796078431372549 0.7372549019607844
newmtl m450
Kd 0.8196078431372549 0.796078431372549 0.7372549019607844
newmtl m451
Kd 0.8666666666666667 0.8470588235294118 0.803921568627451
newmtl m452
Kd 0.8666666666666667 0.8470588235294118 0.803921568627451
newmtl m453
Kd 0.8666666666666667 0.8470588235294118 0.803921568627451
newmtl m454
Kd 0.8666666666666667 0.8470588235294118 0.803921568627451
newmtl m455
Kd 0.7450980392156863 0.7058823529411765 0.6235294117647059
newmtl m456
Kd 0.7450980392156863 0.7058823529411765 0.6235294117647059
newmtl m457
Kd 0.0 0.0392156862745098 0.07450980392156863
newmtl m458
Kd 0.0 0.0392156862745098 0.07450980392156863
newmtl m459
Kd 0.6549019607843137 0.5686274509803921 0.3607843137254902
newmtl m460
Kd 0.6549019607843137 0.5686274509803921 0.3607843137254902
newmtl m461
Kd 0.7254901960784313 0.6470588235294118 0.4627450980392157
newmtl m462
Kd 0.7254901960784313 0.6470588235294118 0.4627450980392157
newmtl m463
Kd 0.596078431372549 0.5176470588235295 0.32941176470588235
newmtl m464
Kd 0.596078431372549 0.5176470588235295 0.32941176470588235
newmtl m465
Kd 0.0 0.0 0.07450980392156863
newmtl m466
Kd 0.0 0.0 0.07450980392156863
newmtl m467
Kd 0.7450980392156863 0.7058823529411765 0.6235294117647059
newmtl m468
Kd 0.0 0.0392156862745098 0.07450980392156863
newmtl m469
Kd 0.0 0.0392156862745098 0.07450980392156863
newmtl m470
Kd 0.7450980392156863 0.7058823529411765 0.6235294117647059
newmtl m471
Kd 0.7450980392156863 0.7058823529411765 0.6235294117647059
newmtl m472
Kd 0.8666666666666667 0.8470588235294118 0.803921568627451
newmtl m473
Kd 0.8666666666666667 0.8470588235294118 0.803921568627451
newmtl m474
Kd 0.8666666666666667 0.8470588235294118 0.803921568627451
newmtl m475
Kd 0.7450980392156863 0.7058823529411765 0.6235294117647059
newmtl m476
Kd 0.7450980392156863 0.7058823529411765 0.6235294117647059
newmtl m477
Kd 0.7450980392156863 0.7058823529411765 0.6235294117647059
newmtl m478
Kd 0.0 0.0392156862745098 0.07450980392156863
newmtl m479
Kd 0.0 0.0392156862745098 0.07450980392156863
newmtl m480
Kd 0.6549019607843137 0.5686274509803921 0.3607843137254902
newmtl m481
Kd 0.6549019607843137 0.5686274509803921 0.3607843137254902
newmtl m482
Kd 0.6901960784313725 0.5019607843137255 0.29411764705882354
newmtl m483
Kd 0.6901960784313725 0.5019607843137255 0.29411764705882354
newmtl m484
Kd 0.6549019607843137 0.5686274509803921 0.3607843137254902
newmtl m485
Kd 0.0 0.0392156862745098 0.07450980392156863
newmtl m486
Kd 0.0 0.0392156862745098 0.07450980392156863
newmtl m487
Kd 0.7450980392156863 0.7058823529411765 0.6235294117647059
newmtl m488
Kd 0.7450980392156863 0.7058823529411765 0.6235294117647059
newmtl m489
Kd 0.8666666666666667 0.8470588235294118 0.803921568627451
newmtl m490
Kd 0.8666666666666667 0.8470588235294118 0.803921568627451
newmtl m491
Kd 0.8196078431372549 0.796078431372549 0.7372549019607844
newmtl m492
Kd 0.8196078431372549 0.796078431372549 0.7372549019607844
newmtl m493
Kd 0.8196078431372549 0.796078431372549 0.7372549019607844
newmtl m494
Kd 0.8666666666666667 0.8470588235294118 0.803921568627451
newmtl m495
Kd 0.8666666666666667 0.8470588235294118 0.803921568627451
newmtl m496
Kd 0.8666666666666667 0.8470588235294118 0.803921568627451
newmtl m497
Kd 0.8196078431372549 0.796078431372549 0.7372549019607844
newmtl m498
Kd 0.8666666666666667 0.8470588235294118 0.803921568627451
newmtl m499
Kd 0.8666666666666667 0.8470588235294118 0.803921568627451
newmtl m500
Kd 0.7450980392156863 0.7058823529411765 0.6235294117647059
newmtl m501
Kd 0.7450980392156863 0.7058823529411765 0.6235294117647059
newmtl m502
Kd 0.8666666666666667 0.8470588235294118 0.803921568627451
newmtl m503
Kd 0.8666666666666667 0.8470588235294118 0.803921568627451
newmtl m504
Kd 0.8666666666666667 0.8470588235294118 0.803921568627451
newmtl m505
Kd 0.8196078431372549 0.796078431372549 0.7372549019607844
newmtl m506
Kd 0.8196078431372549 0.796078431372549 0.7372549019607844
newmtl m507
Kd 0.8196078431372549 0.796078431372549 0.7372549019607844
newmtl m508
Kd 0.8196078431372549 0.796078431372549 0.7372549019607844
newmtl m509
Kd 0.8666666666666667 0.8470588235294118 0.803921568627451
newmtl m510
Kd 0.8666666666666667 0.8470588235294118 0.803921568627451
newmtl m511
Kd 0.7450980392156863 0.7058823529411765 0.6235294117647059
newmtl m512
Kd 0.7450980392156863 0.7058823529411765 0.6235294117647059
newmtl m513
Kd 0.0 0.0392156862745098 0.07450980392156863
newmtl m514
Kd 0.0 0.0392156862745098 0.07450980392156863
newmtl m515
Kd 0.0 0.0392156862745098 0.07450980392156863
newmtl m516
Kd 0.7450980392156863 0.7058823529411765 0.6235294117647059
newmtl m517
Kd 0.7450980392156863 0.7058823529411765 0.6235294117647059
newmtl m518
Kd 0.7450980392156863 0.7058823529411765 0.6235294117647059
newmtl m519
Kd 0.7450980392156863 0.7058823529411765 0.6235294117647059
newmtl m520
Kd 0.8666666666666667 0.8470588235294118 0.803921568627451
newmtl m521
Kd 0.8666666666666667 0.8470588235294118 0.803921568627451
newmtl m522
Kd 0.8666666666666667 0.8470588235294118 0.803921568627451
newmtl m523
Kd 0.8196078431372549 0.796078431372549 0.7372549019607844
newmtl m524
Kd 0.8196078431372549 0.796078431372549 0.7372549019607844
newmtl m525
Kd 0.8196078431372549 0.796078431372549 0.7372549019607844
newmtl m526
Kd 0.8196078431372549 0.796078431372549 0.7372549019607844
newmtl m527
Kd 0.8196078431372549 0.796078431372549 0.7372549019607844
newmtl m528
Kd 0.8196078431372549 0.796078431372549 0.7372549019607844
newmtl m529
Kd 0.8666666666666667 0.8470588235294118 0.803921568627451
newmtl m530
Kd 0.8666666666666667 0.8470588235294118 0.803921568627451
newmtl m531
Kd 0.7450980392156863 0.7058823529411765 0.6235294117647059
newmtl m532
Kd 0.7450980392156863 0.7058823529411765 0.6235294117647059
newmtl m533
Kd 0.0 0.0392156862745098 0.07450980392156863
newmtl m534
Kd 0.0 0.0392156862745098 0.07450980392156863
newmtl m535
Kd 0.6549019607843137 0.5686274509803921 0.3607843137254902
newmtl m536
Kd 0.6901960784313725 0.5019607843137255 0.29411764705882354
newmtl m537
Kd 0.6901960784313725 0.5019607843137255 0.29411764705882354
newmtl m538
Kd 0.7647058823529411 0.6980392156862745 0.5450980392156862
newmtl m539
Kd 0.7254901960784313 0.6470588235294118 0.4627450980392157
newmtl m540
Kd 0.7254901960784313 0.6470588235294118 0.4627450980392157
newmtl m541
Kd 0.7647058823529411 0.6980392156862745 0.5450980392156862
newmtl m542
Kd 0.7647058823529411 0.6980392156862745 0.5450980392156862
newmtl m543
Kd 0.596078431372549 0.5176470588235295 0.32941176470588235
newmtl m544
Kd 0.596078431372549 0.5176470588235295 0.32941176470588235
newmtl m545
Kd 0.7254901960784313 0.6470588235294118 0.4627450980392157
newmtl m546
Kd 0.7254901960784313 0.6470588235294118 0.4627450980392157
newmtl m547
Kd 0.6549019607843137 0.5686274509803921 0.3607843137254902
newmtl m548
Kd 0.6549019607843137 0.5686274509803921 0.3607843137254902
newmtl m549
Kd 0.6901960784313725 0.5019607843137255 0.29411764705882354
newmtl m550
Kd 0.6901960784313725 0.5019607843137255 0.29411764705882354
newmtl m551
Kd 0.6549019607843137 0.5686274509803921 0.3607843137254902
newmtl m552
Kd 0.0 0.0392156862745098 0.07450980392156863
newmtl m553
Kd 0.0 0.0392156862745098 0.07450980392156863
newmtl m554
Kd 0.8666666666666667 0.8470588235294118 0.803921568627451
newmtl m555
Kd 0.8196078431372549 0.796078431372549 0.7372549019607844
newmtl m556
Kd 0.8196078431372549 0.796078431372549 0.7372549019607844
newmtl m557
Kd 0.8196078431372549 0.796078431372549 0.7372549019607844
newmtl m558
Kd 0.8196078431372549 0.796078431372549 0.7372549019607844
newmtl m559
Kd 0.8666666666666667 0.8470588235294118 0.803921568627451
newmtl m560
Kd 0.8666666666666667 0.8470588235294118 0.803921568627451
newmtl m561
Kd 0.7450980392156863 0.7058823529411765 0.6235294117647059
newmtl m562
Kd 0.7450980392156863 0.7058823529411765 0.6235294117647059
newmtl m563
Kd 0.0 0.0392156862745098 0.07450980392156863
newmtl m564
Kd 0.0 0.0392156862745098 0.07450980392156863
newmtl m565
Kd 0.6549019607843137 0.5686274509803921 0.3607843137254902
newmtl m566
Kd 0.6549019607843137 0.5686274509803921 0.3607843137254902
newmtl m567
Kd 0.7254901960784313 0.6470588235294118 0.4627450980392157
newmtl m568
Kd 0.7254901960784313 0.6470588235294118 0.4627450980392157
newmtl m569
Kd 0.7019607843137254 0.6235294117647059 0.4196078431372549
newmtl m570
Kd 0.7019607843137254 0.6235294117647059 0.4196078431372549
newmtl m571
Kd 0.596078431372549 0.5176470588235295 0.32941176470588235
newmtl m572
Kd 0.596078431372549 0.5176470588235295 0.32941176470588235
newmtl m573
Kd 0.6470588235294118 0.6039215686274509 0.6
newmtl m574
Kd 0.6470588235294118 0.6039215686274509 0.6
newmtl m575
Kd 0.6470588235294118 0.6039215686274509 0.6
newmtl m576
Kd 0.596078431372549 0.5176470588235295 0.32941176470588235
newmtl m577
Kd 0.596078431372549 0.5176470588235295 0.32941176470588235
newmtl m578
Kd 0.7254901960784313 0.6470588235294118 0.4627450980392157
newmtl m579
Kd 0.3764705882352941 0.33725490196078434 0.3333333333333333
newmtl m580
Kd 0.7450980392156863 0.7058823529411765 0.6235294117647059
newmtl m581
Kd 0.7450980392156863 0.7058823529411765 0.6235294117647059
newmtl m582
Kd 0.7450980392156863 0.7058823529411765 0.6235294117647059
newmtl m583
Kd 0.7450980392156863 0.7058823529411765 0.6235294117647059
newmtl m584
Kd 0.8666666666666667 0.8470588235294118 0.803921568627451
newmtl m585
Kd 0.8666666666666667 0.8470588235294118 0.803921568627451
newmtl m586
Kd 0.0 0.0392156862745098 0.07450980392156863
newmtl m587
Kd 0.0 0.0392156862745098 0.07450980392156863
newmtl m588
Kd 0.6470588235294118 0.6039215686274509 0.6
newmtl m589
Kd 0.6470588235294118 0.6039215686274509 0.6
newmtl m590
Kd 0.596078431372549 0.5176470588235295 0.32941176470588235
newmtl m591
Kd 0.596078431372549 0.5176470588235295 0.32941176470588235
newmtl m592
Kd 0.596078431372549 0.5176470588235295 0.32941176470588235
newmtl m593
Kd 0.596078431372549 0.5176470588235295 0.32941176470588235
newmtl m594
Kd 0.6470588235294118 0.6039215686274509 0.6
newmtl m595
Kd 0.6470588235294118 0.6039215686274509 0.6
newmtl m596
Kd 0.6470588235294118 0.6039215686274509 0.6
newmtl m597
Kd 0.7254901960784313 0.6470588235294118 0.4627450980392157
newmtl m598
Kd 0.7647058823529411 0.6980392156862745 0.5450980392156862
newmtl m599
Kd 0.596078431372549 0.5176470588235295 0.32941176470588235
newmtl m600
Kd 0.596078431372549 0.5176470588235295 0.32941176470588235
newmtl m601
Kd 0.7254901960784313 0.6470588235294118 0.4627450980392157
newmtl m602
Kd 0.7254901960784313 0.6470588235294118 0.4627450980392157
newmtl m603
Kd 0.7254901960784313 0.6470588235294118 0.4627450980392157
newmtl m604
Kd 0.596078431372549 0.5176470588235295 0.32941176470588235
newmtl m605
Kd 0.596078431372549 0.5176470588235295 0.32941176470588235
newmtl m606
Kd 0.6901960784313725 0.5019607843137255 0.29411764705882354
newmtl m607
Kd 0.6901960784313725 0.5019607843137255 0.29411764705882354
newmtl m608
Kd 0.7647058823529411 0.6980392156862745 0.5450980392156862
newmtl m609
Kd 0.7647058823529411 0.6980392156862745 0.5450980392156862
newmtl m610
Kd 0.7254901960784313 0.6470588235294118 0.4627450980392157
newmtl m611
Kd 0.7254901960784313 0.6470588235294118 0.4627450980392157
newmtl m612
Kd 0.7647058823529411 0.6980392156862745 0.5450980392156862
newmtl m613
Kd 0.7647058823529411 0.6980392156862745 0.5450980392156862
newmtl m614
Kd 0.596078431372549 0.5176470588235295 0.32941176470588235
newmtl m615
Kd 0.596078431372549 0.5176470588235295 0.32941176470588235
newmtl m616
Kd 0.5647058823529412 0.5058823529411764 0.5058823529411764
newmtl m617
Kd 0.5647058823529412 0.5058823529411764 0.5058823529411764
newmtl m618
Kd 0.5647058823529412 0.5058823529411764 0.5058823529411764
newmtl m619
Kd 0.6352941176470588 0.5843137254901961 0.5843137254901961
newmtl m620
Kd 0.6352941176470588 0.5843137254901961 0.5843137254901961
newmtl m621
Kd 0.6352941176470588 0.5843137254901961 0.5843137254901961
newmtl m622
Kd 0.6352941176470588 0.5843137254901961 0.5843137254901961
newmtl m623
Kd 0.6352941176470588 0.5843137254901961 0.5843137254901961
newmtl m624
Kd 0.5647058823529412 0.5058823529411764 0.5058823529411764
newmtl m625
Kd 0.5647058823529412 0.5058823529411764 0.5058823529411764
newmtl m626
Kd 0.49019607843137253 0.4392156862745098 0.4392156862745098
newmtl m627
Kd 0.49019607843137253 0.4392156862745098 0.4392156862745098
newmtl m628
Kd 0.49019607843137253 0.4392156862745098 0.4392156862745098
newmtl m629
Kd 0.49019607843137253 0.4392156862745098 0.4392156862745098
newmtl m630
Kd 0.49019607843137253 0.4392156862745098 0.4392156862745098
newmtl m631
Kd 0.5647058823529412 0.5058823529411764 0.5058823529411764
newmtl m632
Kd 0.5647058823529412 0.5058823529411764 0.5058823529411764
newmtl m633
Kd 0.6352941176470588 0.5843137254901961 0.5843137254901961
newmtl m634
Kd 0.6352941176470588 0.5843137254901961 0.5843137254901961
newmtl m635
Kd 0.49019607843137253 0.4392156862745098 0.4392156862745098
newmtl m636
Kd 0.49019607843137253 0.4392156862745098 0.4392156862745098
newmtl m637
Kd 0.49019607843137253 0.4392156862745098 0.4392156862745098
newmtl m638
Kd 0.49019607843137253 0.4392156862745098 0.4392156862745098
newmtl m639
Kd 0.49019607843137253 0.4392156862745098 0.4392156862745098
newmtl m640
Kd 0.49019607843137253 0.4392156862745098 0.4392156862745098
newmtl m641
Kd 0.49019607843137253 0.4392156862745098 0.4392156862745098
newmtl m642
Kd 0.6352941176470588 0.5843137254901961 0.5843137254901961
newmtl m643
Kd 0.6352941176470588 0.5843137254901961 0.5843137254901961
newmtl m644
Kd 0.5647058823529412 0.5058823529411764 0.5058823529411764
newmtl m645
Kd 0.5647058823529412 0.5058823529411764 0.5058823529411764
newmtl m646
Kd 0.49019607843137253 0.4392156862745098 0.4392156862745098
newmtl m647
Kd 0.49019607843137253 0.4392156862745098 0.4392156862745098
newmtl m648
Kd 0.3764705882352941 0.33725490196078434 0.3333333333333333
newmtl m649
Kd 0.3764705882352941 0.33725490196078434 0.3333333333333333
newmtl m650
Kd 0.3764705882352941 0.33725490196078434 0.3333333333333333
newmtl m651
Kd 0.3764705882352941 0.33725490196078434 0.3333333333333333
newmtl m652
Kd 0.3764705882352941 0.33725490196078434 0.3333333333333333
newmtl m653
Kd 0.3764705882352941 0.33725490196078434 0.3333333333333333
newmtl m654
Kd 0.3764705882352941 0.33725490196078434 0.3333333333333333
newmtl m655
Kd 0.49019607843137253 0.4392156862745098 0.4392156862745098
newmtl m656
Kd 0.49019607843137253 0.4392156862745098 0.4392156862745098
newmtl m657
Kd 0.5647058823529412 0.5058823529411764 0.5058823529411764
newmtl m658
Kd 0.5647058823529412 0.5058823529411764 0.5058823529411764
newmtl m659
Kd 0.6352941176470588 0.5843137254901961 0.5843137254901961
newmtl m660
Kd 0.6352941176470588 0.5843137254901961 0.5843137254901961
newmtl m661
Kd 0.49019607843137253 0.4392156862745098 0.4392156862745098
newmtl m662
Kd 0.49019607843137253 0.4392156862745098 0.4392156862745098
newmtl m663
Kd 0.6549019607843137 0.5686274509803921 0.3607843137254902
newmtl m664
Kd 0.5647058823529412 0.5058823529411764 0.5058823529411764
newmtl m665
Kd 0.5647058823529412 0.5058823529411764 0.5058823529411764
newmtl m666
Kd 0.49019607843137253 0.4392156862745098 0.4392156862745098
newmtl m667
Kd 0.49019607843137253 0.4392156862745098 0.4392156862745098
newmtl m668
Kd 0.3764705882352941 0.33725490196078434 0.3333333333333333
newmtl m669
Kd 0.3764705882352941 0.33725490196078434 0.3333333333333333
newmtl m670
Kd 0.7254901960784313 0.6470588235294118 0.4627450980392157
newmtl m671
Kd 0.5647058823529412 0.5058823529411764 0.5058823529411764
newmtl m672
Kd 0.5647058823529412 0.5058823529411764 0.5058823529411764
newmtl m673
Kd 0.49019607843137253 0.4392156862745098 0.4392156862745098
newmtl m674
Kd 0.49019607843137253 0.4392156862745098 0.4392156862745098
newmtl m675
Kd 0.3764705882352941 0.33725490196078434 0.3333333333333333
newmtl m676
Kd 0.3764705882352941 0.33725490196078434 0.3333333333333333
newmtl m677
Kd 0.5647058823529412 0.5058823529411764 0.5058823529411764
newmtl m678
Kd 0.49019607843137253 0.4392156862745098 0.4392156862745098
newmtl m679
Kd 0.49019607843137253 0.4392156862745098 0.4392156862745098
newmtl m680
Kd 0.3764705882352941 0.33725490196078434 0.3333333333333333
newmtl m681
Kd 0.3764705882352941 0.33725490196078434 0.3333333333333333
newmtl m682
Kd 0.6549019607843137 0.5686274509803921 0.3607843137254902
newmtl m683
Kd 0.7254901960784313 0.6470588235294118 0.4627450980392157
newmtl m684
Kd 0.7019607843137254 0.6235294117647059 0.4196078431372549
newmtl m685
Kd 0.7019607843137254 0.6235294117647059 0.4196078431372549
newmtl m686
Kd 0.0 0.0392156862745098 0.07450980392156863
newmtl m687
Kd 0.0 0.0392156862745098 0.07450980392156863
newmtl m688
Kd 0.49019607843137253 0.4392156862745098 0.4392156862745098
newmtl m689
Kd 0.49019607843137253 0.4392156862745098 0.4392156862745098
newmtl m690
Kd 0.49019607843137253 0.4392156862745098 0.4392156862745098
newmtl m691
Kd 0.6352941176470588 0.5843137254901961 0.5843137254901961
newmtl m692
Kd 0.6352941176470588 0.5843137254901961 0.5843137254901961
newmtl m693
Kd 0.6352941176470588 0.5843137254901961 0.5843137254901961
newmtl m694
Kd 0.6352941176470588 0.5843137254901961 0.5843137254901961
newmtl m695
Kd 0.6352941176470588 0.5843137254901961 0.5843137254901961
newmtl m696
Kd 0.49019607843137253 0.4392156862745098 0.4392156862745098
newmtl m697
Kd 0.49019607843137253 0.4392156862745098 0.4392156862745098
newmtl m698
Kd 0.49019607843137253 0.4392156862745098 0.4392156862745098
newmtl m699
Kd 0.49019607843137253 0.4392156862745098 0.4392156862745098
newmtl m700
Kd 0.6549019607843137 0.5686274509803921 0.3607843137254902
newmtl m701
Kd 0.7254901960784313 0.6470588235294118 0.4627450980392157
newmtl m702
Kd 0.49019607843137253 0.4392156862745098 0.4392156862745098
newmtl m703
Kd 0.3764705882352941 0.33725490196078434 0.3333333333333333
newmtl m704
Kd 0.3764705882352941 0.33725490196078434 0.3333333333333333
newmtl m705
Kd 0.6901960784313725 0.6470588235294118 0.6470588235294118
newmtl m706
Kd 0.6901960784313725 0.6470588235294118 0.6470588235294118
newmtl m707
Kd 0.5647058823529412 0.5058823529411764 0.5058823529411764
newmtl m708
Kd 0.0 0.0392156862745098 0.07450980392156863
newmtl m709
Kd 0.5647058823529412 0.5058823529411764 0.5058823529411764
newmtl m710
Kd 0.5176470588235295 0.4470588235294118 0.28627450980392155
newmtl m711
Kd 0.7254901960784313 0.6470588235294118 0.4627450980392157
newmtl m712
Kd 0.0 0.0392156862745098 0.07450980392156863
newmtl m713
Kd 0.0 0.0392156862745098 0.07450980392156863
newmtl m714
Kd 0.6549019607843137 0.5686274509803921 0.3607843137254902
newmtl m715
Kd 0.6549019607843137 0.5686274509803921 0.3607843137254902
newmtl m716
Kd 0.0 0.0392156862745098 0.07450980392156863
newmtl m717
Kd 0.6470588235294118 0.6039215686274509 0.6
newmtl m718
Kd 0.5607843137254902 0.5137254901960784 0.396078431372549
newmtl m719
Kd 0.5607843137254902 0.5137254901960784 0.396078431372549
newmtl m720
Kd 0.5372549019607843 0.4666666666666667 0.2980392156862745
newmtl m721
Kd 0.5372549019607843 0.4666666666666667 0.2980392156862745
newmtl m722
Kd 0.6470588235294118 0.6039215686274509 0.6
newmtl m723
Kd 0.6352941176470588 0.5529411764705883 0.35294117647058826
newmtl m724
Kd 0.7333333333333333 0.6588235294117647 0.4823529411764706
newmtl m725
Kd 0.7333333333333333 0.6588235294117647 0.4823529411764706
newmtl m726
Kd 0.7725490196078432 0.7098039215686275 0.5607843137254902
newmtl m727
Kd 0.7725490196078432 0.7098039215686275 0.5607843137254902
newmtl m728
Kd 0.7529411764705882 0.6862745098039216 0.5215686274509804
newmtl m729
Kd 0.7529411764705882 0.6862745098039216 0.5215686274509804
newmtl m730
Kd 0.7529411764705882 0.6862745098039216 0.5215686274509804
newmtl m731
Kd 0.7529411764705882 0.6862745098039216 0.5215686274509804
newmtl m732
Kd 0.7529411764705882 0.6862745098039216 0.5215686274509804
newmtl m733
Kd 0.7529411764705882 0.6862745098039216 0.5215686274509804
newmtl m734
Kd 0.596078431372549 0.5176470588235295 0.32941176470588235
newmtl m735
Kd 0.596078431372549 0.5176470588235295 0.32941176470588235
newmtl m736
Kd 0.596078431372549 0.5176470588235295 0.32941176470588235
newmtl m737
Kd 0.596078431372549 0.5176470588235295 0.32941176470588235
newmtl m738
Kd 0.596078431372549 0.5176470588235295 0.32941176470588235
newmtl m739
Kd 0.7019607843137254 0.6235294117647059 0.4196078431372549
newmtl m740
Kd 0.7019607843137254 0.6235294117647059 0.4196078431372549
newmtl m741
Kd 0.7254901960784313 0.6470588235294118 0.4627450980392157
newmtl m742
Kd 0.7254901960784313 0.6470588235294118 0.4627450980392157
newmtl m743
Kd 0.6862745098039216 0.596078431372549 0.3803921568627451
newmtl m744
Kd 0.6352941176470588 0.5529411764705883 0.35294117647058826
newmtl m745
Kd 0.7725490196078432 0.7098039215686275 0.5607843137254902
newmtl m746
Kd 0.7725490196078432 0.7098039215686275 0.5607843137254902
newmtl m747
Kd 0.7529411764705882 0.6862745098039216 0.5215686274509804
newmtl m748
Kd 0.7529411764705882 0.6862745098039216 0.5215686274509804
newmtl m749
Kd 0.7019607843137254 0.6235294117647059 0.4196078431372549
newmtl m750
Kd 0.7019607843137254 0.6235294117647059 0.4196078431372549
newmtl m751
Kd 0.7254901960784313 0.6470588235294118 0.4627450980392157
newmtl m752
Kd 0.7254901960784313 0.6470588235294118 0.4627450980392157
newmtl m753
Kd 0.6862745098039216 0.596078431372549 0.3803921568627451
newmtl m754
Kd 0.7254901960784313 0.6470588235294118 0.4627450980392157
newmtl m755
Kd 0.7254901960784313 0.6470588235294118 0.4627450980392157
newmtl m756
Kd 0.6352941176470588 0.5529411764705883 0.35294117647058826
newmtl m757
Kd 0.6352941176470588 0.5529411764705883 0.35294117647058826
newmtl m758
Kd 0.6470588235294118 0.6039215686274509 0.6
newmtl m759
Kd 0.6470588235294118 0.6039215686274509 0.6
newmtl m760
Kd 0.5607843137254902 0.5137254901960784 0.396078431372549
newmtl m761
Kd 0.5607843137254902 0.5137254901960784 0.396078431372549
newmtl m762
Kd 0.596078431372549 0.5176470588235295 0.32941176470588235
newmtl m763
Kd 0.596078431372549 0.5176470588235295 0.32941176470588235
newmtl m764
Kd 0.596078431372549 0.5176470588235295 0.32941176470588235
newmtl m765
Kd 0.596078431372549 0.5176470588235295 0.32941176470588235
newmtl m766
Kd 0.596078431372549 0.5176470588235295 0.32941176470588235
newmtl m767
Kd 0.596078431372549 0.5176470588235295 0.32941176470588235
newmtl m768
Kd 0.596078431372549 0.5176470588235295 0.32941176470588235
newmtl m769
Kd 0.5607843137254902 0.5137254901960784 0.396078431372549
newmtl m770
Kd 0.5607843137254902 0.5137254901960784 0.396078431372549
newmtl m771
Kd 0.6470588235294118 0.6039215686274509 0.6
newmtl m772
Kd 0.6470588235294118 0.6039215686274509 0.6
newmtl m773
Kd 0.6352941176470588 0.5529411764705883 0.35294117647058826
newmtl m774
Kd 0.6862745098039216 0.596078431372549 0.3803921568627451
newmtl m775
Kd 0.7254901960784313 0.6470588235294118 0.4627450980392157
newmtl m776
Kd 0.7254901960784313 0.6470588235294118 0.4627450980392157
newmtl m777
Kd 0.7019607843137254 0.6235294117647059 0.4196078431372549
newmtl m778
Kd 0.7019607843137254 0.6235294117647059 0.4196078431372549
newmtl m779
Kd 0.7529411764705882 0.6862745098039216 0.5215686274509804
newmtl m780
Kd 0.7529411764705882 0.6862745098039216 0.5215686274509804
newmtl m781
Kd 0.7529411764705882 0.6862745098039216 0.5215686274509804
newmtl m782
Kd 0.6901960784313725 0.6470588235294118 0.6470588235294118
newmtl m783
Kd 0.6470588235294118 0.6039215686274509 0.6
newmtl m784
Kd 0.6470588235294118 0.6039215686274509 0.6
newmtl m785
Kd 0.5647058823529412 0.5058823529411764 0.5058823529411764
newmtl m786
Kd 0.5647058823529412 0.5058823529411764 0.5058823529411764
newmtl m787
Kd 0.49019607843137253 0.4392156862745098 0.4392156862745098
newmtl m788
Kd 0.49019607843137253 0.4392156862745098 0.4392156862745098
newmtl m789
Kd 0.5647058823529412 0.5058823529411764 0.5058823529411764
newmtl m790
Kd 0.5647058823529412 0.5058823529411764 0.5058823529411764
newmtl m791
Kd 0.7529411764705882 0.6862745098039216 0.5215686274509804
newmtl m792
Kd 0.6352941176470588 0.5529411764705883 0.35294117647058826
newmtl m793
Kd 0.6862745098039216 0.596078431372549 0.3803921568627451
newmtl m794
Kd 0.6862745098039216 0.596078431372549 0.3803921568627451
newmtl m795
Kd 0.5372549019607843 0.4666666666666667 0.2980392156862745
newmtl m796
Kd 0.5372549019607843 0.4666666666666667 0.2980392156862745
newmtl m797
Kd 0.49019607843137253 0.4392156862745098 0.4392156862745098
newmtl m798
Kd 0.49019607843137253 0.4392156862745098 0.4392156862745098
newmtl m799
Kd 0.5647058823529412 0.5058823529411764 0.5058823529411764
newmtl m800
Kd 0.5647058823529412 0.5058823529411764 0.5058823529411764
newmtl m801
Kd 0.6470588235294118 0.6039215686274509 0.6
newmtl m802
Kd 0.6470588235294118 0.6039215686274509 0.6
newmtl m803
Kd 0.6470588235294118 0.6039215686274509 0.6
newmtl m804
Kd 0.6901960784313725 0.6470588235294118 0.6470588235294118
newmtl m805
Kd 0.6901960784313725 0.6470588235294118 0.6470588235294118
newmtl m806
Kd 0.6901960784313725 0.6470588235294118 0.6470588235294118
newmtl m807
Kd 0.6470588235294118 0.6039215686274509 0.6
newmtl m808
Kd 0.6470588235294118 0.6039215686274509 0.6
newmtl m809
Kd 0.5647058823529412 0.5058823529411764 0.5058823529411764
newmtl m810
Kd 0.5647058823529412 0.5058823529411764 0.5058823529411764
newmtl m811
Kd 0.5647058823529412 0.5058823529411764 0.5058823529411764
newmtl m812
Kd 0.5647058823529412 0.5058823529411764 0.5058823529411764
newmtl m813
Kd 0.49019607843137253 0.4392156862745098 0.4392156862745098
newmtl m814
Kd 0.49019607843137253 0.4392156862745098 0.4392156862745098
newmtl m815
Kd 0.49019607843137253 0.4392156862745098 0.4392156862745098
newmtl m816
Kd 0.5647058823529412 0.5058823529411764 0.5058823529411764
newmtl m817
Kd 0.5647058823529412 0.5058823529411764 0.5058823529411764
newmtl m818
Kd 0.6470588235294118 0.6039215686274509 0.6
newmtl m819
Kd 0.6470588235294118 0.6039215686274509 0.6
newmtl m820
Kd 0.6862745098039216 0.596078431372549 0.3803921568627451
newmtl m821
Kd 0.7254901960784313 0.6470588235294118 0.4627450980392157
newmtl m822
Kd 0.7254901960784313 0.6470588235294118 0.4627450980392157
newmtl m823
Kd 0.7254901960784313 0.6470588235294118 0.4627450980392157
newmtl m824
Kd 0.7254901960784313 0.6470588235294118 0.4627450980392157
newmtl m825
Kd 0.596078431372549 0.5176470588235295 0.32941176470588235
newmtl m826
Kd 0.7254901960784313 0.6470588235294118 0.4627450980392157
newmtl m827
Kd 0.7254901960784313 0.6470588235294118 0.4627450980392157
newmtl m828
Kd 0.7254901960784313 0.6470588235294118 0.4627450980392157
newmtl m829
Kd 0.7254901960784313 0.6470588235294118 0.4627450980392157
newmtl m830
Kd 0.7254901960784313 0.6470588235294118 0.4627450980392157
newmtl m831
Kd 0.7254901960784313 0.6470588235294118 0.4627450980392157
newmtl m832
Kd 0.7254901960784313 0.6470588235294118 0.4627450980392157
newmtl m833
Kd 0.7254901960784313 0.6470588235294118 0.4627450980392157
newmtl m834
Kd 0.7254901960784313 0.6470588235294118 0.4627450980392157
newmtl m835
Kd 0.7254901960784313 0.6470588235294118 0.4627450980392157
newmtl m836
Kd 0.7254901960784313 0.6470588235294118 0.4627450980392157
newmtl m837
Kd 0.7254901960784313 0.6470588235294118 0.4627450980392157
newmtl m838
Kd 0.596078431372549 0.5176470588235295 0.32941176470588235
newmtl m839
Kd 0.596078431372549 0.5176470588235295 0.32941176470588235
newmtl m840
Kd 0.596078431372549 0.5176470588235295 0.32941176470588235
newmtl m841
Kd 0.6862745098039216 0.596078431372549 0.3803921568627451
newmtl m842
Kd 0.6862745098039216 0.596078431372549 0.3803921568627451
newmtl m843
Kd 0.6862745098039216 0.596078431372549 0.3803921568627451
newmtl m844
Kd 0.5647058823529412 0.5058823529411764 0.5058823529411764
newmtl m845
Kd 0.6470588235294118 0.6039215686274509 0.6
newmtl m846
Kd 0.6470588235294118 0.6039215686274509 0.6
newmtl m847
Kd 0.6901960784313725 0.6470588235294118 0.6470588235294118
newmtl m848
Kd 0.6901960784313725 0.6470588235294118 0.6470588235294118
newmtl m849
Kd 0.6470588235294118 0.6039215686274509 0.6
newmtl m850
Kd 0.6470588235294118 0.6039215686274509 0.6
newmtl m851
Kd 0.6470588235294118 0.6039215686274509 0.6
newmtl m852
Kd 0.6470588235294118 0.6039215686274509 0.6
newmtl m853
Kd 0.5647058823529412 0.5058823529411764 0.5058823529411764
newmtl m854
Kd 0.5647058823529412 0.5058823529411764 0.5058823529411764
newmtl m855
Kd 0.6862745098039216 0.596078431372549 0.3803921568627451
newmtl m856
Kd 0.6862745098039216 0.596078431372549 0.3803921568627451
newmtl m857
Kd 0.6470588235294118 0.6039215686274509 0.6
newmtl m858
Kd 0.6901960784313725 0.6470588235294118 0.6470588235294118
newmtl m859
Kd 0.6901960784313725 0.6470588235294118 0.6470588235294118
newmtl m860
Kd 0.6862745098039216 0.596078431372549 0.3803921568627451
newmtl m861
Kd 0.6862745098039216 0.596078431372549 0.3803921568627451
newmtl m862
Kd 0.6862745098039216 0.596078431372549 0.3803921568627451
newmtl m863
Kd 0.6862745098039216 0.596078431372549 0.3803921568627451
newmtl m864
Kd 0.6862745098039216 0.596078431372549 0.3803921568627451
newmtl m865
Kd 0.6862745098039216 0.596078431372549 0.3803921568627451
newmtl m866
Kd 0.6862745098039216 0.596078431372549 0.3803921568627451
newmtl m867
Kd 0.3764705882352941 0.33725490196078434 0.3333333333333333
newmtl m868
Kd 0.7647058823529411 0.6980392156862745 0.5450980392156862
newmtl m869
Kd 0.7647058823529411 0.6980392156862745 0.5450980392156862
newmtl m870
Kd 0.6901960784313725 0.5019607843137255 0.29411764705882354
newmtl m871
Kd 0.6901960784313725 0.5019607843137255 0.29411764705882354
newmtl m872
Kd 0.6901960784313725 0.5019607843137255 0.29411764705882354
newmtl m873
Kd 0.7647058823529411 0.6980392156862745 0.5450980392156862
newmtl m874
Kd 0.7647058823529411 0.6980392156862745 0.5450980392156862
newmtl m875
Kd 0.7647058823529411 0.6980392156862745 0.5450980392156862
newmtl m876
Kd 0.7647058823529411 0.6980392156862745 0.5450980392156862
newmtl m877
Kd 0.7647058823529411 0.6980392156862745 0.5450980392156862
newmtl m878
Kd 0.7647058823529411 0.6980392156862745 0.5450980392156862
newmtl m879
Kd 0.7647058823529411 0.6980392156862745 0.5450980392156862
newmtl m880
Kd 0.7647058823529411 0.6980392156862745 0.5450980392156862
newmtl m881
Kd 0.7647058823529411 0.6980392156862745 0.5450980392156862
newmtl m882
Kd 0.7647058823529411 0.6980392156862745 0.5450980392156862
newmtl m883
Kd 0.7647058823529411 0.6980392156862745 0.5450980392156862
newmtl m884
Kd 0.7647058823529411 0.6980392156862745 0.5450980392156862
newmtl m885
Kd 0.7647058823529411 0.6980392156862745 0.5450980392156862
newmtl m886
Kd 0.7647058823529411 0.6980392156862745 0.5450980392156862
newmtl m887
Kd 0.3764705882352941 0.33725490196078434 0.3333333333333333
newmtl m888
Kd 0.3764705882352941 0.33725490196078434 0.3333333333333333
newmtl m889
Kd 0.3764705882352941 0.33725490196078434 0.3333333333333333
newmtl m890
Kd 0.3764705882352941 0.33725490196078434 0.3333333333333333
newmtl m891
Kd 0.3764705882352941 0.33725490196078434 0.3333333333333333
newmtl m892
Kd 0.3764705882352941 0.33725490196078434 0.3333333333333333
newmtl m893
Kd 0.3764705882352941 0.33725490196078434 0.3333333333333333
newmtl m894
Kd 0.3764705882352941 0.33725490196078434 0.3333333333333333
newmtl m895
Kd 0.3764705882352941 0.33725490196078434 0.3333333333333333
newmtl m896
Kd 0.3764705882352941 0.33725490196078434 0.3333333333333333
newmtl m897
Kd 0.3764705882352941 0.33725490196078434 0.3333333333333333
newmtl m898
Kd 0.3764705882352941 0.33725490196078434 0.3333333333333333
newmtl m899
Kd 0.3764705882352941 0.33725490196078434 0.3333333333333333
newmtl m900
Kd 0.3764705882352941 0.33725490196078434 0.3333333333333333
newmtl m901
Kd 0.3764705882352941 0.33725490196078434 0.3333333333333333
newmtl m902
Kd 0.3764705882352941 0.33725490196078434 0.3333333333333333
newmtl m903
Kd 0.49019607843137253 0.4392156862745098 0.4392156862745098
newmtl m904
Kd 0.49019607843137253 0.4392156862745098 0.4392156862745098
newmtl m905
Kd 0.49019607843137253 0.4392156862745098 0.4392156862745098
newmtl m906
Kd 0.49019607843137253 0.4392156862745098 0.4392156862745098
newmtl m907
Kd 0.49019607843137253 0.4392156862745098 0.4392156862745098
newmtl m908
Kd 0.49019607843137253 0.4392156862745098 0.4392156862745098
newmtl m909
Kd 0.49019607843137253 0.4392156862745098 0.4392156862745098
newmtl m910
Kd 0.49019607843137253 0.4392156862745098 0.4392156862745098
newmtl m911
Kd 0.49019607843137253 0.4392156862745098 0.4392156862745098
newmtl m912
Kd 0.49019607843137253 0.4392156862745098 0.4392156862745098
newmtl m913
Kd 0.49019607843137253 0.4392156862745098 0.4392156862745098
newmtl m914
Kd 0.49019607843137253 0.4392156862745098 0.4392156862745098
newmtl m915
Kd 0.49019607843137253 0.4392156862745098 0.4392156862745098
newmtl m916
Kd 0.49019607843137253 0.4392156862745098 0.4392156862745098
newmtl m917
Kd 0.49019607843137253 0.4392156862745098 0.4392156862745098
newmtl m918
Kd 0.49019607843137253 0.4392156862745098 0.4392156862745098
newmtl m919
Kd 0.7647058823529411 0.6980392156862745 0.5450980392156862
newmtl m920
Kd 0.7647058823529411 0.6980392156862745 0.5450980392156862
newmtl m921
Kd 0.7647058823529411 0.6980392156862745 0.5450980392156862
newmtl m922
Kd 0.7647058823529411 0.6980392156862745 0.5450980392156862
newmtl m923
Kd 0.7647058823529411 0.6980392156862745 0.5450980392156862
newmtl m924
Kd 0.7647058823529411 0.6980392156862745 0.5450980392156862
newmtl m925
Kd 0.7647058823529411 0.6980392156862745 0.5450980392156862
newmtl m926
Kd 0.7647058823529411 0.6980392156862745 0.5450980392156862
newmtl m927
Kd 0.7647058823529411 0.6980392156862745 0.5450980392156862
newmtl m928
Kd 0.7647058823529411 0.6980392156862745 0.5450980392156862
newmtl m929
Kd 0.7647058823529411 0.6980392156862745 0.5450980392156862
newmtl m930
Kd 0.7647058823529411 0.6980392156862745 0.5450980392156862
newmtl m931
Kd 0.7647058823529411 0.6980392156862745 0.5450980392156862
newmtl m932
Kd 0.7647058823529411 0.6980392156862745 0.5450980392156862
newmtl m933
Kd 0.7647058823529411 0.6980392156862745 0.5450980392156862
newmtl m934
Kd 0.7647058823529411 0.6980392156862745 0.5450980392156862
newmtl m935
Kd 0.7254901960784313 0.6470588235294118 0.4627450980392157
newmtl m936
Kd 0.7254901960784313 0.6470588235294118 0.4627450980392157
newmtl m937
Kd 0.7254901960784313 0.6470588235294118 0.4627450980392157
newmtl m938
Kd 0.7254901960784313 0.6470588235294118 0.4627450980392157
newmtl m939
Kd 0.7254901960784313 0.6470588235294118 0.4627450980392157
newmtl m940
Kd 0.7254901960784313 0.6470588235294118 0.4627450980392157
newmtl m941
Kd 0.7254901960784313 0.6470588235294118 0.4627450980392157
newmtl m942
Kd 0.7254901960784313 0.6470588235294118 0.4627450980392157
newmtl m943
Kd 0.7254901960784313 0.6470588235294118 0.4627450980392157
newmtl m944
Kd 0.7254901960784313 0.6470588235294118 0.4627450980392157
newmtl m945
Kd 0.7254901960784313 0.6470588235294118 0.4627450980392157
newmtl m946
Kd 0.7254901960784313 0.6470588235294118 0.4627450980392157
newmtl m947
Kd 0.7254901960784313 0.6470588235294118 0.4627450980392157
newmtl m948
Kd 0.7254901960784313 0.6470588235294118 0.4627450980392157
newmtl m949
Kd 0.7254901960784313 0.6470588235294118 0.4627450980392157
newmtl m950
Kd 0.7254901960784313 0.6470588235294118 0.4627450980392157
newmtl m951
Kd 0.6901960784313725 0.5019607843137255 0.29411764705882354
newmtl m952
Kd 0.6901960784313725 0.5019607843137255 0.29411764705882354
newmtl m953
Kd 0.6901960784313725 0.5019607843137255 0.29411764705882354
newmtl m954
Kd 0.6901960784313725 0.5019607843137255 0.29411764705882354
newmtl m955
Kd 0.6901960784313725 0.5019607843137255 0.29411764705882354
newmtl m956
Kd 0.6901960784313725 0.5019607843137255 0.29411764705882354
newmtl m957
Kd 0.6901960784313725 0.5019607843137255 0.29411764705882354
newmtl m958
Kd 0.6901960784313725 0.5019607843137255 0.29411764705882354
newmtl m959
Kd 0.6901960784313725 0.5019607843137255 0.29411764705882354
newmtl m960
Kd 0.6901960784313725 0.5019607843137255 0.29411764705882354
newmtl m961
Kd 0.6901960784313725 0.5019607843137255 0.29411764705882354
newmtl m962
Kd 0.7529411764705882 0.6862745098039216 0.5215686274509804
newmtl m963
Kd 0.7529411764705882 0.6862745098039216 0.5215686274509804
newmtl m964
Kd 0.7529411764705882 0.6862745098039216 0.5215686274509804
newmtl m965
Kd 0.7529411764705882 0.6862745098039216 0.5215686274509804
newmtl m966
Kd 0.5372549019607843 0.4666666666666667 0.2980392156862745
newmtl m967
Kd 0.5372549019607843 0.4666666666666667 0.2980392156862745
newmtl m968
Kd 0.5372549019607843 0.4666666666666667 0.2980392156862745
newmtl m969
Kd 0.7529411764705882 0.6862745098039216 0.5215686274509804
newmtl m970
Kd 0.7529411764705882 0.6862745098039216 0.5215686274509804
newmtl m971
Kd 0.5607843137254902 0.5137254901960784 0.396078431372549
newmtl m972
Kd 0.5607843137254902 0.5137254901960784 0.396078431372549
newmtl m973
Kd 0.5607843137254902 0.5137254901960784 0.396078431372549
newmtl m974
Kd 0.5607843137254902 0.5137254901960784 0.396078431372549
newmtl m975
Kd 0.5607843137254902 0.5137254901960784 0.396078431372549
newmtl m976
Kd 0.5607843137254902 0.5137254901960784 0.396078431372549
newmtl m977
Kd 0.5607843137254902 0.5137254901960784 0.396078431372549
newmtl m978
Kd 0.7529411764705882 0.6862745098039216 0.5215686274509804
newmtl m979
Kd 0.7529411764705882 0.6862745098039216 0.5215686274509804
newmtl m980
Kd 0.5607843137254902 0.5137254901960784 0.396078431372549
newmtl m981
Kd 0.5607843137254902 0.5137254901960784 0.396078431372549
newmtl m982
Kd 0.5607843137254902 0.5137254901960784 0.396078431372549
newmtl m983
Kd 0.5607843137254902 0.5137254901960784 0.396078431372549
newmtl m984
Kd 0.5372549019607843 0.4666666666666667 0.2980392156862745
newmtl m985
Kd 0.5607843137254902 0.5137254901960784 0.396078431372549
newmtl m986
Kd 0.5607843137254902 0.5137254901960784 0.396078431372549
newmtl m987
Kd 0.5607843137254902 0.5137254901960784 0.396078431372549
newmtl m988
Kd 0.5607843137254902 0.5137254901960784 0.396078431372549
newmtl m989
Kd 0.5607843137254902 0.5137254901960784 0.396078431372549
newmtl m990
Kd 0.6901960784313725 0.5019607843137255 0.29411764705882354
newmtl m991
Kd 0.6901960784313725 0.5019607843137255 0.29411764705882354
