mtllib 29104.mtl
o runescapemodel
v 4 4 -22
v 4 4 -49
v 4 0 -49
v 4 0 -22
v 31 4 -22
v 24 4 -29
v 11 4 -29
v 11 4 -42
v 31 4 -49
v 31 0 -49
v 31 0 -22
v 11 16 -29
v 11 16 -42
v 24 16 -29
v 22 16 -31
v 13 16 -31
v 13 16 -41
v 24 16 -42
v 24 4 -42
v 13 105 -18
v 13 105 -27
v 13 62 -41
v 13 62 -31
v 22 105 -18
v 22 110 -18
v 13 110 -18
v 13 113 -21
v 13 113 -24
v 13 110 -27
v 22 105 -27
v 22 62 -41
v 22 16 -41
v 13 52 -31
v 13 88 3
v 22 62 -31
v 22 110 -27
v 22 113 -24
v 22 113 -21
v 22 52 -31
v 4 4 47
v 4 4 21
v 4 0 21
v 4 0 47
v 31 4 47
v 24 4 41
v 11 4 41
v 11 4 27
v 31 4 21
v 31 0 21
v 31 0 47
v 11 16 41
v 11 16 27
v 24 16 41
v 22 16 39
v 13 16 39
v 13 16 29
v 24 16 27
v 24 4 27
v 22 16 29
v 13 78 3
v 22 78 3
v 22 78 13
v 13 78 13
v 13 82 16
v 22 88 3
v 22 85 16
v 22 82 16
v 22 88 13
v 13 88 13
v 13 85 16
v -47 4 -22
v -47 4 -49
v -47 0 -49
v -47 0 -22
v -21 4 -22
v -27 4 -29
v -41 4 -29
v -41 4 -42
v -21 4 -49
v -21 0 -49
v -21 0 -22
v -41 16 -29
v -41 16 -42
v -27 16 -29
v -29 16 -31
v -39 16 -31
v -39 16 -41
v -27 16 -42
v -27 4 -42
v -39 105 -18
v -39 105 -27
v -39 62 -41
v -39 62 -31
v -29 105 -18
v -29 110 -18
v -39 110 -18
v -39 113 -21
v -39 113 -24
v -39 110 -27
v -29 105 -27
v -29 62 -41
v -29 16 -41
v -39 52 -31
v -39 88 3
v -29 62 -31
v -29 110 -27
v -29 113 -24
v -29 113 -21
v -29 52 -31
v -47 4 47
v -47 4 21
v -47 0 21
v -47 0 47
v -21 4 47
v -27 4 41
v -41 4 41
v -41 4 27
v -21 4 21
v -21 0 21
v -21 0 47
v -41 16 41
v -41 16 27
v -27 16 41
v -29 16 39
v -39 16 39
v -39 16 29
v -27 16 27
v -27 4 27
v -29 16 29
v -39 78 3
v -29 78 3
v -29 78 13
v -39 78 13
v -39 82 16
v -29 88 3
v -29 85 16
v -29 82 16
v -29 88 13
v -39 88 13
v -39 85 16
v 13 108 -19
v 8 108 -19
v 8 105 -22
v 13 105 -22
v 8 108 -26
v 13 108 -26
v 8 111 -22
v 13 111 -22
v 8 59 -13
v 8 65 -31
v 8 78 -44
v 8 96 -50
v 8 114 -44
v 8 128 -31
v 8 135 -13
v 8 128 4
v 8 114 18
v 8 96 24
v 8 78 18
v 8 65 4
v -24 59 -13
v -24 65 -31
v -24 78 -44
v -24 96 -50
v -24 114 -44
v -24 128 -31
v -24 135 -13
v -24 128 4
v -24 114 18
v -24 96 24
v -24 78 18
v -24 65 4
v -24 108 -19
v -29 108 -19
v -29 105 -22
v -24 105 -22
v -29 108 -26
v -24 108 -26
v -29 111 -22
v -24 111 -22
v 34 110 -21
v 22 108 -19
v 22 105 -22
v 34 105 -22
v 37 108 -19
v 34 135 6
v 37 133 0
v 37 111 -22
v 34 111 -22
v 22 111 -22
v 34 108 -26
v 22 108 -26
v 37 130 3
v 34 31 -22
v 37 29 -21
v 37 127 6
v 41 135 6
v 41 110 -21
v 41 31 -22
v 50 27 -22
v 47 1 16
v 37 0 14
v 37 26 -24
v 37 32 -24
v 24 27 -22
v 27 1 16
v 37 3 18
v 52 0 -3
v 52 3 -8
v 52 8 -8
v 52 13 -3
v 52 9 1
v 52 3 1
v 22 0 -3
v 22 3 -8
v 22 8 -8
v 22 13 -3
v 22 9 1
v 22 3 1
vn -512 -768 -256
vn -256 -768 512
vn -512 0 256
vn -256 0 -512
vn 256 -768 -512
vn 512 -768 -256
vn -256 -768 -512
vn -512 -768 256
vn 512 -768 256
vn 256 0 512
vn 512 0 -256
vn -512 -768 -256
vn -256 -768 512
vn 256 -768 -512
vn 256 -768 -256
vn -256 -768 -512
vn -512 -768 256
vn 512 -768 256
vn 256 -768 512
vn -768 74 -757
vn -1280 -158 744
vn -1024 -79 756
vn -768 -55 -335
vn 1536 148 -746
vn 256 -362 -874
vn -512 -181 -437
vn -512 -874 -362
vn -512 -437 181
vn -256 -362 874
vn 512 -79 756
vn 1024 -158 744
vn 512 -768 512
vn -1280 406 -566
vn -1536 -662 310
vn 1024 -332 65
vn 512 -181 437
vn 512 -874 362
vn 512 -437 -181
vn 1024 203 -667
vn -512 -768 -256
vn -256 -768 512
vn -512 0 256
vn -256 0 -512
vn 256 -768 -512
vn 512 -768 -256
vn -256 -768 -512
vn -512 -768 256
vn 512 -768 256
vn 256 0 512
vn 512 0 -256
vn -512 -768 -256
vn -256 -768 512
vn 256 -768 -512
vn 512 -867 -236
vn -512 -966 -472
vn -256 -669 236
vn 512 -768 256
vn 256 -768 512
vn 256 -570 472
vn -1024 401 317
vn 1792 505 -74
vn 512 108 -880
vn -768 54 -440
vn -512 306 -920
vn 768 -715 155
vn 768 -362 -874
vn 512 153 -460
vn 256 -437 -181
vn -256 -874 -362
vn -512 -181 -437
vn -512 -768 -256
vn -256 -768 512
vn -512 0 256
vn -256 0 -512
vn 256 -768 -512
vn 512 -768 -256
vn -256 -768 -512
vn -512 -768 256
vn 512 -768 256
vn 256 0 512
vn 512 0 -256
vn -512 -768 -256
vn -256 -768 512
vn 256 -768 -512
vn 256 -768 -256
vn -256 -768 -512
vn -512 -768 256
vn 512 -768 256
vn 256 -768 512
vn -768 74 -757
vn -1280 -158 742
vn -1024 -79 755
vn -768 -55 -335
vn 1536 148 -746
vn 256 -364 -876
vn -512 -182 -438
vn -512 -876 -364
vn -512 -438 182
vn -256 -364 876
vn 512 -79 755
vn 1024 -158 742
vn 512 -768 512
vn -1280 406 -566
vn -1536 -662 310
vn 1024 -332 65
vn 512 -182 438
vn 512 -876 364
vn 512 -438 -182
vn 1024 203 -667
vn -512 -768 -256
vn -256 -768 512
vn -512 0 256
vn -256 0 -512
vn 256 -768 -512
vn 512 -768 -256
vn -256 -768 -512
vn -512 -768 256
vn 512 -768 256
vn 256 0 512
vn 512 0 -256
vn -512 -768 -256
vn -256 -768 512
vn 256 -768 -512
vn 512 -867 -236
vn -512 -966 -472
vn -256 -669 236
vn 512 -768 256
vn 256 -768 512
vn 256 -570 472
vn -1024 401 317
vn 1792 505 -74
vn 512 108 -880
vn -768 54 -440
vn -512 306 -920
vn 768 -715 155
vn 768 -364 -876
vn 512 153 -460
vn 256 -438 -182
vn -256 -876 -364
vn -512 -182 -438
vn 0 182 -546
vn 0 -182 -546
vn 0 568 -211
vn 0 590 124
vn 0 204 459
vn 0 -204 459
vn 0 -590 124
vn 0 -568 -211
vn 2560 725 75
vn 256 604 442
vn 512 341 665
vn 512 -80 726
vn 512 -428 616
vn 512 -650 371
vn 512 -710 -102
vn 512 -598 -459
vn 512 -341 -665
vn 512 80 -726
vn 512 454 -590
vn 256 669 -344
vn -256 724 -90
vn -512 665 341
vn -512 442 604
vn -512 80 726
vn -512 -334 671
vn -512 -586 466
vn -512 -712 87
vn -512 -653 -375
vn -512 -442 -604
vn -512 -80 -726
vn -256 347 -658
vn -2560 615 -433
vn 0 182 -546
vn 0 -182 -546
vn 0 568 -211
vn 0 590 124
vn 0 204 459
vn 0 -204 459
vn 0 -590 124
vn 0 -568 -211
vn -555 -286 -846
vn 59 -199 -553
vn 59 431 -275
vn 121 881 -85
vn -159 698 -710
vn -834 -29 -539
vn -129 -698 524
vn 209 -1043 619
vn 0 -976 -262
vn 0 -592 122
vn 228 -392 925
vn 0 204 459
vn -42 310 173
vn -592 -209 411
vn -107 -586 -1569
vn 59 177 -907
vn 664 -457 202
vn 697 370 98
vn 359 -1 -482
vn 196 147 146
vn 148 2 -294
vn 37 1033 117
vn -186 548 1144
vn -42 -176 1120
vn -210 -356 -146
vn -144 420 -14
vn -43 -208 -725
vn 1024 644 111
vn 256 220 644
vn 512 -362 618
vn 512 -543 -181
vn 512 -181 -693
vn 256 408 -562
vn -256 628 -174
vn -512 440 520
vn -512 -181 693
vn -512 -543 181
vn -256 -362 -618
vn -1024 204 -665
usemtl m0
f 1 2 3

usemtl m1
f 1 3 4

usemtl m2
f 1 4 5

usemtl m3
f 1 5 6

usemtl m4
f 1 6 7

usemtl m5
f 1 7 2

usemtl m6
f 2 7 8

usemtl m7
f 2 8 9

usemtl m8
f 2 9 10

usemtl m9
f 2 10 3

usemtl m10
f 9 5 11

usemtl m11
f 9 11 10

usemtl m12
f 5 4 11

usemtl m13
f 12 13 8

usemtl m14
f 12 8 7

usemtl m15
f 12 7 14

usemtl m16
f 12 14 15

usemtl m17
f 12 15 16

usemtl m18
f 12 16 13

usemtl m19
f 13 16 17

usemtl m20
f 13 17 18

usemtl m21
f 13 18 19

usemtl m22
f 13 19 8

usemtl m23
f 8 19 9

usemtl m24
f 9 19 5

usemtl m25
f 5 19 6

usemtl m26
f 6 19 18

usemtl m27
f 6 18 14

usemtl m28
f 6 14 7

usemtl m29
f 20 21 22

usemtl m30
f 20 22 23

usemtl m31
f 20 23 24

usemtl m32
f 20 24 25

usemtl m33
f 20 25 26

usemtl m34
f 20 26 21

usemtl m35
f 21 26 27

usemtl m36
f 21 27 28

usemtl m37
f 21 28 29

usemtl m38
f 21 29 30

usemtl m39
f 21 30 31

usemtl m40
f 21 31 22

usemtl m41
f 22 31 32

usemtl m42
f 22 32 17

usemtl m43
f 22 17 33

usemtl m44
f 22 33 23

usemtl m45
f 23 33 34

usemtl m46
f 23 34 35

usemtl m47
f 23 35 24

usemtl m48
f 24 35 31

usemtl m49
f 24 31 30

usemtl m50
f 24 30 36

usemtl m51
f 24 36 37

usemtl m52
f 24 37 38

usemtl m53
f 24 38 25

usemtl m54
f 25 38 27

usemtl m55
f 25 27 26

usemtl m56
f 29 36 30

usemtl m57
f 36 29 37

usemtl m58
f 37 29 28

usemtl m59
f 37 28 27

usemtl m60
f 37 27 38

usemtl m61
f 32 15 14

usemtl m62
f 32 14 18

usemtl m63
f 32 18 17

usemtl m64
f 31 35 39

usemtl m65
f 31 39 32

usemtl m66
f 32 39 15

usemtl m67
f 15 39 16

usemtl m68
f 16 39 33

usemtl m69
f 16 33 17

usemtl m70
f 40 41 42

usemtl m71
f 40 42 43

usemtl m72
f 40 43 44

usemtl m73
f 40 44 45

usemtl m74
f 40 45 46

usemtl m75
f 40 46 41

usemtl m76
f 41 46 47

usemtl m77
f 41 47 48

usemtl m78
f 41 48 49

usemtl m79
f 41 49 42

usemtl m80
f 48 44 50

usemtl m81
f 48 50 49

usemtl m82
f 44 43 50

usemtl m83
f 51 52 47

usemtl m84
f 51 47 46

usemtl m85
f 51 46 53

usemtl m86
f 51 53 54

usemtl m87
f 51 54 55

usemtl m88
f 51 55 52

usemtl m89
f 52 55 56

usemtl m90
f 52 56 57

usemtl m91
f 52 57 58

usemtl m92
f 52 58 47

usemtl m93
f 47 58 48

usemtl m94
f 48 58 44

usemtl m95
f 44 58 45

usemtl m96
f 45 58 57

usemtl m97
f 45 57 53

usemtl m98
f 45 53 46

usemtl m99
f 59 54 53

usemtl m100
f 59 53 57

usemtl m101
f 59 57 56

usemtl m102
f 59 56 60

usemtl m103
f 59 60 61

usemtl m104
f 59 61 54

usemtl m105
f 54 61 62

usemtl m106
f 54 62 55

usemtl m107
f 55 62 63

usemtl m108
f 55 63 60

usemtl m109
f 55 60 56

usemtl m110
f 63 64 34

usemtl m111
f 63 34 60

usemtl m112
f 60 34 33

usemtl m113
f 60 33 61

usemtl m114
f 61 33 39

usemtl m115
f 61 39 35

usemtl m116
f 61 35 65

usemtl m117
f 61 65 66

usemtl m118
f 61 66 67

usemtl m119
f 61 67 62

usemtl m120
f 62 67 64

usemtl m121
f 62 64 63

usemtl m122
f 65 68 66

usemtl m123
f 66 68 69

usemtl m124
f 66 69 70

usemtl m125
f 66 70 64

usemtl m126
f 66 64 67

usemtl m127
f 69 68 65

usemtl m128
f 69 65 34

usemtl m129
f 69 34 70

usemtl m130
f 70 34 64

usemtl m131
f 35 34 65

usemtl m132
f 71 72 73

usemtl m133
f 71 73 74

usemtl m134
f 71 74 75

usemtl m135
f 71 75 76

usemtl m136
f 71 76 77

usemtl m137
f 71 77 72

usemtl m138
f 72 77 78

usemtl m139
f 72 78 79

usemtl m140
f 72 79 80

usemtl m141
f 72 80 73

usemtl m142
f 79 75 81

usemtl m143
f 79 81 80

usemtl m144
f 75 74 81

usemtl m145
f 82 83 78

usemtl m146
f 82 78 77

usemtl m147
f 82 77 84

usemtl m148
f 82 84 85

usemtl m149
f 82 85 86

usemtl m150
f 82 86 83

usemtl m151
f 83 86 87

usemtl m152
f 83 87 88

usemtl m153
f 83 88 89

usemtl m154
f 83 89 78

usemtl m155
f 78 89 79

usemtl m156
f 79 89 75

usemtl m157
f 75 89 76

usemtl m158
f 76 89 88

usemtl m159
f 76 88 84

usemtl m160
f 76 84 77

usemtl m161
f 90 91 92

usemtl m162
f 90 92 93

usemtl m163
f 90 93 94

usemtl m164
f 90 94 95

usemtl m165
f 90 95 96

usemtl m166
f 90 96 91

usemtl m167
f 91 96 97

usemtl m168
f 91 97 98

usemtl m169
f 91 98 99

usemtl m170
f 91 99 100

usemtl m171
f 91 100 101

usemtl m172
f 91 101 92

usemtl m173
f 92 101 102

usemtl m174
f 92 102 87

usemtl m175
f 92 87 103

usemtl m176
f 92 103 93

usemtl m177
f 93 103 104

usemtl m178
f 93 104 105

usemtl m179
f 93 105 94

usemtl m180
f 94 105 101

usemtl m181
f 94 101 100

usemtl m182
f 94 100 106

usemtl m183
f 94 106 107

usemtl m184
f 94 107 108

usemtl m185
f 94 108 95

usemtl m186
f 95 108 97

usemtl m187
f 95 97 96

usemtl m188
f 99 106 100

usemtl m189
f 106 99 107

usemtl m190
f 107 99 98

usemtl m191
f 107 98 97

usemtl m192
f 107 97 108

usemtl m193
f 102 85 84

usemtl m194
f 102 84 88

usemtl m195
f 102 88 87

usemtl m196
f 101 105 109

usemtl m197
f 101 109 102

usemtl m198
f 102 109 85

usemtl m199
f 85 109 86

usemtl m200
f 86 109 103

usemtl m201
f 86 103 87

usemtl m202
f 110 111 112

usemtl m203
f 110 112 113

usemtl m204
f 110 113 114

usemtl m205
f 110 114 115

usemtl m206
f 110 115 116

usemtl m207
f 110 116 111

usemtl m208
f 111 116 117

usemtl m209
f 111 117 118

usemtl m210
f 111 118 119

usemtl m211
f 111 119 112

usemtl m212
f 118 114 120

usemtl m213
f 118 120 119

usemtl m214
f 114 113 120

usemtl m215
f 121 122 117

usemtl m216
f 121 117 116

usemtl m217
f 121 116 123

usemtl m218
f 121 123 124

usemtl m219
f 121 124 125

usemtl m220
f 121 125 122

usemtl m221
f 122 125 126

usemtl m222
f 122 126 127

usemtl m223
f 122 127 128

usemtl m224
f 122 128 117

usemtl m225
f 117 128 118

usemtl m226
f 118 128 114

usemtl m227
f 114 128 115

usemtl m228
f 115 128 127

usemtl m229
f 115 127 123

usemtl m230
f 115 123 116

usemtl m231
f 129 124 123

usemtl m232
f 129 123 127

usemtl m233
f 129 127 126

usemtl m234
f 129 126 130

usemtl m235
f 129 130 131

usemtl m236
f 129 131 124

usemtl m237
f 124 131 132

usemtl m238
f 124 132 125

usemtl m239
f 125 132 133

usemtl m240
f 125 133 130

usemtl m241
f 125 130 126

usemtl m242
f 133 134 104

usemtl m243
f 133 104 130

usemtl m244
f 130 104 103

usemtl m245
f 130 103 131

usemtl m246
f 131 103 109

usemtl m247
f 131 109 105

usemtl m248
f 131 105 135

usemtl m249
f 131 135 136

usemtl m250
f 131 136 137

usemtl m251
f 131 137 132

usemtl m252
f 132 137 134

usemtl m253
f 132 134 133

usemtl m254
f 135 138 136

usemtl m255
f 136 138 139

usemtl m256
f 136 139 140

usemtl m257
f 136 140 134

usemtl m258
f 136 134 137

usemtl m259
f 139 138 135

usemtl m260
f 139 135 104

usemtl m261
f 139 104 140

usemtl m262
f 140 104 134

usemtl m263
f 105 104 135

usemtl m264
f 141 142 143

usemtl m265
f 141 143 144

usemtl m266
f 144 143 145

usemtl m267
f 144 145 146

usemtl m268
f 146 145 147

usemtl m269
f 146 147 148

usemtl m270
f 148 147 142

usemtl m271
f 148 142 141

usemtl m272
f 149 150 151

usemtl m273
f 149 151 152

usemtl m274
f 149 152 153

usemtl m275
f 149 153 154

usemtl m276
f 149 154 155

usemtl m277
f 149 155 156

usemtl m278
f 149 156 157

usemtl m279
f 149 157 158

usemtl m280
f 149 158 159

usemtl m281
f 149 159 160

usemtl m282
f 149 160 161

usemtl m283
f 149 161 162

usemtl m284
f 149 162 150

usemtl m285
f 150 162 163

usemtl m286
f 150 163 151

usemtl m287
f 151 163 164

usemtl m288
f 151 164 152

usemtl m289
f 152 164 165

usemtl m290
f 152 165 153

usemtl m291
f 153 165 166

usemtl m292
f 153 166 154

usemtl m293
f 154 166 167

usemtl m294
f 154 167 155

usemtl m295
f 155 167 168

usemtl m296
f 155 168 156

usemtl m297
f 156 168 169

usemtl m298
f 156 169 157

usemtl m299
f 157 169 170

usemtl m300
f 157 170 158

usemtl m301
f 158 170 171

usemtl m302
f 158 171 159

usemtl m303
f 159 171 172

usemtl m304
f 159 172 160

usemtl m305
f 160 172 161

usemtl m306
f 161 172 162

usemtl m307
f 162 172 163

usemtl m308
f 163 172 164

usemtl m309
f 164 172 165

usemtl m310
f 165 172 166

usemtl m311
f 166 172 167

usemtl m312
f 167 172 168

usemtl m313
f 168 172 169

usemtl m314
f 169 172 170

usemtl m315
f 170 172 171

usemtl m316
f 173 174 175

usemtl m317
f 173 175 176

usemtl m318
f 176 175 177

usemtl m319
f 176 177 178

usemtl m320
f 178 177 179

usemtl m321
f 178 179 180

usemtl m322
f 180 179 174

usemtl m323
f 180 174 173

usemtl m324
f 181 182 183

usemtl m325
f 181 183 184

usemtl m326
f 181 184 185

usemtl m327
f 181 185 186

usemtl m328
f 181 186 187

usemtl m329
f 181 187 188

usemtl m330
f 181 188 189

usemtl m331
f 181 189 182

usemtl m332
f 182 189 190

usemtl m333
f 190 189 191

usemtl m334
f 190 191 192

usemtl m335
f 192 191 184

usemtl m336
f 192 184 183

usemtl m337
f 186 185 193

usemtl m338
f 186 193 194

usemtl m339
f 186 194 195

usemtl m340
f 186 195 196

usemtl m341
f 186 196 197

usemtl m342
f 186 197 187

usemtl m343
f 187 197 188

usemtl m344
f 188 197 198

usemtl m345
f 188 198 191

usemtl m346
f 188 191 189

usemtl m347
f 198 197 193

usemtl m348
f 198 193 185

usemtl m349
f 198 185 184

usemtl m350
f 198 184 191

usemtl m351
f 199 197 196

usemtl m352
f 199 196 195

usemtl m353
f 199 195 200

usemtl m354
f 200 195 201

usemtl m355
f 200 201 202

usemtl m356
f 200 202 203

usemtl m357
f 200 203 204

usemtl m358
f 204 203 199

usemtl m359
f 204 199 203

usemtl m360
f 204 203 194

usemtl m361
f 204 194 193

usemtl m362
f 204 193 197

usemtl m363
f 204 197 199

usemtl m364
f 205 206 207

usemtl m365
f 205 207 195

usemtl m366
f 205 195 194

usemtl m367
f 205 194 203

usemtl m368
f 205 203 206

usemtl m369
f 206 203 202

usemtl m370
f 206 202 207

usemtl m371
f 207 202 201

usemtl m372
f 207 201 195

usemtl m373
f 208 209 210

usemtl m374
f 208 210 211

usemtl m375
f 208 211 212

usemtl m376
f 208 212 213

usemtl m377
f 208 213 214

usemtl m378
f 208 214 215

usemtl m379
f 208 215 209

usemtl m380
f 209 215 216

usemtl m381
f 209 216 210

usemtl m382
f 210 216 217

usemtl m383
f 210 217 211

usemtl m384
f 211 217 218

usemtl m385
f 211 218 212

usemtl m386
f 212 218 219

usemtl m387
f 212 219 213

usemtl m388
f 213 219 214

usemtl m389
f 214 219 215

usemtl m390
f 215 219 216

usemtl m391
f 216 219 217

usemtl m392
f 217 219 218

