mtllib 2943.mtl
o runescapemodel
v -19 246 36
v -19 243 33
v -14 242 36
v -14 246 40
v -13 250 39
v -18 252 34
v -24 247 37
v -23 241 33
v -21 240 26
v -18 242 29
v -13 241 33
v -3 242 37
v -7 240 44
v -7 246 47
v -3 249 46
v -8 251 40
v -11 254 35
v -16 254 30
v -22 255 35
v -25 248 32
v -25 244 29
v -24 243 24
v -21 245 21
v -18 243 22
v -16 244 25
v -10 244 28
v 0 242 30
v 9 237 35
v 4 239 42
v -1 238 47
v -1 245 50
v 5 247 47
v 6 252 49
v -3 253 46
v -6 254 40
v -5 253 35
v -9 252 30
v -14 253 26
v -18 258 29
v -24 254 31
v -50 262 17
v -54 255 15
v -54 250 12
v -49 247 5
v -44 249 2
v -38 256 2
v -19 249 20
v -15 248 20
v -14 247 24
v -8 247 28
v -2 245 29
v 3 246 29
v 8 243 29
v 14 241 38
v 14 235 40
v 4 235 48
v 6 239 51
v 6 244 51
v 12 244 49
v 13 248 43
v 15 253 44
v 4 258 46
v -2 257 46
v -4 257 40
v -2 257 35
v -1 253 31
v -5 252 31
v -15 256 23
v -22 257 27
v -39 265 17
v -41 269 20
v -54 266 17
v -59 257 16
v -60 248 12
v -54 243 2
v -46 248 -3
v -38 257 -4
v -33 267 10
v -34 263 10
v -19 256 22
v 19 246 36
v 15 245 39
v 19 243 33
v 23 241 33
v 24 247 37
v 18 252 34
v 16 244 43
v 18 242 29
v 21 240 26
v 24 243 24
v 25 244 29
v 25 248 32
v 22 255 35
v 16 254 30
v 14 257 33
v 13 257 42
v 16 244 25
v 14 247 24
v 15 248 20
v 18 243 22
v 21 245 21
v 44 249 2
v 49 247 5
v 54 250 12
v 54 255 15
v 50 262 17
v 24 254 31
v 18 258 29
v 14 253 26
v 7 257 30
v 10 259 36
v 7 248 24
v 15 256 23
v 19 256 22
v 19 249 20
v 38 256 2
v 38 257 -4
v 46 248 -3
v 54 243 2
v 60 248 12
v 59 257 16
v 54 266 17
v 41 269 20
v 39 265 17
v 22 257 27
v 8 253 25
v 3 253 30
v 1 259 41
v 16 239 42
v 11 234 46
v 13 239 49
v 3 252 25
v -2 251 27
v -4 249 29
v -2 248 27
v 3 248 25
v -1 196 36
v 0 198 35
v 0 194 36
v -2 194 38
v -2 198 36
v -1 201 36
v 0 202 36
v 1 201 36
v 2 198 36
v 1 196 36
v 2 194 38
v 0 193 38
v -8 194 38
v -4 198 38
v -2 202 38
v 0 203 38
v 2 202 38
v 4 198 38
v -1 196 44
v 0 194 44
v 0 198 45
v -2 198 44
v -2 194 42
v 0 193 42
v 2 194 42
v 1 196 44
v 2 198 44
v 1 201 44
v 0 202 44
v -1 201 44
v -2 202 42
v -4 198 42
v -8 194 42
v -4 191 40
v 0 191 41
v 4 191 40
v 8 194 42
v 4 198 42
v 0 203 42
v 2 202 42
v 2 205 42
v 0 206 42
v -2 205 42
v -7 200 42
v -14 197 42
v -14 196 40
v -8 193 40
v 0 191 39
v 0 77 39
v -4 77 40
v 0 77 41
v 4 77 40
v 8 194 38
v 8 193 40
v 14 196 40
v 14 197 42
v 7 200 42
v 0 64 40
v -4 206 40
v 0 206 38
v -2 205 38
v -7 202 40
v -4 228 40
v 0 228 38
v 4 228 40
v 4 206 40
v 2 205 38
v -7 200 38
v -13 203 38
v -12 204 40
v -13 203 42
v -14 197 38
v -20 212 40
v -18 212 38
v -18 203 38
v -20 203 40
v -18 203 42
v -18 212 42
v -18 215 40
v -15 214 38
v -14 212 38
v -17 200 38
v -18 200 40
v -17 200 42
v -14 212 42
v -15 214 42
v -15 216 40
v -14 215 40
v -13 212 40
v 7 202 40
v 7 200 38
v 14 197 38
v 18 200 40
v 17 200 42
v 13 203 42
v 12 204 40
v 13 203 38
v 20 212 40
v 20 203 40
v 18 203 38
v 18 212 38
v 18 215 40
v 18 212 42
v 18 203 42
v 17 200 38
v 14 212 38
v 15 214 38
v 15 216 40
v 15 214 42
v 14 212 42
v 13 212 40
v 14 215 40
v 0 234 35
v 7 234 40
v 0 234 45
v 0 228 42
v -4 240 40
v 0 240 38
v 4 240 40
v 0 240 42
v -7 234 40
v 10 36 82
v -9 36 82
v -11 32 82
v 12 32 82
v 14 239 -21
v 26 242 -12
v 32 223 -17
v 21 220 -27
v 20 216 -26
v 13 233 -21
v 0 232 -22
v 0 239 -23
v 0 241 -24
v 14 241 -21
v 27 244 -12
v 34 247 0
v 32 245 0
v 41 225 1
v 39 221 1
v 31 219 -16
v 39 199 -20
v 27 196 -31
v 26 192 -29
v 40 192 -1
v 32 216 0
v 29 242 1
v 30 228 0
v 28 228 -15
v 15 224 -25
v 0 217 -26
v -15 224 -25
v -13 233 -21
v -14 239 -21
v -14 241 -21
v -14 243 -20
v 0 243 -22
v 14 243 -20
v 26 246 -11
v 32 249 0
v 25 245 15
v 24 243 14
v 32 223 19
v 31 219 17
v 47 201 1
v 45 197 1
v 37 195 -19
v 45 175 -22
v 34 172 -32
v 33 168 -30
v 52 168 -1
v 26 192 28
v 20 216 25
v 24 228 16
v 35 214 2
v 36 211 -3
v 31 210 -18
v 16 207 -23
v 2 207 -24
v 0 208 -23
v -2 207 -24
v -16 207 -23
v -31 210 -18
v -28 228 -15
v -26 242 -12
v -20 216 -26
v -21 220 -27
v -32 223 -17
v -27 244 -12
v -26 246 -11
v -14 259 -15
v 0 264 -16
v 14 259 -15
v 24 257 -8
v 28 257 2
v 24 247 13
v 14 242 23
v 14 240 22
v 21 220 28
v 39 199 22
v 37 195 20
v 54 177 1
v 52 173 1
v 44 171 -20
v 50 151 -21
v 39 148 -31
v 37 145 -31
v 56 150 1
v 33 168 29
v 34 172 31
v 45 175 22
v 27 196 30
v 44 171 20
v 58 153 1
v 48 148 -21
v 39 148 30
v 50 151 20
v 48 148 20
v 37 145 30
v 12 229 21
v 29 215 17
v 32 210 20
v 40 211 1
v 35 201 -9
v 32 191 -15
v 20 201 -19
v 8 199 -19
v 0 210 0
v -8 199 -19
v -20 201 -19
v -32 191 -15
v -35 201 -9
v -36 211 -3
v -35 214 2
v -30 228 0
v -32 245 0
v -29 242 1
v -32 216 0
v -26 192 -29
v -27 196 -31
v -39 199 -20
v -31 219 -16
v -41 225 1
v -39 221 1
v -32 223 19
v -24 243 14
v -34 247 0
v -32 249 0
v -28 257 2
v -24 257 -8
v -15 267 -20
v 0 272 -17
v 15 267 -20
v 29 274 -14
v 33 279 3
v 24 257 12
v 14 258 22
v 14 244 22
v 0 240 28
v 0 238 29
v 0 237 27
v 0 224 27
v 8 214 21
v 7 202 19
v 5 200 26
v 22 188 23
v 35 191 17
v 41 189 2
v 39 199 -6
v 37 191 -13
v 35 188 -16
v 11 184 -14
v 4 190 -1
v 0 212 22
v -8 214 21
v -7 202 19
v -4 190 -1
v -11 184 -14
v -35 188 -16
v -37 191 -13
v -39 199 -6
v -40 211 1
v -32 210 20
v -29 215 17
v -24 228 16
v -20 216 25
v -26 192 28
v -40 192 -1
v -33 168 -30
v -34 172 -32
v -45 175 -22
v -37 195 -19
v -14 240 22
v -21 220 28
v -14 242 23
v -25 245 15
v -47 201 1
v -45 197 1
v -39 199 22
v -31 219 17
v -27 196 30
v -37 195 20
v -45 175 22
v -34 172 31
v -33 168 29
v -52 168 -1
v -37 145 -31
v -39 148 -31
v -50 151 -21
v -44 171 -20
v -54 177 1
v -52 173 1
v -58 153 1
v -44 171 20
v -50 151 20
v -39 148 30
v -37 145 30
v -56 150 1
v -48 148 -21
v -48 148 20
v 0 322 -17
v -15 323 -14
v -10 327 -12
v -2 327 -13
v 0 326 -15
v 2 327 -13
v 15 323 -14
v 10 327 -12
v 13 326 -12
v 24 323 2
v 18 325 1
v 16 326 3
v 14 324 8
v 16 319 13
v 14 322 11
v 11 323 12
v 2 322 15
v 0 320 17
v 0 316 20
v -16 319 13
v -2 322 15
v -11 323 12
v -14 322 11
v -14 324 8
v -24 323 2
v -18 325 1
v -13 326 -12
v -13 328 -12
v -11 329 -10
v -10 331 -9
v 0 332 -12
v 0 329 -13
v 0 328 -15
v 10 331 -9
v 11 329 -10
v 13 328 -12
v 13 327 -9
v 16 327 -1
v 18 327 1
v 15 329 1
v 14 330 1
v 10 329 9
v 12 326 10
v 14 324 11
v 0 324 15
v 0 323 17
v -10 329 9
v -12 326 10
v -14 324 11
v -16 326 3
v -18 327 1
v -16 327 -1
v -13 327 -9
v -15 329 1
v -14 330 1
v -10 334 -9
v 0 336 -13
v 10 334 -9
v 13 333 1
v 0 328 13
v -10 332 9
v -13 333 1
v 0 392 1
v 0 389 -13
v -4 384 -9
v -4 385 1
v -4 383 11
v 0 388 13
v 4 385 1
v 4 384 -9
v 0 382 -22
v -4 378 -15
v -10 381 -8
v -11 382 1
v -10 381 9
v -4 379 17
v 0 382 20
v 4 383 11
v 11 382 1
v 10 381 -8
v 12 376 -12
v 4 378 -15
v 0 372 -27
v -3 372 -19
v -12 376 -12
v -16 376 1
v -12 376 13
v -4 372 21
v 0 373 25
v 4 379 17
v 10 381 9
v 16 376 1
v -14 370 -14
v -20 370 1
v -15 370 14
v -10 362 22
v 0 363 30
v 4 372 21
v 12 376 13
v 20 370 1
v 14 370 -14
v 3 372 -19
v 0 363 -27
v -3 363 -20
v -15 363 -15
v -10 340 -9
v -2 346 -17
v 0 346 -21
v 2 346 -17
v 10 340 -9
v 14 338 1
v 10 332 9
v -13 337 12
v 0 332 19
v 0 333 25
v -15 345 14
v -19 345 1
v -14 338 1
v 13 337 12
v 15 345 14
v 0 343 29
v 0 357 37
v -17 357 13
v -22 357 1
v -13 352 -14
v -12 346 -12
v -21 366 1
v -20 363 4
v -17 360 14
v -13 360 17
v 0 361 22
v 10 362 22
v 15 370 14
v 21 366 1
v 20 363 -2
v 15 363 -15
v 3 363 -20
v 0 353 -25
v -2 354 -20
v -20 363 -2
v -22 363 1
v -21 360 1
v 0 358 22
v 13 360 17
v 17 360 14
v 20 363 4
v 22 363 1
v 21 360 1
v 22 357 1
v 13 352 -14
v 2 354 -20
v 17 357 13
v 12 346 -12
v 19 345 1
v -80 64 0
v -60 64 0
v -36 64 -26
v -80 64 -80
v -71 59 -71
v -71 59 0
v -80 64 80
v -48 64 30
v -46 64 11
v -43 64 0
v -37 64 -12
v 0 64 -41
v 0 64 -80
v 0 59 -71
v 0 54 -71
v -71 54 -71
v -71 54 0
v -71 59 71
v 0 64 80
v -44 64 43
v -40 72 34
v -43 73 19
v -37 78 5
v -41 75 -2
v -36 75 -10
v -25 75 -12
v -23 64 -11
v 0 64 -15
v 23 64 -11
v 36 64 -12
v 36 64 -26
v 80 64 -80
v 71 59 -71
v 71 54 -71
v 73 48 -80
v 0 48 -80
v -73 48 -80
v -80 48 -73
v -80 48 0
v -71 54 71
v 0 59 71
v 80 64 80
v 44 64 43
v 33 64 36
v 0 64 46
v -33 64 36
v -29 73 22
v -37 75 22
v -33 78 10
v -39 84 8
v -38 82 -3
v -34 81 -8
v -26 81 -7
v -20 76 -5
v -19 76 3
v -20 64 6
v 0 64 15
v 20 64 6
v 19 76 3
v 20 76 -5
v 25 75 -12
v 36 75 -10
v 43 64 0
v 60 64 0
v 80 64 0
v 71 59 0
v 71 54 0
v 80 48 0
v 80 48 -73
v 80 0 -73
v 73 0 -80
v 0 0 -80
v -73 0 -80
v -80 0 -73
v -80 0 0
v -80 48 73
v -73 48 80
v 0 54 71
v 71 59 71
v 48 64 30
v 40 72 34
v 29 73 22
v 23 64 19
v -23 64 19
v -27 78 8
v -22 82 0
v -25 84 11
v -34 84 15
v -31 128 15
v -41 131 9
v -41 134 -4
v -35 134 -15
v -25 134 -22
v -15 134 -13
v 27 78 8
v 22 82 0
v 26 81 -7
v 34 81 -8
v 38 82 -3
v 41 75 -2
v 37 78 5
v 46 64 11
v 0 48 80
v 71 54 71
v -28 309 -19
v -18 319 -7
v -14 305 -22
v -15 288 -22
v -33 294 -15
v -40 301 -22
v -31 318 -16
v -23 316 -6
v -23 318 6
v -16 324 1
v -13 324 -8
v 0 314 -19
v 0 288 -21
v -29 274 -14
v -33 279 3
v -37 279 -9
v -41 285 -12
v -51 298 -9
v -47 305 -20
v -50 313 -14
v -39 322 -12
v -26 324 -6
v -26 325 7
v -31 318 18
v -27 306 19
v -20 315 12
v -11 322 10
v -9 313 20
v 0 322 13
v -10 328 9
v -39 322 13
v -50 313 16
v -47 305 23
v -37 301 24
v -33 292 18
v -23 285 27
v -15 301 26
v 0 297 29
v 0 313 21
v 9 313 20
v 11 322 10
v 10 328 9
v -46 299 13
v -38 287 16
v -27 279 18
v -17 276 25
v -12 283 32
v 0 282 34
v 12 283 32
v 15 301 26
v -24 257 12
v -24 247 13
v -14 258 22
v -30 151 -13
v -38 151 0
v -40 170 1
v -31 170 -12
v -21 151 -13
v -36 151 13
v -40 160 10
v -39 166 21
v -37 170 16
v -41 189 2
v -10 180 -16
v -15 167 -13
v -10 170 6
v -18 151 3
v -13 134 1
v -38 152 17
v -30 160 29
v -30 152 24
v -20 152 20
v -17 166 26
v -29 171 29
v -28 175 25
v -35 191 17
v -22 188 23
v -12 229 21
v 0 274 27
v 17 276 25
v 23 285 27
v 27 306 19
v 20 315 12
v 16 324 1
v 23 318 6
v 18 319 -7
v 13 324 -8
v 0 324 -12
v -46 137 13
v -29 151 18
v -22 151 16
v -14 158 13
v -17 170 21
v -1 187 3
v -10 186 22
v -5 200 26
v -19 131 12
v -33 135 21
v -17 137 18
v 15 288 -22
v 33 294 -15
v 37 279 -9
v 41 263 1
v 36 269 10
v 38 287 16
v 33 292 18
v 27 279 18
v 0 258 26
v -14 244 22
v -62 306 3
v -59 314 2
v -58 305 -10
v -55 302 3
v -58 306 14
v -50 323 1
v -56 292 -13
v -63 297 5
v -52 297 19
v -49 289 -14
v -57 279 -5
v -58 286 7
v -51 283 13
v -45 292 19
v -42 271 16
v -36 269 10
v -41 263 1
v -48 261 -5
v -47 275 -8
v -38 328 1
v -59 260 13
v -61 258 8
v -60 255 10
v -62 264 11
v -66 259 3
v -59 256 -5
v -55 254 -1
v -53 250 1
v -46 253 -4
v -60 263 2
v -59 267 9
v -55 261 -3
v -48 256 -8
v -51 269 13
v 73 48 80
v 80 48 73
v 28 309 -19
v 14 305 -22
v 23 316 -6
v 31 318 -16
v 40 301 -22
v 31 318 18
v 39 322 13
v 26 325 7
v 37 301 24
v 47 305 23
v 50 313 16
v 50 323 1
v 38 328 1
v 26 324 -6
v 46 299 13
v 35 134 -15
v 41 134 -4
v 25 134 -22
v 30 151 -13
v 38 151 0
v 36 151 13
v 46 137 13
v 41 131 9
v 39 84 8
v 31 170 -12
v 40 170 1
v 40 160 10
v 38 152 17
v 30 152 24
v 29 151 18
v 33 135 21
v 31 128 15
v 34 84 15
v 33 78 10
v 43 73 19
v 37 75 22
v 39 166 21
v 30 160 29
v 20 152 20
v 22 151 16
v 17 137 18
v 19 131 12
v 25 84 11
v 15 167 -13
v 10 180 -16
v 37 170 16
v 80 0 73
v 80 0 0
v 51 298 -9
v 41 285 -12
v 47 275 -8
v 48 261 -5
v 33 267 10
v 42 271 16
v 51 283 13
v 45 292 19
v 52 297 19
v 55 302 3
v 58 306 14
v 15 134 -13
v 13 134 1
v 21 151 -13
v 18 151 3
v 10 170 6
v 1 187 3
v 17 170 21
v 10 186 22
v 62 306 3
v 58 305 -10
v 59 314 2
v 47 305 -20
v 50 313 -14
v 63 297 5
v 56 292 -13
v 49 289 -14
v 57 279 -5
v 55 261 -3
v 59 256 -5
v 48 256 -8
v 46 253 -4
v 53 250 1
v 60 255 10
v 59 260 13
v 62 264 11
v 59 267 9
v 51 269 13
v 34 263 10
v 39 322 -12
v 61 258 8
v 66 259 3
v 60 263 2
v 58 286 7
v 55 254 -1
v 28 175 25
v 29 171 29
v 17 166 26
v 14 158 13
v 0 40 82
v -32 40 82
v -32 8 82
v 0 8 82
v 32 40 82
v 34 42 80
v 0 42 80
v -34 42 80
v -34 6 80
v 0 6 80
v 32 8 82
v 34 6 80
v 73 0 80
v -73 0 80
v 0 0 80
v -80 0 73
v 18 28 82
v 0 28 82
v -1 25 82
v 16 25 82
v -18 25 82
v -2 25 82
v -1 28 82
v -21 28 82
v 20 23 82
v 4 23 82
v 3 20 82
v 23 20 82
v -7 20 82
v 1 20 82
v 2 23 82
v -10 23 82
v -13 23 82
v -19 23 82
v -22 20 82
v -10 20 82
v 0 15 82
v -9 15 82
v -11 12 82
v 3 12 82
v 6 12 82
v 9 12 82
v 11 15 82
v 3 15 82
vn -399 390 -1327
vn 75 1039 -516
vn -763 1529 -726
vn -682 -60 -822
vn -654 -858 -1023
vn -7 -769 -1052
vn -563 73 -866
vn -408 958 -478
vn 60 1215 270
vn 319 1608 93
vn 10 952 81
vn -262 1925 329
vn -356 662 -196
vn -785 57 -1023
vn -902 -866 -1598
vn -477 -890 -504
vn -11 -1580 -326
vn 489 -885 -425
vn -217 -654 -738
vn -1097 -30 -832
vn -1040 753 -488
vn -507 1471 334
vn 228 900 1098
vn 459 907 822
vn 682 887 492
vn 414 1257 1239
vn -122 843 1012
vn 46 1068 565
vn -434 1114 356
vn -639 1069 -530
vn -305 -372 -1205
vn 189 -623 -1060
vn 105 21 -1569
vn -624 -75 -732
vn -1455 -733 -261
vn -550 -1401 397
vn 366 -936 607
vn 1117 -942 409
vn 325 -1050 -335
vn -629 -916 -790
vn -288 48 -1593
vn -330 550 -1282
vn -90 1134 -774
vn 286 1127 -130
vn 697 1154 447
vn 1122 471 644
vn 516 77 1280
vn 686 211 948
vn 1063 264 814
vn 559 -332 1552
vn -99 600 1495
vn -99 755 897
vn -115 1312 1266
vn 1337 813 510
vn 335 925 446
vn -327 911 -78
vn -92 508 -1333
vn 172 -433 -1050
vn 570 -609 -799
vn 1123 -186 -863
vn 760 -212 -723
vn 209 -1131 -786
vn -675 -808 -773
vn -601 -749 12
vn -886 -1424 867
vn -539 -1099 781
vn -40 -896 805
vn 768 -757 425
vn -5 -1148 -143
vn 409 -695 -724
vn 368 -388 -1076
vn -732 -668 -1118
vn -721 53 -911
vn -567 458 -359
vn -54 618 43
vn 193 726 699
vn 1081 1 1209
vn 1057 -379 -58
vn 1097 -249 90
vn 462 -934 688
vn 123 307 -987
vn 1161 50 -547
vn 181 1100 -647
vn 408 958 -478
vn 563 73 -866
vn 907 -689 -1087
vn 1322 -286 -170
vn -321 1362 94
vn -60 1215 270
vn 507 1471 334
vn 1040 753 -488
vn 1097 -30 -832
vn 217 -654 -738
vn -187 -758 -254
vn 754 -1206 325
vn 688 -912 -330
vn -645 874 508
vn -794 340 834
vn -686 211 948
vn -459 907 822
vn -228 900 1098
vn -697 1154 447
vn -286 1127 -130
vn 90 1134 -774
vn 330 550 -1282
vn 288 48 -1593
vn 629 -916 -790
vn -325 -1050 -335
vn -424 -1026 822
vn -177 -1165 799
vn 168 -1452 121
vn -181 410 1458
vn -768 -757 425
vn -462 -934 688
vn -516 77 1280
vn -1122 471 644
vn -1081 1 1209
vn -193 726 699
vn 54 618 43
vn 567 458 -359
vn 721 53 -911
vn 732 -668 -1118
vn -368 -388 -1076
vn -409 -695 -724
vn 5 -1148 -143
vn -143 -704 870
vn -456 -1180 753
vn -245 -1224 -47
vn 1095 315 -26
vn 441 823 -496
vn 862 240 -1028
vn -386 -555 1095
vn -588 -657 628
vn -599 -373 1080
vn -669 236 1030
vn -223 593 930
vn 0 0 0
vn 0 0 0
vn 0 0 0
vn 0 0 512
vn 0 0 0
vn 0 0 0
vn 0 0 0
vn 0 0 0
vn 0 0 0
vn 0 0 0
vn 0 0 512
vn 0 552 1374
vn -351 828 1559
vn 0 0 768
vn 0 0 768
vn 0 0 1024
vn 0 0 768
vn 0 0 768
vn 0 0 0
vn 0 0 0
vn 0 0 0
vn 0 0 0
vn 0 0 -512
vn 0 552 -1374
vn 0 0 -512
vn 0 0 0
vn 0 0 0
vn 0 0 0
vn 0 0 0
vn 0 0 0
vn 0 0 -768
vn 0 0 -768
vn -351 828 -1559
vn -378 1006 0
vn 0 226 -454
vn 378 1006 0
vn 351 828 -1559
vn 0 0 -768
vn 0 0 -1024
vn 0 0 -768
vn 381 -429 -1289
vn 0 -340 -1768
vn -381 -429 -1289
vn -65 -320 -1600
vn -449 559 -1047
vn -776 1216 0
vn -444 892 0
vn 0 226 454
vn 0 0 0
vn 0 0 0
vn 0 0 0
vn 0 0 0
vn 351 828 1559
vn 444 892 0
vn 776 1216 0
vn 449 559 -1047
vn 65 -320 -1600
vn 0 0 0
vn -690 -558 0
vn 0 -340 1768
vn -381 -429 1289
vn -252 -1284 0
vn -954 354 0
vn 0 210 880
vn 954 354 0
vn 690 -558 0
vn 381 -429 1289
vn -65 -320 1600
vn 400 -408 1727
vn 1084 -532 0
vn 400 -408 -1727
vn -449 559 1047
vn -1076 -226 0
vn -447 -252 1331
vn -560 64 1072
vn -1190 420 0
vn -560 64 -1072
vn -447 -252 -1331
vn -654 -888 0
vn 217 -603 980
vn 880 -228 1015
vn -581 380 898
vn -1118 972 0
vn -581 380 -898
vn 880 -228 -1015
vn 217 -603 -980
vn 212 -724 0
vn 1186 -690 0
vn 892 -202 0
vn 252 -1284 0
vn 65 -320 1600
vn 449 559 1047
vn 1118 972 0
vn 581 380 -898
vn -400 -408 -1727
vn -1084 -532 0
vn -400 -408 1727
vn 1076 -226 0
vn 1190 420 0
vn 560 64 1072
vn 447 -252 1331
vn 654 -888 0
vn 447 -252 -1331
vn 560 64 -1072
vn 581 380 898
vn -880 -228 1015
vn -217 -603 980
vn -212 -724 0
vn -217 -603 -980
vn -880 -228 -1015
vn -892 -202 0
vn -1186 -690 0
vn 0 0 1652
vn 576 0 0
vn 0 0 -1652
vn 0 210 -880
vn -498 -610 0
vn 0 -722 422
vn 498 -610 0
vn 0 -722 -422
vn -576 0 0
vn 0 0 -512
vn 0 0 -256
vn 0 0 -512
vn 0 0 -256
vn 564 140 1968
vn 1056 -36 924
vn 1086 -26 857
vn 312 65 707
vn -715 155 367
vn 411 -253 1109
vn 0 -264 1980
vn 0 302 968
vn 0 -366 1802
vn 477 -361 1095
vn 777 -107 817
vn 1240 131 116
vn 855 -118 -3
vn 1460 -71 -97
vn 1079 125 91
vn 1145 -34 817
vn 1105 59 761
vn 286 172 648
vn -547 255 519
vn -1304 492 -2
vn -1390 215 40
vn -843 -289 77
vn 1410 -175 -124
vn 1331 -511 785
vn 366 -290 1378
vn 0 156 1922
vn -366 -290 1378
vn -411 -253 1109
vn -564 140 1968
vn -477 -361 1095
vn -375 -539 1066
vn 0 -654 1336
vn 375 -539 1066
vn 1246 -886 1278
vn 849 -699 -108
vn 709 -246 -641
vn 1143 218 -1085
vn 987 57 -909
vn 1130 39 -766
vn 1497 -27 -78
vn 1079 149 61
vn 1131 80 753
vn 1127 48 775
vn 309 193 672
vn -336 180 564
vn -1255 433 -12
vn -456 425 -723
vn -691 353 -479
vn 888 -283 -720
vn 1360 -939 -152
vn 989 -475 452
vn 1080 15 1190
vn 260 443 1411
vn -418 629 662
vn 0 608 378
vn 418 629 662
vn -260 443 1411
vn -1080 15 1190
vn -1331 -511 785
vn -1056 -36 924
vn 324 162 642
vn -138 -20 541
vn -1044 -47 934
vn -777 -107 817
vn -1246 -886 1278
vn -396 -1 1541
vn 0 -74 998
vn 396 -1 1541
vn 1096 223 791
vn 1319 -163 -7
vn 1149 -570 -1073
vn 863 44 -1454
vn 418 177 -1133
vn 66 82 -463
vn 949 108 -887
vn 1131 129 -702
vn 1518 -73 -101
vn 1116 178 64
vn 1180 132 754
vn 1094 178 842
vn 316 48 601
vn 183 507 432
vn -85 1082 -77
vn -182 343 -738
vn 121 79 -536
vn 1026 83 -909
vn 62 59 -538
vn 1202 147 -727
vn 1527 140 34
vn 656 637 282
vn 486 161 -754
vn 1116 218 -791
vn 615 609 -381
vn 20 393 -269
vn 744 43 -1590
vn 486 -599 -1124
vn 725 -507 -934
vn 1305 -632 236
vn 983 -251 714
vn 595 -291 1428
vn 192 412 1178
vn -623 608 848
vn 0 1450 -250
vn 623 608 848
vn -192 412 1178
vn -595 -291 1428
vn -983 -251 714
vn -989 -475 452
vn -1360 -939 -152
vn -1410 -175 -124
vn -855 -118 -3
vn 843 -289 77
vn 1832 350 37
vn 405 353 696
vn -117 51 498
vn -1057 69 836
vn -1183 -11 745
vn -1465 -92 93
vn -1071 147 -109
vn -1053 16 -854
vn -1143 218 -1085
vn -1240 131 116
vn -849 -699 -108
vn -1319 -163 -7
vn -1096 223 791
vn -186 465 1316
vn 0 426 1412
vn 186 465 1316
vn 832 291 728
vn 372 872 -144
vn 1212 216 -828
vn 800 75 -1524
vn 482 -210 -845
vn 0 -502 -1856
vn 0 196 -658
vn 0 712 -1574
vn 0 258 -1362
vn 98 429 -1062
vn -993 -388 -349
vn -522 -307 -808
vn 138 31 -1451
vn 1092 -120 -922
vn 1472 -15 -51
vn 914 -300 664
vn 879 -244 638
vn 459 -147 1173
vn -442 -59 1196
vn -1310 -140 419
vn 0 686 -506
vn -98 429 -1062
vn 993 -388 -349
vn 1310 -140 419
vn 442 -59 1196
vn -459 -147 1173
vn -879 -244 638
vn -914 -300 664
vn -1305 -632 236
vn -725 -507 -934
vn -486 -599 -1124
vn -888 -283 -720
vn 633 163 -424
vn 621 242 -589
vn 1277 480 -8
vn 162 366 746
vn -139 75 520
vn -1077 58 854
vn -1182 72 673
vn -418 177 -1133
vn -218 202 -626
vn -863 44 -1454
vn -709 -246 -641
vn -1506 -38 67
vn -1073 164 -71
vn -1012 96 -801
vn -1071 78 -812
vn -211 206 -688
vn -1056 142 -800
vn -1083 71 -830
vn -283 199 -695
vn 353 264 -619
vn 1239 375 4
vn 200 426 141
vn -486 161 754
vn -1132 204 752
vn -1229 125 678
vn -1521 -76 58
vn -1111 179 -100
vn -1524 138 -101
vn -1148 158 -804
vn -1081 194 -872
vn -316 48 -601
vn 19 567 -287
vn -342 1001 64
vn -618 611 372
vn -650 633 -300
vn -27 -653 1027
vn -254 -487 502
vn -255 -1022 1678
vn -668 -572 1202
vn 0 -204 816
vn 770 -879 1604
vn 278 -634 712
vn 145 -809 1238
vn 747 -758 619
vn 531 -1044 -123
vn 977 -788 185
vn 1021 -1037 -871
vn 1195 -1053 -566
vn 558 -987 -1058
vn 617 -378 -546
vn 423 -704 -1313
vn 630 -654 -1147
vn 0 -590 -1196
vn 0 -298 -398
vn -558 -987 -1058
vn -630 -654 -1147
vn -423 -704 -1313
vn -617 -378 -546
vn -1362 -1215 -648
vn -421 -840 -111
vn -1151 -918 -50
vn -747 -758 619
vn -352 -384 352
vn -402 -690 402
vn -1075 -785 969
vn -27 -338 2158
vn 0 -510 682
vn 0 -340 578
vn 1343 -945 1271
vn 402 -690 402
vn 352 -384 352
vn 1407 -965 315
vn 733 -488 481
vn 638 -345 -51
vn 968 -1009 -28
vn 985 -648 -258
vn 1435 -945 -1631
vn 500 -615 -508
vn 561 -334 -483
vn 0 -742 -1064
vn 0 -340 -554
vn -1609 -1108 -1744
vn -500 -615 -508
vn -561 -334 -483
vn -870 -544 -751
vn -638 -345 -51
vn -733 -488 481
vn -1407 -965 315
vn -1154 -1148 -80
vn -1051 -505 -10
vn -980 -21 959
vn 0 502 1574
vn 747 59 873
vn 1660 -57 42
vn 0 152 -1172
vn -1060 535 -685
vn -1421 -60 -53
vn -420 -794 -45
vn -9 -721 326
vn -879 -761 325
vn -857 -1187 -42
vn -836 -834 -337
vn 27 -809 -425
vn 1053 -1022 -52
vn 1085 -1139 565
vn -17 -416 541
vn -990 -679 809
vn -834 -1094 487
vn -589 -792 -9
vn -838 -1134 -473
vn -955 -826 -820
vn 24 -670 -789
vn 895 -1085 -449
vn 1021 -1369 28
vn 453 -515 233
vn 1073 -936 898
vn 906 -437 644
vn -5 -125 562
vn -1135 -386 1159
vn -958 -769 785
vn -1433 -991 -96
vn -833 -636 -666
vn -1112 -680 -1224
vn 187 -429 -799
vn 932 -800 -879
vn 736 -898 -425
vn 1229 -830 26
vn -1145 -384 804
vn -1095 -491 77
vn -1601 -626 -970
vn -643 432 -843
vn 0 118 -800
vn 931 -594 -1070
vn 1036 -773 -744
vn 1086 -507 -66
vn 1354 -514 866
vn 1146 -328 1151
vn -2 53 587
vn -912 0 764
vn -891 -19 1102
vn -1180 540 1030
vn -772 446 835
vn -240 328 526
vn 1008 501 923
vn 1180 540 1030
vn 1087 513 110
vn 1060 535 -685
vn -1090 840 -417
vn 0 1164 -602
vn 0 764 -730
vn -1450 432 -877
vn -1501 672 303
vn -1087 513 110
vn 1090 840 -417
vn 1450 432 -877
vn 0 320 -664
vn 0 -282 -652
vn -1199 -8 -827
vn -1661 -61 -20
vn -1104 304 900
vn -716 498 864
vn -1355 -301 5
vn -1632 -162 -630
vn -943 205 -664
vn -474 635 -897
vn 0 962 -824
vn 643 432 -843
vn 1394 -490 -901
vn 1355 -301 5
vn 1596 -111 694
vn 891 -19 1102
vn 908 19 764
vn 459 209 570
vn -1366 355 1287
vn -1596 -111 694
vn -836 0 0
vn -930 -32 0
vn 0 -242 -914
vn 474 635 -897
vn 943 205 -664
vn 1632 -162 -630
vn 836 0 0
vn 930 -32 0
vn 1661 -61 -20
vn 1104 304 900
vn 902 280 1074
vn 1199 -8 -827
vn 716 498 864
vn 1501 672 303
vn -372 670 0
vn 0 0 0
vn 0 0 0
vn -124 670 248
vn -504 671 636
vn -1140 671 0
vn -248 670 -124
vn -616 -427 -83
vn -676 -335 136
vn -892 -230 205
vn -253 -71 616
vn 0 0 0
vn 0 670 372
vn 0 671 1140
vn 0 -639 1194
vn -764 -842 650
vn -1194 -639 0
vn -636 671 -504
vn 0 670 -372
vn -78 -306 -236
vn -164 -1103 -536
vn -905 -1099 -91
vn -1381 -436 -260
vn -877 -251 82
vn -875 -514 1228
vn 308 -355 990
vn 724 75 481
vn 0 0 0
vn -725 75 481
vn 246 -49 633
vn 0 0 0
vn 248 670 124
vn 636 671 504
vn 650 -842 764
vn 472 -629 1012
vn 0 -639 1194
vn -291 -416 945
vn -1012 -629 472
vn -1194 -639 0
vn -650 -842 -764
vn 0 671 -1140
vn 124 670 -248
vn 78 -306 -236
vn -459 -399 -441
vn 0 0 0
vn 459 -399 -441
vn 707 -1085 -577
vn -71 -947 -214
vn -363 -537 -714
vn -1197 348 -604
vn -1783 -145 518
vn -456 -57 1011
vn 745 -346 1246
vn 1026 -377 467
vn 1015 -213 -266
vn 619 -114 -218
vn 0 0 0
vn -619 -114 -218
vn -1015 -213 -266
vn -1026 -377 467
vn -309 -351 992
vn 869 -492 1245
vn 886 -212 220
vn 0 0 0
vn 372 670 0
vn 1140 671 0
vn 1194 -639 0
vn 1194 -639 0
vn 945 -416 291
vn 618 0 362
vn 181 0 693
vn 0 0 768
vn -362 0 618
vn -693 0 181
vn -768 0 0
vn -945 -416 -291
vn -472 -629 -1524
vn 0 -639 -1194
vn 504 671 -636
vn 616 -427 -83
vn 164 -1103 -536
vn -707 -1085 -577
vn -646 -320 -245
vn 646 -320 -245
vn 1119 -257 -1062
vn 1696 -123 -124
vn 718 294 -835
vn -128 412 -909
vn -337 510 -1315
vn -977 368 -280
vn -1556 -141 449
vn -926 -72 806
vn 76 -88 1251
vn 1041 13 556
vn -1119 -257 -1062
vn -1468 -153 -13
vn -745 -346 1246
vn 456 -57 1011
vn 1783 -145 518
vn 877 -251 82
vn 1381 -436 -260
vn 676 -335 136
vn 0 -639 -1194
vn 764 -842 -650
vn 41 -468 1298
vn -814 -1197 774
vn -48 -380 1106
vn -329 102 1457
vn -248 611 1394
vn -114 287 961
vn 303 -817 1333
vn 357 -696 386
vn 389 -1112 -438
vn -566 -733 -133
vn -364 -389 477
vn 0 -816 1692
vn 0 132 2004
vn -832 291 728
vn -372 872 -144
vn 655 583 1017
vn 83 182 1139
vn -619 268 1181
vn -506 16 928
vn -762 -798 955
vn -225 -961 690
vn 791 -953 435
vn 528 -856 -369
vn 407 -782 -1295
vn 47 -531 -1327
vn -533 -1070 -933
vn -331 -595 -700
vn -305 -898 -1172
vn 0 -806 -1218
vn -66 -51 -244
vn -252 -987 -689
vn -701 -912 -943
vn -396 71 -850
vn 4 307 -937
vn -539 547 -1170
vn -798 166 -1156
vn -379 -638 -1290
vn 0 -778 -1874
vn 0 -568 -840
vn 305 -898 -1172
vn 331 -595 -700
vn 66 -51 -244
vn -289 245 -1039
vn 523 205 -1273
vn -947 453 -670
vn -665 594 -1166
vn -352 230 -1294
vn 0 172 -862
vn 352 230 -1294
vn 379 -638 -1290
vn -1212 216 -828
vn -1149 -570 -1073
vn -800 75 -1524
vn -994 -322 1210
vn -1168 30 217
vn -2067 16 518
vn -468 167 1294
vn 1101 -175 1094
vn -1102 447 -188
vn -1214 254 16
vn -1404 -426 -641
vn -1047 -342 -434
vn -1472 -15 -51
vn 835 38 1094
vn 428 230 599
vn 2032 608 -149
vn 1124 228 -11
vn 1630 -88 -182
vn -848 571 -345
vn -264 400 -1201
vn -105 1251 -559
vn 577 778 -541
vn 934 -60 -881
vn -35 -488 -878
vn -399 -558 -1011
vn -1092 -120 -922
vn -138 31 -1451
vn -744 43 -1590
vn 0 782 -1756
vn 665 594 -1166
vn 798 166 -1156
vn -47 -531 -1327
vn 533 -1070 -933
vn 566 -733 -133
vn -389 -1112 -438
vn 814 -1197 774
vn 364 -389 477
vn 0 -284 408
vn -908 191 -563
vn -163 249 -978
vn 910 672 -472
vn 1030 597 -179
vn 763 -319 -1009
vn 1297 10 69
vn 668 395 -791
vn 522 -307 -808
vn 874 555 -866
vn -61 388 -979
vn 602 141 -769
vn 329 102 1457
vn 248 611 1394
vn -655 583 1017
vn -783 -17 602
vn -969 -403 31
vn -523 205 -1273
vn 539 547 -1170
vn 947 453 -670
vn 0 -24 -982
vn -482 -210 -845
vn -707 269 -28
vn -1137 -786 -14
vn -1027 278 543
vn -951 11 -21
vn -890 285 -585
vn -756 -1138 -16
vn -578 -344 728
vn -1095 -141 -269
vn -266 -440 -708
vn -41 68 1066
vn -1439 374 895
vn -821 107 -393
vn -861 321 -1694
vn 197 -62 -747
vn 217 -594 -939
vn 969 -403 31
vn 783 -17 602
vn 132 -337 1443
vn -235 444 1412
vn -96 -1144 5
vn -1223 119 -720
vn -1013 907 -107
vn -1169 137 57
vn -819 -470 -341
vn -818 -21 95
vn -462 284 644
vn -504 956 483
vn -1186 494 1080
vn -176 621 974
vn -902 -507 458
vn -1201 -660 -543
vn -642 -309 1207
vn 7 366 820
vn -457 -645 -795
vn 291 -416 -1201
vn 1012 -629 -472
vn -41 -468 1298
vn 48 -380 1106
vn -357 -696 386
vn -303 -817 1333
vn 114 287 961
vn -407 -782 -1295
vn 252 -987 -689
vn -528 -856 -369
vn -4 307 -937
vn 396 71 -850
vn 701 -912 -943
vn 756 -1138 -16
vn 96 -1144 5
vn -791 -953 435
vn 289 245 -1039
vn 926 -72 806
vn 1556 -141 449
vn -76 -88 1251
vn 994 -322 1210
vn 1168 30 217
vn 1102 447 -188
vn 908 191 -563
vn 977 368 -280
vn 1197 348 -604
vn 468 167 1294
vn 2067 16 518
vn 1214 254 16
vn 848 571 -345
vn 105 1251 -559
vn 163 249 -978
vn 61 388 -979
vn 337 510 -1315
vn 128 412 -909
vn 363 -537 -714
vn 905 -1099 -91
vn 71 -947 -214
vn 1404 -426 -641
vn 264 400 -1201
vn -577 778 -541
vn -910 672 -472
vn -602 141 -769
vn -631 513 -797
vn -942 336 -951
vn -428 230 599
vn -835 38 1094
vn 1047 -342 -434
vn 693 0 -181
vn 768 0 0
vn 619 268 1181
vn -83 182 1139
vn 235 444 1412
vn -132 -337 1443
vn -1057 -379 -58
vn -217 -594 -939
vn 861 321 -1694
vn -197 -62 -747
vn 266 -440 -708
vn 951 11 -21
vn 890 285 -585
vn -1041 13 556
vn -1871 -55 -258
vn -1101 -175 1094
vn -1124 228 -11
vn -2032 608 -149
vn -1297 10 69
vn -763 -319 -1009
vn -668 395 -791
vn 707 269 -28
vn 1027 278 543
vn 1137 -786 -14
vn 506 16 928
vn 762 -798 955
vn 1095 -141 -269
vn 578 -344 728
vn 41 68 1066
vn 1439 374 895
vn 642 -309 1207
vn 462 284 644
vn -7 366 820
vn 176 621 974
vn 1186 494 1080
vn 1169 137 57
vn 1223 119 -720
vn 819 -470 -341
vn 1201 -660 -543
vn 457 -645 -795
vn -1097 -249 90
vn 225 -961 690
vn 1013 907 -107
vn 818 -21 95
vn 902 -507 458
vn 821 107 -393
vn 504 956 483
vn 399 -558 -1011
vn 35 -488 -878
vn -934 -60 -881
vn -1030 597 -179
vn 0 -545 -1313
vn -182 -363 -801
vn -364 182 -1058
vn 0 545 -1313
vn 364 -182 -1058
vn 182 -363 -1313
vn 0 -544 -1312
vn -364 -181 -1313
vn -182 363 -1313
vn 0 544 -1312
vn 182 363 -801
vn 364 181 -1313
vn 362 0 -1130
vn -181 0 -949
vn 0 0 -768
vn -618 0 -362
vn 0 0 -512
vn 0 0 -256
vn 0 0 -512
vn 0 0 -256
vn 0 0 -512
vn 0 0 -256
vn 0 0 -512
vn 0 0 -256
vn 0 0 -512
vn 0 0 -256
vn 0 0 -512
vn 0 0 -256
vn 0 0 -512
vn 0 0 -256
vn 0 0 -512
vn 0 0 -256
vn 0 0 -512
vn 0 0 -256
vn 0 0 -512
vn 0 0 -256
vn 0 0 -512
vn 0 0 -256
vn 0 0 -512
vn 0 0 -256
vn 0 0 -512
vn 0 0 -256
vn 0 0 -512
vn 0 0 -256
usemtl m0
f 1 2 3

usemtl m1
f 1 3 4

usemtl m2
f 1 4 5

usemtl m3
f 1 5 6

usemtl m4
f 1 6 7

usemtl m5
f 1 7 8

usemtl m6
f 1 8 2

usemtl m7
f 2 8 9

usemtl m8
f 2 9 10

usemtl m9
f 2 10 3

usemtl m10
f 3 10 11

usemtl m11
f 3 11 12

usemtl m12
f 3 12 13

usemtl m13
f 3 13 14

usemtl m14
f 3 14 4

usemtl m15
f 4 14 15

usemtl m16
f 4 15 5

usemtl m17
f 5 15 16

usemtl m18
f 5 16 17

usemtl m19
f 5 17 6

usemtl m20
f 6 17 18

usemtl m21
f 6 18 19

usemtl m22
f 6 19 7

usemtl m23
f 7 19 20

usemtl m24
f 7 20 21

usemtl m25
f 7 21 8

usemtl m26
f 8 21 22

usemtl m27
f 8 22 9

usemtl m28
f 9 22 23

usemtl m29
f 9 23 24

usemtl m30
f 9 24 10

usemtl m31
f 10 24 25

usemtl m32
f 10 25 26

usemtl m33
f 10 26 11

usemtl m34
f 11 26 12

usemtl m35
f 12 26 27

usemtl m36
f 12 27 28

usemtl m37
f 12 28 29

usemtl m38
f 12 29 30

usemtl m39
f 12 30 13

usemtl m40
f 13 30 14

usemtl m41
f 14 30 31

usemtl m42
f 14 31 15

usemtl m43
f 15 31 32

usemtl m44
f 15 32 33

usemtl m45
f 15 33 34

usemtl m46
f 15 34 35

usemtl m47
f 15 35 16

usemtl m48
f 16 35 36

usemtl m49
f 16 36 17

usemtl m50
f 17 36 37

usemtl m51
f 17 37 38

usemtl m52
f 17 38 18

usemtl m53
f 18 38 39

usemtl m54
f 18 39 19

usemtl m55
f 19 39 40

usemtl m56
f 19 40 20

usemtl m57
f 20 40 41

usemtl m58
f 20 41 42

usemtl m59
f 20 42 21

usemtl m60
f 21 42 43

usemtl m61
f 21 43 22

usemtl m62
f 22 43 44

usemtl m63
f 22 44 45

usemtl m64
f 22 45 23

usemtl m65
f 23 45 46

usemtl m66
f 23 46 47

usemtl m67
f 23 47 24

usemtl m68
f 24 47 48

usemtl m69
f 24 48 25

usemtl m70
f 25 48 49

usemtl m71
f 25 49 26

usemtl m72
f 26 49 50

usemtl m73
f 26 50 51

usemtl m74
f 26 51 27

usemtl m75
f 27 51 52

usemtl m76
f 27 52 53

usemtl m77
f 27 53 28

usemtl m78
f 28 53 54

usemtl m79
f 28 54 55

usemtl m80
f 28 55 29

usemtl m81
f 29 55 56

usemtl m82
f 29 56 30

usemtl m83
f 30 56 57

usemtl m84
f 30 57 31

usemtl m85
f 31 57 58

usemtl m86
f 31 58 32

usemtl m87
f 32 58 59

usemtl m88
f 32 59 60

usemtl m89
f 32 60 33

usemtl m90
f 33 60 61

usemtl m91
f 33 61 62

usemtl m92
f 33 62 63

usemtl m93
f 33 63 34

usemtl m94
f 34 63 35

usemtl m95
f 35 63 64

usemtl m96
f 35 64 65

usemtl m97
f 35 65 36

usemtl m98
f 36 65 66

usemtl m99
f 36 66 67

usemtl m100
f 36 67 37

usemtl m101
f 37 67 50

usemtl m102
f 37 50 38

usemtl m103
f 38 50 49

usemtl m104
f 38 49 68

usemtl m105
f 38 68 39

usemtl m106
f 39 68 69

usemtl m107
f 39 69 40

usemtl m108
f 40 69 70

usemtl m109
f 40 70 41

usemtl m110
f 41 70 71

usemtl m111
f 41 71 72

usemtl m112
f 41 72 73

usemtl m113
f 41 73 42

usemtl m114
f 42 73 74

usemtl m115
f 42 74 43

usemtl m116
f 43 74 75

usemtl m117
f 43 75 44

usemtl m118
f 44 75 76

usemtl m119
f 44 76 45

usemtl m120
f 45 76 77

usemtl m121
f 45 77 46

usemtl m122
f 46 77 78

usemtl m123
f 46 78 79

usemtl m124
f 46 79 47

usemtl m125
f 47 79 80

usemtl m126
f 47 80 48

usemtl m127
f 48 80 68

usemtl m128
f 48 68 49

usemtl m129
f 81 82 83

usemtl m130
f 81 83 84

usemtl m131
f 81 84 85

usemtl m132
f 81 85 86

usemtl m133
f 81 86 82

usemtl m134
f 82 86 60

usemtl m135
f 82 60 87

usemtl m136
f 82 87 54

usemtl m137
f 82 54 83

usemtl m138
f 83 54 88

usemtl m139
f 83 88 89

usemtl m140
f 83 89 84

usemtl m141
f 84 89 90

usemtl m142
f 84 90 91

usemtl m143
f 84 91 85

usemtl m144
f 85 91 92

usemtl m145
f 85 92 93

usemtl m146
f 85 93 86

usemtl m147
f 86 93 94

usemtl m148
f 86 94 95

usemtl m149
f 86 95 96

usemtl m150
f 86 96 61

usemtl m151
f 86 61 60

usemtl m152
f 97 88 53

usemtl m153
f 97 53 98

usemtl m154
f 97 98 99

usemtl m155
f 97 99 100

usemtl m156
f 97 100 88

usemtl m157
f 88 100 89

usemtl m158
f 89 100 101

usemtl m159
f 89 101 90

usemtl m160
f 90 101 102

usemtl m161
f 90 102 103

usemtl m162
f 90 103 104

usemtl m163
f 90 104 91

usemtl m164
f 91 104 105

usemtl m165
f 91 105 92

usemtl m166
f 92 105 106

usemtl m167
f 92 106 107

usemtl m168
f 92 107 93

usemtl m169
f 93 107 108

usemtl m170
f 93 108 94

usemtl m171
f 94 108 109

usemtl m172
f 94 109 95

usemtl m173
f 95 109 110

usemtl m174
f 95 110 111

usemtl m175
f 95 111 96

usemtl m176
f 96 111 62

usemtl m177
f 96 62 61

usemtl m178
f 98 53 112

usemtl m179
f 98 112 109

usemtl m180
f 98 109 113

usemtl m181
f 98 113 99

usemtl m182
f 99 113 114

usemtl m183
f 99 114 115

usemtl m184
f 99 115 100

usemtl m185
f 100 115 101

usemtl m186
f 101 115 116

usemtl m187
f 101 116 102

usemtl m188
f 102 116 117

usemtl m189
f 102 117 118

usemtl m190
f 102 118 103

usemtl m191
f 103 118 119

usemtl m192
f 103 119 104

usemtl m193
f 104 119 120

usemtl m194
f 104 120 105

usemtl m195
f 105 120 121

usemtl m196
f 105 121 106

usemtl m197
f 106 121 122

usemtl m198
f 106 122 123

usemtl m199
f 106 123 124

usemtl m200
f 106 124 107

usemtl m201
f 107 124 125

usemtl m202
f 107 125 108

usemtl m203
f 108 125 113

usemtl m204
f 108 113 109

usemtl m205
f 109 112 126

usemtl m206
f 109 126 110

usemtl m207
f 110 126 127

usemtl m208
f 110 127 65

usemtl m209
f 110 65 111

usemtl m210
f 111 65 128

usemtl m211
f 111 128 62

usemtl m212
f 62 128 63

usemtl m213
f 63 128 64

usemtl m214
f 64 128 65

usemtl m215
f 54 87 129

usemtl m216
f 54 129 55

usemtl m217
f 55 129 130

usemtl m218
f 55 130 56

usemtl m219
f 56 130 57

usemtl m220
f 57 130 131

usemtl m221
f 57 131 58

usemtl m222
f 58 131 59

usemtl m223
f 59 131 87

usemtl m224
f 59 87 60

usemtl m225
f 126 132 127

usemtl m226
f 127 132 133

usemtl m227
f 127 133 66

usemtl m228
f 127 66 65

usemtl m229
f 87 131 129

usemtl m230
f 129 131 130

usemtl m231
f 54 53 88

usemtl m232
f 66 134 67

usemtl m233
f 67 134 50

usemtl m234
f 50 134 51

usemtl m235
f 51 134 135

usemtl m236
f 51 135 136

usemtl m237
f 51 136 52

usemtl m238
f 52 136 112

usemtl m239
f 52 112 53

usemtl m240
f 135 134 133

usemtl m241
f 135 133 132

usemtl m242
f 135 132 136

usemtl m243
f 136 132 112

usemtl m244
f 112 132 126

usemtl m245
f 66 133 134

usemtl m246
f 137 138 139

usemtl m247
f 137 139 140

usemtl m248
f 137 140 141

usemtl m249
f 137 141 138

usemtl m250
f 138 141 142

usemtl m251
f 138 142 143

usemtl m252
f 138 143 144

usemtl m253
f 138 144 145

usemtl m254
f 138 145 146

usemtl m255
f 138 146 139

usemtl m256
f 139 146 147

usemtl m257
f 139 147 148

usemtl m258
f 139 148 140

usemtl m259
f 140 148 149

usemtl m260
f 140 149 150

usemtl m261
f 140 150 141

usemtl m262
f 141 150 151

usemtl m263
f 141 151 142

usemtl m264
f 142 151 143

usemtl m265
f 143 151 152

usemtl m266
f 143 152 153

usemtl m267
f 143 153 144

usemtl m268
f 144 153 145

usemtl m269
f 145 153 154

usemtl m270
f 145 154 147

usemtl m271
f 145 147 146

usemtl m272
f 155 156 157

usemtl m273
f 155 157 158

usemtl m274
f 155 158 159

usemtl m275
f 155 159 156

usemtl m276
f 156 159 160

usemtl m277
f 156 160 161

usemtl m278
f 156 161 162

usemtl m279
f 156 162 157

usemtl m280
f 157 162 163

usemtl m281
f 157 163 164

usemtl m282
f 157 164 165

usemtl m283
f 157 165 166

usemtl m284
f 157 166 158

usemtl m285
f 158 166 167

usemtl m286
f 158 167 168

usemtl m287
f 158 168 159

usemtl m288
f 159 168 169

usemtl m289
f 159 169 160

usemtl m290
f 160 169 170

usemtl m291
f 160 170 171

usemtl m292
f 160 171 172

usemtl m293
f 160 172 173

usemtl m294
f 160 173 161

usemtl m295
f 161 173 174

usemtl m296
f 161 174 163

usemtl m297
f 161 163 162

usemtl m298
f 165 175 167

usemtl m299
f 165 167 166

usemtl m300
f 165 164 176

usemtl m301
f 165 176 175

usemtl m302
f 175 176 177

usemtl m303
f 175 177 178

usemtl m304
f 175 178 179

usemtl m305
f 175 179 167

usemtl m306
f 167 179 180

usemtl m307
f 167 180 168

usemtl m308
f 168 180 169

usemtl m309
f 169 180 181

usemtl m310
f 169 181 182

usemtl m311
f 169 182 183

usemtl m312
f 169 183 170

usemtl m313
f 170 183 149

usemtl m314
f 170 149 148

usemtl m315
f 170 148 184

usemtl m316
f 170 184 185

usemtl m317
f 170 185 186

usemtl m318
f 170 186 187

usemtl m319
f 170 187 171

usemtl m320
f 171 187 172

usemtl m321
f 172 187 188

usemtl m322
f 172 188 185

usemtl m323
f 172 185 184

usemtl m324
f 172 184 148

usemtl m325
f 172 148 189

usemtl m326
f 172 189 190

usemtl m327
f 172 190 173

usemtl m328
f 173 190 191

usemtl m329
f 173 191 192

usemtl m330
f 173 192 193

usemtl m331
f 173 193 174

usemtl m332
f 174 193 176

usemtl m333
f 174 176 163

usemtl m334
f 163 176 164

usemtl m335
f 186 185 194

usemtl m336
f 186 194 187

usemtl m337
f 187 194 188

usemtl m338
f 188 194 185

usemtl m339
f 195 196 197

usemtl m340
f 195 197 198

usemtl m341
f 195 198 179

usemtl m342
f 195 179 178

usemtl m343
f 195 178 199

usemtl m344
f 195 199 196

usemtl m345
f 196 199 200

usemtl m346
f 196 200 201

usemtl m347
f 196 201 202

usemtl m348
f 196 202 203

usemtl m349
f 196 203 152

usemtl m350
f 196 152 197

usemtl m351
f 197 152 151

usemtl m352
f 197 151 204

usemtl m353
f 197 204 198

usemtl m354
f 198 204 205

usemtl m355
f 198 205 206

usemtl m356
f 198 206 207

usemtl m357
f 198 207 180

usemtl m358
f 198 180 179

usemtl m359
f 182 208 149

usemtl m360
f 182 149 183

usemtl m361
f 209 210 211

usemtl m362
f 209 211 212

usemtl m363
f 209 212 213

usemtl m364
f 209 213 214

usemtl m365
f 209 214 215

usemtl m366
f 209 215 210

usemtl m367
f 210 215 216

usemtl m368
f 210 216 217

usemtl m369
f 210 217 205

usemtl m370
f 210 205 211

usemtl m371
f 211 205 218

usemtl m372
f 211 218 212

usemtl m373
f 212 218 219

usemtl m374
f 212 219 220

usemtl m375
f 212 220 213

usemtl m376
f 213 220 207

usemtl m377
f 213 207 214

usemtl m378
f 214 207 221

usemtl m379
f 214 221 222

usemtl m380
f 214 222 215

usemtl m381
f 215 222 223

usemtl m382
f 215 223 216

usemtl m383
f 216 223 224

usemtl m384
f 216 224 217

usemtl m385
f 217 224 225

usemtl m386
f 217 225 206

usemtl m387
f 217 206 205

usemtl m388
f 219 218 208

usemtl m389
f 219 208 182

usemtl m390
f 219 182 181

usemtl m391
f 219 181 220

usemtl m392
f 220 181 207

usemtl m393
f 207 181 180

usemtl m394
f 203 202 226

usemtl m395
f 203 226 227

usemtl m396
f 203 227 153

usemtl m397
f 203 153 152

usemtl m398
f 191 190 189

usemtl m399
f 191 189 228

usemtl m400
f 191 228 229

usemtl m401
f 191 229 192

usemtl m402
f 192 229 230

usemtl m403
f 192 230 231

usemtl m404
f 192 231 193

usemtl m405
f 193 231 226

usemtl m406
f 193 226 177

usemtl m407
f 193 177 176

usemtl m408
f 226 232 233

usemtl m409
f 226 233 227

usemtl m410
f 227 233 228

usemtl m411
f 227 228 189

usemtl m412
f 227 189 154

usemtl m413
f 227 154 153

usemtl m414
f 234 235 236

usemtl m415
f 234 236 237

usemtl m416
f 234 237 238

usemtl m417
f 234 238 239

usemtl m418
f 234 239 240

usemtl m419
f 234 240 235

usemtl m420
f 235 240 230

usemtl m421
f 235 230 229

usemtl m422
f 235 229 241

usemtl m423
f 235 241 236

usemtl m424
f 236 241 233

usemtl m425
f 236 233 237

usemtl m426
f 237 233 242

usemtl m427
f 237 242 243

usemtl m428
f 237 243 238

usemtl m429
f 238 243 244

usemtl m430
f 238 244 245

usemtl m431
f 238 245 239

usemtl m432
f 239 245 246

usemtl m433
f 239 246 231

usemtl m434
f 239 231 240

usemtl m435
f 240 231 230

usemtl m436
f 232 247 242

usemtl m437
f 232 242 233

usemtl m438
f 229 228 241

usemtl m439
f 241 228 233

usemtl m440
f 248 243 242

usemtl m441
f 248 242 247

usemtl m442
f 248 247 246

usemtl m443
f 248 246 245

usemtl m444
f 248 245 244

usemtl m445
f 248 244 243

usemtl m446
f 206 225 221

usemtl m447
f 206 221 207

usemtl m448
f 224 222 221

usemtl m449
f 224 221 225

usemtl m450
f 202 178 177

usemtl m451
f 202 177 226

usemtl m452
f 226 231 232

usemtl m453
f 232 231 246

usemtl m454
f 232 246 247

usemtl m455
f 223 222 224

usemtl m456
f 208 205 204

usemtl m457
f 208 204 149

usemtl m458
f 149 204 150

usemtl m459
f 150 204 151

usemtl m460
f 208 218 205

usemtl m461
f 148 147 189

usemtl m462
f 189 147 154

usemtl m463
f 200 199 249

usemtl m464
f 200 249 201

usemtl m465
f 201 249 250

usemtl m466
f 201 250 251

usemtl m467
f 201 251 252

usemtl m468
f 201 252 178

usemtl m469
f 201 178 202

usemtl m470
f 249 253 254

usemtl m471
f 249 254 255

usemtl m472
f 249 255 250

usemtl m473
f 250 255 251

usemtl m474
f 251 255 256

usemtl m475
f 251 256 253

usemtl m476
f 251 253 257

usemtl m477
f 251 257 199

usemtl m478
f 251 199 252

usemtl m479
f 252 199 178

usemtl m480
f 199 257 249

usemtl m481
f 249 257 253

usemtl m482
f 255 254 256

usemtl m483
f 256 254 253

usemtl m484
f 258 259 260

usemtl m485
f 258 260 261

usemtl m486
f 262 263 264

usemtl m487
f 262 264 265

usemtl m488
f 262 265 266

usemtl m489
f 262 266 263

usemtl m490
f 262 263 267

usemtl m491
f 262 267 268

usemtl m492
f 262 268 269

usemtl m493
f 262 269 270

usemtl m494
f 262 270 271

usemtl m495
f 262 271 272

usemtl m496
f 262 272 263

usemtl m497
f 263 272 273

usemtl m498
f 263 273 274

usemtl m499
f 263 274 275

usemtl m500
f 263 275 264

usemtl m501
f 264 275 276

usemtl m502
f 264 276 277

usemtl m503
f 264 277 265

usemtl m504
f 265 277 266

usemtl m505
f 266 277 278

usemtl m506
f 266 278 279

usemtl m507
f 266 279 280

usemtl m508
f 266 280 281

usemtl m509
f 266 281 282

usemtl m510
f 266 282 263

usemtl m511
f 263 282 283

usemtl m512
f 263 283 274

usemtl m513
f 263 274 284

usemtl m514
f 263 284 285

usemtl m515
f 263 285 267

usemtl m516
f 267 285 286

usemtl m517
f 267 286 268

usemtl m518
f 268 286 287

usemtl m519
f 268 287 288

usemtl m520
f 268 288 289

usemtl m521
f 268 289 290

usemtl m522
f 268 290 269

usemtl m523
f 269 290 270

usemtl m524
f 270 290 291

usemtl m525
f 270 291 292

usemtl m526
f 270 292 293

usemtl m527
f 270 293 294

usemtl m528
f 270 294 271

usemtl m529
f 271 294 295

usemtl m530
f 271 295 272

usemtl m531
f 272 295 273

usemtl m532
f 273 295 296

usemtl m533
f 273 296 297

usemtl m534
f 273 297 298

usemtl m535
f 273 298 274

usemtl m536
f 274 298 275

usemtl m537
f 275 298 299

usemtl m538
f 275 299 300

usemtl m539
f 275 300 276

usemtl m540
f 276 300 301

usemtl m541
f 276 301 277

usemtl m542
f 277 301 278

usemtl m543
f 278 301 302

usemtl m544
f 278 302 303

usemtl m545
f 278 303 279

usemtl m546
f 279 303 280

usemtl m547
f 280 303 304

usemtl m548
f 280 304 305

usemtl m549
f 280 305 306

usemtl m550
f 280 306 307

usemtl m551
f 280 307 281

usemtl m552
f 281 307 308

usemtl m553
f 281 308 309

usemtl m554
f 281 309 282

usemtl m555
f 282 309 298

usemtl m556
f 282 298 283

usemtl m557
f 283 298 274

usemtl m558
f 274 298 284

usemtl m559
f 284 298 310

usemtl m560
f 284 310 311

usemtl m561
f 284 311 285

usemtl m562
f 285 311 312

usemtl m563
f 285 312 313

usemtl m564
f 285 313 286

usemtl m565
f 286 313 314

usemtl m566
f 286 314 287

usemtl m567
f 287 314 315

usemtl m568
f 287 315 316

usemtl m569
f 287 316 317

usemtl m570
f 287 317 318

usemtl m571
f 287 318 288

usemtl m572
f 288 318 319

usemtl m573
f 288 319 320

usemtl m574
f 288 320 289

usemtl m575
f 289 320 321

usemtl m576
f 289 321 290

usemtl m577
f 290 321 322

usemtl m578
f 290 322 323

usemtl m579
f 290 323 324

usemtl m580
f 290 324 321

usemtl m581
f 290 321 325

usemtl m582
f 290 325 291

usemtl m583
f 291 325 326

usemtl m584
f 291 326 292

usemtl m585
f 292 326 327

usemtl m586
f 292 327 293

usemtl m587
f 293 327 328

usemtl m588
f 293 328 329

usemtl m589
f 293 329 294

usemtl m590
f 294 329 295

usemtl m591
f 295 329 330

usemtl m592
f 295 330 331

usemtl m593
f 295 331 296

usemtl m594
f 296 331 332

usemtl m595
f 296 332 297

usemtl m596
f 297 332 333

usemtl m597
f 297 333 298

usemtl m598
f 298 333 334

usemtl m599
f 298 334 299

usemtl m600
f 299 334 335

usemtl m601
f 299 335 309

usemtl m602
f 299 309 300

usemtl m603
f 300 309 336

usemtl m604
f 300 336 301

usemtl m605
f 301 336 337

usemtl m606
f 301 337 302

usemtl m607
f 302 337 338

usemtl m608
f 302 338 303

usemtl m609
f 303 338 304

usemtl m610
f 304 338 339

usemtl m611
f 304 339 340

usemtl m612
f 304 340 305

usemtl m613
f 305 340 306

usemtl m614
f 306 340 341

usemtl m615
f 306 341 342

usemtl m616
f 306 342 343

usemtl m617
f 306 343 344

usemtl m618
f 306 344 307

usemtl m619
f 307 344 345

usemtl m620
f 307 345 308

usemtl m621
f 308 345 346

usemtl m622
f 308 346 347

usemtl m623
f 308 347 337

usemtl m624
f 308 337 336

usemtl m625
f 308 336 348

usemtl m626
f 308 348 309

usemtl m627
f 309 348 336

usemtl m628
f 337 347 338

usemtl m629
f 338 347 349

usemtl m630
f 338 349 339

usemtl m631
f 339 349 350

usemtl m632
f 339 350 340

usemtl m633
f 340 350 341

usemtl m634
f 341 350 351

usemtl m635
f 341 351 343

usemtl m636
f 341 343 342

usemtl m637
f 345 352 353

usemtl m638
f 345 353 349

usemtl m639
f 345 349 347

usemtl m640
f 345 347 346

usemtl m641
f 349 353 350

usemtl m642
f 350 353 344

usemtl m643
f 350 344 351

usemtl m644
f 351 344 343

usemtl m645
f 354 353 352

usemtl m646
f 354 352 355

usemtl m647
f 354 355 344

usemtl m648
f 354 344 353

usemtl m649
f 334 309 335

usemtl m650
f 309 334 298

usemtl m651
f 298 334 356

usemtl m652
f 298 356 310

usemtl m653
f 310 356 357

usemtl m654
f 310 357 311

usemtl m655
f 311 357 358

usemtl m656
f 311 358 359

usemtl m657
f 311 359 312

usemtl m658
f 312 359 360

usemtl m659
f 312 360 313

usemtl m660
f 313 360 361

usemtl m661
f 313 361 362

usemtl m662
f 313 362 314

usemtl m663
f 314 362 363

usemtl m664
f 314 363 315

usemtl m665
f 315 363 364

usemtl m666
f 315 364 316

usemtl m667
f 316 364 317

usemtl m668
f 317 364 365

usemtl m669
f 317 365 318

usemtl m670
f 318 365 366

usemtl m671
f 318 366 319

usemtl m672
f 319 366 367

usemtl m673
f 319 367 368

usemtl m674
f 319 368 369

usemtl m675
f 319 369 320

usemtl m676
f 320 369 370

usemtl m677
f 320 370 371

usemtl m678
f 320 371 321

usemtl m679
f 321 371 372

usemtl m680
f 321 372 373

usemtl m681
f 321 373 374

usemtl m682
f 321 374 322

usemtl m683
f 322 374 375

usemtl m684
f 322 375 376

usemtl m685
f 322 376 377

usemtl m686
f 322 377 378

usemtl m687
f 322 378 324

usemtl m688
f 322 324 323

usemtl m689
f 344 355 345

usemtl m690
f 345 355 352

usemtl m691
f 379 321 324

usemtl m692
f 379 324 378

usemtl m693
f 379 378 380

usemtl m694
f 379 380 381

usemtl m695
f 379 381 382

usemtl m696
f 379 382 372

usemtl m697
f 379 372 321

usemtl m698
f 321 372 383

usemtl m699
f 321 383 325

usemtl m700
f 325 383 326

usemtl m701
f 326 383 384

usemtl m702
f 326 384 385

usemtl m703
f 326 385 386

usemtl m704
f 326 386 327

usemtl m705
f 327 386 387

usemtl m706
f 327 387 388

usemtl m707
f 327 388 328

usemtl m708
f 328 388 329

usemtl m709
f 329 388 389

usemtl m710
f 329 389 330

usemtl m711
f 330 389 390

usemtl m712
f 330 390 391

usemtl m713
f 330 391 331

usemtl m714
f 331 391 392

usemtl m715
f 331 392 332

usemtl m716
f 332 392 393

usemtl m717
f 332 393 394

usemtl m718
f 332 394 333

usemtl m719
f 333 394 395

usemtl m720
f 333 395 396

usemtl m721
f 333 396 397

usemtl m722
f 333 397 334

usemtl m723
f 334 397 356

usemtl m724
f 356 397 398

usemtl m725
f 356 398 399

usemtl m726
f 356 399 357

usemtl m727
f 357 399 400

usemtl m728
f 357 400 401

usemtl m729
f 357 401 358

usemtl m730
f 358 401 402

usemtl m731
f 358 402 403

usemtl m732
f 358 403 359

usemtl m733
f 359 403 404

usemtl m734
f 359 404 405

usemtl m735
f 359 405 360

usemtl m736
f 360 405 361

usemtl m737
f 361 405 406

usemtl m738
f 361 406 407

usemtl m739
f 361 407 408

usemtl m740
f 361 408 362

usemtl m741
f 362 408 363

usemtl m742
f 363 408 409

usemtl m743
f 363 409 364

usemtl m744
f 364 409 400

usemtl m745
f 364 400 399

usemtl m746
f 364 399 410

usemtl m747
f 364 410 411

usemtl m748
f 364 411 412

usemtl m749
f 364 412 413

usemtl m750
f 364 413 365

usemtl m751
f 365 413 414

usemtl m752
f 365 414 366

usemtl m753
f 366 414 367

usemtl m754
f 367 414 415

usemtl m755
f 367 415 416

usemtl m756
f 367 416 417

usemtl m757
f 367 417 368

usemtl m758
f 368 417 418

usemtl m759
f 368 418 369

usemtl m760
f 369 418 370

usemtl m761
f 370 418 419

usemtl m762
f 370 419 420

usemtl m763
f 370 420 421

usemtl m764
f 370 421 371

usemtl m765
f 371 421 382

usemtl m766
f 371 382 372

usemtl m767
f 372 382 373

usemtl m768
f 373 382 374

usemtl m769
f 374 382 422

usemtl m770
f 374 422 423

usemtl m771
f 374 423 424

usemtl m772
f 374 424 375

usemtl m773
f 375 424 425

usemtl m774
f 375 425 426

usemtl m775
f 375 426 427

usemtl m776
f 375 427 428

usemtl m777
f 375 428 377

usemtl m778
f 375 377 376

usemtl m779
f 429 381 430

usemtl m780
f 429 430 422

usemtl m781
f 429 422 382

usemtl m782
f 429 382 381

usemtl m783
f 382 429 431

usemtl m784
f 382 431 432

usemtl m785
f 382 432 383

usemtl m786
f 382 383 372

usemtl m787
f 433 378 377

usemtl m788
f 433 377 428

usemtl m789
f 433 428 434

usemtl m790
f 433 434 435

usemtl m791
f 433 435 436

usemtl m792
f 433 436 380

usemtl m793
f 433 380 378

usemtl m794
f 422 435 437

usemtl m795
f 422 437 423

usemtl m796
f 423 437 438

usemtl m797
f 423 438 439

usemtl m798
f 423 439 440

usemtl m799
f 423 440 441

usemtl m800
f 423 441 424

usemtl m801
f 424 441 442

usemtl m802
f 424 442 425

usemtl m803
f 425 442 443

usemtl m804
f 425 443 444

usemtl m805
f 425 444 445

usemtl m806
f 425 445 446

usemtl m807
f 425 446 427

usemtl m808
f 425 427 426

usemtl m809
f 422 436 435

usemtl m810
f 436 422 430

usemtl m811
f 436 430 381

usemtl m812
f 436 381 380

usemtl m813
f 447 428 427

usemtl m814
f 447 427 446

usemtl m815
f 447 446 448

usemtl m816
f 447 448 439

usemtl m817
f 447 439 438

usemtl m818
f 447 438 434

usemtl m819
f 447 434 428

usemtl m820
f 446 449 448

usemtl m821
f 448 449 450

usemtl m822
f 448 450 439

usemtl m823
f 439 450 440

usemtl m824
f 440 450 441

usemtl m825
f 441 450 451

usemtl m826
f 441 451 452

usemtl m827
f 441 452 453

usemtl m828
f 441 453 442

usemtl m829
f 442 453 454

usemtl m830
f 442 454 443

usemtl m831
f 443 454 455

usemtl m832
f 443 455 444

usemtl m833
f 444 455 445

usemtl m834
f 445 455 454

usemtl m835
f 445 454 449

usemtl m836
f 445 449 446

usemtl m837
f 450 449 451

usemtl m838
f 451 449 456

usemtl m839
f 451 456 453

usemtl m840
f 451 453 452

usemtl m841
f 438 437 435

usemtl m842
f 438 435 434

usemtl m843
f 449 454 456

usemtl m844
f 456 454 453

usemtl m845
f 457 458 459

usemtl m846
f 457 459 460

usemtl m847
f 457 460 461

usemtl m848
f 457 461 462

usemtl m849
f 457 462 463

usemtl m850
f 463 462 464

usemtl m851
f 463 464 465

usemtl m852
f 463 465 466

usemtl m853
f 466 465 467

usemtl m854
f 466 467 468

usemtl m855
f 466 468 469

usemtl m856
f 466 469 470

usemtl m857
f 470 469 471

usemtl m858
f 470 471 472

usemtl m859
f 470 472 473

usemtl m860
f 470 473 474

usemtl m861
f 470 474 475

usemtl m862
f 475 474 476

usemtl m863
f 476 474 477

usemtl m864
f 476 477 478

usemtl m865
f 476 478 479

usemtl m866
f 476 479 480

usemtl m867
f 476 480 481

usemtl m868
f 481 480 482

usemtl m869
f 481 482 483

usemtl m870
f 481 483 458

usemtl m871
f 458 483 459

usemtl m872
f 459 483 484

usemtl m873
f 459 484 485

usemtl m874
f 459 485 486

usemtl m875
f 459 486 487

usemtl m876
f 459 487 460

usemtl m877
f 460 487 488

usemtl m878
f 460 488 489

usemtl m879
f 460 489 461

usemtl m880
f 461 489 462

usemtl m881
f 462 489 488

usemtl m882
f 462 488 487

usemtl m883
f 462 487 490

usemtl m884
f 462 490 464

usemtl m885
f 464 490 491

usemtl m886
f 464 491 492

usemtl m887
f 464 492 465

usemtl m888
f 465 492 493

usemtl m889
f 465 493 467

usemtl m890
f 467 493 494

usemtl m891
f 467 494 495

usemtl m892
f 467 495 468

usemtl m893
f 468 495 496

usemtl m894
f 468 496 497

usemtl m895
f 468 497 498

usemtl m896
f 468 498 469

usemtl m897
f 469 498 499

usemtl m898
f 469 499 500

usemtl m899
f 469 500 471

usemtl m900
f 471 500 472

usemtl m901
f 472 500 499

usemtl m902
f 472 499 498

usemtl m903
f 472 498 473

usemtl m904
f 473 498 501

usemtl m905
f 473 501 502

usemtl m906
f 473 502 474

usemtl m907
f 474 502 477

usemtl m908
f 477 502 501

usemtl m909
f 477 501 503

usemtl m910
f 477 503 478

usemtl m911
f 478 503 504

usemtl m912
f 478 504 505

usemtl m913
f 478 505 479

usemtl m914
f 479 505 480

usemtl m915
f 480 505 504

usemtl m916
f 480 504 503

usemtl m917
f 480 503 506

usemtl m918
f 480 506 482

usemtl m919
f 482 506 507

usemtl m920
f 482 507 508

usemtl m921
f 482 508 509

usemtl m922
f 482 509 483

usemtl m923
f 483 509 484

usemtl m924
f 484 509 485

usemtl m925
f 485 509 486

usemtl m926
f 486 509 510

usemtl m927
f 486 510 511

usemtl m928
f 486 511 512

usemtl m929
f 486 512 487

usemtl m930
f 487 512 513

usemtl m931
f 487 513 514

usemtl m932
f 487 514 490

usemtl m933
f 490 514 515

usemtl m934
f 490 515 497

usemtl m935
f 490 497 496

usemtl m936
f 490 496 493

usemtl m937
f 490 493 491

usemtl m938
f 491 493 492

usemtl m939
f 501 516 503

usemtl m940
f 503 516 517

usemtl m941
f 503 517 518

usemtl m942
f 503 518 511

usemtl m943
f 503 511 510

usemtl m944
f 503 510 506

usemtl m945
f 506 510 507

usemtl m946
f 507 510 508

usemtl m947
f 508 510 509

usemtl m948
f 519 520 521

usemtl m949
f 519 521 522

usemtl m950
f 519 522 523

usemtl m951
f 519 523 524

usemtl m952
f 519 524 525

usemtl m953
f 519 525 520

usemtl m954
f 520 525 526

usemtl m955
f 520 526 527

usemtl m956
f 520 527 528

usemtl m957
f 520 528 521

usemtl m958
f 521 528 529

usemtl m959
f 521 529 522

usemtl m960
f 522 529 530

usemtl m961
f 522 530 531

usemtl m962
f 522 531 523

usemtl m963
f 523 531 532

usemtl m964
f 523 532 524

usemtl m965
f 524 532 533

usemtl m966
f 524 533 534

usemtl m967
f 524 534 525

usemtl m968
f 525 534 535

usemtl m969
f 525 535 526

usemtl m970
f 526 535 536

usemtl m971
f 526 536 537

usemtl m972
f 526 537 538

usemtl m973
f 526 538 527

usemtl m974
f 527 538 539

usemtl m975
f 527 539 540

usemtl m976
f 527 540 528

usemtl m977
f 528 540 541

usemtl m978
f 528 541 529

usemtl m979
f 529 541 542

usemtl m980
f 529 542 530

usemtl m981
f 530 542 531

usemtl m982
f 531 542 543

usemtl m983
f 531 543 532

usemtl m984
f 532 543 544

usemtl m985
f 532 544 533

usemtl m986
f 533 544 545

usemtl m987
f 533 545 546

usemtl m988
f 533 546 534

usemtl m989
f 534 546 547

usemtl m990
f 534 547 535

usemtl m991
f 535 547 548

usemtl m992
f 535 548 537

usemtl m993
f 535 537 536

usemtl m994
f 541 549 550

usemtl m995
f 541 550 542

usemtl m996
f 542 550 551

usemtl m997
f 542 551 543

usemtl m998
f 543 551 544

usemtl m999
f 544 551 552

usemtl m1000
f 544 552 553

usemtl m1001
f 544 553 545

usemtl m1002
f 545 553 554

usemtl m1003
f 545 554 546

usemtl m1004
f 546 554 555

usemtl m1005
f 546 555 547

usemtl m1006
f 547 555 548

usemtl m1007
f 548 555 556

usemtl m1008
f 548 556 557

usemtl m1009
f 548 557 537

usemtl m1010
f 537 557 558

usemtl m1011
f 537 558 538

usemtl m1012
f 538 558 539

usemtl m1013
f 539 558 559

usemtl m1014
f 539 559 560

usemtl m1015
f 539 560 540

usemtl m1016
f 540 560 561

usemtl m1017
f 540 561 549

usemtl m1018
f 540 549 541

usemtl m1019
f 512 562 513

usemtl m1020
f 513 562 563

usemtl m1021
f 513 563 564

usemtl m1022
f 513 564 565

usemtl m1023
f 513 565 566

usemtl m1024
f 513 566 514

usemtl m1025
f 514 566 515

usemtl m1026
f 515 566 567

usemtl m1027
f 515 567 568

usemtl m1028
f 515 568 498

usemtl m1029
f 515 498 497

usemtl m1030
f 569 570 571

usemtl m1031
f 569 571 572

usemtl m1032
f 569 572 573

usemtl m1033
f 569 573 574

usemtl m1034
f 569 574 517

usemtl m1035
f 569 517 570

usemtl m1036
f 570 517 516

usemtl m1037
f 570 516 568

usemtl m1038
f 570 568 575

usemtl m1039
f 570 575 571

usemtl m1040
f 571 575 576

usemtl m1041
f 571 576 577

usemtl m1042
f 571 577 572

usemtl m1043
f 572 577 578

usemtl m1044
f 572 578 579

usemtl m1045
f 572 579 580

usemtl m1046
f 572 580 573

usemtl m1047
f 573 580 581

usemtl m1048
f 573 581 582

usemtl m1049
f 573 582 562

usemtl m1050
f 573 562 574

usemtl m1051
f 574 562 518

usemtl m1052
f 574 518 517

usemtl m1053
f 512 511 518

usemtl m1054
f 512 518 562

usemtl m1055
f 549 583 550

usemtl m1056
f 550 583 551

usemtl m1057
f 551 583 584

usemtl m1058
f 551 584 585

usemtl m1059
f 551 585 552

usemtl m1060
f 552 585 586

usemtl m1061
f 552 586 587

usemtl m1062
f 552 587 553

usemtl m1063
f 553 587 588

usemtl m1064
f 553 588 554

usemtl m1065
f 554 588 589

usemtl m1066
f 554 589 555

usemtl m1067
f 555 589 556

usemtl m1068
f 556 589 590

usemtl m1069
f 556 590 557

usemtl m1070
f 557 590 591

usemtl m1071
f 557 591 592

usemtl m1072
f 557 592 558

usemtl m1073
f 558 592 593

usemtl m1074
f 558 593 559

usemtl m1075
f 559 593 594

usemtl m1076
f 559 594 595

usemtl m1077
f 559 595 560

usemtl m1078
f 560 595 561

usemtl m1079
f 561 595 581

usemtl m1080
f 561 581 596

usemtl m1081
f 561 596 549

usemtl m1082
f 549 596 583

usemtl m1083
f 583 596 597

usemtl m1084
f 583 597 584

usemtl m1085
f 584 597 598

usemtl m1086
f 584 598 580

usemtl m1087
f 584 580 579

usemtl m1088
f 584 579 585

usemtl m1089
f 585 579 586

usemtl m1090
f 586 579 599

usemtl m1091
f 586 599 587

usemtl m1092
f 587 599 600

usemtl m1093
f 587 600 588

usemtl m1094
f 588 600 601

usemtl m1095
f 588 601 589

usemtl m1096
f 589 601 602

usemtl m1097
f 589 602 590

usemtl m1098
f 590 602 603

usemtl m1099
f 590 603 591

usemtl m1100
f 591 603 604

usemtl m1101
f 591 604 605

usemtl m1102
f 591 605 606

usemtl m1103
f 591 606 592

usemtl m1104
f 592 606 607

usemtl m1105
f 592 607 593

usemtl m1106
f 593 607 594

usemtl m1107
f 594 607 565

usemtl m1108
f 594 565 564

usemtl m1109
f 594 564 595

usemtl m1110
f 595 564 563

usemtl m1111
f 595 563 582

usemtl m1112
f 595 582 581

usemtl m1113
f 579 578 599

usemtl m1114
f 599 578 608

usemtl m1115
f 599 608 600

usemtl m1116
f 600 608 601

usemtl m1117
f 601 608 602

usemtl m1118
f 602 608 605

usemtl m1119
f 602 605 604

usemtl m1120
f 602 604 603

usemtl m1121
f 562 582 563

usemtl m1122
f 598 597 596

usemtl m1123
f 598 596 580

usemtl m1124
f 580 596 581

usemtl m1125
f 501 498 516

usemtl m1126
f 516 498 568

usemtl m1127
f 609 565 607

usemtl m1128
f 609 607 606

usemtl m1129
f 609 606 610

usemtl m1130
f 609 610 566

usemtl m1131
f 609 566 565

usemtl m1132
f 608 578 576

usemtl m1133
f 608 576 605

usemtl m1134
f 605 576 610

usemtl m1135
f 605 610 606

usemtl m1136
f 575 567 610

usemtl m1137
f 575 610 576

usemtl m1138
f 576 578 577

usemtl m1139
f 566 610 567

usemtl m1140
f 568 567 575

usemtl m1141
f 494 496 495

usemtl m1142
f 496 494 493

usemtl m1143
f 611 612 613

usemtl m1144
f 611 613 614

usemtl m1145
f 611 614 615

usemtl m1146
f 611 615 616

usemtl m1147
f 611 616 617

usemtl m1148
f 611 617 618

usemtl m1149
f 611 618 612

usemtl m1150
f 612 618 619

usemtl m1151
f 612 619 620

usemtl m1152
f 612 620 621

usemtl m1153
f 612 621 613

usemtl m1154
f 613 621 622

usemtl m1155
f 613 622 623

usemtl m1156
f 613 623 614

usemtl m1157
f 614 623 624

usemtl m1158
f 614 624 615

usemtl m1159
f 615 624 625

usemtl m1160
f 615 625 626

usemtl m1161
f 615 626 616

usemtl m1162
f 616 626 627

usemtl m1163
f 616 627 628

usemtl m1164
f 616 628 617

usemtl m1165
f 617 628 629

usemtl m1166
f 617 629 630

usemtl m1167
f 617 630 618

usemtl m1168
f 618 630 631

usemtl m1169
f 618 631 632

usemtl m1170
f 618 632 619

usemtl m1171
f 619 632 633

usemtl m1172
f 619 633 620

usemtl m1173
f 620 633 634

usemtl m1174
f 620 634 635

usemtl m1175
f 620 635 621

usemtl m1176
f 621 635 636

usemtl m1177
f 621 636 637

usemtl m1178
f 621 637 622

usemtl m1179
f 622 637 638

usemtl m1180
f 622 638 639

usemtl m1181
f 622 639 640

usemtl m1182
f 622 640 641

usemtl m1183
f 622 641 623

usemtl m1184
f 623 641 642

usemtl m1185
f 623 642 643

usemtl m1186
f 623 643 624

usemtl m1187
f 624 643 644

usemtl m1188
f 624 644 625

usemtl m1189
f 625 644 645

usemtl m1190
f 625 645 646

usemtl m1191
f 625 646 626

usemtl m1192
f 626 646 647

usemtl m1193
f 626 647 648

usemtl m1194
f 626 648 627

usemtl m1195
f 627 648 649

usemtl m1196
f 627 649 650

usemtl m1197
f 627 650 628

usemtl m1198
f 628 650 651

usemtl m1199
f 628 651 629

usemtl m1200
f 629 651 652

usemtl m1201
f 629 652 653

usemtl m1202
f 629 653 654

usemtl m1203
f 629 654 655

usemtl m1204
f 629 655 656

usemtl m1205
f 629 656 630

usemtl m1206
f 630 656 631

usemtl m1207
f 631 656 657

usemtl m1208
f 631 657 658

usemtl m1209
f 631 658 632

usemtl m1210
f 632 658 659

usemtl m1211
f 632 659 633

usemtl m1212
f 633 659 660

usemtl m1213
f 633 660 661

usemtl m1214
f 633 661 634

usemtl m1215
f 634 661 635

usemtl m1216
f 635 661 662

usemtl m1217
f 635 662 663

usemtl m1218
f 635 663 636

usemtl m1219
f 636 663 664

usemtl m1220
f 636 664 637

usemtl m1221
f 637 664 665

usemtl m1222
f 637 665 666

usemtl m1223
f 637 666 638

usemtl m1224
f 638 666 667

usemtl m1225
f 638 667 668

usemtl m1226
f 638 668 639

usemtl m1227
f 639 668 669

usemtl m1228
f 639 669 670

usemtl m1229
f 639 670 671

usemtl m1230
f 639 671 640

usemtl m1231
f 640 671 672

usemtl m1232
f 640 672 673

usemtl m1233
f 640 673 674

usemtl m1234
f 640 674 641

usemtl m1235
f 641 674 675

usemtl m1236
f 641 675 642

usemtl m1237
f 642 675 676

usemtl m1238
f 642 676 643

usemtl m1239
f 643 676 677

usemtl m1240
f 643 677 644

usemtl m1241
f 644 677 678

usemtl m1242
f 644 678 679

usemtl m1243
f 644 679 645

usemtl m1244
f 645 679 680

usemtl m1245
f 645 680 681

usemtl m1246
f 645 681 646

usemtl m1247
f 646 681 682

usemtl m1248
f 646 682 647

usemtl m1249
f 647 682 683

usemtl m1250
f 647 683 648

usemtl m1251
f 648 683 684

usemtl m1252
f 648 684 649

usemtl m1253
f 649 684 685

usemtl m1254
f 649 685 686

usemtl m1255
f 649 686 650

usemtl m1256
f 650 686 687

usemtl m1257
f 650 687 688

usemtl m1258
f 650 688 651

usemtl m1259
f 651 688 689

usemtl m1260
f 651 689 652

usemtl m1261
f 652 689 675

usemtl m1262
f 652 675 690

usemtl m1263
f 652 690 653

usemtl m1264
f 653 690 691

usemtl m1265
f 653 691 654

usemtl m1266
f 654 691 692

usemtl m1267
f 654 692 693

usemtl m1268
f 654 693 655

usemtl m1269
f 655 693 667

usemtl m1270
f 655 667 694

usemtl m1271
f 655 694 656

usemtl m1272
f 656 694 657

usemtl m1273
f 657 694 695

usemtl m1274
f 657 695 659

usemtl m1275
f 657 659 658

usemtl m1276
f 666 694 667

usemtl m1277
f 694 666 695

usemtl m1278
f 695 666 665

usemtl m1279
f 695 665 696

usemtl m1280
f 695 696 697

usemtl m1281
f 695 697 698

usemtl m1282
f 695 698 659

usemtl m1283
f 659 698 660

usemtl m1284
f 660 698 699

usemtl m1285
f 660 699 700

usemtl m1286
f 660 700 661

usemtl m1287
f 661 700 701

usemtl m1288
f 661 701 702

usemtl m1289
f 661 702 662

usemtl m1290
f 662 702 703

usemtl m1291
f 662 703 663

usemtl m1292
f 663 703 704

usemtl m1293
f 663 704 696

usemtl m1294
f 663 696 664

usemtl m1295
f 664 696 665

usemtl m1296
f 667 693 668

usemtl m1297
f 668 693 705

usemtl m1298
f 668 705 669

usemtl m1299
f 669 705 706

usemtl m1300
f 669 706 670

usemtl m1301
f 670 706 707

usemtl m1302
f 670 707 671

usemtl m1303
f 671 707 672

usemtl m1304
f 672 707 708

usemtl m1305
f 672 708 709

usemtl m1306
f 672 709 710

usemtl m1307
f 672 710 673

usemtl m1308
f 673 710 711

usemtl m1309
f 673 711 712

usemtl m1310
f 673 712 674

usemtl m1311
f 674 712 690

usemtl m1312
f 674 690 675

usemtl m1313
f 687 713 688

usemtl m1314
f 688 713 714

usemtl m1315
f 688 714 689

usemtl m1316
f 689 714 676

usemtl m1317
f 689 676 675

usemtl m1318
f 715 716 717

usemtl m1319
f 715 717 718

usemtl m1320
f 715 718 719

usemtl m1321
f 715 719 720

usemtl m1322
f 715 720 721

usemtl m1323
f 715 721 722

usemtl m1324
f 715 722 716

usemtl m1325
f 716 722 723

usemtl m1326
f 716 723 724

usemtl m1327
f 716 724 725

usemtl m1328
f 716 725 726

usemtl m1329
f 716 726 717

usemtl m1330
f 717 726 727

usemtl m1331
f 717 727 718

usemtl m1332
f 718 727 387

usemtl m1333
f 718 387 728

usemtl m1334
f 718 728 719

usemtl m1335
f 719 728 729

usemtl m1336
f 719 729 730

usemtl m1337
f 719 730 731

usemtl m1338
f 719 731 732

usemtl m1339
f 719 732 720

usemtl m1340
f 720 732 733

usemtl m1341
f 720 733 721

usemtl m1342
f 721 733 734

usemtl m1343
f 721 734 735

usemtl m1344
f 721 735 736

usemtl m1345
f 721 736 722

usemtl m1346
f 722 736 723

usemtl m1347
f 723 736 737

usemtl m1348
f 723 737 738

usemtl m1349
f 723 738 739

usemtl m1350
f 723 739 740

usemtl m1351
f 723 740 724

usemtl m1352
f 724 740 741

usemtl m1353
f 741 740 742

usemtl m1354
f 741 742 743

usemtl m1355
f 741 743 744

usemtl m1356
f 738 737 745

usemtl m1357
f 738 745 746

usemtl m1358
f 738 746 747

usemtl m1359
f 738 747 748

usemtl m1360
f 738 748 739

usemtl m1361
f 739 748 749

usemtl m1362
f 739 749 750

usemtl m1363
f 739 750 751

usemtl m1364
f 739 751 740

usemtl m1365
f 740 751 742

usemtl m1366
f 742 751 752

usemtl m1367
f 742 752 753

usemtl m1368
f 742 753 743

usemtl m1369
f 743 753 754

usemtl m1370
f 743 754 755

usemtl m1371
f 743 755 756

usemtl m1372
f 749 757 758

usemtl m1373
f 749 758 729

usemtl m1374
f 749 729 759

usemtl m1375
f 749 759 750

usemtl m1376
f 750 759 760

usemtl m1377
f 750 760 761

usemtl m1378
f 750 761 751

usemtl m1379
f 751 761 752

usemtl m1380
f 752 761 762

usemtl m1381
f 752 762 763

usemtl m1382
f 752 763 764

usemtl m1383
f 752 764 754

usemtl m1384
f 752 754 753

usemtl m1385
f 765 385 766

usemtl m1386
f 765 766 767

usemtl m1387
f 765 767 760

usemtl m1388
f 765 760 759

usemtl m1389
f 765 759 729

usemtl m1390
f 765 729 385

usemtl m1391
f 385 729 386

usemtl m1392
f 386 729 728

usemtl m1393
f 386 728 387

usemtl m1394
f 768 769 770

usemtl m1395
f 768 770 771

usemtl m1396
f 768 771 772

usemtl m1397
f 768 772 703

usemtl m1398
f 768 703 702

usemtl m1399
f 768 702 701

usemtl m1400
f 768 701 769

usemtl m1401
f 769 701 773

usemtl m1402
f 769 773 774

usemtl m1403
f 769 774 770

usemtl m1404
f 770 774 775

usemtl m1405
f 770 775 776

usemtl m1406
f 770 776 777

usemtl m1407
f 770 777 416

usemtl m1408
f 770 416 415

usemtl m1409
f 770 415 771

usemtl m1410
f 771 415 778

usemtl m1411
f 771 778 779

usemtl m1412
f 771 779 772

usemtl m1413
f 772 779 780

usemtl m1414
f 772 780 781

usemtl m1415
f 772 781 782

usemtl m1416
f 772 782 704

usemtl m1417
f 772 704 703

usemtl m1418
f 783 784 775

usemtl m1419
f 783 775 774

usemtl m1420
f 783 774 773

usemtl m1421
f 783 773 785

usemtl m1422
f 783 785 784

usemtl m1423
f 784 785 786

usemtl m1424
f 784 786 787

usemtl m1425
f 784 787 788

usemtl m1426
f 784 788 775

usemtl m1427
f 775 788 789

usemtl m1428
f 775 789 776

usemtl m1429
f 776 789 790

usemtl m1430
f 776 790 777

usemtl m1431
f 777 790 418

usemtl m1432
f 777 418 417

usemtl m1433
f 777 417 416

usemtl m1434
f 790 791 419

usemtl m1435
f 790 419 418

usemtl m1436
f 792 397 429

usemtl m1437
f 792 429 382

usemtl m1438
f 792 382 421

usemtl m1439
f 792 421 420

usemtl m1440
f 792 420 411

usemtl m1441
f 792 411 398

usemtl m1442
f 792 398 397

usemtl m1443
f 762 761 793

usemtl m1444
f 762 793 763

usemtl m1445
f 763 793 794

usemtl m1446
f 763 794 795

usemtl m1447
f 763 795 764

usemtl m1448
f 764 795 796

usemtl m1449
f 764 796 797

usemtl m1450
f 764 797 754

usemtl m1451
f 754 797 755

usemtl m1452
f 755 797 798

usemtl m1453
f 798 797 799

usemtl m1454
f 798 799 800

usemtl m1455
f 798 800 801

usemtl m1456
f 801 800 726

usemtl m1457
f 801 726 802

usemtl m1458
f 802 726 725

usemtl m1459
f 701 803 773

usemtl m1460
f 773 803 804

usemtl m1461
f 773 804 785

usemtl m1462
f 785 804 805

usemtl m1463
f 785 805 786

usemtl m1464
f 786 805 806

usemtl m1465
f 786 806 787

usemtl m1466
f 787 806 780

usemtl m1467
f 787 780 807

usemtl m1468
f 787 807 788

usemtl m1469
f 788 807 789

usemtl m1470
f 789 807 791

usemtl m1471
f 789 791 790

usemtl m1472
f 779 778 780

usemtl m1473
f 780 778 808

usemtl m1474
f 780 808 809

usemtl m1475
f 780 809 807

usemtl m1476
f 807 809 791

usemtl m1477
f 791 809 810

usemtl m1478
f 791 810 419

usemtl m1479
f 419 810 420

usemtl m1480
f 420 810 412

usemtl m1481
f 420 412 411

usemtl m1482
f 696 782 811

usemtl m1483
f 696 811 697

usemtl m1484
f 697 811 699

usemtl m1485
f 697 699 698

usemtl m1486
f 803 812 804

usemtl m1487
f 804 812 813

usemtl m1488
f 804 813 805

usemtl m1489
f 805 813 782

usemtl m1490
f 805 782 781

usemtl m1491
f 805 781 806

usemtl m1492
f 806 781 780

usemtl m1493
f 727 388 387

usemtl m1494
f 388 727 389

usemtl m1495
f 389 727 814

usemtl m1496
f 389 814 390

usemtl m1497
f 390 814 815

usemtl m1498
f 390 815 391

usemtl m1499
f 391 815 816

usemtl m1500
f 391 816 817

usemtl m1501
f 391 817 818

usemtl m1502
f 391 818 819

usemtl m1503
f 391 819 820

usemtl m1504
f 391 820 821

usemtl m1505
f 391 821 392

usemtl m1506
f 392 821 794

usemtl m1507
f 392 794 393

usemtl m1508
f 393 794 793

usemtl m1509
f 393 793 822

usemtl m1510
f 393 822 395

usemtl m1511
f 393 395 394

usemtl m1512
f 761 760 793

usemtl m1513
f 793 760 767

usemtl m1514
f 793 767 822

usemtl m1515
f 822 767 395

usemtl m1516
f 395 767 823

usemtl m1517
f 395 823 431

usemtl m1518
f 395 431 396

usemtl m1519
f 396 431 397

usemtl m1520
f 397 431 429

usemtl m1521
f 823 767 766

usemtl m1522
f 823 766 431

usemtl m1523
f 431 766 432

usemtl m1524
f 432 766 384

usemtl m1525
f 432 384 383

usemtl m1526
f 824 825 826

usemtl m1527
f 824 826 827

usemtl m1528
f 824 827 828

usemtl m1529
f 824 828 825

usemtl m1530
f 825 828 746

usemtl m1531
f 825 746 829

usemtl m1532
f 825 829 734

usemtl m1533
f 825 734 826

usemtl m1534
f 826 734 733

usemtl m1535
f 826 733 732

usemtl m1536
f 826 732 827

usemtl m1537
f 827 732 830

usemtl m1538
f 827 830 831

usemtl m1539
f 827 831 832

usemtl m1540
f 827 832 757

usemtl m1541
f 827 757 828

usemtl m1542
f 828 757 747

usemtl m1543
f 828 747 746

usemtl m1544
f 732 833 830

usemtl m1545
f 830 833 834

usemtl m1546
f 830 834 831

usemtl m1547
f 831 834 835

usemtl m1548
f 831 835 836

usemtl m1549
f 831 836 832

usemtl m1550
f 832 836 837

usemtl m1551
f 832 837 757

usemtl m1552
f 757 837 758

usemtl m1553
f 758 837 836

usemtl m1554
f 758 836 838

usemtl m1555
f 758 838 839

usemtl m1556
f 758 839 729

usemtl m1557
f 729 839 840

usemtl m1558
f 729 840 730

usemtl m1559
f 730 840 841

usemtl m1560
f 730 841 842

usemtl m1561
f 730 842 731

usemtl m1562
f 731 842 833

usemtl m1563
f 731 833 732

usemtl m1564
f 810 809 808

usemtl m1565
f 810 808 412

usemtl m1566
f 412 808 413

usemtl m1567
f 413 808 778

usemtl m1568
f 413 778 414

usemtl m1569
f 414 778 415

usemtl m1570
f 843 737 736

usemtl m1571
f 843 736 735

usemtl m1572
f 843 735 829

usemtl m1573
f 843 829 745

usemtl m1574
f 843 745 737

usemtl m1575
f 844 845 846

usemtl m1576
f 844 846 73

usemtl m1577
f 844 73 72

usemtl m1578
f 844 72 847

usemtl m1579
f 844 847 848

usemtl m1580
f 844 848 845

usemtl m1581
f 845 848 849

usemtl m1582
f 845 849 850

usemtl m1583
f 845 850 851

usemtl m1584
f 845 851 846

usemtl m1585
f 846 851 74

usemtl m1586
f 846 74 73

usemtl m1587
f 851 850 852

usemtl m1588
f 851 852 76

usemtl m1589
f 851 76 75

usemtl m1590
f 851 75 74

usemtl m1591
f 80 79 70

usemtl m1592
f 80 70 69

usemtl m1593
f 80 69 68

usemtl m1594
f 853 848 847

usemtl m1595
f 853 847 854

usemtl m1596
f 853 854 834

usemtl m1597
f 853 834 855

usemtl m1598
f 853 855 848

usemtl m1599
f 848 855 849

usemtl m1600
f 849 855 841

usemtl m1601
f 849 841 856

usemtl m1602
f 849 856 850

usemtl m1603
f 850 856 852

usemtl m1604
f 852 856 77

usemtl m1605
f 852 77 76

usemtl m1606
f 840 77 841

usemtl m1607
f 841 77 856

usemtl m1608
f 839 78 77

usemtl m1609
f 839 77 840

usemtl m1610
f 838 71 78

usemtl m1611
f 838 78 839

usemtl m1612
f 857 72 71

usemtl m1613
f 857 71 838

usemtl m1614
f 857 838 836

usemtl m1615
f 857 836 854

usemtl m1616
f 857 854 72

usemtl m1617
f 72 854 847

usemtl m1618
f 79 78 71

usemtl m1619
f 79 71 70

usemtl m1620
f 834 854 835

usemtl m1621
f 835 854 836

usemtl m1622
f 842 855 834

usemtl m1623
f 842 834 833

usemtl m1624
f 841 855 842

usemtl m1625
f 757 748 747

usemtl m1626
f 748 757 749

usemtl m1627
f 735 734 829

usemtl m1628
f 746 745 829

usemtl m1629
f 385 384 766

usemtl m1630
f 411 410 398

usemtl m1631
f 398 410 399

usemtl m1632
f 701 700 803

usemtl m1633
f 803 700 699

usemtl m1634
f 803 699 812

usemtl m1635
f 812 699 811

usemtl m1636
f 812 811 813

usemtl m1637
f 813 811 782

usemtl m1638
f 704 782 696

usemtl m1639
f 713 858 714

usemtl m1640
f 714 858 859

usemtl m1641
f 714 859 677

usemtl m1642
f 714 677 676

usemtl m1643
f 860 861 800

usemtl m1644
f 860 800 862

usemtl m1645
f 860 862 863

usemtl m1646
f 860 863 864

usemtl m1647
f 860 864 815

usemtl m1648
f 860 815 814

usemtl m1649
f 860 814 861

usemtl m1650
f 861 814 727

usemtl m1651
f 861 727 726

usemtl m1652
f 861 726 800

usemtl m1653
f 865 866 867

usemtl m1654
f 865 867 799

usemtl m1655
f 865 799 796

usemtl m1656
f 865 796 868

usemtl m1657
f 865 868 869

usemtl m1658
f 865 869 870

usemtl m1659
f 865 870 866

usemtl m1660
f 866 870 871

usemtl m1661
f 866 871 872

usemtl m1662
f 866 872 867

usemtl m1663
f 867 872 873

usemtl m1664
f 867 873 799

usemtl m1665
f 799 873 862

usemtl m1666
f 799 862 800

usemtl m1667
f 820 819 874

usemtl m1668
f 820 874 868

usemtl m1669
f 820 868 796

usemtl m1670
f 820 796 795

usemtl m1671
f 820 795 821

usemtl m1672
f 821 795 794

usemtl m1673
f 875 876 709

usemtl m1674
f 875 709 708

usemtl m1675
f 875 708 877

usemtl m1676
f 875 877 878

usemtl m1677
f 875 878 876

usemtl m1678
f 876 878 879

usemtl m1679
f 876 879 880

usemtl m1680
f 876 880 881

usemtl m1681
f 876 881 882

usemtl m1682
f 876 882 709

usemtl m1683
f 709 882 883

usemtl m1684
f 709 883 711

usemtl m1685
f 709 711 710

usemtl m1686
f 878 884 885

usemtl m1687
f 878 885 879

usemtl m1688
f 879 885 886

usemtl m1689
f 879 886 880

usemtl m1690
f 880 886 887

usemtl m1691
f 880 887 888

usemtl m1692
f 880 888 889

usemtl m1693
f 880 889 881

usemtl m1694
f 881 889 890

usemtl m1695
f 881 890 891

usemtl m1696
f 881 891 882

usemtl m1697
f 882 891 883

usemtl m1698
f 883 891 892

usemtl m1699
f 883 892 893

usemtl m1700
f 883 893 711

usemtl m1701
f 711 893 894

usemtl m1702
f 711 894 712

usemtl m1703
f 712 894 690

usemtl m1704
f 690 894 691

usemtl m1705
f 691 894 895

usemtl m1706
f 691 895 692

usemtl m1707
f 692 895 893

usemtl m1708
f 692 893 705

usemtl m1709
f 692 705 693

usemtl m1710
f 887 896 897

usemtl m1711
f 887 897 888

usemtl m1712
f 888 897 898

usemtl m1713
f 888 898 899

usemtl m1714
f 888 899 889

usemtl m1715
f 889 899 900

usemtl m1716
f 889 900 890

usemtl m1717
f 890 900 901

usemtl m1718
f 890 901 891

usemtl m1719
f 891 901 902

usemtl m1720
f 891 902 892

usemtl m1721
f 892 902 705

usemtl m1722
f 892 705 893

usemtl m1723
f 884 903 904

usemtl m1724
f 884 904 407

usemtl m1725
f 884 407 885

usemtl m1726
f 885 407 406

usemtl m1727
f 885 406 404

usemtl m1728
f 885 404 905

usemtl m1729
f 885 905 896

usemtl m1730
f 885 896 886

usemtl m1731
f 886 896 887

usemtl m1732
f 859 678 677

usemtl m1733
f 678 859 906

usemtl m1734
f 678 906 907

usemtl m1735
f 678 907 679

usemtl m1736
f 679 907 680

usemtl m1737
f 815 908 909

usemtl m1738
f 815 909 816

usemtl m1739
f 816 909 910

usemtl m1740
f 816 910 911

usemtl m1741
f 816 911 817

usemtl m1742
f 817 911 117

usemtl m1743
f 817 117 818

usemtl m1744
f 818 117 912

usemtl m1745
f 818 912 913

usemtl m1746
f 818 913 819

usemtl m1747
f 819 913 914

usemtl m1748
f 819 914 915

usemtl m1749
f 819 915 874

usemtl m1750
f 874 915 916

usemtl m1751
f 874 916 917

usemtl m1752
f 874 917 918

usemtl m1753
f 874 918 869

usemtl m1754
f 874 869 868

usemtl m1755
f 919 920 921

usemtl m1756
f 919 921 877

usemtl m1757
f 919 877 707

usemtl m1758
f 919 707 706

usemtl m1759
f 919 706 920

usemtl m1760
f 920 706 902

usemtl m1761
f 920 902 901

usemtl m1762
f 920 901 900

usemtl m1763
f 920 900 899

usemtl m1764
f 920 899 922

usemtl m1765
f 920 922 921

usemtl m1766
f 921 922 923

usemtl m1767
f 921 923 903

usemtl m1768
f 921 903 884

usemtl m1769
f 921 884 878

usemtl m1770
f 921 878 877

usemtl m1771
f 903 923 904

usemtl m1772
f 904 923 924

usemtl m1773
f 904 924 409

usemtl m1774
f 904 409 408

usemtl m1775
f 904 408 407

usemtl m1776
f 708 707 877

usemtl m1777
f 923 925 926

usemtl m1778
f 923 926 924

usemtl m1779
f 924 926 401

usemtl m1780
f 924 401 400

usemtl m1781
f 924 400 409

usemtl m1782
f 927 928 929

usemtl m1783
f 927 929 918

usemtl m1784
f 927 918 917

usemtl m1785
f 927 917 928

usemtl m1786
f 928 917 908

usemtl m1787
f 928 908 930

usemtl m1788
f 928 930 931

usemtl m1789
f 928 931 929

usemtl m1790
f 929 931 871

usemtl m1791
f 929 871 870

usemtl m1792
f 929 870 918

usemtl m1793
f 918 870 869

usemtl m1794
f 863 930 864

usemtl m1795
f 864 930 908

usemtl m1796
f 864 908 815

usemtl m1797
f 917 932 933

usemtl m1798
f 917 933 908

usemtl m1799
f 908 933 934

usemtl m1800
f 908 934 909

usemtl m1801
f 909 934 910

usemtl m1802
f 910 934 935

usemtl m1803
f 910 935 936

usemtl m1804
f 910 936 911

usemtl m1805
f 911 936 937

usemtl m1806
f 911 937 938

usemtl m1807
f 911 938 117

usemtl m1808
f 117 938 939

usemtl m1809
f 117 939 118

usemtl m1810
f 118 939 940

usemtl m1811
f 118 940 119

usemtl m1812
f 119 940 120

usemtl m1813
f 120 940 941

usemtl m1814
f 120 941 121

usemtl m1815
f 121 941 942

usemtl m1816
f 121 942 122

usemtl m1817
f 122 942 943

usemtl m1818
f 122 943 944

usemtl m1819
f 122 944 945

usemtl m1820
f 122 945 123

usemtl m1821
f 123 945 913

usemtl m1822
f 123 913 912

usemtl m1823
f 123 912 946

usemtl m1824
f 123 946 124

usemtl m1825
f 124 946 114

usemtl m1826
f 124 114 125

usemtl m1827
f 125 114 113

usemtl m1828
f 931 930 863

usemtl m1829
f 931 863 947

usemtl m1830
f 931 947 871

usemtl m1831
f 871 947 872

usemtl m1832
f 872 947 873

usemtl m1833
f 873 947 863

usemtl m1834
f 873 863 862

usemtl m1835
f 796 799 797

usemtl m1836
f 942 941 948

usemtl m1837
f 942 948 949

usemtl m1838
f 942 949 943

usemtl m1839
f 943 949 950

usemtl m1840
f 943 950 944

usemtl m1841
f 944 950 935

usemtl m1842
f 944 935 951

usemtl m1843
f 944 951 914

usemtl m1844
f 944 914 945

usemtl m1845
f 945 914 913

usemtl m1846
f 940 952 948

usemtl m1847
f 940 948 941

usemtl m1848
f 940 939 952

usemtl m1849
f 952 939 938

usemtl m1850
f 952 938 937

usemtl m1851
f 952 937 948

usemtl m1852
f 948 937 949

usemtl m1853
f 949 937 936

usemtl m1854
f 949 936 950

usemtl m1855
f 950 936 935

usemtl m1856
f 905 404 403

usemtl m1857
f 905 403 953

usemtl m1858
f 905 953 896

usemtl m1859
f 896 953 954

usemtl m1860
f 896 954 897

usemtl m1861
f 897 954 955

usemtl m1862
f 897 955 898

usemtl m1863
f 898 955 956

usemtl m1864
f 898 956 899

usemtl m1865
f 899 956 922

usemtl m1866
f 922 956 923

usemtl m1867
f 923 956 955

usemtl m1868
f 923 955 925

usemtl m1869
f 925 955 954

usemtl m1870
f 925 954 953

usemtl m1871
f 925 953 402

usemtl m1872
f 925 402 926

usemtl m1873
f 926 402 401

usemtl m1874
f 403 402 953

usemtl m1875
f 115 114 946

usemtl m1876
f 115 946 116

usemtl m1877
f 116 946 912

usemtl m1878
f 116 912 117

usemtl m1879
f 933 932 935

usemtl m1880
f 933 935 934

usemtl m1881
f 932 916 914

usemtl m1882
f 932 914 951

usemtl m1883
f 932 951 935

usemtl m1884
f 915 914 916

usemtl m1885
f 917 916 932

usemtl m1886
f 894 893 895

usemtl m1887
f 406 405 404

usemtl m1888
f 902 706 705

usemtl m1889
f 957 958 959

usemtl m1890
f 957 959 960

usemtl m1891
f 957 960 961

usemtl m1892
f 957 961 962

usemtl m1893
f 957 962 963

usemtl m1894
f 957 963 958

usemtl m1895
f 958 963 964

usemtl m1896
f 958 964 959

usemtl m1897
f 959 964 965

usemtl m1898
f 959 965 960

usemtl m1899
f 960 965 966

usemtl m1900
f 960 966 967

usemtl m1901
f 960 967 961

usemtl m1902
f 961 967 968

usemtl m1903
f 961 968 962

usemtl m1904
f 962 968 969

usemtl m1905
f 962 969 858

usemtl m1906
f 962 858 963

usemtl m1907
f 963 858 713

usemtl m1908
f 963 713 964

usemtl m1909
f 964 713 687

usemtl m1910
f 964 687 965

usemtl m1911
f 965 687 970

usemtl m1912
f 965 970 966

usemtl m1913
f 966 970 971

usemtl m1914
f 966 971 968

usemtl m1915
f 966 968 967

usemtl m1916
f 686 685 972

usemtl m1917
f 686 972 687

usemtl m1918
f 687 972 970

usemtl m1919
f 971 969 968

usemtl m1920
f 859 858 969

usemtl m1921
f 859 969 906

usemtl m1922
f 973 974 975

usemtl m1923
f 973 975 976

usemtl m1924
f 977 978 979

usemtl m1925
f 977 979 980

usemtl m1926
f 981 982 983

usemtl m1927
f 981 983 984

usemtl m1928
f 985 986 987

usemtl m1929
f 985 987 988

usemtl m1930
f 989 990 991

usemtl m1931
f 989 991 992

usemtl m1932
f 993 994 995

usemtl m1933
f 993 995 996

usemtl m1934
f 997 998 999

usemtl m1935
f 997 999 1000

