mtllib 29600.mtl
o runescapemodel
v -14 8 13
v -16 3 10
v -4 7 4
v -4 8 9
v -3 9 18
v -9 11 16
v -15 14 13
v -15 14 0
v -20 2 1
v -13 -1 3
v -13 1 -8
v 1 5 -5
v 7 16 3
v 6 16 11
v 3 16 14
v 0 12 18
v -2 20 18
v -11 17 16
v -16 20 13
v -18 25 10
v -22 26 1
v -15 27 -8
v -17 14 -17
v -4 7 -19
v 6 16 -9
v -1 27 -6
v -6 23 4
v -6 22 9
v -23 14 -22
v -12 14 -25
v 0 16 -20
v -6 23 -19
v -15 30 3
v -5 23 17
vn -558 716 -748
vn -317 364 -521
vn 1103 1744 -693
vn 591 1033 -98
vn 13 496 -759
vn -483 138 -1174
vn -903 171 -663
vn -2292 196 18
vn -614 288 40
vn 96 804 -146
vn -338 1040 359
vn 712 879 -30
vn 988 -77 -250
vn 594 -269 -283
vn 915 81 -386
vn 561 300 -423
vn 329 -437 -1118
vn -488 1 -1166
vn -715 -561 -668
vn -366 -302 -520
vn -639 -203 52
vn -531 -960 392
vn -964 89 23
vn 346 1089 709
vn 1205 -108 446
vn 503 -957 -11
vn 676 -1640 -615
vn 449 -1329 -101
vn -309 63 100
vn 85 3 803
vn 561 -86 654
vn 130 -1122 726
vn 18 -783 -134
vn -34 -505 -412
usemtl m0
f 1 2 3

usemtl m1
f 1 3 4

usemtl m2
f 1 4 5

usemtl m3
f 1 5 6

usemtl m4
f 1 6 7

usemtl m5
f 1 7 8

usemtl m6
f 1 8 2

usemtl m7
f 2 8 9

usemtl m8
f 2 9 10

usemtl m9
f 2 10 3

usemtl m10
f 3 10 11

usemtl m11
f 3 11 12

usemtl m12
f 3 12 13

usemtl m13
f 3 13 14

usemtl m14
f 3 14 15

usemtl m15
f 3 15 4

usemtl m16
f 4 15 16

usemtl m17
f 4 16 5

usemtl m18
f 5 16 17

usemtl m19
f 5 17 6

usemtl m20
f 6 17 18

usemtl m21
f 6 18 7

usemtl m22
f 7 18 19

usemtl m23
f 7 19 8

usemtl m24
f 8 19 20

usemtl m25
f 8 20 21

usemtl m26
f 8 21 22

usemtl m27
f 8 22 23

usemtl m28
f 8 23 11

usemtl m29
f 8 11 9

usemtl m30
f 9 11 10

usemtl m31
f 11 24 12

usemtl m32
f 12 24 25

usemtl m33
f 12 25 13

usemtl m34
f 13 25 26

usemtl m35
f 13 26 27

usemtl m36
f 13 27 14

usemtl m37
f 14 27 28

usemtl m38
f 14 28 15

usemtl m39
f 15 28 17

usemtl m40
f 15 17 16

usemtl m41
f 11 23 24

usemtl m42
f 24 23 29

usemtl m43
f 24 29 30

usemtl m44
f 24 30 31

usemtl m45
f 24 31 25

usemtl m46
f 25 31 32

usemtl m47
f 25 32 26

usemtl m48
f 26 32 22

usemtl m49
f 26 22 27

usemtl m50
f 27 22 33

usemtl m51
f 27 33 20

usemtl m52
f 27 20 19

usemtl m53
f 27 19 28

usemtl m54
f 28 19 34

usemtl m55
f 28 34 17

usemtl m56
f 17 34 18

usemtl m57
f 18 34 19

usemtl m58
f 21 33 22

usemtl m59
f 33 21 20

usemtl m60
f 22 32 23

usemtl m61
f 23 32 29

usemtl m62
f 29 32 30

usemtl m63
f 30 32 31

