mtllib 29616.mtl
o runescapemodel
v 0 30 -28
v 0 32 -28
v 4 35 -28
v 4 33 -28
v 0 28 -28
v -5 31 -28
v -5 33 -28
v -5 35 -28
v -5 41 -27
v -7 68 -25
v 0 68 -25
v 6 68 -25
v 4 41 -27
v 6 41 -27
v 6 36 -28
v 6 34 -28
v 4 31 -28
v 0 26 -28
v -7 32 -28
v -7 34 -28
v -7 36 -28
v -7 41 -27
v -9 53 -26
v -9 58 -26
v -9 66 -25
v -13 69 -25
v -10 77 -24
v 0 77 -24
v 9 77 -24
v 12 69 -25
v 11 66 -25
v 8 66 -25
v 8 58 -26
v 8 53 -26
v 9 37 -27
v 9 36 -27
v 6 32 -28
v 12 33 -27
v 11 33 -26
v 0 28 -27
v -12 33 -26
v -13 33 -27
v -11 34 -27
v -10 36 -27
v -10 37 -27
v 15 38 -27
v 14 44 -26
v 16 44 -26
v 16 39 -27
v 24 39 -25
v 22 41 -25
v 16 39 -26
v 12 66 -24
v 11 45 -27
v 15 45 -26
v 20 44 -26
v 21 41 -26
v 22 45 -25
v 19 46 -26
v 18 61 -25
v 16 62 -24
v 21 45 -25
v 20 45 -25
v 12 69 -24
v 9 66 -24
v 10 37 -27
v 11 37 -27
v 15 77 -23
v 17 77 -23
v 7 68 -24
v 0 32 -27
v 10 36 -27
v 10 34 -27
v 10 166 11
v 9 164 11
v 13 165 8
v 12 166 8
v 12 167 8
v 10 167 10
v 8 167 9
v 7 166 9
v 10 169 6
v 9 168 6
v 13 171 0
v 11 170 -1
v 10 170 -5
v 12 170 -5
v 5 168 -10
v 6 167 -12
v 0 167 -10
v 0 166 -12
v -5 168 -10
v -6 167 -12
v -12 170 -5
v -10 170 -5
v -11 170 -1
v -13 171 0
v -10 169 6
v -9 168 6
v -8 167 9
v -7 166 9
v -10 166 11
v -9 164 11
v -12 166 8
v -13 165 8
v -14 168 6
v -17 167 -1
v -18 166 0
v -19 166 -3
v -17 168 -4
v -19 162 -12
v -17 167 -4
v -18 162 -13
v -21 151 -15
v -18 162 -12
v -14 163 -13
v -10 157 -15
v -13 142 -16
v 0 155 -16
v 0 143 -16
v 13 142 -16
v 10 157 -15
v 21 151 -15
v 14 163 -13
v 18 162 -12
v 19 162 -12
v 19 152 -16
v 18 162 -13
v 17 168 -4
v 19 166 -3
v 17 167 -1
v 18 166 0
v 14 168 6
v 13 169 7
v 12 170 7
v 10 169 7
v 9 168 8
v 12 170 6
v 16 169 -1
v 16 169 -5
v 11 167 -10
v 8 166 -13
v 0 163 -15
v -8 166 -13
v -11 167 -10
v -16 169 -5
v -16 169 -1
v -12 170 6
v -12 170 7
v -10 169 7
v -9 168 8
v -10 167 10
v -12 167 8
v -13 169 7
v -14 165 -11
v -15 163 -14
v -15 156 -16
v -19 152 -16
v -21 136 -17
v -28 112 -19
v -17 110 -20
v 0 109 -21
v 16 110 -20
v 27 112 -19
v 21 136 -17
v 20 136 -17
v 19 149 -16
v 18 151 -16
v 16 153 -16
v 15 156 -16
v 15 163 -14
v 17 167 -4
v 14 165 -11
v 15 95 -21
v 17 94 -22
v 17 105 -21
v 0 94 -23
v 0 77 -23
v 0 68 -24
v -8 68 -24
v -11 37 -27
v 0 30 -27
v -11 36 -27
v -12 37 -27
v 18 98 -21
v 30 96 -20
v 25 111 -20
v 15 135 -19
v 19 137 -18
v 18 148 -16
v 16 148 -17
v 16 150 -18
v 16 152 -17
v 13 151 -17
v 12 156 -16
v 10 157 -16
v 9 159 -15
v 27 96 -20
v 25 98 -21
v 16 110 -21
v 10 142 -18
v 13 148 -17
v 15 147 -17
v 16 137 -19
v 16 147 -16
v 14 149 -18
v 14 151 -17
v 3 129 -19
v 3 142 -18
v 9 109 -22
v 3 128 -19
v 2 129 -19
v 2 141 -18
v 4 144 -18
v 0 150 -17
v 0 155 -17
v 0 140 -18
v 0 129 -19
v -2 141 -18
v -2 142 -18
v 0 141 -18
v 2 142 -18
v 3 144 -18
v 2 146 -18
v 0 146 -18
v -2 146 -18
v -4 144 -18
v -10 142 -18
v -10 157 -16
v -9 159 -15
v 0 157 -15
v 0 159 -16
v 8 160 -15
v 11 166 -12
v -8 160 -15
v -11 166 -12
v -12 156 -16
v -13 151 -17
v -16 153 -16
v -16 152 -17
v -18 151 -16
v -19 149 -16
v -20 136 -17
v -26 111 -20
v -31 96 -20
v -18 105 -21
v -16 95 -21
v -16 77 -23
v 0 127 -19
v -2 129 -19
v -3 142 -18
v -3 144 -18
v 0 144 -19
v 2 145 -18
v -2 145 -18
v 0 109 -22
v 10 95 -22
v 0 94 -24
v -11 95 -22
v -10 109 -22
v -3 128 -19
v -3 129 -19
v 16 105 -22
v 15 95 -22
v -16 95 -22
v -17 105 -22
v -17 110 -21
v 23 60 -23
v 25 53 -23
v 23 51 -23
v 36 54 -22
v 34 61 -22
v 38 53 -21
v 18 98 -22
v 23 67 -23
v 32 68 -22
v 21 77 -23
v 29 79 -22
v 18 96 -21
v -16 38 -27
v -17 44 -26
v -15 44 -26
v -17 39 -26
v -25 39 -25
v -22 41 -26
v -17 39 -27
v -21 44 -26
v -20 46 -26
v -16 45 -26
v -13 69 -24
v -17 62 -24
v -21 45 -25
v -23 41 -25
v -22 45 -25
v -19 61 -25
v -18 77 -23
v -23 45 -25
v -18 94 -22
v -13 66 -24
v -10 66 -24
v -12 45 -27
v -12 66 -25
v -19 98 -21
v -19 96 -21
v -19 98 -22
v -28 96 -20
v -26 98 -21
v -15 135 -19
v -13 148 -17
v -24 60 -23
v -24 51 -23
v -26 53 -23
v -37 54 -22
v -35 61 -22
v -24 67 -23
v -39 53 -21
v -33 68 -22
v -22 77 -23
v -30 79 -22
v -16 150 -18
v -14 149 -18
v -16 148 -17
v -14 151 -17
v -15 147 -17
v -16 147 -16
v -18 148 -16
v -19 137 -18
v -16 137 -19
vn 0 0 1536
vn -1 -160 2304
vn -57 -135 1536
vn 0 0 1536
vn 0 0 1280
vn 0 0 1280
vn 0 0 1536
vn 50 -135 1536
vn -34 -142 1536
vn -22 -176 2048
vn 0 -98 1024
vn 28 -176 2304
vn -31 -136 1280
vn 182 -176 1512
vn 128 -102 1280
vn 255 0 1536
vn 0 0 1280
vn 9 756 840
vn -147 -5 1527
vn -213 -32 1536
vn -213 -102 1280
vn -66 -182 1280
vn -402 -57 1024
vn -328 -52 768
vn -287 -90 1528
vn -208 -128 1749
vn -120 -155 1521
vn 0 -112 1536
vn 124 -155 1519
vn 198 -138 1749
vn 63 -54 1264
vn 287 -90 1272
vn 380 -67 1000
vn 454 -36 744
vn 260 -102 2552
vn 221 -25 1024
vn 217 -40 1527
vn 397 142 699
vn 28 141 -1567
vn 28 165 -1217
vn -34 143 -1292
vn -392 154 450
vn -160 -96 1536
vn -234 -32 1024
vn -175 -102 2040
vn -178 277 -96
vn -36 14 512
vn -253 -24 -151
vn 107 -6 1024
vn 288 77 238
vn -45 282 -938
vn -240 231 -864
vn 28 89 -1244
vn 76 22 33
vn 81 -61 1517
vn 313 -121 1518
vn 203 -55 1024
vn 293 -107 738
vn 72 -111 1244
vn 108 -35 -3
vn 70 -47 -17
vn 124 -8 -736
vn -155 60 -1529
vn 42 81 -1512
vn 112 80 -1239
vn -133 3 -1750
vn 204 -115 -204
vn 241 23 -258
vn 5 19 -2
vn -10 161 -1791
vn 1 88 -1790
vn -297 -69 -1017
vn 83 -89 1024
vn 533 -532 -1050
vn -128 -128 -668
vn 844 -446 -787
vn 1036 -320 -1014
vn 959 -319 -1044
vn -2 -1135 -1018
vn -916 -1087 -809
vn -512 -512 -256
vn -1334 -1580 13
vn -512 -611 4
vn -287 -1557 11
vn -256 -451 -60
vn -128 -736 121
vn 367 -1868 746
vn -34 -719 350
vn -54 -1074 703
vn -39 -700 373
vn 26 -1204 930
vn 70 -938 455
vn -37 -1244 885
vn -66 -1665 574
vn 0 -512 102
vn 432 -936 13
vn -13 -1386 -6
vn 1141 -1620 -34
vn 583 -583 0
vn 819 -972 -345
vn 466 -393 -411
vn 170 -680 -1094
vn -201 -92 -578
vn -1179 -275 -1255
vn -610 -467 -673
vn -1470 -665 -962
vn -1147 -847 -441
vn -272 -425 -153
vn -507 -554 -45
vn -1094 -982 328
vn -220 -382 160
vn -211 -423 326
vn -703 -721 1058
vn -361 42 -392
vn 79 154 -489
vn 112 145 -480
vn 64 100 -757
vn 63 169 -1779
vn 0 42 -1020
vn 0 74 -1018
vn -65 168 -1780
vn -64 100 -757
vn 197 115 -568
vn -112 145 -480
vn -79 154 -489
vn 637 -439 318
vn 339 -278 2063
vn 327 -623 902
vn 855 -887 304
vn 507 -554 -45
vn 1317 -1103 -484
vn 272 -425 -153
vn 1482 -921 -718
vn 801 -341 -716
vn 552 -1136 -594
vn -706 -1243 -316
vn -682 -1024 -340
vn 219 -1390 -155
vn 1002 -1097 -149
vn 890 -1348 452
vn 191 -920 528
vn 222 -1191 1278
vn 37 -739 1304
vn -217 -879 1190
vn -223 -1141 647
vn -810 -1374 597
vn -1167 -1049 -258
vn -603 -1390 -155
vn -168 -1136 -594
vn 578 -987 -316
vn 392 -716 -579
vn -190 -923 -1148
vn -981 -149 -1152
vn -789 -597 -448
vn -385 -835 1008
vn -426 -785 1173
vn -247 -291 1493
vn -365 -289 1879
vn -136 -158 1478
vn -200 -34 -41
vn 5 184 -1490
vn -3 237 -2028
vn -7 183 -1490
vn 208 -31 -43
vn 273 -152 1221
vn 201 -10 1330
vn 372 82 1562
vn 493 -357 1099
vn 175 -385 1130
vn 247 -291 1493
vn 214 -916 1354
vn 212 -425 349
vn 774 -816 1123
vn 256 162 -1718
vn 86 88 -45
vn 4 126 -1180
vn -4 122 -1522
vn 0 112 -1536
vn 0 98 -1024
vn 11 161 -2047
vn 134 3 -2006
vn -64 -69 -1529
vn 303 -65 -1012
vn -204 -115 52
vn -442 -106 -1240
vn 59 30 -265
vn 390 -210 1724
vn 222 -58 1990
vn 431 30 1142
vn 215 132 1166
vn 727 876 1413
vn 368 -206 1404
vn 195 -592 1078
vn -52 -322 1728
vn 58 -240 1024
vn -63 -574 1932
vn -13 -394 1349
vn -86 297 338
vn 7 240 1122
vn 80 -187 1759
vn 19 -259 2551
vn -383 -31 1706
vn 374 373 1462
vn 226 -178 1178
vn 487 299 851
vn -256 170 1194
vn -384 -341 1194
vn -169 -90 1533
vn -19 -38 1024
vn -83 -101 1526
vn -142 -81 1533
vn -10 -65 1280
vn -29 -61 1792
vn 146 -182 1792
vn 0 -492 2048
vn 22 -549 1620
vn 1 -67 1536
vn 11 -67 1536
vn 32 -65 1792
vn -127 127 1280
vn 0 170 1280
vn 127 127 1280
vn 170 -43 1280
vn 128 -192 1280
vn 0 -384 1536
vn -128 -192 1024
vn -146 -182 1792
vn -19 -258 2551
vn 96 -589 1890
vn -171 -582 1383
vn -18 -242 1311
vn -24 -5 1454
vn 346 -402 1458
vn 356 -812 874
vn -227 -133 1226
vn -439 -899 1123
vn -58 -240 1024
vn 180 -386 1728
vn -48 -513 1130
vn -153 -507 1078
vn -408 -102 929
vn -261 115 1712
vn -462 57 1651
vn -388 -218 1723
vn -80 127 -9
vn -27 59 -1242
vn -234 211 -1741
vn -117 5 -286
vn 0 -84 1280
vn 21 -61 1536
vn 21 -59 1280
vn -170 -43 1280
vn 0 -172 2048
vn 149 -213 1024
vn -149 -213 1280
vn 4 -229 2031
vn 90 -147 2015
vn 8 -116 1515
vn -82 -147 2018
vn 62 -102 1526
vn 123 -82 1277
vn 129 -68 1277
vn -98 85 1361
vn 7 -28 1280
vn -7 -43 1280
vn -21 -107 1509
vn -78 -188 1758
vn -22 6 -256
vn 22 -6 256
vn 0 0 0
vn -22 6 -256
vn 22 -6 256
vn 0 0 0
vn 340 162 1121
vn 0 0 0
vn 0 0 0
vn 0 0 0
vn 0 0 0
vn -3 179 -154
vn 113 249 382
vn 435 1 -171
vn -179 18 64
vn 281 211 -898
vn -214 177 -222
vn -299 70 1024
vn -79 -32 1024
vn -358 -187 1518
vn -189 -128 1259
vn -57 -69 1517
vn -116 101 -1468
vn -130 1 -49
vn -9 40 -1498
vn 130 60 -1024
vn 0 0 -512
vn 15 -1 -2
vn -112 -7 23
vn -170 -100 953
vn -197 175 -108
vn -102 66 -1200
vn -112 80 -983
vn -76 22 33
vn -54 -63 1264
vn 228 89 -1280
vn 3 179 -154
vn -351 254 1108
vn -2 304 -44
vn -219 116 1503
vn -132 -108 1488
vn 374 13 1728
vn -22 -6 256
vn 0 0 0
vn 22 6 -256
vn -22 -6 256
vn 22 6 -256
vn 30 8 -256
vn 0 0 0
vn -29 -6 256
vn -26 -7 256
vn 28 5 -256
vn -368 -206 1404
vn 192 127 1472
vn -727 876 1413
vn 213 -682 1194
vn -464 404 1206
vn -487 299 851
vn -447 108 1326
vn -373 71 657
vn -379 -40 1664
usemtl m0
f 1 2 3

usemtl m1
f 1 3 4

usemtl m2
f 1 4 5

usemtl m3
f 1 5 6

usemtl m4
f 1 6 7

usemtl m5
f 1 7 2

usemtl m6
f 2 7 8

usemtl m7
f 2 8 9

usemtl m8
f 2 9 10

usemtl m9
f 2 10 11

usemtl m10
f 2 11 12

usemtl m11
f 2 12 13

usemtl m12
f 2 13 3

usemtl m13
f 3 13 14

usemtl m14
f 3 14 15

usemtl m15
f 3 15 4

usemtl m16
f 4 15 16

usemtl m17
f 4 16 17

usemtl m18
f 4 17 5

usemtl m19
f 5 17 18

usemtl m20
f 5 18 6

usemtl m21
f 6 18 19

usemtl m22
f 6 19 7

usemtl m23
f 7 19 20

usemtl m24
f 7 20 8

usemtl m25
f 8 20 21

usemtl m26
f 8 21 22

usemtl m27
f 8 22 9

usemtl m28
f 9 22 23

usemtl m29
f 9 23 24

usemtl m30
f 9 24 10

usemtl m31
f 10 24 25

usemtl m32
f 10 25 26

usemtl m33
f 10 26 27

usemtl m34
f 10 27 28

usemtl m35
f 10 28 11

usemtl m36
f 11 28 12

usemtl m37
f 12 28 29

usemtl m38
f 12 29 30

usemtl m39
f 12 30 31

usemtl m40
f 12 31 32

usemtl m41
f 12 32 33

usemtl m42
f 12 33 13

usemtl m43
f 13 33 14

usemtl m44
f 14 33 34

usemtl m45
f 14 34 35

usemtl m46
f 14 35 15

usemtl m47
f 15 35 16

usemtl m48
f 16 35 36

usemtl m49
f 16 36 37

usemtl m50
f 16 37 17

usemtl m51
f 17 37 18

usemtl m52
f 18 37 38

usemtl m53
f 18 38 39

usemtl m54
f 18 39 40

usemtl m55
f 18 40 41

usemtl m56
f 18 41 42

usemtl m57
f 18 42 19

usemtl m58
f 19 42 43

usemtl m59
f 19 43 20

usemtl m60
f 20 43 44

usemtl m61
f 20 44 21

usemtl m62
f 21 44 45

usemtl m63
f 21 45 22

usemtl m64
f 22 45 23

usemtl m65
f 23 45 25

usemtl m66
f 23 25 24

usemtl m67
f 32 35 34

usemtl m68
f 32 34 33

usemtl m69
f 46 47 48

usemtl m70
f 46 48 49

usemtl m71
f 46 49 50

usemtl m72
f 46 50 51

usemtl m73
f 46 51 52

usemtl m74
f 46 52 48

usemtl m75
f 46 48 47

usemtl m76
f 47 48 53

usemtl m77
f 47 53 54

usemtl m78
f 47 54 31

usemtl m79
f 47 31 30

usemtl m80
f 47 30 55

usemtl m81
f 47 55 48

usemtl m82
f 48 55 56

usemtl m83
f 48 56 57

usemtl m84
f 48 57 49

usemtl m85
f 49 57 50

usemtl m86
f 50 57 56

usemtl m87
f 50 56 58

usemtl m88
f 58 56 59

usemtl m89
f 58 59 60

usemtl m90
f 60 59 61

usemtl m91
f 60 61 62

usemtl m92
f 62 61 63

usemtl m93
f 62 63 50

usemtl m94
f 50 63 51

usemtl m95
f 51 63 52

usemtl m96
f 52 63 48

usemtl m97
f 48 63 61

usemtl m98
f 48 61 64

usemtl m99
f 48 64 53

usemtl m100
f 53 64 65

usemtl m101
f 53 65 54

usemtl m102
f 54 65 66

usemtl m103
f 54 66 67

usemtl m104
f 54 67 35

usemtl m105
f 54 35 32

usemtl m106
f 54 32 31

usemtl m107
f 56 55 59

usemtl m108
f 59 55 61

usemtl m109
f 61 55 30

usemtl m110
f 61 30 68

usemtl m111
f 61 68 69

usemtl m112
f 61 69 60

usemtl m113
f 61 60 68

usemtl m114
f 61 68 64

usemtl m115
f 64 68 70

usemtl m116
f 64 70 65

usemtl m117
f 65 70 66

usemtl m118
f 66 70 71

usemtl m119
f 66 71 72

usemtl m120
f 66 72 39

usemtl m121
f 66 39 67

usemtl m122
f 67 39 38

usemtl m123
f 67 38 35

usemtl m124
f 35 38 73

usemtl m125
f 35 73 36

usemtl m126
f 36 73 37

usemtl m127
f 37 73 38

usemtl m128
f 74 75 76

usemtl m129
f 74 76 77

usemtl m130
f 74 77 78

usemtl m131
f 74 78 79

usemtl m132
f 74 79 80

usemtl m133
f 74 80 75

usemtl m134
f 75 80 81

usemtl m135
f 81 80 82

usemtl m136
f 81 82 83

usemtl m137
f 83 82 84

usemtl m138
f 83 84 85

usemtl m139
f 85 84 86

usemtl m140
f 86 84 87

usemtl m141
f 86 87 88

usemtl m142
f 88 87 89

usemtl m143
f 88 89 90

usemtl m144
f 90 89 91

usemtl m145
f 90 91 92

usemtl m146
f 92 91 93

usemtl m147
f 92 93 94

usemtl m148
f 92 94 95

usemtl m149
f 95 94 96

usemtl m150
f 96 94 97

usemtl m151
f 96 97 98

usemtl m152
f 96 98 99

usemtl m153
f 99 98 100

usemtl m154
f 99 100 101

usemtl m155
f 101 100 102

usemtl m156
f 101 102 103

usemtl m157
f 103 102 104

usemtl m158
f 103 104 105

usemtl m159
f 105 104 106

usemtl m160
f 105 106 107

usemtl m161
f 105 107 108

usemtl m162
f 108 107 109

usemtl m163
f 109 107 110

usemtl m164
f 109 110 111

usemtl m165
f 111 110 112

usemtl m166
f 111 112 113

usemtl m167
f 111 113 114

usemtl m168
f 111 114 115

usemtl m169
f 115 114 116

usemtl m170
f 116 114 117

usemtl m171
f 117 114 118

usemtl m172
f 117 118 119

usemtl m173
f 119 118 120

usemtl m174
f 119 120 121

usemtl m175
f 119 121 122

usemtl m176
f 122 121 123

usemtl m177
f 122 123 124

usemtl m178
f 124 123 125

usemtl m179
f 125 123 126

usemtl m180
f 126 123 127

usemtl m181
f 126 127 128

usemtl m182
f 126 128 129

usemtl m183
f 126 129 130

usemtl m184
f 130 129 131

usemtl m185
f 130 131 132

usemtl m186
f 132 131 76

usemtl m187
f 76 131 133

usemtl m188
f 76 133 77

usemtl m189
f 77 133 134

usemtl m190
f 77 134 78

usemtl m191
f 78 134 135

usemtl m192
f 78 135 79

usemtl m193
f 79 135 136

usemtl m194
f 79 136 137

usemtl m195
f 79 137 80

usemtl m196
f 80 137 82

usemtl m197
f 82 137 136

usemtl m198
f 82 136 138

usemtl m199
f 82 138 84

usemtl m200
f 84 138 139

usemtl m201
f 84 139 87

usemtl m202
f 87 139 140

usemtl m203
f 87 140 141

usemtl m204
f 87 141 142

usemtl m205
f 87 142 89

usemtl m206
f 89 142 91

usemtl m207
f 91 142 143

usemtl m208
f 91 143 93

usemtl m209
f 93 143 144

usemtl m210
f 93 144 145

usemtl m211
f 93 145 94

usemtl m212
f 94 145 146

usemtl m213
f 94 146 97

usemtl m214
f 97 146 147

usemtl m215
f 97 147 148

usemtl m216
f 97 148 98

usemtl m217
f 98 148 149

usemtl m218
f 98 149 150

usemtl m219
f 98 150 100

usemtl m220
f 100 150 151

usemtl m221
f 100 151 102

usemtl m222
f 102 151 152

usemtl m223
f 102 152 104

usemtl m224
f 104 152 153

usemtl m225
f 104 153 106

usemtl m226
f 106 153 154

usemtl m227
f 106 154 148

usemtl m228
f 106 148 147

usemtl m229
f 106 147 107

usemtl m230
f 107 147 110

usemtl m231
f 110 147 146

usemtl m232
f 110 146 155

usemtl m233
f 110 155 156

usemtl m234
f 110 156 112

usemtl m235
f 112 156 113

usemtl m236
f 113 156 157

usemtl m237
f 113 157 158

usemtl m238
f 113 158 114

usemtl m239
f 114 158 159

usemtl m240
f 114 159 160

usemtl m241
f 114 160 118

usemtl m242
f 118 160 161

usemtl m243
f 118 161 162

usemtl m244
f 118 162 120

usemtl m245
f 120 162 121

usemtl m246
f 121 162 163

usemtl m247
f 121 163 164

usemtl m248
f 121 164 123

usemtl m249
f 123 164 165

usemtl m250
f 123 165 127

usemtl m251
f 127 165 166

usemtl m252
f 127 166 167

usemtl m253
f 127 167 168

usemtl m254
f 127 168 169

usemtl m255
f 127 169 170

usemtl m256
f 127 170 128

usemtl m257
f 128 170 171

usemtl m258
f 128 171 172

usemtl m259
f 128 172 129

usemtl m260
f 129 172 173

usemtl m261
f 129 173 140

usemtl m262
f 129 140 131

usemtl m263
f 131 140 139

usemtl m264
f 131 139 133

usemtl m265
f 133 139 138

usemtl m266
f 133 138 135

usemtl m267
f 133 135 134

usemtl m268
f 174 68 69

usemtl m269
f 174 69 175

usemtl m270
f 174 175 176

usemtl m271
f 174 176 163

usemtl m272
f 174 163 162

usemtl m273
f 174 162 177

usemtl m274
f 174 177 68

usemtl m275
f 68 177 178

usemtl m276
f 68 178 70

usemtl m277
f 70 178 179

usemtl m278
f 70 179 71

usemtl m279
f 71 179 180

usemtl m280
f 71 180 181

usemtl m281
f 71 181 182

usemtl m282
f 71 182 72

usemtl m283
f 72 182 39

usemtl m284
f 39 182 40

usemtl m285
f 40 182 183

usemtl m286
f 40 183 41

usemtl m287
f 41 183 181

usemtl m288
f 41 181 184

usemtl m289
f 41 184 42

usemtl m290
f 42 184 43

usemtl m291
f 43 184 45

usemtl m292
f 43 45 44

usemtl m293
f 176 175 185

usemtl m294
f 176 185 186

usemtl m295
f 176 186 163

usemtl m296
f 163 186 164

usemtl m297
f 164 186 187

usemtl m298
f 164 187 165

usemtl m299
f 165 187 166

usemtl m300
f 166 187 188

usemtl m301
f 166 188 189

usemtl m302
f 166 189 167

usemtl m303
f 167 189 190

usemtl m304
f 167 190 191

usemtl m305
f 167 191 192

usemtl m306
f 167 192 168

usemtl m307
f 168 192 193

usemtl m308
f 168 193 169

usemtl m309
f 169 193 194

usemtl m310
f 169 194 170

usemtl m311
f 170 194 195

usemtl m312
f 170 195 171

usemtl m313
f 171 195 196

usemtl m314
f 171 196 197

usemtl m315
f 171 197 173

usemtl m316
f 171 173 172

usemtl m317
f 186 185 198

usemtl m318
f 186 198 199

usemtl m319
f 186 199 187

usemtl m320
f 187 199 200

usemtl m321
f 187 200 188

usemtl m322
f 188 200 201

usemtl m323
f 188 201 202

usemtl m324
f 188 202 203

usemtl m325
f 188 203 204

usemtl m326
f 188 204 189

usemtl m327
f 189 204 190

usemtl m328
f 190 204 205

usemtl m329
f 190 205 191

usemtl m330
f 191 205 203

usemtl m331
f 191 203 206

usemtl m332
f 191 206 192

usemtl m333
f 192 206 207

usemtl m334
f 192 207 193

usemtl m335
f 193 207 194

usemtl m336
f 194 207 202

usemtl m337
f 194 202 196

usemtl m338
f 194 196 195

usemtl m339
f 208 209 201

usemtl m340
f 208 201 210

usemtl m341
f 208 210 211

usemtl m342
f 208 211 212

usemtl m343
f 208 212 213

usemtl m344
f 208 213 209

usemtl m345
f 209 213 214

usemtl m346
f 209 214 201

usemtl m347
f 201 214 215

usemtl m348
f 201 215 216

usemtl m349
f 201 216 196

usemtl m350
f 201 196 202

usemtl m351
f 68 60 69

usemtl m352
f 217 213 212

usemtl m353
f 217 212 218

usemtl m354
f 217 218 219

usemtl m355
f 217 219 220

usemtl m356
f 217 220 221

usemtl m357
f 217 221 213

usemtl m358
f 213 221 222

usemtl m359
f 213 222 214

usemtl m360
f 214 222 223

usemtl m361
f 214 223 224

usemtl m362
f 214 224 215

usemtl m363
f 215 224 225

usemtl m364
f 215 225 226

usemtl m365
f 215 226 227

usemtl m366
f 215 227 228

usemtl m367
f 215 228 216

usemtl m368
f 216 228 229

usemtl m369
f 216 229 230

usemtl m370
f 216 230 231

usemtl m371
f 216 231 196

usemtl m372
f 196 231 197

usemtl m373
f 197 231 232

usemtl m374
f 197 232 233

usemtl m375
f 197 233 173

usemtl m376
f 173 233 234

usemtl m377
f 173 234 140

usemtl m378
f 140 234 141

usemtl m379
f 141 234 142

usemtl m380
f 142 234 233

usemtl m381
f 142 233 143

usemtl m382
f 143 233 232

usemtl m383
f 143 232 144

usemtl m384
f 144 232 235

usemtl m385
f 144 235 236

usemtl m386
f 144 236 145

usemtl m387
f 145 236 146

usemtl m388
f 146 236 155

usemtl m389
f 155 236 230

usemtl m390
f 155 230 229

usemtl m391
f 155 229 156

usemtl m392
f 156 229 237

usemtl m393
f 156 237 157

usemtl m394
f 157 237 238

usemtl m395
f 157 238 239

usemtl m396
f 157 239 158

usemtl m397
f 158 239 240

usemtl m398
f 158 240 241

usemtl m399
f 158 241 242

usemtl m400
f 158 242 159

usemtl m401
f 159 242 243

usemtl m402
f 159 243 244

usemtl m403
f 159 244 160

usemtl m404
f 160 244 245

usemtl m405
f 160 245 161

usemtl m406
f 161 245 246

usemtl m407
f 161 246 247

usemtl m408
f 161 247 162

usemtl m409
f 162 247 177

usemtl m410
f 177 247 248

usemtl m411
f 177 248 178

usemtl m412
f 178 248 180

usemtl m413
f 178 180 179

usemtl m414
f 218 212 211

usemtl m415
f 218 211 249

usemtl m416
f 218 249 250

usemtl m417
f 218 250 219

usemtl m418
f 219 250 251

usemtl m419
f 219 251 227

usemtl m420
f 219 227 252

usemtl m421
f 219 252 220

usemtl m422
f 220 252 253

usemtl m423
f 220 253 221

usemtl m424
f 221 253 222

usemtl m425
f 222 253 223

usemtl m426
f 223 253 254

usemtl m427
f 223 254 224

usemtl m428
f 224 254 225

usemtl m429
f 225 254 253

usemtl m430
f 225 253 255

usemtl m431
f 225 255 226

usemtl m432
f 226 255 227

usemtl m433
f 227 255 252

usemtl m434
f 252 255 253

usemtl m435
f 256 249 211

usemtl m436
f 256 211 210

usemtl m437
f 256 210 257

usemtl m438
f 256 257 258

usemtl m439
f 256 258 259

usemtl m440
f 256 259 260

usemtl m441
f 256 260 261

usemtl m442
f 256 261 249

usemtl m443
f 249 261 250

usemtl m444
f 250 261 262

usemtl m445
f 250 262 251

usemtl m446
f 251 262 228

usemtl m447
f 251 228 227

usemtl m448
f 201 200 210

usemtl m449
f 210 200 257

usemtl m450
f 257 200 263

usemtl m451
f 257 263 264

usemtl m452
f 257 264 68

usemtl m453
f 257 68 29

usemtl m454
f 257 29 258

usemtl m455
f 258 29 28

usemtl m456
f 258 28 27

usemtl m457
f 258 27 259

usemtl m458
f 259 27 248

usemtl m459
f 259 248 265

usemtl m460
f 259 265 266

usemtl m461
f 259 266 267

usemtl m462
f 259 267 260

usemtl m463
f 260 267 228

usemtl m464
f 260 228 262

usemtl m465
f 260 262 261

usemtl m466
f 268 269 270

usemtl m467
f 268 270 269

usemtl m468
f 268 269 271

usemtl m469
f 268 271 272

usemtl m470
f 268 272 269

usemtl m471
f 269 272 271

usemtl m472
f 269 271 270

usemtl m473
f 269 270 271

usemtl m474
f 271 270 273

usemtl m475
f 271 273 270

usemtl m476
f 273 271 272

usemtl m477
f 273 272 271

usemtl m478
f 263 200 199

usemtl m479
f 263 199 198

usemtl m480
f 263 198 274

usemtl m481
f 263 274 264

usemtl m482
f 264 274 175

usemtl m483
f 264 175 68

usemtl m484
f 68 175 69

usemtl m485
f 275 276 272

usemtl m486
f 275 272 268

usemtl m487
f 275 268 272

usemtl m488
f 275 272 276

usemtl m489
f 275 276 277

usemtl m490
f 275 277 276

usemtl m491
f 276 277 278

usemtl m492
f 276 278 277

usemtl m493
f 277 278 279

usemtl m494
f 277 279 278

usemtl m495
f 278 279 198

usemtl m496
f 278 198 279

usemtl m497
f 279 198 185

usemtl m498
f 279 185 175

usemtl m499
f 279 175 274

usemtl m500
f 279 274 198

usemtl m501
f 29 68 30

usemtl m502
f 203 202 206

usemtl m503
f 206 202 207

usemtl m504
f 204 203 205

usemtl m505
f 138 136 135

usemtl m506
f 280 281 282

usemtl m507
f 280 282 281

usemtl m508
f 280 281 283

usemtl m509
f 280 283 284

usemtl m510
f 280 284 285

usemtl m511
f 280 285 286

usemtl m512
f 280 286 281

usemtl m513
f 281 286 287

usemtl m514
f 281 287 288

usemtl m515
f 281 288 289

usemtl m516
f 281 289 282

usemtl m517
f 281 282 290

usemtl m518
f 281 290 291

usemtl m519
f 281 291 292

usemtl m520
f 281 292 293

usemtl m521
f 281 293 283

usemtl m522
f 283 293 284

usemtl m523
f 284 293 292

usemtl m524
f 284 292 294

usemtl m525
f 294 292 295

usemtl m526
f 295 292 291

usemtl m527
f 295 291 296

usemtl m528
f 295 296 248

usemtl m529
f 295 248 291

usemtl m530
f 295 291 297

usemtl m531
f 297 291 288

usemtl m532
f 297 288 287

usemtl m533
f 297 287 284

usemtl m534
f 284 287 285

usemtl m535
f 285 287 286

usemtl m536
f 248 247 298

usemtl m537
f 248 298 296

usemtl m538
f 248 296 291

usemtl m539
f 248 291 290

usemtl m540
f 248 290 180

usemtl m541
f 180 290 299

usemtl m542
f 180 299 300

usemtl m543
f 180 300 181

usemtl m544
f 181 300 301

usemtl m545
f 181 301 184

usemtl m546
f 184 301 45

usemtl m547
f 45 301 25

usemtl m548
f 25 301 302

usemtl m549
f 25 302 26

usemtl m550
f 26 302 289

usemtl m551
f 26 289 291

usemtl m552
f 26 291 248

usemtl m553
f 26 248 27

usemtl m554
f 247 246 303

usemtl m555
f 247 303 298

usemtl m556
f 298 303 304

usemtl m557
f 298 304 305

usemtl m558
f 298 305 266

usemtl m559
f 298 266 265

usemtl m560
f 298 265 296

usemtl m561
f 296 265 248

usemtl m562
f 246 245 306

usemtl m563
f 246 306 303

usemtl m564
f 303 306 304

usemtl m565
f 304 306 305

usemtl m566
f 305 306 307

usemtl m567
f 305 307 266

usemtl m568
f 266 307 267

usemtl m569
f 267 307 244

usemtl m570
f 267 244 308

usemtl m571
f 267 308 228

usemtl m572
f 228 308 309

usemtl m573
f 228 309 229

usemtl m574
f 229 309 238

usemtl m575
f 229 238 237

usemtl m576
f 290 282 299

usemtl m577
f 299 282 301

usemtl m578
f 299 301 300

usemtl m579
f 310 311 312

usemtl m580
f 310 312 313

usemtl m581
f 310 313 314

usemtl m582
f 310 314 315

usemtl m583
f 310 315 314

usemtl m584
f 310 314 312

usemtl m585
f 310 312 311

usemtl m586
f 311 312 313

usemtl m587
f 311 313 312

usemtl m588
f 313 311 316

usemtl m589
f 313 316 314

usemtl m590
f 313 314 316

usemtl m591
f 313 316 311

usemtl m592
f 245 307 306

usemtl m593
f 307 245 244

usemtl m594
f 302 282 289

usemtl m595
f 282 302 301

usemtl m596
f 291 289 288

usemtl m597
f 315 314 317

usemtl m598
f 315 317 318

usemtl m599
f 315 318 319

usemtl m600
f 315 319 317

usemtl m601
f 315 317 314

usemtl m602
f 319 306 304

usemtl m603
f 319 304 318

usemtl m604
f 319 318 317

usemtl m605
f 304 319 318

usemtl m606
f 319 304 306

usemtl m607
f 312 314 313

usemtl m608
f 181 183 182

usemtl m609
f 320 321 322

usemtl m610
f 320 322 242

usemtl m611
f 320 242 241

usemtl m612
f 320 241 240

usemtl m613
f 320 240 323

usemtl m614
f 320 323 321

usemtl m615
f 321 323 238

usemtl m616
f 321 238 309

usemtl m617
f 321 309 324

usemtl m618
f 321 324 322

usemtl m619
f 322 324 325

usemtl m620
f 322 325 326

usemtl m621
f 322 326 242

usemtl m622
f 242 326 243

usemtl m623
f 243 326 327

usemtl m624
f 243 327 328

usemtl m625
f 243 328 308

usemtl m626
f 243 308 244

usemtl m627
f 231 230 235

usemtl m628
f 231 235 232

usemtl m629
f 236 235 230

usemtl m630
f 328 327 326

usemtl m631
f 328 326 325

usemtl m632
f 328 325 324

usemtl m633
f 328 324 309

usemtl m634
f 328 309 308

usemtl m635
f 148 154 149

usemtl m636
f 149 154 153

usemtl m637
f 149 153 152

usemtl m638
f 149 152 150

usemtl m639
f 150 152 151

usemtl m640
f 239 238 323

usemtl m641
f 239 323 240

