mtllib 29789.mtl
o runescapemodel
v 27 101 -4
v 30 103 -4
v 27 101 0
v 28 98 0
v 28 98 -4
v 23 98 -4
v 23 102 -4
v 27 104 -4
v 27 104 -2
v 31 108 -2
v 30 103 0
v 27 104 0
v 23 102 0
v 23 98 0
v 27 107 -4
v 29 109 -4
v 27 107 0
v 26 110 -4
v 26 110 -2
v 30 114 -2
v 29 109 0
v 26 110 0
v 30 91 -6
v 32 93 -4
v 30 91 3
v 30 90 4
v 28 86 2
v 29 87 -5
v 24 91 -6
v 24 97 -4
v 29 94 -5
v 29 94 -1
v 33 98 -2
v 32 93 1
v 29 94 2
v 24 97 0
v 23 90 3
v 25 87 0
v 25 88 -5
v 26 97 0
v 26 97 -4
v 28 97 -4
v 28 97 0
v 21 110 0
v 21 110 -4
v 22 106 -4
v 22 106 0
v -28 98 0
v -23 98 -4
v -23 98 0
v -23 101 0
v -27 101 0
v -27 101 -4
v -28 98 -4
v -23 101 -4
v -21 110 0
v -21 110 -4
v -26 110 -4
v -26 110 0
v -23 90 3
v -24 91 -6
v -24 97 -4
v -24 97 0
v -30 89 4
v -25 87 0
v -25 88 -5
v -29 87 -5
v -30 91 -6
v -28 97 -4
v -28 97 0
v -28 86 2
vn 658 49 1024
vn 526 126 471
vn 548 353 -1024
vn 512 342 -256
vn 256 171 256
vn -512 512 512
vn -768 128 1280
vn 597 -256 768
vn -44 -726 0
vn 42 -163 0
vn 380 -93 -471
vn 341 -256 -768
vn -768 64 -1280
vn -256 256 -512
vn 954 16 768
vn 606 60 471
vn 1140 287 -768
vn 341 -341 1024
vn -44 -726 0
vn 42 -163 0
vn 420 -126 -471
vn 597 -426 -1024
vn 1042 134 971
vn 669 -56 413
vn 756 19 -653
vn 367 56 -774
vn 284 453 -183
vn 118 712 576
vn -767 272 844
vn -512 -810 788
vn 442 -705 995
vn -70 -756 -18
vn 16 -193 -18
vn 547 -276 -431
vn 634 -891 -921
vn -268 -776 -877
vn -801 156 -340
vn -777 925 -235
vn -339 427 322
vn 0 -1060 -438
vn 0 -938 512
vn 500 -507 256
vn 256 -743 -219
vn -512 128 -256
vn -256 64 256
vn -768 192 512
vn -768 192 -512
vn -512 342 -512
vn 512 512 512
vn 256 256 -256
vn 768 56 -1024
vn -512 -113 -512
vn -1024 -226 768
vn -256 171 256
vn 768 112 768
vn 512 112 -256
vn 256 56 256
vn -256 -28 512
vn -512 -56 -512
vn 813 163 -334
vn 767 272 844
vn 512 -721 521
vn 274 -513 -471
vn -497 5 -838
vn 811 941 -230
vn 339 427 322
vn -118 712 576
vn -723 11 733
vn -500 -477 230
vn -256 -693 -234
vn -267 482 -174
usemtl m0
f 1 2 3

usemtl m1
f 1 3 4

usemtl m2
f 1 4 5

usemtl m3
f 1 5 6

usemtl m4
f 1 6 7

usemtl m5
f 1 7 8

usemtl m6
f 1 8 2

usemtl m7
f 2 8 9

usemtl m8
f 2 9 10

usemtl m9
f 2 10 11

usemtl m10
f 2 11 3

usemtl m11
f 3 11 12

usemtl m12
f 3 12 13

usemtl m13
f 3 13 14

usemtl m14
f 3 14 4

usemtl m15
f 4 14 6

usemtl m16
f 4 6 5

usemtl m17
f 9 12 11

usemtl m18
f 9 11 10

usemtl m19
f 15 16 17

usemtl m20
f 15 17 8

usemtl m21
f 15 8 7

usemtl m22
f 15 7 18

usemtl m23
f 15 18 16

usemtl m24
f 16 18 19

usemtl m25
f 16 19 20

usemtl m26
f 16 20 21

usemtl m27
f 16 21 17

usemtl m28
f 17 21 22

usemtl m29
f 17 22 13

usemtl m30
f 17 13 12

usemtl m31
f 17 12 8

usemtl m32
f 19 22 21

usemtl m33
f 19 21 20

usemtl m34
f 23 24 25

usemtl m35
f 23 25 26

usemtl m36
f 23 26 27

usemtl m37
f 23 27 28

usemtl m38
f 23 28 29

usemtl m39
f 23 29 30

usemtl m40
f 23 30 31

usemtl m41
f 23 31 24

usemtl m42
f 24 31 32

usemtl m43
f 24 32 33

usemtl m44
f 24 33 34

usemtl m45
f 24 34 25

usemtl m46
f 25 34 35

usemtl m47
f 25 35 36

usemtl m48
f 25 36 26

usemtl m49
f 26 36 37

usemtl m50
f 26 37 38

usemtl m51
f 26 38 27

usemtl m52
f 27 38 28

usemtl m53
f 28 38 39

usemtl m54
f 28 39 29

usemtl m55
f 29 39 38

usemtl m56
f 29 38 37

usemtl m57
f 29 37 30

usemtl m58
f 30 37 36

usemtl m59
f 30 36 40

usemtl m60
f 30 40 41

usemtl m61
f 30 41 31

usemtl m62
f 31 41 42

usemtl m63
f 31 42 35

usemtl m64
f 35 42 43

usemtl m65
f 35 43 40

usemtl m66
f 35 40 36

usemtl m67
f 32 35 34

usemtl m68
f 32 34 33

usemtl m69
f 44 45 46

usemtl m70
f 44 46 47

usemtl m71
f 44 47 22

usemtl m72
f 22 47 13

usemtl m73
f 13 47 7

usemtl m74
f 13 7 6

usemtl m75
f 13 6 14

usemtl m76
f 7 46 18

usemtl m77
f 18 46 45

usemtl m78
f 42 41 43

usemtl m79
f 43 41 40

usemtl m80
f 48 49 50

usemtl m81
f 48 50 51

usemtl m82
f 48 51 52

usemtl m83
f 48 52 53

usemtl m84
f 48 53 54

usemtl m85
f 48 54 49

usemtl m86
f 49 54 53

usemtl m87
f 49 53 55

usemtl m88
f 49 55 51

usemtl m89
f 49 51 50

usemtl m90
f 56 55 57

usemtl m91
f 57 55 58

usemtl m92
f 58 55 53

usemtl m93
f 58 53 59

usemtl m94
f 59 53 52

usemtl m95
f 59 52 51

usemtl m96
f 59 51 56

usemtl m97
f 56 51 55

usemtl m98
f 60 61 62

usemtl m99
f 60 62 63

usemtl m100
f 60 63 64

usemtl m101
f 60 64 65

usemtl m102
f 60 65 61

usemtl m103
f 61 65 66

usemtl m104
f 61 66 67

usemtl m105
f 61 67 68

usemtl m106
f 61 68 62

usemtl m107
f 62 68 69

usemtl m108
f 62 69 70

usemtl m109
f 62 70 63

usemtl m110
f 63 70 64

usemtl m111
f 64 70 69

usemtl m112
f 64 69 68

usemtl m113
f 64 68 71

usemtl m114
f 64 71 65

usemtl m115
f 65 71 67

usemtl m116
f 65 67 66

usemtl m117
f 71 68 67

usemtl m118
f 17 15 22

usemtl m119
f 22 15 18

usemtl m120
f 46 7 47

