newmtl m0
Kd 0.8196078431372549 0.796078431372549 0.796078431372549
newmtl m1
Kd 0.8196078431372549 0.796078431372549 0.796078431372549
newmtl m2
Kd 0.8196078431372549 0.796078431372549 0.796078431372549
