newmtl m0
Kd 0.5333333333333333 0.047058823529411764 0.023529411764705882
newmtl m1
Kd 0.5333333333333333 0.047058823529411764 0.023529411764705882
newmtl m2
Kd 0.592156862745098 0.058823529411764705 0.023529411764705882
newmtl m3
Kd 0.592156862745098 0.058823529411764705 0.023529411764705882
newmtl m4
Kd 0.49019607843137253 0.047058823529411764 0.01568627450980392
newmtl m5
Kd 0.49019607843137253 0.047058823529411764 0.01568627450980392
