newmtl m0
Kd 0.596078431372549 0.5647058823529412 0.32941176470588235
newmtl m1
Kd 0.596078431372549 0.5647058823529412 0.32941176470588235
newmtl m2
Kd 0.596078431372549 0.5647058823529412 0.32941176470588235
newmtl m3
Kd 0.596078431372549 0.5647058823529412 0.32941176470588235
newmtl m4
Kd 0.596078431372549 0.5647058823529412 0.32941176470588235
newmtl m5
Kd 0.596078431372549 0.5647058823529412 0.32941176470588235
newmtl m6
Kd 0.596078431372549 0.5647058823529412 0.32941176470588235
newmtl m7
Kd 0.596078431372549 0.5647058823529412 0.32941176470588235
newmtl m8
Kd 0.596078431372549 0.5647058823529412 0.32941176470588235
newmtl m9
Kd 0.596078431372549 0.5647058823529412 0.32941176470588235
newmtl m10
Kd 0.596078431372549 0.5647058823529412 0.32941176470588235
newmtl m11
Kd 0.2901960784313726 0.2627450980392157 0.03137254901960784
newmtl m12
Kd 0.2901960784313726 0.2627450980392157 0.03137254901960784
newmtl m13
Kd 0.2901960784313726 0.2627450980392157 0.03137254901960784
newmtl m14
Kd 0.2901960784313726 0.2627450980392157 0.03137254901960784
newmtl m15
Kd 0.2901960784313726 0.2627450980392157 0.03137254901960784
newmtl m16
Kd 0.2901960784313726 0.2627450980392157 0.03137254901960784
newmtl m17
Kd 0.2901960784313726 0.2627450980392157 0.03137254901960784
newmtl m18
Kd 0.2901960784313726 0.2627450980392157 0.03137254901960784
newmtl m19
Kd 0.596078431372549 0.5647058823529412 0.32941176470588235
newmtl m20
Kd 0.596078431372549 0.5647058823529412 0.32941176470588235
newmtl m21
Kd 0.596078431372549 0.5647058823529412 0.32941176470588235
newmtl m22
Kd 0.596078431372549 0.5647058823529412 0.32941176470588235
newmtl m23
Kd 0.596078431372549 0.5647058823529412 0.32941176470588235
newmtl m24
Kd 0.596078431372549 0.5647058823529412 0.32941176470588235
newmtl m25
Kd 0.596078431372549 0.5647058823529412 0.32941176470588235
newmtl m26
Kd 0.596078431372549 0.5647058823529412 0.32941176470588235
newmtl m27
Kd 0.596078431372549 0.5647058823529412 0.32941176470588235
newmtl m28
Kd 0.596078431372549 0.5647058823529412 0.32941176470588235
newmtl m29
Kd 0.596078431372549 0.5647058823529412 0.32941176470588235
newmtl m30
Kd 0.596078431372549 0.5647058823529412 0.32941176470588235
newmtl m31
Kd 0.596078431372549 0.5647058823529412 0.32941176470588235
newmtl m32
Kd 0.596078431372549 0.5647058823529412 0.32941176470588235
newmtl m33
Kd 0.596078431372549 0.5647058823529412 0.32941176470588235
newmtl m34
Kd 0.2901960784313726 0.2627450980392157 0.03137254901960784
newmtl m35
Kd 0.2901960784313726 0.2627450980392157 0.03137254901960784
newmtl m36
Kd 0.2901960784313726 0.2627450980392157 0.03137254901960784
newmtl m37
Kd 0.2901960784313726 0.2627450980392157 0.03137254901960784
newmtl m38
Kd 0.2901960784313726 0.2627450980392157 0.03137254901960784
newmtl m39
Kd 0.596078431372549 0.5647058823529412 0.32941176470588235
newmtl m40
Kd 0.596078431372549 0.5647058823529412 0.32941176470588235
newmtl m41
Kd 0.2901960784313726 0.2627450980392157 0.03137254901960784
newmtl m42
Kd 0.2901960784313726 0.2627450980392157 0.03137254901960784
newmtl m43
Kd 0.596078431372549 0.5647058823529412 0.32941176470588235
newmtl m44
Kd 0.596078431372549 0.5647058823529412 0.32941176470588235
newmtl m45
Kd 0.596078431372549 0.5647058823529412 0.32941176470588235
newmtl m46
Kd 0.596078431372549 0.5647058823529412 0.32941176470588235
newmtl m47
Kd 0.596078431372549 0.5647058823529412 0.32941176470588235
newmtl m48
Kd 0.596078431372549 0.5647058823529412 0.32941176470588235
newmtl m49
Kd 0.596078431372549 0.5647058823529412 0.32941176470588235
newmtl m50
Kd 0.596078431372549 0.5647058823529412 0.32941176470588235
newmtl m51
Kd 0.596078431372549 0.5647058823529412 0.32941176470588235
newmtl m52
Kd 0.596078431372549 0.5647058823529412 0.32941176470588235
newmtl m53
Kd 0.596078431372549 0.5647058823529412 0.32941176470588235
newmtl m54
Kd 0.596078431372549 0.5647058823529412 0.32941176470588235
newmtl m55
Kd 0.596078431372549 0.5647058823529412 0.32941176470588235
newmtl m56
Kd 0.596078431372549 0.5647058823529412 0.32941176470588235
newmtl m57
Kd 0.2901960784313726 0.2627450980392157 0.03137254901960784
newmtl m58
Kd 0.2901960784313726 0.2627450980392157 0.03137254901960784
newmtl m59
Kd 0.596078431372549 0.5647058823529412 0.32941176470588235
newmtl m60
Kd 0.596078431372549 0.5647058823529412 0.32941176470588235
newmtl m61
Kd 0.596078431372549 0.5647058823529412 0.32941176470588235
newmtl m62
Kd 0.596078431372549 0.5647058823529412 0.32941176470588235
newmtl m63
Kd 0.596078431372549 0.5647058823529412 0.32941176470588235
newmtl m64
Kd 0.596078431372549 0.5647058823529412 0.32941176470588235
newmtl m65
Kd 0.596078431372549 0.5647058823529412 0.32941176470588235
newmtl m66
Kd 0.596078431372549 0.5647058823529412 0.32941176470588235
newmtl m67
Kd 0.596078431372549 0.5647058823529412 0.32941176470588235
newmtl m68
Kd 0.596078431372549 0.5647058823529412 0.32941176470588235
newmtl m69
Kd 0.596078431372549 0.5647058823529412 0.32941176470588235
newmtl m70
Kd 0.2901960784313726 0.2627450980392157 0.03137254901960784
newmtl m71
Kd 0.2901960784313726 0.2627450980392157 0.03137254901960784
newmtl m72
Kd 0.2901960784313726 0.2627450980392157 0.03137254901960784
newmtl m73
Kd 0.596078431372549 0.5647058823529412 0.32941176470588235
newmtl m74
Kd 0.596078431372549 0.5647058823529412 0.32941176470588235
newmtl m75
Kd 0.596078431372549 0.5647058823529412 0.32941176470588235
newmtl m76
Kd 0.596078431372549 0.5647058823529412 0.32941176470588235
newmtl m77
Kd 0.596078431372549 0.5647058823529412 0.32941176470588235
newmtl m78
Kd 0.596078431372549 0.5647058823529412 0.32941176470588235
newmtl m79
Kd 0.596078431372549 0.5647058823529412 0.32941176470588235
newmtl m80
Kd 0.596078431372549 0.5647058823529412 0.32941176470588235
newmtl m81
Kd 0.596078431372549 0.5647058823529412 0.32941176470588235
newmtl m82
Kd 0.596078431372549 0.5647058823529412 0.32941176470588235
newmtl m83
Kd 0.596078431372549 0.5647058823529412 0.32941176470588235
newmtl m84
Kd 0.596078431372549 0.5647058823529412 0.32941176470588235
newmtl m85
Kd 0.596078431372549 0.5647058823529412 0.32941176470588235
newmtl m86
Kd 0.596078431372549 0.5647058823529412 0.32941176470588235
newmtl m87
Kd 0.596078431372549 0.5647058823529412 0.32941176470588235
newmtl m88
Kd 0.596078431372549 0.5647058823529412 0.32941176470588235
newmtl m89
Kd 0.596078431372549 0.5647058823529412 0.32941176470588235
newmtl m90
Kd 0.596078431372549 0.5647058823529412 0.32941176470588235
newmtl m91
Kd 0.596078431372549 0.5647058823529412 0.32941176470588235
newmtl m92
Kd 0.596078431372549 0.5647058823529412 0.32941176470588235
newmtl m93
Kd 0.596078431372549 0.5647058823529412 0.32941176470588235
newmtl m94
Kd 0.596078431372549 0.5647058823529412 0.32941176470588235
newmtl m95
Kd 0.596078431372549 0.5647058823529412 0.32941176470588235
newmtl m96
Kd 0.596078431372549 0.5647058823529412 0.32941176470588235
newmtl m97
Kd 0.596078431372549 0.5647058823529412 0.32941176470588235
newmtl m98
Kd 0.35294117647058826 0.3254901960784314 0.10980392156862745
newmtl m99
Kd 0.35294117647058826 0.3254901960784314 0.10980392156862745
newmtl m100
Kd 0.35294117647058826 0.3254901960784314 0.10980392156862745
newmtl m101
Kd 0.35294117647058826 0.3254901960784314 0.10980392156862745
newmtl m102
Kd 0.35294117647058826 0.3254901960784314 0.10980392156862745
newmtl m103
Kd 0.35294117647058826 0.3254901960784314 0.10980392156862745
newmtl m104
Kd 0.35294117647058826 0.3254901960784314 0.10980392156862745
newmtl m105
Kd 0.35294117647058826 0.3254901960784314 0.10980392156862745
newmtl m106
Kd 0.35294117647058826 0.3254901960784314 0.10980392156862745
newmtl m107
Kd 0.35294117647058826 0.3254901960784314 0.10980392156862745
newmtl m108
Kd 0.35294117647058826 0.3254901960784314 0.10980392156862745
newmtl m109
Kd 0.35294117647058826 0.3254901960784314 0.10980392156862745
newmtl m110
Kd 0.35294117647058826 0.3254901960784314 0.10980392156862745
newmtl m111
Kd 0.35294117647058826 0.3254901960784314 0.10980392156862745
newmtl m112
Kd 0.35294117647058826 0.3254901960784314 0.10980392156862745
newmtl m113
Kd 0.35294117647058826 0.3254901960784314 0.10980392156862745
newmtl m114
Kd 0.35294117647058826 0.3254901960784314 0.10980392156862745
newmtl m115
Kd 0.596078431372549 0.5647058823529412 0.32941176470588235
newmtl m116
Kd 0.2901960784313726 0.2627450980392157 0.03137254901960784
newmtl m117
Kd 0.2901960784313726 0.2627450980392157 0.03137254901960784
newmtl m118
Kd 0.2901960784313726 0.2627450980392157 0.03137254901960784
newmtl m119
Kd 0.2901960784313726 0.2627450980392157 0.03137254901960784
newmtl m120
Kd 0.2901960784313726 0.2627450980392157 0.03137254901960784
newmtl m121
Kd 0.35294117647058826 0.3254901960784314 0.10980392156862745
newmtl m122
Kd 0.35294117647058826 0.3254901960784314 0.10980392156862745
newmtl m123
Kd 0.35294117647058826 0.3254901960784314 0.10980392156862745
newmtl m124
Kd 0.2901960784313726 0.2627450980392157 0.03137254901960784
newmtl m125
Kd 0.2901960784313726 0.2627450980392157 0.03137254901960784
newmtl m126
Kd 0.2901960784313726 0.2627450980392157 0.03137254901960784
newmtl m127
Kd 0.596078431372549 0.5647058823529412 0.32941176470588235
newmtl m128
Kd 0.43529411764705883 0.41568627450980394 0.24313725490196078
newmtl m129
Kd 0.43529411764705883 0.41568627450980394 0.24313725490196078
newmtl m130
Kd 0.43529411764705883 0.41568627450980394 0.24313725490196078
newmtl m131
Kd 0.43529411764705883 0.41568627450980394 0.24313725490196078
newmtl m132
Kd 0.43529411764705883 0.41568627450980394 0.24313725490196078
newmtl m133
Kd 0.43529411764705883 0.41568627450980394 0.24313725490196078
newmtl m134
Kd 0.43529411764705883 0.41568627450980394 0.24313725490196078
newmtl m135
Kd 0.43529411764705883 0.41568627450980394 0.24313725490196078
newmtl m136
Kd 0.43529411764705883 0.41568627450980394 0.24313725490196078
newmtl m137
Kd 0.43529411764705883 0.41568627450980394 0.24313725490196078
newmtl m138
Kd 0.43529411764705883 0.41568627450980394 0.24313725490196078
newmtl m139
Kd 0.43529411764705883 0.41568627450980394 0.24313725490196078
newmtl m140
Kd 0.43529411764705883 0.41568627450980394 0.24313725490196078
newmtl m141
Kd 0.43529411764705883 0.41568627450980394 0.24313725490196078
newmtl m142
Kd 0.43529411764705883 0.41568627450980394 0.24313725490196078
newmtl m143
Kd 0.43529411764705883 0.41568627450980394 0.24313725490196078
newmtl m144
Kd 0.43529411764705883 0.41568627450980394 0.24313725490196078
newmtl m145
Kd 0.43529411764705883 0.41568627450980394 0.24313725490196078
newmtl m146
Kd 0.43529411764705883 0.41568627450980394 0.24313725490196078
newmtl m147
Kd 0.43529411764705883 0.41568627450980394 0.24313725490196078
newmtl m148
Kd 0.43529411764705883 0.41568627450980394 0.24313725490196078
newmtl m149
Kd 0.43529411764705883 0.41568627450980394 0.24313725490196078
newmtl m150
Kd 0.43529411764705883 0.41568627450980394 0.24313725490196078
newmtl m151
Kd 0.43529411764705883 0.41568627450980394 0.24313725490196078
newmtl m152
Kd 0.43529411764705883 0.41568627450980394 0.24313725490196078
newmtl m153
Kd 0.43529411764705883 0.41568627450980394 0.24313725490196078
newmtl m154
Kd 0.43529411764705883 0.41568627450980394 0.24313725490196078
newmtl m155
Kd 0.43529411764705883 0.41568627450980394 0.24313725490196078
newmtl m156
Kd 0.43529411764705883 0.41568627450980394 0.24313725490196078
newmtl m157
Kd 0.43529411764705883 0.41568627450980394 0.24313725490196078
newmtl m158
Kd 0.43529411764705883 0.41568627450980394 0.24313725490196078
newmtl m159
Kd 0.43529411764705883 0.41568627450980394 0.24313725490196078
newmtl m160
Kd 0.43529411764705883 0.41568627450980394 0.24313725490196078
newmtl m161
Kd 0.43529411764705883 0.41568627450980394 0.24313725490196078
newmtl m162
Kd 0.43529411764705883 0.41568627450980394 0.24313725490196078
newmtl m163
Kd 0.43529411764705883 0.41568627450980394 0.24313725490196078
newmtl m164
Kd 0.43529411764705883 0.41568627450980394 0.24313725490196078
newmtl m165
Kd 0.43529411764705883 0.41568627450980394 0.24313725490196078
newmtl m166
Kd 0.43529411764705883 0.41568627450980394 0.24313725490196078
newmtl m167
Kd 0.43529411764705883 0.41568627450980394 0.24313725490196078
newmtl m168
Kd 0.43529411764705883 0.41568627450980394 0.24313725490196078
newmtl m169
Kd 0.43529411764705883 0.41568627450980394 0.24313725490196078
newmtl m170
Kd 0.43529411764705883 0.41568627450980394 0.24313725490196078
newmtl m171
Kd 0.43529411764705883 0.41568627450980394 0.24313725490196078
newmtl m172
Kd 0.43529411764705883 0.41568627450980394 0.24313725490196078
newmtl m173
Kd 0.43529411764705883 0.41568627450980394 0.24313725490196078
newmtl m174
Kd 0.43529411764705883 0.41568627450980394 0.24313725490196078
newmtl m175
Kd 0.43529411764705883 0.41568627450980394 0.24313725490196078
newmtl m176
Kd 0.43529411764705883 0.41568627450980394 0.24313725490196078
newmtl m177
Kd 0.43529411764705883 0.41568627450980394 0.24313725490196078
newmtl m178
Kd 0.43529411764705883 0.41568627450980394 0.24313725490196078
newmtl m179
Kd 0.43529411764705883 0.41568627450980394 0.24313725490196078
newmtl m180
Kd 0.43529411764705883 0.41568627450980394 0.24313725490196078
newmtl m181
Kd 0.43529411764705883 0.41568627450980394 0.24313725490196078
newmtl m182
Kd 0.43529411764705883 0.41568627450980394 0.24313725490196078
newmtl m183
Kd 0.43529411764705883 0.41568627450980394 0.24313725490196078
newmtl m184
Kd 0.43529411764705883 0.41568627450980394 0.24313725490196078
newmtl m185
Kd 0.43529411764705883 0.41568627450980394 0.24313725490196078
newmtl m186
Kd 0.43529411764705883 0.41568627450980394 0.24313725490196078
newmtl m187
Kd 0.43529411764705883 0.41568627450980394 0.24313725490196078
newmtl m188
Kd 0.43529411764705883 0.41568627450980394 0.24313725490196078
newmtl m189
Kd 0.43529411764705883 0.41568627450980394 0.24313725490196078
newmtl m190
Kd 0.43529411764705883 0.41568627450980394 0.24313725490196078
newmtl m191
Kd 0.43529411764705883 0.41568627450980394 0.24313725490196078
newmtl m192
Kd 0.43529411764705883 0.41568627450980394 0.24313725490196078
newmtl m193
Kd 0.43529411764705883 0.41568627450980394 0.24313725490196078
newmtl m194
Kd 0.43529411764705883 0.41568627450980394 0.24313725490196078
newmtl m195
Kd 0.43529411764705883 0.41568627450980394 0.24313725490196078
newmtl m196
Kd 0.43529411764705883 0.41568627450980394 0.24313725490196078
newmtl m197
Kd 0.43529411764705883 0.41568627450980394 0.24313725490196078
newmtl m198
Kd 0.43529411764705883 0.41568627450980394 0.24313725490196078
newmtl m199
Kd 0.43529411764705883 0.41568627450980394 0.24313725490196078
newmtl m200
Kd 0.43529411764705883 0.41568627450980394 0.24313725490196078
newmtl m201
Kd 0.43529411764705883 0.41568627450980394 0.24313725490196078
newmtl m202
Kd 0.43529411764705883 0.41568627450980394 0.24313725490196078
newmtl m203
Kd 0.43529411764705883 0.41568627450980394 0.24313725490196078
newmtl m204
Kd 0.43529411764705883 0.41568627450980394 0.24313725490196078
newmtl m205
Kd 0.43529411764705883 0.41568627450980394 0.24313725490196078
newmtl m206
Kd 0.43529411764705883 0.41568627450980394 0.24313725490196078
newmtl m207
Kd 0.43529411764705883 0.41568627450980394 0.24313725490196078
newmtl m208
Kd 0.43529411764705883 0.41568627450980394 0.24313725490196078
newmtl m209
Kd 0.43529411764705883 0.41568627450980394 0.24313725490196078
newmtl m210
Kd 0.43529411764705883 0.41568627450980394 0.24313725490196078
newmtl m211
Kd 0.43529411764705883 0.41568627450980394 0.24313725490196078
newmtl m212
Kd 0.43529411764705883 0.41568627450980394 0.24313725490196078
newmtl m213
Kd 0.43529411764705883 0.41568627450980394 0.24313725490196078
newmtl m214
Kd 0.43529411764705883 0.41568627450980394 0.24313725490196078
newmtl m215
Kd 0.43529411764705883 0.41568627450980394 0.24313725490196078
newmtl m216
Kd 0.43529411764705883 0.41568627450980394 0.24313725490196078
newmtl m217
Kd 0.43529411764705883 0.41568627450980394 0.24313725490196078
newmtl m218
Kd 0.43529411764705883 0.41568627450980394 0.24313725490196078
newmtl m219
Kd 0.43529411764705883 0.41568627450980394 0.24313725490196078
newmtl m220
Kd 0.43529411764705883 0.41568627450980394 0.24313725490196078
newmtl m221
Kd 0.43529411764705883 0.41568627450980394 0.24313725490196078
newmtl m222
Kd 0.43529411764705883 0.41568627450980394 0.24313725490196078
newmtl m223
Kd 0.43529411764705883 0.41568627450980394 0.24313725490196078
newmtl m224
Kd 0.6274509803921569 0.5215686274509804 0.26666666666666666
newmtl m225
Kd 0.6274509803921569 0.5215686274509804 0.26666666666666666
newmtl m226
Kd 0.5803921568627451 0.48627450980392156 0.25098039215686274
newmtl m227
Kd 0.6274509803921569 0.5215686274509804 0.26666666666666666
newmtl m228
Kd 0.6274509803921569 0.5215686274509804 0.26666666666666666
newmtl m229
Kd 0.6274509803921569 0.5215686274509804 0.26666666666666666
newmtl m230
Kd 0.6274509803921569 0.5215686274509804 0.26666666666666666
newmtl m231
Kd 0.6666666666666666 0.5568627450980392 0.28627450980392155
newmtl m232
Kd 0.6666666666666666 0.5568627450980392 0.28627450980392155
newmtl m233
Kd 0.6666666666666666 0.5568627450980392 0.28627450980392155
newmtl m234
Kd 0.6666666666666666 0.5568627450980392 0.28627450980392155
newmtl m235
Kd 0.6274509803921569 0.5215686274509804 0.26666666666666666
newmtl m236
Kd 0.6274509803921569 0.5215686274509804 0.26666666666666666
newmtl m237
Kd 0.5803921568627451 0.48627450980392156 0.25098039215686274
newmtl m238
Kd 0.6666666666666666 0.5568627450980392 0.28627450980392155
newmtl m239
Kd 0.5803921568627451 0.48627450980392156 0.25098039215686274
newmtl m240
Kd 0.6274509803921569 0.5215686274509804 0.26666666666666666
newmtl m241
Kd 0.6274509803921569 0.5215686274509804 0.26666666666666666
newmtl m242
Kd 0.6274509803921569 0.5215686274509804 0.26666666666666666
newmtl m243
Kd 0.6274509803921569 0.5215686274509804 0.26666666666666666
newmtl m244
Kd 0.6274509803921569 0.5215686274509804 0.26666666666666666
newmtl m245
Kd 0.6274509803921569 0.5215686274509804 0.26666666666666666
newmtl m246
Kd 0.6274509803921569 0.5215686274509804 0.26666666666666666
newmtl m247
Kd 0.6666666666666666 0.5568627450980392 0.28627450980392155
newmtl m248
Kd 0.6666666666666666 0.5568627450980392 0.28627450980392155
newmtl m249
Kd 0.6666666666666666 0.5568627450980392 0.28627450980392155
newmtl m250
Kd 0.6666666666666666 0.5568627450980392 0.28627450980392155
newmtl m251
Kd 0.6274509803921569 0.5215686274509804 0.26666666666666666
newmtl m252
Kd 0.6274509803921569 0.5215686274509804 0.26666666666666666
newmtl m253
Kd 0.6274509803921569 0.5215686274509804 0.26666666666666666
newmtl m254
Kd 0.6666666666666666 0.5568627450980392 0.28627450980392155
newmtl m255
Kd 0.6274509803921569 0.5215686274509804 0.26666666666666666
newmtl m256
Kd 0.6274509803921569 0.5215686274509804 0.26666666666666666
newmtl m257
Kd 0.6274509803921569 0.5215686274509804 0.26666666666666666
newmtl m258
Kd 0.6274509803921569 0.5215686274509804 0.26666666666666666
newmtl m259
Kd 0.6274509803921569 0.5215686274509804 0.26666666666666666
newmtl m260
Kd 0.6274509803921569 0.5215686274509804 0.26666666666666666
newmtl m261
Kd 0.5803921568627451 0.48627450980392156 0.25098039215686274
newmtl m262
Kd 0.6274509803921569 0.5215686274509804 0.26666666666666666
newmtl m263
Kd 0.6666666666666666 0.5568627450980392 0.28627450980392155
newmtl m264
Kd 0.6666666666666666 0.5568627450980392 0.28627450980392155
newmtl m265
Kd 0.6666666666666666 0.5568627450980392 0.28627450980392155
newmtl m266
Kd 0.6666666666666666 0.5568627450980392 0.28627450980392155
newmtl m267
Kd 0.6274509803921569 0.5215686274509804 0.26666666666666666
newmtl m268
Kd 0.5803921568627451 0.48627450980392156 0.25098039215686274
newmtl m269
Kd 0.6274509803921569 0.5215686274509804 0.26666666666666666
newmtl m270
Kd 0.6666666666666666 0.5568627450980392 0.28627450980392155
newmtl m271
Kd 0.6274509803921569 0.5215686274509804 0.26666666666666666
newmtl m272
Kd 0.6274509803921569 0.5215686274509804 0.26666666666666666
newmtl m273
Kd 0.6274509803921569 0.5215686274509804 0.26666666666666666
newmtl m274
Kd 0.6274509803921569 0.5215686274509804 0.26666666666666666
newmtl m275
Kd 0.6274509803921569 0.5215686274509804 0.26666666666666666
newmtl m276
Kd 0.6274509803921569 0.5215686274509804 0.26666666666666666
newmtl m277
Kd 0.6274509803921569 0.5215686274509804 0.26666666666666666
newmtl m278
Kd 0.6274509803921569 0.5215686274509804 0.26666666666666666
newmtl m279
Kd 0.6666666666666666 0.5568627450980392 0.28627450980392155
newmtl m280
Kd 0.6666666666666666 0.5568627450980392 0.28627450980392155
newmtl m281
Kd 0.6666666666666666 0.5568627450980392 0.28627450980392155
newmtl m282
Kd 0.6666666666666666 0.5568627450980392 0.28627450980392155
newmtl m283
Kd 0.6274509803921569 0.5215686274509804 0.26666666666666666
newmtl m284
Kd 0.6274509803921569 0.5215686274509804 0.26666666666666666
newmtl m285
Kd 0.6274509803921569 0.5215686274509804 0.26666666666666666
newmtl m286
Kd 0.6666666666666666 0.5568627450980392 0.28627450980392155
newmtl m287
Kd 0.6274509803921569 0.5215686274509804 0.26666666666666666
newmtl m288
Kd 0.6274509803921569 0.5215686274509804 0.26666666666666666
newmtl m289
Kd 0.6274509803921569 0.5215686274509804 0.26666666666666666
newmtl m290
Kd 0.6274509803921569 0.5215686274509804 0.26666666666666666
newmtl m291
Kd 0.6274509803921569 0.5215686274509804 0.26666666666666666
newmtl m292
Kd 0.6274509803921569 0.5215686274509804 0.26666666666666666
newmtl m293
Kd 0.5803921568627451 0.48627450980392156 0.25098039215686274
newmtl m294
Kd 0.6274509803921569 0.5215686274509804 0.26666666666666666
newmtl m295
Kd 0.6666666666666666 0.5568627450980392 0.28627450980392155
newmtl m296
Kd 0.6666666666666666 0.5568627450980392 0.28627450980392155
newmtl m297
Kd 0.6666666666666666 0.5568627450980392 0.28627450980392155
newmtl m298
Kd 0.6666666666666666 0.5568627450980392 0.28627450980392155
newmtl m299
Kd 0.6274509803921569 0.5215686274509804 0.26666666666666666
newmtl m300
Kd 0.5803921568627451 0.48627450980392156 0.25098039215686274
newmtl m301
Kd 0.6274509803921569 0.5215686274509804 0.26666666666666666
newmtl m302
Kd 0.6666666666666666 0.5568627450980392 0.28627450980392155
newmtl m303
Kd 0.6274509803921569 0.5215686274509804 0.26666666666666666
newmtl m304
Kd 0.5803921568627451 0.48627450980392156 0.25098039215686274
newmtl m305
Kd 0.6274509803921569 0.5215686274509804 0.26666666666666666
newmtl m306
Kd 0.6274509803921569 0.5215686274509804 0.26666666666666666
newmtl m307
Kd 0.6274509803921569 0.5215686274509804 0.26666666666666666
newmtl m308
Kd 0.6274509803921569 0.5215686274509804 0.26666666666666666
newmtl m309
Kd 0.6666666666666666 0.5568627450980392 0.28627450980392155
newmtl m310
Kd 0.6666666666666666 0.5568627450980392 0.28627450980392155
newmtl m311
Kd 0.6274509803921569 0.5215686274509804 0.26666666666666666
newmtl m312
Kd 0.6274509803921569 0.5215686274509804 0.26666666666666666
newmtl m313
Kd 0.5803921568627451 0.48627450980392156 0.25098039215686274
newmtl m314
Kd 0.6274509803921569 0.5215686274509804 0.26666666666666666
newmtl m315
Kd 0.6274509803921569 0.5215686274509804 0.26666666666666666
newmtl m316
Kd 0.6666666666666666 0.5568627450980392 0.28627450980392155
newmtl m317
Kd 0.6666666666666666 0.5568627450980392 0.28627450980392155
newmtl m318
Kd 0.6666666666666666 0.5568627450980392 0.28627450980392155
newmtl m319
Kd 0.5803921568627451 0.48627450980392156 0.25098039215686274
newmtl m320
Kd 0.6274509803921569 0.5215686274509804 0.26666666666666666
newmtl m321
Kd 0.6274509803921569 0.5215686274509804 0.26666666666666666
newmtl m322
Kd 0.6274509803921569 0.5215686274509804 0.26666666666666666
newmtl m323
Kd 0.6274509803921569 0.5215686274509804 0.26666666666666666
newmtl m324
Kd 0.6274509803921569 0.5215686274509804 0.26666666666666666
newmtl m325
Kd 0.6274509803921569 0.5215686274509804 0.26666666666666666
newmtl m326
Kd 0.6274509803921569 0.5215686274509804 0.26666666666666666
newmtl m327
Kd 0.6666666666666666 0.5568627450980392 0.28627450980392155
newmtl m328
Kd 0.6666666666666666 0.5568627450980392 0.28627450980392155
newmtl m329
Kd 0.6666666666666666 0.5568627450980392 0.28627450980392155
newmtl m330
Kd 0.6666666666666666 0.5568627450980392 0.28627450980392155
newmtl m331
Kd 0.6274509803921569 0.5215686274509804 0.26666666666666666
newmtl m332
Kd 0.6274509803921569 0.5215686274509804 0.26666666666666666
newmtl m333
Kd 0.6274509803921569 0.5215686274509804 0.26666666666666666
newmtl m334
Kd 0.6666666666666666 0.5568627450980392 0.28627450980392155
newmtl m335
Kd 0.6274509803921569 0.5215686274509804 0.26666666666666666
newmtl m336
Kd 0.6274509803921569 0.5215686274509804 0.26666666666666666
newmtl m337
Kd 0.6274509803921569 0.5215686274509804 0.26666666666666666
newmtl m338
Kd 0.5803921568627451 0.48627450980392156 0.25098039215686274
newmtl m339
Kd 0.6274509803921569 0.5215686274509804 0.26666666666666666
newmtl m340
Kd 0.6274509803921569 0.5215686274509804 0.26666666666666666
newmtl m341
Kd 0.6274509803921569 0.5215686274509804 0.26666666666666666
newmtl m342
Kd 0.6274509803921569 0.5215686274509804 0.26666666666666666
newmtl m343
Kd 0.6666666666666666 0.5568627450980392 0.28627450980392155
newmtl m344
Kd 0.6666666666666666 0.5568627450980392 0.28627450980392155
newmtl m345
Kd 0.6666666666666666 0.5568627450980392 0.28627450980392155
newmtl m346
Kd 0.6666666666666666 0.5568627450980392 0.28627450980392155
newmtl m347
Kd 0.6274509803921569 0.5215686274509804 0.26666666666666666
newmtl m348
Kd 0.6274509803921569 0.5215686274509804 0.26666666666666666
newmtl m349
Kd 0.5803921568627451 0.48627450980392156 0.25098039215686274
newmtl m350
Kd 0.6666666666666666 0.5568627450980392 0.28627450980392155
newmtl m351
Kd 0.5803921568627451 0.48627450980392156 0.25098039215686274
newmtl m352
Kd 0.6274509803921569 0.5215686274509804 0.26666666666666666
newmtl m353
Kd 0.6274509803921569 0.5215686274509804 0.26666666666666666
newmtl m354
Kd 0.5803921568627451 0.48627450980392156 0.25098039215686274
newmtl m355
Kd 0.6274509803921569 0.5215686274509804 0.26666666666666666
newmtl m356
Kd 0.6274509803921569 0.5215686274509804 0.26666666666666666
newmtl m357
Kd 0.6274509803921569 0.5215686274509804 0.26666666666666666
newmtl m358
Kd 0.6274509803921569 0.5215686274509804 0.26666666666666666
newmtl m359
Kd 0.6666666666666666 0.5568627450980392 0.28627450980392155
newmtl m360
Kd 0.6666666666666666 0.5568627450980392 0.28627450980392155
newmtl m361
Kd 0.6666666666666666 0.5568627450980392 0.28627450980392155
newmtl m362
Kd 0.6666666666666666 0.5568627450980392 0.28627450980392155
newmtl m363
Kd 0.6274509803921569 0.5215686274509804 0.26666666666666666
newmtl m364
Kd 0.6274509803921569 0.5215686274509804 0.26666666666666666
newmtl m365
Kd 0.5803921568627451 0.48627450980392156 0.25098039215686274
newmtl m366
Kd 0.6666666666666666 0.5568627450980392 0.28627450980392155
newmtl m367
Kd 0.5803921568627451 0.48627450980392156 0.25098039215686274
newmtl m368
Kd 0.6274509803921569 0.5215686274509804 0.26666666666666666
newmtl m369
Kd 0.6274509803921569 0.5215686274509804 0.26666666666666666
newmtl m370
Kd 0.5803921568627451 0.48627450980392156 0.25098039215686274
newmtl m371
Kd 0.6274509803921569 0.5215686274509804 0.26666666666666666
newmtl m372
Kd 0.6274509803921569 0.5215686274509804 0.26666666666666666
newmtl m373
Kd 0.6274509803921569 0.5215686274509804 0.26666666666666666
newmtl m374
Kd 0.6274509803921569 0.5215686274509804 0.26666666666666666
newmtl m375
Kd 0.6666666666666666 0.5568627450980392 0.28627450980392155
newmtl m376
Kd 0.6666666666666666 0.5568627450980392 0.28627450980392155
newmtl m377
Kd 0.6666666666666666 0.5568627450980392 0.28627450980392155
newmtl m378
Kd 0.6666666666666666 0.5568627450980392 0.28627450980392155
newmtl m379
Kd 0.6274509803921569 0.5215686274509804 0.26666666666666666
newmtl m380
Kd 0.6274509803921569 0.5215686274509804 0.26666666666666666
newmtl m381
Kd 0.5803921568627451 0.48627450980392156 0.25098039215686274
newmtl m382
Kd 0.6666666666666666 0.5568627450980392 0.28627450980392155
newmtl m383
Kd 0.5803921568627451 0.48627450980392156 0.25098039215686274
newmtl m384
Kd 0.6274509803921569 0.5215686274509804 0.26666666666666666
newmtl m385
Kd 0.6274509803921569 0.5215686274509804 0.26666666666666666
newmtl m386
Kd 0.6274509803921569 0.5215686274509804 0.26666666666666666
newmtl m387
Kd 0.6274509803921569 0.5215686274509804 0.26666666666666666
newmtl m388
Kd 0.6274509803921569 0.5215686274509804 0.26666666666666666
newmtl m389
Kd 0.6274509803921569 0.5215686274509804 0.26666666666666666
newmtl m390
Kd 0.6274509803921569 0.5215686274509804 0.26666666666666666
newmtl m391
Kd 0.6666666666666666 0.5568627450980392 0.28627450980392155
newmtl m392
Kd 0.6666666666666666 0.5568627450980392 0.28627450980392155
newmtl m393
Kd 0.6666666666666666 0.5568627450980392 0.28627450980392155
newmtl m394
Kd 0.6666666666666666 0.5568627450980392 0.28627450980392155
newmtl m395
Kd 0.6274509803921569 0.5215686274509804 0.26666666666666666
newmtl m396
Kd 0.6274509803921569 0.5215686274509804 0.26666666666666666
newmtl m397
Kd 0.6274509803921569 0.5215686274509804 0.26666666666666666
newmtl m398
Kd 0.6666666666666666 0.5568627450980392 0.28627450980392155
newmtl m399
Kd 0.6274509803921569 0.5215686274509804 0.26666666666666666
newmtl m400
Kd 0.6941176470588235 0.6078431372549019 0.4
newmtl m401
Kd 0.6941176470588235 0.6078431372549019 0.4
newmtl m402
Kd 0.6941176470588235 0.6078431372549019 0.4
newmtl m403
Kd 0.6941176470588235 0.6078431372549019 0.4
newmtl m404
Kd 0.6941176470588235 0.6078431372549019 0.4
newmtl m405
Kd 0.6941176470588235 0.6078431372549019 0.4
newmtl m406
Kd 0.6941176470588235 0.6078431372549019 0.4
newmtl m407
Kd 0.6941176470588235 0.6078431372549019 0.4
newmtl m408
Kd 0.6941176470588235 0.6078431372549019 0.4
newmtl m409
Kd 0.6941176470588235 0.6078431372549019 0.4
