mtllib 30316.mtl
o runescapemodel
v -1 12 -60
v 24 5 -54
v 23 0 -50
v -3 8 -58
v -17 30 -55
v -15 30 -55
v 1 14 -59
v 24 7 -54
v 45 12 -36
v 44 8 -32
v 41 9 -31
v 21 3 -47
v -2 9 -54
v -20 26 -50
v -12 45 -36
v -8 44 -38
v -13 42 -30
v -17 25 -47
v 42 14 -38
v 50 30 -18
v 49 26 -13
v 44 25 -14
v 49 30 -21
v 7 52 -21
v -16 44 -31
v 3 51 -14
v 32 45 -13
v 32 44 -17
v 8 51 -23
v 4 48 -14
v 30 42 -7
v 29 39 -9
v 15 61 -7
v 15 38 -7
v -8 38 -18
v -8 61 -15
v -8 61 -9
v 9 61 -2
v 25 61 14
v 28 38 14
v 30 38 14
v 17 38 -10
v -8 38 -21
v -31 38 -7
v -12 39 -21
v -12 61 -18
v -7 77 -10
v -7 77 -3
v -25 61 -2
v -23 48 1
v -8 48 -5
v 7 48 1
v 19 61 14
v 13 85 11
v 20 85 11
v 24 82 17
v 27 62 17
v 29 38 17
v 15 38 36
v 17 38 39
v 19 31 39
v 32 31 13
v 19 31 -13
v -8 31 -23
v -33 38 -10
v -44 38 14
v -41 61 14
v -31 61 -7
v -29 77 -2
v -11 77 -13
v -24 77 3
v -34 61 14
v -31 48 14
v 7 48 29
v 15 48 14
v 9 61 31
v 4 85 29
v 9 85 34
v 15 61 36
v -32 30 -10
v -8 30 -19
v -8 21 -15
v -29 21 -7
v -42 30 13
v -46 31 13
v -34 31 -13
v 16 30 -10
v 15 21 -7
v 9 0 -2
v -8 0 -9
v -24 0 -2
v -40 21 13
v -42 21 14
v -45 29 14
v -32 30 39
v -34 31 42
v -33 38 39
v -46 38 14
v -8 30 48
v -29 21 36
v -8 21 44
v 13 21 35
v 15 27 38
v 16 30 36
v -8 31 52
v -8 38 50
v -8 38 47
v -31 38 36
v 15 21 34
v 24 21 13
v 27 30 13
v -8 61 44
v -32 38 39
v -31 61 36
v -25 61 31
v -32 0 13
v -34 0 14
v -24 0 31
v -8 0 38
v 9 0 29
v 16 0 13
v 8 0 30
v -8 61 38
v 28 29 11
v 25 21 11
v 17 0 11
v -7 69 35
v -24 69 29
v -29 69 34
v -7 69 42
v -32 61 39
v -31 69 36
v -23 48 29
v -8 48 34
v 11 0 -47
v -15 0 -39
v -14 6 -35
v 13 6 -43
v 19 6 -34
v 20 0 -31
v -8 2 -22
v -10 6 -26
v -47 0 4
v -48 6 0
v -53 6 -10
v -55 0 -14
v -51 8 -6
v -12 8 -31
v 16 8 -39
v 0 84 -15
v -15 46 7
v -16 49 13
v -1 88 -9
v 7 88 -1
v 13 84 -2
v -4 45 22
v -9 48 21
v -14 50 18
v 1 89 -4
v 57 0 53
v 61 0 26
v 57 6 25
v 52 6 53
v 41 6 54
v 38 0 54
v 42 2 25
v 47 6 25
v 36 0 -22
v 40 6 -21
v 51 6 -21
v 55 0 -21
v 46 8 -21
v 52 8 25
v 47 8 54
vn 0 0 0
vn 0 0 0
vn 0 0 0
vn 0 0 0
vn 0 0 0
vn 0 0 0
vn 0 0 0
vn 0 0 0
vn 0 0 0
vn 0 0 0
vn 0 0 0
vn 0 0 0
vn 0 0 0
vn 0 0 0
vn 0 0 0
vn 0 0 0
vn 0 0 0
vn 0 0 0
vn 0 0 0
vn 0 0 0
vn 0 0 0
vn 0 0 0
vn 0 0 0
vn 0 0 0
vn 0 0 0
vn 0 0 0
vn 0 0 0
vn 0 0 0
vn 0 0 0
vn 0 0 0
vn 0 0 0
vn 0 0 0
vn 0 0 0
vn 0 0 0
vn 0 0 0
vn 0 0 0
vn 0 0 0
vn 0 0 0
vn 0 0 0
vn 0 0 0
vn 0 0 0
vn 0 0 0
vn 0 0 0
vn 0 0 0
vn 0 0 0
vn 0 0 0
vn 0 0 0
vn 0 0 0
vn 0 0 0
vn 0 0 0
vn 0 0 0
vn 0 0 0
vn 0 0 0
vn 0 0 0
vn 0 0 0
vn 0 0 0
vn 0 0 0
vn 0 0 0
vn 0 0 0
vn 0 0 0
vn 0 0 0
vn 0 0 0
vn 0 0 0
vn 0 0 0
vn 0 0 0
vn 0 0 0
vn 0 0 0
vn 0 0 0
vn 0 0 0
vn 0 0 0
vn 0 0 0
vn 0 0 0
vn 0 0 0
vn 0 0 0
vn 0 0 0
vn 0 0 0
vn 0 0 0
vn 0 0 0
vn 0 0 0
vn 0 0 0
vn 0 0 0
vn 0 0 0
vn 0 0 0
vn 0 0 0
vn 0 0 0
vn 0 0 0
vn 0 0 0
vn 0 0 0
vn 0 0 0
vn 0 0 0
vn 0 0 0
vn 0 0 0
vn 0 0 0
vn 0 0 0
vn 0 0 0
vn 0 0 0
vn 0 0 0
vn 0 0 0
vn 0 0 0
vn 0 0 0
vn 0 0 0
vn 0 0 0
vn 0 0 0
vn 0 0 0
vn 0 0 0
vn 0 0 0
vn 0 0 0
vn 0 0 0
vn 0 0 0
vn 0 0 0
vn 0 0 0
vn 0 0 0
vn 0 0 0
vn 0 0 0
vn 0 0 0
vn 0 0 0
vn 0 0 0
vn 0 0 0
vn 0 0 0
vn 0 0 0
vn 0 0 0
vn 0 0 0
vn 0 0 0
vn 0 0 0
vn 0 0 0
vn 0 0 0
vn 0 0 0
vn 0 0 0
vn 0 0 0
vn 0 0 0
vn 0 0 0
vn 0 0 0
vn 0 0 0
vn 0 0 0
vn 0 0 0
vn 0 0 0
vn 0 0 0
vn 0 0 0
vn 0 0 0
vn 0 0 0
vn 0 0 0
vn 0 0 0
vn 0 0 0
vn 0 0 0
vn 0 0 0
vn 0 0 0
vn 0 0 0
vn 0 0 0
vn 0 0 0
vn 0 0 0
vn 0 0 0
vn 0 0 0
vn 0 0 0
vn 0 0 0
vn 0 0 0
vn 0 0 0
vn 0 0 0
vn 0 0 0
vn 0 0 0
vn 0 0 0
vn 0 0 0
vn 0 0 0
vn 0 0 0
vn 0 0 0
vn 0 0 0
vn 0 0 0
vn 0 0 0
vn 0 0 0
vn 0 0 0
vn 0 0 0
vn 0 0 0
vn 0 0 0
vn 0 0 0
vn 0 0 0
usemtl m0
f 1 2 3

usemtl m1
f 1 3 4

usemtl m2
f 1 4 5

usemtl m3
f 1 5 6

usemtl m4
f 1 6 7

usemtl m5
f 1 7 2

usemtl m6
f 2 7 8

usemtl m7
f 2 8 9

usemtl m8
f 2 9 10

usemtl m9
f 2 10 3

usemtl m10
f 3 10 11

usemtl m11
f 3 11 12

usemtl m12
f 3 12 4

usemtl m13
f 4 12 13

usemtl m14
f 4 13 14

usemtl m15
f 4 14 5

usemtl m16
f 5 14 15

usemtl m17
f 5 15 16

usemtl m18
f 5 16 6

usemtl m19
f 6 16 17

usemtl m20
f 6 17 18

usemtl m21
f 6 18 7

usemtl m22
f 7 18 13

usemtl m23
f 7 13 8

usemtl m24
f 8 13 12

usemtl m25
f 8 12 19

usemtl m26
f 8 19 9

usemtl m27
f 9 19 20

usemtl m28
f 9 20 21

usemtl m29
f 9 21 10

usemtl m30
f 10 21 22

usemtl m31
f 10 22 11

usemtl m32
f 11 22 23

usemtl m33
f 11 23 19

usemtl m34
f 11 19 12

usemtl m35
f 24 15 25

usemtl m36
f 24 25 26

usemtl m37
f 24 26 27

usemtl m38
f 24 27 28

usemtl m39
f 24 28 29

usemtl m40
f 24 29 15

usemtl m41
f 15 29 16

usemtl m42
f 16 29 30

usemtl m43
f 16 30 17

usemtl m44
f 17 30 26

usemtl m45
f 17 26 25

usemtl m46
f 17 25 18

usemtl m47
f 18 25 14

usemtl m48
f 18 14 13

usemtl m49
f 15 14 25

usemtl m50
f 27 26 31

usemtl m51
f 27 31 20

usemtl m52
f 27 20 23

usemtl m53
f 27 23 28

usemtl m54
f 28 23 22

usemtl m55
f 28 22 32

usemtl m56
f 28 32 29

usemtl m57
f 29 32 30

usemtl m58
f 30 32 31

usemtl m59
f 30 31 26

usemtl m60
f 30 26 33

usemtl m61
f 30 33 34

usemtl m62
f 30 34 35

usemtl m63
f 30 35 26

usemtl m64
f 26 35 36

usemtl m65
f 26 36 33

usemtl m66
f 33 36 37

usemtl m67
f 33 37 38

usemtl m68
f 33 38 39

usemtl m69
f 33 39 40

usemtl m70
f 33 40 34

usemtl m71
f 34 40 41

usemtl m72
f 34 41 42

usemtl m73
f 34 42 35

usemtl m74
f 35 42 43

usemtl m75
f 35 43 44

usemtl m76
f 35 44 45

usemtl m77
f 35 45 36

usemtl m78
f 36 45 46

usemtl m79
f 36 46 47

usemtl m80
f 36 47 37

usemtl m81
f 37 47 48

usemtl m82
f 37 48 49

usemtl m83
f 37 49 50

usemtl m84
f 37 50 51

usemtl m85
f 37 51 38

usemtl m86
f 38 51 52

usemtl m87
f 38 52 53

usemtl m88
f 38 53 39

usemtl m89
f 39 53 54

usemtl m90
f 39 54 55

usemtl m91
f 39 55 56

usemtl m92
f 39 56 57

usemtl m93
f 39 57 40

usemtl m94
f 40 57 58

usemtl m95
f 40 58 59

usemtl m96
f 40 59 60

usemtl m97
f 40 60 41

usemtl m98
f 41 60 61

usemtl m99
f 41 61 62

usemtl m100
f 41 62 42

usemtl m101
f 42 62 63

usemtl m102
f 42 63 43

usemtl m103
f 43 63 64

usemtl m104
f 43 64 65

usemtl m105
f 43 65 44

usemtl m106
f 44 65 66

usemtl m107
f 44 66 67

usemtl m108
f 44 67 68

usemtl m109
f 44 68 45

usemtl m110
f 45 68 46

usemtl m111
f 46 68 69

usemtl m112
f 46 69 70

usemtl m113
f 46 70 47

usemtl m114
f 47 70 69

usemtl m115
f 47 69 71

usemtl m116
f 47 71 48

usemtl m117
f 48 71 49

usemtl m118
f 49 71 68

usemtl m119
f 49 68 72

usemtl m120
f 49 72 73

usemtl m121
f 49 73 50

usemtl m122
f 50 73 74

usemtl m123
f 50 74 75

usemtl m124
f 50 75 51

usemtl m125
f 51 75 52

usemtl m126
f 52 75 53

usemtl m127
f 53 75 76

usemtl m128
f 53 76 77

usemtl m129
f 53 77 54

usemtl m130
f 54 77 78

usemtl m131
f 54 78 55

usemtl m132
f 55 78 56

usemtl m133
f 56 78 79

usemtl m134
f 56 79 57

usemtl m135
f 57 79 59

usemtl m136
f 57 59 58

usemtl m137
f 20 31 21

usemtl m138
f 21 31 32

usemtl m139
f 21 32 22

usemtl m140
f 20 19 23

usemtl m141
f 80 81 82

usemtl m142
f 80 82 83

usemtl m143
f 80 83 84

usemtl m144
f 80 84 85

usemtl m145
f 80 85 86

usemtl m146
f 80 86 81

usemtl m147
f 81 86 64

usemtl m148
f 81 64 87

usemtl m149
f 81 87 82

usemtl m150
f 82 87 88

usemtl m151
f 82 88 89

usemtl m152
f 82 89 90

usemtl m153
f 82 90 83

usemtl m154
f 83 90 91

usemtl m155
f 83 91 92

usemtl m156
f 83 92 84

usemtl m157
f 84 92 93

usemtl m158
f 84 93 94

usemtl m159
f 84 94 95

usemtl m160
f 84 95 96

usemtl m161
f 84 96 85

usemtl m162
f 85 96 97

usemtl m163
f 85 97 98

usemtl m164
f 85 98 86

usemtl m165
f 86 98 65

usemtl m166
f 86 65 64

usemtl m167
f 99 95 100

usemtl m168
f 99 100 101

usemtl m169
f 99 101 102

usemtl m170
f 99 102 103

usemtl m171
f 99 103 104

usemtl m172
f 99 104 61

usemtl m173
f 99 61 105

usemtl m174
f 99 105 95

usemtl m175
f 95 105 96

usemtl m176
f 96 105 106

usemtl m177
f 96 106 97

usemtl m178
f 97 106 107

usemtl m179
f 97 107 108

usemtl m180
f 97 108 98

usemtl m181
f 98 108 66

usemtl m182
f 98 66 65

usemtl m183
f 104 109 110

usemtl m184
f 104 110 111

usemtl m185
f 104 111 62

usemtl m186
f 104 62 61

usemtl m187
f 60 106 105

usemtl m188
f 60 105 61

usemtl m189
f 63 62 111

usemtl m190
f 63 111 87

usemtl m191
f 63 87 64

usemtl m192
f 106 60 59

usemtl m193
f 106 59 107

usemtl m194
f 107 59 79

usemtl m195
f 107 79 112

usemtl m196
f 107 112 113

usemtl m197
f 107 113 108

usemtl m198
f 108 113 114

usemtl m199
f 108 114 66

usemtl m200
f 66 114 67

usemtl m201
f 67 114 115

usemtl m202
f 67 115 72

usemtl m203
f 67 72 68

usemtl m204
f 91 116 92

usemtl m205
f 92 116 117

usemtl m206
f 92 117 93

usemtl m207
f 93 117 100

usemtl m208
f 93 100 94

usemtl m209
f 94 100 95

usemtl m210
f 118 119 101

usemtl m211
f 118 101 100

usemtl m212
f 118 100 117

usemtl m213
f 120 121 110

usemtl m214
f 120 110 109

usemtl m215
f 120 109 102

usemtl m216
f 120 102 122

usemtl m217
f 122 102 119

usemtl m218
f 119 102 101

usemtl m219
f 76 123 112

usemtl m220
f 76 112 79

usemtl m221
f 76 79 78

usemtl m222
f 76 78 77

usemtl m223
f 71 69 68

usemtl m224
f 87 124 125

usemtl m225
f 87 125 88

usemtl m226
f 88 125 126

usemtl m227
f 88 126 89

usemtl m228
f 124 87 111

usemtl m229
f 124 111 125

usemtl m230
f 125 111 110

usemtl m231
f 125 110 126

usemtl m232
f 126 110 121

usemtl m233
f 127 128 129

usemtl m234
f 127 129 130

usemtl m235
f 127 130 112

usemtl m236
f 127 112 123

usemtl m237
f 127 123 128

usemtl m238
f 128 123 115

usemtl m239
f 128 115 129

usemtl m240
f 129 115 114

usemtl m241
f 129 114 131

usemtl m242
f 129 131 132

usemtl m243
f 129 132 130

usemtl m244
f 130 132 131

usemtl m245
f 130 131 112

usemtl m246
f 112 131 113

usemtl m247
f 113 131 114

usemtl m248
f 103 102 109

usemtl m249
f 103 109 104

usemtl m250
f 72 115 133

usemtl m251
f 72 133 73

usemtl m252
f 73 133 134

usemtl m253
f 73 134 74

usemtl m254
f 74 134 123

usemtl m255
f 74 123 76

usemtl m256
f 74 76 75

usemtl m257
f 115 123 134

usemtl m258
f 115 134 133

usemtl m259
f 135 136 137

usemtl m260
f 135 137 138

usemtl m261
f 135 138 139

usemtl m262
f 135 139 140

usemtl m263
f 140 139 141

usemtl m264
f 141 139 142

usemtl m265
f 141 142 143

usemtl m266
f 143 142 144

usemtl m267
f 143 144 145

usemtl m268
f 143 145 146

usemtl m269
f 146 145 136

usemtl m270
f 136 145 137

usemtl m271
f 137 145 147

usemtl m272
f 137 147 148

usemtl m273
f 137 148 138

usemtl m274
f 138 148 149

usemtl m275
f 138 149 139

usemtl m276
f 139 149 142

usemtl m277
f 142 149 148

usemtl m278
f 142 148 144

usemtl m279
f 144 148 147

usemtl m280
f 144 147 145

usemtl m281
f 150 151 152

usemtl m282
f 150 152 153

usemtl m283
f 150 153 154

usemtl m284
f 150 154 155

usemtl m285
f 150 155 156

usemtl m286
f 150 156 151

usemtl m287
f 151 156 157

usemtl m288
f 151 157 152

usemtl m289
f 152 157 158

usemtl m290
f 152 158 153

usemtl m291
f 153 158 159

usemtl m292
f 153 159 154

usemtl m293
f 154 159 157

usemtl m294
f 154 157 156

usemtl m295
f 154 156 155

usemtl m296
f 159 158 157

usemtl m297
f 160 161 162

usemtl m298
f 160 162 163

usemtl m299
f 160 163 164

usemtl m300
f 160 164 165

usemtl m301
f 165 164 166

usemtl m302
f 166 164 167

usemtl m303
f 166 167 168

usemtl m304
f 168 167 169

usemtl m305
f 168 169 170

usemtl m306
f 168 170 171

usemtl m307
f 171 170 161

usemtl m308
f 161 170 162

usemtl m309
f 162 170 172

usemtl m310
f 162 172 173

usemtl m311
f 162 173 163

usemtl m312
f 163 173 174

usemtl m313
f 163 174 164

usemtl m314
f 164 174 167

usemtl m315
f 167 174 173

usemtl m316
f 167 173 169

usemtl m317
f 169 173 172

usemtl m318
f 169 172 170

