mtllib 30530.mtl
o runescapemodel
v 11 21 7
v 12 40 13
v 16 32 7
v 11 17 22
v 11 -1 6
v 19 13 0
v 12 32 0
v 12 32 7
v 11 38 7
v 6 37 0
v 1 41 7
v -4 37 0
v -10 38 7
v -11 32 0
v -11 32 7
v -10 21 7
v -18 13 0
v -10 -1 6
v -10 17 22
v -11 40 13
v -15 32 7
v 18 9 -10
v 24 2 -18
v 24 2 -6
v 23 3 -4
v 20 6 0
v 15 12 -4
v 20 9 -10
v 27 2 -18
v 27 2 -6
v 27 2 -2
v 24 2 -2
v 22 5 2
v 23 6 0
v 22 7 2
v 19 7 2
v 14 13 0
v 18 12 -4
v 26 3 -4
v 19 7 6
v 18 9 6
v 16 10 10
v 16 13 0
v 24 5 2
v 20 9 6
v 22 7 6
v 19 10 10
v -23 2 -6
v -23 2 -18
v -16 9 -10
v -22 3 -4
v -23 2 -2
v -26 2 -6
v -26 2 -18
v -19 9 -10
v -16 12 -4
v -14 12 -4
v -19 6 0
v -20 5 2
v -26 2 -2
v -24 3 -4
v -18 7 2
v -22 6 0
v -23 5 2
v -20 7 2
v -15 13 0
v -12 13 0
v -16 9 6
v -18 7 6
v -15 10 10
v -19 9 6
v -20 7 6
v -18 10 10
v 11 0 30
v 11 0 15
v 11 12 27
v 11 11 30
v -10 11 30
v -10 0 30
v -10 0 15
v -10 12 27
v 11 2 0
v 11 7 -10
v 11 22 -10
v 6 27 -4
v 1 38 -4
v -4 27 -4
v -10 22 -10
v -10 7 -10
v -10 2 0
v 1 12 -11
v 1 22 -10
v 1 27 -4
v 11 32 22
v -10 32 22
v 6 44 10
v -4 44 10
v -11 43 7
v 1 21 7
v 8 24 -6
v 7 24 -8
v 2 25 -6
v 0 25 -6
v -6 24 -8
v -7 24 -6
v 12 43 7
v 1 44 7
v -7 40 0
v -11 38 7
v -11 40 7
v -6 43 7
v -6 40 7
v 12 40 7
v 12 38 7
v 8 40 0
v 7 43 7
v 7 40 7
vn 1130 -30 -81
vn 840 -830 -721
vn 237 -86 469
vn 1536 -350 -643
vn 873 890 -66
vn 1261 6 180
vn 1046 -398 439
vn 512 -19 0
vn 469 -447 211
vn 452 -1043 691
vn 5 -690 299
vn -420 -1051 703
vn -448 -455 223
vn -1008 -400 452
vn -512 -19 0
vn -1130 -30 -81
vn -1240 2 172
vn -873 866 77
vn -1536 -169 -718
vn -827 -791 -755
vn -237 -86 469
vn -774 51 496
vn -195 481 173
vn -591 1309 10
vn -770 729 23
vn -924 1143 -411
vn -585 -217 328
vn 558 -1197 424
vn 182 -319 343
vn 570 198 0
vn 568 148 -153
vn -546 1242 -370
vn -160 -116 -473
vn 751 -960 -412
vn 739 41 -308
vn -850 1391 -138
vn -559 -239 59
vn 754 -1440 196
vn 954 -910 5
vn -256 384 -512
vn -620 1004 -384
vn -160 -43 -185
vn 539 -1311 -126
vn 182 -30 -434
vn 550 -294 -576
vn 186 326 -256
vn 181 84 -202
vn 570 1338 0
vn 182 42 346
vn 558 -128 385
vn 954 910 -5
vn 568 1284 -153
vn -468 136 -61
vn -182 132 173
vn -729 -1342 414
vn -535 -1266 231
vn 754 -50 293
vn 751 448 -356
vn 182 334 -434
vn -470 34 -242
vn -652 -799 17
vn 739 1495 -204
vn -888 -654 -365
vn -182 -490 -409
vn -812 119 -165
vn -580 -1265 76
vn 539 -198 -44
vn 550 806 -576
vn 186 698 -256
vn 181 446 -202
vn -641 43 -355
vn -256 128 -512
vn -181 -419 -212
vn 768 256 -512
vn 512 766 -28
vn 512 -669 -343
vn 256 -244 -337
vn -256 -488 -674
vn -768 512 -256
vn -512 764 -56
vn -512 -606 -443
vn 397 1207 602
vn 424 424 853
vn 412 -397 827
vn 541 -775 1214
vn 0 -397 820
vn -509 -781 1207
vn -400 -407 814
vn -422 653 967
vn -397 748 373
vn 2 0 1275
vn 0 -836 1169
vn 0 -392 840
vn 256 -192 -710
vn -256 -384 -624
vn 114 -1037 -479
vn -99 -884 -278
vn -336 -561 395
vn 0 0 1536
vn 42 -256 21
vn 42 -256 21
vn 42 -256 21
vn -36 -256 18
vn -36 -256 18
vn -36 -256 18
vn 351 -561 398
vn 2 -768 585
vn 0 29 250
vn -128 242 141
vn -352 -213 201
vn 128 -213 109
vn 352 242 49
vn 352 -213 201
vn 128 242 141
vn 0 29 250
vn -128 -213 109
vn -352 242 49
usemtl m0
f 1 2 3

usemtl m1
f 1 3 2

usemtl m2
f 1 2 4

usemtl m3
f 1 4 5

usemtl m4
f 1 5 6

usemtl m5
f 1 6 7

usemtl m6
f 1 7 8

usemtl m7
f 8 7 9

usemtl m8
f 9 7 10

usemtl m9
f 9 10 11

usemtl m10
f 11 10 12

usemtl m11
f 11 12 13

usemtl m12
f 13 12 14

usemtl m13
f 13 14 15

usemtl m14
f 15 14 16

usemtl m15
f 16 14 17

usemtl m16
f 16 17 18

usemtl m17
f 16 18 19

usemtl m18
f 16 19 20

usemtl m19
f 16 20 21

usemtl m20
f 16 21 20

usemtl m21
f 22 23 24

usemtl m22
f 22 24 25

usemtl m23
f 22 25 26

usemtl m24
f 22 26 27

usemtl m25
f 22 27 28

usemtl m26
f 22 28 29

usemtl m27
f 22 29 23

usemtl m28
f 23 29 30

usemtl m29
f 23 30 24

usemtl m30
f 24 30 31

usemtl m31
f 24 31 32

usemtl m32
f 24 32 25

usemtl m33
f 25 32 26

usemtl m34
f 26 32 33

usemtl m35
f 26 33 34

usemtl m36
f 26 34 35

usemtl m37
f 26 35 36

usemtl m38
f 26 36 27

usemtl m39
f 27 36 37

usemtl m40
f 27 37 38

usemtl m41
f 27 38 28

usemtl m42
f 28 38 39

usemtl m43
f 28 39 30

usemtl m44
f 28 30 29

usemtl m45
f 36 40 41

usemtl m46
f 36 41 37

usemtl m47
f 37 41 42

usemtl m48
f 37 42 43

usemtl m49
f 37 43 38

usemtl m50
f 38 43 35

usemtl m51
f 38 35 34

usemtl m52
f 38 34 39

usemtl m53
f 39 34 31

usemtl m54
f 39 31 30

usemtl m55
f 34 44 31

usemtl m56
f 31 44 32

usemtl m57
f 32 44 33

usemtl m58
f 33 44 34

usemtl m59
f 45 46 35

usemtl m60
f 45 35 43

usemtl m61
f 45 43 47

usemtl m62
f 45 47 41

usemtl m63
f 45 41 40

usemtl m64
f 45 40 46

usemtl m65
f 46 40 36

usemtl m66
f 46 36 35

usemtl m67
f 43 42 47

usemtl m68
f 47 42 41

usemtl m69
f 48 49 50

usemtl m70
f 48 50 51

usemtl m71
f 48 51 52

usemtl m72
f 48 52 53

usemtl m73
f 48 53 54

usemtl m74
f 48 54 49

usemtl m75
f 49 54 55

usemtl m76
f 49 55 50

usemtl m77
f 50 55 56

usemtl m78
f 50 56 57

usemtl m79
f 50 57 51

usemtl m80
f 51 57 58

usemtl m81
f 51 58 52

usemtl m82
f 52 58 59

usemtl m83
f 52 59 60

usemtl m84
f 52 60 53

usemtl m85
f 53 60 61

usemtl m86
f 53 61 55

usemtl m87
f 53 55 54

usemtl m88
f 57 62 58

usemtl m89
f 58 62 63

usemtl m90
f 58 63 64

usemtl m91
f 58 64 59

usemtl m92
f 59 64 60

usemtl m93
f 60 64 63

usemtl m94
f 60 63 61

usemtl m95
f 61 63 55

usemtl m96
f 55 63 56

usemtl m97
f 56 63 65

usemtl m98
f 56 65 66

usemtl m99
f 56 66 57

usemtl m100
f 57 66 67

usemtl m101
f 57 67 62

usemtl m102
f 62 67 68

usemtl m103
f 62 68 69

usemtl m104
f 62 69 65

usemtl m105
f 62 65 63

usemtl m106
f 67 70 68

usemtl m107
f 68 70 71

usemtl m108
f 68 71 72

usemtl m109
f 68 72 69

usemtl m110
f 69 72 65

usemtl m111
f 65 72 71

usemtl m112
f 65 71 66

usemtl m113
f 66 71 73

usemtl m114
f 66 73 67

usemtl m115
f 67 73 70

usemtl m116
f 70 73 71

usemtl m117
f 74 75 4

usemtl m118
f 74 4 76

usemtl m119
f 74 76 77

usemtl m120
f 74 77 78

usemtl m121
f 74 78 79

usemtl m122
f 74 79 75

usemtl m123
f 75 79 80

usemtl m124
f 75 80 5

usemtl m125
f 75 5 4

usemtl m126
f 79 81 19

usemtl m127
f 79 19 80

usemtl m128
f 80 19 18

usemtl m129
f 80 18 5

usemtl m130
f 5 18 82

usemtl m131
f 5 82 6

usemtl m132
f 6 82 83

usemtl m133
f 6 83 84

usemtl m134
f 6 84 85

usemtl m135
f 6 85 7

usemtl m136
f 7 85 10

usemtl m137
f 10 85 86

usemtl m138
f 10 86 12

usemtl m139
f 12 86 87

usemtl m140
f 12 87 14

usemtl m141
f 14 87 17

usemtl m142
f 17 87 88

usemtl m143
f 17 88 89

usemtl m144
f 17 89 90

usemtl m145
f 17 90 18

usemtl m146
f 18 90 82

usemtl m147
f 82 90 89

usemtl m148
f 82 89 83

usemtl m149
f 83 89 91

usemtl m150
f 83 91 84

usemtl m151
f 84 91 92

usemtl m152
f 84 92 85

usemtl m153
f 85 92 93

usemtl m154
f 85 93 86

usemtl m155
f 86 93 87

usemtl m156
f 87 93 92

usemtl m157
f 87 92 88

usemtl m158
f 88 92 91

usemtl m159
f 88 91 89

usemtl m160
f 79 78 81

usemtl m161
f 81 78 76

usemtl m162
f 81 76 4

usemtl m163
f 81 4 19

usemtl m164
f 19 4 94

usemtl m165
f 19 94 95

usemtl m166
f 19 95 20

usemtl m167
f 20 95 2

usemtl m168
f 20 2 96

usemtl m169
f 20 96 97

usemtl m170
f 20 97 98

usemtl m171
f 20 98 21

usemtl m172
f 21 98 99

usemtl m173
f 21 99 16

usemtl m174
f 78 77 76

usemtl m175
f 100 101 102

usemtl m176
f 103 104 105

usemtl m177
f 3 99 106

usemtl m178
f 3 106 2

usemtl m179
f 2 106 96

usemtl m180
f 96 106 107

usemtl m181
f 96 107 97

usemtl m182
f 97 107 98

usemtl m183
f 98 107 99

usemtl m184
f 99 107 106

usemtl m185
f 99 3 1

usemtl m186
f 2 95 94

usemtl m187
f 2 94 4

usemtl m188
f 108 109 110

usemtl m189
f 108 110 111

usemtl m190
f 108 111 112

usemtl m191
f 108 112 109

usemtl m192
f 113 114 115

usemtl m193
f 113 115 116

usemtl m194
f 116 115 117

usemtl m195
f 117 115 114

