mtllib 30746.mtl
o runescapemodel
v -54 273 -42
v -54 297 -24
v -64 309 -31
v -58 273 -51
v -54 265 -38
v -49 273 -51
v -54 277 -12
v -54 270 -24
v -54 279 0
v -54 308 0
v -64 323 0
v -64 356 -30
v -62 360 -56
v -64 279 -56
v -54 36 -47
v -54 264 -47
v -43 279 -56
v -43 309 -31
v -43 323 0
v -54 273 0
v -54 268 -15
v -54 277 12
v -54 268 15
v -54 270 24
v -54 265 29
v -54 265 38
v -54 258 33
v -54 251 27
v -54 263 20
v -54 249 36
v -54 244 29
v -54 242 13
v -54 235 14
v -54 240 5
v -54 251 5
v -54 232 6
v -54 215 8
v -54 240 -5
v -54 232 -6
v -54 235 -14
v -54 242 -13
v -54 251 -5
v -54 246 0
v -54 215 -8
v -54 218 -15
v -54 209 -14
v -54 217 -24
v -54 228 -26
v -54 186 -5
v -54 196 0
v -54 224 -31
v -54 235 -35
v -54 249 -36
v -54 244 -29
v -54 251 -27
v -54 258 -33
v -54 265 -29
v -54 263 -20
v -54 256 0
v -64 27 -56
v -64 32 0
v -54 36 -5
v -49 32 0
v -43 27 -56
v -64 27 56
v -54 36 47
v -54 36 5
v -64 45 0
v -64 181 0
v -49 181 0
v -49 45 0
v -43 27 56
v -43 0 -56
v -48 0 -64
v -48 375 -64
v -45 360 -56
v -47 356 -30
v -46 342 2
v -45 317 33
v -43 309 31
v -54 297 24
v -64 309 31
v -62 317 33
v -61 342 2
v -64 354 3
v -64 369 -30
v -64 375 -64
v -64 0 -64
v -64 0 -56
v -64 0 56
v -64 0 64
v -64 279 56
v -54 264 47
v -49 273 51
v -43 279 56
v -48 285 64
v -48 0 64
v -43 0 56
v -58 273 51
v -54 273 42
v -48 330 36
v -64 330 36
v -64 285 64
v -54 235 35
v -54 224 31
v -54 217 24
v -54 209 14
v -54 186 5
v -54 228 26
v -54 218 15
v -54 208 5
v -54 208 -5
v -48 369 -30
v -48 354 3
vn 0 0 0
vn 0 0 0
vn 0 0 0
vn 0 0 0
vn 0 0 0
vn 0 0 0
vn 0 0 0
vn 0 0 0
vn 0 0 0
vn 0 0 0
vn 0 0 0
vn 0 0 0
vn 0 0 0
vn 0 0 0
vn 0 0 0
vn 0 0 0
vn 0 0 0
vn 0 0 0
vn 0 0 0
vn 0 0 0
vn 0 0 0
vn 0 0 0
vn 0 0 0
vn 0 0 0
vn 0 0 0
vn 0 0 0
vn 0 0 0
vn 0 0 0
vn 0 0 0
vn 0 0 0
vn 0 0 0
vn 0 0 0
vn 0 0 0
vn 0 0 0
vn 0 0 0
vn 0 0 0
vn 0 0 0
vn 0 0 0
vn 0 0 0
vn 0 0 0
vn 0 0 0
vn 0 0 0
vn 0 0 0
vn 0 0 0
vn 0 0 0
vn 0 0 0
vn 0 0 0
vn 0 0 0
vn 0 0 0
vn 0 0 0
vn 0 0 0
vn 0 0 0
vn 0 0 0
vn 0 0 0
vn 0 0 0
vn 0 0 0
vn 0 0 0
vn 0 0 0
vn 0 0 0
vn 0 0 0
vn 0 0 0
vn 0 0 0
vn 0 0 0
vn 0 0 0
vn 0 0 0
vn 0 0 0
vn 0 0 0
vn 0 0 0
vn 0 0 0
vn 0 0 0
vn 0 0 0
vn 0 0 0
vn 0 0 0
vn 0 0 0
vn 0 0 0
vn 0 0 0
vn 0 0 0
vn 0 0 0
vn 0 0 0
vn 0 0 0
vn 0 0 0
vn 0 0 0
vn 0 0 0
vn 0 0 0
vn 0 0 0
vn 0 0 0
vn 0 0 0
vn 0 0 0
vn 0 0 0
vn 0 0 0
vn 0 0 0
vn 0 0 0
vn 0 0 0
vn 0 0 0
vn 0 0 0
vn 0 0 0
vn 0 0 0
vn 0 0 0
vn 0 0 0
vn 0 0 0
vn 0 0 0
vn 0 0 0
vn 0 0 0
vn 0 0 0
vn 0 0 0
vn 0 0 0
vn 0 0 0
vn 0 0 0
vn 0 0 0
vn 0 0 0
vn 0 0 0
vn 0 0 0
vn 0 0 0
vn 0 0 0
usemtl m0
f 1 2 3

usemtl m1
f 1 3 4

usemtl m2
f 1 4 5

usemtl m3
f 1 5 6

usemtl m4
f 1 6 2

usemtl m5
f 1 2 7

usemtl m6
f 1 7 8

usemtl m7
f 1 8 5

usemtl m8
f 1 5 8

usemtl m9
f 1 8 2

usemtl m10
f 2 8 7

usemtl m11
f 2 7 9

usemtl m12
f 2 9 10

usemtl m13
f 2 10 11

usemtl m14
f 2 11 3

usemtl m15
f 3 11 12

usemtl m16
f 3 12 13

usemtl m17
f 3 13 14

usemtl m18
f 3 14 4

usemtl m19
f 4 14 15

usemtl m20
f 4 15 16

usemtl m21
f 4 16 5

usemtl m22
f 5 16 6

usemtl m23
f 6 16 17

usemtl m24
f 6 17 2

usemtl m25
f 2 17 18

usemtl m26
f 2 18 19

usemtl m27
f 2 19 10

usemtl m28
f 2 10 7

usemtl m29
f 7 10 9

usemtl m30
f 7 9 20

usemtl m31
f 7 20 21

usemtl m32
f 7 21 8

usemtl m33
f 7 8 21

usemtl m34
f 7 21 20

usemtl m35
f 7 20 9

usemtl m36
f 9 20 22

usemtl m37
f 9 22 20

usemtl m38
f 20 22 23

usemtl m39
f 20 23 22

usemtl m40
f 22 23 24

usemtl m41
f 22 24 23

usemtl m42
f 23 24 25

usemtl m43
f 23 25 24

usemtl m44
f 24 25 26

usemtl m45
f 24 26 25

usemtl m46
f 25 26 27

usemtl m47
f 25 27 28

usemtl m48
f 25 28 29

usemtl m49
f 25 29 28

usemtl m50
f 25 28 27

usemtl m51
f 25 27 26

usemtl m52
f 26 27 30

usemtl m53
f 26 30 27

usemtl m54
f 27 30 28

usemtl m55
f 27 28 30

usemtl m56
f 30 28 31

usemtl m57
f 30 31 28

usemtl m58
f 28 31 32

usemtl m59
f 28 32 31

usemtl m60
f 31 32 33

usemtl m61
f 31 33 32

usemtl m62
f 32 33 34

usemtl m63
f 32 34 35

usemtl m64
f 32 35 34

usemtl m65
f 32 34 33

usemtl m66
f 33 34 36

usemtl m67
f 33 36 37

usemtl m68
f 33 37 36

usemtl m69
f 33 36 34

usemtl m70
f 34 36 38

usemtl m71
f 34 38 36

usemtl m72
f 36 38 39

usemtl m73
f 36 39 38

usemtl m74
f 38 39 40

usemtl m75
f 38 40 41

usemtl m76
f 38 41 42

usemtl m77
f 38 42 43

usemtl m78
f 38 43 42

usemtl m79
f 38 42 41

usemtl m80
f 38 41 40

usemtl m81
f 38 40 39

usemtl m82
f 39 40 44

usemtl m83
f 39 44 40

usemtl m84
f 40 44 45

usemtl m85
f 40 45 44

usemtl m86
f 44 45 46

usemtl m87
f 44 46 45

usemtl m88
f 45 46 47

usemtl m89
f 45 47 48

usemtl m90
f 45 48 47

usemtl m91
f 45 47 46

usemtl m92
f 46 47 15

usemtl m93
f 46 15 49

usemtl m94
f 46 49 50

usemtl m95
f 46 50 49

usemtl m96
f 46 49 15

usemtl m97
f 46 15 47

usemtl m98
f 47 15 51

usemtl m99
f 47 51 48

usemtl m100
f 47 48 51

usemtl m101
f 47 51 15

usemtl m102
f 15 51 52

usemtl m103
f 15 52 53

usemtl m104
f 15 53 16

usemtl m105
f 15 16 53

usemtl m106
f 15 53 52

usemtl m107
f 15 52 51

usemtl m108
f 51 52 48

usemtl m109
f 51 48 52

usemtl m110
f 52 48 54

usemtl m111
f 52 54 48

usemtl m112
f 48 54 40

usemtl m113
f 48 40 54

usemtl m114
f 54 40 41

usemtl m115
f 54 41 40

usemtl m116
f 41 54 55

usemtl m117
f 41 55 54

usemtl m118
f 54 55 53

usemtl m119
f 54 53 55

usemtl m120
f 55 53 56

usemtl m121
f 55 56 57

usemtl m122
f 55 57 58

usemtl m123
f 55 58 57

usemtl m124
f 55 57 56

usemtl m125
f 55 56 53

usemtl m126
f 53 56 5

usemtl m127
f 53 5 56

usemtl m128
f 56 5 57

usemtl m129
f 56 57 5

usemtl m130
f 5 57 8

usemtl m131
f 5 8 57

usemtl m132
f 57 8 21

usemtl m133
f 57 21 8

usemtl m134
f 21 57 58

usemtl m135
f 21 58 59

usemtl m136
f 21 59 58

usemtl m137
f 21 58 57

usemtl m138
f 15 14 60

usemtl m139
f 15 60 61

usemtl m140
f 15 61 62

usemtl m141
f 15 62 63

usemtl m142
f 15 63 64

usemtl m143
f 15 64 17

usemtl m144
f 15 17 16

usemtl m145
f 60 65 61

usemtl m146
f 61 65 66

usemtl m147
f 61 66 67

usemtl m148
f 61 67 68

usemtl m149
f 61 68 62

usemtl m150
f 62 68 69

usemtl m151
f 62 69 49

usemtl m152
f 62 49 70

usemtl m153
f 62 70 71

usemtl m154
f 62 71 63

usemtl m155
f 63 71 67

usemtl m156
f 63 67 66

usemtl m157
f 63 66 72

usemtl m158
f 63 72 64

usemtl m159
f 64 72 73

usemtl m160
f 64 73 74

usemtl m161
f 64 74 17

usemtl m162
f 17 74 75

usemtl m163
f 17 75 76

usemtl m164
f 17 76 18

usemtl m165
f 18 76 77

usemtl m166
f 18 77 19

usemtl m167
f 19 77 78

usemtl m168
f 19 78 79

usemtl m169
f 19 79 80

usemtl m170
f 19 80 81

usemtl m171
f 19 81 10

usemtl m172
f 10 81 11

usemtl m173
f 11 81 82

usemtl m174
f 11 82 83

usemtl m175
f 11 83 84

usemtl m176
f 11 84 12

usemtl m177
f 12 84 85

usemtl m178
f 12 85 86

usemtl m179
f 12 86 87

usemtl m180
f 12 87 13

usemtl m181
f 13 87 14

usemtl m182
f 14 87 88

usemtl m183
f 14 88 60

usemtl m184
f 60 88 89

usemtl m185
f 60 89 65

usemtl m186
f 65 89 90

usemtl m187
f 65 90 91

usemtl m188
f 65 91 92

usemtl m189
f 65 92 66

usemtl m190
f 66 92 93

usemtl m191
f 66 93 94

usemtl m192
f 66 94 95

usemtl m193
f 66 95 72

usemtl m194
f 72 95 96

usemtl m195
f 72 96 97

usemtl m196
f 72 97 98

usemtl m197
f 72 98 73

usemtl m198
f 92 99 93

usemtl m199
f 93 99 26

usemtl m200
f 93 26 94

usemtl m201
f 94 26 100

usemtl m202
f 94 100 95

usemtl m203
f 95 100 81

usemtl m204
f 95 81 80

usemtl m205
f 95 80 79

usemtl m206
f 95 79 96

usemtl m207
f 96 79 101

usemtl m208
f 96 101 102

usemtl m209
f 96 102 103

usemtl m210
f 96 103 97

usemtl m211
f 97 103 91

usemtl m212
f 91 103 92

usemtl m213
f 92 103 83

usemtl m214
f 92 83 82

usemtl m215
f 92 82 81

usemtl m216
f 92 81 99

usemtl m217
f 99 81 100

usemtl m218
f 99 100 26

usemtl m219
f 26 100 24

usemtl m220
f 26 24 100

usemtl m221
f 100 24 81

usemtl m222
f 100 81 22

usemtl m223
f 100 22 24

usemtl m224
f 24 22 81

usemtl m225
f 81 22 9

usemtl m226
f 81 9 10

usemtl m227
f 81 10 22

usemtl m228
f 22 10 9

usemtl m229
f 59 23 29

usemtl m230
f 59 29 35

usemtl m231
f 59 35 42

usemtl m232
f 59 42 58

usemtl m233
f 59 58 42

usemtl m234
f 59 42 35

usemtl m235
f 59 35 29

usemtl m236
f 59 29 23

usemtl m237
f 59 23 20

usemtl m238
f 59 20 21

usemtl m239
f 59 21 20

usemtl m240
f 59 20 23

usemtl m241
f 30 26 93

usemtl m242
f 30 93 26

usemtl m243
f 93 30 66

usemtl m244
f 93 66 30

usemtl m245
f 30 66 104

usemtl m246
f 30 104 31

usemtl m247
f 30 31 104

usemtl m248
f 30 104 66

usemtl m249
f 66 104 105

usemtl m250
f 66 105 106

usemtl m251
f 66 106 107

usemtl m252
f 66 107 108

usemtl m253
f 66 108 67

usemtl m254
f 66 67 108

usemtl m255
f 66 108 107

usemtl m256
f 66 107 106

usemtl m257
f 66 106 105

usemtl m258
f 66 105 104

usemtl m259
f 104 105 109

usemtl m260
f 104 109 31

usemtl m261
f 104 31 109

usemtl m262
f 104 109 105

usemtl m263
f 105 109 106

usemtl m264
f 105 106 109

usemtl m265
f 109 106 110

usemtl m266
f 109 110 106

usemtl m267
f 106 110 107

usemtl m268
f 106 107 110

usemtl m269
f 110 107 37

usemtl m270
f 110 37 33

usemtl m271
f 110 33 37

usemtl m272
f 110 37 107

usemtl m273
f 107 37 111

usemtl m274
f 107 111 37

usemtl m275
f 37 111 44

usemtl m276
f 37 44 111

usemtl m277
f 111 44 112

usemtl m278
f 111 112 44

usemtl m279
f 44 112 46

usemtl m280
f 44 46 112

usemtl m281
f 112 46 50

usemtl m282
f 112 50 46

usemtl m283
f 50 112 111

usemtl m284
f 50 111 107

usemtl m285
f 50 107 108

usemtl m286
f 50 108 70

usemtl m287
f 50 70 49

usemtl m288
f 50 49 69

usemtl m289
f 50 69 108

usemtl m290
f 50 108 107

usemtl m291
f 50 107 111

usemtl m292
f 50 111 112

usemtl m293
f 34 43 35

usemtl m294
f 34 35 43

usemtl m295
f 34 43 38

usemtl m296
f 34 38 43

usemtl m297
f 53 16 5

usemtl m298
f 53 5 16

usemtl m299
f 54 52 53

usemtl m300
f 54 53 52

usemtl m301
f 70 108 67

usemtl m302
f 70 67 71

usemtl m303
f 69 68 67

usemtl m304
f 69 67 108

usemtl m305
f 25 29 23

usemtl m306
f 25 23 29

usemtl m307
f 42 35 43

usemtl m308
f 42 43 35

usemtl m309
f 15 62 49

usemtl m310
f 15 49 62

usemtl m311
f 109 31 33

usemtl m312
f 109 33 110

usemtl m313
f 109 110 33

usemtl m314
f 109 33 31

usemtl m315
f 40 48 45

usemtl m316
f 40 45 48

usemtl m317
f 44 37 36

usemtl m318
f 44 36 39

usemtl m319
f 44 39 36

usemtl m320
f 44 36 37

usemtl m321
f 75 74 88

usemtl m322
f 75 88 87

usemtl m323
f 75 87 113

usemtl m324
f 75 113 76

usemtl m325
f 76 113 77

usemtl m326
f 77 113 114

usemtl m327
f 77 114 78

usemtl m328
f 78 114 101

usemtl m329
f 78 101 79

usemtl m330
f 113 87 86

usemtl m331
f 113 86 114

usemtl m332
f 114 86 85

usemtl m333
f 114 85 101

usemtl m334
f 101 85 102

usemtl m335
f 102 85 84

usemtl m336
f 102 84 83

usemtl m337
f 102 83 103

usemtl m338
f 55 42 58

usemtl m339
f 55 58 42

usemtl m340
f 55 42 41

usemtl m341
f 55 41 42

usemtl m342
f 29 35 28

usemtl m343
f 29 28 35

usemtl m344
f 35 28 32

usemtl m345
f 35 32 28

