newmtl m0
Kd 0.1607843137254902 0.1450980392156863 0.1450980392156863
newmtl m1
Kd 0.1607843137254902 0.1450980392156863 0.1450980392156863
newmtl m2
Kd 0.30980392156862746 0.2784313725490196 0.27450980392156865
newmtl m3
Kd 0.30980392156862746 0.2784313725490196 0.27450980392156865
newmtl m4
Kd 0.1607843137254902 0.1450980392156863 0.1450980392156863
newmtl m5
Kd 0.1607843137254902 0.1450980392156863 0.1450980392156863
newmtl m6
Kd 0.30980392156862746 0.2784313725490196 0.27450980392156865
newmtl m7
Kd 0.30980392156862746 0.2784313725490196 0.27450980392156865
newmtl m8
Kd 0.1607843137254902 0.1450980392156863 0.1450980392156863
newmtl m9
Kd 0.1607843137254902 0.1450980392156863 0.1450980392156863
newmtl m10
Kd 0.1607843137254902 0.1450980392156863 0.1450980392156863
newmtl m11
Kd 0.1607843137254902 0.1450980392156863 0.1450980392156863
newmtl m12
Kd 0.1607843137254902 0.1450980392156863 0.1450980392156863
newmtl m13
Kd 0.08627450980392157 0.07450980392156863 0.07450980392156863
newmtl m14
Kd 0.08627450980392157 0.07450980392156863 0.07450980392156863
newmtl m15
Kd 0.08627450980392157 0.07450980392156863 0.07450980392156863
newmtl m16
Kd 0.08627450980392157 0.07450980392156863 0.07450980392156863
newmtl m17
Kd 0.08627450980392157 0.07450980392156863 0.07450980392156863
newmtl m18
Kd 0.1607843137254902 0.1450980392156863 0.1450980392156863
newmtl m19
Kd 0.1607843137254902 0.1450980392156863 0.1450980392156863
newmtl m20
Kd 0.1607843137254902 0.1450980392156863 0.1450980392156863
newmtl m21
Kd 0.30980392156862746 0.2784313725490196 0.27450980392156865
newmtl m22
Kd 0.12156862745098039 0.10980392156862745 0.10980392156862745
newmtl m23
Kd 0.12156862745098039 0.10980392156862745 0.10980392156862745
newmtl m24
Kd 0.1607843137254902 0.1450980392156863 0.1450980392156863
newmtl m25
Kd 0.30980392156862746 0.2784313725490196 0.27450980392156865
newmtl m26
Kd 0.30980392156862746 0.2784313725490196 0.27450980392156865
newmtl m27
Kd 0.30980392156862746 0.2784313725490196 0.27450980392156865
newmtl m28
Kd 0.1607843137254902 0.1450980392156863 0.1450980392156863
newmtl m29
Kd 0.1607843137254902 0.1450980392156863 0.1450980392156863
newmtl m30
Kd 0.08627450980392157 0.07450980392156863 0.07450980392156863
newmtl m31
Kd 0.08627450980392157 0.07450980392156863 0.07450980392156863
newmtl m32
Kd 0.08627450980392157 0.07450980392156863 0.07450980392156863
newmtl m33
Kd 0.08627450980392157 0.07450980392156863 0.07450980392156863
