mtllib 3083.mtl
o runescapemodel
v -1 26 28
v -5 26 32
v -1 30 32
v 1 30 32
v 1 26 28
v -1 24 28
v -5 24 32
v -5 26 34
v -1 30 34
v 1 30 34
v 5 26 32
v 5 24 32
v 1 24 28
v -1 20 32
v -1 20 34
v -5 24 34
v -1 26 38
v 1 26 38
v 5 26 34
v 5 24 34
v 1 20 32
v 1 20 34
v -1 24 38
v 1 24 38
vn -337 -523 965
vn -965 -337 523
vn -523 -1221 337
vn 337 -965 523
vn 523 -337 1221
vn -523 337 1221
vn -1221 523 337
vn -1221 -523 -337
vn -337 -965 -523
vn 523 -1221 -337
vn 1221 -523 337
vn 965 337 523
vn 337 523 965
vn -337 965 523
vn -523 1221 -337
vn -965 337 -523
vn -523 -337 -1221
vn 337 -523 -965
vn 965 -337 -523
vn 1221 523 -337
vn 523 1221 337
vn 337 965 -523
vn -337 523 -965
vn 523 337 -1221
usemtl m0
f 1 2 3

usemtl m1
f 1 3 4

usemtl m2
f 1 4 5

usemtl m3
f 1 5 6

usemtl m4
f 1 6 2

usemtl m5
f 2 6 7

usemtl m6
f 2 7 8

usemtl m7
f 2 8 3

usemtl m8
f 3 8 9

usemtl m9
f 3 9 10

usemtl m10
f 3 10 4

usemtl m11
f 4 10 11

usemtl m12
f 4 11 5

usemtl m13
f 5 11 12

usemtl m14
f 5 12 13

usemtl m15
f 5 13 6

usemtl m16
f 6 13 14

usemtl m17
f 6 14 7

usemtl m18
f 7 14 15

usemtl m19
f 7 15 16

usemtl m20
f 7 16 8

usemtl m21
f 8 16 17

usemtl m22
f 8 17 9

usemtl m23
f 9 17 18

usemtl m24
f 9 18 10

usemtl m25
f 10 18 19

usemtl m26
f 10 19 11

usemtl m27
f 11 19 20

usemtl m28
f 11 20 12

usemtl m29
f 12 20 21

usemtl m30
f 12 21 13

usemtl m31
f 13 21 14

usemtl m32
f 14 21 15

usemtl m33
f 15 21 22

usemtl m34
f 15 22 23

usemtl m35
f 15 23 16

usemtl m36
f 16 23 17

usemtl m37
f 17 23 24

usemtl m38
f 17 24 18

usemtl m39
f 18 24 19

usemtl m40
f 19 24 20

usemtl m41
f 20 24 22

usemtl m42
f 20 22 21

usemtl m43
f 22 24 23

