mtllib 30921.mtl
o runescapemodel
v -94 109 9
v -101 109 3
v -101 97 3
v -94 97 9
v -87 109 3
v -94 109 -10
v -101 109 -4
v -101 97 -4
v -87 97 3
v -87 109 -4
v -87 97 -4
v -94 97 -10
v 120 113 55
v 111 113 48
v -113 113 48
v -121 113 55
v -128 113 64
v 128 113 64
v 120 113 -57
v 111 113 -50
v 111 97 -50
v 111 97 48
v -113 97 48
v -113 113 -50
v -121 113 -57
v -128 113 -64
v -128 96 -64
v -128 96 64
v 128 96 64
v 128 113 -64
v -113 97 -50
v -54 97 -10
v -43 97 -10
v -37 97 0
v -43 97 10
v -54 97 10
v -60 97 0
v 107 105 -50
v 98 105 -50
v 98 105 48
v 107 105 48
v 107 97 48
v 107 97 -50
v 98 97 -50
v 98 97 48
v 93 105 -50
v 84 105 -50
v 84 105 48
v 93 105 48
v 93 97 48
v 93 97 -50
v 84 97 -50
v 84 97 48
v 79 105 -50
v 70 105 -50
v 70 105 48
v 79 105 48
v 79 97 48
v 79 97 -50
v 70 97 -50
v 70 97 48
v 65 105 -50
v 56 105 -50
v 56 105 48
v 65 105 48
v 65 97 48
v 65 97 -50
v 56 97 -50
v 56 97 48
v 51 105 -50
v 42 105 -50
v 42 105 48
v 51 105 48
v 51 97 48
v 51 97 -50
v 42 97 -50
v 42 97 48
v 38 105 -50
v 29 105 -50
v 29 105 48
v 38 105 48
v 38 97 48
v 38 97 -50
v 29 97 -50
v 29 97 48
v 24 105 -50
v 15 105 -50
v 15 105 48
v 24 105 48
v 24 97 48
v 24 97 -50
v 15 97 -50
v 15 97 48
v 11 105 -50
v 2 105 -50
v 2 105 48
v 11 105 48
v 11 97 48
v 11 97 -50
v 2 97 -50
v 2 97 48
v -119 173 3
v -119 173 -4
v -111 163 -4
v -111 163 3
v -112 177 3
v -111 192 3
v -116 194 3
v -116 194 -4
v -112 177 -4
v -101 166 -4
v -101 159 -4
v -120 141 -4
v -126 141 -4
v -126 141 3
v -101 159 3
v -101 166 3
v -111 192 -4
v -105 197 3
v -105 201 3
v -105 201 -4
v -94 170 6
v -98 170 3
v -98 166 3
v -94 166 6
v -90 170 3
v -94 170 -7
v -98 170 -4
v -98 166 -4
v -94 166 9
v -90 166 3
v -90 170 -4
v -90 166 -4
v -94 166 -7
v -94 166 -10
v -94 159 -10
v -94 159 9
v -87 166 3
v -87 159 -4
v -87 166 -4
v -64 166 -4
v -64 159 -4
v -53 159 -4
v -64 153 -4
v -64 153 3
v -64 159 3
v -53 153 3
v -53 159 3
v -55 165 3
v -64 166 3
v -87 159 3
v -94 159 6
v -98 159 3
v -98 109 3
v -94 109 6
v -90 159 3
v -90 109 3
v -90 159 -4
v -90 109 -4
v -94 159 -7
v -94 109 -7
v -98 159 -4
v -98 109 -4
v -53 153 -4
v -55 165 -4
v -105 197 -4
v -98 193 -4
v -98 193 3
v -94 198 3
v -94 198 -4
v -122 127 -4
v -122 127 3
v -117 127 3
v -120 141 3
v -126 120 -4
v -126 120 3
v -120 120 3
v -120 120 -4
v -117 127 -4
v -100 188 3
v -100 188 -4
v -89 193 -4
v -87 188 -4
v -89 193 3
v -87 188 3
v -96 170 -2
v -96 170 1
v -96 188 1
v -96 188 -2
v -92 170 -2
v -92 188 -2
v -92 170 1
v -92 188 1
v 128 96 -64
v -40 97 0
v -44 97 -7
v -53 97 -7
v -57 97 0
v -53 97 7
v -44 97 7
v -94 96 6
v -98 96 3
v -98 0 3
v -94 0 6
v -90 96 3
v -90 0 3
v -90 96 -4
v -90 0 -4
v -94 96 -7
v -94 0 -7
v -98 96 -4
v -98 0 -4
v -48 96 6
v -52 96 3
v -52 0 3
v -48 0 6
v -44 96 3
v -44 0 3
v -44 96 -4
v -44 0 -4
v -48 96 -7
v -48 0 -7
v -52 96 -4
v -52 0 -4
v -107 96 -43
v -117 96 -43
v -115 0 -45
v -109 0 -45
v -107 96 -53
v -109 0 -51
v -117 96 -53
v -115 0 -51
v -107 96 53
v -117 96 53
v -115 0 51
v -109 0 51
v -107 96 43
v -109 0 45
v -117 96 43
v -115 0 45
v 117 96 53
v 107 96 53
v 109 0 51
v 115 0 51
v 117 96 43
v 115 0 45
v 107 96 43
v 109 0 45
v 117 96 -43
v 107 96 -43
v 109 0 -45
v 115 0 -45
v 117 96 -53
v 115 0 -51
v 107 96 -53
v 109 0 -51
v 95 105 16
v 89 105 3
v 76 105 -3
v 63 105 3
v 57 105 16
v 63 105 29
v 76 105 35
v 89 105 29
v 95 108 35
v 105 108 16
v 95 108 -3
v 76 108 -13
v 57 108 -3
v 47 108 16
v 57 108 35
v 76 108 45
v 39 105 0
v 33 105 -13
v 20 105 -19
v 7 105 -13
v 1 105 0
v 7 105 13
v 20 105 19
v 33 105 13
v 39 108 19
v 49 108 0
v 39 108 -19
v 20 108 -29
v 1 108 -19
v -9 108 0
v 1 108 19
v 20 108 29
v 73 106 -29
v 69 106 -36
v 62 106 -40
v 55 106 -36
v 51 106 -29
v 55 106 -22
v 62 106 -18
v 69 106 -22
v 73 107 -18
v 78 107 -29
v 73 107 -40
v 62 107 -45
v 51 107 -40
v 46 107 -29
v 51 107 -18
v 62 107 -13
v -59 97 17
v -63 97 10
v -70 97 6
v -77 97 10
v -81 97 17
v -77 97 24
v -70 97 28
v -63 97 24
v -59 98 28
v -54 98 17
v -59 98 6
v -70 98 1
v -81 98 6
v -86 98 17
v -81 98 28
v -70 98 33
vn -167 -512 -585
vn -679 -512 -195
vn -590 0 -390
vn 167 0 -585
vn 590 -512 -390
vn 167 -1024 585
vn -590 -256 390
vn -679 0 195
vn 679 0 -195
vn 679 -256 195
vn 590 0 390
vn -167 0 585
vn 0 -1536 0
vn -512 -768 256
vn 256 -768 512
vn 0 -1536 0
vn -512 -768 -256
vn 256 -768 -512
vn 0 -1536 0
vn -256 -768 -512
vn -512 -1024 -256
vn -256 -768 512
vn 512 -1024 256
vn 512 -768 -256
vn 0 -1536 0
vn -256 -768 512
vn -512 0 256
vn -256 0 -512
vn 512 0 -256
vn 512 -768 256
vn 256 -768 -512
vn 0 -1536 0
vn 0 -1280 0
vn 0 -1536 0
vn 0 -1536 0
vn 0 -1280 0
vn 0 -1536 0
vn 512 -512 0
vn -256 -256 0
vn -512 -512 0
vn 256 -256 0
vn 512 0 0
vn 256 0 0
vn -512 0 0
vn -256 0 0
vn 512 -512 0
vn -256 -256 0
vn -512 -512 0
vn 256 -256 0
vn 512 0 0
vn 256 0 0
vn -512 0 0
vn -256 0 0
vn 512 -512 0
vn -256 -256 0
vn -512 -512 0
vn 256 -256 0
vn 512 0 0
vn 256 0 0
vn -512 0 0
vn -256 0 0
vn 512 -512 0
vn -256 -256 0
vn -512 -512 0
vn 256 -256 0
vn 512 0 0
vn 256 0 0
vn -512 0 0
vn -256 0 0
vn 512 -512 0
vn -256 -256 0
vn -512 -512 0
vn 256 -256 0
vn 512 0 0
vn 256 0 0
vn -512 0 0
vn -256 0 0
vn 512 -512 0
vn -256 -256 0
vn -512 -512 0
vn 256 -256 0
vn 512 0 0
vn 256 0 0
vn -512 0 0
vn -256 0 0
vn 512 -512 0
vn -256 -256 0
vn -512 -512 0
vn 256 -256 0
vn 512 0 0
vn 256 0 0
vn -512 0 0
vn -256 0 0
vn 512 -512 0
vn -256 -256 0
vn -512 -512 0
vn 256 -256 0
vn 512 0 0
vn 256 0 0
vn -512 0 0
vn -256 0 0
vn -910 250 -768
vn -455 125 768
vn -824 34 1024
vn -412 17 -1024
vn 620 -347 -768
vn 677 233 -768
vn -528 -468 -768
vn -645 -288 768
vn 694 -148 768
vn -228 -1132 1160
vn -504 186 708
vn 602 319 1024
vn -707 -4 512
vn -670 -218 -1024
vn -240 372 -1160
vn -498 -694 -708
vn 586 415 768
vn 74 846 -1024
vn -1 -714 -512
vn -206 -681 1024
vn -153 -512 -612
vn -665 -512 -204
vn -562 -1024 -408
vn 153 -512 -612
vn 562 -512 -408
vn 153 -1024 612
vn -562 -256 408
vn -665 -768 204
vn -168 -1024 -588
vn 665 -768 -204
vn 665 -256 204
vn 562 -1024 408
vn -153 -512 612
vn 168 -1024 588
vn -168 0 588
vn 168 0 -588
vn 336 -1280 -904
vn 336 0 904
vn 168 -768 452
vn 28 -768 1024
vn -512 0 768
vn 744 -162 1024
vn -256 0 512
vn -512 0 -256
vn -256 0 -1536
vn 256 0 -512
vn 756 -81 -512
vn 516 -418 -512
vn 56 -768 -512
vn 168 0 -452
vn -153 0 -612
vn -665 0 -204
vn -562 0 -408
vn 153 0 -612
vn 562 0 -408
vn 665 0 -204
vn 665 0 204
vn 562 0 408
vn 153 0 612
vn -153 0 612
vn -562 0 408
vn -665 0 204
vn 512 0 256
vn 300 -593 256
vn 37 423 512
vn -740 256 1024
vn -370 128 -1024
vn 432 -613 -768
vn 318 -680 512
vn -696 -186 1024
vn -720 12 -512
vn 722 149 -1024
vn 676 80 -512
vn -224 -128 256
vn -448 -256 -512
vn 236 101 -256
vn 472 202 512
vn 736 -5 512
vn -484 -192 -256
vn -242 -96 512
vn 606 -460 768
vn 484 -192 256
vn 666 -374 -512
vn 242 -96 -512
vn -512 0 256
vn -256 0 -512
vn -512 0 -256
vn -256 0 512
vn 256 0 512
vn 512 0 256
vn 512 0 -256
vn 256 0 -512
vn 256 0 512
vn 0 -1792 0
vn 0 -1024 0
vn 0 -1280 0
vn 0 -1280 0
vn 0 -1280 0
vn 0 -1024 0
vn -153 0 -612
vn -665 0 -204
vn -562 0 -408
vn 153 0 -612
vn 562 0 -408
vn 665 0 -204
vn 665 0 204
vn 562 0 408
vn 153 0 612
vn -153 0 612
vn -562 0 408
vn -665 0 204
vn -153 0 -612
vn -665 0 -204
vn -562 0 -408
vn 153 0 -612
vn 562 0 -408
vn 665 0 -204
vn 665 0 204
vn 562 0 408
vn 153 0 612
vn -153 0 612
vn -562 0 408
vn -665 0 204
vn 256 15 -512
vn -512 15 -256
vn -256 15 -512
vn 512 15 -256
vn 512 15 256
vn 256 15 512
vn -256 15 512
vn -512 15 256
vn 256 15 -512
vn -512 15 -256
vn -256 15 -512
vn 512 15 -256
vn 512 15 256
vn 256 15 512
vn -256 15 512
vn -512 15 256
vn 256 15 -512
vn -512 15 -256
vn -256 15 -512
vn 512 15 -256
vn 512 15 256
vn 256 15 512
vn -256 15 512
vn -512 15 256
vn 256 15 -512
vn -512 15 -256
vn -256 15 -512
vn 512 15 -256
vn 512 15 256
vn 256 15 512
vn -256 15 512
vn -512 15 256
vn -227 -2264 43
vn -189 -981 -156
vn -43 -1240 -227
vn 156 -1237 -189
vn 227 -1240 -43
vn 189 -1237 156
vn 43 -1240 227
vn -156 -981 189
vn -195 -724 154
vn -223 -727 -36
vn -154 -724 -195
vn 36 -727 -223
vn 195 -724 -154
vn 223 -727 36
vn 154 -724 195
vn -36 -727 223
vn -227 -2264 43
vn -189 -981 -156
vn -43 -1240 -227
vn 156 -1237 -189
vn 227 -1240 -43
vn 189 -1237 156
vn 43 -1240 227
vn -156 -981 189
vn -195 -724 154
vn -223 -727 -36
vn -154 -724 -195
vn 36 -727 -223
vn 195 -724 -154
vn 223 -727 36
vn 154 -724 195
vn -36 -727 223
vn -141 -2299 16
vn -117 -1020 -88
vn -16 -1275 -141
vn 88 -1276 -117
vn 141 -1275 -16
vn 117 -1276 88
vn 16 -1275 141
vn -88 -1020 117
vn -109 -759 88
vn -144 -759 -26
vn -88 -759 -109
vn 26 -759 -144
vn 109 -759 -88
vn 144 -759 26
vn 88 -759 109
vn -26 -759 144
vn -141 -2299 16
vn -117 -1020 -88
vn -16 -1275 -141
vn 88 -1276 -117
vn 141 -1275 -16
vn 117 -1276 88
vn 16 -1275 141
vn -88 -1020 117
vn -109 -759 88
vn -144 -759 -26
vn -88 -759 -109
vn 26 -759 -144
vn 109 -759 -88
vn 144 -759 26
vn 88 -759 109
vn -26 -759 144
usemtl m0
f 1 2 3

usemtl m1
f 1 3 4

usemtl m2
f 1 4 5

usemtl m3
f 1 5 6

usemtl m4
f 1 6 2

usemtl m5
f 2 6 7

usemtl m6
f 2 7 8

usemtl m7
f 2 8 3

usemtl m8
f 5 4 9

usemtl m9
f 5 9 10

usemtl m10
f 5 10 6

usemtl m11
f 6 10 11

usemtl m12
f 6 11 12

usemtl m13
f 6 12 7

usemtl m14
f 7 12 8

usemtl m15
f 10 9 11

usemtl m16
f 13 14 15

usemtl m17
f 13 15 16

usemtl m18
f 13 16 17

usemtl m19
f 13 17 18

usemtl m20
f 13 18 19

usemtl m21
f 13 19 14

usemtl m22
f 14 19 20

usemtl m23
f 14 20 21

usemtl m24
f 14 21 22

usemtl m25
f 14 22 15

usemtl m26
f 15 22 23

usemtl m27
f 15 23 24

usemtl m28
f 15 24 16

usemtl m29
f 16 24 25

usemtl m30
f 16 25 26

usemtl m31
f 16 26 17

usemtl m32
f 17 26 27

usemtl m33
f 17 27 28

usemtl m34
f 17 28 18

usemtl m35
f 18 28 29

usemtl m36
f 18 29 30

usemtl m37
f 18 30 19

usemtl m38
f 19 30 25

usemtl m39
f 19 25 20

usemtl m40
f 20 25 24

usemtl m41
f 20 24 31

usemtl m42
f 20 31 21

usemtl m43
f 21 31 32

usemtl m44
f 21 32 33

usemtl m45
f 21 33 34

usemtl m46
f 21 34 22

usemtl m47
f 22 34 35

usemtl m48
f 22 35 23

usemtl m49
f 23 35 36

usemtl m50
f 23 36 37

usemtl m51
f 23 37 31

usemtl m52
f 23 31 24

usemtl m53
f 38 39 40

usemtl m54
f 38 40 41

usemtl m55
f 38 41 42

usemtl m56
f 38 42 43

usemtl m57
f 40 39 44

usemtl m58
f 40 44 45

usemtl m59
f 46 47 48

usemtl m60
f 46 48 49

usemtl m61
f 46 49 50

usemtl m62
f 46 50 51

usemtl m63
f 48 47 52

usemtl m64
f 48 52 53

usemtl m65
f 54 55 56

usemtl m66
f 54 56 57

usemtl m67
f 54 57 58

usemtl m68
f 54 58 59

usemtl m69
f 56 55 60

usemtl m70
f 56 60 61

usemtl m71
f 62 63 64

usemtl m72
f 62 64 65

usemtl m73
f 62 65 66

usemtl m74
f 62 66 67

usemtl m75
f 64 63 68

usemtl m76
f 64 68 69

usemtl m77
f 70 71 72

usemtl m78
f 70 72 73

usemtl m79
f 70 73 74

usemtl m80
f 70 74 75

usemtl m81
f 72 71 76

usemtl m82
f 72 76 77

usemtl m83
f 78 79 80

usemtl m84
f 78 80 81

usemtl m85
f 78 81 82

usemtl m86
f 78 82 83

usemtl m87
f 80 79 84

usemtl m88
f 80 84 85

usemtl m89
f 86 87 88

usemtl m90
f 86 88 89

usemtl m91
f 86 89 90

usemtl m92
f 86 90 91

usemtl m93
f 88 87 92

usemtl m94
f 88 92 93

usemtl m95
f 94 95 96

usemtl m96
f 94 96 97

usemtl m97
f 94 97 98

usemtl m98
f 94 98 99

usemtl m99
f 96 95 100

usemtl m100
f 96 100 101

usemtl m101
f 102 103 104

usemtl m102
f 102 104 105

usemtl m103
f 102 105 106

usemtl m104
f 102 106 107

usemtl m105
f 102 107 108

usemtl m106
f 102 108 109

usemtl m107
f 102 109 103

usemtl m108
f 103 109 110

usemtl m109
f 103 110 111

usemtl m110
f 103 111 104

usemtl m111
f 104 111 112

usemtl m112
f 104 112 113

usemtl m113
f 104 113 114

usemtl m114
f 104 114 115

usemtl m115
f 104 115 105

usemtl m116
f 105 115 116

usemtl m117
f 105 116 117

usemtl m118
f 105 117 106

usemtl m119
f 106 117 111

usemtl m120
f 106 111 110

usemtl m121
f 106 110 107

usemtl m122
f 107 110 118

usemtl m123
f 107 118 119

usemtl m124
f 107 119 108

usemtl m125
f 108 119 120

usemtl m126
f 108 120 121

usemtl m127
f 108 121 109

usemtl m128
f 109 121 118

usemtl m129
f 109 118 110

usemtl m130
f 122 123 124

usemtl m131
f 122 124 125

usemtl m132
f 122 125 126

usemtl m133
f 122 126 127

usemtl m134
f 122 127 123

usemtl m135
f 123 127 128

usemtl m136
f 123 128 129

usemtl m137
f 123 129 124

usemtl m138
f 124 129 111

usemtl m139
f 124 111 117

usemtl m140
f 124 117 130

usemtl m141
f 124 130 125

usemtl m142
f 125 130 131

usemtl m143
f 125 131 126

usemtl m144
f 126 131 132

usemtl m145
f 126 132 127

usemtl m146
f 127 132 133

usemtl m147
f 127 133 134

usemtl m148
f 127 134 128

usemtl m149
f 128 134 129

usemtl m150
f 129 134 135

usemtl m151
f 129 135 111

usemtl m152
f 111 135 136

usemtl m153
f 111 136 112

usemtl m154
f 111 112 117

usemtl m155
f 117 112 116

usemtl m156
f 117 116 130

usemtl m157
f 130 116 137

usemtl m158
f 130 137 138

usemtl m159
f 130 138 131

usemtl m160
f 131 138 133

usemtl m161
f 131 133 132

usemtl m162
f 139 140 141

usemtl m163
f 139 141 142

usemtl m164
f 142 141 143

usemtl m165
f 142 143 144

usemtl m166
f 142 144 145

usemtl m167
f 142 145 146

usemtl m168
f 146 145 147

usemtl m169
f 146 147 148

usemtl m170
f 146 148 149

usemtl m171
f 146 149 150

usemtl m172
f 146 150 138

usemtl m173
f 146 138 151

usemtl m174
f 151 138 137

usemtl m175
f 138 150 141

usemtl m176
f 138 141 140

usemtl m177
f 138 140 133

usemtl m178
f 133 140 135

usemtl m179
f 133 135 134

usemtl m180
f 135 140 139

usemtl m181
f 135 139 136

usemtl m182
f 152 153 154

usemtl m183
f 152 154 155

usemtl m184
f 152 155 156

usemtl m185
f 156 155 157

usemtl m186
f 156 157 158

usemtl m187
f 158 157 159

usemtl m188
f 158 159 160

usemtl m189
f 160 159 161

usemtl m190
f 160 161 162

usemtl m191
f 162 161 163

usemtl m192
f 162 163 153

usemtl m193
f 153 163 154

usemtl m194
f 144 143 164

usemtl m195
f 164 143 148

usemtl m196
f 164 148 147

usemtl m197
f 141 165 143

usemtl m198
f 143 165 149

usemtl m199
f 143 149 148

usemtl m200
f 150 149 165

usemtl m201
f 150 165 141

usemtl m202
f 118 166 119

usemtl m203
f 119 166 167

usemtl m204
f 119 167 168

usemtl m205
f 119 168 169

usemtl m206
f 119 169 120

usemtl m207
f 120 169 170

usemtl m208
f 120 170 121

usemtl m209
f 121 170 167

usemtl m210
f 121 167 166

usemtl m211
f 121 166 118

usemtl m212
f 114 171 172

usemtl m213
f 114 172 115

usemtl m214
f 115 172 173

usemtl m215
f 115 173 174

usemtl m216
f 115 174 116

usemtl m217
f 116 174 113

usemtl m218
f 116 113 112

usemtl m219
f 171 175 176

usemtl m220
f 171 176 172

usemtl m221
f 172 176 173

usemtl m222
f 173 176 177

usemtl m223
f 173 177 178

usemtl m224
f 173 178 179

usemtl m225
f 173 179 174

usemtl m226
f 174 179 113

usemtl m227
f 113 179 171

usemtl m228
f 113 171 114

usemtl m229
f 178 175 171

usemtl m230
f 178 171 179

usemtl m231
f 180 168 167

usemtl m232
f 180 167 181

usemtl m233
f 181 167 182

usemtl m234
f 181 182 183

usemtl m235
f 183 182 184

usemtl m236
f 183 184 185

usemtl m237
f 185 184 168

usemtl m238
f 185 168 180

usemtl m239
f 170 182 167

usemtl m240
f 182 170 169

usemtl m241
f 182 169 184

usemtl m242
f 184 169 168

usemtl m243
f 186 187 188

usemtl m244
f 186 188 189

usemtl m245
f 186 189 190

usemtl m246
f 190 189 191

usemtl m247
f 190 191 192

usemtl m248
f 192 191 193

usemtl m249
f 192 193 187

usemtl m250
f 187 193 188

usemtl m251
f 25 30 26

usemtl m252
f 26 30 194

usemtl m253
f 26 194 27

usemtl m254
f 30 29 194

usemtl m255
f 195 196 197

usemtl m256
f 195 197 198

usemtl m257
f 195 198 199

usemtl m258
f 195 199 200

usemtl m259
f 195 200 35

usemtl m260
f 195 35 34

usemtl m261
f 195 34 196

usemtl m262
f 196 34 33

usemtl m263
f 196 33 197

usemtl m264
f 197 33 32

usemtl m265
f 197 32 198

usemtl m266
f 198 32 37

usemtl m267
f 198 37 199

usemtl m268
f 199 37 36

usemtl m269
f 199 36 200

usemtl m270
f 200 36 35

usemtl m271
f 37 32 31

usemtl m272
f 201 202 203

usemtl m273
f 201 203 204

usemtl m274
f 201 204 205

usemtl m275
f 205 204 206

usemtl m276
f 205 206 207

usemtl m277
f 207 206 208

usemtl m278
f 207 208 209

usemtl m279
f 209 208 210

usemtl m280
f 209 210 211

usemtl m281
f 211 210 212

usemtl m282
f 211 212 202

usemtl m283
f 202 212 203

usemtl m284
f 213 214 215

usemtl m285
f 213 215 216

usemtl m286
f 213 216 217

usemtl m287
f 217 216 218

usemtl m288
f 217 218 219

usemtl m289
f 219 218 220

usemtl m290
f 219 220 221

usemtl m291
f 221 220 222

usemtl m292
f 221 222 223

usemtl m293
f 223 222 224

usemtl m294
f 223 224 214

usemtl m295
f 214 224 215

usemtl m296
f 225 226 227

usemtl m297
f 225 227 228

usemtl m298
f 225 228 229

usemtl m299
f 229 228 230

usemtl m300
f 229 230 231

usemtl m301
f 231 230 232

usemtl m302
f 231 232 226

usemtl m303
f 226 232 227

usemtl m304
f 233 234 235

usemtl m305
f 233 235 236

usemtl m306
f 233 236 237

usemtl m307
f 237 236 238

usemtl m308
f 237 238 239

usemtl m309
f 239 238 240

usemtl m310
f 239 240 234

usemtl m311
f 234 240 235

usemtl m312
f 241 242 243

usemtl m313
f 241 243 244

usemtl m314
f 241 244 245

usemtl m315
f 245 244 246

usemtl m316
f 245 246 247

usemtl m317
f 247 246 248

usemtl m318
f 247 248 242

usemtl m319
f 242 248 243

usemtl m320
f 249 250 251

usemtl m321
f 249 251 252

usemtl m322
f 249 252 253

usemtl m323
f 253 252 254

usemtl m324
f 253 254 255

usemtl m325
f 255 254 256

usemtl m326
f 255 256 250

usemtl m327
f 250 256 251

usemtl m328
f 257 258 259

usemtl m329
f 257 259 260

usemtl m330
f 257 260 261

usemtl m331
f 257 261 262

usemtl m332
f 257 262 263

usemtl m333
f 257 263 264

usemtl m334
f 257 264 265

usemtl m335
f 257 265 266

usemtl m336
f 257 266 258

usemtl m337
f 258 266 267

usemtl m338
f 258 267 259

usemtl m339
f 259 267 268

usemtl m340
f 259 268 260

usemtl m341
f 260 268 269

usemtl m342
f 260 269 261

usemtl m343
f 261 269 270

usemtl m344
f 261 270 262

usemtl m345
f 262 270 271

usemtl m346
f 262 271 263

usemtl m347
f 263 271 272

usemtl m348
f 263 272 264

usemtl m349
f 264 272 265

usemtl m350
f 273 274 275

usemtl m351
f 273 275 276

usemtl m352
f 273 276 277

usemtl m353
f 273 277 278

usemtl m354
f 273 278 279

usemtl m355
f 273 279 280

usemtl m356
f 273 280 281

usemtl m357
f 273 281 282

usemtl m358
f 273 282 274

usemtl m359
f 274 282 283

usemtl m360
f 274 283 275

usemtl m361
f 275 283 284

usemtl m362
f 275 284 276

usemtl m363
f 276 284 285

usemtl m364
f 276 285 277

usemtl m365
f 277 285 286

usemtl m366
f 277 286 278

usemtl m367
f 278 286 287

usemtl m368
f 278 287 279

usemtl m369
f 279 287 288

usemtl m370
f 279 288 280

usemtl m371
f 280 288 281

usemtl m372
f 289 290 291

usemtl m373
f 289 291 292

usemtl m374
f 289 292 293

usemtl m375
f 289 293 294

usemtl m376
f 289 294 295

usemtl m377
f 289 295 296

usemtl m378
f 289 296 297

usemtl m379
f 289 297 298

usemtl m380
f 289 298 290

usemtl m381
f 290 298 299

usemtl m382
f 290 299 291

usemtl m383
f 291 299 300

usemtl m384
f 291 300 292

usemtl m385
f 292 300 301

usemtl m386
f 292 301 293

usemtl m387
f 293 301 302

usemtl m388
f 293 302 294

usemtl m389
f 294 302 303

usemtl m390
f 294 303 295

usemtl m391
f 295 303 304

usemtl m392
f 295 304 296

usemtl m393
f 296 304 297

usemtl m394
f 305 306 307

usemtl m395
f 305 307 308

usemtl m396
f 305 308 309

usemtl m397
f 305 309 310

usemtl m398
f 305 310 311

usemtl m399
f 305 311 312

usemtl m400
f 305 312 313

usemtl m401
f 305 313 314

usemtl m402
f 305 314 306

usemtl m403
f 306 314 315

usemtl m404
f 306 315 307

usemtl m405
f 307 315 316

usemtl m406
f 307 316 308

usemtl m407
f 308 316 317

usemtl m408
f 308 317 309

usemtl m409
f 309 317 318

usemtl m410
f 309 318 310

usemtl m411
f 310 318 319

usemtl m412
f 310 319 311

usemtl m413
f 311 319 320

usemtl m414
f 311 320 312

usemtl m415
f 312 320 313

