mtllib 3107.mtl
o runescapemodel
v -20 -14 0
v -15 -19 0
v -12 -16 0
v -17 -11 0
v -24 -4 0
v -24 -4 -2
v -20 -14 -2
v -15 -19 -2
v -4 -24 0
v -4 -20 0
v -4 -20 -2
v -12 -16 -2
v -17 -11 -2
v -20 -4 0
v -24 4 0
v -24 4 -2
v -20 4 -2
v -20 -4 -2
v -4 -24 -2
v 4 -24 0
v 4 -20 0
v 4 -20 -2
v 4 -24 -2
v 11 17 0
v 16 12 0
v 19 15 0
v 14 20 0
v 4 20 0
v 4 20 -2
v 11 17 -2
v 16 12 -2
v 20 4 0
v 24 4 0
v 24 4 -2
v 19 15 -2
v 14 20 -2
v 4 24 0
v -4 24 0
v -4 20 0
v -4 20 -2
v 4 24 -2
v 20 4 -2
v 20 -4 0
v 24 -4 0
v 24 -4 -2
v 20 -4 -2
v -12 17 0
v -15 20 0
v -20 15 0
v -17 12 0
v -17 12 -2
v -12 17 -2
v -4 24 -2
v -15 20 -2
v -20 15 -2
v -20 4 0
v 14 -19 0
v 19 -14 0
v 16 -11 0
v 11 -16 0
v 14 -19 -2
v 19 -14 -2
v 16 -11 -2
v 11 -16 -2
v -20 1 13
v -15 1 18
v -12 1 15
v -17 1 10
v -24 1 3
v -24 -1 3
v -20 -1 13
v -15 -1 18
v -4 1 23
v -4 1 19
v -4 -1 19
v -12 -1 15
v -17 -1 10
v -20 1 3
v -24 1 -5
v -24 -1 -5
v -20 -1 -5
v -20 -1 3
v -4 -1 23
v 4 1 23
v 4 1 19
v 4 -1 19
v 4 -1 23
v 11 1 -18
v 16 1 -13
v 19 1 -16
v 14 1 -21
v 4 1 -21
v 4 -1 -21
v 11 -1 -18
v 16 -1 -13
v 20 1 -5
v 24 1 -5
v 24 -1 -5
v 19 -1 -16
v 14 -1 -21
v 4 1 -25
v -4 1 -25
v -4 1 -21
v -4 -1 -21
v 4 -1 -25
v 20 -1 -5
v 20 1 3
v 24 1 3
v 24 -1 3
v 20 -1 3
v -12 1 -18
v -15 1 -21
v -20 1 -16
v -17 1 -13
v -17 -1 -13
v -12 -1 -18
v -4 -1 -25
v -15 -1 -21
v -20 -1 -16
v -20 1 -5
v 14 1 18
v 19 1 13
v 16 1 10
v 11 1 15
v 14 -1 18
v 19 -1 13
v 16 -1 10
v 11 -1 15
v 10 -8 20
v 14 -12 15
v 12 -10 12
v 8 -6 17
v 3 -1 24
v 2 -3 24
v 9 -10 20
v 12 -13 15
v 17 -15 4
v 14 -13 4
v 13 -14 4
v 10 -11 12
v 7 -8 17
v 3 -1 20
v -2 4 24
v -4 3 24
v -4 3 20
v 2 -3 20
v 16 -17 4
v 17 -15 -4
v 14 -13 -4
v 13 -14 -4
v 16 -17 -4
v -12 14 -11
v -8 10 -16
v -10 12 -19
v -14 16 -14
v -14 16 -4
v -15 14 -4
v -13 12 -11
v -10 9 -16
v -2 4 -20
v -2 4 -24
v -4 3 -24
v -12 11 -19
v -15 14 -14
v -17 18 -4
v -17 18 4
v -14 16 4
v -15 14 4
v -18 17 -4
v -4 3 -20
v 3 -1 -20
v 3 -1 -24
v 2 -3 -24
v 2 -3 -20
v -12 14 12
v -14 16 15
v -10 12 20
v -8 10 17
v -10 9 17
v -13 12 12
v -18 17 4
v -15 14 15
v -12 11 20
v -2 4 20
v 14 -12 -14
v 10 -8 -19
v 8 -6 -16
v 12 -10 -11
v 12 -13 -14
v 9 -10 -19
v 7 -8 -16
v 10 -11 -11
v -11 -9 -20
v -15 -13 -15
v -13 -11 -12
v -9 -7 -17
v -4 -2 -24
v -3 -4 -24
v -10 -11 -20
v -13 -14 -15
v -18 -16 -4
v -15 -14 -4
v -14 -15 -4
v -11 -12 -12
v -8 -9 -17
v -4 -2 -20
v 1 3 -24
v 3 2 -24
v 3 2 -20
v -3 -4 -20
v -17 -18 -4
v -18 -16 4
v -15 -14 4
v -14 -15 4
v -17 -18 4
v 11 13 11
v 7 9 16
v 9 11 19
v 13 15 14
v 13 15 4
v 14 13 4
v 12 11 11
v 9 8 16
v 1 3 20
v 1 3 24
v 3 2 24
v 11 10 19
v 14 13 14
v 16 17 4
v 16 17 -4
v 13 15 -4
v 14 13 -4
v 17 16 4
v 3 2 20
v -4 -2 20
v -4 -2 24
v -3 -4 24
v -3 -4 20
v 11 13 -12
v 13 15 -15
v 9 11 -20
v 7 9 -17
v 9 8 -17
v 12 11 -12
v 17 16 -4
v 14 13 -15
v 11 10 -20
v 1 3 -20
v -15 -13 14
v -11 -9 19
v -9 -7 16
v -13 -11 11
v -13 -14 14
v -10 -11 19
v -8 -9 16
v -11 -12 11
vn -668 376 -768
vn -470 598 -768
vn 422 -662 -768
vn 602 -466 -768
vn -755 97 -768
vn -742 194 768
vn -607 461 768
vn -394 650 768
vn -212 724 -768
vn 120 -752 -768
vn 240 -736 768
vn 484 -604 768
vn 658 -386 768
vn 732 -204 -768
vn -744 -178 -768
vn -756 -89 768
vn 736 180 768
vn 750 -102 768
vn -106 746 768
vn 116 744 -768
vn -256 -704 -768
vn -128 -736 768
vn 232 720 768
vn -386 658 -768
vn -604 484 -768
vn 650 -394 -768
vn 461 -607 -768
vn -102 750 -1024
vn -204 732 512
vn -466 602 768
vn -662 422 768
vn -736 240 -768
vn 746 -106 -768
vn 724 -212 768
vn 598 -470 768
vn 376 -668 768
vn 194 -742 -512
vn -89 -756 -1024
vn 180 736 -512
vn 90 752 1024
vn 97 -755 1024
vn -752 120 768
vn -736 -128 -768
vn 720 232 -768
vn 744 116 768
vn -704 -256 768
vn 454 604 -1024
vn -360 -670 -512
vn -608 -453 -1024
vn 662 362 -512
vn 604 454 1024
vn 362 662 512
vn -178 -744 512
vn -453 -608 1024
vn -670 -360 512
vn 752 90 -768
vn 414 646 -768
vn 596 480 -768
vn -630 -438 -768
vn -492 -588 -768
vn 480 596 768
vn 646 414 768
vn -588 -492 768
vn -438 -630 768
vn -668 -768 -376
vn -470 -768 -598
vn 422 -768 662
vn 602 -768 466
vn -755 -768 -97
vn -742 768 -194
vn -607 768 -461
vn -394 768 -650
vn -212 -768 -724
vn 120 -768 752
vn 240 768 736
vn 484 768 604
vn 658 768 386
vn 732 -768 204
vn -744 -768 178
vn -756 768 89
vn 736 768 -180
vn 750 768 102
vn -106 768 -746
vn 116 -768 -744
vn -256 -768 704
vn -128 768 736
vn 232 768 -720
vn -386 -768 -658
vn -604 -768 -484
vn 650 -768 394
vn 461 -768 607
vn -102 -1024 -750
vn -204 512 -732
vn -466 768 -602
vn -662 768 -422
vn -736 -768 -240
vn 746 -768 106
vn 724 768 212
vn 598 768 470
vn 376 768 668
vn 194 -512 742
vn -89 -1024 756
vn 180 -512 -736
vn 90 1024 -752
vn 97 1024 755
vn -752 768 -120
vn -736 -768 128
vn 720 -768 -232
vn 744 768 -116
vn -704 768 256
vn 454 -1024 -604
vn -360 -512 670
vn -608 -1024 453
vn 662 -512 -362
vn 604 1024 -454
vn 362 512 -662
vn -178 512 744
vn -453 1024 608
vn -670 512 360
vn 752 -768 -90
vn 414 -768 -646
vn 596 -768 -480
vn -630 -768 438
vn -492 -768 588
vn 480 768 -596
vn 646 768 -414
vn -588 768 492
vn -438 768 630
vn 889 -371 -680
vn 877 -89 -410
vn 203 -1066 428
vn 186 -843 596
vn 638 -499 -756
vn -369 647 -744
vn -211 863 -600
vn -148 1057 -365
vn 992 -214 -182
vn -59 -1147 140
vn -1016 -2 221
vn -918 99 471
vn -933 372 644
vn 354 -642 736
vn 466 -708 -746
vn -594 473 -757
vn -478 718 740
vn -650 506 752
vn 135 897 -113
vn 1163 -269 45
vn -18 -1211 -310
vn -1086 18 -139
vn 1 984 218
vn 1152 -240 -384
vn 850 -184 -586
vn 365 -899 664
vn 21 -938 445
vn 1320 -481 -96
vn 317 715 -192
vn -78 927 -452
vn -365 944 -624
vn 652 -346 -716
vn 500 -647 748
vn -652 358 728
vn -864 204 592
vn -1129 183 355
vn -290 -899 191
vn 64 -1398 -86
vn 986 -92 152
vn -29 1089 85
vn -1280 196 102
vn -501 654 -742
vn 429 -609 -737
vn 769 -437 722
vn -441 607 745
vn -794 434 -706
vn 1171 -410 435
vn -197 -738 -348
vn 439 -1073 -601
vn 527 -47 676
vn -440 1073 598
vn 268 685 334
vn -947 -101 -168
vn -1205 368 -444
vn -540 25 -654
vn 590 -470 754
vn 938 -73 410
vn 921 -242 589
vn 146 -746 -642
vn 149 -1049 -527
vn -189 1008 478
vn -154 759 630
vn -924 231 -581
vn -916 4 -423
vn -889 -371 680
vn -877 -89 410
vn -203 -1066 -428
vn -186 -843 -596
vn -638 -499 756
vn 369 647 744
vn 211 863 600
vn 148 1057 365
vn -992 -214 182
vn 59 -1147 -140
vn 1016 -2 -221
vn 918 99 -471
vn 933 372 -644
vn -354 -642 -736
vn -466 -708 746
vn 594 473 757
vn 478 718 -740
vn 650 506 -752
vn -135 897 113
vn -1163 -269 -45
vn 18 -1211 310
vn 1086 18 139
vn -1 984 -218
vn -1152 -240 384
vn -850 -184 586
vn -365 -899 -664
vn -21 -938 -445
vn -1320 -481 96
vn -317 715 192
vn 78 927 452
vn 365 944 624
vn -652 -346 716
vn -500 -647 -748
vn 652 358 -728
vn 864 204 -592
vn 1129 183 -355
vn 290 -899 -191
vn -64 -1398 86
vn -986 -92 -152
vn 29 1089 -85
vn 1280 196 -102
vn 501 654 742
vn -429 -609 737
vn -769 -437 -722
vn 441 607 -745
vn 794 434 706
vn -1171 -410 -435
vn 197 -738 348
vn -439 -1073 601
vn -527 -47 -676
vn 440 1073 -598
vn -268 685 -334
vn 947 -101 168
vn 1205 368 444
vn 540 25 654
vn -590 -470 -754
vn -938 -73 -410
vn -921 -242 -589
vn -146 -746 642
vn -149 -1049 527
vn 189 1008 -478
vn 154 759 -630
vn 924 231 581
vn 916 4 423
usemtl m0
f 1 2 3

usemtl m1
f 1 3 4

usemtl m2
f 1 4 5

usemtl m3
f 1 5 6

usemtl m4
f 1 6 7

usemtl m5
f 1 7 2

usemtl m6
f 2 7 8

usemtl m7
f 2 8 9

usemtl m8
f 2 9 10

usemtl m9
f 2 10 3

usemtl m10
f 3 10 11

usemtl m11
f 3 11 12

usemtl m12
f 3 12 4

usemtl m13
f 4 12 13

usemtl m14
f 4 13 14

usemtl m15
f 4 14 5

usemtl m16
f 5 14 15

usemtl m17
f 5 15 16

usemtl m18
f 5 16 6

usemtl m19
f 6 16 17

usemtl m20
f 6 17 18

usemtl m21
f 6 18 7

usemtl m22
f 7 18 13

usemtl m23
f 7 13 8

usemtl m24
f 8 13 12

usemtl m25
f 8 12 19

usemtl m26
f 8 19 9

usemtl m27
f 9 19 20

usemtl m28
f 9 20 21

usemtl m29
f 9 21 10

usemtl m30
f 10 21 22

usemtl m31
f 10 22 11

usemtl m32
f 11 22 23

usemtl m33
f 11 23 19

usemtl m34
f 11 19 12

usemtl m35
f 24 25 26

usemtl m36
f 24 26 27

usemtl m37
f 24 27 28

usemtl m38
f 24 28 29

usemtl m39
f 24 29 30

usemtl m40
f 24 30 25

usemtl m41
f 25 30 31

usemtl m42
f 25 31 32

usemtl m43
f 25 32 33

usemtl m44
f 25 33 26

usemtl m45
f 26 33 34

usemtl m46
f 26 34 35

usemtl m47
f 26 35 27

usemtl m48
f 27 35 36

usemtl m49
f 27 36 37

usemtl m50
f 27 37 28

usemtl m51
f 28 37 38

usemtl m52
f 28 38 39

usemtl m53
f 28 39 40

usemtl m54
f 28 40 29

usemtl m55
f 29 40 41

usemtl m56
f 29 41 30

usemtl m57
f 30 41 36

usemtl m58
f 30 36 31

usemtl m59
f 31 36 35

usemtl m60
f 31 35 42

usemtl m61
f 31 42 32

usemtl m62
f 32 42 43

usemtl m63
f 32 43 44

usemtl m64
f 32 44 33

usemtl m65
f 33 44 45

usemtl m66
f 33 45 34

usemtl m67
f 34 45 46

usemtl m68
f 34 46 42

usemtl m69
f 34 42 35

usemtl m70
f 47 48 49

usemtl m71
f 47 49 50

usemtl m72
f 47 50 51

usemtl m73
f 47 51 52

usemtl m74
f 47 52 39

usemtl m75
f 47 39 38

usemtl m76
f 47 38 48

usemtl m77
f 48 38 53

usemtl m78
f 48 53 54

usemtl m79
f 48 54 49

usemtl m80
f 49 54 55

usemtl m81
f 49 55 15

usemtl m82
f 49 15 56

usemtl m83
f 49 56 50

usemtl m84
f 50 56 17

usemtl m85
f 50 17 51

usemtl m86
f 51 17 16

usemtl m87
f 51 16 55

usemtl m88
f 51 55 54

usemtl m89
f 51 54 52

usemtl m90
f 52 54 40

usemtl m91
f 52 40 39

usemtl m92
f 57 58 59

usemtl m93
f 57 59 60

usemtl m94
f 57 60 20

usemtl m95
f 57 20 23

usemtl m96
f 57 23 61

usemtl m97
f 57 61 58

usemtl m98
f 58 61 62

usemtl m99
f 58 62 44

usemtl m100
f 58 44 43

usemtl m101
f 58 43 59

usemtl m102
f 59 43 46

usemtl m103
f 59 46 63

usemtl m104
f 59 63 60

usemtl m105
f 60 63 64

usemtl m106
f 60 64 21

usemtl m107
f 60 21 20

usemtl m108
f 15 14 56

usemtl m109
f 56 14 18

usemtl m110
f 56 18 17

usemtl m111
f 55 16 15

usemtl m112
f 19 23 20

usemtl m113
f 62 45 44

usemtl m114
f 45 62 63

usemtl m115
f 45 63 46

usemtl m116
f 36 41 37

usemtl m117
f 37 41 38

usemtl m118
f 38 41 53

usemtl m119
f 53 41 40

usemtl m120
f 53 40 54

usemtl m121
f 64 63 62

usemtl m122
f 64 62 61

usemtl m123
f 64 61 22

usemtl m124
f 64 22 21

usemtl m125
f 61 23 22

usemtl m126
f 14 13 18

usemtl m127
f 43 42 46

usemtl m128
f 65 66 67

usemtl m129
f 65 67 68

usemtl m130
f 65 68 69

usemtl m131
f 65 69 70

usemtl m132
f 65 70 71

usemtl m133
f 65 71 66

usemtl m134
f 66 71 72

usemtl m135
f 66 72 73

usemtl m136
f 66 73 74

usemtl m137
f 66 74 67

usemtl m138
f 67 74 75

usemtl m139
f 67 75 76

usemtl m140
f 67 76 68

usemtl m141
f 68 76 77

usemtl m142
f 68 77 78

usemtl m143
f 68 78 69

usemtl m144
f 69 78 79

usemtl m145
f 69 79 80

usemtl m146
f 69 80 70

usemtl m147
f 70 80 81

usemtl m148
f 70 81 82

usemtl m149
f 70 82 71

usemtl m150
f 71 82 77

usemtl m151
f 71 77 72

usemtl m152
f 72 77 76

usemtl m153
f 72 76 83

usemtl m154
f 72 83 73

usemtl m155
f 73 83 84

usemtl m156
f 73 84 85

usemtl m157
f 73 85 74

usemtl m158
f 74 85 86

usemtl m159
f 74 86 75

usemtl m160
f 75 86 87

usemtl m161
f 75 87 83

usemtl m162
f 75 83 76

usemtl m163
f 88 89 90

usemtl m164
f 88 90 91

usemtl m165
f 88 91 92

usemtl m166
f 88 92 93

usemtl m167
f 88 93 94

usemtl m168
f 88 94 89

usemtl m169
f 89 94 95

usemtl m170
f 89 95 96

usemtl m171
f 89 96 97

usemtl m172
f 89 97 90

usemtl m173
f 90 97 98

usemtl m174
f 90 98 99

usemtl m175
f 90 99 91

usemtl m176
f 91 99 100

usemtl m177
f 91 100 101

usemtl m178
f 91 101 92

usemtl m179
f 92 101 102

usemtl m180
f 92 102 103

usemtl m181
f 92 103 104

usemtl m182
f 92 104 93

usemtl m183
f 93 104 105

usemtl m184
f 93 105 94

usemtl m185
f 94 105 100

usemtl m186
f 94 100 95

usemtl m187
f 95 100 99

usemtl m188
f 95 99 106

usemtl m189
f 95 106 96

usemtl m190
f 96 106 107

usemtl m191
f 96 107 108

usemtl m192
f 96 108 97

usemtl m193
f 97 108 109

usemtl m194
f 97 109 98

usemtl m195
f 98 109 110

usemtl m196
f 98 110 106

usemtl m197
f 98 106 99

usemtl m198
f 111 112 113

usemtl m199
f 111 113 114

usemtl m200
f 111 114 115

usemtl m201
f 111 115 116

usemtl m202
f 111 116 103

usemtl m203
f 111 103 102

usemtl m204
f 111 102 112

usemtl m205
f 112 102 117

usemtl m206
f 112 117 118

usemtl m207
f 112 118 113

usemtl m208
f 113 118 119

usemtl m209
f 113 119 79

usemtl m210
f 113 79 120

usemtl m211
f 113 120 114

usemtl m212
f 114 120 81

usemtl m213
f 114 81 115

usemtl m214
f 115 81 80

usemtl m215
f 115 80 119

usemtl m216
f 115 119 118

usemtl m217
f 115 118 116

usemtl m218
f 116 118 104

usemtl m219
f 116 104 103

usemtl m220
f 121 122 123

usemtl m221
f 121 123 124

usemtl m222
f 121 124 84

usemtl m223
f 121 84 87

usemtl m224
f 121 87 125

usemtl m225
f 121 125 122

usemtl m226
f 122 125 126

usemtl m227
f 122 126 108

usemtl m228
f 122 108 107

usemtl m229
f 122 107 123

usemtl m230
f 123 107 110

usemtl m231
f 123 110 127

usemtl m232
f 123 127 124

usemtl m233
f 124 127 128

usemtl m234
f 124 128 85

usemtl m235
f 124 85 84

usemtl m236
f 79 78 120

usemtl m237
f 120 78 82

usemtl m238
f 120 82 81

usemtl m239
f 119 80 79

usemtl m240
f 83 87 84

usemtl m241
f 126 109 108

usemtl m242
f 109 126 127

usemtl m243
f 109 127 110

usemtl m244
f 100 105 101

usemtl m245
f 101 105 102

usemtl m246
f 102 105 117

usemtl m247
f 117 105 104

usemtl m248
f 117 104 118

usemtl m249
f 128 127 126

usemtl m250
f 128 126 125

usemtl m251
f 128 125 86

usemtl m252
f 128 86 85

usemtl m253
f 125 87 86

usemtl m254
f 78 77 82

usemtl m255
f 107 106 110

usemtl m256
f 129 130 131

usemtl m257
f 129 131 132

usemtl m258
f 129 132 133

usemtl m259
f 129 133 134

usemtl m260
f 129 134 135

usemtl m261
f 129 135 130

usemtl m262
f 130 135 136

usemtl m263
f 130 136 137

usemtl m264
f 130 137 138

usemtl m265
f 130 138 131

usemtl m266
f 131 138 139

usemtl m267
f 131 139 140

usemtl m268
f 131 140 132

usemtl m269
f 132 140 141

usemtl m270
f 132 141 142

usemtl m271
f 132 142 133

usemtl m272
f 133 142 143

usemtl m273
f 133 143 144

usemtl m274
f 133 144 134

usemtl m275
f 134 144 145

usemtl m276
f 134 145 146

usemtl m277
f 134 146 135

usemtl m278
f 135 146 141

usemtl m279
f 135 141 136

usemtl m280
f 136 141 140

usemtl m281
f 136 140 147

usemtl m282
f 136 147 137

usemtl m283
f 137 147 148

usemtl m284
f 137 148 149

usemtl m285
f 137 149 138

usemtl m286
f 138 149 150

usemtl m287
f 138 150 139

usemtl m288
f 139 150 151

usemtl m289
f 139 151 147

usemtl m290
f 139 147 140

usemtl m291
f 152 153 154

usemtl m292
f 152 154 155

usemtl m293
f 152 155 156

usemtl m294
f 152 156 157

usemtl m295
f 152 157 158

usemtl m296
f 152 158 153

usemtl m297
f 153 158 159

usemtl m298
f 153 159 160

usemtl m299
f 153 160 161

usemtl m300
f 153 161 154

usemtl m301
f 154 161 162

usemtl m302
f 154 162 163

usemtl m303
f 154 163 155

usemtl m304
f 155 163 164

usemtl m305
f 155 164 165

usemtl m306
f 155 165 156

usemtl m307
f 156 165 166

usemtl m308
f 156 166 167

usemtl m309
f 156 167 168

usemtl m310
f 156 168 157

usemtl m311
f 157 168 169

usemtl m312
f 157 169 158

usemtl m313
f 158 169 164

usemtl m314
f 158 164 159

usemtl m315
f 159 164 163

usemtl m316
f 159 163 170

usemtl m317
f 159 170 160

usemtl m318
f 160 170 171

usemtl m319
f 160 171 172

usemtl m320
f 160 172 161

usemtl m321
f 161 172 173

usemtl m322
f 161 173 162

usemtl m323
f 162 173 174

usemtl m324
f 162 174 170

usemtl m325
f 162 170 163

usemtl m326
f 175 176 177

usemtl m327
f 175 177 178

usemtl m328
f 175 178 179

usemtl m329
f 175 179 180

usemtl m330
f 175 180 167

usemtl m331
f 175 167 166

usemtl m332
f 175 166 176

usemtl m333
f 176 166 181

usemtl m334
f 176 181 182

usemtl m335
f 176 182 177

usemtl m336
f 177 182 183

usemtl m337
f 177 183 143

usemtl m338
f 177 143 184

usemtl m339
f 177 184 178

usemtl m340
f 178 184 145

usemtl m341
f 178 145 179

usemtl m342
f 179 145 144

usemtl m343
f 179 144 183

usemtl m344
f 179 183 182

usemtl m345
f 179 182 180

usemtl m346
f 180 182 168

usemtl m347
f 180 168 167

usemtl m348
f 185 186 187

usemtl m349
f 185 187 188

usemtl m350
f 185 188 148

usemtl m351
f 185 148 151

usemtl m352
f 185 151 189

usemtl m353
f 185 189 186

usemtl m354
f 186 189 190

usemtl m355
f 186 190 172

usemtl m356
f 186 172 171

usemtl m357
f 186 171 187

usemtl m358
f 187 171 174

usemtl m359
f 187 174 191

usemtl m360
f 187 191 188

usemtl m361
f 188 191 192

usemtl m362
f 188 192 149

usemtl m363
f 188 149 148

usemtl m364
f 143 142 184

usemtl m365
f 184 142 146

usemtl m366
f 184 146 145

usemtl m367
f 183 144 143

usemtl m368
f 147 151 148

usemtl m369
f 190 173 172

usemtl m370
f 173 190 191

usemtl m371
f 173 191 174

usemtl m372
f 164 169 165

usemtl m373
f 165 169 166

usemtl m374
f 166 169 181

usemtl m375
f 181 169 168

usemtl m376
f 181 168 182

usemtl m377
f 192 191 190

usemtl m378
f 192 190 189

usemtl m379
f 192 189 150

usemtl m380
f 192 150 149

usemtl m381
f 189 151 150

usemtl m382
f 142 141 146

usemtl m383
f 171 170 174

usemtl m384
f 193 194 195

usemtl m385
f 193 195 196

usemtl m386
f 193 196 197

usemtl m387
f 193 197 198

usemtl m388
f 193 198 199

usemtl m389
f 193 199 194

usemtl m390
f 194 199 200

usemtl m391
f 194 200 201

usemtl m392
f 194 201 202

usemtl m393
f 194 202 195

usemtl m394
f 195 202 203

usemtl m395
f 195 203 204

usemtl m396
f 195 204 196

usemtl m397
f 196 204 205

usemtl m398
f 196 205 206

usemtl m399
f 196 206 197

usemtl m400
f 197 206 207

usemtl m401
f 197 207 208

usemtl m402
f 197 208 198

usemtl m403
f 198 208 209

usemtl m404
f 198 209 210

usemtl m405
f 198 210 199

usemtl m406
f 199 210 205

usemtl m407
f 199 205 200

usemtl m408
f 200 205 204

usemtl m409
f 200 204 211

usemtl m410
f 200 211 201

usemtl m411
f 201 211 212

usemtl m412
f 201 212 213

usemtl m413
f 201 213 202

usemtl m414
f 202 213 214

usemtl m415
f 202 214 203

usemtl m416
f 203 214 215

usemtl m417
f 203 215 211

usemtl m418
f 203 211 204

usemtl m419
f 216 217 218

usemtl m420
f 216 218 219

usemtl m421
f 216 219 220

usemtl m422
f 216 220 221

usemtl m423
f 216 221 222

usemtl m424
f 216 222 217

usemtl m425
f 217 222 223

usemtl m426
f 217 223 224

usemtl m427
f 217 224 225

usemtl m428
f 217 225 218

usemtl m429
f 218 225 226

usemtl m430
f 218 226 227

usemtl m431
f 218 227 219

usemtl m432
f 219 227 228

usemtl m433
f 219 228 229

usemtl m434
f 219 229 220

usemtl m435
f 220 229 230

usemtl m436
f 220 230 231

usemtl m437
f 220 231 232

usemtl m438
f 220 232 221

usemtl m439
f 221 232 233

usemtl m440
f 221 233 222

usemtl m441
f 222 233 228

usemtl m442
f 222 228 223

usemtl m443
f 223 228 227

usemtl m444
f 223 227 234

usemtl m445
f 223 234 224

usemtl m446
f 224 234 235

usemtl m447
f 224 235 236

usemtl m448
f 224 236 225

usemtl m449
f 225 236 237

usemtl m450
f 225 237 226

usemtl m451
f 226 237 238

usemtl m452
f 226 238 234

usemtl m453
f 226 234 227

usemtl m454
f 239 240 241

usemtl m455
f 239 241 242

usemtl m456
f 239 242 243

usemtl m457
f 239 243 244

usemtl m458
f 239 244 231

usemtl m459
f 239 231 230

usemtl m460
f 239 230 240

usemtl m461
f 240 230 245

usemtl m462
f 240 245 246

usemtl m463
f 240 246 241

usemtl m464
f 241 246 247

usemtl m465
f 241 247 207

usemtl m466
f 241 207 248

usemtl m467
f 241 248 242

usemtl m468
f 242 248 209

usemtl m469
f 242 209 243

usemtl m470
f 243 209 208

usemtl m471
f 243 208 247

usemtl m472
f 243 247 246

usemtl m473
f 243 246 244

usemtl m474
f 244 246 232

usemtl m475
f 244 232 231

usemtl m476
f 249 250 251

usemtl m477
f 249 251 252

usemtl m478
f 249 252 212

usemtl m479
f 249 212 215

usemtl m480
f 249 215 253

usemtl m481
f 249 253 250

usemtl m482
f 250 253 254

usemtl m483
f 250 254 236

usemtl m484
f 250 236 235

usemtl m485
f 250 235 251

usemtl m486
f 251 235 238

usemtl m487
f 251 238 255

usemtl m488
f 251 255 252

usemtl m489
f 252 255 256

usemtl m490
f 252 256 213

usemtl m491
f 252 213 212

usemtl m492
f 207 206 248

usemtl m493
f 248 206 210

usemtl m494
f 248 210 209

usemtl m495
f 247 208 207

usemtl m496
f 211 215 212

usemtl m497
f 254 237 236

usemtl m498
f 237 254 255

usemtl m499
f 237 255 238

usemtl m500
f 228 233 229

usemtl m501
f 229 233 230

usemtl m502
f 230 233 245

usemtl m503
f 245 233 232

usemtl m504
f 245 232 246

usemtl m505
f 256 255 254

usemtl m506
f 256 254 253

usemtl m507
f 256 253 214

usemtl m508
f 256 214 213

usemtl m509
f 253 215 214

usemtl m510
f 206 205 210

usemtl m511
f 235 234 238

