mtllib 31386.mtl
o runescapemodel
v -64 64 -48
v -48 64 -64
v -64 0 -64
v -64 128 -64
v -34 252 20
v -14 252 11
v -26 237 -40
v -44 240 -43
v -64 233 -32
v -64 240 0
v -64 240 32
v -64 240 64
v -32 240 64
v -16 246 47
v 1 253 32
v 8 250 5
v 2 246 -21
v 32 246 -43
v -32 240 -64
v -57 213 -64
v -64 199 -45
v -52 171 -64
v -64 171 -52
v 0 240 64
v 32 240 64
v 30 249 39
v 46 246 10
v 38 245 -18
v 51 243 -23
v 64 240 -32
v 64 240 -64
v 32 240 -64
v 0 240 -64
v 64 240 0
v 64 240 64
v 50 240 50
v 64 240 32
vn -356 0 356
vn -356 0 356
vn -178 -44 178
vn -355 -5 355
vn -330 -2184 23
vn -85 -1491 113
vn -54 -1483 177
vn -318 -1061 297
vn -537 -672 288
vn -156 -479 53
vn -190 -474 0
vn -95 -484 -67
vn -20 -734 -220
vn -74 -1457 -418
vn 20 -1479 -173
vn 94 -1264 142
vn -49 -1251 193
vn 65 -2244 228
vn -171 -908 108
vn -782 -329 410
vn -653 -43 353
vn -586 -66 460
vn -355 -93 355
vn 0 -482 -170
vn 68 -1207 -350
vn 202 -966 -184
vn 385 -1729 19
vn 115 -1267 68
vn 253 -1249 38
vn 154 -750 10
vn 47 -497 70
vn 0 -492 140
vn 0 -492 140
vn 225 -985 -16
vn 0 -512 0
vn 247 -1476 -131
vn 0 -512 0
usemtl m0
f 1 2 3

usemtl m1
f 2 1 4

usemtl m2
f 5 6 7

usemtl m3
f 5 7 8

usemtl m4
f 5 8 9

usemtl m5
f 5 9 10

usemtl m6
f 5 10 11

usemtl m7
f 5 11 12

usemtl m8
f 5 12 13

usemtl m9
f 5 13 14

usemtl m10
f 5 14 6

usemtl m11
f 6 14 15

usemtl m12
f 6 15 16

usemtl m13
f 6 16 17

usemtl m14
f 6 17 7

usemtl m15
f 7 17 18

usemtl m16
f 7 18 19

usemtl m17
f 7 19 8

usemtl m18
f 8 19 20

usemtl m19
f 8 20 9

usemtl m20
f 9 20 21

usemtl m21
f 21 20 22

usemtl m22
f 21 22 23

usemtl m23
f 23 22 4

usemtl m24
f 13 24 14

usemtl m25
f 14 24 25

usemtl m26
f 14 25 15

usemtl m27
f 15 25 26

usemtl m28
f 15 26 27

usemtl m29
f 15 27 16

usemtl m30
f 16 27 28

usemtl m31
f 16 28 17

usemtl m32
f 17 28 18

usemtl m33
f 18 28 29

usemtl m34
f 18 29 30

usemtl m35
f 18 30 31

usemtl m36
f 18 31 32

usemtl m37
f 18 32 33

usemtl m38
f 18 33 19

usemtl m39
f 29 28 27

usemtl m40
f 29 27 34

usemtl m41
f 29 34 30

usemtl m42
f 25 35 36

usemtl m43
f 25 36 26

usemtl m44
f 26 36 27

usemtl m45
f 27 36 34

usemtl m46
f 34 36 37

usemtl m47
f 37 36 35

