mtllib 31987.mtl
o runescapemodel
v 6 35 -9
v 14 35 -1
v 14 29 -1
v 6 29 -9
v -5 35 -9
v -4 35 -6
v 4 35 -6
v 11 35 0
v 14 35 12
v 14 29 12
v 17 27 13
v 17 27 -2
v 7 27 -12
v -5 29 -9
v -14 35 -2
v -10 35 0
v -10 31 0
v -4 31 -6
v 4 31 -6
v 11 31 0
v 10 35 9
v 6 35 19
v 6 29 19
v 8 27 22
v 6 25 19
v 15 25 11
v 15 25 -1
v 6 25 -9
v -5 25 -9
v -6 27 -12
v -14 29 -2
v -14 35 10
v -11 35 9
v -11 31 9
v 0 30 5
v 10 31 9
v 5 35 15
v -5 35 20
v -5 29 20
v -6 27 22
v -5 25 20
v -4 20 22
v 7 20 20
v 16 20 13
v 15 20 11
v 17 13 -2
v 6 13 -11
v -6 13 -11
v -14 25 0
v -16 27 -3
v -14 29 10
v -4 35 15
v -4 31 15
v 5 31 15
v -17 27 12
v -15 25 11
v -17 13 12
v -7 20 20
v -5 13 22
v 7 13 21
v 17 13 12
v 19 11 14
v 19 11 -3
v 7 11 -13
v -8 11 -14
v -17 13 -1
v -16 20 -4
v -16 20 -1
v 18 9 14
v 7 9 21
v 7 0 23
v 18 0 14
v 20 0 14
v 18 9 -3
v 8 11 25
v -6 9 22
v -6 0 23
v 6 0 18
v 14 0 9
v 6 0 -9
v 14 0 0
v 7 0 -13
v 19 0 -3
v 6 9 -11
v -6 9 -12
v -8 0 -14
v -18 9 -3
v -17 9 12
v -18 0 -3
v -18 0 12
v -19 11 12
v -19 11 -3
v -6 11 25
v -5 0 -8
v -19 0 -4
v -14 0 2
v -6 0 19
v -13 0 10
v -9 0 22
v 20 4 5
v 20 0 5
v 20 0 -6
v 20 4 -6
v 12 4 -14
v 12 0 -14
v 0 0 -17
v 0 4 -17
v -12 4 -14
v -12 0 -14
v -19 0 -6
v -19 4 -6
v -19 4 5
v -19 0 5
vn 366 -768 622
vn 695 -768 183
vn 1013 -640 471
vn 394 -639 1050
vn -158 -768 715
vn 372 -768 -628
vn -170 -768 -711
vn -596 -768 -370
vn 596 -768 -390
vn 1013 -652 -394
vn 947 166 -306
vn 659 -267 335
vn 327 187 915
vn -405 -650 1065
vn -572 -768 406
vn 698 -768 -242
vn 669 -512 -419
vn 203 -512 -738
vn -355 -512 -694
vn -721 -512 -158
vn -710 -768 221
vn 216 -768 -707
vn 463 -620 -1071
vn 277 -210 -575
vn 436 604 -1202
vn 1082 225 -366
vn 1425 655 602
vn 266 356 697
vn -366 742 1172
vn -308 -193 645
vn -1066 -591 452
vn -704 -768 -172
vn 596 -768 370
vn 722 -512 160
vn -1 -2048 3
vn -695 -512 376
vn -396 -768 586
vn -361 -768 -600
vn -341 -592 -1084
vn -324 188 -1055
vn -573 98 -1121
vn -175 -227 -1165
vn 575 -289 -1322
vn 941 -180 -341
vn 1226 -161 219
vn 1138 -701 319
vn 554 -717 1352
vn -444 -818 1238
vn -937 15 499
vn -999 226 368
vn -1066 -620 -418
vn 170 -768 711
vn 356 -512 698
vn -217 -512 718
vn -667 -255 -326
vn -1255 568 -408
vn -1527 -707 -718
vn -631 -158 -789
vn -472 -621 -1333
vn 443 -734 -997
vn 1029 -742 -270
vn 869 -377 -276
vn 1117 -68 617
vn 242 -213 777
vn -415 6 1006
vn -1056 -639 384
vn -686 -241 380
vn -1242 -309 18
vn 1239 440 -935
vn 224 328 -926
vn 298 410 -662
vn 163 768 -455
vn 505 173 -242
vn 1016 86 437
vn 429 87 -837
vn -679 729 -1326
vn -237 429 -504
vn 0 1792 0
vn 0 768 0
vn 0 1536 0
vn 0 768 0
vn 196 600 691
vn 555 409 418
vn 600 487 1367
vn -185 202 1007
vn -301 858 633
vn -1439 478 452
vn -1011 281 -378
vn -704 740 -209
vn -612 404 -356
vn -1110 101 -568
vn -874 -377 276
vn -218 -252 -634
vn 0 1536 0
vn -362 217 -5
vn 0 768 0
vn -79 1595 -177
vn 0 512 0
vn -8 254 -344
vn 256 0 0
vn -256 0 0
vn 74 0 -182
vn -74 0 182
vn -120 0 68
vn 120 0 -68
vn 124 0 0
vn -124 0 0
vn -133 0 -80
vn 133 0 80
vn 61 0 170
vn -61 0 -170
vn 256 0 0
vn -256 0 0
usemtl m0
f 1 2 3

usemtl m1
f 1 3 4

usemtl m2
f 1 4 5

usemtl m3
f 1 5 6

usemtl m4
f 1 6 7

usemtl m5
f 1 7 2

usemtl m6
f 2 7 8

usemtl m7
f 2 8 9

usemtl m8
f 2 9 10

usemtl m9
f 2 10 3

usemtl m10
f 3 10 11

usemtl m11
f 3 11 12

usemtl m12
f 3 12 4

usemtl m13
f 4 12 13

usemtl m14
f 4 13 14

usemtl m15
f 4 14 5

usemtl m16
f 5 14 15

usemtl m17
f 5 15 16

usemtl m18
f 5 16 6

usemtl m19
f 6 16 17

usemtl m20
f 6 17 18

usemtl m21
f 6 18 7

usemtl m22
f 7 18 19

usemtl m23
f 7 19 8

usemtl m24
f 8 19 20

usemtl m25
f 8 20 21

usemtl m26
f 8 21 9

usemtl m27
f 9 21 22

usemtl m28
f 9 22 23

usemtl m29
f 9 23 10

usemtl m30
f 10 23 24

usemtl m31
f 10 24 11

usemtl m32
f 11 24 25

usemtl m33
f 11 25 26

usemtl m34
f 11 26 27

usemtl m35
f 11 27 12

usemtl m36
f 12 27 13

usemtl m37
f 13 27 28

usemtl m38
f 13 28 29

usemtl m39
f 13 29 30

usemtl m40
f 13 30 14

usemtl m41
f 14 30 31

usemtl m42
f 14 31 15

usemtl m43
f 15 31 32

usemtl m44
f 15 32 33

usemtl m45
f 15 33 16

usemtl m46
f 16 33 34

usemtl m47
f 16 34 17

usemtl m48
f 17 34 35

usemtl m49
f 17 35 18

usemtl m50
f 18 35 19

usemtl m51
f 19 35 20

usemtl m52
f 20 35 36

usemtl m53
f 20 36 21

usemtl m54
f 21 36 37

usemtl m55
f 21 37 22

usemtl m56
f 22 37 38

usemtl m57
f 22 38 39

usemtl m58
f 22 39 23

usemtl m59
f 23 39 40

usemtl m60
f 23 40 24

usemtl m61
f 24 40 25

usemtl m62
f 25 40 41

usemtl m63
f 25 41 42

usemtl m64
f 25 42 43

usemtl m65
f 25 43 26

usemtl m66
f 26 43 44

usemtl m67
f 26 44 45

usemtl m68
f 26 45 27

usemtl m69
f 27 45 46

usemtl m70
f 27 46 47

usemtl m71
f 27 47 28

usemtl m72
f 28 47 29

usemtl m73
f 29 47 48

usemtl m74
f 29 48 49

usemtl m75
f 29 49 50

usemtl m76
f 29 50 30

usemtl m77
f 30 50 31

usemtl m78
f 31 50 51

usemtl m79
f 31 51 32

usemtl m80
f 32 51 38

usemtl m81
f 32 38 52

usemtl m82
f 32 52 33

usemtl m83
f 33 52 53

usemtl m84
f 33 53 34

usemtl m85
f 34 53 35

usemtl m86
f 35 53 54

usemtl m87
f 35 54 36

usemtl m88
f 36 54 37

usemtl m89
f 37 54 52

usemtl m90
f 37 52 38

usemtl m91
f 38 51 39

usemtl m92
f 39 51 55

usemtl m93
f 39 55 40

usemtl m94
f 40 55 56

usemtl m95
f 40 56 41

usemtl m96
f 41 56 57

usemtl m97
f 41 57 58

usemtl m98
f 41 58 42

usemtl m99
f 42 58 59

usemtl m100
f 42 59 43

usemtl m101
f 43 59 60

usemtl m102
f 43 60 44

usemtl m103
f 44 60 61

usemtl m104
f 44 61 45

usemtl m105
f 45 61 46

usemtl m106
f 46 61 62

usemtl m107
f 46 62 63

usemtl m108
f 46 63 47

usemtl m109
f 47 63 64

usemtl m110
f 47 64 48

usemtl m111
f 48 64 65

usemtl m112
f 48 65 66

usemtl m113
f 48 66 67

usemtl m114
f 48 67 49

usemtl m115
f 49 67 68

usemtl m116
f 49 68 56

usemtl m117
f 49 56 50

usemtl m118
f 50 56 55

usemtl m119
f 50 55 51

usemtl m120
f 69 70 71

usemtl m121
f 69 71 72

usemtl m122
f 69 72 73

usemtl m123
f 69 73 74

usemtl m124
f 69 74 63

usemtl m125
f 69 63 62

usemtl m126
f 69 62 75

usemtl m127
f 69 75 70

usemtl m128
f 70 75 76

usemtl m129
f 70 76 77

usemtl m130
f 70 77 71

usemtl m131
f 71 77 78

usemtl m132
f 71 78 72

usemtl m133
f 72 78 79

usemtl m134
f 79 78 80

usemtl m135
f 79 80 81

usemtl m136
f 81 80 82

usemtl m137
f 81 82 83

usemtl m138
f 83 82 84

usemtl m139
f 83 84 74

usemtl m140
f 83 74 73

usemtl m141
f 83 73 72

usemtl m142
f 85 84 82

usemtl m143
f 85 82 86

usemtl m144
f 85 86 87

usemtl m145
f 85 87 65

usemtl m146
f 85 65 84

usemtl m147
f 84 65 64

usemtl m148
f 84 64 63

usemtl m149
f 84 63 74

usemtl m150
f 88 87 89

usemtl m151
f 88 89 90

usemtl m152
f 88 90 76

usemtl m153
f 88 76 91

usemtl m154
f 88 91 87

usemtl m155
f 87 91 92

usemtl m156
f 87 92 65

usemtl m157
f 65 92 66

usemtl m158
f 66 92 57

usemtl m159
f 66 57 68

usemtl m160
f 66 68 67

usemtl m161
f 91 57 92

usemtl m162
f 57 91 59

usemtl m163
f 57 59 58

usemtl m164
f 61 60 75

usemtl m165
f 61 75 62

usemtl m166
f 59 91 93

usemtl m167
f 59 93 60

usemtl m168
f 60 93 75

usemtl m169
f 75 93 76

usemtl m170
f 76 93 91

usemtl m171
f 86 82 80

usemtl m172
f 86 80 94

usemtl m173
f 86 94 89

usemtl m174
f 86 89 95

usemtl m175
f 86 95 87

usemtl m176
f 87 95 89

usemtl m177
f 89 94 96

usemtl m178
f 96 94 97

usemtl m179
f 96 97 98

usemtl m180
f 98 97 90

usemtl m181
f 90 97 99

usemtl m182
f 90 99 76

usemtl m183
f 76 99 97

usemtl m184
f 76 97 77

usemtl m185
f 77 97 78

usemtl m186
f 78 97 94

usemtl m187
f 78 94 80

usemtl m188
f 56 68 57

usemtl m189
f 52 54 53

usemtl m190
f 100 101 102

usemtl m191
f 100 102 103

usemtl m192
f 100 103 101

usemtl m193
f 101 103 102

usemtl m194
f 102 103 104

usemtl m195
f 102 104 105

usemtl m196
f 102 105 103

usemtl m197
f 103 105 104

usemtl m198
f 104 105 106

usemtl m199
f 104 106 107

usemtl m200
f 104 107 105

usemtl m201
f 105 107 106

usemtl m202
f 106 107 108

usemtl m203
f 106 108 109

usemtl m204
f 106 109 107

usemtl m205
f 107 109 108

usemtl m206
f 108 109 110

usemtl m207
f 108 110 111

usemtl m208
f 108 111 109

usemtl m209
f 109 111 110

usemtl m210
f 110 111 112

usemtl m211
f 110 112 113

usemtl m212
f 110 113 111

usemtl m213
f 111 113 112

