mtllib 32174.mtl
o runescapemodel
v 4 172 4
v 4 177 0
v 3 177 3
v 0 177 4
v 0 172 5
v 0 156 5
v 5 156 5
v 6 166 5
v 6 166 -5
v 4 172 -4
v 3 177 -3
v 9 177 0
v 7 177 7
v 0 177 9
v -3 177 3
v -4 172 4
v -5 156 5
v -5 125 5
v 5 125 5
v 5 156 -5
v 25 156 -5
v 25 156 5
v 25 166 5
v 25 166 -5
v 0 172 -5
v 0 177 -4
v 0 177 -9
v 7 177 -7
v 6 179 -6
v 8 179 0
v 6 179 6
v 0 179 8
v -6 179 6
v -7 177 7
v -9 177 0
v -4 177 0
v -4 172 -4
v -6 166 -5
v -6 166 5
v -25 166 5
v -25 156 5
v -5 156 -5
v -5 125 -5
v -8 122 -8
v -8 122 8
v 8 122 8
v 5 125 -5
v 0 156 -5
v -3 177 -3
v -7 177 -7
v -6 179 -6
v 0 179 -8
v 6 198 -6
v 0 202 0
v 8 198 0
v 10 188 0
v 7 188 -8
v 0 188 -10
v 0 198 -8
v -6 198 -6
v -8 198 0
v -6 198 6
v 0 198 8
v 6 198 6
v 7 188 8
v 7 182 0
v 5 182 -5
v 0 182 -7
v -5 182 -5
v -7 188 -8
v 5 182 5
v -8 179 0
v -7 182 0
v -10 188 0
v -7 188 8
v 0 188 10
v 0 182 7
v 32 158 3
v 32 158 -3
v 32 164 -3
v 32 164 3
v 27 166 5
v 27 156 5
v 27 156 -5
v 27 166 -5
v -5 182 5
v -25 166 -5
v -27 166 5
v -27 156 5
v -25 156 -5
v -27 156 -5
v -27 166 -5
v -32 164 3
v -32 158 3
v -32 158 -3
v -32 164 -3
v 8 122 -8
v -8 118 -8
v -8 118 8
v 8 118 8
v 8 118 -8
v 8 91 -8
v -8 91 -8
v -8 91 8
v 8 91 8
v 11 88 11
v 11 88 -11
v -11 88 -11
v -11 88 11
v 11 84 11
v 11 84 -11
v -11 84 -11
v -11 84 11
v -11 60 11
v 11 60 11
v 11 60 -11
v -11 60 -11
v -16 55 -16
v -16 55 16
v 16 55 16
v 16 55 -16
v -16 51 -16
v -16 51 16
v 16 51 16
v 16 51 -16
v 16 9 -16
v -16 9 -16
v -16 9 16
v 16 9 16
v 25 0 25
v 25 0 -25
v -25 0 -25
v -25 0 25
v 11 174 4
v 13 171 -8
v 8 171 4
v 10 171 12
v 13 169 13
v 15 174 3
v 14 174 -4
v 14 172 -9
v 15 169 -11
v 14 169 -10
v 7 168 -13
v 4 171 -3
v 0 172 4
v 5 169 11
v 7 166 12
v 11 165 18
v 15 158 16
v 17 160 10
v 17 166 9
v 17 168 9
v 17 170 8
v 17 175 3
v 17 175 -4
v 16 171 -10
v 18 169 -12
v 15 168 -12
v 8 167 -15
v 0 167 -15
v 0 168 -14
v 0 171 -11
v -4 171 -3
v -8 171 4
v -5 169 11
v 0 169 11
v 0 159 13
v 6 164 13
v 5 159 22
v 7 155 18
v 12 153 13
v 14 155 13
v 16 157 12
v 17 103 13
v 22 103 12
v 17 103 12
v 18 139 18
v 20 139 18
v 12 103 13
v 23 72 13
v 25 72 12
v 23 72 12
v 12 103 12
v 15 139 18
v 20 117 18
v 23 117 18
v 13 139 18
v 17 117 18
v 2 149 23
v 1 144 19
v 3 143 14
v 0 125 13
v 5 103 13
v 7 74 16
v 18 74 16
v 20 36 17
v 24 37 14
v 30 38 12
v 24 37 13
v 20 36 16
v 18 74 15
v 7 74 15
v 5 103 12
v 0 142 15
v -3 143 14
v -12 153 13
v -12 103 13
v -5 103 13
v 0 103 13
v 0 74 16
v 0 31 22
v 7 33 21
v 0 149 24
v 0 143 20
v 0 156 21
v -5 159 22
v -2 149 23
v -1 144 19
v -7 155 18
v -15 158 16
v -14 155 13
v -17 103 13
v -23 72 13
v -18 74 16
v -7 74 16
v -7 33 21
v -7 27 21
v 0 25 22
v 7 27 21
v 20 29 17
v 24 30 14
v 7 33 20
v -11 174 4
v -13 171 -8
v -14 174 -4
v -15 174 3
v -13 169 13
v -10 171 12
v -7 166 12
v -6 164 13
v -7 168 -13
v -14 169 -10
v -15 169 -11
v -14 172 -9
v -17 175 -4
v -17 175 3
v -17 170 8
v -17 168 9
v -17 166 9
v -17 160 10
v -11 165 18
v 0 160 -17
v 7 161 -17
v 0 158 -17
v -7 161 -17
v 0 162 -18
v 5 163 -18
v 8 165 -17
v 12 166 -15
v 14 164 -14
v 6 159 -16
v 19 168 -11
v 18 167 -13
v 18 168 -12
v 23 176 -12
v 23 175 10
v 23 177 10
v 23 179 9
v 22 182 3
v 22 183 -4
v 23 180 -11
v 18 171 -11
v 23 178 -12
v 28 181 -11
v 28 179 -11
v 27 178 9
v 27 180 9
v 28 182 7
v 30 184 3
v 28 184 -1
v 30 184 -5
v 29 183 -8
v 28 182 -10
v 12 167 -14
v 15 165 -13
v 13 153 -17
v 14 153 -16
v 14 153 -17
v 13 118 -17
v 11 118 -19
v 13 118 -16
v 19 117 -14
v 18 153 -15
v 19 154 -15
v 18 153 -16
v 19 117 -15
v 19 93 -15
v 13 88 -17
v 11 87 -19
v 21 95 -13
v 21 117 -13
v 8 166 -17
v 5 166 -17
v 0 166 -17
v -8 167 -15
v 29 182 7
v 32 182 3
v 31 184 3
v 30 180 7
v 30 180 -1
v 29 184 -1
v 31 181 -8
v 32 182 -5
v 31 184 -5
v 30 183 -8
v -5 166 -17
v -8 166 -17
v -12 167 -14
v -15 168 -12
v -18 169 -12
v -16 171 -10
v -18 171 -11
v -23 180 -11
v -22 183 -4
v -22 182 3
v -23 179 9
v -23 177 10
v -23 175 10
v -19 168 -11
v -23 176 -12
v -18 168 -12
v -18 167 -13
v -19 154 -15
v -18 153 -15
v -14 153 -16
v -15 165 -13
v -14 153 -17
v -18 153 -16
v -21 117 -13
v -19 117 -14
v -13 118 -16
v -13 153 -17
v -13 118 -17
v -19 117 -15
v -21 95 -13
v -19 93 -15
v -13 88 -17
v -11 118 -19
v -16 157 12
v -22 103 12
v -25 72 12
v -30 38 12
v -24 37 14
v -20 36 17
v -20 29 17
v -7 33 20
v 0 31 21
v -6 159 -16
v -14 164 -14
v -12 166 -15
v -8 165 -17
v -5 163 -18
v -23 178 -12
v -27 180 9
v -27 178 9
v -28 179 -11
v -28 181 -11
v -29 182 7
v -31 184 3
v -32 182 3
v -30 180 7
v -28 182 7
v -30 184 3
v -29 184 -1
v -30 180 -1
v -30 183 -8
v -31 181 -8
v -31 184 -5
v -30 184 -5
v -29 183 -8
v -28 182 -10
v -28 184 -1
v -32 182 -5
v 0 103 12
v 0 74 15
v -7 74 15
v -5 103 12
v -12 103 12
v -17 103 12
v -15 139 18
v -13 139 18
v -18 139 18
v -20 117 18
v -17 117 18
v -23 117 18
v -20 139 18
v -23 77 21
v -26 77 21
v -28 41 21
v -20 77 21
v -31 43 21
v -20 36 16
v -18 74 15
v -23 72 12
v -24 37 13
v -24 30 14
v -30 31 12
v -11 87 -19
v 20 77 21
v 23 77 21
v 15 117 18
v 17 77 21
v 24 39 21
v 28 41 21
v 26 77 21
v 31 43 21
v 21 38 21
v -24 39 21
v -17 77 21
v -15 117 18
v -21 38 21
v 30 31 12
v 1 110 13
v -6 115 13
v -2 107 13
v 5 107 13
v 9 109 13
v 12 113 13
v 3 114 13
v -6 119 13
v -12 113 13
v -7 109 13
v -8 107 13
v -2 105 13
v 6 105 13
v 11 108 13
v 14 112 13
v 12 120 13
v 3 125 13
v 0 119 13
v -1 125 13
v -11 121 13
v -13 121 13
v -14 112 13
v 3 126 13
v -1 126 13
v -4 125 13
v -7 125 13
v 5 125 13
v 6 126 13
v 9 128 13
v 7 128 13
v -3 128 13
v -5 126 13
v -8 126 13
v -8 128 13
v -10 128 13
v 6 130 13
v 3 130 13
v -1 130 13
v -2 130 13
v -5 130 13
v -7 130 13
v -9 131 13
v 8 130 13
v 9 132 13
v 7 132 13
v 6 133 13
v 4 132 13
v 2 133 13
v 1 133 13
v -2 133 13
v -3 133 13
v -5 134 13
v -7 132 13
v -3 136 13
v -5 137 13
v -6 137 13
v -6 135 13
v -8 136 13
v 1 135 13
v -1 135 13
v -1 136 13
v 6 136 13
v 4 134 13
v 3 136 13
v 7 134 13
v 8 136 13
v 9 137 13
v 6 138 13
v 4 137 13
v 14 120 13
v 8 125 13
v 10 127 13
v 10 130 13
v -6 139 13
v -2 138 13
v 9 135 13
vn 1093 -363 -1317
vn 736 384 0
vn 320 896 -320
vn 0 288 -966
vn 0 -96 -990
vn 0 -32 -1784
vn 162 487 -1270
vn 149 -346 -502
vn 394 -683 502
vn 769 -233 817
vn 380 852 563
vn 858 536 0
vn 270 242 -270
vn 0 536 -858
vn -320 896 -320
vn -1093 -363 -1317
vn -162 231 -1270
vn -877 -547 -694
vn 694 -547 -877
vn 480 228 1518
vn 0 768 768
vn 0 768 -768
vn 0 -1024 -768
vn 0 -512 768
vn 0 -254 1974
vn 0 416 480
vn 0 536 858
vn 270 242 270
vn 1105 -775 962
vn 1150 -480 -92
vn 962 -775 -1105
vn -92 -480 -1150
vn -1105 -775 -962
vn -270 242 -270
vn -858 536 0
vn -736 384 0
vn -769 -233 817
vn -394 -427 502
vn -149 -602 -502
vn 0 -512 -768
vn 0 768 -768
vn -480 484 1518
vn -438 -364 694
vn -877 -730 621
vn -439 -548 -877
vn 877 -548 -439
vn 621 -730 877
vn 0 0 1280
vn -380 852 563
vn -270 242 270
vn -962 -775 1105
vn 92 -480 1150
vn 777 -646 801
vn 0 -1816 0
vn 944 -589 -89
vn 1369 194 165
vn 669 259 842
vn -84 143 1622
vn 0 -550 706
vn -777 -646 801
vn -944 -589 -89
vn -539 -597 -712
vn 0 -550 -706
vn 539 -597 -712
vn 1040 208 -793
vn 1358 66 -6
vn 914 65 934
vn -14 87 1357
vn -921 63 916
vn -800 254 713
vn 921 63 -916
vn -1150 -480 92
vn -1358 66 6
vn -1369 194 -5
vn -909 213 -922
vn 84 143 -1622
vn 14 87 -1357
vn 800 240 -481
vn 544 481 240
vn 800 -240 481
vn 544 -481 -240
vn 288 -497 -993
vn 288 737 -497
vn 288 753 737
vn 288 -993 753
vn -914 65 -934
vn 0 -1024 1024
vn -288 -753 -993
vn -288 993 -497
vn 0 768 512
vn -288 497 993
vn -288 -737 497
vn -544 -481 -240
vn -800 240 -481
vn -544 481 240
vn -800 -240 481
vn 439 -366 695
vn -512 0 1024
vn -1024 0 -512
vn 512 0 -1024
vn 1024 0 512
vn 620 -547 695
vn -695 -547 620
vn -620 -547 -695
vn 695 -547 -620
vn 876 -545 -437
vn 437 -545 876
vn -876 -545 437
vn -437 -545 -876
vn 512 0 -1024
vn 1024 0 512
vn -512 0 1024
vn -1024 0 -512
vn -618 -543 -693
vn 693 -543 -618
vn 618 -543 693
vn -693 -543 618
vn -874 -543 437
vn -437 -543 -874
vn 874 -543 -437
vn 437 -543 874
vn -512 0 1024
vn -1024 0 -512
vn 512 0 -1024
vn 1024 0 512
vn 618 -543 693
vn -693 -543 618
vn -618 -724 -874
vn 693 -362 -437
vn 362 -724 -362
vn 181 -543 362
vn -362 -543 181
vn -181 -362 -181
vn -406 -1208 -113
vn -1016 -1047 750
vn -341 -1614 -126
vn -410 -816 -505
vn 1306 -1078 -1270
vn -74 -1092 -427
vn -696 -1298 215
vn -534 -816 739
vn -827 -874 1263
vn -368 -771 705
vn 209 -2010 1023
vn 203 -1245 145
vn 0 -1722 -294
vn 203 -717 -557
vn -538 -835 -1137
vn 36 -613 -1093
vn 1225 403 -925
vn 726 -67 -339
vn 779 226 -617
vn -36 -265 -1228
vn -341 -801 -867
vn -676 -931 -317
vn -1037 -1455 547
vn -286 -869 1020
vn -45 -466 1836
vn -250 -1399 1228
vn 84 -1649 880
vn 0 -1358 878
vn 0 -768 768
vn 0 -1100 458
vn -203 -1245 145
vn 341 -1614 -126
vn -203 -717 -557
vn 0 -740 -1218
vn 0 -1186 -1186
vn -581 -685 -494
vn -23 -549 -1018
vn 1128 633 -1098
vn 424 439 -464
vn 355 311 -200
vn 444 179 -163
vn 435 -34 -1623
vn 215 -25 37
vn -343 5 1629
vn 0 0 256
vn 0 0 -256
vn 144 -103 -1739
vn 789 -118 -1838
vn 229 -27 53
vn -471 81 1906
vn -144 93 1483
vn 0 0 0
vn 0 19 0
vn 0 -19 0
vn 0 0 0
vn 0 0 0
vn 847 419 -760
vn 956 734 -402
vn 474 467 -372
vn 0 100 -2518
vn 0 -52 -1022
vn 95 -204 -2026
vn 279 -95 -934
vn 736 -57 -1576
vn 465 -19 -897
vn 198 19 49
vn -378 84 925
vn -722 152 1588
vn -279 95 934
vn -95 204 2026
vn -122 11 1516
vn 0 810 272
vn -474 467 -372
vn -424 439 -464
vn -144 -103 -1739
vn 0 -52 -1022
vn 0 -104 -1532
vn 0 -122 -1016
vn 0 -130 -2038
vn 281 -59 -1244
vn 0 108 -1308
vn 0 868 -666
vn 0 -594 -588
vn 23 -549 -1018
vn -847 419 -760
vn -956 734 -402
vn -1128 633 -1098
vn -1225 403 -925
vn -355 311 -200
vn -435 -34 -1623
vn -789 -118 -1838
vn -279 -95 -934
vn -95 -204 -2026
vn -281 -59 -1244
vn -31 124 -3
vn 0 84 0
vn 31 124 -3
vn 18 105 3
vn 51 96 24
vn -254 176 1241
vn 406 -1208 -113
vn 1016 -1047 750
vn 696 -1298 215
vn 74 -1092 -427
vn -1306 -1078 -1270
vn 410 -816 -505
vn 538 -835 -1137
vn 581 -685 -494
vn -209 -2010 1023
vn 368 -771 705
vn 827 -874 1263
vn 534 -816 739
vn 1037 -1455 547
vn 676 -931 -317
vn 341 -801 -867
vn 36 -265 -1228
vn -548 114 -619
vn -726 -67 -339
vn -36 -613 -1093
vn 0 238 988
vn 561 571 1835
vn 0 274 944
vn -561 571 1835
vn 0 136 1972
vn 132 -47 1004
vn 378 -30 1249
vn 752 -424 1691
vn 397 111 612
vn 194 287 381
vn 869 -52 720
vn 560 -352 593
vn 576 -896 1280
vn 957 770 995
vn 346 347 -753
vn -107 -203 -1175
vn -691 -836 -983
vn -1069 -1485 -519
vn -677 -1482 316
vn -707 -858 883
vn -733 -647 852
vn -300 -298 1108
vn 347 -468 1242
vn 837 574 622
vn 836 864 -714
vn 277 -646 -1356
vn -189 -1421 -899
vn -120 -1250 -246
vn -155 -1522 -49
vn -73 -1270 255
vn -92 -1000 375
vn -72 -1074 680
vn 187 -1058 773
vn 53 13 482
vn -393 -64 190
vn -522 118 -1349
vn 147 -215 1492
vn 606 2 1350
vn -62 0 80
vn -844 11 -1196
vn -631 7 -1379
vn -215 50 -1238
vn 360 -19 -132
vn 642 -89 1058
vn 769 7 1282
vn 11 25 -3
vn -24 12 38
vn 0 0 0
vn 72 7 -51
vn 302 -16 -171
vn 241 -653 923
vn 11 -722 1268
vn 0 -1072 984
vn -84 -1649 880
vn 554 -789 -909
vn 798 -120 -153
vn 635 -1028 -143
vn 828 230 -591
vn 1442 807 144
vn 669 -990 -134
vn 923 99 430
vn 843 -93 -138
vn 665 -1099 190
vn 676 -1123 927
vn -11 -722 1268
vn -241 -653 923
vn -187 -1058 773
vn 250 -1399 1228
vn 45 -466 1836
vn 286 -869 1020
vn 733 -647 852
vn 707 -858 883
vn 677 -1482 316
vn 1069 -1485 -519
vn 691 -836 -983
vn 107 -203 -1175
vn -709 683 -758
vn -1081 92 729
vn -593 426 1002
vn -576 -896 1280
vn -560 -352 593
vn -360 -19 -132
vn 215 50 -1238
vn 522 118 -1349
vn -53 13 482
vn -147 -215 1492
vn -642 -89 1058
vn -302 -16 -171
vn 631 7 -1379
vn 844 11 -1196
vn 393 -64 190
vn -606 2 1350
vn -769 7 1282
vn -72 7 -51
vn -11 25 -3
vn 24 12 38
vn 62 0 80
vn -444 179 -163
vn -215 -25 37
vn -229 -27 53
vn -198 19 49
vn -465 -19 -897
vn -736 -57 -1576
vn -18 105 3
vn 254 176 1241
vn 0 298 2038
vn -194 287 381
vn -397 111 612
vn -752 -424 1691
vn -378 -30 1249
vn -132 -47 1004
vn 300 -298 1108
vn -277 -646 -1356
vn -706 645 -725
vn -993 781 630
vn -347 -468 1242
vn -554 -789 -909
vn -635 -1028 -143
vn -798 -120 -153
vn -828 230 -591
vn 189 -1421 -899
vn 120 -1250 -246
vn -669 -990 -134
vn -1442 807 144
vn -676 -1123 927
vn -923 99 430
vn -665 -1099 190
vn 73 -1270 255
vn 92 -1000 375
vn 72 -1074 680
vn 155 -1522 -49
vn -843 -93 -138
vn 0 66 1532
vn 0 122 1016
vn 95 204 2026
vn 122 11 1516
vn 144 93 1483
vn 343 5 1629
vn 0 0 0
vn 0 0 0
vn 0 0 256
vn 0 19 0
vn 0 0 0
vn 0 -19 0
vn 0 0 -256
vn 0 -19 0
vn 0 19 0
vn 0 0 -256
vn 0 0 0
vn 0 0 256
vn 722 152 1588
vn 279 95 934
vn 471 81 1906
vn 378 84 925
vn -51 96 24
vn 0 0 0
vn 0 0 0
vn 0 0 0
vn 0 -19 0
vn 0 0 0
vn 0 0 0
vn 0 0 0
vn 0 0 -256
vn 0 19 0
vn 0 0 256
vn 0 0 0
vn 0 0 0
vn 0 0 0
vn 0 0 0
vn 0 0 0
vn 0 0 0
vn 0 0 -1536
vn 0 0 -1280
vn 0 0 -1792
vn 0 0 -1280
vn 0 0 -1280
vn 0 0 -2048
vn 0 0 -1280
vn 0 0 -1536
vn 0 0 -1792
vn 0 0 -1024
vn 0 0 -768
vn 0 0 -768
vn 0 0 -768
vn 0 0 -768
vn 0 0 -768
vn 0 0 -1280
vn 0 0 -1792
vn 0 0 -1280
vn 0 0 -1792
vn 0 0 -1536
vn 0 0 -768
vn 0 0 -768
vn 0 0 -1536
vn 0 0 -1536
vn 0 0 -1536
vn 0 0 -768
vn 0 0 -1280
vn 0 0 -1280
vn 0 0 -1536
vn 0 0 -1536
vn 0 0 -2048
vn 0 0 -1536
vn 0 0 -768
vn 0 0 -1792
vn 0 0 -768
vn 0 0 -1792
vn 0 0 -1792
vn 0 0 -1536
vn 0 0 -1280
vn 0 0 -1536
vn 0 0 -1024
vn 0 0 -768
vn 0 0 -1536
vn 0 0 -768
vn 0 0 -1024
vn 0 0 -1536
vn 0 0 -1536
vn 0 0 -1280
vn 0 0 -1280
vn 0 0 -1792
vn 0 0 -1536
vn 0 0 -2048
vn 0 0 -1024
vn 0 0 -1280
vn 0 0 -1280
vn 0 0 -1024
vn 0 0 -768
vn 0 0 -768
vn 0 0 -1280
vn 0 0 -1024
vn 0 0 -1280
vn 0 0 -1792
vn 0 0 -1280
vn 0 0 -1536
vn 0 0 -1280
vn 0 0 -1024
vn 0 0 -768
vn 0 0 -768
vn 0 0 -512
vn 0 0 -768
vn 0 0 -1024
vn 0 0 -768
vn 0 0 -512
vn 0 0 -512
vn 0 0 -768
vn 0 0 -768
usemtl m0
f 1 2 3

usemtl m1
f 1 3 4

usemtl m2
f 1 4 5

usemtl m3
f 1 5 6

usemtl m4
f 1 6 7

usemtl m5
f 1 7 8

usemtl m6
f 1 8 9

usemtl m7
f 1 9 10

usemtl m8
f 1 10 2

usemtl m9
f 2 10 11

usemtl m10
f 2 11 12

usemtl m11
f 2 12 3

usemtl m12
f 3 12 13

usemtl m13
f 3 13 14

usemtl m14
f 3 14 4

usemtl m15
f 4 14 15

usemtl m16
f 4 15 16

usemtl m17
f 4 16 5

usemtl m18
f 5 16 6

usemtl m19
f 6 16 17

usemtl m20
f 6 17 18

usemtl m21
f 6 18 19

usemtl m22
f 6 19 7

usemtl m23
f 7 19 20

usemtl m24
f 7 20 21

usemtl m25
f 7 21 22

usemtl m26
f 7 22 23

usemtl m27
f 7 23 8

usemtl m28
f 8 23 9

usemtl m29
f 9 23 24

usemtl m30
f 9 24 20

usemtl m31
f 9 20 10

usemtl m32
f 10 20 25

usemtl m33
f 10 25 11

usemtl m34
f 11 25 26

usemtl m35
f 11 26 27

usemtl m36
f 11 27 28

usemtl m37
f 11 28 12

usemtl m38
f 12 28 29

usemtl m39
f 12 29 30

usemtl m40
f 12 30 31

usemtl m41
f 12 31 13

usemtl m42
f 13 31 14

usemtl m43
f 14 31 32

usemtl m44
f 14 32 33

usemtl m45
f 14 33 34

usemtl m46
f 14 34 15

usemtl m47
f 15 34 35

usemtl m48
f 15 35 36

usemtl m49
f 15 36 16

usemtl m50
f 16 36 37

usemtl m51
f 16 37 38

usemtl m52
f 16 38 39

usemtl m53
f 16 39 17

usemtl m54
f 17 39 40

usemtl m55
f 17 40 41

usemtl m56
f 17 41 42

usemtl m57
f 17 42 18

usemtl m58
f 18 42 43

usemtl m59
f 18 43 44

usemtl m60
f 18 44 45

usemtl m61
f 18 45 19

usemtl m62
f 19 45 46

usemtl m63
f 19 46 47

usemtl m64
f 19 47 20

usemtl m65
f 20 47 48

usemtl m66
f 20 48 25

usemtl m67
f 25 48 42

usemtl m68
f 25 42 37

usemtl m69
f 25 37 49

usemtl m70
f 25 49 26

usemtl m71
f 26 49 27

usemtl m72
f 27 49 50

usemtl m73
f 27 50 51

usemtl m74
f 27 51 52

usemtl m75
f 27 52 29

usemtl m76
f 27 29 28

usemtl m77
f 53 54 55

usemtl m78
f 53 55 56

usemtl m79
f 53 56 57

usemtl m80
f 53 57 58

usemtl m81
f 53 58 59

usemtl m82
f 53 59 54

usemtl m83
f 54 59 60

usemtl m84
f 54 60 61

usemtl m85
f 54 61 62

usemtl m86
f 54 62 63

usemtl m87
f 54 63 64

usemtl m88
f 54 64 55

usemtl m89
f 55 64 65

usemtl m90
f 55 65 56

usemtl m91
f 56 65 66

usemtl m92
f 56 66 67

usemtl m93
f 56 67 57

usemtl m94
f 57 67 68

usemtl m95
f 57 68 58

usemtl m96
f 58 68 69

usemtl m97
f 58 69 70

usemtl m98
f 58 70 60

usemtl m99
f 58 60 59

usemtl m100
f 66 65 71

usemtl m101
f 66 71 30

usemtl m102
f 66 30 29

usemtl m103
f 66 29 67

usemtl m104
f 67 29 52

usemtl m105
f 67 52 68

usemtl m106
f 68 52 51

usemtl m107
f 68 51 69

usemtl m108
f 69 51 72

usemtl m109
f 69 72 73

usemtl m110
f 69 73 70

usemtl m111
f 70 73 74

usemtl m112
f 70 74 60

usemtl m113
f 60 74 61

usemtl m114
f 61 74 75

usemtl m115
f 61 75 62

usemtl m116
f 62 75 76

usemtl m117
f 62 76 63

usemtl m118
f 63 76 64

usemtl m119
f 64 76 65

usemtl m120
f 65 76 71

usemtl m121
f 71 76 77

usemtl m122
f 71 77 31

usemtl m123
f 71 31 30

usemtl m124
f 78 79 80

usemtl m125
f 78 80 81

usemtl m126
f 78 81 82

usemtl m127
f 78 82 83

usemtl m128
f 78 83 79

usemtl m129
f 79 83 84

usemtl m130
f 79 84 80

usemtl m131
f 80 84 85

usemtl m132
f 80 85 81

usemtl m133
f 81 85 82

usemtl m134
f 82 85 23

usemtl m135
f 82 23 22

usemtl m136
f 82 22 83

usemtl m137
f 83 22 84

usemtl m138
f 84 22 21

usemtl m139
f 84 21 85

usemtl m140
f 85 21 24

usemtl m141
f 85 24 23

usemtl m142
f 37 36 49

usemtl m143
f 49 36 35

usemtl m144
f 49 35 50

usemtl m145
f 50 35 51

usemtl m146
f 51 35 72

usemtl m147
f 72 35 33

usemtl m148
f 72 33 73

usemtl m149
f 73 33 86

usemtl m150
f 73 86 74

usemtl m151
f 74 86 75

usemtl m152
f 75 86 77

usemtl m153
f 75 77 76

usemtl m154
f 42 38 37

usemtl m155
f 38 42 87

usemtl m156
f 38 87 39

usemtl m157
f 39 87 40

usemtl m158
f 40 87 88

usemtl m159
f 40 88 41

usemtl m160
f 41 88 89

usemtl m161
f 41 89 90

usemtl m162
f 41 90 42

usemtl m163
f 42 90 87

usemtl m164
f 87 90 91

usemtl m165
f 87 91 92

usemtl m166
f 87 92 88

usemtl m167
f 88 92 93

usemtl m168
f 88 93 94

usemtl m169
f 88 94 89

usemtl m170
f 89 94 95

usemtl m171
f 89 95 91

usemtl m172
f 89 91 90

usemtl m173
f 94 93 96

usemtl m174
f 94 96 95

usemtl m175
f 95 96 91

usemtl m176
f 91 96 92

usemtl m177
f 92 96 93

usemtl m178
f 48 43 42

usemtl m179
f 43 48 47

usemtl m180
f 43 47 44

usemtl m181
f 44 47 97

usemtl m182
f 44 97 98

usemtl m183
f 44 98 99

usemtl m184
f 44 99 45

usemtl m185
f 45 99 100

usemtl m186
f 45 100 46

usemtl m187
f 46 100 101

usemtl m188
f 46 101 97

usemtl m189
f 46 97 47

usemtl m190
f 98 97 101

usemtl m191
f 98 101 102

usemtl m192
f 98 102 103

usemtl m193
f 98 103 99

usemtl m194
f 99 103 104

usemtl m195
f 99 104 100

usemtl m196
f 100 104 105

usemtl m197
f 100 105 101

usemtl m198
f 101 105 102

usemtl m199
f 102 105 106

usemtl m200
f 102 106 107

usemtl m201
f 102 107 103

usemtl m202
f 103 107 108

usemtl m203
f 103 108 104

usemtl m204
f 104 108 109

usemtl m205
f 104 109 105

usemtl m206
f 105 109 106

usemtl m207
f 106 109 110

usemtl m208
f 106 110 111

usemtl m209
f 106 111 107

usemtl m210
f 107 111 112

usemtl m211
f 107 112 108

usemtl m212
f 108 112 113

usemtl m213
f 108 113 109

usemtl m214
f 109 113 110

usemtl m215
f 110 113 114

usemtl m216
f 110 114 115

usemtl m217
f 110 115 111

usemtl m218
f 111 115 116

usemtl m219
f 111 116 112

usemtl m220
f 112 116 117

usemtl m221
f 112 117 113

usemtl m222
f 113 117 114

usemtl m223
f 114 117 118

usemtl m224
f 114 118 119

usemtl m225
f 114 119 115

usemtl m226
f 115 119 120

usemtl m227
f 115 120 116

usemtl m228
f 116 120 121

usemtl m229
f 116 121 117

usemtl m230
f 117 121 118

usemtl m231
f 118 121 122

usemtl m232
f 118 122 123

usemtl m233
f 118 123 119

usemtl m234
f 119 123 124

usemtl m235
f 119 124 120

usemtl m236
f 120 124 125

usemtl m237
f 120 125 121

usemtl m238
f 121 125 122

usemtl m239
f 122 125 126

usemtl m240
f 122 126 127

usemtl m241
f 122 127 123

usemtl m242
f 123 127 128

usemtl m243
f 123 128 124

usemtl m244
f 124 128 129

usemtl m245
f 124 129 125

usemtl m246
f 125 129 126

usemtl m247
f 126 129 130

usemtl m248
f 126 130 131

usemtl m249
f 126 131 127

usemtl m250
f 127 131 132

usemtl m251
f 127 132 128

usemtl m252
f 128 132 133

usemtl m253
f 128 133 130

usemtl m254
f 128 130 129

usemtl m255
f 35 34 33

usemtl m256
f 31 77 32

usemtl m257
f 32 77 86

usemtl m258
f 32 86 33

usemtl m259
f 20 24 21

usemtl m260
f 134 135 136

usemtl m261
f 134 136 137

usemtl m262
f 134 137 138

usemtl m263
f 134 138 139

usemtl m264
f 134 139 140

usemtl m265
f 134 140 135

usemtl m266
f 135 140 141

usemtl m267
f 135 141 142

usemtl m268
f 135 142 143

usemtl m269
f 135 143 144

usemtl m270
f 135 144 136

usemtl m271
f 136 144 145

usemtl m272
f 136 145 146

usemtl m273
f 136 146 147

usemtl m274
f 136 147 148

usemtl m275
f 136 148 137

usemtl m276
f 137 148 149

usemtl m277
f 137 149 138

usemtl m278
f 138 149 150

usemtl m279
f 138 150 151

usemtl m280
f 138 151 152

usemtl m281
f 138 152 153

usemtl m282
f 138 153 154

usemtl m283
f 138 154 139

usemtl m284
f 139 154 155

usemtl m285
f 139 155 140

usemtl m286
f 140 155 156

usemtl m287
f 140 156 141

usemtl m288
f 141 156 157

usemtl m289
f 141 157 142

usemtl m290
f 142 157 158

usemtl m291
f 142 158 159

usemtl m292
f 142 159 143

usemtl m293
f 143 159 144

usemtl m294
f 144 159 160

usemtl m295
f 144 160 161

usemtl m296
f 144 161 162

usemtl m297
f 144 162 163

usemtl m298
f 144 163 145

usemtl m299
f 145 163 164

usemtl m300
f 145 164 146

usemtl m301
f 146 164 165

usemtl m302
f 146 165 166

usemtl m303
f 146 166 167

usemtl m304
f 146 167 147

usemtl m305
f 147 167 148

usemtl m306
f 148 167 168

usemtl m307
f 148 168 169

usemtl m308
f 148 169 149

usemtl m309
f 149 169 170

usemtl m310
f 149 170 171

usemtl m311
f 149 171 150

usemtl m312
f 150 171 172

usemtl m313
f 150 172 173

usemtl m314
f 150 173 174

usemtl m315
f 150 174 151

usemtl m316
f 151 174 175

usemtl m317
f 151 175 176

usemtl m318
f 151 176 177

usemtl m319
f 151 177 174

usemtl m320
f 151 174 178

usemtl m321
f 151 178 179

usemtl m322
f 151 179 178

usemtl m323
f 151 178 174

usemtl m324
f 174 178 173

usemtl m325
f 174 173 175

usemtl m326
f 175 173 172

usemtl m327
f 175 172 180

usemtl m328
f 175 180 181

usemtl m329
f 175 181 176

usemtl m330
f 176 181 182

usemtl m331
f 176 182 183

usemtl m332
f 176 183 177

usemtl m333
f 177 183 184

usemtl m334
f 177 184 172

usemtl m335
f 177 172 173

usemtl m336
f 177 173 174

usemtl m337
f 174 173 178

usemtl m338
f 178 173 185

usemtl m339
f 178 185 186

usemtl m340
f 178 186 179

usemtl m341
f 178 179 187

usemtl m342
f 178 187 186

usemtl m343
f 178 186 185

usemtl m344
f 178 185 173

usemtl m345
f 173 185 172

usemtl m346
f 173 172 185

usemtl m347
f 185 172 188

usemtl m348
f 185 188 189

usemtl m349
f 185 189 186

usemtl m350
f 185 186 189

usemtl m351
f 185 189 188

usemtl m352
f 185 188 172

usemtl m353
f 171 190 191

usemtl m354
f 171 191 192

usemtl m355
f 171 192 172

usemtl m356
f 172 192 193

usemtl m357
f 172 193 180

usemtl m358
f 180 193 194

usemtl m359
f 180 194 195

usemtl m360
f 180 195 196

usemtl m361
f 180 196 181

usemtl m362
f 181 196 197

usemtl m363
f 181 197 198

usemtl m364
f 181 198 199

usemtl m365
f 181 199 182

usemtl m366
f 182 199 183

usemtl m367
f 183 199 200

usemtl m368
f 183 200 201

usemtl m369
f 183 201 202

usemtl m370
f 183 202 184

usemtl m371
f 184 202 203

usemtl m372
f 184 203 204

usemtl m373
f 184 204 172

usemtl m374
f 172 204 192

usemtl m375
f 192 204 205

usemtl m376
f 192 205 193

usemtl m377
f 193 205 206

usemtl m378
f 193 206 207

usemtl m379
f 193 207 208

usemtl m380
f 193 208 209

usemtl m381
f 193 209 210

usemtl m382
f 193 210 194

usemtl m383
f 194 210 195

usemtl m384
f 195 210 211

usemtl m385
f 195 211 212

usemtl m386
f 195 212 213

usemtl m387
f 195 213 197

usemtl m388
f 195 197 196

usemtl m389
f 190 171 170

usemtl m390
f 190 170 214

usemtl m391
f 190 214 215

usemtl m392
f 190 215 191

usemtl m393
f 191 215 205

usemtl m394
f 191 205 192

usemtl m395
f 214 170 216

usemtl m396
f 214 216 217

usemtl m397
f 214 217 218

usemtl m398
f 214 218 215

usemtl m399
f 215 218 219

usemtl m400
f 215 219 205

usemtl m401
f 205 219 206

usemtl m402
f 206 219 220

usemtl m403
f 206 220 207

usemtl m404
f 207 220 221

usemtl m405
f 207 221 222

usemtl m406
f 207 222 223

usemtl m407
f 207 223 208

usemtl m408
f 208 223 224

usemtl m409
f 208 224 225

usemtl m410
f 208 225 226

usemtl m411
f 208 226 209

usemtl m412
f 209 226 210

usemtl m413
f 210 226 211

usemtl m414
f 211 226 212

usemtl m415
f 212 226 227

usemtl m416
f 212 227 228

usemtl m417
f 212 228 229

usemtl m418
f 212 229 230

usemtl m419
f 212 230 213

usemtl m420
f 213 230 231

usemtl m421
f 213 231 197

usemtl m422
f 197 231 232

usemtl m423
f 197 232 198

usemtl m424
f 198 232 199

usemtl m425
f 199 232 200

usemtl m426
f 200 232 201

usemtl m427
f 201 232 231

usemtl m428
f 201 231 233

usemtl m429
f 201 233 203

usemtl m430
f 201 203 202

usemtl m431
f 234 165 235

usemtl m432
f 234 235 236

usemtl m433
f 234 236 237

usemtl m434
f 234 237 238

usemtl m435
f 234 238 239

usemtl m436
f 234 239 165

usemtl m437
f 165 239 240

usemtl m438
f 165 240 166

usemtl m439
f 166 240 167

usemtl m440
f 167 240 168

usemtl m441
f 168 240 241

usemtl m442
f 168 241 217

usemtl m443
f 168 217 216

usemtl m444
f 168 216 170

usemtl m445
f 168 170 169

usemtl m446
f 235 165 242

usemtl m447
f 235 242 243

usemtl m448
f 235 243 244

usemtl m449
f 235 244 245

usemtl m450
f 235 245 236

usemtl m451
f 236 245 246

usemtl m452
f 236 246 247

usemtl m453
f 236 247 237

usemtl m454
f 237 247 248

usemtl m455
f 237 248 238

usemtl m456
f 238 248 249

usemtl m457
f 238 249 250

usemtl m458
f 238 250 251

usemtl m459
f 238 251 221

usemtl m460
f 238 221 252

usemtl m461
f 238 252 239

usemtl m462
f 239 252 240

usemtl m463
f 240 252 241

usemtl m464
f 241 252 217

usemtl m465
f 217 252 220

usemtl m466
f 217 220 218

usemtl m467
f 218 220 219

usemtl m468
f 252 221 220

usemtl m469
f 253 254 255

usemtl m470
f 253 255 256

usemtl m471
f 253 256 257

usemtl m472
f 253 257 254

usemtl m473
f 254 257 258

usemtl m474
f 254 258 259

usemtl m475
f 254 259 260

usemtl m476
f 254 260 261

usemtl m477
f 254 261 262

usemtl m478
f 254 262 255

usemtl m479
f 263 264 265

usemtl m480
f 263 265 158

usemtl m481
f 263 158 266

usemtl m482
f 263 266 152

usemtl m483
f 152 266 267

usemtl m484
f 152 267 153

usemtl m485
f 153 267 268

usemtl m486
f 153 268 269

usemtl m487
f 153 269 154

usemtl m488
f 154 269 270

usemtl m489
f 154 270 155

usemtl m490
f 155 270 156

usemtl m491
f 156 270 271

usemtl m492
f 156 271 272

usemtl m493
f 156 272 273

usemtl m494
f 156 273 157

usemtl m495
f 157 273 158

usemtl m496
f 158 273 274

usemtl m497
f 158 274 266

usemtl m498
f 266 274 275

usemtl m499
f 266 275 276

usemtl m500
f 266 276 277

usemtl m501
f 266 277 267

usemtl m502
f 267 277 268

usemtl m503
f 268 277 278

usemtl m504
f 268 278 269

usemtl m505
f 269 278 279

usemtl m506
f 269 279 270

usemtl m507
f 270 279 280

usemtl m508
f 270 280 281

usemtl m509
f 270 281 271

usemtl m510
f 271 281 282

usemtl m511
f 271 282 283

usemtl m512
f 271 283 284

usemtl m513
f 271 284 272

usemtl m514
f 272 284 275

usemtl m515
f 272 275 274

usemtl m516
f 272 274 273

usemtl m517
f 265 264 260

usemtl m518
f 265 260 285

usemtl m519
f 265 285 159

usemtl m520
f 265 159 158

usemtl m521
f 260 286 261

usemtl m522
f 261 286 287

usemtl m523
f 261 287 286

usemtl m524
f 286 287 288

usemtl m525
f 286 288 264

usemtl m526
f 286 264 289

usemtl m527
f 286 289 287

usemtl m528
f 287 289 290

usemtl m529
f 287 290 291

usemtl m530
f 287 291 292

usemtl m531
f 287 292 288

usemtl m532
f 288 292 293

usemtl m533
f 288 293 294

usemtl m534
f 288 294 264

usemtl m535
f 264 294 295

usemtl m536
f 264 295 296

usemtl m537
f 264 296 289

usemtl m538
f 289 296 297

usemtl m539
f 289 297 290

usemtl m540
f 290 297 298

usemtl m541
f 290 298 299

usemtl m542
f 290 299 291

usemtl m543
f 291 299 300

usemtl m544
f 291 300 299

usemtl m545
f 291 299 292

usemtl m546
f 292 299 298

usemtl m547
f 292 298 293

usemtl m548
f 293 298 301

usemtl m549
f 293 301 302

usemtl m550
f 293 302 294

usemtl m551
f 294 302 295

usemtl m552
f 295 302 296

usemtl m553
f 296 302 297

usemtl m554
f 297 302 301

usemtl m555
f 297 301 298

usemtl m556
f 260 264 286

usemtl m557
f 160 159 285

usemtl m558
f 160 285 303

usemtl m559
f 160 303 304

usemtl m560
f 160 304 305

usemtl m561
f 160 305 161

usemtl m562
f 161 305 306

usemtl m563
f 161 306 242

usemtl m564
f 161 242 162

usemtl m565
f 162 242 163

usemtl m566
f 163 242 164

usemtl m567
f 164 242 165

usemtl m568
f 307 308 309

usemtl m569
f 307 309 279

usemtl m570
f 307 279 278

usemtl m571
f 307 278 310

usemtl m572
f 307 310 308

usemtl m573
f 308 310 311

usemtl m574
f 308 311 309

usemtl m575
f 309 311 312

usemtl m576
f 309 312 280

usemtl m577
f 309 280 279

usemtl m578
f 278 277 310

usemtl m579
f 310 277 311

usemtl m580
f 311 277 276

usemtl m581
f 311 276 313

usemtl m582
f 311 313 314

usemtl m583
f 311 314 312

usemtl m584
f 312 314 315

usemtl m585
f 312 315 281

usemtl m586
f 312 281 280

usemtl m587
f 316 276 275

usemtl m588
f 316 275 284

usemtl m589
f 316 284 283

usemtl m590
f 316 283 282

usemtl m591
f 316 282 315

usemtl m592
f 316 315 313

usemtl m593
f 316 313 276

usemtl m594
f 315 314 313

usemtl m595
f 260 303 285

usemtl m596
f 303 260 259

usemtl m597
f 303 259 304

usemtl m598
f 304 259 258

usemtl m599
f 304 258 257

usemtl m600
f 304 257 305

usemtl m601
f 305 257 317

usemtl m602
f 305 317 306

usemtl m603
f 306 317 318

usemtl m604
f 306 318 319

usemtl m605
f 306 319 320

usemtl m606
f 306 320 242

usemtl m607
f 242 320 243

usemtl m608
f 243 320 244

usemtl m609
f 244 320 321

usemtl m610
f 244 321 322

usemtl m611
f 244 322 245

usemtl m612
f 245 322 246

usemtl m613
f 246 322 323

usemtl m614
f 246 323 324

usemtl m615
f 246 324 325

usemtl m616
f 246 325 326

usemtl m617
f 246 326 247

usemtl m618
f 247 326 248

usemtl m619
f 248 326 327

usemtl m620
f 248 327 249

usemtl m621
f 249 327 328

usemtl m622
f 249 328 329

usemtl m623
f 249 329 250

usemtl m624
f 250 329 330

usemtl m625
f 330 329 331

usemtl m626
f 330 331 321

usemtl m627
f 330 321 332

usemtl m628
f 330 332 333

usemtl m629
f 330 333 334

usemtl m630
f 330 334 333

usemtl m631
f 333 334 335

usemtl m632
f 333 335 336

usemtl m633
f 333 336 337

usemtl m634
f 333 337 338

usemtl m635
f 333 338 339

usemtl m636
f 333 339 334

usemtl m637
f 334 339 340

usemtl m638
f 334 340 335

usemtl m639
f 335 340 341

usemtl m640
f 335 341 336

usemtl m641
f 336 341 342

usemtl m642
f 336 342 343

usemtl m643
f 336 343 337

usemtl m644
f 337 343 338

usemtl m645
f 338 343 344

usemtl m646
f 338 344 345

usemtl m647
f 338 345 339

usemtl m648
f 339 345 340

usemtl m649
f 340 345 346

usemtl m650
f 340 346 341

usemtl m651
f 341 346 347

usemtl m652
f 341 347 342

usemtl m653
f 342 347 348

usemtl m654
f 342 348 349

usemtl m655
f 342 349 343

usemtl m656
f 343 349 344

usemtl m657
f 344 349 348

usemtl m658
f 344 348 347

usemtl m659
f 344 347 345

usemtl m660
f 345 347 346

usemtl m661
f 281 315 282

usemtl m662
f 221 251 350

usemtl m663
f 221 350 222

usemtl m664
f 222 350 223

usemtl m665
f 223 350 251

usemtl m666
f 223 251 351

usemtl m667
f 223 351 224

usemtl m668
f 224 351 352

usemtl m669
f 224 352 353

usemtl m670
f 224 353 354

usemtl m671
f 224 354 355

usemtl m672
f 224 355 225

usemtl m673
f 225 355 226

usemtl m674
f 226 355 227

usemtl m675
f 227 355 356

usemtl m676
f 227 356 228

usemtl m677
f 228 356 357

usemtl m678
f 228 357 358

usemtl m679
f 228 358 229

usemtl m680
f 229 358 230

usemtl m681
f 230 358 233

usemtl m682
f 230 233 231

usemtl m683
f 255 359 256

usemtl m684
f 256 359 360

usemtl m685
f 256 360 361

usemtl m686
f 256 361 362

usemtl m687
f 256 362 363

usemtl m688
f 256 363 257

usemtl m689
f 257 363 317

usemtl m690
f 317 363 362

usemtl m691
f 317 362 318

usemtl m692
f 318 362 361

usemtl m693
f 318 361 319

usemtl m694
f 319 361 332

usemtl m695
f 319 332 320

usemtl m696
f 320 332 321

usemtl m697
f 332 361 333

usemtl m698
f 333 361 337

usemtl m699
f 337 361 360

usemtl m700
f 337 360 343

usemtl m701
f 337 343 360

usemtl m702
f 331 364 321

usemtl m703
f 321 364 323

usemtl m704
f 321 323 322

usemtl m705
f 328 365 366

usemtl m706
f 328 366 329

usemtl m707
f 329 366 367

usemtl m708
f 329 367 331

usemtl m709
f 331 367 368

usemtl m710
f 331 368 364

usemtl m711
f 364 368 324

usemtl m712
f 364 324 323

usemtl m713
f 369 370 371

usemtl m714
f 369 371 372

usemtl m715
f 369 372 365

usemtl m716
f 369 365 373

usemtl m717
f 369 373 370

usemtl m718
f 370 373 374

usemtl m719
f 370 374 375

usemtl m720
f 370 375 376

usemtl m721
f 370 376 371

usemtl m722
f 371 376 372

usemtl m723
f 372 376 366

usemtl m724
f 372 366 365

usemtl m725
f 377 368 367

usemtl m726
f 377 367 378

usemtl m727
f 377 378 379

usemtl m728
f 377 379 380

usemtl m729
f 377 380 381

usemtl m730
f 377 381 382

usemtl m731
f 377 382 368

usemtl m732
f 368 382 324

usemtl m733
f 324 382 325

usemtl m734
f 325 382 381

usemtl m735
f 325 381 380

usemtl m736
f 325 380 383

usemtl m737
f 325 383 326

usemtl m738
f 326 383 374

usemtl m739
f 326 374 373

usemtl m740
f 326 373 327

usemtl m741
f 327 373 365

usemtl m742
f 327 365 328

usemtl m743
f 379 378 384

usemtl m744
f 379 384 375

usemtl m745
f 379 375 383

usemtl m746
f 379 383 380

usemtl m747
f 376 375 384

usemtl m748
f 376 384 378

usemtl m749
f 376 378 367

usemtl m750
f 376 367 366

usemtl m751
f 375 374 383

usemtl m752
f 385 205 204

usemtl m753
f 385 204 203

usemtl m754
f 385 203 386

usemtl m755
f 385 386 387

usemtl m756
f 385 387 388

usemtl m757
f 385 388 205

usemtl m758
f 205 388 206

usemtl m759
f 206 388 207

usemtl m760
f 207 388 389

usemtl m761
f 207 389 390

usemtl m762
f 207 390 222

usemtl m763
f 207 222 391

usemtl m764
f 207 391 392

usemtl m765
f 207 392 391

usemtl m766
f 207 391 222

usemtl m767
f 222 391 393

usemtl m768
f 222 393 391

usemtl m769
f 391 393 394

usemtl m770
f 391 394 395

usemtl m771
f 391 395 392

usemtl m772
f 391 392 395

usemtl m773
f 391 395 394

usemtl m774
f 391 394 393

usemtl m775
f 393 394 396

usemtl m776
f 393 396 397

usemtl m777
f 393 397 394

usemtl m778
f 394 397 396

usemtl m779
f 394 396 398

usemtl m780
f 394 398 395

usemtl m781
f 394 395 398

usemtl m782
f 394 398 399

usemtl m783
f 394 399 396

usemtl m784
f 396 399 398

usemtl m785
f 398 399 400

usemtl m786
f 398 400 401

usemtl m787
f 398 401 395

usemtl m788
f 398 395 401

usemtl m789
f 398 401 400

usemtl m790
f 398 400 402

usemtl m791
f 398 402 399

usemtl m792
f 399 402 400

usemtl m793
f 386 203 358

usemtl m794
f 386 358 387

usemtl m795
f 387 358 357

usemtl m796
f 387 357 403

usemtl m797
f 387 403 404

usemtl m798
f 387 404 389

usemtl m799
f 387 389 388

usemtl m800
f 358 203 233

usemtl m801
f 351 251 390

usemtl m802
f 351 390 405

usemtl m803
f 351 405 352

usemtl m804
f 352 405 353

usemtl m805
f 353 405 406

usemtl m806
f 353 406 407

usemtl m807
f 353 407 408

usemtl m808
f 353 408 407

usemtl m809
f 353 407 354

usemtl m810
f 354 407 355

usemtl m811
f 355 407 356

usemtl m812
f 356 407 403

usemtl m813
f 356 403 357

usemtl m814
f 350 390 251

usemtl m815
f 350 251 393

usemtl m816
f 350 393 222

usemtl m817
f 350 222 390

usemtl m818
f 390 389 405

usemtl m819
f 405 389 404

usemtl m820
f 405 404 403

usemtl m821
f 405 403 406

usemtl m822
f 406 403 407

usemtl m823
f 264 263 295

usemtl m824
f 264 295 263

usemtl m825
f 349 409 348

usemtl m826
f 349 348 409

usemtl m827
f 410 411 189

usemtl m828
f 410 189 412

usemtl m829
f 410 412 413

usemtl m830
f 410 413 414

usemtl m831
f 410 414 415

usemtl m832
f 410 415 411

usemtl m833
f 410 411 415

usemtl m834
f 410 415 414

usemtl m835
f 410 414 413

usemtl m836
f 410 413 412

usemtl m837
f 410 412 189

usemtl m838
f 410 189 411

usemtl m839
f 411 189 186

usemtl m840
f 411 186 189

usemtl m841
f 186 411 187

usemtl m842
f 186 187 179

usemtl m843
f 411 416 187

usemtl m844
f 187 416 186

usemtl m845
f 186 416 411

usemtl m846
f 411 416 417

usemtl m847
f 411 417 415

usemtl m848
f 411 415 416

usemtl m849
f 416 415 417

usemtl m850
f 188 412 189

usemtl m851
f 188 189 412

usemtl m852
f 413 418 414

usemtl m853
f 413 414 418

usemtl m854
f 419 401 400

usemtl m855
f 419 400 401

usemtl m856
f 419 401 420

usemtl m857
f 419 420 401

usemtl m858
f 401 420 421

usemtl m859
f 401 421 395

usemtl m860
f 401 395 421

usemtl m861
f 401 421 420

usemtl m862
f 393 251 397

usemtl m863
f 393 397 251

usemtl m864
f 393 251 350

usemtl m865
f 393 350 222

usemtl m866
f 392 395 421

usemtl m867
f 392 421 395

usemtl m868
f 420 419 422

usemtl m869
f 420 422 419

usemtl m870
f 199 423 232

usemtl m871
f 199 232 423

usemtl m872
f 424 425 426

usemtl m873
f 424 426 427

usemtl m874
f 424 427 428

usemtl m875
f 424 428 429

usemtl m876
f 424 429 430

usemtl m877
f 424 430 425

usemtl m878
f 425 430 431

usemtl m879
f 425 431 432

usemtl m880
f 425 432 426

usemtl m881
f 426 432 433

usemtl m882
f 426 433 434

usemtl m883
f 426 434 435

usemtl m884
f 426 435 427

usemtl m885
f 427 435 436

usemtl m886
f 427 436 428

usemtl m887
f 428 436 437

usemtl m888
f 428 437 429

usemtl m889
f 429 437 438

usemtl m890
f 429 438 439

usemtl m891
f 429 439 440

usemtl m892
f 429 440 441

usemtl m893
f 429 441 430

usemtl m894
f 430 441 431

usemtl m895
f 431 441 442

usemtl m896
f 431 442 443

usemtl m897
f 431 443 432

usemtl m898
f 432 443 444

usemtl m899
f 432 444 445

usemtl m900
f 432 445 433

usemtl m901
f 433 445 434

usemtl m902
f 440 442 441

usemtl m903
f 442 440 446

usemtl m904
f 442 446 447

usemtl m905
f 442 447 448

usemtl m906
f 442 448 443

usemtl m907
f 443 448 449

usemtl m908
f 443 449 444

usemtl m909
f 439 450 440

usemtl m910
f 440 450 451

usemtl m911
f 440 451 446

usemtl m912
f 446 451 452

usemtl m913
f 446 452 453

usemtl m914
f 446 453 447

usemtl m915
f 447 453 454

usemtl m916
f 447 454 455

usemtl m917
f 447 455 448

usemtl m918
f 448 455 456

usemtl m919
f 448 456 449

usemtl m920
f 455 454 457

usemtl m921
f 455 457 458

usemtl m922
f 455 458 456

usemtl m923
f 454 453 459

usemtl m924
f 454 459 460

usemtl m925
f 454 460 461

usemtl m926
f 454 461 462

usemtl m927
f 454 462 457

usemtl m928
f 457 462 463

usemtl m929
f 457 463 464

usemtl m930
f 457 464 465

usemtl m931
f 457 465 458

usemtl m932
f 453 452 466

usemtl m933
f 453 466 459

usemtl m934
f 459 466 467

usemtl m935
f 459 467 468

usemtl m936
f 459 468 469

usemtl m937
f 459 469 460

usemtl m938
f 460 469 470

usemtl m939
f 460 470 471

usemtl m940
f 460 471 472

usemtl m941
f 460 472 461

usemtl m942
f 461 472 473

usemtl m943
f 461 473 474

usemtl m944
f 461 474 462

usemtl m945
f 462 474 463

usemtl m946
f 463 474 475

usemtl m947
f 463 475 476

usemtl m948
f 463 476 464

usemtl m949
f 464 476 465

usemtl m950
f 475 474 477

usemtl m951
f 475 477 478

usemtl m952
f 475 478 479

usemtl m953
f 475 479 480

usemtl m954
f 475 480 481

usemtl m955
f 475 481 476

usemtl m956
f 473 472 482

usemtl m957
f 473 482 483

usemtl m958
f 473 483 484

usemtl m959
f 473 484 477

usemtl m960
f 473 477 474

usemtl m961
f 470 469 485

usemtl m962
f 470 485 486

usemtl m963
f 470 486 487

usemtl m964
f 470 487 471

usemtl m965
f 471 487 482

usemtl m966
f 471 482 472

usemtl m967
f 485 469 488

usemtl m968
f 485 488 489

usemtl m969
f 485 489 490

usemtl m970
f 485 490 491

usemtl m971
f 485 491 486

usemtl m972
f 486 491 492

usemtl m973
f 486 492 487

usemtl m974
f 439 438 493

usemtl m975
f 439 493 450

usemtl m976
f 450 493 494

usemtl m977
f 450 494 451

usemtl m978
f 451 494 452

usemtl m979
f 452 494 495

usemtl m980
f 452 495 466

usemtl m981
f 466 495 496

usemtl m982
f 466 496 467

usemtl m983
f 480 479 497

usemtl m984
f 480 497 481

usemtl m985
f 479 478 498

usemtl m986
f 479 498 497

usemtl m987
f 478 477 484

usemtl m988
f 478 484 498

usemtl m989
f 488 469 468

usemtl m990
f 488 468 499

usemtl m991
f 488 499 489

usemtl m992
f 489 499 490

usemtl m993
f 483 482 487

usemtl m994
f 483 487 484

