mtllib 32904.mtl
o runescapemodel
v 20 156 -13
v 23 156 -7
v 21 156 -6
v 18 156 -12
v 14 156 -19
v 18 156 -20
v 20 156 -17
v 22 156 -15
v 22 156 0
v 24 156 0
v 21 156 6
v 26 156 -8
v 28 156 0
v 23 156 7
v 28 156 -9
v 30 156 0
v 26 156 8
v 1 156 -23
v 8 156 -22
v 7 156 -20
v 1 156 -21
v -6 156 -22
v -7 156 -25
v -1 156 -26
v 3 156 -26
v 9 156 -25
v 13 156 -17
v 16 156 -21
v 10 156 -27
v 18 156 -23
v 24 156 -17
v 1 156 -40
v -3 156 -28
v 1 156 -44
v -8 156 -27
v -16 156 -23
v -18 156 13
v -19 156 17
v -20 156 15
v -21 156 7
v -19 156 6
v -16 156 12
v -12 156 19
v -16 156 20
v -22 156 17
v -24 156 8
v -26 156 9
v -26 156 0
v -22 156 0
v -28 156 0
v -24 156 -8
v -21 156 -7
v -26 156 -9
v -20 156 -15
v -18 156 -13
v -22 156 -17
v -19 156 -17
v -26 156 -27
v -16 156 -20
v -29 156 -30
v -14 156 -21
v -12 156 -19
v -14 156 21
v -16 156 23
v -26 156 27
v -7 156 25
v -8 156 27
v -3 156 28
v -1 156 26
v 1 156 44
v -6 156 22
v 1 156 23
v 3 156 26
v 1 156 40
v -5 156 20
v 1 156 21
v 8 156 22
v -5 156 -20
v -11 156 -17
v 5 156 -28
v 9 156 25
v 10 156 27
v 5 156 28
v 16 156 21
v 18 156 23
v 14 156 19
v 18 156 20
v 20 156 13
v 20 156 17
v 28 156 27
v 30 156 29
v 22 156 15
v 24 156 17
v 28 156 9
v 18 156 12
v 13 156 17
v 7 156 20
v 30 156 -29
v 28 156 -27
v -29 156 30
v -16 156 -12
v -11 156 17
v -19 156 -6
v -20 156 0
v -3 156 2
v -1 156 2
v -3 156 4
v -6 156 4
v -8 156 -4
v -5 156 -5
v -3 156 -4
v -2 156 -1
v 0 156 -1
v -15 156 1
v -14 156 4
v -16 156 2
v -17 156 -1
v -16 156 -2
v -13 156 3
v -3 156 -6
v -1 156 -4
v -5 156 -7
v -7 156 -6
v -9 156 -5
v -10 156 -2
v -11 156 -3
v -10 156 4
v -13 156 -1
v -13 156 -3
v -15 156 -3
v -18 156 -5
v -6 156 6
v -10 156 6
v 8 156 3
v 8 156 1
v 10 156 3
v 10 156 6
v 2 156 8
v 1 156 5
v 2 156 3
v 5 156 2
v 5 156 0
v 7 156 15
v 10 156 14
v 8 156 16
v 5 156 17
v 4 156 16
v 9 156 13
v 0 156 3
v 2 156 1
v -1 156 5
v 0 156 7
v 1 156 9
v 4 156 10
v 3 156 11
v 10 156 10
v 5 156 13
v 3 156 13
v 3 156 15
v 1 156 18
v 12 156 6
v 12 156 10
v 2 156 -10
v 0 156 -10
v 2 156 -12
v 5 156 -12
v 7 156 -4
v 4 156 -3
v 2 156 -4
v 1 156 -7
v -1 156 -7
v 14 156 -9
v 13 156 -12
v 15 156 -10
v 16 156 -7
v 15 156 -6
v 12 156 -11
v 2 156 -2
v 0 156 -4
v 4 156 -1
v 6 156 -2
v 8 156 -3
v 9 156 -6
v 10 156 -5
v 9 156 -12
v 12 156 -7
v 12 156 -5
v 14 156 -5
v 17 156 -3
v 5 156 -14
v 9 156 -14
vn 0 0 0
vn 0 0 0
vn 0 0 0
vn 0 0 0
vn 0 0 0
vn 0 0 0
vn 0 0 0
vn 0 0 0
vn 0 0 0
vn 0 0 0
vn 0 0 0
vn 0 0 0
vn 0 0 0
vn 0 0 0
vn 0 0 0
vn 0 0 0
vn 0 0 0
vn 0 0 0
vn 0 0 0
vn 0 0 0
vn 0 0 0
vn 0 0 0
vn 0 0 0
vn 0 0 0
vn 0 0 0
vn 0 0 0
vn 0 0 0
vn 0 0 0
vn 0 0 0
vn 0 0 0
vn 0 0 0
vn 0 0 0
vn 0 0 0
vn 0 0 0
vn 0 0 0
vn 0 0 0
vn 0 0 0
vn 0 0 0
vn 0 0 0
vn 0 0 0
vn 0 0 0
vn 0 0 0
vn 0 0 0
vn 0 0 0
vn 0 0 0
vn 0 0 0
vn 0 0 0
vn 0 0 0
vn 0 0 0
vn 0 0 0
vn 0 0 0
vn 0 0 0
vn 0 0 0
vn 0 0 0
vn 0 0 0
vn 0 0 0
vn 0 0 0
vn 0 0 0
vn 0 0 0
vn 0 0 0
vn 0 0 0
vn 0 0 0
vn 0 0 0
vn 0 0 0
vn 0 0 0
vn 0 0 0
vn 0 0 0
vn 0 0 0
vn 0 0 0
vn 0 0 0
vn 0 0 0
vn 0 0 0
vn 0 0 0
vn 0 0 0
vn 0 0 0
vn 0 0 0
vn 0 0 0
vn 0 0 0
vn 0 0 0
vn 0 0 0
vn 0 0 0
vn 0 0 0
vn 0 0 0
vn 0 0 0
vn 0 0 0
vn 0 0 0
vn 0 0 0
vn 0 0 0
vn 0 0 0
vn 0 0 0
vn 0 0 0
vn 0 0 0
vn 0 0 0
vn 0 0 0
vn 0 0 0
vn 0 0 0
vn 0 0 0
vn 0 0 0
vn 0 0 0
vn 0 0 0
vn 0 0 0
vn 0 0 0
vn 0 0 0
vn 0 0 0
vn 0 0 0
vn 0 0 0
vn 0 0 0
vn 0 0 0
vn 0 0 0
vn 0 0 0
vn 0 0 0
vn 0 0 0
vn 0 0 0
vn 0 0 0
vn 0 0 0
vn 0 0 0
vn 0 0 0
vn 0 0 0
vn 0 0 0
vn 0 0 0
vn 0 0 0
vn 0 0 0
vn 0 0 0
vn 0 0 0
vn 0 0 0
vn 0 0 0
vn 0 0 0
vn 0 0 0
vn 0 0 0
vn 0 0 0
vn 0 0 0
vn 0 0 0
vn 0 0 0
vn 0 0 0
vn 0 0 0
vn 0 0 0
vn 0 0 0
vn 0 0 0
vn 0 0 0
vn 0 0 0
vn 0 0 0
vn 0 0 0
vn 0 0 0
vn 0 0 0
vn 0 0 0
vn 0 0 0
vn 0 0 0
vn 0 0 0
vn 0 0 0
vn 0 0 0
vn 0 0 0
vn 0 0 0
vn 0 0 0
vn 0 0 0
vn 0 0 0
vn 0 0 0
vn 0 0 0
vn 0 0 0
vn 0 0 0
vn 0 0 0
vn 0 0 0
vn 0 0 0
vn 0 0 0
vn 0 0 0
vn 0 0 0
vn 0 0 0
vn 0 0 0
vn 0 0 0
vn 0 0 0
vn 0 0 0
vn 0 0 0
vn 0 0 0
vn 0 0 0
vn 0 0 0
vn 0 0 0
vn 0 0 0
vn 0 0 0
vn 0 0 0
vn 0 0 0
vn 0 0 0
vn 0 0 0
vn 0 0 0
vn 0 0 0
vn 0 0 0
vn 0 0 0
vn 0 0 0
vn 0 0 0
vn 0 0 0
vn 0 0 0
vn 0 0 0
vn 0 0 0
usemtl m0
f 1 2 3

usemtl m1
f 1 3 4

usemtl m2
f 1 4 5

usemtl m3
f 1 5 6

usemtl m4
f 1 6 7

usemtl m5
f 1 7 8

usemtl m6
f 1 8 2

usemtl m7
f 1 2 8

usemtl m8
f 1 8 7

usemtl m9
f 1 7 6

usemtl m10
f 1 6 5

usemtl m11
f 1 5 4

usemtl m12
f 1 4 3

usemtl m13
f 1 3 2

usemtl m14
f 2 3 9

usemtl m15
f 2 9 3

usemtl m16
f 9 2 10

usemtl m17
f 9 10 11

usemtl m18
f 9 11 10

usemtl m19
f 9 10 2

usemtl m20
f 2 10 12

usemtl m21
f 2 12 10

usemtl m22
f 10 12 13

usemtl m23
f 10 13 14

usemtl m24
f 10 14 11

usemtl m25
f 10 11 14

usemtl m26
f 10 14 13

usemtl m27
f 10 13 12

usemtl m28
f 12 13 15

usemtl m29
f 12 15 13

usemtl m30
f 13 15 16

usemtl m31
f 13 16 17

usemtl m32
f 13 17 14

usemtl m33
f 13 14 17

usemtl m34
f 13 17 16

usemtl m35
f 13 16 15

usemtl m36
f 18 19 20

usemtl m37
f 18 20 21

usemtl m38
f 18 21 22

usemtl m39
f 18 22 23

usemtl m40
f 18 23 24

usemtl m41
f 18 24 25

usemtl m42
f 18 25 26

usemtl m43
f 18 26 19

usemtl m44
f 18 19 26

usemtl m45
f 18 26 25

usemtl m46
f 18 25 24

usemtl m47
f 18 24 23

usemtl m48
f 18 23 22

usemtl m49
f 18 22 21

usemtl m50
f 18 21 20

usemtl m51
f 18 20 19

usemtl m52
f 19 20 27

usemtl m53
f 19 27 20

usemtl m54
f 27 19 5

usemtl m55
f 27 5 4

usemtl m56
f 27 4 5

usemtl m57
f 27 5 19

usemtl m58
f 19 5 26

usemtl m59
f 19 26 5

usemtl m60
f 5 26 28

usemtl m61
f 5 28 6

usemtl m62
f 5 6 28

usemtl m63
f 5 28 26

usemtl m64
f 26 28 29

usemtl m65
f 26 29 28

usemtl m66
f 28 29 30

usemtl m67
f 28 30 6

usemtl m68
f 28 6 30

usemtl m69
f 28 30 29

usemtl m70
f 12 8 31

usemtl m71
f 12 31 15

usemtl m72
f 12 15 31

usemtl m73
f 12 31 8

usemtl m74
f 12 8 2

usemtl m75
f 12 2 8

usemtl m76
f 32 24 33

usemtl m77
f 32 33 34

usemtl m78
f 32 34 25

usemtl m79
f 32 25 24

usemtl m80
f 32 24 25

usemtl m81
f 32 25 34

usemtl m82
f 32 34 33

usemtl m83
f 32 33 24

usemtl m84
f 24 33 35

usemtl m85
f 24 35 33

usemtl m86
f 35 24 23

usemtl m87
f 35 23 36

usemtl m88
f 35 36 23

usemtl m89
f 35 23 24

usemtl m90
f 37 38 39

usemtl m91
f 37 39 40

usemtl m92
f 37 40 41

usemtl m93
f 37 41 42

usemtl m94
f 37 42 43

usemtl m95
f 37 43 44

usemtl m96
f 37 44 38

usemtl m97
f 37 38 44

usemtl m98
f 37 44 43

usemtl m99
f 37 43 42

usemtl m100
f 37 42 41

usemtl m101
f 37 41 40

usemtl m102
f 37 40 39

usemtl m103
f 37 39 38

usemtl m104
f 38 39 45

usemtl m105
f 38 45 39

usemtl m106
f 39 45 46

usemtl m107
f 39 46 40

usemtl m108
f 39 40 46

usemtl m109
f 39 46 45

usemtl m110
f 45 46 47

usemtl m111
f 45 47 46

usemtl m112
f 46 47 48

usemtl m113
f 46 48 49

usemtl m114
f 46 49 40

usemtl m115
f 46 40 49

usemtl m116
f 46 49 48

usemtl m117
f 46 48 47

usemtl m118
f 47 48 50

usemtl m119
f 47 50 48

usemtl m120
f 48 50 51

usemtl m121
f 48 51 52

usemtl m122
f 48 52 49

usemtl m123
f 48 49 52

usemtl m124
f 48 52 51

usemtl m125
f 48 51 50

usemtl m126
f 50 51 53

usemtl m127
f 50 53 51

usemtl m128
f 51 53 54

usemtl m129
f 51 54 55

usemtl m130
f 51 55 52

usemtl m131
f 51 52 55

usemtl m132
f 51 55 54

usemtl m133
f 51 54 53

usemtl m134
f 53 54 56

usemtl m135
f 53 56 54

usemtl m136
f 54 56 57

usemtl m137
f 54 57 55

usemtl m138
f 54 55 57

usemtl m139
f 54 57 56

usemtl m140
f 56 57 58

usemtl m141
f 56 58 57

usemtl m142
f 57 58 59

usemtl m143
f 57 59 55

usemtl m144
f 57 55 59

usemtl m145
f 57 59 58

usemtl m146
f 58 59 60

usemtl m147
f 58 60 59

usemtl m148
f 59 60 36

usemtl m149
f 59 36 61

usemtl m150
f 59 61 62

usemtl m151
f 59 62 55

usemtl m152
f 59 55 62

usemtl m153
f 59 62 61

usemtl m154
f 59 61 36

usemtl m155
f 59 36 60

usemtl m156
f 44 43 63

usemtl m157
f 44 63 64

usemtl m158
f 44 64 65

usemtl m159
f 44 65 38

usemtl m160
f 44 38 65

usemtl m161
f 44 65 64

usemtl m162
f 44 64 63

usemtl m163
f 44 63 43

usemtl m164
f 43 63 66

usemtl m165
f 43 66 63

usemtl m166
f 63 66 67

usemtl m167
f 63 67 64

usemtl m168
f 63 64 67

usemtl m169
f 63 67 66

usemtl m170
f 66 67 68

usemtl m171
f 66 68 67

usemtl m172
f 68 66 69

usemtl m173
f 68 69 70

usemtl m174
f 68 70 69

usemtl m175
f 68 69 66

usemtl m176
f 66 69 71

usemtl m177
f 66 71 69

usemtl m178
f 69 71 72

usemtl m179
f 69 72 73

usemtl m180
f 69 73 74

usemtl m181
f 69 74 70

usemtl m182
f 69 70 74

usemtl m183
f 69 74 73

usemtl m184
f 69 73 72

usemtl m185
f 69 72 71

usemtl m186
f 71 72 75

usemtl m187
f 71 75 72

usemtl m188
f 72 75 76

usemtl m189
f 72 76 77

usemtl m190
f 72 77 73

usemtl m191
f 72 73 77

usemtl m192
f 72 77 76

usemtl m193
f 72 76 75

usemtl m194
f 22 62 61

usemtl m195
f 22 61 23

usemtl m196
f 22 23 61

usemtl m197
f 22 61 62

usemtl m198
f 22 62 78

usemtl m199
f 22 78 62

usemtl m200
f 62 78 79

usemtl m201
f 62 79 55

usemtl m202
f 62 55 79

usemtl m203
f 62 79 78

usemtl m204
f 25 34 80

usemtl m205
f 25 80 26

usemtl m206
f 25 26 80

usemtl m207
f 25 80 34

usemtl m208
f 73 81 82

usemtl m209
f 73 82 83

usemtl m210
f 73 83 74

usemtl m211
f 73 74 83

usemtl m212
f 73 83 82

usemtl m213
f 73 82 81

usemtl m214
f 73 81 77

usemtl m215
f 73 77 81

usemtl m216
f 81 77 84

usemtl m217
f 81 84 85

usemtl m218
f 81 85 82

usemtl m219
f 81 82 85

usemtl m220
f 81 85 84

usemtl m221
f 81 84 77

usemtl m222
f 77 84 86

usemtl m223
f 77 86 84

usemtl m224
f 84 86 87

usemtl m225
f 84 87 85

usemtl m226
f 84 85 87

usemtl m227
f 84 87 86

usemtl m228
f 86 87 88

usemtl m229
f 86 88 87

usemtl m230
f 87 88 89

usemtl m231
f 87 89 90

usemtl m232
f 87 90 91

usemtl m233
f 87 91 85

usemtl m234
f 87 85 91

usemtl m235
f 87 91 90

usemtl m236
f 87 90 89

usemtl m237
f 87 89 88

usemtl m238
f 88 89 92

usemtl m239
f 88 92 89

usemtl m240
f 89 92 93

usemtl m241
f 89 93 90

usemtl m242
f 89 90 93

usemtl m243
f 89 93 92

usemtl m244
f 92 93 94

usemtl m245
f 92 94 93

usemtl m246
f 94 92 17

usemtl m247
f 94 17 16

usemtl m248
f 94 16 17

usemtl m249
f 94 17 92

usemtl m250
f 92 17 88

usemtl m251
f 92 88 17

usemtl m252
f 17 88 14

usemtl m253
f 17 14 88

usemtl m254
f 88 14 95

usemtl m255
f 88 95 14

usemtl m256
f 14 95 11

usemtl m257
f 14 11 95

usemtl m258
f 88 86 96

usemtl m259
f 88 96 95

usemtl m260
f 88 95 96

usemtl m261
f 88 96 86

usemtl m262
f 86 96 97

usemtl m263
f 86 97 96

usemtl m264
f 97 86 77

usemtl m265
f 97 77 76

usemtl m266
f 97 76 77

usemtl m267
f 97 77 86

usemtl m268
f 8 7 31

usemtl m269
f 8 31 7

usemtl m270
f 7 31 98

usemtl m271
f 7 98 31

usemtl m272
f 98 7 99

usemtl m273
f 98 99 30

usemtl m274
f 98 30 99

usemtl m275
f 98 99 7

usemtl m276
f 7 99 6

usemtl m277
f 7 6 99

usemtl m278
f 99 6 30

usemtl m279
f 99 30 6

usemtl m280
f 26 80 29

usemtl m281
f 26 29 80

usemtl m282
f 58 56 60

usemtl m283
f 58 60 56

usemtl m284
f 23 61 36

usemtl m285
f 23 36 61

usemtl m286
f 22 21 78

usemtl m287
f 22 78 21

usemtl m288
f 74 83 70

usemtl m289
f 74 70 83

usemtl m290
f 65 64 100

usemtl m291
f 65 100 38

usemtl m292
f 65 38 100

usemtl m293
f 65 100 64

usemtl m294
f 55 79 101

usemtl m295
f 55 101 52

usemtl m296
f 55 52 101

usemtl m297
f 55 101 79

usemtl m298
f 43 71 66

usemtl m299
f 43 66 71

usemtl m300
f 43 71 102

usemtl m301
f 43 102 71

usemtl m302
f 71 102 75

usemtl m303
f 71 75 102

usemtl m304
f 49 52 103

usemtl m305
f 49 103 104

usemtl m306
f 49 104 40

usemtl m307
f 49 40 104

usemtl m308
f 49 104 103

usemtl m309
f 49 103 52

usemtl m310
f 52 103 101

usemtl m311
f 52 101 103

usemtl m312
f 43 42 102

usemtl m313
f 43 102 42

usemtl m314
f 40 104 41

usemtl m315
f 40 41 104

usemtl m316
f 90 93 91

usemtl m317
f 90 91 93

usemtl m318
f 38 100 45

usemtl m319
f 38 45 100

usemtl m320
f 105 106 107

usemtl m321
f 105 107 108

usemtl m322
f 105 108 109

usemtl m323
f 105 109 110

usemtl m324
f 105 110 111

usemtl m325
f 105 111 112

usemtl m326
f 105 112 113

usemtl m327
f 105 113 106

usemtl m328
f 105 106 113

usemtl m329
f 105 113 112

usemtl m330
f 105 112 111

usemtl m331
f 105 111 110

usemtl m332
f 105 110 109

usemtl m333
f 105 109 108

usemtl m334
f 105 108 107

usemtl m335
f 105 107 106

usemtl m336
f 114 115 116

usemtl m337
f 114 116 117

usemtl m338
f 114 117 118

usemtl m339
f 114 118 119

usemtl m340
f 114 119 115

usemtl m341
f 114 115 119

usemtl m342
f 114 119 118

usemtl m343
f 114 118 117

usemtl m344
f 114 117 116

usemtl m345
f 114 116 115

usemtl m346
f 111 120 121

usemtl m347
f 111 121 112

usemtl m348
f 111 112 121

usemtl m349
f 111 121 120

usemtl m350
f 111 120 122

usemtl m351
f 111 122 120

usemtl m352
f 122 111 123

usemtl m353
f 122 123 111

usemtl m354
f 111 123 110

usemtl m355
f 111 110 123

usemtl m356
f 123 110 124

usemtl m357
f 123 124 110

usemtl m358
f 110 124 109

usemtl m359
f 110 109 124

usemtl m360
f 124 109 125

usemtl m361
f 124 125 126

usemtl m362
f 124 126 125

usemtl m363
f 124 125 109

usemtl m364
f 109 125 127

usemtl m365
f 109 127 125

usemtl m366
f 125 127 128

usemtl m367
f 125 128 129

usemtl m368
f 125 129 126

usemtl m369
f 125 126 129

usemtl m370
f 125 129 128

usemtl m371
f 125 128 127

usemtl m372
f 127 128 119

usemtl m373
f 127 119 128

usemtl m374
f 128 119 118

usemtl m375
f 128 118 130

usemtl m376
f 128 130 129

usemtl m377
f 128 129 130

usemtl m378
f 128 130 118

usemtl m379
f 128 118 119

usemtl m380
f 130 118 131

usemtl m381
f 130 131 118

usemtl m382
f 118 131 117

usemtl m383
f 118 117 131

usemtl m384
f 121 113 112

usemtl m385
f 121 112 113

usemtl m386
f 109 108 127

usemtl m387
f 109 127 108

usemtl m388
f 108 127 132

usemtl m389
f 108 132 127

usemtl m390
f 127 132 133

usemtl m391
f 127 133 119

usemtl m392
f 127 119 133

usemtl m393
f 127 133 132

usemtl m394
f 133 115 119

usemtl m395
f 133 119 115

usemtl m396
f 107 132 108

usemtl m397
f 107 108 132

usemtl m398
f 134 135 136

usemtl m399
f 134 136 137

usemtl m400
f 134 137 138

usemtl m401
f 134 138 139

usemtl m402
f 134 139 140

usemtl m403
f 134 140 141

usemtl m404
f 134 141 142

usemtl m405
f 134 142 135

usemtl m406
f 134 135 142

usemtl m407
f 134 142 141

usemtl m408
f 134 141 140

usemtl m409
f 134 140 139

usemtl m410
f 134 139 138

usemtl m411
f 134 138 137

usemtl m412
f 134 137 136

usemtl m413
f 134 136 135

usemtl m414
f 143 144 145

usemtl m415
f 143 145 146

usemtl m416
f 143 146 147

usemtl m417
f 143 147 148

usemtl m418
f 143 148 144

usemtl m419
f 143 144 148

usemtl m420
f 143 148 147

usemtl m421
f 143 147 146

usemtl m422
f 143 146 145

usemtl m423
f 143 145 144

usemtl m424
f 140 149 150

usemtl m425
f 140 150 141

usemtl m426
f 140 141 150

usemtl m427
f 140 150 149

usemtl m428
f 140 149 151

usemtl m429
f 140 151 149

usemtl m430
f 151 140 152

usemtl m431
f 151 152 140

usemtl m432
f 140 152 139

usemtl m433
f 140 139 152

usemtl m434
f 152 139 153

usemtl m435
f 152 153 139

usemtl m436
f 139 153 138

usemtl m437
f 139 138 153

usemtl m438
f 153 138 154

usemtl m439
f 153 154 155

usemtl m440
f 153 155 154

usemtl m441
f 153 154 138

usemtl m442
f 138 154 156

usemtl m443
f 138 156 154

usemtl m444
f 154 156 157

usemtl m445
f 154 157 158

usemtl m446
f 154 158 155

usemtl m447
f 154 155 158

usemtl m448
f 154 158 157

usemtl m449
f 154 157 156

usemtl m450
f 156 157 148

usemtl m451
f 156 148 157

usemtl m452
f 157 148 147

usemtl m453
f 157 147 159

usemtl m454
f 157 159 158

usemtl m455
f 157 158 159

usemtl m456
f 157 159 147

usemtl m457
f 157 147 148

usemtl m458
f 159 147 160

usemtl m459
f 159 160 147

usemtl m460
f 147 160 146

usemtl m461
f 147 146 160

usemtl m462
f 150 142 141

usemtl m463
f 150 141 142

usemtl m464
f 138 137 156

usemtl m465
f 138 156 137

usemtl m466
f 137 156 161

usemtl m467
f 137 161 156

usemtl m468
f 156 161 162

usemtl m469
f 156 162 148

usemtl m470
f 156 148 162

usemtl m471
f 156 162 161

usemtl m472
f 162 144 148

usemtl m473
f 162 148 144

usemtl m474
f 136 161 137

usemtl m475
f 136 137 161

usemtl m476
f 163 164 165

usemtl m477
f 163 165 166

usemtl m478
f 163 166 167

usemtl m479
f 163 167 168

usemtl m480
f 163 168 169

usemtl m481
f 163 169 170

usemtl m482
f 163 170 171

usemtl m483
f 163 171 164

usemtl m484
f 163 164 171

usemtl m485
f 163 171 170

usemtl m486
f 163 170 169

usemtl m487
f 163 169 168

usemtl m488
f 163 168 167

usemtl m489
f 163 167 166

usemtl m490
f 163 166 165

usemtl m491
f 163 165 164

usemtl m492
f 172 173 174

usemtl m493
f 172 174 175

usemtl m494
f 172 175 176

usemtl m495
f 172 176 177

usemtl m496
f 172 177 173

usemtl m497
f 172 173 177

usemtl m498
f 172 177 176

usemtl m499
f 172 176 175

usemtl m500
f 172 175 174

usemtl m501
f 172 174 173

usemtl m502
f 169 178 179

usemtl m503
f 169 179 170

usemtl m504
f 169 170 179

usemtl m505
f 169 179 178

usemtl m506
f 169 178 180

usemtl m507
f 169 180 178

usemtl m508
f 180 169 181

usemtl m509
f 180 181 169

usemtl m510
f 169 181 168

usemtl m511
f 169 168 181

usemtl m512
f 181 168 182

usemtl m513
f 181 182 168

usemtl m514
f 168 182 167

usemtl m515
f 168 167 182

usemtl m516
f 182 167 183

usemtl m517
f 182 183 184

usemtl m518
f 182 184 183

usemtl m519
f 182 183 167

usemtl m520
f 167 183 185

usemtl m521
f 167 185 183

usemtl m522
f 183 185 186

usemtl m523
f 183 186 187

usemtl m524
f 183 187 184

usemtl m525
f 183 184 187

usemtl m526
f 183 187 186

usemtl m527
f 183 186 185

usemtl m528
f 185 186 177

usemtl m529
f 185 177 186

usemtl m530
f 186 177 176

usemtl m531
f 186 176 188

usemtl m532
f 186 188 187

usemtl m533
f 186 187 188

usemtl m534
f 186 188 176

usemtl m535
f 186 176 177

usemtl m536
f 188 176 189

usemtl m537
f 188 189 176

usemtl m538
f 176 189 175

usemtl m539
f 176 175 189

usemtl m540
f 179 171 170

usemtl m541
f 179 170 171

usemtl m542
f 167 166 185

usemtl m543
f 167 185 166

usemtl m544
f 166 185 190

usemtl m545
f 166 190 185

usemtl m546
f 185 190 191

usemtl m547
f 185 191 177

usemtl m548
f 185 177 191

usemtl m549
f 185 191 190

usemtl m550
f 191 173 177

usemtl m551
f 191 177 173

usemtl m552
f 165 190 166

usemtl m553
f 165 166 190

