mtllib 33133.mtl
o runescapemodel
v -65 0 -64
v -64 3 -57
v -64 4 -64
v -65 0 -57
v -64 4 -47
v -34 52 -57
v -33 53 -64
v -34 54 -57
v -33 56 -64
v -34 52 -40
v -35 55 -33
v -36 58 -25
v -46 100 -61
v -43 101 -64
v -42 105 -64
v -39 104 -55
v -36 110 -61
v -40 110 -63
v -34 130 -63
v -26 149 -64
v -28 145 -62
v -28 151 -62
v -26 154 -64
v -23 145 -60
v -23 150 -57
v -23 156 -55
v -27 165 -54
v -45 194 -57
v -64 218 -60
v -61 218 -64
v -64 221 -58
v -61 222 -64
v -63 222 -30
v -62 226 1
v -63 225 -29
v -50 240 -29
v -40 246 -22
v -28 240 -60
v -26 240 -64
v -65 3 59
v -64 0 59
v -64 0 64
v -64 4 64
v -36 52 54
v -65 4 19
v -22 240 -60
v -20 240 -64
v -22 247 -2
v 64 240 -64
v -35 113 -61
v -29 130 -61
v -15 142 -40
v -15 150 -38
v -29 127 -46
v -20 136 -35
v -16 146 -34
v -25 132 -37
v -11 135 -21
v -15 129 -21
v 0 133 -19
v -5 143 -19
v -1 127 -14
v 1 141 1
v 1 148 1
v -7 102 1
v -21 107 20
v 0 127 13
v 0 132 18
v -45 94 1
v -44 99 25
v -44 100 30
v -32 101 37
v -26 108 35
v -25 118 37
v -14 117 23
v -42 83 7
v -41 83 18
v -35 50 4
v -42 72 25
v -41 58 25
v -45 59 39
v -43 101 56
v -37 109 57
v -41 106 60
v -40 116 60
v -40 119 60
v -33 120 60
v -34 115 43
v -42 105 64
v -26 149 64
v -25 150 61
v -34 131 61
v -43 101 64
v -26 154 64
v -61 218 64
v -44 186 58
v -45 186 56
v -28 155 59
v -23 157 57
v -15 144 41
v -30 128 47
v -28 240 54
v -62 221 54
v -61 222 64
v -27 240 64
v -22 240 60
v -22 243 29
v -28 247 -1
v -49 237 47
v -54 232 35
v -42 239 0
v -62 229 1
v -62 218 53
v -62 222 27
v -50 208 10
v -50 208 35
v -46 206 40
v -47 204 45
v -46 199 47
v -44 194 52
v -36 54 54
v -33 56 64
v -33 53 64
v -35 52 41
v -42 37 26
v -71 27 18
v -64 4 -19
v -64 1 10
v -64 2 -38
v -65 25 -23
v -47 32 -26
v -41 41 -26
v -35 49 -26
v -47 41 -4
v -35 50 -4
v -35 52 -28
v 64 240 64
v 63 -168 64
v 64 36 -64
v 64 -168 -64
v -25 245 -17
v -28 243 -31
v -22 106 -21
v -15 117 -26
v -33 104 -37
v -45 99 -31
v -45 98 -23
v -40 72 -25
v -42 84 -18
v -40 53 33
v -40 52 23
v -35 48 23
v -49 35 3
v -21 240 64
v -14 155 -34
v -14 150 -33
v -19 179 -16
v -28 184 -20
v -29 187 -27
v -33 185 -39
v -31 176 -43
v -5 150 -18
v -18 166 -24
v 1 151 0
v -47 200 -51
v -48 205 -50
v -46 206 -44
v -52 208 -38
v -51 208 -9
v -49 211 1
v -34 113 -59
v -32 120 -60
v -34 112 -41
v -29 118 -37
v -21 133 37
v -15 147 42
v -16 152 33
v -16 146 35
v -27 167 54
v -30 175 40
v -32 183 37
v -14 156 34
v -5 144 18
v -9 134 20
v -20 135 36
v -10 130 19
v -28 184 20
v -21 179 16
v -30 184 27
v -39 199 18
v -35 185 12
v -24 186 1
v -33 197 10
v -30 199 1
v -33 196 -9
v -34 185 -11
v -14 179 0
v -41 199 -7
v -40 199 -16
v -42 199 8
v -40 202 1
v -5 151 18
v -40 71 0
v -42 83 -6
v -14 139 -13
v -13 147 2
v 0 130 2
v -11 126 -5
v -22 133 -14
v -23 134 -17
v -15 140 -17
v -12 151 2
v -16 140 19
v -15 139 16
v -12 126 9
v -9 121 2
v -12 119 -8
v -17 124 -6
v -32 133 1
v -39 133 0
v -25 147 -21
v -17 152 -21
v -27 179 2
v -20 152 23
v -28 147 23
v -24 134 19
v -23 133 16
v -18 124 8
v -13 119 12
v -4 103 2
v -13 112 -12
v -18 120 -9
v -27 120 1
v -44 147 0
v -34 157 -17
v -35 157 -25
v -28 148 -27
v -28 140 -27
v -23 141 -19
v -15 142 -19
v -15 152 -27
v -21 166 -24
v -25 163 -17
v -24 169 -30
v -32 180 -21
v -38 177 1
v -35 180 23
v -27 169 32
v -24 166 26
v -26 163 19
v -18 153 29
v -16 143 21
v -25 141 21
v -30 140 29
v -31 148 29
v -38 157 25
v -35 157 19
v -49 148 0
v -32 163 -30
v -28 165 -24
v -28 157 -29
v -23 149 -29
v -22 141 -32
v -17 130 -32
v -20 134 -27
v -17 130 -24
v -13 132 -23
v -9 147 -26
v -16 152 -29
v -19 161 -29
v -35 157 -37
v -24 158 -36
v -26 172 -37
v -23 182 -28
v -31 183 -27
v -40 174 -22
v -43 178 -6
v -41 180 -5
v -49 185 -8
v -40 184 1
v -44 181 8
v -49 177 6
v -43 174 22
v -32 181 24
v -25 177 23
v -26 171 35
v -28 156 37
v -38 158 40
v -35 163 32
v -31 165 26
v -23 161 31
v -20 152 31
v -12 148 30
v -15 133 27
v -19 132 26
v -22 134 29
v -19 130 34
v -25 141 34
v -26 149 31
v -32 156 31
v -54 165 0
v -39 180 -29
v -39 170 -38
v -40 162 -45
v -34 150 -46
v -32 146 -44
v -26 146 -44
v -21 162 -44
v -27 173 -40
v -27 182 -36
v -37 180 -37
v -27 118 1
v -19 120 11
v -14 112 16
v -32 94 3
v -51 102 6
v -32 106 1
v -60 103 -8
v -42 93 -2
v -46 102 -21
v -19 113 -13
v -20 113 15
v -37 101 21
v -38 86 9
v -53 95 9
v -51 93 16
v -47 104 18
v -42 87 16
v -38 85 9
v -55 89 9
v -52 87 16
v -42 86 16
v -50 175 -1
v -54 180 8
v -54 176 0
v -53 180 -8
v -56 191 -8
v -54 193 -7
v -52 195 0
v -55 193 7
v -45 185 8
v -57 191 6
v -60 190 -1
v -40 180 28
v -35 181 35
v -26 180 31
v -26 172 37
v -23 161 42
v -30 147 45
v -36 148 47
v -37 153 49
v -41 166 47
v -40 172 38
v -32 173 40
v -63 94 -10
v -60 93 -17
v -61 87 -17
v -64 88 -10
v -47 87 -9
v -56 108 -18
v -51 88 -16
v -51 87 -16
v -41 79 -23
v -57 83 -19
v -59 83 -8
v -47 86 -9
v -37 78 -2
v -37 62 -5
v -40 66 -23
v -49 66 -18
v -51 65 -11
v -33 70 3
v -53 82 7
v -51 81 18
v -39 72 23
v -39 55 5
v -50 63 11
v -48 62 18
v -42 59 23
v -39 49 7
v -59 58 9
v -51 56 18
v -46 52 20
v -45 38 8
v -73 56 8
v -65 54 23
v -48 44 22
v -46 37 8
v -74 54 10
v -69 54 24
v -47 40 23
v -57 58 -11
v -36 57 -7
v -44 57 -20
v -49 58 -18
v -62 50 -23
v -70 51 -8
v -33 48 -6
v -37 49 -22
v -36 47 -23
v -66 48 -24
v -72 49 -9
v -33 46 -6
v -34 173 -39
v -34 162 -51
v -31 149 -52
v -37 146 -57
v -39 146 -51
v -29 146 -58
v -37 136 -57
v -38 136 -56
v -40 127 -56
v -43 125 -52
v -33 145 -42
v -26 144 -44
v -24 147 -48
v -25 163 -51
v -27 149 -53
v -25 144 -54
v -33 124 -53
v -37 126 -58
v -33 165 53
v -31 152 57
v -29 150 55
v -25 163 49
v -27 148 50
v -28 143 45
v -37 143 43
v -39 151 57
v -31 149 60
v -42 148 52
v -42 140 57
v -41 140 58
v -44 130 59
v -42 127 56
v -28 145 55
v -28 146 52
v -43 114 -56
v -39 113 -57
v -34 109 -53
v -48 111 -49
v -36 113 -45
v -41 114 -43
v -39 126 -49
v -34 125 -51
v -34 118 -49
v -45 112 57
v -49 118 59
v -53 120 58
v -57 118 54
v -46 116 47
v -46 130 58
v -49 131 53
v -46 130 52
v -50 118 46
v -41 128 53
v -14 142 -31
v -13 132 -31
v -13 129 -33
v -20 132 -34
v -25 132 -30
v -21 130 -23
v -13 127 -22
v -10 132 -27
v -11 126 -29
v -22 113 -31
v -25 117 -34
v -29 118 -34
v -33 119 -31
v -29 117 -28
v -25 115 -28
v -16 143 34
v -15 133 35
v -12 133 31
v -25 130 30
v -22 128 37
v -16 125 36
v -15 126 31
v -14 129 24
v -35 107 -34
v -32 106 -33
v -29 99 -30
v -42 105 -31
v -32 106 -23
v -35 107 -24
v -44 108 23
v -36 107 27
v -36 105 29
v -39 101 35
v -41 113 34
v -30 118 26
v -26 117 27
v -26 114 30
v -27 113 35
v -31 116 33
v -41 111 35
v -31 120 30
v -21 128 22
v -53 190 10
v -56 188 9
v -56 191 11
v -52 190 -10
v -55 188 -10
v -55 191 -12
v -31 47 -5
v -59 186 -6
v -58 185 -6
v -58 182 -4
v -58 183 -1
v -59 184 -4
v -59 186 6
v -58 182 4
v -58 185 6
v -58 183 1
v -59 184 4
vn 0 0 0
vn -435 -266 -6
vn -433 -269 -8
vn -474 -199 -4
vn -681 -229 116
vn -858 -510 108
vn -216 -136 11
vn -488 132 60
vn -413 105 238
vn -256 14 21
vn 0 0 0
vn -723 182 103
vn -910 223 239
vn -172 38 185
vn -506 -127 -160
vn 0 0 0
vn -719 -204 -745
vn -567 -138 -807
vn -924 -311 -588
vn -403 -157 224
vn -423 -140 -433
vn -578 310 -344
vn -311 162 355
vn -94 -22 -237
vn 0 0 0
vn -159 90 -178
vn -542 304 -400
vn -921 558 -564
vn -1481 1167 -192
vn -187 102 140
vn -593 -1048 287
vn -117 -227 20
vn -422 285 -51
vn -1296 611 -21
vn -642 -334 23
vn -832 -1176 -13
vn -249 -1112 165
vn -239 -938 182
vn -236 -446 79
vn -439 -261 -20
vn -721 17 4
vn 0 0 0
vn -431 -265 -67
vn -819 -360 -259
vn -863 86 -180
vn -1 -510 30
vn 0 -256 0
vn 24 -1526 -33
vn 531 -765 28
vn -796 -266 -985
vn -499 -153 -825
vn 0 0 0
vn 0 0 0
vn 0 0 0
vn 0 0 0
vn 0 0 0
vn 0 0 0
vn 0 0 0
vn 0 0 0
vn 0 0 0
vn 0 0 0
vn 0 0 0
vn 0 0 0
vn 0 0 0
vn 0 0 0
vn 0 0 0
vn 0 0 0
vn 0 0 0
vn 0 0 0
vn 0 0 0
vn -503 -1 50
vn 0 0 0
vn 0 0 0
vn 0 0 0
vn 0 0 0
vn 0 0 0
vn 0 0 0
vn -250 59 0
vn -493 24 128
vn -491 35 138
vn -1216 72 68
vn -967 124 -209
vn 0 0 0
vn -249 -24 56
vn -485 -24 174
vn -415 -95 204
vn -3 -22 256
vn 0 0 0
vn -1038 -249 -149
vn -236 -85 50
vn -377 -152 -153
vn -320 -162 -117
vn -250 55 0
vn -655 335 -189
vn -448 244 -38
vn -872 446 -250
vn -893 489 134
vn -503 376 595
vn -56 93 235
vn 0 0 0
vn 0 0 0
vn -360 -1357 -285
vn -756 -814 -153
vn -244 -449 -2
vn -119 -226 -11
vn -1 -510 -24
vn 4 -761 -88
vn -585 -2088 -67
vn -475 -769 -208
vn -712 -640 83
vn -713 -945 -41
vn -928 -621 -65
vn -1637 1261 398
vn -668 298 44
vn -923 853 118
vn -841 928 -47
vn -929 770 142
vn -974 550 600
vn -1000 609 441
vn -765 538 749
vn -462 77 -200
vn -490 94 -80
vn -212 -134 -50
vn -244 439 -68
vn 0 0 0
vn -667 117 -147
vn -1239 211 48
vn -730 -199 -4
vn -237 -99 -2
vn -715 -78 139
vn 0 0 0
vn 0 0 0
vn -256 14 21
vn 0 0 0
vn -250 59 0
vn -256 14 21
vn 271 -1018 -56
vn 768 0 -4
vn 512 0 -4
vn 256 0 -2
vn -62 -765 93
vn 23 -1011 119
vn 0 0 0
vn 0 0 0
vn 0 0 0
vn -476 117 96
vn 0 0 0
vn -226 64 102
vn 0 0 0
vn -86 241 -24
vn -490 457 1
vn -158 198 -44
vn 0 0 0
vn 0 -256 0
vn 0 0 0
vn 0 0 0
vn 0 0 0
vn -203 153 36
vn -817 544 -140
vn -617 276 -352
vn -636 351 -221
vn 0 0 0
vn 0 0 0
vn 0 0 0
vn -985 506 -576
vn -977 517 -591
vn -810 894 -102
vn -555 846 62
vn -934 834 -145
vn -367 319 -10
vn -229 -80 -107
vn -702 -241 -392
vn 0 0 0
vn 0 0 0
vn 0 0 0
vn 0 0 0
vn 0 0 0
vn 0 0 0
vn -586 445 536
vn -614 323 287
vn -627 336 267
vn 0 0 0
vn 0 0 0
vn 0 0 0
vn 0 0 0
vn 0 0 0
vn -199 153 56
vn 0 0 0
vn -791 598 89
vn -561 501 106
vn 0 0 0
vn 0 0 0
vn 0 0 0
vn 0 0 0
vn 0 0 0
vn 0 0 0
vn 0 0 0
vn 0 0 0
vn -662 753 66
vn 0 0 0
vn 0 0 0
vn 0 0 0
vn -250 59 0
vn 0 0 0
vn 988 363 733
vn 1360 -270 -49
vn 955 159 -41
vn 734 370 1059
vn 129 1100 689
vn 121 769 673
vn 984 317 673
vn 1419 -182 -82
vn 953 276 -766
vn 923 357 -810
vn 544 369 -1099
vn 1231 158 -56
vn 824 -458 944
vn -300 -24 1104
vn -582 967 13
vn -854 1317 50
vn -1302 674 390
vn 1289 -577 -346
vn 1944 -1535 -110
vn 1276 -631 248
vn -1334 737 -266
vn 81 778 -669
vn 15 1126 -685
vn -524 -12 -1063
vn 585 -502 -978
vn 927 437 12
vn 548 61 1092
vn -365 -633 1115
vn -992 -184 28
vn -843 737 61
vn -403 723 419
vn -896 142 537
vn -780 109 481
vn -1052 480 -40
vn -606 329 -1018
vn 527 -41 -1148
vn 1183 -656 -140
vn 1094 -289 32
vn 578 -164 -122
vn 1367 440 -168
vn 12 -1411 -272
vn 622 -1289 -26
vn -210 -1045 3
vn 1082 710 285
vn 1133 -328 -187
vn 645 -183 30
vn 1064 -670 -117
vn 693 -52 1024
vn -559 406 1055
vn -1069 582 66
vn -796 123 -470
vn -952 165 -310
vn -403 684 -275
vn -477 1008 31
vn -788 1188 143
vn -31 12 786
vn -292 -178 1132
vn -319 -114 1427
vn -319 -120 1364
vn -19 -327 543
vn -539 38 -301
vn -388 -150 -594
vn 542 -124 -772
vn 989 -360 -23
vn 508 -375 1165
vn 370 -482 769
vn -554 688 -775
vn 703 408 -756
vn 1418 -260 238
vn 706 -468 -113
vn -314 -1349 -251
vn -1182 -729 296
vn -475 -285 798
vn 198 -651 460
vn 618 -352 1274
vn 1225 -825 -53
vn 265 -477 -597
vn -684 97 -833
vn -1236 -397 -561
vn -55 -1151 232
vn 598 -85 468
vn 1463 106 234
vn 402 590 904
vn -755 563 595
vn -858 1097 -296
vn -51 4 -718
vn 285 -476 -918
vn 312 -383 -1343
vn 944 -384 -194
vn 615 402 479
vn -65 602 546
vn -668 723 275
vn -212 553 -510
vn -511 -48 -1332
vn -417 -111 -1338
vn -386 -100 -1037
vn -1284 32 77
vn -982 -316 102
vn -829 -293 244
vn -1204 201 116
vn -675 310 -20
vn -243 375 -476
vn 467 288 -362
vn 1335 -154 -5
vn 606 -648 850
vn 463 -674 482
vn -397 -566 611
vn -1175 -378 34
vn -602 -662 -1085
vn 357 -51 -1072
vn 242 626 334
vn -619 -210 536
vn -678 -742 -60
vn -670 -225 -556
vn 172 586 -304
vn 475 266 1026
vn -304 -734 895
vn -530 -825 -878
vn 407 186 -1002
vn 567 318 382
vn -821 -22 422
vn -725 -179 -1004
vn -511 -608 -701
vn 530 203 -1126
vn 700 -197 356
vn -679 -63 507
vn -735 -296 -1021
vn 694 -221 -1053
vn -1026 326 58
vn -607 702 -1080
vn -590 790 235
vn -383 312 820
vn -318 -200 696
vn 93 -772 583
vn 44 -783 3
vn -101 -699 -497
vn 255 -212 -964
vn -513 -109 -659
vn -1524 -496 81
vn -854 -542 -221
vn -4 -818 -510
vn 760 -630 -157
vn 1063 -627 -517
vn 1352 178 244
vn 520 297 511
vn -425 349 380
vn -700 167 -133
vn -1141 -49 -299
vn -657 -459 -272
vn -9 -959 -870
vn -863 4 -368
vn -618 -166 1044
vn -658 -168 947
vn -633 219 -556
vn 533 350 -361
vn -409 -591 602
vn 586 181 1125
vn 630 -540 922
vn 569 -489 772
vn -818 453 836
vn -731 212 -527
vn 593 -403 -363
vn 378 -407 -517
vn 512 -14 -581
vn 382 136 870
vn -1041 285 867
vn -892 7 -377
vn 502 -75 435
vn -792 31 570
vn -1029 59 -850
vn 589 -152 -904
vn 530 56 515
vn -813 -337 388
vn -1118 -60 -818
vn 245 193 -846
vn 555 256 446
vn -252 -787 435
vn -397 -723 -1010
vn 337 176 -1012
vn 497 459 394
vn -317 -574 543
vn 141 -994 -854
vn 747 -88 -895
vn 144 527 66
vn -420 189 335
vn -385 -62 -413
vn 229 1 -513
vn -531 -663 -314
vn 560 -63 -417
vn 270 -58 980
vn -666 -430 1041
vn -280 -983 945
vn -443 -700 -476
vn 605 -154 -519
vn 593 -511 819
vn 228 167 481
vn -248 -261 365
vn -213 418 -436
vn 461 -128 -160
vn -567 -663 972
vn -544 -514 1156
vn -461 124 524
vn -425 -16 263
vn -878 -143 211
vn 527 38 503
vn -364 -18 364
vn -820 -81 582
vn -699 -156 660
vn -1155 -242 -125
vn -306 97 -582
vn 349 316 -475
vn 667 92 168
vn 587 -529 953
vn 345 -134 780
vn 787 148 170
vn 1231 218 242
vn 192 66 515
vn 163 -792 -943
vn -147 -73 -488
vn 565 -111 -454
vn 1052 -481 -705
vn 877 75 54
vn 436 340 525
vn -256 174 565
vn -230 -62 -100
vn 194 158 -603
vn -817 -315 -234
vn -422 -153 -246
vn -92 -51 -233
vn 315 110 -830
vn 1161 559 -539
vn 553 419 -223
vn 0 0 0
vn -487 -110 519
vn -59 -13 251
vn 695 64 47
vn -548 -248 -199
vn 547 -101 -450
vn 33 -288 -587
vn -260 -52 -1208
vn 1153 34 -1078
vn 938 -23 -376
vn 519 111 -359
vn 74 31 -243
vn -366 -250 -257
vn -426 -278 267
vn 569 92 235
vn -571 -307 -416
vn -936 -355 223
vn -222 124 1262
vn 7 -289 603
vn 802 384 599
vn 554 -230 1291
vn 714 -262 1112
vn 607 -225 830
vn 76 -754 712
vn -649 -833 49
vn -435 -541 -723
vn 493 317 -1044
vn 1236 21 105
vn 1115 423 54
vn 852 503 55
vn 321 259 1434
vn -348 -206 1355
vn -837 -435 66
vn -494 -173 -1277
vn 412 208 -1162
vn 401 -333 -1298
vn 354 169 -715
vn 669 210 -118
vn -607 -564 -97
vn -141 -278 -728
vn 515 188 -367
vn 714 363 58
vn 606 255 400
vn -176 112 1123
vn 192 207 982
vn 281 632 596
vn -657 199 -214
vn 124 325 -870
vn -264 -195 -745
vn -137 326 758
vn 462 574 695
vn 588 919 497
vn -320 406 -304
vn -784 -402 -33
vn -319 -248 972
vn 678 674 1048
vn 1019 980 437
vn 385 513 -692
vn -549 -455 -1189
vn -234 -227 -587
vn -752 -782 -224
vn -290 -334 546
vn -16 -9 -264
vn -60 -89 242
vn 0 0 0
vn -59 -40 -254
vn 69 62 238
vn 0 0 0
vn -12 256 -3
vn 0 0 0
vn 0 0 0
vn 0 0 0
vn 0 0 0
vn 0 0 0
vn 0 0 0
vn 0 0 0
vn 0 0 0
vn 0 0 0
vn 0 0 0
usemtl m0
f 1 2 3

usemtl m1
f 1 3 2

usemtl m2
f 1 2 4

usemtl m3
f 1 4 2

usemtl m4
f 2 4 5

usemtl m5
f 2 5 6

usemtl m6
f 2 6 3

usemtl m7
f 3 6 7

usemtl m8
f 7 6 8

usemtl m9
f 7 8 9

usemtl m10
f 7 9 8

usemtl m11
f 7 8 6

usemtl m12
f 6 8 10

usemtl m13
f 6 10 8

usemtl m14
f 8 10 11

usemtl m15
f 8 11 12

usemtl m16
f 8 12 13

usemtl m17
f 8 13 9

usemtl m18
f 9 13 14

usemtl m19
f 14 13 15

usemtl m20
f 14 15 13

usemtl m21
f 13 15 16

usemtl m22
f 13 16 15

usemtl m23
f 15 16 17

usemtl m24
f 15 17 18

usemtl m25
f 15 18 19

usemtl m26
f 15 19 20

usemtl m27
f 20 19 21

usemtl m28
f 20 21 22

usemtl m29
f 20 22 23

usemtl m30
f 20 23 22

usemtl m31
f 20 22 21

usemtl m32
f 21 22 24

usemtl m33
f 21 24 22

usemtl m34
f 22 24 25

usemtl m35
f 22 25 26

usemtl m36
f 22 26 27

usemtl m37
f 22 27 28

usemtl m38
f 22 28 29

usemtl m39
f 22 29 23

usemtl m40
f 23 29 30

usemtl m41
f 30 29 31

usemtl m42
f 30 31 32

usemtl m43
f 30 32 31

usemtl m44
f 30 31 29

usemtl m45
f 29 31 33

usemtl m46
f 29 33 31

usemtl m47
f 31 33 34

usemtl m48
f 31 34 35

usemtl m49
f 31 35 36

usemtl m50
f 31 36 37

usemtl m51
f 31 37 38

usemtl m52
f 31 38 39

usemtl m53
f 31 39 32

usemtl m54
f 40 41 42

usemtl m55
f 40 42 43

usemtl m56
f 40 43 44

usemtl m57
f 40 44 45

usemtl m58
f 40 45 41

usemtl m59
f 40 41 45

usemtl m60
f 41 40 42

usemtl m61
f 42 40 43

usemtl m62
f 39 46 47

usemtl m63
f 39 47 46

usemtl m64
f 39 46 38

usemtl m65
f 39 38 46

usemtl m66
f 46 38 48

usemtl m67
f 46 48 49

usemtl m68
f 46 49 47

usemtl m69
f 18 17 50

usemtl m70
f 18 50 19

usemtl m71
f 19 50 51

usemtl m72
f 19 51 21

usemtl m73
f 21 51 24

usemtl m74
f 24 51 52

usemtl m75
f 24 52 53

usemtl m76
f 24 53 25

usemtl m77
f 24 25 53

usemtl m78
f 24 53 52

usemtl m79
f 24 52 51

usemtl m80
f 51 52 54

usemtl m81
f 51 54 52

usemtl m82
f 52 54 55

usemtl m83
f 52 55 56

usemtl m84
f 52 56 53

usemtl m85
f 52 53 56

usemtl m86
f 52 56 55

usemtl m87
f 52 55 54

usemtl m88
f 54 55 57

usemtl m89
f 54 57 55

usemtl m90
f 55 57 58

usemtl m91
f 55 58 56

usemtl m92
f 55 56 58

usemtl m93
f 55 58 57

usemtl m94
f 57 58 59

usemtl m95
f 57 59 58

usemtl m96
f 58 59 60

usemtl m97
f 58 60 61

usemtl m98
f 58 61 56

usemtl m99
f 58 56 61

usemtl m100
f 58 61 60

usemtl m101
f 58 60 59

usemtl m102
f 59 60 62

usemtl m103
f 59 62 60

usemtl m104
f 60 62 63

usemtl m105
f 60 63 64

usemtl m106
f 60 64 61

usemtl m107
f 60 61 64

usemtl m108
f 60 64 63

usemtl m109
f 60 63 62

usemtl m110
f 62 63 65

usemtl m111
f 62 65 63

usemtl m112
f 63 65 66

usemtl m113
f 63 66 67

usemtl m114
f 63 67 68

usemtl m115
f 63 68 64

usemtl m116
f 63 64 68

usemtl m117
f 63 68 67

usemtl m118
f 63 67 66

usemtl m119
f 63 66 65

usemtl m120
f 65 66 69

usemtl m121
f 65 69 66

usemtl m122
f 66 69 70

usemtl m123
f 66 70 71

usemtl m124
f 66 71 72

usemtl m125
f 66 72 73

usemtl m126
f 66 73 74

usemtl m127
f 66 74 75

usemtl m128
f 66 75 67

usemtl m129
f 66 67 75

usemtl m130
f 66 75 74

usemtl m131
f 66 74 73

usemtl m132
f 66 73 72

usemtl m133
f 66 72 71

usemtl m134
f 66 71 70

usemtl m135
f 66 70 69

usemtl m136
f 69 70 76

usemtl m137
f 69 76 70

usemtl m138
f 70 76 77

usemtl m139
f 70 77 71

usemtl m140
f 70 71 77

usemtl m141
f 70 77 76

usemtl m142
f 76 77 78

usemtl m143
f 76 78 77

usemtl m144
f 77 78 79

usemtl m145
f 77 79 71

usemtl m146
f 77 71 79

usemtl m147
f 77 79 78

usemtl m148
f 78 79 80

usemtl m149
f 78 80 79

usemtl m150
f 79 80 81

usemtl m151
f 79 81 71

usemtl m152
f 71 81 82

usemtl m153
f 71 82 83

usemtl m154
f 71 83 72

usemtl m155
f 71 72 83

usemtl m156
f 71 83 82

usemtl m157
f 82 83 84

usemtl m158
f 82 84 83

usemtl m159
f 83 84 85

usemtl m160
f 83 85 86

usemtl m161
f 83 86 87

usemtl m162
f 83 87 88

usemtl m163
f 83 88 72

usemtl m164
f 83 72 88

usemtl m165
f 83 88 87

usemtl m166
f 83 87 86

usemtl m167
f 83 86 85

usemtl m168
f 83 85 84

usemtl m169
f 89 90 91

usemtl m170
f 89 91 92

usemtl m171
f 89 92 86

usemtl m172
f 89 86 85

usemtl m173
f 89 85 84

usemtl m174
f 89 84 82

usemtl m175
f 89 82 93

usemtl m176
f 89 93 82

usemtl m177
f 89 82 84

usemtl m178
f 94 95 96

usemtl m179
f 94 96 97

usemtl m180
f 94 97 98

usemtl m181
f 94 98 90

usemtl m182
f 94 90 98

usemtl m183
f 98 90 91

usemtl m184
f 98 91 90

usemtl m185
f 91 98 99

usemtl m186
f 91 99 100

usemtl m187
f 91 100 101

usemtl m188
f 91 101 92

usemtl m189
f 91 92 101

usemtl m190
f 91 101 100

usemtl m191
f 91 100 99

usemtl m192
f 91 99 98

usemtl m193
f 102 103 104

usemtl m194
f 102 104 105

usemtl m195
f 102 105 106

usemtl m196
f 102 106 107

usemtl m197
f 102 107 48

usemtl m198
f 102 48 108

usemtl m199
f 102 108 109

usemtl m200
f 102 109 103

usemtl m201
f 103 109 110

usemtl m202
f 103 110 111

usemtl m203
f 103 111 112

usemtl m204
f 103 112 113

usemtl m205
f 103 113 95

usemtl m206
f 103 95 104

usemtl m207
f 103 104 95

usemtl m208
f 103 95 113

usemtl m209
f 103 113 112

usemtl m210
f 112 113 114

usemtl m211
f 112 114 113

usemtl m212
f 113 114 115

usemtl m213
f 113 115 116

usemtl m214
f 113 116 117

usemtl m215
f 113 117 118

usemtl m216
f 113 118 119

usemtl m217
f 113 119 120

usemtl m218
f 113 120 97

usemtl m219
f 113 97 96

usemtl m220
f 113 96 95

usemtl m221
f 82 121 122

usemtl m222
f 82 122 93

usemtl m223
f 43 123 44

usemtl m224
f 44 123 122

usemtl m225
f 44 122 121

usemtl m226
f 44 121 124

usemtl m227
f 44 124 125

usemtl m228
f 44 125 126

usemtl m229
f 44 126 45

usemtl m230
f 45 126 127

usemtl m231
f 45 127 41

usemtl m232
f 41 127 128

usemtl m233
f 41 128 4

usemtl m234
f 4 128 129

usemtl m235
f 4 129 5

usemtl m236
f 4 5 129

usemtl m237
f 129 5 127

usemtl m238
f 129 127 5

usemtl m239
f 5 127 130

usemtl m240
f 5 130 6

usemtl m241
f 6 130 131

usemtl m242
f 6 131 132

usemtl m243
f 6 132 133

usemtl m244
f 6 133 10

usemtl m245
f 6 10 133

usemtl m246
f 6 133 132

usemtl m247
f 6 132 131

usemtl m248
f 6 131 130

usemtl m249
f 130 131 134

usemtl m250
f 130 134 131

usemtl m251
f 131 134 132

usemtl m252
f 131 132 134

usemtl m253
f 134 132 135

usemtl m254
f 134 135 132

usemtl m255
f 132 135 133

usemtl m256
f 132 133 135

usemtl m257
f 135 133 12

usemtl m258
f 135 12 133

usemtl m259
f 133 12 136

usemtl m260
f 133 136 10

usemtl m261
f 10 136 11

usemtl m262
f 10 11 136

usemtl m263
f 136 11 12

usemtl m264
f 136 12 11

usemtl m265
f 49 137 138

usemtl m266
f 49 138 139

usemtl m267
f 139 138 140

usemtl m268
f 48 38 141

usemtl m269
f 48 141 108

usemtl m270
f 108 141 142

usemtl m271
f 108 142 37

usemtl m272
f 108 37 36

usemtl m273
f 108 36 111

usemtl m274
f 108 111 110

usemtl m275
f 108 110 109

usemtl m276
f 34 112 35

usemtl m277
f 35 112 36

usemtl m278
f 36 112 111

usemtl m279
f 143 69 65

usemtl m280
f 143 65 62

usemtl m281
f 143 62 59

usemtl m282
f 143 59 144

usemtl m283
f 143 144 145

usemtl m284
f 143 145 146

usemtl m285
f 143 146 147

usemtl m286
f 143 147 69

usemtl m287
f 143 69 147

usemtl m288
f 143 147 146

usemtl m289
f 143 146 145

usemtl m290
f 143 145 144

usemtl m291
f 143 144 59

usemtl m292
f 143 59 62

usemtl m293
f 143 62 65

usemtl m294
f 143 65 69

usemtl m295
f 146 148 149

usemtl m296
f 146 149 147

usemtl m297
f 146 147 149

usemtl m298
f 146 149 148

usemtl m299
f 148 149 69

usemtl m300
f 148 69 149

usemtl m301
f 149 69 147

usemtl m302
f 149 147 69

usemtl m303
f 121 81 150

usemtl m304
f 121 150 124

usemtl m305
f 121 124 150

usemtl m306
f 121 150 81

usemtl m307
f 81 150 151

usemtl m308
f 81 151 150

usemtl m309
f 150 151 124

usemtl m310
f 124 151 152

usemtl m311
f 124 152 125

usemtl m312
f 124 125 152

usemtl m313
f 152 125 153

usemtl m314
f 152 153 125

usemtl m315
f 125 153 126

usemtl m316
f 125 126 153

usemtl m317
f 153 126 134

usemtl m318
f 153 134 126

usemtl m319
f 126 134 130

usemtl m320
f 126 130 127

usemtl m321
f 106 105 154

usemtl m322
f 106 154 137

usemtl m323
f 106 137 107

usemtl m324
f 107 137 48

usemtl m325
f 48 137 49

usemtl m326
f 155 53 156

usemtl m327
f 155 156 157

usemtl m328
f 155 157 158

usemtl m329
f 155 158 159

usemtl m330
f 155 159 160

usemtl m331
f 155 160 161

usemtl m332
f 155 161 53

usemtl m333
f 155 53 161

usemtl m334
f 155 161 160

usemtl m335
f 155 160 159

usemtl m336
f 155 159 158

usemtl m337
f 155 158 157

usemtl m338
f 155 157 156

usemtl m339
f 155 156 53

usemtl m340
f 53 156 56

usemtl m341
f 53 56 156

usemtl m342
f 156 56 162

usemtl m343
f 156 162 163

usemtl m344
f 156 163 157

usemtl m345
f 156 157 163

usemtl m346
f 156 163 162

usemtl m347
f 156 162 56

usemtl m348
f 56 162 61

usemtl m349
f 56 61 162

usemtl m350
f 162 61 64

usemtl m351
f 162 64 164

usemtl m352
f 162 164 157

usemtl m353
f 162 157 163

usemtl m354
f 162 163 157

usemtl m355
f 162 157 164

usemtl m356
f 162 164 64

usemtl m357
f 162 64 61

usemtl m358
f 29 28 165

usemtl m359
f 29 165 166

usemtl m360
f 29 166 167

usemtl m361
f 29 167 168

usemtl m362
f 29 168 169

usemtl m363
f 29 169 33

usemtl m364
f 33 169 34

usemtl m365
f 34 169 170

usemtl m366
f 34 170 115

usemtl m367
f 34 115 114

usemtl m368
f 34 114 112

usemtl m369
f 17 171 172

usemtl m370
f 17 172 50

usemtl m371
f 50 172 51

usemtl m372
f 51 172 54

usemtl m373
f 51 54 172

usemtl m374
f 172 54 173

usemtl m375
f 172 173 54

usemtl m376
f 54 173 57

usemtl m377
f 54 57 173

usemtl m378
f 173 57 174

usemtl m379
f 173 174 57

usemtl m380
f 57 174 144

usemtl m381
f 57 144 59

usemtl m382
f 57 59 144

usemtl m383
f 57 144 174

usemtl m384
f 174 144 145

usemtl m385
f 174 145 144

usemtl m386
f 145 174 173

usemtl m387
f 145 173 16

usemtl m388
f 145 16 146

usemtl m389
f 145 146 16

usemtl m390
f 145 16 173

usemtl m391
f 145 173 174

usemtl m392
f 88 73 72

usemtl m393
f 88 72 73

usemtl m394
f 88 73 74

usemtl m395
f 88 74 73

usemtl m396
f 74 88 101

usemtl m397
f 74 101 175

usemtl m398
f 74 175 75

usemtl m399
f 74 75 175

usemtl m400
f 74 175 101

usemtl m401
f 74 101 88

usemtl m402
f 88 101 92

usemtl m403
f 88 92 101

usemtl m404
f 92 88 87

usemtl m405
f 92 87 86

usemtl m406
f 176 177 178

usemtl m407
f 176 178 100

usemtl m408
f 176 100 99

usemtl m409
f 176 99 179

usemtl m410
f 176 179 180

usemtl m411
f 176 180 181

usemtl m412
f 176 181 182

usemtl m413
f 176 182 177

usemtl m414
f 176 177 182

usemtl m415
f 176 182 181

usemtl m416
f 176 181 180

usemtl m417
f 176 180 179

usemtl m418
f 176 179 99

usemtl m419
f 176 99 100

usemtl m420
f 176 100 178

usemtl m421
f 176 178 177

usemtl m422
f 177 178 183

usemtl m423
f 177 183 178

usemtl m424
f 178 183 184

usemtl m425
f 178 184 185

usemtl m426
f 178 185 100

usemtl m427
f 178 100 185

usemtl m428
f 178 185 184

usemtl m429
f 178 184 183

usemtl m430
f 183 184 68

usemtl m431
f 183 68 184

usemtl m432
f 184 68 67

usemtl m433
f 184 67 186

usemtl m434
f 184 186 185

usemtl m435
f 184 185 186

usemtl m436
f 184 186 67

usemtl m437
f 184 67 68

usemtl m438
f 187 188 182

usemtl m439
f 187 182 189

usemtl m440
f 187 189 190

usemtl m441
f 187 190 191

usemtl m442
f 187 191 192

usemtl m443
f 187 192 188

usemtl m444
f 187 188 192

usemtl m445
f 187 192 191

usemtl m446
f 187 191 190

usemtl m447
f 190 191 193

usemtl m448
f 190 193 191

usemtl m449
f 191 193 192

usemtl m450
f 191 192 193

usemtl m451
f 193 192 194

usemtl m452
f 193 194 192

usemtl m453
f 192 194 195

usemtl m454
f 192 195 196

usemtl m455
f 192 196 158

usemtl m456
f 192 158 157

usemtl m457
f 192 157 197

usemtl m458
f 192 197 188

usemtl m459
f 192 188 197

usemtl m460
f 192 197 157

usemtl m461
f 192 157 158

usemtl m462
f 192 158 196

usemtl m463
f 192 196 195

usemtl m464
f 192 195 194

usemtl m465
f 194 195 198

usemtl m466
f 194 198 195

usemtl m467
f 195 198 199

usemtl m468
f 195 199 196

usemtl m469
f 195 196 199

usemtl m470
f 195 199 198

usemtl m471
f 198 199 169

usemtl m472
f 198 169 199

usemtl m473
f 199 169 168

usemtl m474
f 199 168 167

usemtl m475
f 199 167 159

usemtl m476
f 199 159 158

usemtl m477
f 199 158 196

usemtl m478
f 199 196 158

usemtl m479
f 189 182 181

usemtl m480
f 189 181 117

usemtl m481
f 189 117 116

usemtl m482
f 189 116 190

usemtl m483
f 190 116 115

usemtl m484
f 190 115 200

usemtl m485
f 190 200 193

usemtl m486
f 190 193 200

usemtl m487
f 190 200 115

usemtl m488
f 115 200 201

usemtl m489
f 115 201 200

usemtl m490
f 200 201 194

usemtl m491
f 200 194 193

usemtl m492
f 200 193 194

usemtl m493
f 200 194 201

usemtl m494
f 201 194 198

usemtl m495
f 201 198 194

usemtl m496
f 198 201 169

usemtl m497
f 198 169 201

usemtl m498
f 201 169 170

usemtl m499
f 201 170 169

usemtl m500
f 170 201 115

usemtl m501
f 170 115 201

usemtl m502
f 53 161 27

usemtl m503
f 53 27 26

usemtl m504
f 53 26 25

usemtl m505
f 53 25 26

usemtl m506
f 53 26 27

usemtl m507
f 53 27 161

usemtl m508
f 173 171 17

usemtl m509
f 173 17 16

usemtl m510
f 173 16 17

usemtl m511
f 173 17 171

usemtl m512
f 173 171 172

usemtl m513
f 173 172 171

usemtl m514
f 177 202 183

usemtl m515
f 177 183 202

usemtl m516
f 177 202 182

usemtl m517
f 177 182 202

usemtl m518
f 202 182 188

usemtl m519
f 202 188 164

usemtl m520
f 202 164 183

usemtl m521
f 202 183 164

usemtl m522
f 202 164 188

usemtl m523
f 202 188 182

usemtl m524
f 182 188 187

usemtl m525
f 182 187 189

usemtl m526
f 182 189 181

usemtl m527
f 164 197 157

usemtl m528
f 164 157 197

usemtl m529
f 164 197 188

usemtl m530
f 164 188 197

usemtl m531
f 185 175 100

usemtl m532
f 185 100 175

usemtl m533
f 185 175 186

usemtl m534
f 185 186 175

usemtl m535
f 175 186 75

usemtl m536
f 175 75 186

usemtl m537
f 186 75 67

usemtl m538
f 186 67 75

usemtl m539
f 160 159 166

usemtl m540
f 160 166 165

usemtl m541
f 160 165 161

usemtl m542
f 161 165 28

usemtl m543
f 161 28 27

usemtl m544
f 181 180 118

usemtl m545
f 181 118 117

usemtl m546
f 164 64 68

usemtl m547
f 164 68 183

usemtl m548
f 164 183 68

usemtl m549
f 164 68 64

usemtl m550
f 153 78 135

usemtl m551
f 153 135 134

usemtl m552
f 153 134 135

usemtl m553
f 153 135 78

usemtl m554
f 153 78 152

usemtl m555
f 153 152 78

usemtl m556
f 78 152 151

usemtl m557
f 78 151 80

usemtl m558
f 78 80 151

usemtl m559
f 78 151 152

usemtl m560
f 16 13 146

usemtl m561
f 16 146 13

usemtl m562
f 81 121 82

usemtl m563
f 81 80 151

usemtl m564
f 127 129 128

usemtl m565
f 127 128 129

usemtl m566
f 180 179 119

usemtl m567
f 180 119 118

usemtl m568
f 98 97 120

usemtl m569
f 98 120 179

usemtl m570
f 98 179 99

usemtl m571
f 101 100 175

usemtl m572
f 101 175 100

usemtl m573
f 135 78 203

usemtl m574
f 135 203 148

usemtl m575
f 135 148 12

usemtl m576
f 135 12 148

usemtl m577
f 135 148 203

usemtl m578
f 203 148 204

usemtl m579
f 203 204 148

usemtl m580
f 148 204 69

usemtl m581
f 148 69 204

usemtl m582
f 204 69 76

usemtl m583
f 204 76 69

usemtl m584
f 76 204 203

usemtl m585
f 76 203 78

usemtl m586
f 76 78 203

usemtl m587
f 76 203 204

usemtl m588
f 12 148 146

usemtl m589
f 12 146 13

usemtl m590
f 37 142 38

usemtl m591
f 38 142 141

usemtl m592
f 166 159 167

usemtl m593
f 119 179 120

usemtl m594
f 205 206 207

usemtl m595
f 205 207 208

usemtl m596
f 205 208 209

usemtl m597
f 205 209 210

usemtl m598
f 205 210 211

usemtl m599
f 205 211 206

usemtl m600
f 206 211 212

usemtl m601
f 206 212 213

usemtl m602
f 206 213 214

usemtl m603
f 206 214 207

usemtl m604
f 207 214 215

usemtl m605
f 207 215 216

usemtl m606
f 207 216 208

usemtl m607
f 208 216 217

usemtl m608
f 208 217 218

usemtl m609
f 208 218 209

usemtl m610
f 209 218 219

usemtl m611
f 209 219 220

usemtl m612
f 209 220 210

usemtl m613
f 210 220 221

usemtl m614
f 210 221 211

usemtl m615
f 211 221 222

usemtl m616
f 211 222 212

usemtl m617
f 212 222 223

usemtl m618
f 212 223 224

usemtl m619
f 212 224 213

usemtl m620
f 213 224 225

usemtl m621
f 213 225 226

usemtl m622
f 213 226 214

usemtl m623
f 214 226 227

usemtl m624
f 214 227 215

usemtl m625
f 215 227 228

usemtl m626
f 215 228 229

usemtl m627
f 215 229 216

usemtl m628
f 216 229 230

usemtl m629
f 216 230 217

usemtl m630
f 217 230 231

usemtl m631
f 217 231 232

usemtl m632
f 217 232 218

usemtl m633
f 218 232 233

usemtl m634
f 218 233 219

usemtl m635
f 219 233 228

usemtl m636
f 219 228 227

usemtl m637
f 219 227 220

usemtl m638
f 220 227 226

usemtl m639
f 220 226 225

usemtl m640
f 220 225 234

usemtl m641
f 220 234 221

usemtl m642
f 221 234 235

usemtl m643
f 221 235 236

usemtl m644
f 221 236 237

usemtl m645
f 221 237 238

usemtl m646
f 221 238 239

usemtl m647
f 221 239 222

usemtl m648
f 222 239 240

usemtl m649
f 222 240 241

usemtl m650
f 222 241 242

usemtl m651
f 222 242 243

usemtl m652
f 222 243 223

usemtl m653
f 223 243 242

usemtl m654
f 223 242 244

usemtl m655
f 223 244 245

usemtl m656
f 223 245 246

usemtl m657
f 223 246 247

usemtl m658
f 223 247 248

usemtl m659
f 223 248 249

usemtl m660
f 223 249 250

usemtl m661
f 223 250 224

usemtl m662
f 224 250 249

usemtl m663
f 224 249 251

usemtl m664
f 224 251 252

usemtl m665
f 224 252 253

usemtl m666
f 224 253 225

usemtl m667
f 225 253 254

usemtl m668
f 225 254 255

usemtl m669
f 225 255 256

usemtl m670
f 225 256 257

usemtl m671
f 225 257 234

usemtl m672
f 234 257 258

usemtl m673
f 234 258 235

usemtl m674
f 235 258 259

usemtl m675
f 235 259 260

usemtl m676
f 235 260 236

usemtl m677
f 236 260 261

usemtl m678
f 236 261 262

usemtl m679
f 236 262 237

usemtl m680
f 237 262 263

usemtl m681
f 237 263 238

usemtl m682
f 238 263 264

usemtl m683
f 238 264 265

usemtl m684
f 238 265 239

usemtl m685
f 239 265 266

usemtl m686
f 239 266 240

usemtl m687
f 240 266 267

usemtl m688
f 240 267 268

usemtl m689
f 240 268 241

usemtl m690
f 241 268 269

usemtl m691
f 241 269 270

usemtl m692
f 241 270 242

usemtl m693
f 242 270 260

usemtl m694
f 242 260 244

usemtl m695
f 244 260 259

usemtl m696
f 244 259 271

usemtl m697
f 244 271 272

usemtl m698
f 244 272 273

usemtl m699
f 244 273 274

usemtl m700
f 244 274 245

usemtl m701
f 245 274 275

usemtl m702
f 245 275 276

usemtl m703
f 245 276 277

usemtl m704
f 245 277 278

usemtl m705
f 245 278 246

usemtl m706
f 246 278 279

usemtl m707
f 246 279 280

usemtl m708
f 246 280 281

usemtl m709
f 246 281 247

usemtl m710
f 247 281 282

usemtl m711
f 247 282 283

usemtl m712
f 247 283 284

usemtl m713
f 247 284 285

usemtl m714
f 247 285 248

usemtl m715
f 248 285 286

usemtl m716
f 248 286 287

usemtl m717
f 248 287 288

usemtl m718
f 248 288 289

usemtl m719
f 248 289 290

usemtl m720
f 248 290 249

usemtl m721
f 249 290 291

usemtl m722
f 249 291 251

usemtl m723
f 251 291 292

usemtl m724
f 251 292 293

usemtl m725
f 251 293 252

usemtl m726
f 252 293 294

usemtl m727
f 252 294 295

usemtl m728
f 252 295 253

usemtl m729
f 253 295 296

usemtl m730
f 253 296 254

usemtl m731
f 254 296 297

usemtl m732
f 254 297 298

usemtl m733
f 254 298 255

usemtl m734
f 255 298 299

usemtl m735
f 255 299 256

usemtl m736
f 256 299 300

usemtl m737
f 256 300 290

usemtl m738
f 256 290 257

usemtl m739
f 257 290 289

usemtl m740
f 257 289 258

usemtl m741
f 258 289 301

usemtl m742
f 258 301 259

usemtl m743
f 259 301 276

usemtl m744
f 259 276 302

usemtl m745
f 259 302 303

usemtl m746
f 259 303 304

usemtl m747
f 259 304 271

usemtl m748
f 271 304 305

usemtl m749
f 271 305 306

usemtl m750
f 271 306 272

usemtl m751
f 272 306 307

usemtl m752
f 272 307 308

usemtl m753
f 272 308 273

usemtl m754
f 273 308 309

usemtl m755
f 273 309 310

usemtl m756
f 273 310 274

usemtl m757
f 274 310 275

usemtl m758
f 275 310 311

usemtl m759
f 275 311 302

usemtl m760
f 275 302 276

usemtl m761
f 233 232 312

usemtl m762
f 233 312 313

usemtl m763
f 233 313 228

usemtl m764
f 228 313 229

usemtl m765
f 229 313 314

usemtl m766
f 229 314 230

usemtl m767
f 230 314 315

usemtl m768
f 230 315 316

usemtl m769
f 230 316 317

usemtl m770
f 230 317 318

usemtl m771
f 230 318 319

usemtl m772
f 230 319 231

usemtl m773
f 231 319 320

usemtl m774
f 231 320 321

usemtl m775
f 231 321 232

usemtl m776
f 232 321 312

usemtl m777
f 312 321 317

usemtl m778
f 312 317 322

usemtl m779
f 312 322 313

usemtl m780
f 313 322 314

usemtl m781
f 314 322 323

usemtl m782
f 314 323 315

usemtl m783
f 315 323 324

usemtl m784
f 315 324 325

usemtl m785
f 315 325 316

usemtl m786
f 316 325 326

usemtl m787
f 316 326 327

usemtl m788
f 316 327 317

usemtl m789
f 317 327 322

usemtl m790
f 322 327 323

usemtl m791
f 323 327 328

usemtl m792
f 323 328 324

usemtl m793
f 324 328 329

usemtl m794
f 324 329 330

usemtl m795
f 324 330 325

usemtl m796
f 325 330 331

usemtl m797
f 325 331 326

usemtl m798
f 326 331 332

usemtl m799
f 326 332 328

usemtl m800
f 326 328 327

usemtl m801
f 333 277 276

usemtl m802
f 333 276 301

usemtl m803
f 333 301 283

usemtl m804
f 333 283 282

usemtl m805
f 333 282 334

usemtl m806
f 333 334 335

usemtl m807
f 333 335 277

usemtl m808
f 277 335 336

usemtl m809
f 277 336 278

usemtl m810
f 278 336 279

usemtl m811
f 279 336 337

usemtl m812
f 279 337 338

usemtl m813
f 279 338 280

usemtl m814
f 280 338 339

usemtl m815
f 280 339 340

usemtl m816
f 280 340 341

usemtl m817
f 280 341 281

usemtl m818
f 281 341 282

usemtl m819
f 282 341 334

usemtl m820
f 334 341 342

usemtl m821
f 334 342 343

usemtl m822
f 334 343 335

usemtl m823
f 335 343 336

usemtl m824
f 336 343 337

usemtl m825
f 337 343 338

usemtl m826
f 338 343 339

usemtl m827
f 339 343 340

usemtl m828
f 340 343 342

usemtl m829
f 340 342 341

usemtl m830
f 289 283 301

usemtl m831
f 283 289 344

usemtl m832
f 283 344 284

usemtl m833
f 284 344 345

usemtl m834
f 284 345 346

usemtl m835
f 284 346 285

usemtl m836
f 285 346 286

usemtl m837
f 286 346 347

usemtl m838
f 286 347 348

usemtl m839
f 286 348 287

usemtl m840
f 287 348 349

usemtl m841
f 287 349 350

usemtl m842
f 287 350 288

usemtl m843
f 288 350 351

usemtl m844
f 288 351 352

usemtl m845
f 288 352 289

usemtl m846
f 289 352 353

usemtl m847
f 289 353 344

usemtl m848
f 344 353 354

usemtl m849
f 344 354 345

usemtl m850
f 345 354 347

usemtl m851
f 345 347 346

usemtl m852
f 355 356 357

usemtl m853
f 355 357 358

usemtl m854
f 355 358 359

usemtl m855
f 355 359 319

usemtl m856
f 355 319 318

usemtl m857
f 355 318 356

usemtl m858
f 356 318 360

usemtl m859
f 356 360 361

usemtl m860
f 356 361 362

usemtl m861
f 356 362 357

usemtl m862
f 357 362 363

usemtl m863
f 357 363 364

usemtl m864
f 357 364 358

usemtl m865
f 358 364 365

usemtl m866
f 358 365 366

usemtl m867
f 358 366 359

usemtl m868
f 359 366 361

usemtl m869
f 359 361 320

usemtl m870
f 359 320 319

usemtl m871
f 361 366 362

usemtl m872
f 362 366 367

usemtl m873
f 362 367 363

usemtl m874
f 363 367 368

usemtl m875
f 363 368 369

usemtl m876
f 363 369 364

usemtl m877
f 364 369 370

usemtl m878
f 364 370 365

usemtl m879
f 365 370 371

usemtl m880
f 365 371 367

usemtl m881
f 365 367 366

usemtl m882
f 360 320 361

usemtl m883
f 320 360 321

usemtl m884
f 321 360 317

usemtl m885
f 317 360 318

usemtl m886
f 332 329 328

usemtl m887
f 329 332 372

usemtl m888
f 329 372 373

usemtl m889
f 329 373 330

usemtl m890
f 330 373 374

usemtl m891
f 330 374 331

usemtl m892
f 331 374 375

usemtl m893
f 331 375 332

usemtl m894
f 332 375 372

usemtl m895
f 372 375 376

usemtl m896
f 372 376 377

usemtl m897
f 372 377 373

usemtl m898
f 373 377 378

usemtl m899
f 373 378 374

usemtl m900
f 374 378 379

usemtl m901
f 374 379 375

usemtl m902
f 375 379 376

usemtl m903
f 376 379 380

usemtl m904
f 376 380 381

usemtl m905
f 376 381 377

usemtl m906
f 377 381 382

usemtl m907
f 377 382 378

usemtl m908
f 378 382 383

usemtl m909
f 378 383 379

usemtl m910
f 379 383 380

usemtl m911
f 380 383 384

usemtl m912
f 380 384 385

usemtl m913
f 380 385 381

usemtl m914
f 381 385 386

usemtl m915
f 381 386 382

usemtl m916
f 382 386 387

usemtl m917
f 382 387 383

usemtl m918
f 383 387 384

usemtl m919
f 384 387 388

usemtl m920
f 384 388 389

usemtl m921
f 384 389 385

usemtl m922
f 385 389 390

usemtl m923
f 385 390 386

usemtl m924
f 386 390 391

usemtl m925
f 386 391 387

usemtl m926
f 387 391 388

usemtl m927
f 388 391 390

usemtl m928
f 388 390 389

usemtl m929
f 367 371 368

usemtl m930
f 368 371 392

usemtl m931
f 368 392 393

usemtl m932
f 368 393 369

usemtl m933
f 369 393 394

usemtl m934
f 369 394 370

usemtl m935
f 370 394 395

usemtl m936
f 370 395 371

usemtl m937
f 371 395 392

usemtl m938
f 392 395 396

usemtl m939
f 392 396 397

usemtl m940
f 392 397 393

usemtl m941
f 393 397 398

usemtl m942
f 393 398 394

usemtl m943
f 394 398 399

usemtl m944
f 394 399 395

usemtl m945
f 395 399 396

usemtl m946
f 396 399 400

usemtl m947
f 396 400 401

usemtl m948
f 396 401 397

usemtl m949
f 397 401 402

usemtl m950
f 397 402 398

usemtl m951
f 398 402 403

usemtl m952
f 398 403 399

usemtl m953
f 399 403 400

usemtl m954
f 303 404 405

usemtl m955
f 303 405 304

usemtl m956
f 304 405 406

usemtl m957
f 304 406 305

usemtl m958
f 305 406 407

usemtl m959
f 305 407 408

usemtl m960
f 305 408 306

usemtl m961
f 305 306 408

usemtl m962
f 305 408 407

usemtl m963
f 305 407 406

usemtl m964
f 406 407 409

usemtl m965
f 406 409 407

usemtl m966
f 407 409 410

usemtl m967
f 407 410 411

usemtl m968
f 407 411 408

usemtl m969
f 408 411 412

usemtl m970
f 408 412 413

usemtl m971
f 408 413 414

usemtl m972
f 408 414 306

usemtl m973
f 408 306 414

usemtl m974
f 414 306 307

usemtl m975
f 414 307 306

usemtl m976
f 307 414 415

usemtl m977
f 307 415 416

usemtl m978
f 307 416 308

usemtl m979
f 308 416 417

usemtl m980
f 308 417 309

usemtl m981
f 309 417 404

usemtl m982
f 309 404 311

usemtl m983
f 309 311 310

usemtl m984
f 404 417 405

usemtl m985
f 405 417 418

usemtl m986
f 405 418 406

usemtl m987
f 406 418 409

usemtl m988
f 406 409 418

usemtl m989
f 417 416 418

usemtl m990
f 418 416 419

usemtl m991
f 418 419 409

usemtl m992
f 409 419 420

usemtl m993
f 409 420 421

usemtl m994
f 409 421 410

usemtl m995
f 409 410 421

usemtl m996
f 410 409 407

usemtl m997
f 302 311 404

usemtl m998
f 302 404 303

usemtl m999
f 422 354 353

usemtl m1000
f 422 353 352

usemtl m1001
f 422 352 423

usemtl m1002
f 422 423 424

usemtl m1003
f 422 424 425

usemtl m1004
f 422 425 354

usemtl m1005
f 354 425 347

usemtl m1006
f 347 425 348

usemtl m1007
f 348 425 426

usemtl m1008
f 348 426 349

usemtl m1009
f 349 426 427

usemtl m1010
f 349 427 428

usemtl m1011
f 349 428 350

usemtl m1012
f 349 350 428

usemtl m1013
f 349 428 427

usemtl m1014
f 351 423 352

usemtl m1015
f 423 351 429

usemtl m1016
f 423 429 430

usemtl m1017
f 423 430 424

usemtl m1018
f 423 424 430

usemtl m1019
f 423 430 429

usemtl m1020
f 423 429 351

usemtl m1021
f 351 429 431

usemtl m1022
f 351 431 429

usemtl m1023
f 429 431 432

usemtl m1024
f 429 432 433

usemtl m1025
f 429 433 430

usemtl m1026
f 429 430 433

usemtl m1027
f 429 433 432

usemtl m1028
f 432 433 434

usemtl m1029
f 432 434 433

usemtl m1030
f 433 434 430

usemtl m1031
f 430 434 435

usemtl m1032
f 430 435 436

usemtl m1033
f 430 436 424

usemtl m1034
f 430 424 436

usemtl m1035
f 436 424 437

usemtl m1036
f 436 437 424

usemtl m1037
f 424 437 426

usemtl m1038
f 424 426 425

usemtl m1039
f 438 439 440

usemtl m1040
f 438 440 441

usemtl m1041
f 438 441 413

usemtl m1042
f 438 413 412

usemtl m1043
f 438 412 439

usemtl m1044
f 439 412 421

usemtl m1045
f 439 421 440

usemtl m1046
f 439 440 421

usemtl m1047
f 439 421 412

usemtl m1048
f 412 421 411

usemtl m1049
f 412 411 421

usemtl m1050
f 421 411 410

usemtl m1051
f 441 440 442

usemtl m1052
f 441 442 443

usemtl m1053
f 441 443 444

usemtl m1054
f 441 444 413

usemtl m1055
f 413 444 414

usemtl m1056
f 414 444 415

usemtl m1057
f 415 444 445

usemtl m1058
f 415 445 419

usemtl m1059
f 415 419 416

usemtl m1060
f 415 416 419

usemtl m1061
f 419 416 418

usemtl m1062
f 419 445 420

usemtl m1063
f 420 445 446

usemtl m1064
f 420 446 440

usemtl m1065
f 420 440 421

usemtl m1066
f 445 444 443

usemtl m1067
f 445 443 442

usemtl m1068
f 445 442 446

usemtl m1069
f 446 442 440

usemtl m1070
f 447 448 449

usemtl m1071
f 447 449 450

usemtl m1072
f 447 450 451

usemtl m1073
f 447 451 435

usemtl m1074
f 447 435 434

usemtl m1075
f 447 434 448

usemtl m1076
f 448 434 452

usemtl m1077
f 448 452 449

usemtl m1078
f 448 449 452

usemtl m1079
f 448 452 434

usemtl m1080
f 434 452 432

usemtl m1081
f 434 432 452

usemtl m1082
f 452 432 431

usemtl m1083
f 452 431 453

usemtl m1084
f 452 453 449

usemtl m1085
f 449 453 450

usemtl m1086
f 450 453 454

usemtl m1087
f 450 454 455

usemtl m1088
f 450 455 451

usemtl m1089
f 450 451 455

usemtl m1090
f 451 450 447

usemtl m1091
f 447 450 449

usemtl m1092
f 447 449 448

usemtl m1093
f 431 351 350

usemtl m1094
f 431 350 428

usemtl m1095
f 431 428 453

usemtl m1096
f 453 428 454

usemtl m1097
f 454 428 427

usemtl m1098
f 454 427 456

usemtl m1099
f 454 456 455

usemtl m1100
f 455 456 451

usemtl m1101
f 451 456 435

usemtl m1102
f 435 456 436

usemtl m1103
f 436 456 427

usemtl m1104
f 436 427 437

usemtl m1105
f 436 437 427

usemtl m1106
f 427 437 426

usemtl m1107
f 427 426 437

usemtl m1108
f 269 268 457

usemtl m1109
f 269 457 262

usemtl m1110
f 269 262 261

usemtl m1111
f 269 261 270

usemtl m1112
f 270 261 260

usemtl m1113
f 262 457 263

usemtl m1114
f 263 457 458

usemtl m1115
f 263 458 264

usemtl m1116
f 264 458 459

usemtl m1117
f 264 459 460

usemtl m1118
f 264 460 265

usemtl m1119
f 265 460 461

usemtl m1120
f 265 461 266

usemtl m1121
f 266 461 462

usemtl m1122
f 266 462 267

usemtl m1123
f 267 462 463

usemtl m1124
f 267 463 464

usemtl m1125
f 267 464 268

usemtl m1126
f 268 464 457

usemtl m1127
f 457 464 458

usemtl m1128
f 458 464 465

usemtl m1129
f 458 465 459

usemtl m1130
f 459 465 466

usemtl m1131
f 459 466 467

usemtl m1132
f 459 467 460

usemtl m1133
f 460 467 468

usemtl m1134
f 460 468 461

usemtl m1135
f 461 468 469

usemtl m1136
f 461 469 462

usemtl m1137
f 462 469 470

usemtl m1138
f 462 470 463

usemtl m1139
f 463 470 471

usemtl m1140
f 463 471 465

usemtl m1141
f 463 465 464

usemtl m1142
f 472 293 292

usemtl m1143
f 472 292 299

usemtl m1144
f 472 299 298

usemtl m1145
f 472 298 473

usemtl m1146
f 472 473 474

usemtl m1147
f 472 474 293

usemtl m1148
f 293 474 294

usemtl m1149
f 294 474 475

usemtl m1150
f 294 475 476

usemtl m1151
f 294 476 295

usemtl m1152
f 295 476 477

usemtl m1153
f 295 477 296

usemtl m1154
f 296 477 478

usemtl m1155
f 296 478 297

usemtl m1156
f 297 478 479

usemtl m1157
f 297 479 473

usemtl m1158
f 297 473 298

usemtl m1159
f 292 291 300

usemtl m1160
f 292 300 299

usemtl m1161
f 300 291 290

usemtl m1162
f 480 481 482

usemtl m1163
f 480 482 483

usemtl m1164
f 480 483 469

usemtl m1165
f 480 469 468

usemtl m1166
f 480 468 481

usemtl m1167
f 481 468 467

usemtl m1168
f 481 467 482

usemtl m1169
f 482 467 466

usemtl m1170
f 482 466 484

usemtl m1171
f 482 484 483

usemtl m1172
f 483 484 485

usemtl m1173
f 483 485 470

usemtl m1174
f 483 470 469

usemtl m1175
f 465 471 466

usemtl m1176
f 466 471 484

usemtl m1177
f 484 471 485

usemtl m1178
f 485 471 470

usemtl m1179
f 486 487 488

usemtl m1180
f 486 488 489

usemtl m1181
f 486 489 490

usemtl m1182
f 486 490 491

usemtl m1183
f 486 491 492

usemtl m1184
f 486 492 487

usemtl m1185
f 487 492 493

usemtl m1186
f 487 493 488

usemtl m1187
f 488 493 494

usemtl m1188
f 488 494 489

usemtl m1189
f 489 494 495

usemtl m1190
f 489 495 496

usemtl m1191
f 489 496 490

usemtl m1192
f 490 496 497

usemtl m1193
f 490 497 491

usemtl m1194
f 491 497 498

usemtl m1195
f 491 498 479

usemtl m1196
f 491 479 492

usemtl m1197
f 492 479 478

usemtl m1198
f 492 478 493

usemtl m1199
f 493 478 477

usemtl m1200
f 493 477 494

usemtl m1201
f 494 477 476

usemtl m1202
f 494 476 495

usemtl m1203
f 495 476 475

usemtl m1204
f 495 475 497

usemtl m1205
f 495 497 496

usemtl m1206
f 498 475 474

usemtl m1207
f 498 474 473

usemtl m1208
f 498 473 479

usemtl m1209
f 497 475 498

usemtl m1210
f 334 341 499

usemtl m1211
f 334 499 500

usemtl m1212
f 334 500 341

usemtl m1213
f 341 500 499

usemtl m1214
f 499 500 501

usemtl m1215
f 499 501 500

usemtl m1216
f 336 279 502

usemtl m1217
f 336 502 503

usemtl m1218
f 336 503 279

usemtl m1219
f 279 503 502

usemtl m1220
f 502 503 504

usemtl m1221
f 502 504 503

usemtl m1222
f 402 401 400

usemtl m1223
f 402 400 505

usemtl m1224
f 506 507 508

usemtl m1225
f 506 508 509

usemtl m1226
f 506 509 510

usemtl m1227
f 506 510 509

usemtl m1228
f 506 509 508

usemtl m1229
f 506 508 507

usemtl m1230
f 511 512 513

usemtl m1231
f 511 513 512

usemtl m1232
f 511 512 514

usemtl m1233
f 511 514 512

usemtl m1234
f 514 511 515

usemtl m1235
f 514 515 511

usemtl m1236
f 5 4 2

usemtl m1237
f 38 46 48

usemtl m1238
f 38 48 141

usemtl m1239
f 33 31 34

usemtl m1240
f 34 31 35

usemtl m1241
f 44 124 121

usemtl m1242
f 44 121 122

usemtl m1243
f 44 122 123

usemtl m1244
f 105 102 106

usemtl m1245
f 105 106 154

usemtl m1246
f 25 22 26

usemtl m1247
f 22 25 24

usemtl m1248
f 17 16 15

usemtl m1249
f 92 87 88

usemtl m1250
f 44 126 125

usemtl m1251
f 44 125 124

usemtl m1252
f 11 10 8

usemtl m1253
f 11 8 12

usemtl m1254
f 126 130 134

usemtl m1255
f 106 102 107

usemtl m1256
f 12 133 136

usemtl m1257
f 440 439 438

usemtl m1258
f 440 438 441

usemtl m1259
f 440 441 442

usemtl m1260
f 442 441 443

usemtl m1261
f 415 307 416

usemtl m1262
f 307 415 414

usemtl m1263
f 350 351 431

usemtl m1264
f 350 431 428

usemtl m1265
f 424 426 437

