mtllib 33149.mtl
o runescapemodel
v -11 7 -23
v 0 4 -25
v 0 -2 -14
v -11 0 -9
v -16 2 -14
v -14 6 -19
v -11 13 -22
v -8 8 -24
v 0 8 -25
v 8 8 -24
v 11 7 -23
v 11 0 -9
v 0 -4 0
v -18 2 -2
v -18 18 0
v -17 23 -3
v -14 22 -15
v -14 12 -18
v -11 22 -15
v -7 20 -19
v -7 8 -22
v 0 8 -22
v 7 8 -22
v 7 20 -19
v 11 13 -22
v 14 6 -19
v 16 2 -14
v 18 2 -2
v 14 -2 9
v 0 -4 16
v -14 -2 9
v -16 5 15
v -16 9 15
v -14 20 7
v -14 23 4
v -14 24 2
v 0 25 5
v -7 25 -7
v -7 24 -8
v 0 23 -8
v 0 23 -12
v 0 20 -19
v 0 24 -1
v 7 24 -8
v 11 22 -15
v -12 18 17
v -17 14 31
v -10 19 34
v -6 17 20
v -19 5 29
v -17 -4 29
v -10 -8 30
v 0 21 32
v 0 20 22
v -5 19 20
v -6 20 11
v -6 20 10
v -6 22 9
v 0 23 10
v 0 23 8
v 14 24 2
v 17 23 -3
v 7 25 -7
v 0 25 0
v -12 -2 14
v 0 -9 31
v 10 19 34
v 5 19 20
v 0 22 13
v -5 21 11
v 5 21 11
v 6 22 9
v 14 23 4
v 12 18 17
v 17 14 31
v 16 9 15
v 14 20 7
v 6 17 20
v 6 20 11
v 19 5 29
v 16 5 15
v 18 18 0
v 6 20 10
v 12 -2 14
v 10 -8 30
v 17 -4 29
v 14 12 -18
v 14 22 -15
v -20 1 -2
v -24 -4 -4
v -17 -3 -14
v -15 5 -12
v -15 13 -11
v -18 11 -1
v -18 11 1
v -21 2 0
v -32 0 -2
v -32 -4 -5
v -33 -3 -9
v -32 4 -20
v -26 4 -21
v -16 1 -19
v -15 7 -18
v -15 19 -13
v -15 24 -12
v -18 24 -2
v -21 21 2
v -21 20 3
v -17 8 2
v -21 -1 1
v -32 0 2
v -37 14 0
v -42 15 -3
v -41 2 -4
v -31 6 -18
v -26 7 -19
v -23 7 -24
v -15 3 -21
v -14 7 -20
v -14 13 -20
v -14 19 -18
v -15 22 -16
v -24 18 -22
v -26 20 -19
v -18 25 -4
v -26 21 1
v -26 20 3
v -26 21 4
v -25 13 13
v -21 4 12
v -33 -2 3
v -37 13 2
v -33 19 2
v -38 21 0
v -32 20 -18
v -31 17 -17
v -31 12 -20
v -25 12 -21
v -22 13 -25
v -28 24 -1
v -33 17 4
v -33 18 5
v -33 12 12
v -33 10 14
v -26 11 15
v -22 2 13
v -32 1 8
v -36 6 9
v -39 13 3
v -26 17 -18
v -36 10 11
v -32 1 10
v -32 1 13
v -34 10 16
v -24 12 18
v -22 7 16
v -23 2 15
v -24 2 21
v -33 1 19
v -33 10 22
v -26 11 24
v -24 6 22
v -25 2 29
v -32 2 29
v -25 8 29
v -32 8 29
v 20 1 -2
v 17 -3 -14
v 24 -4 -4
v 32 0 -2
v 32 0 2
v 21 2 0
v 18 11 -1
v 15 5 -12
v 15 7 -18
v 16 1 -19
v 32 4 -20
v 33 -3 -9
v 32 -4 -5
v 41 2 -4
v 37 14 0
v 37 13 2
v 39 13 3
v 33 -2 3
v 21 -1 1
v 18 11 1
v 18 24 -2
v 15 24 -12
v 15 13 -11
v 15 19 -13
v 14 19 -18
v 14 13 -20
v 14 7 -20
v 15 3 -21
v 23 7 -24
v 26 4 -21
v 26 7 -19
v 31 6 -18
v 22 13 -25
v 24 18 -22
v 15 22 -16
v 26 20 -19
v 26 17 -18
v 25 12 -21
v 26 21 1
v 28 24 -1
v 18 25 -4
v 42 15 -3
v 38 21 0
v 33 19 2
v 31 12 -20
v 31 17 -17
v 32 20 -18
v 26 20 3
v 33 17 4
v 33 18 5
v 33 12 12
v 36 10 11
v 36 6 9
v 32 1 8
v 21 4 12
v 17 8 2
v 21 21 2
v 21 20 3
v 26 21 4
v 25 13 13
v 26 11 15
v 33 10 14
v 32 1 10
v 22 2 13
v 22 7 16
v 24 12 18
v 34 10 16
v 32 1 13
v 23 2 15
v 24 6 22
v 26 11 24
v 33 10 22
v 33 1 19
v 24 2 21
v 25 2 29
v 25 8 29
v 32 8 29
v 32 2 29
v 18 -4 29
vn -689 766 1136
vn 0 550 1232
vn 0 1352 518
vn -289 1175 279
vn -1472 506 602
vn -843 48 551
vn -830 -430 1098
vn 46 -362 1092
vn 0 -1024 512
vn -46 -362 1092
vn 689 766 1136
vn 289 1175 279
vn 0 1960 210
vn -973 826 50
vn -1883 -456 -327
vn -824 -1141 111
vn -492 -372 401
vn -902 -233 683
vn -184 -1690 978
vn 128 -864 1245
vn 227 -602 363
vn 0 -698 750
vn -227 -664 613
vn -128 -802 995
vn 830 -430 1098
vn 843 48 551
vn 1472 506 602
vn 973 826 50
vn 590 977 -85
vn 0 1974 302
vn -590 977 -85
vn -1661 402 -1
vn -1425 -368 -55
vn -756 -1218 -556
vn -734 -951 -794
vn -518 -1181 -379
vn 0 -1938 -236
vn 370 -1192 476
vn 401 -792 419
vn 0 -1506 248
vn 0 -1454 420
vn 0 -658 952
vn 0 -1108 668
vn -401 -792 419
vn 184 -1690 978
vn -539 -909 -47
vn -821 -330 -393
vn -506 -974 -600
vn -424 -970 -64
vn -858 17 -91
vn -832 471 -512
vn -183 783 -514
vn -21 -448 -702
vn 0 -1494 -28
vn -830 -1161 -93
vn -718 -1061 -160
vn -692 -874 -549
vn -489 -619 -648
vn 0 -2318 -938
vn 0 -932 -280
vn 518 -1181 -379
vn 824 -1141 111
vn -370 -1192 476
vn 0 -810 298
vn -608 951 141
vn -49 539 -595
vn 477 -992 -608
vn 830 -1161 -93
vn 0 -1460 -376
vn -913 -1234 -483
vn 913 -1234 -483
vn 489 -619 -648
vn 734 -951 -794
vn 539 -909 -47
vn 895 -303 -630
vn 1425 -368 -55
vn 756 -1218 -556
vn 424 -970 -64
vn 718 -1061 -160
vn 887 8 -77
vn 1661 402 -1
vn 1883 -456 -327
vn 692 -874 -549
vn 608 951 141
vn 314 802 -507
vn 628 411 -44
vn 902 -233 683
vn 492 -372 401
vn 1357 781 -859
vn 145 926 -443
vn 537 1169 316
vn 1478 193 -180
vn 1480 57 -321
vn 1204 13 -298
vn 1377 -70 4
vn 568 732 371
vn -468 1072 -1212
vn -238 763 -319
vn -359 1083 365
vn -446 202 672
vn -399 330 1228
vn 956 616 197
vn 1235 122 -278
vn 1787 -11 -157
vn 900 -826 167
vn 812 -822 -753
vn 702 -738 -383
vn 868 -585 -540
vn 1236 -35 106
vn 386 580 503
vn -620 664 747
vn -1071 142 -688
vn -1105 -11 -163
vn -1040 431 58
vn -509 -370 874
vn -577 -49 960
vn -452 113 1073
vn 329 401 566
vn 1072 158 398
vn 1012 -30 206
vn 773 -404 508
vn 551 -434 262
vn -347 -687 899
vn -372 -837 675
vn 116 -1007 -266
vn -155 -1169 -945
vn -411 -1208 162
vn -134 -1109 -315
vn 543 -961 -1090
vn 945 535 -581
vn -626 902 315
vn -973 -259 465
vn -570 -737 -1058
vn -522 -518 -557
vn -536 -368 801
vn -500 -133 975
vn -718 11 1142
vn -760 -212 1112
vn -210 -197 1280
vn -115 -1190 -474
vn -570 -1059 91
vn -665 -1029 111
vn -451 -874 -807
vn -938 -654 -541
vn 400 -907 -302
vn 828 463 222
vn -232 952 -71
vn -1023 555 -398
vn -933 -314 361
vn -802 69 1094
vn -1044 -240 -838
vn -724 1152 -365
vn -655 849 148
vn -862 -696 182
vn 616 -1120 219
vn 1065 -41 -109
vn 556 894 -172
vn 830 852 -162
vn -709 831 -59
vn -920 -725 -215
vn 374 -871 -331
vn 1466 -182 -327
vn 539 520 -352
vn -512 264 -599
vn 496 -317 -689
vn -312 -464 -502
vn -930 930 -783
vn -815 1262 205
vn -149 681 -516
vn 620 889 -839
vn 417 759 545
vn -679 588 356
vn -1694 194 -447
vn -1215 200 -230
vn -2245 282 -414
vn -427 850 616
vn 551 251 1040
vn 375 830 326
vn 262 1019 -303
vn 1182 493 -152
vn 968 -120 -834
vn 962 -280 531
vn 873 -301 321
vn 673 602 596
vn -592 722 342
vn -1289 51 224
vn -907 -774 -774
vn -1151 -612 -47
vn -1260 3 -147
vn -1275 -31 -101
vn -912 -240 265
vn -923 -149 671
vn -672 53 239
vn -570 287 239
vn 123 279 1317
vn 290 143 699
vn 780 -331 1049
vn 518 -144 885
vn 396 -93 835
vn 420 -584 1145
vn -566 -650 405
vn 439 -971 1034
vn 598 -158 925
vn 761 38 1141
vn 117 -1136 -1007
vn 114 -1257 -389
vn -126 -850 -70
vn 1150 -77 -168
vn 407 -657 -545
vn 558 -665 -1070
vn 730 -208 1123
vn 504 67 998
vn 488 -450 561
vn 227 -1192 -235
vn 735 -977 158
vn 537 -1045 56
vn 611 -1031 -912
vn 843 -245 -291
vn 848 407 -270
vn 245 1036 -357
vn -962 555 -416
vn -1070 -76 9
vn -631 -822 -666
vn -732 -766 -482
vn 188 -913 210
vn -474 -923 -1169
vn -401 -915 -98
vn 840 -688 -473
vn 695 947 141
vn -852 518 -116
vn -1261 -222 -24
vn -273 -950 133
vn 871 -665 68
vn 681 878 -15
vn -807 909 -247
vn -1225 -44 -302
vn -802 -896 -361
vn 864 -647 -246
vn 691 765 -47
vn -562 786 -101
vn -751 198 -565
vn -188 -456 -413
vn 512 -239 -641
vn 233 512 -304
vn 144 16 -216
usemtl m0
f 1 2 3

usemtl m1
f 1 3 4

usemtl m2
f 1 4 5

usemtl m3
f 1 5 6

usemtl m4
f 1 6 7

usemtl m5
f 1 7 8

usemtl m6
f 1 8 2

usemtl m7
f 2 8 9

usemtl m8
f 2 9 10

usemtl m9
f 2 10 11

usemtl m10
f 2 11 3

usemtl m11
f 3 11 12

usemtl m12
f 3 12 13

usemtl m13
f 3 13 4

usemtl m14
f 4 13 14

usemtl m15
f 4 14 5

usemtl m16
f 5 14 15

usemtl m17
f 5 15 16

usemtl m18
f 5 16 17

usemtl m19
f 5 17 18

usemtl m20
f 5 18 6

usemtl m21
f 6 18 7

usemtl m22
f 7 18 19

usemtl m23
f 7 19 20

usemtl m24
f 7 20 8

usemtl m25
f 8 20 21

usemtl m26
f 8 21 9

usemtl m27
f 9 21 22

usemtl m28
f 9 22 23

usemtl m29
f 9 23 10

usemtl m30
f 10 23 24

usemtl m31
f 10 24 25

usemtl m32
f 10 25 11

usemtl m33
f 11 25 26

usemtl m34
f 11 26 27

usemtl m35
f 11 27 12

usemtl m36
f 12 27 28

usemtl m37
f 12 28 13

usemtl m38
f 13 28 29

usemtl m39
f 13 29 30

usemtl m40
f 13 30 31

usemtl m41
f 13 31 14

usemtl m42
f 14 31 32

usemtl m43
f 14 32 15

usemtl m44
f 15 32 33

usemtl m45
f 15 33 34

usemtl m46
f 15 34 35

usemtl m47
f 15 35 36

usemtl m48
f 15 36 16

usemtl m49
f 16 36 37

usemtl m50
f 16 37 38

usemtl m51
f 16 38 19

usemtl m52
f 16 19 17

usemtl m53
f 17 19 18

usemtl m54
f 19 39 40

usemtl m55
f 19 40 41

usemtl m56
f 19 41 20

usemtl m57
f 20 41 42

usemtl m58
f 20 42 22

usemtl m59
f 20 22 21

usemtl m60
f 40 39 43

usemtl m61
f 40 43 44

usemtl m62
f 40 44 45

usemtl m63
f 40 45 41

usemtl m64
f 41 45 24

usemtl m65
f 41 24 42

usemtl m66
f 42 24 23

usemtl m67
f 42 23 22

usemtl m68
f 46 47 48

usemtl m69
f 46 48 49

usemtl m70
f 46 49 34

usemtl m71
f 46 34 33

usemtl m72
f 46 33 47

usemtl m73
f 47 33 50

usemtl m74
f 47 50 51

usemtl m75
f 47 51 48

usemtl m76
f 48 51 52

usemtl m77
f 48 52 53

usemtl m78
f 48 53 54

usemtl m79
f 48 54 55

usemtl m80
f 48 55 49

usemtl m81
f 49 55 56

usemtl m82
f 49 56 34

usemtl m83
f 34 56 57

usemtl m84
f 34 57 35

usemtl m85
f 35 57 58

usemtl m86
f 35 58 59

usemtl m87
f 35 59 36

usemtl m88
f 36 59 60

usemtl m89
f 36 60 37

usemtl m90
f 37 60 61

usemtl m91
f 37 61 62

usemtl m92
f 37 62 63

usemtl m93
f 37 63 64

usemtl m94
f 37 64 38

usemtl m95
f 38 64 43

usemtl m96
f 38 43 39

usemtl m97
f 38 39 19

usemtl m98
f 31 65 32

usemtl m99
f 32 65 51

usemtl m100
f 32 51 50

usemtl m101
f 32 50 33

usemtl m102
f 52 51 65

usemtl m103
f 52 65 30

usemtl m104
f 52 30 66

usemtl m105
f 52 66 53

usemtl m106
f 53 66 67

usemtl m107
f 53 67 54

usemtl m108
f 54 67 68

usemtl m109
f 54 68 69

usemtl m110
f 54 69 55

usemtl m111
f 55 69 70

usemtl m112
f 55 70 56

usemtl m113
f 56 70 57

usemtl m114
f 57 70 58

usemtl m115
f 58 70 59

usemtl m116
f 59 70 69

usemtl m117
f 59 69 71

usemtl m118
f 59 71 72

usemtl m119
f 59 72 73

usemtl m120
f 59 73 61

usemtl m121
f 59 61 60

usemtl m122
f 30 65 31

usemtl m123
f 74 67 75

usemtl m124
f 74 75 76

usemtl m125
f 74 76 77

usemtl m126
f 74 77 78

usemtl m127
f 74 78 67

usemtl m128
f 67 78 68

usemtl m129
f 68 78 79

usemtl m130
f 68 79 71

usemtl m131
f 68 71 69

usemtl m132
f 76 75 80

usemtl m133
f 76 80 81

usemtl m134
f 76 81 82

usemtl m135
f 76 82 77

usemtl m136
f 77 82 73

usemtl m137
f 77 73 83

usemtl m138
f 77 83 79

usemtl m139
f 77 79 78

usemtl m140
f 82 81 28

usemtl m141
f 82 28 27

usemtl m142
f 82 27 62

usemtl m143
f 82 62 61

usemtl m144
f 82 61 73

usemtl m145
f 81 29 28

usemtl m146
f 29 81 84

usemtl m147
f 29 84 30

usemtl m148
f 30 84 85

usemtl m149
f 30 85 66

usemtl m150
f 66 85 67

usemtl m151
f 67 85 75

usemtl m152
f 75 85 86

usemtl m153
f 86 85 84

usemtl m154
f 86 84 81

usemtl m155
f 86 81 80

usemtl m156
f 27 87 88

usemtl m157
f 27 88 62

usemtl m158
f 62 88 45

usemtl m159
f 62 45 63

usemtl m160
f 63 45 44

usemtl m161
f 63 44 43

usemtl m162
f 63 43 64

usemtl m163
f 26 87 27

usemtl m164
f 87 26 25

usemtl m165
f 87 25 45

usemtl m166
f 87 45 88

usemtl m167
f 45 25 24

usemtl m168
f 83 72 71

usemtl m169
f 83 71 79

usemtl m170
f 72 83 73

usemtl m171
f 89 90 91

usemtl m172
f 89 91 92

usemtl m173
f 89 92 93

usemtl m174
f 89 93 94

usemtl m175
f 89 94 95

usemtl m176
f 89 95 96

usemtl m177
f 89 96 97

usemtl m178
f 89 97 90

usemtl m179
f 90 97 98

usemtl m180
f 90 98 99

usemtl m181
f 90 99 91

usemtl m182
f 91 99 100

usemtl m183
f 91 100 101

usemtl m184
f 91 101 102

usemtl m185
f 91 102 92

usemtl m186
f 92 102 103

usemtl m187
f 92 103 104

usemtl m188
f 92 104 93

usemtl m189
f 93 104 105

usemtl m190
f 93 105 106

usemtl m191
f 93 106 94

usemtl m192
f 94 106 107

usemtl m193
f 94 107 95

usemtl m194
f 95 107 108

usemtl m195
f 95 108 109

usemtl m196
f 95 109 96

usemtl m197
f 96 109 110

usemtl m198
f 96 110 111

usemtl m199
f 96 111 97

usemtl m200
f 97 111 112

usemtl m201
f 97 112 113

usemtl m202
f 97 113 114

usemtl m203
f 97 114 98

usemtl m204
f 98 114 99

usemtl m205
f 99 114 100

usemtl m206
f 100 114 115

usemtl m207
f 100 115 101

usemtl m208
f 101 115 116

usemtl m209
f 101 116 117

usemtl m210
f 101 117 118

usemtl m211
f 101 118 102

usemtl m212
f 102 118 119

usemtl m213
f 102 119 103

usemtl m214
f 103 119 120

usemtl m215
f 103 120 104

usemtl m216
f 104 120 121

usemtl m217
f 104 121 122

usemtl m218
f 104 122 105

usemtl m219
f 105 122 123

usemtl m220
f 105 123 124

usemtl m221
f 105 124 125

usemtl m222
f 105 125 106

usemtl m223
f 106 125 126

usemtl m224
f 106 126 127

usemtl m225
f 106 127 107

usemtl m226
f 107 127 128

usemtl m227
f 107 128 108

usemtl m228
f 108 128 129

usemtl m229
f 108 129 109

usemtl m230
f 109 129 130

usemtl m231
f 109 130 110

usemtl m232
f 110 130 131

usemtl m233
f 110 131 111

usemtl m234
f 111 131 132

usemtl m235
f 111 132 112

usemtl m236
f 112 132 133

usemtl m237
f 112 133 134

usemtl m238
f 112 134 113

usemtl m239
f 113 134 135

usemtl m240
f 113 135 136

usemtl m241
f 113 136 137

usemtl m242
f 113 137 114

usemtl m243
f 114 137 115

usemtl m244
f 115 137 116

usemtl m245
f 116 137 138

usemtl m246
f 116 138 117

usemtl m247
f 117 138 139

usemtl m248
f 117 139 119

usemtl m249
f 117 119 118

usemtl m250
f 119 139 120

usemtl m251
f 120 139 121

usemtl m252
f 121 139 123

usemtl m253
f 121 123 122

usemtl m254
f 126 125 140

usemtl m255
f 126 140 133

usemtl m256
f 126 133 141

usemtl m257
f 126 141 127

usemtl m258
f 127 141 142

usemtl m259
f 127 142 128

usemtl m260
f 128 142 143

usemtl m261
f 128 143 129

usemtl m262
f 129 143 144

usemtl m263
f 129 144 145

usemtl m264
f 129 145 130

usemtl m265
f 130 145 146

usemtl m266
f 130 146 147

usemtl m267
f 130 147 131

usemtl m268
f 131 147 148

usemtl m269
f 131 148 149

usemtl m270
f 131 149 132

usemtl m271
f 132 149 141

usemtl m272
f 132 141 133

usemtl m273
f 140 134 133

usemtl m274
f 134 140 135

usemtl m275
f 135 140 124

usemtl m276
f 135 124 150

usemtl m277
f 135 150 136

usemtl m278
f 136 150 138

usemtl m279
f 136 138 137

usemtl m280
f 124 140 125

usemtl m281
f 150 123 139

usemtl m282
f 150 139 138

usemtl m283
f 149 142 141

usemtl m284
f 142 149 151

usemtl m285
f 142 151 143

usemtl m286
f 143 151 144

usemtl m287
f 144 151 152

usemtl m288
f 144 152 153

usemtl m289
f 144 153 154

usemtl m290
f 144 154 145

usemtl m291
f 145 154 155

usemtl m292
f 145 155 146

usemtl m293
f 146 155 156

usemtl m294
f 146 156 157

usemtl m295
f 146 157 152

usemtl m296
f 146 152 147

usemtl m297
f 147 152 148

usemtl m298
f 148 152 151

usemtl m299
f 148 151 149

usemtl m300
f 157 153 152

usemtl m301
f 153 157 158

usemtl m302
f 153 158 159

usemtl m303
f 153 159 154

usemtl m304
f 154 159 160

usemtl m305
f 154 160 155

usemtl m306
f 155 160 161

usemtl m307
f 155 161 162

usemtl m308
f 155 162 156

usemtl m309
f 156 162 158

usemtl m310
f 156 158 157

usemtl m311
f 163 164 159

usemtl m312
f 163 159 158

usemtl m313
f 163 158 162

usemtl m314
f 163 162 165

usemtl m315
f 163 165 164

usemtl m316
f 164 165 166

usemtl m317
f 164 166 160

usemtl m318
f 164 160 159

usemtl m319
f 166 165 161

usemtl m320
f 166 161 160

usemtl m321
f 165 162 161

usemtl m322
f 123 150 124

usemtl m323
f 167 168 169

usemtl m324
f 167 169 170

usemtl m325
f 167 170 171

usemtl m326
f 167 171 172

usemtl m327
f 167 172 173

usemtl m328
f 167 173 174

usemtl m329
f 167 174 168

usemtl m330
f 168 174 175

usemtl m331
f 168 175 176

usemtl m332
f 168 176 177

usemtl m333
f 168 177 178

usemtl m334
f 168 178 179

usemtl m335
f 168 179 169

usemtl m336
f 169 179 170

usemtl m337
f 170 179 180

usemtl m338
f 170 180 181

usemtl m339
f 170 181 182

usemtl m340
f 170 182 171

usemtl m341
f 171 182 183

usemtl m342
f 171 183 184

usemtl m343
f 171 184 172

usemtl m344
f 172 184 185

usemtl m345
f 172 185 186

usemtl m346
f 172 186 173

usemtl m347
f 173 186 187

usemtl m348
f 173 187 188

usemtl m349
f 173 188 189

usemtl m350
f 173 189 174

usemtl m351
f 174 189 175

usemtl m352
f 175 189 190

usemtl m353
f 175 190 191

usemtl m354
f 175 191 192

usemtl m355
f 175 192 193

usemtl m356
f 175 193 194

usemtl m357
f 175 194 176

usemtl m358
f 176 194 195

usemtl m359
f 176 195 196

usemtl m360
f 176 196 177

usemtl m361
f 177 196 197

usemtl m362
f 177 197 198

usemtl m363
f 177 198 180

usemtl m364
f 177 180 178

usemtl m365
f 178 180 179

usemtl m366
f 195 194 193

usemtl m367
f 195 193 192

usemtl m368
f 195 192 199

usemtl m369
f 195 199 197

usemtl m370
f 195 197 196

usemtl m371
f 200 191 201

usemtl m372
f 200 201 202

usemtl m373
f 200 202 203

usemtl m374
f 200 203 204

usemtl m375
f 200 204 199

usemtl m376
f 200 199 192

usemtl m377
f 200 192 191

usemtl m378
f 187 205 206

usemtl m379
f 187 206 207

usemtl m380
f 187 207 188

usemtl m381
f 188 207 202

usemtl m382
f 188 202 201

usemtl m383
f 188 201 190

usemtl m384
f 188 190 189

usemtl m385
f 208 209 210

usemtl m386
f 208 210 181

usemtl m387
f 208 181 180

usemtl m388
f 208 180 211

usemtl m389
f 208 211 212

usemtl m390
f 208 212 213

usemtl m391
f 208 213 209

usemtl m392
f 209 213 206

usemtl m393
f 209 206 205

usemtl m394
f 209 205 210

usemtl m395
f 210 205 214

usemtl m396
f 210 214 215

usemtl m397
f 210 215 181

usemtl m398
f 181 215 182

usemtl m399
f 182 215 216

usemtl m400
f 182 216 183

usemtl m401
f 183 216 217

usemtl m402
f 183 217 218

usemtl m403
f 183 218 184

usemtl m404
f 184 218 219

usemtl m405
f 184 219 220

usemtl m406
f 184 220 185

usemtl m407
f 185 220 221

usemtl m408
f 185 221 222

usemtl m409
f 185 222 186

usemtl m410
f 186 222 223

usemtl m411
f 186 223 187

usemtl m412
f 187 223 205

usemtl m413
f 205 223 214

usemtl m414
f 214 223 224

usemtl m415
f 214 224 225

usemtl m416
f 214 225 215

usemtl m417
f 215 225 216

usemtl m418
f 216 225 226

usemtl m419
f 216 226 217

usemtl m420
f 217 226 227

usemtl m421
f 217 227 228

usemtl m422
f 217 228 218

usemtl m423
f 218 228 219

usemtl m424
f 219 228 229

usemtl m425
f 219 229 220

usemtl m426
f 220 229 221

usemtl m427
f 221 229 230

usemtl m428
f 221 230 226

usemtl m429
f 221 226 224

usemtl m430
f 221 224 222

usemtl m431
f 222 224 223

usemtl m432
f 202 206 213

usemtl m433
f 202 213 212

usemtl m434
f 202 212 203

usemtl m435
f 203 212 211

usemtl m436
f 203 211 204

usemtl m437
f 204 211 198

usemtl m438
f 204 198 197

usemtl m439
f 204 197 199

usemtl m440
f 202 207 206

usemtl m441
f 211 180 198

usemtl m442
f 224 226 225

usemtl m443
f 230 227 226

usemtl m444
f 227 230 231

usemtl m445
f 227 231 232

usemtl m446
f 227 232 228

usemtl m447
f 228 232 233

usemtl m448
f 228 233 229

usemtl m449
f 229 233 234

usemtl m450
f 229 234 230

usemtl m451
f 230 234 235

usemtl m452
f 230 235 231

usemtl m453
f 231 235 236

usemtl m454
f 231 236 237

usemtl m455
f 231 237 232

usemtl m456
f 232 237 233

usemtl m457
f 233 237 238

usemtl m458
f 233 238 234

usemtl m459
f 234 238 239

usemtl m460
f 234 239 235

usemtl m461
f 235 239 240

usemtl m462
f 235 240 236

usemtl m463
f 236 240 241

usemtl m464
f 236 241 237

usemtl m465
f 237 241 242

usemtl m466
f 237 242 238

usemtl m467
f 238 242 243

usemtl m468
f 238 243 239

usemtl m469
f 239 243 244

usemtl m470
f 239 244 240

usemtl m471
f 240 244 241

usemtl m472
f 241 244 243

usemtl m473
f 241 243 242

usemtl m474
f 201 191 190

usemtl m475
f 80 75 245

