mtllib 33162.mtl
o runescapemodel
v 35 0 37
v 25 26 40
v 0 0 64
v 32 0 64
v 64 -44 64
v 64 -16 40
v 64 -5 1
v 58 15 13
v 37 30 -1
v 17 51 -1
v -7 38 28
v -36 8 52
v -64 0 64
v -56 4 35
v -64 0 -1
v -37 40 -1
v -38 20 -33
v -64 0 -64
v -34 28 -43
v -26 44 -64
v -4 38 -34
v 11 53 -47
v 6 52 -64
v 37 46 -45
v 33 41 -64
v 51 16 -44
v 45 14 -64
v 52 -14 -64
v 64 6 -16
v 64 -32 -31
v 64 -39 -64
v 21 38 -24
v 38 31 -26
vn 0 0 0
vn 0 0 0
vn 0 -213 -142
vn 0 0 0
vn 0 0 0
vn 0 0 0
vn 0 0 0
vn 0 0 0
vn 0 0 0
vn 0 0 0
vn 0 0 0
vn -63 -460 -158
vn -177 -689 -158
vn -177 -476 -16
vn -270 -431 0
vn 0 0 0
vn -156 -202 0
vn -156 -202 0
vn 0 0 0
vn 0 0 0
vn 0 0 0
vn 0 0 0
vn 0 0 0
vn 0 0 0
vn 0 0 0
vn 0 0 0
vn 0 0 0
vn 0 0 0
vn 0 0 0
vn 0 0 0
vn 0 0 0
vn 0 0 0
vn 0 0 0
usemtl m0
f 1 2 3

usemtl m1
f 1 3 4

usemtl m2
f 1 4 5

usemtl m3
f 1 5 6

usemtl m4
f 1 6 7

usemtl m5
f 1 7 8

usemtl m6
f 1 8 9

usemtl m7
f 1 9 2

usemtl m8
f 2 9 10

usemtl m9
f 2 10 11

usemtl m10
f 2 11 3

usemtl m11
f 3 11 12

usemtl m12
f 3 12 13

usemtl m13
f 13 12 14

usemtl m14
f 13 14 15

usemtl m15
f 15 14 16

usemtl m16
f 15 16 17

usemtl m17
f 15 17 18

usemtl m18
f 18 17 19

usemtl m19
f 18 19 20

usemtl m20
f 20 19 21

usemtl m21
f 20 21 22

usemtl m22
f 20 22 23

usemtl m23
f 23 22 24

usemtl m24
f 23 24 25

usemtl m25
f 25 24 26

usemtl m26
f 25 26 27

usemtl m27
f 27 26 28

usemtl m28
f 28 26 29

usemtl m29
f 28 29 30

usemtl m30
f 28 30 31

usemtl m31
f 22 21 32

usemtl m32
f 22 32 24

usemtl m33
f 24 32 33

usemtl m34
f 24 33 26

usemtl m35
f 26 33 29

usemtl m36
f 29 33 9

usemtl m37
f 29 9 8

usemtl m38
f 29 8 7

usemtl m39
f 29 7 30

usemtl m40
f 21 16 10

usemtl m41
f 21 10 32

usemtl m42
f 32 10 9

usemtl m43
f 32 9 33

usemtl m44
f 16 11 10

usemtl m45
f 11 16 12

usemtl m46
f 12 16 14

usemtl m47
f 21 17 16

usemtl m48
f 17 21 19

