mtllib 33254.mtl
o runescapemodel
v -76 80 2
v -80 80 2
v -82 19 4
v -74 19 4
v -76 80 -2
v -76 99 -2
v -76 99 2
v -80 99 2
v -80 80 -2
v -82 19 -4
v -84 0 -6
v -84 0 6
v -72 0 6
v -74 19 -4
v -80 99 -2
v -80 125 -2
v -76 125 -2
v -76 125 2
v -80 125 2
v -72 0 -6
v -80 154 2
v -80 154 -2
v -76 154 -2
v -76 154 2
v -76 183 2
v -80 183 2
v -80 183 -2
v -76 183 -2
v -76 218 -2
v -76 218 2
v -80 218 2
v -80 218 -2
v -80 258 -2
v -76 258 -2
v -76 258 2
v -80 258 2
v -80 303 2
v -80 303 -2
v -76 303 -2
v -76 303 2
v -144 301 -30
v -128 309 -22
v -126 310 -34
v -136 310 -16
v -122 314 -10
v -116 311 -18
v -114 314 -28
v -100 309 -10
v -98 310 0
v -92 310 -14
v -78 303 0
v -14 301 32
v -30 309 24
v -32 310 36
v -22 310 18
v -36 314 12
v -42 311 20
v -44 314 30
v -58 309 12
v -60 310 2
v -66 310 16
v -148 122 22
v -130 130 16
v -138 131 8
v -132 131 26
v -118 135 22
v -120 132 12
v -124 135 4
v -102 130 8
v -94 131 14
v -98 131 -2
v -78 124 0
v -10 122 -20
v -28 130 -14
v -20 131 -6
v -26 131 -24
v -40 135 -20
v -38 132 -10
v -34 135 -2
v -56 130 -6
v -64 131 -12
v -60 131 4
v -150 78 0
v -132 85 0
v -136 86 -10
v -136 86 10
v -122 90 10
v -120 88 0
v -122 90 -10
v -102 85 0
v -96 86 8
v -96 86 -8
v -78 79 0
v -6 78 0
v -24 85 0
v -20 86 10
v -20 86 -10
v -34 90 -10
v -36 88 0
v -34 90 10
v -54 85 0
v -60 86 -8
v -60 86 8
v -150 182 0
v -132 190 0
v -136 191 -10
v -136 191 10
v -122 194 10
v -120 192 0
v -122 194 -10
v -102 190 0
v -96 191 8
v -96 191 -8
v -78 183 0
v -6 182 0
v -24 190 0
v -20 191 10
v -20 191 -10
v -34 194 -10
v -36 192 0
v -34 194 10
v -54 190 0
v -60 191 -8
v -60 191 8
v -146 257 30
v -128 264 22
v -136 265 14
v -128 265 34
v -116 269 28
v -118 267 18
v -124 269 10
v -102 264 10
v -92 265 16
v -98 265 0
v -78 258 0
v -12 257 -28
v -30 264 -20
v -22 265 -12
v -30 265 -32
v -42 269 -26
v -40 267 -16
v -34 269 -8
v -56 264 -8
v -66 265 -14
v -60 265 2
v -148 152 -22
v -130 160 -16
v -130 161 -28
v -138 161 -8
v -124 165 -4
v -118 162 -12
v -118 165 -22
v -102 160 -6
v -98 161 2
v -94 161 -12
v -78 154 0
v -10 152 24
v -28 160 18
v -28 161 30
v -20 161 10
v -34 165 6
v -40 162 14
v -40 165 24
v -56 160 8
v -60 161 0
v -64 161 14
v -150 217 -10
v -132 224 -8
v -134 226 -18
v -138 226 2
v -124 229 4
v -120 227 -6
v -120 229 -16
v -102 224 -2
v -98 226 6
v -96 226 -10
v -78 218 0
v -8 217 12
v -26 224 10
v -24 226 20
v -20 226 0
v -34 229 -2
v -38 227 8
v -38 229 18
v -56 224 4
v -60 226 -4
v -62 226 12
v -136 98 -44
v -122 105 -32
v -118 106 -44
v -130 106 -28
v -120 110 -18
v -112 108 -26
v -108 110 -34
v -98 105 -14
v -98 106 -4
v -88 106 -16
v -78 99 0
v -22 98 46
v -36 105 34
v -40 106 46
v -28 106 30
v -38 110 20
v -46 108 28
v -50 110 36
v -60 105 16
v -60 106 6
v -70 106 18
vn 768 -24 -768
vn -768 -24 -768
vn -766 -102 -768
vn 768 -102 -766
vn 768 -24 768
vn 768 0 768
vn 768 0 -768
vn -768 0 -768
vn -768 -24 768
vn -768 -102 766
vn -510 -78 254
vn -254 -78 -510
vn 510 -78 -254
vn 766 -102 768
vn -768 0 768
vn -768 0 768
vn 768 0 768
vn 768 0 -768
vn -768 0 -768
vn 254 -78 510
vn -768 0 -768
vn -768 0 768
vn 768 0 768
vn 768 0 -768
vn 768 0 -768
vn -768 0 -768
vn -768 0 768
vn 768 0 768
vn 768 0 768
vn 768 0 -768
vn -768 0 -768
vn -768 0 768
vn -768 0 768
vn 768 0 768
vn 768 0 -768
vn -768 0 -768
vn -512 -512 -256
vn -256 -256 512
vn 512 -512 256
vn 256 -256 -512
vn 0 0 0
vn 76 -1 166
vn -64 -241 -56
vn 8 238 -86
vn -68 1 35
vn -5 0 16
vn 40 6 -48
vn -66 0 -128
vn 52 -246 44
vn 3 249 69
vn 0 0 0
vn 0 0 0
vn -76 -1 -166
vn 64 -241 56
vn -8 238 86
vn 68 1 -35
vn 5 0 -16
vn -40 6 48
vn 66 0 128
vn -52 -246 -44
vn -3 249 -69
vn 0 0 0
vn -58 -7 173
vn -16 -241 -86
vn 67 240 -51
vn -81 2 -22
vn -4 1 -8
vn 57 -2 15
vn 40 4 -156
vn 11 -246 70
vn -40 246 59
vn 0 0 0
vn 0 0 0
vn 58 -7 -173
vn 16 -241 86
vn -67 240 51
vn 81 2 22
vn 4 1 8
vn -57 -2 -15
vn -40 4 156
vn -11 -246 -70
vn 40 246 -59
vn 0 0 0
vn 0 0 126
vn -59 -241 -58
vn 59 241 -58
vn -100 5 -5
vn 0 0 26
vn 100 -5 -5
vn 0 0 -72
vn 42 -247 47
vn -42 247 47
vn 0 0 0
vn 0 0 0
vn 0 0 -126
vn 59 -241 58
vn -59 241 58
vn 100 5 5
vn 0 0 -26
vn -100 -5 5
vn 0 0 72
vn -42 -247 -47
vn 42 247 -47
vn 0 0 0
vn 0 0 122
vn -41 -245 -55
vn 41 245 -55
vn -68 -1 -6
vn 0 0 20
vn 68 1 -6
vn 0 0 -84
vn 27 -251 47
vn -27 251 47
vn 0 0 0
vn 0 0 0
vn 0 0 -122
vn 41 -245 55
vn -41 245 55
vn 68 -1 6
vn 0 0 -20
vn -68 1 6
vn 0 0 84
vn -27 -251 -47
vn 27 251 -47
vn 0 0 0
vn -48 -2 125
vn -38 -239 -85
vn 85 241 -29
vn -95 7 -39
vn -16 -2 26
vn 104 -1 36
vn 24 -1 -63
vn 18 -248 57
vn -64 245 32
vn 0 0 0
vn 0 0 0
vn 48 -2 -125
vn 38 -239 85
vn -85 241 29
vn 95 7 39
vn 16 -2 -26
vn -104 -1 -36
vn -24 -1 63
vn -18 -248 -57
vn 64 245 -32
vn 0 0 0
vn 74 -1 187
vn -66 -233 -67
vn 10 239 -89
vn -70 -4 5
vn -8 11 27
vn 53 7 -38
vn -40 1 -133
vn 52 -246 54
vn -5 247 66
vn 0 0 0
vn 0 0 0
vn -74 -1 -187
vn 66 -233 67
vn -10 239 89
vn 70 -4 -5
vn 8 11 -27
vn -53 7 38
vn 40 1 133
vn -52 -246 -54
vn 5 247 -66
vn 0 0 0
vn 15 -1 112
vn -69 -243 -50
vn 48 242 -69
vn -98 -1 5
vn 9 6 36
vn 93 -9 -12
vn -4 3 -63
vn 56 -243 47
vn -29 246 57
vn 0 0 0
vn 0 0 0
vn -15 -1 -112
vn 69 -243 50
vn -48 242 69
vn 98 -1 -5
vn -9 6 -36
vn -93 -9 12
vn 4 3 63
vn -56 -243 -47
vn 29 246 -57
vn 0 0 0
vn 81 -7 87
vn -86 -241 -13
vn 22 241 -87
vn -81 7 70
vn 3 1 27
vn 61 -1 -67
vn -46 2 -60
vn 65 -247 10
vn 2 248 66
vn 0 0 0
vn 0 0 0
vn -81 -7 -87
vn 86 -241 13
vn -22 241 87
vn 81 7 -70
vn -3 1 -27
vn -61 -1 67
vn 46 2 60
vn -65 -247 -10
vn -2 248 -66
usemtl m0
f 1 2 3

usemtl m1
f 1 3 4

usemtl m2
f 1 4 5

usemtl m3
f 1 5 6

usemtl m4
f 1 6 7

usemtl m5
f 1 7 2

usemtl m6
f 2 7 8

usemtl m7
f 2 8 9

usemtl m8
f 2 9 10

usemtl m9
f 2 10 3

usemtl m10
f 3 10 11

usemtl m11
f 3 11 12

usemtl m12
f 3 12 4

usemtl m13
f 4 12 13

usemtl m14
f 4 13 14

usemtl m15
f 4 14 5

usemtl m16
f 5 14 9

usemtl m17
f 5 9 15

usemtl m18
f 5 15 6

usemtl m19
f 6 15 16

usemtl m20
f 6 16 17

usemtl m21
f 6 17 7

usemtl m22
f 7 17 18

usemtl m23
f 7 18 8

usemtl m24
f 8 18 19

usemtl m25
f 8 19 15

usemtl m26
f 8 15 9

usemtl m27
f 9 14 10

usemtl m28
f 10 14 20

usemtl m29
f 10 20 11

usemtl m30
f 19 16 15

usemtl m31
f 16 19 21

usemtl m32
f 16 21 22

usemtl m33
f 16 22 17

usemtl m34
f 17 22 23

usemtl m35
f 17 23 18

usemtl m36
f 18 23 24

usemtl m37
f 18 24 19

usemtl m38
f 19 24 21

usemtl m39
f 21 24 25

usemtl m40
f 21 25 26

usemtl m41
f 21 26 22

usemtl m42
f 22 26 27

usemtl m43
f 22 27 23

usemtl m44
f 23 27 28

usemtl m45
f 23 28 24

usemtl m46
f 24 28 25

usemtl m47
f 25 28 29

usemtl m48
f 25 29 30

usemtl m49
f 25 30 26

usemtl m50
f 26 30 31

usemtl m51
f 26 31 27

usemtl m52
f 27 31 32

usemtl m53
f 27 32 28

usemtl m54
f 28 32 29

usemtl m55
f 29 32 33

usemtl m56
f 29 33 34

usemtl m57
f 29 34 30

usemtl m58
f 30 34 35

usemtl m59
f 30 35 31

usemtl m60
f 31 35 36

usemtl m61
f 31 36 32

usemtl m62
f 32 36 33

usemtl m63
f 33 36 37

usemtl m64
f 33 37 38

usemtl m65
f 33 38 34

usemtl m66
f 34 38 39

usemtl m67
f 34 39 35

usemtl m68
f 35 39 40

usemtl m69
f 35 40 36

usemtl m70
f 36 40 37

usemtl m71
f 37 40 39

usemtl m72
f 37 39 38

usemtl m73
f 14 13 20

usemtl m74
f 41 42 43

usemtl m75
f 41 43 42

usemtl m76
f 41 42 44

usemtl m77
f 41 44 42

usemtl m78
f 42 44 45

usemtl m79
f 42 45 46

usemtl m80
f 42 46 43

usemtl m81
f 42 43 47

usemtl m82
f 42 47 46

usemtl m83
f 42 46 44

usemtl m84
f 44 46 45

usemtl m85
f 45 46 48

usemtl m86
f 45 48 49

usemtl m87
f 45 49 46

usemtl m88
f 46 49 48

usemtl m89
f 46 48 47

usemtl m90
f 46 47 43

usemtl m91
f 47 48 50

usemtl m92
f 47 50 46

usemtl m93
f 46 50 48

usemtl m94
f 48 50 51

usemtl m95
f 48 51 50

usemtl m96
f 51 48 49

usemtl m97
f 51 49 48

usemtl m98
f 52 53 54

usemtl m99
f 52 54 53

usemtl m100
f 52 53 55

usemtl m101
f 52 55 53

usemtl m102
f 53 55 56

usemtl m103
f 53 56 57

usemtl m104
f 53 57 54

usemtl m105
f 53 54 58

usemtl m106
f 53 58 57

usemtl m107
f 53 57 55

usemtl m108
f 55 57 56

usemtl m109
f 56 57 59

usemtl m110
f 56 59 60

usemtl m111
f 56 60 57

usemtl m112
f 57 60 59

usemtl m113
f 57 59 58

usemtl m114
f 57 58 54

usemtl m115
f 58 59 61

usemtl m116
f 58 61 57

usemtl m117
f 57 61 59

usemtl m118
f 59 61 51

usemtl m119
f 59 51 61

usemtl m120
f 51 59 60

usemtl m121
f 51 60 59

usemtl m122
f 62 63 64

usemtl m123
f 62 64 63

usemtl m124
f 62 63 65

usemtl m125
f 62 65 63

usemtl m126
f 63 65 66

usemtl m127
f 63 66 67

usemtl m128
f 63 67 64

usemtl m129
f 63 64 68

usemtl m130
f 63 68 67

usemtl m131
f 63 67 65

usemtl m132
f 65 67 66

usemtl m133
f 66 67 69

usemtl m134
f 66 69 70

usemtl m135
f 66 70 67

usemtl m136
f 67 70 69

usemtl m137
f 67 69 68

usemtl m138
f 67 68 64

usemtl m139
f 68 69 71

usemtl m140
f 68 71 67

usemtl m141
f 67 71 69

usemtl m142
f 69 71 72

usemtl m143
f 69 72 71

usemtl m144
f 72 69 70

usemtl m145
f 72 70 69

usemtl m146
f 73 74 75

usemtl m147
f 73 75 74

usemtl m148
f 73 74 76

usemtl m149
f 73 76 74

usemtl m150
f 74 76 77

usemtl m151
f 74 77 78

usemtl m152
f 74 78 75

usemtl m153
f 74 75 79

usemtl m154
f 74 79 78

usemtl m155
f 74 78 76

usemtl m156
f 76 78 77

usemtl m157
f 77 78 80

usemtl m158
f 77 80 81

usemtl m159
f 77 81 78

usemtl m160
f 78 81 80

usemtl m161
f 78 80 79

usemtl m162
f 78 79 75

usemtl m163
f 79 80 82

usemtl m164
f 79 82 78

usemtl m165
f 78 82 80

usemtl m166
f 80 82 72

usemtl m167
f 80 72 82

usemtl m168
f 72 80 81

usemtl m169
f 72 81 80

usemtl m170
f 83 84 85

usemtl m171
f 83 85 84

usemtl m172
f 83 84 86

usemtl m173
f 83 86 84

usemtl m174
f 84 86 87

usemtl m175
f 84 87 88

usemtl m176
f 84 88 85

usemtl m177
f 84 85 89

usemtl m178
f 84 89 88

usemtl m179
f 84 88 86

usemtl m180
f 86 88 87

usemtl m181
f 87 88 90

usemtl m182
f 87 90 91

usemtl m183
f 87 91 88

usemtl m184
f 88 91 90

usemtl m185
f 88 90 89

usemtl m186
f 88 89 85

usemtl m187
f 89 90 92

usemtl m188
f 89 92 88

usemtl m189
f 88 92 90

usemtl m190
f 90 92 93

usemtl m191
f 90 93 92

usemtl m192
f 93 90 91

usemtl m193
f 93 91 90

usemtl m194
f 94 95 96

usemtl m195
f 94 96 95

usemtl m196
f 94 95 97

usemtl m197
f 94 97 95

usemtl m198
f 95 97 98

usemtl m199
f 95 98 99

usemtl m200
f 95 99 96

usemtl m201
f 95 96 100

usemtl m202
f 95 100 99

usemtl m203
f 95 99 97

usemtl m204
f 97 99 98

usemtl m205
f 98 99 101

usemtl m206
f 98 101 102

usemtl m207
f 98 102 99

usemtl m208
f 99 102 101

usemtl m209
f 99 101 100

usemtl m210
f 99 100 96

usemtl m211
f 100 101 103

usemtl m212
f 100 103 99

usemtl m213
f 99 103 101

usemtl m214
f 101 103 93

usemtl m215
f 101 93 103

usemtl m216
f 93 101 102

usemtl m217
f 93 102 101

usemtl m218
f 104 105 106

usemtl m219
f 104 106 105

usemtl m220
f 104 105 107

usemtl m221
f 104 107 105

usemtl m222
f 105 107 108

usemtl m223
f 105 108 109

usemtl m224
f 105 109 106

usemtl m225
f 105 106 110

usemtl m226
f 105 110 109

usemtl m227
f 105 109 107

usemtl m228
f 107 109 108

usemtl m229
f 108 109 111

usemtl m230
f 108 111 112

usemtl m231
f 108 112 109

usemtl m232
f 109 112 111

usemtl m233
f 109 111 110

usemtl m234
f 109 110 106

usemtl m235
f 110 111 113

usemtl m236
f 110 113 109

usemtl m237
f 109 113 111

usemtl m238
f 111 113 114

usemtl m239
f 111 114 113

usemtl m240
f 114 111 112

usemtl m241
f 114 112 111

usemtl m242
f 115 116 117

usemtl m243
f 115 117 116

usemtl m244
f 115 116 118

usemtl m245
f 115 118 116

usemtl m246
f 116 118 119

usemtl m247
f 116 119 120

usemtl m248
f 116 120 117

usemtl m249
f 116 117 121

usemtl m250
f 116 121 120

usemtl m251
f 116 120 118

usemtl m252
f 118 120 119

usemtl m253
f 119 120 122

usemtl m254
f 119 122 123

usemtl m255
f 119 123 120

usemtl m256
f 120 123 122

usemtl m257
f 120 122 121

usemtl m258
f 120 121 117

usemtl m259
f 121 122 124

usemtl m260
f 121 124 120

usemtl m261
f 120 124 122

usemtl m262
f 122 124 114

usemtl m263
f 122 114 124

usemtl m264
f 114 122 123

usemtl m265
f 114 123 122

usemtl m266
f 125 126 127

usemtl m267
f 125 127 126

usemtl m268
f 125 126 128

usemtl m269
f 125 128 126

usemtl m270
f 126 128 129

usemtl m271
f 126 129 130

usemtl m272
f 126 130 127

usemtl m273
f 126 127 131

usemtl m274
f 126 131 130

usemtl m275
f 126 130 128

usemtl m276
f 128 130 129

usemtl m277
f 129 130 132

usemtl m278
f 129 132 133

usemtl m279
f 129 133 130

usemtl m280
f 130 133 132

usemtl m281
f 130 132 131

usemtl m282
f 130 131 127

usemtl m283
f 131 132 134

usemtl m284
f 131 134 130

usemtl m285
f 130 134 132

usemtl m286
f 132 134 135

usemtl m287
f 132 135 134

usemtl m288
f 135 132 133

usemtl m289
f 135 133 132

usemtl m290
f 136 137 138

usemtl m291
f 136 138 137

usemtl m292
f 136 137 139

usemtl m293
f 136 139 137

usemtl m294
f 137 139 140

usemtl m295
f 137 140 141

usemtl m296
f 137 141 138

usemtl m297
f 137 138 142

usemtl m298
f 137 142 141

usemtl m299
f 137 141 139

usemtl m300
f 139 141 140

usemtl m301
f 140 141 143

usemtl m302
f 140 143 144

usemtl m303
f 140 144 141

usemtl m304
f 141 144 143

usemtl m305
f 141 143 142

usemtl m306
f 141 142 138

usemtl m307
f 142 143 145

usemtl m308
f 142 145 141

usemtl m309
f 141 145 143

usemtl m310
f 143 145 135

usemtl m311
f 143 135 145

usemtl m312
f 135 143 144

usemtl m313
f 135 144 143

usemtl m314
f 146 147 148

usemtl m315
f 146 148 147

usemtl m316
f 146 147 149

usemtl m317
f 146 149 147

usemtl m318
f 147 149 150

usemtl m319
f 147 150 151

usemtl m320
f 147 151 148

usemtl m321
f 147 148 152

usemtl m322
f 147 152 151

usemtl m323
f 147 151 149

usemtl m324
f 149 151 150

usemtl m325
f 150 151 153

usemtl m326
f 150 153 154

usemtl m327
f 150 154 151

usemtl m328
f 151 154 153

usemtl m329
f 151 153 152

usemtl m330
f 151 152 148

usemtl m331
f 152 153 155

usemtl m332
f 152 155 151

usemtl m333
f 151 155 153

usemtl m334
f 153 155 156

usemtl m335
f 153 156 155

usemtl m336
f 156 153 154

usemtl m337
f 156 154 153

usemtl m338
f 157 158 159

usemtl m339
f 157 159 158

usemtl m340
f 157 158 160

usemtl m341
f 157 160 158

usemtl m342
f 158 160 161

usemtl m343
f 158 161 162

usemtl m344
f 158 162 159

usemtl m345
f 158 159 163

usemtl m346
f 158 163 162

usemtl m347
f 158 162 160

usemtl m348
f 160 162 161

usemtl m349
f 161 162 164

usemtl m350
f 161 164 165

usemtl m351
f 161 165 162

usemtl m352
f 162 165 164

usemtl m353
f 162 164 163

usemtl m354
f 162 163 159

usemtl m355
f 163 164 166

usemtl m356
f 163 166 162

usemtl m357
f 162 166 164

usemtl m358
f 164 166 156

usemtl m359
f 164 156 166

usemtl m360
f 156 164 165

usemtl m361
f 156 165 164

usemtl m362
f 167 168 169

usemtl m363
f 167 169 168

usemtl m364
f 167 168 170

usemtl m365
f 167 170 168

usemtl m366
f 168 170 171

usemtl m367
f 168 171 172

usemtl m368
f 168 172 169

usemtl m369
f 168 169 173

usemtl m370
f 168 173 172

usemtl m371
f 168 172 170

usemtl m372
f 170 172 171

usemtl m373
f 171 172 174

usemtl m374
f 171 174 175

usemtl m375
f 171 175 172

usemtl m376
f 172 175 174

usemtl m377
f 172 174 173

usemtl m378
f 172 173 169

usemtl m379
f 173 174 176

usemtl m380
f 173 176 172

usemtl m381
f 172 176 174

usemtl m382
f 174 176 177

usemtl m383
f 174 177 176

usemtl m384
f 177 174 175

usemtl m385
f 177 175 174

usemtl m386
f 178 179 180

usemtl m387
f 178 180 179

usemtl m388
f 178 179 181

usemtl m389
f 178 181 179

usemtl m390
f 179 181 182

usemtl m391
f 179 182 183

usemtl m392
f 179 183 180

usemtl m393
f 179 180 184

usemtl m394
f 179 184 183

usemtl m395
f 179 183 181

usemtl m396
f 181 183 182

usemtl m397
f 182 183 185

usemtl m398
f 182 185 186

usemtl m399
f 182 186 183

usemtl m400
f 183 186 185

usemtl m401
f 183 185 184

usemtl m402
f 183 184 180

usemtl m403
f 184 185 187

usemtl m404
f 184 187 183

usemtl m405
f 183 187 185

usemtl m406
f 185 187 177

usemtl m407
f 185 177 187

usemtl m408
f 177 185 186

usemtl m409
f 177 186 185

usemtl m410
f 188 189 190

usemtl m411
f 188 190 189

usemtl m412
f 188 189 191

usemtl m413
f 188 191 189

usemtl m414
f 189 191 192

usemtl m415
f 189 192 193

usemtl m416
f 189 193 190

usemtl m417
f 189 190 194

usemtl m418
f 189 194 193

usemtl m419
f 189 193 191

usemtl m420
f 191 193 192

usemtl m421
f 192 193 195

usemtl m422
f 192 195 196

usemtl m423
f 192 196 193

usemtl m424
f 193 196 195

usemtl m425
f 193 195 194

usemtl m426
f 193 194 190

usemtl m427
f 194 195 197

usemtl m428
f 194 197 193

usemtl m429
f 193 197 195

usemtl m430
f 195 197 198

usemtl m431
f 195 198 197

usemtl m432
f 198 195 196

usemtl m433
f 198 196 195

usemtl m434
f 199 200 201

usemtl m435
f 199 201 200

usemtl m436
f 199 200 202

usemtl m437
f 199 202 200

usemtl m438
f 200 202 203

usemtl m439
f 200 203 204

usemtl m440
f 200 204 201

usemtl m441
f 200 201 205

usemtl m442
f 200 205 204

usemtl m443
f 200 204 202

usemtl m444
f 202 204 203

usemtl m445
f 203 204 206

usemtl m446
f 203 206 207

usemtl m447
f 203 207 204

usemtl m448
f 204 207 206

usemtl m449
f 204 206 205

usemtl m450
f 204 205 201

usemtl m451
f 205 206 208

usemtl m452
f 205 208 204

usemtl m453
f 204 208 206

usemtl m454
f 206 208 198

usemtl m455
f 206 198 208

usemtl m456
f 198 206 207

usemtl m457
f 198 207 206

