mtllib 33307.mtl
o runescapemodel
v -23 87 75
v -6 87 78
v -20 87 45
v 28 87 59
v -1 87 8
v 43 87 26
v 31 87 -27
v 62 87 -12
v 56 87 -29
v 37 87 -51
v 13 87 84
v 78 87 84
v 83 87 64
v 80 87 23
v 95 87 -17
v -12 87 67
v -11 87 67
v -8 87 43
v 23 87 51
v 8 87 11
v 37 87 23
v 33 87 -16
v 54 87 -7
v 49 87 -24
v 43 87 -32
v 11 87 73
v 67 87 73
v 71 87 54
v 69 87 20
v 82 87 -13
v 14 123 78
v 5 119 83
v 13 114 83
v 68 138 77
v 37 106 34
v 2 139 71
v -4 127 77
v -6 119 80
v 13 108 84
v 78 134 84
v 83 134 64
v 80 121 32
v 70 124 33
v 52 121 -28
v 12 107 2
v 6 114 36
v -21 112 68
v -18 108 81
v 19 103 58
v 43 95 60
v 56 92 28
v 64 121 -10
v 95 102 -17
v 46 110 -24
v 38 119 -37
v 34 102 -32
v 1 88 12
v -15 88 47
v -9 102 44
v 5 86 56
v 38 100 23
v 25 85 23
v 41 100 -18
v 60 110 -13
v 56 86 -29
v 45 81 -46
v 32 93 -28
vn 0 -256 0
vn 0 -768 0
vn 0 -768 0
vn 0 -1792 0
vn 0 -768 0
vn 0 -1536 0
vn 0 -1024 0
vn 0 -1024 0
vn 0 -768 0
vn 0 -256 0
vn 0 -512 0
vn 0 -512 0
vn 0 -768 0
vn 0 -512 0
vn 0 -256 0
vn 0 -256 0
vn 0 -768 0
vn 0 -768 0
vn 0 -1792 0
vn 0 -768 0
vn 0 -1536 0
vn 0 -1024 0
vn 0 -1024 0
vn 0 -768 0
vn 0 -256 0
vn 0 -512 0
vn 0 -512 0
vn 0 -768 0
vn 0 -512 0
vn 0 -256 0
vn 211 -901 -779
vn -5 -401 -1135
vn -5 -496 -1126
vn -139 -1446 -63
vn -54 -1516 263
vn -95 -775 -104
vn -465 -782 -1062
vn -296 380 -939
vn -111 334 -899
vn 251 -104 -672
vn 408 -115 -26
vn 659 -227 121
vn -73 -1171 169
vn 67 -954 400
vn -1089 -1114 506
vn -406 -903 514
vn -1151 -552 174
vn -350 260 -864
vn 137 1081 -545
vn 306 1388 -397
vn 368 1095 143
vn 662 -406 -35
vn 190 152 -122
vn 578 -9 1169
vn 30 -32 445
vn -630 -77 951
vn -668 410 453
vn -1017 597 204
vn -782 -434 438
vn 359 888 -531
vn 492 1158 -104
vn 470 1276 -57
vn 429 1045 -616
vn 299 719 -365
vn 120 390 -88
vn -60 -17 387
vn -368 899 73
usemtl m0
f 1 1 2

usemtl m1
f 1 2 3

usemtl m2
f 3 2 4

usemtl m3
f 3 4 5

usemtl m4
f 5 4 6

usemtl m5
f 5 6 7

usemtl m6
f 7 6 8

usemtl m7
f 7 8 9

usemtl m8
f 7 9 10

usemtl m9
f 11 12 4

usemtl m10
f 11 4 2

usemtl m11
f 13 14 6

usemtl m12
f 13 6 4

usemtl m13
f 13 4 12

usemtl m14
f 14 8 6

usemtl m15
f 8 15 9

usemtl m16
f 16 16 17

usemtl m17
f 16 17 18

usemtl m18
f 18 17 19

usemtl m19
f 18 19 20

usemtl m20
f 20 19 21

usemtl m21
f 20 21 22

usemtl m22
f 22 21 23

usemtl m23
f 22 23 24

usemtl m24
f 22 24 25

usemtl m25
f 26 27 19

usemtl m26
f 26 19 17

usemtl m27
f 28 29 21

usemtl m28
f 28 21 19

usemtl m29
f 28 19 27

usemtl m30
f 29 23 21

usemtl m31
f 23 30 24

usemtl m32
f 31 32 33

usemtl m33
f 31 33 34

usemtl m34
f 31 34 35

usemtl m35
f 31 35 36

usemtl m36
f 31 36 37

usemtl m37
f 31 37 32

usemtl m38
f 32 37 38

usemtl m39
f 32 38 39

usemtl m40
f 32 39 33

usemtl m41
f 33 39 40

usemtl m42
f 33 40 34

usemtl m43
f 34 40 41

usemtl m44
f 34 41 42

usemtl m45
f 34 42 43

usemtl m46
f 34 43 35

usemtl m47
f 35 43 44

usemtl m48
f 35 44 45

usemtl m49
f 35 45 46

usemtl m50
f 35 46 36

usemtl m51
f 36 46 47

usemtl m52
f 36 47 37

usemtl m53
f 37 47 48

usemtl m54
f 37 48 38

usemtl m55
f 38 48 49

usemtl m56
f 38 49 50

usemtl m57
f 38 50 39

usemtl m58
f 39 50 40

usemtl m59
f 40 50 41

usemtl m60
f 41 50 42

usemtl m61
f 42 50 51

usemtl m62
f 42 51 52

usemtl m63
f 42 52 43

usemtl m64
f 43 52 44

usemtl m65
f 44 52 53

usemtl m66
f 44 53 54

usemtl m67
f 44 54 55

usemtl m68
f 44 55 45

usemtl m69
f 45 55 56

usemtl m70
f 45 56 57

usemtl m71
f 45 57 58

usemtl m72
f 45 58 59

usemtl m73
f 45 59 46

usemtl m74
f 46 59 47

usemtl m75
f 47 59 58

usemtl m76
f 47 58 48

usemtl m77
f 48 58 60

usemtl m78
f 48 60 49

usemtl m79
f 49 60 61

usemtl m80
f 49 61 51

usemtl m81
f 49 51 50

usemtl m82
f 60 62 61

usemtl m83
f 61 62 63

usemtl m84
f 61 63 64

usemtl m85
f 61 64 51

usemtl m86
f 51 64 52

usemtl m87
f 52 64 53

usemtl m88
f 53 64 63

usemtl m89
f 53 63 65

usemtl m90
f 53 65 54

usemtl m91
f 54 65 66

usemtl m92
f 54 66 56

usemtl m93
f 54 56 55

usemtl m94
f 58 57 62

usemtl m95
f 58 62 60

usemtl m96
f 67 63 62

usemtl m97
f 67 62 57

usemtl m98
f 67 57 56

usemtl m99
f 67 56 66

usemtl m100
f 67 66 65

usemtl m101
f 67 65 63

