mtllib 33563.mtl
o runescapemodel
v 32 15 -14
v 32 14 -46
v 32 24 -14
v 32 14 18
v 54 0 -14
v 48 0 -50
v 1 0 -63
v -32 8 -46
v -32 24 -46
v 32 24 -46
v 28 24 -42
v 28 24 -14
v 28 24 14
v 32 24 18
v -32 8 18
v 1 0 43
v 48 0 22
v -32 24 -14
v -32 17 -14
v -32 24 18
v -28 24 14
v -28 24 -14
v -28 24 -42
v 28 80 -14
v 28 80 -42
v 20 88 -14
v 28 80 14
v 30 74 -3
v 30 74 -14
v 30 74 -25
v 30 74 -36
v 22 30 -44
v 22 74 -44
v 14 74 -44
v 0 74 -44
v -28 80 -42
v -20 88 -34
v 20 88 -34
v 20 308 -14
v 20 88 6
v -28 80 14
v 0 74 16
v 14 74 16
v 22 74 16
v 30 30 8
v 30 74 8
v 30 44 -9
v 30 30 -14
v 30 44 -19
v 30 30 -36
v -28 80 -14
v -20 88 -14
v -30 74 -28
v -30 74 -14
v -30 74 0
v -20 88 6
v -20 308 -14
v -20 308 -34
v 20 308 -34
v 24 312 -14
v 20 308 6
v -24 328 -14
v -24 312 -38
v -24 312 -14
v -24 312 10
v -24 328 10
v 24 328 10
v 24 312 10
v 24 328 -14
v 24 328 -38
v 24 312 -38
v -24 328 -38
v -20 308 6
v 28 328 -14
v 28 328 -42
v 28 336 -14
v 28 328 14
v 28 336 14
v -28 328 14
v -28 336 14
v -28 328 -14
v -28 336 -14
v -28 336 -42
v -28 328 -42
v 28 336 -42
v -30 30 -36
v -30 74 -36
v -30 51 -30
v -30 30 -14
v -30 51 2
v -30 74 8
v -22 30 16
v -22 74 16
v -11 74 16
v -5 59 16
v 8 37 16
v 16 53 16
v 22 30 16
v -30 30 8
v -45 0 -14
v -39 0 -56
v -22 74 -44
v -22 30 -44
v 8 37 -44
v 16 53 -44
v -5 59 -44
v -11 74 -44
v -33 0 33
v 0 58 47
v 3 59 46
v 0 67 45
v -1 71 37
v -1 52 43
v 4 55 43
v 5 63 40
v 31 80 35
v -1 81 34
v -4 76 36
v -4 65 39
v -4 52 43
v 2 52 43
v 5 56 43
v 5 55 43
v 6 60 46
v 6 65 45
v 26 78 41
v 13 55 43
v 22 52 43
v 43 63 40
v 40 73 38
v 31 85 33
v 22 90 31
v 8 97 29
v -4 98 29
v -6 91 37
v -6 83 38
v -11 86 39
v -14 83 33
v -14 83 40
v -6 78 41
v -6 68 45
v -16 59 42
v -14 60 46
v -6 63 46
v -6 55 48
v -6 47 51
v -4 41 48
v 5 52 45
v 3 55 48
v 5 56 48
v 16 55 48
v 12 60 46
v 5 53 48
v 13 51 45
v 31 25 54
v 43 43 48
v 44 52 43
v 47 52 43
v 46 63 40
v 42 75 37
v 33 87 33
v 23 93 31
v 9 99 29
v -4 100 28
v -16 97 29
v -8 97 35
v 0 51 48
v 0 43 53
v 3 51 49
v -1 35 51
v 4 51 45
v 5 51 45
v 12 51 50
v 26 32 57
v 6 46 51
v 5 43 48
v -1 25 54
v 31 22 55
v 40 33 51
v 42 32 51
v 46 43 48
v 49 41 43
v 50 52 40
v 49 63 36
v 45 74 32
v 35 87 27
v 25 93 24
v 10 100 23
v -4 101 23
v -17 98 29
v -26 92 30
v -24 91 37
v -16 95 35
v -15 87 38
v -26 78 36
v -24 78 41
v 6 51 50
v -33 86 39
v -26 82 39
v -36 84 34
v -36 83 40
v -28 78 41
v -28 66 39
v -26 68 45
v -16 63 46
v -28 65 45
v -18 60 46
v -16 52 43
v -14 55 48
v -42 75 42
v -30 68 45
v -38 58 43
v -35 59 46
v -35 55 48
v -18 55 48
v -18 51 50
v -16 48 46
v -14 51 50
v -16 47 51
v -6 42 53
v -4 29 53
v -4 8 59
v 8 9 58
v 22 16 57
v 23 14 57
v 33 21 55
v 35 17 50
v 45 29 47
v 45 27 41
v 49 38 37
v 50 49 34
v 49 61 30
v 45 72 25
v 35 85 21
v 25 92 19
v 10 98 17
v -4 99 16
v -17 99 22
v -26 94 30
v -15 23 60
v -26 27 59
v -33 24 60
v -24 18 60
v -16 15 63
v -8 13 63
v -14 23 54
v -26 28 52
v -36 23 54
v -26 14 58
v -16 10 59
v -17 8 59
v -4 7 60
v 9 7 60
v 10 3 56
v 25 9 53
v 25 7 47
v 35 15 46
v -3 49 34
v -17 98 18
v -28 95 25
v -38 86 33
v -44 75 37
v -11 24 60
v -6 18 60
v -6 27 59
v -26 41 53
v -24 30 56
v -14 27 59
v -6 32 57
v -28 41 49
v -30 41 53
v -28 30 56
v -36 27 59
v -44 32 52
v -46 31 51
v -38 20 54
v -26 13 58
v -28 8 53
v -17 5 56
v -4 2 56
v -4 0 50
v 10 1 50
v -38 47 51
v -45 45 52
v -42 35 56
v -40 55 48
v -40 59 46
v -46 62 47
v -47 55 48
v -40 51 49
v -38 52 43
v -48 62 41
v -49 52 43
v -46 48 50
v -48 44 47
v -38 49 45
v -35 51 49
v -28 45 52
v -45 65 44
v -38 62 47
v -46 76 37
v -50 63 40
v -51 52 43
v -40 85 28
v -48 76 31
v -53 63 36
v -54 52 40
v -50 43 48
v -53 41 43
v -48 28 48
v -40 18 51
v -40 15 45
v -28 6 48
v -17 2 49
v -28 92 18
v -40 84 21
v -48 73 25
v -53 60 29
v -54 49 34
v -53 38 38
v -48 27 42
vn 800 -422 0
vn 858 -746 897
vn 1024 -1024 0
vn 882 -788 -581
vn 614 -810 0
vn 222 -322 240
vn 14 -548 499
vn -932 -757 610
vn -256 -512 512
vn 256 -768 256
vn 1050 -446 888
vn 484 -352 0
vn 888 -783 -807
vn 256 -512 -512
vn -981 -739 -829
vn 29 -607 -409
vn 247 -344 -216
vn -1024 -1024 0
vn -912 -306 0
vn -256 -768 -256
vn -807 -527 -888
vn -970 -190 0
vn -645 -864 807
vn 1334 -684 0
vn 1251 -1127 1658
vn 1236 -724 0
vn 1413 -946 -1315
vn 1242 -242 0
vn 1512 -162 0
vn 1242 -242 0
vn 1241 -81 161
vn 161 81 1496
vn 81 -81 1000
vn 0 -162 1257
vn 0 -242 1498
vn -1233 -765 1314
vn -874 -724 618
vn 693 -362 693
vn 1386 362 0
vn 693 -543 -618
vn -1071 -946 -1657
vn 0 -242 -1498
vn 0 -162 -1257
vn 161 -81 -1242
vn 1240 81 -161
vn 999 -81 -81
vn 1280 0 0
vn 1994 322 0
vn 1280 0 0
vn 998 81 81
vn -1696 -1046 0
vn -874 -362 0
vn -1243 -242 0
vn -1512 -162 0
vn -1243 -242 0
vn -874 -543 -693
vn -1386 362 0
vn -619 544 693
vn 619 725 618
vn 1750 726 0
vn 619 544 -693
vn -1024 0 0
vn -694 544 618
vn -1238 726 0
vn -694 363 -693
vn -256 0 -256
vn 512 0 -512
vn 438 544 -618
vn 512 0 0
vn 512 0 256
vn 438 363 693
vn -256 0 512
vn -619 725 -618
vn 512 0 0
vn 512 0 512
vn 1024 -1024 0
vn 512 0 -256
vn 256 -256 -512
vn -256 0 -512
vn -512 -512 -256
vn -1024 0 0
vn -512 -512 0
vn -512 -512 512
vn -256 0 256
vn 256 -256 256
vn -1482 161 161
vn -1000 -81 81
vn -1280 0 0
vn -1510 162 0
vn -1280 0 0
vn -1242 -81 -161
vn -161 81 -1496
vn -81 -81 -999
vn 0 -162 -1000
vn 0 0 -1280
vn 0 0 -1536
vn 0 0 -1024
vn 81 161 -1496
vn -1240 161 -81
vn -789 -619 -29
vn -200 -391 172
vn -161 -81 1241
vn -81 161 1496
vn 0 0 1536
vn 0 0 1024
vn 0 0 1280
vn 0 -162 1000
vn -248 -353 -171
vn -398 123 -268
vn 431 196 -365
vn 226 -172 -11
vn -191 -498 -1306
vn -386 -1138 -2253
vn 564 -214 -171
vn -664 -504 -785
vn -151 -825 -1731
vn 70 -556 -1704
vn 918 -570 -1662
vn 611 -503 -901
vn 974 -294 -808
vn -300 -201 -349
vn -241 -880 382
vn -256 153 -243
vn -512 107 -324
vn -544 -420 57
vn 217 -29 -262
vn 382 247 -782
vn 136 -730 -1947
vn -59 -355 -1493
vn -6 -359 -1217
vn -84 -468 -1457
vn -110 -224 -1252
vn -53 -173 -1258
vn 103 -891 -1598
vn 317 -228 -357
vn 218 50 -393
vn -481 -115 -553
vn 100 -299 -612
vn 171 -654 30
vn 623 -265 -124
vn 468 321 -367
vn 214 -214 -717
vn -684 -516 -234
vn 400 -282 -203
vn 490 -51 -165
vn 393 65 -368
vn 537 -445 -1061
vn -291 331 -1391
vn -608 15 -157
vn -93 -488 0
vn 139 -45 -151
vn 164 345 -630
vn -149 433 -144
vn 467 -847 -718
vn -18 -439 -1998
vn 38 -543 -1444
vn 0 -514 -1179
vn 582 -399 -1200
vn 607 -426 -1209
vn 588 -600 -1042
vn 369 -648 -942
vn 241 -720 -871
vn 177 -846 -867
vn 0 -1005 -865
vn -255 -1095 -991
vn 323 -285 -347
vn -523 -303 -145
vn 232 88 -170
vn 276 -450 -127
vn -306 -429 -1363
vn 449 -418 -1155
vn -256 -627 -819
vn 197 -672 -39
vn 254 -144 -171
vn -540 281 -374
vn -640 -175 -1037
vn 31 -504 -1721
vn 104 -371 -1492
vn 128 -343 -1246
vn 604 10 -1252
vn 637 -314 -1132
vn 1365 120 -508
vn 1320 -146 -514
vn 1346 -397 -349
vn 1270 -742 -151
vn 991 -1103 19
vn 724 -1323 36
vn 362 -1429 52
vn -50 -1488 86
vn -113 -769 -886
vn -230 -666 -893
vn -309 -673 -200
vn -153 -463 -153
vn 393 417 -474
vn 10 -349 -907
vn -432 -548 -127
vn -512 -289 -122
vn -374 -235 -217
vn -143 472 -517
vn -569 -640 -1190
vn 53 -599 -115
vn 611 -189 -233
vn -14 -130 -752
vn -584 68 -259
vn -144 530 -430
vn 75 -652 -69
vn 596 -281 -192
vn 0 -288 -690
vn -494 -69 -155
vn -601 -421 -184
vn 559 320 -342
vn 336 -208 -789
vn -712 -453 -389
vn -455 -81 -223
vn 494 -69 -155
vn 736 184 -505
vn -107 -487 -643
vn -701 189 -529
vn 114 -672 -88
vn 589 -302 -178
vn 565 -732 -1455
vn 589 -554 -2005
vn -61 -658 -1061
vn 10 -336 -1194
vn 427 303 -1348
vn 539 166 -1264
vn 1012 823 -721
vn 1214 505 -634
vn 681 475 369
vn 751 267 431
vn 768 130 495
vn 748 10 531
vn 658 -182 588
vn 486 -391 642
vn 351 -493 645
vn 149 -545 708
vn -57 -569 681
vn -365 -1444 48
vn -169 -787 -932
vn 498 -539 -66
vn 82 -713 -80
vn -445 -231 -400
vn -166 147 -462
vn -227 371 -617
vn 139 183 -405
vn 97 -50 -830
vn 134 -458 -690
vn -446 377 -1265
vn -595 407 -1524
vn -195 474 -1346
vn -243 300 -1232
vn -63 -61 -1139
vn 102 126 -1189
vn 353 1165 -799
vn 734 997 -774
vn 434 734 262
vn 571 629 272
vn 11 1971 5795
vn -235 -537 691
vn -724 -1264 37
vn -463 -853 -881
vn -561 -597 -1004
vn -503 -314 -435
vn 147 14 -433
vn 298 -268 -297
vn -467 -432 -215
vn -659 389 -525
vn 40 355 -284
vn 488 290 -400
vn -149 -175 -1219
vn 601 -335 -266
vn 476 290 -375
vn -251 401 -410
vn -982 163 -1218
vn -857 114 -1198
vn -667 215 -1281
vn -502 390 -1310
vn -735 1030 -786
vn -383 1185 -829
vn -103 1211 -839
vn 2 886 244
vn 216 853 255
vn 221 -654 -217
vn -610 -436 -358
vn -412 99 -280
vn 491 -58 -160
vn 585 -277 -221
vn -263 -559 -117
vn -481 -39 -168
vn 717 272 -480
vn 96 -279 -924
vn -711 -320 -1250
vn -1037 -351 -1090
vn -351 153 -369
vn -222 -250 -1257
vn -43 -529 -699
vn -764 117 -567
vn -48 253 -337
vn -562 -99 -413
vn -80 400 -528
vn -604 -646 -903
vn -778 -470 -1083
vn -499 -530 -1211
vn -1035 -1096 3
vn -1238 -761 -144
vn -1550 -457 -367
vn -1335 -148 -484
vn -627 -311 -1116
vn -1136 135 -481
vn -1223 507 -596
vn -1017 798 -701
vn -544 637 264
vn -339 790 229
vn -184 846 215
vn -392 -441 677
vn -553 -327 596
vn -687 -125 622
vn -490 81 519
vn -768 173 481
vn -987 389 398
vn -662 537 382
usemtl m0
f 1 2 3

usemtl m1
f 1 3 4

usemtl m2
f 1 4 5

usemtl m3
f 1 5 2

usemtl m4
f 2 5 6

usemtl m5
f 2 6 7

usemtl m6
f 2 7 8

usemtl m7
f 2 8 9

usemtl m8
f 2 9 10

usemtl m9
f 2 10 3

usemtl m10
f 3 10 11

usemtl m11
f 3 11 12

usemtl m12
f 3 12 13

usemtl m13
f 3 13 14

usemtl m14
f 3 14 4

usemtl m15
f 4 14 15

usemtl m16
f 4 15 16

usemtl m17
f 4 16 17

usemtl m18
f 4 17 5

usemtl m19
f 18 8 19

usemtl m20
f 18 19 15

usemtl m21
f 18 15 20

usemtl m22
f 18 20 21

usemtl m23
f 18 21 22

usemtl m24
f 18 22 23

usemtl m25
f 18 23 9

usemtl m26
f 18 9 8

usemtl m27
f 24 25 26

usemtl m28
f 24 26 27

usemtl m29
f 24 27 28

usemtl m30
f 24 28 29

usemtl m31
f 24 29 30

usemtl m32
f 24 30 25

usemtl m33
f 25 30 31

usemtl m34
f 25 31 11

usemtl m35
f 25 11 32

usemtl m36
f 25 32 33

usemtl m37
f 25 33 34

usemtl m38
f 25 34 35

usemtl m39
f 25 35 36

usemtl m40
f 25 36 37

usemtl m41
f 25 37 38

usemtl m42
f 25 38 26

usemtl m43
f 26 38 39

usemtl m44
f 26 39 40

usemtl m45
f 26 40 27

usemtl m46
f 27 40 41

usemtl m47
f 27 41 42

usemtl m48
f 27 42 43

usemtl m49
f 27 43 44

usemtl m50
f 27 44 13

usemtl m51
f 27 13 45

usemtl m52
f 27 45 46

usemtl m53
f 27 46 28

usemtl m54
f 28 46 47

usemtl m55
f 28 47 29

usemtl m56
f 29 47 48

usemtl m57
f 29 48 49

usemtl m58
f 29 49 30

usemtl m59
f 30 49 31

usemtl m60
f 31 49 50

usemtl m61
f 31 50 11

usemtl m62
f 11 50 48

usemtl m63
f 11 48 12

usemtl m64
f 12 48 13

usemtl m65
f 13 48 45

usemtl m66
f 45 48 47

usemtl m67
f 45 47 46

usemtl m68
f 51 52 37

usemtl m69
f 51 37 36

usemtl m70
f 51 36 53

usemtl m71
f 51 53 54

usemtl m72
f 51 54 55

usemtl m73
f 51 55 41

usemtl m74
f 51 41 56

usemtl m75
f 51 56 52

usemtl m76
f 52 56 57

usemtl m77
f 52 57 37

usemtl m78
f 37 57 58

usemtl m79
f 37 58 38

usemtl m80
f 38 58 59

usemtl m81
f 38 59 39

usemtl m82
f 39 59 60

usemtl m83
f 39 60 61

usemtl m84
f 39 61 40

usemtl m85
f 40 61 56

usemtl m86
f 40 56 41

usemtl m87
f 62 63 64

usemtl m88
f 62 64 65

usemtl m89
f 62 65 66

usemtl m90
f 66 65 67

usemtl m91
f 67 65 68

usemtl m92
f 67 68 60

usemtl m93
f 67 60 69

usemtl m94
f 69 60 70

usemtl m95
f 70 60 71

usemtl m96
f 70 71 72

usemtl m97
f 72 71 63

usemtl m98
f 72 63 62

usemtl m99
f 64 58 57

usemtl m100
f 64 57 73

usemtl m101
f 64 73 65

usemtl m102
f 65 73 68

usemtl m103
f 68 73 61

usemtl m104
f 68 61 60

usemtl m105
f 74 75 76

usemtl m106
f 74 76 77

usemtl m107
f 77 76 78

usemtl m108
f 77 78 79

usemtl m109
f 79 78 80

usemtl m110
f 79 80 81

usemtl m111
f 81 80 82

usemtl m112
f 81 82 83

usemtl m113
f 81 83 84

usemtl m114
f 84 83 75

usemtl m115
f 75 83 85

usemtl m116
f 75 85 76

usemtl m117
f 76 85 83

usemtl m118
f 76 83 82

usemtl m119
f 76 82 80

usemtl m120
f 76 80 78

usemtl m121
f 36 23 86

usemtl m122
f 36 86 87

usemtl m123
f 36 87 53

usemtl m124
f 53 87 88

usemtl m125
f 53 88 54

usemtl m126
f 54 88 89

usemtl m127
f 54 89 90

usemtl m128
f 54 90 55

usemtl m129
f 55 90 91

usemtl m130
f 55 91 41

usemtl m131
f 41 91 21

usemtl m132
f 41 21 92

usemtl m133
f 41 92 93

usemtl m134
f 41 93 94

usemtl m135
f 41 94 42

usemtl m136
f 42 94 95

usemtl m137
f 42 95 96

usemtl m138
f 42 96 43

usemtl m139
f 43 96 97

usemtl m140
f 43 97 44

usemtl m141
f 44 97 98

usemtl m142
f 44 98 13

usemtl m143
f 13 98 21

usemtl m144
f 13 21 20

usemtl m145
f 13 20 14

usemtl m146
f 14 20 15

usemtl m147
f 89 86 22

usemtl m148
f 89 22 99

usemtl m149
f 89 99 90

usemtl m150
f 90 99 91

usemtl m151
f 91 99 21

usemtl m152
f 21 99 22

usemtl m153
f 100 19 8

usemtl m154
f 100 8 101

usemtl m155
f 101 8 7

usemtl m156
f 49 48 50

usemtl m157
f 86 88 87

usemtl m158
f 88 86 89

usemtl m159
f 59 71 60

usemtl m160
f 71 59 63

usemtl m161
f 63 59 58

usemtl m162
f 63 58 64

usemtl m163
f 22 86 23

usemtl m164
f 23 11 10

usemtl m165
f 23 10 9

usemtl m166
f 23 36 102

usemtl m167
f 23 102 103

usemtl m168
f 23 103 11

usemtl m169
f 11 103 32

usemtl m170
f 32 103 104

usemtl m171
f 32 104 105

usemtl m172
f 32 105 33

usemtl m173
f 33 105 34

usemtl m174
f 34 105 104

usemtl m175
f 34 104 35

usemtl m176
f 35 104 106

usemtl m177
f 35 106 107

usemtl m178
f 35 107 36

usemtl m179
f 36 107 102

usemtl m180
f 102 107 106

usemtl m181
f 102 106 103

usemtl m182
f 103 106 104

usemtl m183
f 56 73 57

usemtl m184
f 73 56 61

usemtl m185
f 100 15 19

usemtl m186
f 15 100 108

usemtl m187
f 15 108 16

usemtl m188
f 21 98 92

usemtl m189
f 92 98 96

usemtl m190
f 92 96 95

usemtl m191
f 92 95 93

usemtl m192
f 93 95 94

usemtl m193
f 98 97 96

usemtl m194
f 109 110 111

usemtl m195
f 109 111 112

usemtl m196
f 109 112 113

usemtl m197
f 109 113 110

usemtl m198
f 110 113 114

usemtl m199
f 110 114 111

usemtl m200
f 111 114 112

usemtl m201
f 112 114 115

usemtl m202
f 112 115 116

usemtl m203
f 112 116 117

usemtl m204
f 112 117 118

usemtl m205
f 112 118 113

usemtl m206
f 113 118 119

usemtl m207
f 113 119 120

usemtl m208
f 113 120 121

usemtl m209
f 113 121 122

usemtl m210
f 113 122 114

usemtl m211
f 114 122 123

usemtl m212
f 114 123 115

usemtl m213
f 115 123 124

usemtl m214
f 115 124 125

usemtl m215
f 115 125 116

usemtl m216
f 116 125 126

usemtl m217
f 116 126 127

usemtl m218
f 116 127 128

usemtl m219
f 116 128 129

usemtl m220
f 116 129 130

usemtl m221
f 116 130 131

usemtl m222
f 116 131 117

usemtl m223
f 117 131 132

usemtl m224
f 117 132 133

usemtl m225
f 117 133 134

usemtl m226
f 117 134 118

usemtl m227
f 118 134 135

usemtl m228
f 118 135 136

usemtl m229
f 118 136 137

usemtl m230
f 118 137 138

usemtl m231
f 118 138 139

usemtl m232
f 118 139 140

usemtl m233
f 118 140 119

usemtl m234
f 119 140 141

usemtl m235
f 119 141 142

usemtl m236
f 119 142 143

usemtl m237
f 119 143 144

usemtl m238
f 119 144 120

usemtl m239
f 120 144 145

usemtl m240
f 120 145 146

usemtl m241
f 120 146 147

usemtl m242
f 120 147 113

usemtl m243
f 120 113 121

usemtl m244
f 121 113 148

usemtl m245
f 121 148 149

usemtl m246
f 121 149 122

usemtl m247
f 122 149 150

usemtl m248
f 122 150 151

usemtl m249
f 122 151 128

usemtl m250
f 122 128 127

usemtl m251
f 122 127 123

usemtl m252
f 123 127 152

usemtl m253
f 123 152 124

usemtl m254
f 124 152 126

usemtl m255
f 124 126 125

usemtl m256
f 151 150 149

usemtl m257
f 151 149 153

usemtl m258
f 151 153 148

usemtl m259
f 151 148 128

usemtl m260
f 128 148 154

usemtl m261
f 128 154 155

usemtl m262
f 128 155 156

usemtl m263
f 128 156 157

usemtl m264
f 128 157 129

usemtl m265
f 129 157 158

usemtl m266
f 129 158 159

usemtl m267
f 129 159 130

usemtl m268
f 130 159 160

usemtl m269
f 130 160 131

usemtl m270
f 131 160 161

usemtl m271
f 131 161 132

usemtl m272
f 132 161 162

usemtl m273
f 132 162 133

usemtl m274
f 133 162 163

usemtl m275
f 133 163 134

usemtl m276
f 134 163 164

usemtl m277
f 134 164 165

usemtl m278
f 134 165 166

usemtl m279
f 134 166 138

usemtl m280
f 134 138 137

usemtl m281
f 134 137 135

usemtl m282
f 135 137 136

usemtl m283
f 167 168 169

usemtl m284
f 167 169 113

usemtl m285
f 167 113 170

usemtl m286
f 167 170 168

usemtl m287
f 168 170 171

usemtl m288
f 168 171 169

usemtl m289
f 169 171 113

usemtl m290
f 113 171 148

usemtl m291
f 148 171 172

usemtl m292
f 148 172 154

usemtl m293
f 154 172 173

usemtl m294
f 154 173 174

usemtl m295
f 154 174 155

usemtl m296
f 155 174 175

usemtl m297
f 155 175 176

usemtl m298
f 155 176 170

usemtl m299
f 155 170 177

usemtl m300
f 155 177 178

usemtl m301
f 155 178 179

usemtl m302
f 155 179 156

usemtl m303
f 156 179 180

usemtl m304
f 156 180 181

usemtl m305
f 156 181 157

usemtl m306
f 157 181 158

usemtl m307
f 158 181 182

usemtl m308
f 158 182 183

usemtl m309
f 158 183 159

usemtl m310
f 159 183 184

usemtl m311
f 159 184 160

usemtl m312
f 160 184 185

usemtl m313
f 160 185 161

usemtl m314
f 161 185 186

usemtl m315
f 161 186 162

usemtl m316
f 162 186 187

usemtl m317
f 162 187 163

usemtl m318
f 163 187 188

usemtl m319
f 163 188 164

usemtl m320
f 164 188 189

usemtl m321
f 164 189 190

usemtl m322
f 164 190 165

usemtl m323
f 165 190 191

usemtl m324
f 165 191 192

usemtl m325
f 165 192 193

usemtl m326
f 165 193 166

usemtl m327
f 166 193 194

usemtl m328
f 166 194 138

usemtl m329
f 138 194 195

usemtl m330
f 138 195 196

usemtl m331
f 138 196 139

usemtl m332
f 139 196 141

usemtl m333
f 139 141 140

usemtl m334
f 197 174 173

usemtl m335
f 197 173 172

usemtl m336
f 197 172 176

usemtl m337
f 197 176 175

usemtl m338
f 197 175 174

usemtl m339
f 193 192 194

usemtl m340
f 194 192 198

usemtl m341
f 194 198 199

usemtl m342
f 194 199 195

usemtl m343
f 195 199 200

usemtl m344
f 195 200 201

usemtl m345
f 195 201 202

usemtl m346
f 195 202 203

usemtl m347
f 195 203 204

usemtl m348
f 195 204 196

usemtl m349
f 196 204 141

usemtl m350
f 141 204 205

usemtl m351
f 141 205 142

usemtl m352
f 142 205 203

usemtl m353
f 142 203 206

usemtl m354
f 142 206 207

usemtl m355
f 142 207 208

usemtl m356
f 142 208 143

usemtl m357
f 143 208 209

usemtl m358
f 143 209 145

usemtl m359
f 143 145 144

usemtl m360
f 201 210 211

usemtl m361
f 201 211 202

usemtl m362
f 202 211 203

usemtl m363
f 203 211 212

usemtl m364
f 203 212 213

usemtl m365
f 203 213 206

usemtl m366
f 206 213 214

usemtl m367
f 206 214 215

usemtl m368
f 206 215 207

usemtl m369
f 207 215 208

usemtl m370
f 208 215 216

usemtl m371
f 208 216 217

usemtl m372
f 208 217 218

usemtl m373
f 208 218 209

usemtl m374
f 209 218 145

usemtl m375
f 145 218 146

usemtl m376
f 146 218 147

usemtl m377
f 147 218 217

usemtl m378
f 147 217 219

usemtl m379
f 147 219 220

usemtl m380
f 147 220 221

usemtl m381
f 147 221 113

usemtl m382
f 113 221 170

usemtl m383
f 170 221 177

usemtl m384
f 177 221 222

usemtl m385
f 177 222 223

usemtl m386
f 177 223 224

usemtl m387
f 177 224 178

usemtl m388
f 178 224 225

usemtl m389
f 178 225 226

usemtl m390
f 178 226 179

usemtl m391
f 179 226 180

usemtl m392
f 180 226 227

usemtl m393
f 180 227 228

usemtl m394
f 180 228 181

usemtl m395
f 181 228 182

usemtl m396
f 182 228 229

usemtl m397
f 182 229 230

usemtl m398
f 182 230 183

usemtl m399
f 183 230 231

usemtl m400
f 183 231 184

usemtl m401
f 184 231 232

usemtl m402
f 184 232 185

usemtl m403
f 185 232 233

usemtl m404
f 185 233 186

usemtl m405
f 186 233 234

usemtl m406
f 186 234 187

usemtl m407
f 187 234 235

usemtl m408
f 187 235 188

usemtl m409
f 188 235 236

usemtl m410
f 188 236 189

usemtl m411
f 189 236 237

usemtl m412
f 189 237 238

usemtl m413
f 189 238 190

usemtl m414
f 190 238 239

usemtl m415
f 190 239 191

usemtl m416
f 191 239 200

usemtl m417
f 191 200 198

usemtl m418
f 191 198 192

usemtl m419
f 240 241 242

usemtl m420
f 240 242 243

usemtl m421
f 240 243 244

usemtl m422
f 240 244 245

usemtl m423
f 240 245 222

usemtl m424
f 240 222 246

usemtl m425
f 240 246 241

usemtl m426
f 241 246 247

usemtl m427
f 241 247 242

usemtl m428
f 242 247 248

usemtl m429
f 242 248 249

usemtl m430
f 242 249 243

usemtl m431
f 243 249 244

usemtl m432
f 244 249 250

usemtl m433
f 244 250 245

usemtl m434
f 245 250 222

usemtl m435
f 222 250 251

usemtl m436
f 222 251 252

usemtl m437
f 222 252 223

usemtl m438
f 223 252 253

usemtl m439
f 223 253 224

usemtl m440
f 224 253 225

usemtl m441
f 225 253 254

usemtl m442
f 225 254 255

usemtl m443
f 225 255 226

usemtl m444
f 226 255 227

usemtl m445
f 227 255 256

usemtl m446
f 227 256 257

usemtl m447
f 227 257 228

usemtl m448
f 228 257 229

usemtl m449
f 229 257 258

usemtl m450
f 229 258 230

usemtl m451
f 230 258 231

usemtl m452
f 231 258 232

usemtl m453
f 232 258 233

usemtl m454
f 233 258 234

usemtl m455
f 234 258 235

usemtl m456
f 235 258 236

usemtl m457
f 236 258 237

usemtl m458
f 237 258 259

usemtl m459
f 237 259 238

usemtl m460
f 238 259 260

usemtl m461
f 238 260 239

usemtl m462
f 239 260 261

usemtl m463
f 239 261 200

usemtl m464
f 200 261 262

usemtl m465
f 200 262 210

usemtl m466
f 200 210 201

usemtl m467
f 263 264 265

usemtl m468
f 263 265 221

usemtl m469
f 263 221 246

usemtl m470
f 263 246 222

usemtl m471
f 263 222 264

usemtl m472
f 264 222 265

usemtl m473
f 265 222 221

usemtl m474
f 220 219 266

usemtl m475
f 220 266 267

usemtl m476
f 220 267 268

usemtl m477
f 220 268 269

usemtl m478
f 220 269 221

usemtl m479
f 221 269 246

usemtl m480
f 246 269 268

usemtl m481
f 246 268 267

usemtl m482
f 246 267 247

usemtl m483
f 247 267 270

usemtl m484
f 247 270 271

usemtl m485
f 247 271 272

usemtl m486
f 247 272 248

usemtl m487
f 248 272 273

usemtl m488
f 248 273 274

usemtl m489
f 248 274 275

usemtl m490
f 248 275 276

usemtl m491
f 248 276 249

usemtl m492
f 249 276 277

usemtl m493
f 249 277 250

usemtl m494
f 250 277 251

usemtl m495
f 251 277 278

usemtl m496
f 251 278 279

usemtl m497
f 251 279 252

usemtl m498
f 252 279 280

usemtl m499
f 252 280 253

usemtl m500
f 253 280 254

usemtl m501
f 254 280 281

usemtl m502
f 254 281 282

usemtl m503
f 254 282 255

usemtl m504
f 255 282 256

usemtl m505
f 256 282 258

usemtl m506
f 256 258 257

usemtl m507
f 271 283 284

usemtl m508
f 271 284 285

usemtl m509
f 271 285 273

usemtl m510
f 271 273 272

usemtl m511
f 286 287 288

usemtl m512
f 286 288 289

usemtl m513
f 286 289 290

usemtl m514
f 286 290 291

usemtl m515
f 286 291 287

usemtl m516
f 287 291 212

usemtl m517
f 287 212 288

usemtl m518
f 288 212 292

usemtl m519
f 288 292 293

usemtl m520
f 288 293 289

usemtl m521
f 289 293 294

usemtl m522
f 289 294 290

usemtl m523
f 290 294 295

usemtl m524
f 290 295 296

usemtl m525
f 290 296 291

usemtl m526
f 291 296 297

usemtl m527
f 291 297 214

usemtl m528
f 291 214 213

usemtl m529
f 291 213 212

usemtl m530
f 298 216 215

usemtl m531
f 298 215 297

usemtl m532
f 298 297 270

usemtl m533
f 298 270 216

usemtl m534
f 216 270 217

usemtl m535
f 217 270 266

usemtl m536
f 217 266 219

usemtl m537
f 215 214 297

usemtl m538
f 211 210 299

usemtl m539
f 211 299 300

usemtl m540
f 211 300 212

usemtl m541
f 212 300 292

usemtl m542
f 292 300 299

usemtl m543
f 292 299 262

usemtl m544
f 292 262 301

usemtl m545
f 292 301 302

usemtl m546
f 292 302 293

usemtl m547
f 293 302 303

usemtl m548
f 293 303 295

usemtl m549
f 293 295 294

usemtl m550
f 176 172 171

usemtl m551
f 176 171 170

usemtl m552
f 261 301 262

usemtl m553
f 301 261 304

usemtl m554
f 301 304 305

usemtl m555
f 301 305 302

usemtl m556
f 302 305 306

usemtl m557
f 302 306 303

usemtl m558
f 303 306 307

usemtl m559
f 303 307 308

usemtl m560
f 303 308 295

usemtl m561
f 295 308 274

usemtl m562
f 295 274 284

usemtl m563
f 295 284 296

usemtl m564
f 296 284 283

usemtl m565
f 296 283 270

usemtl m566
f 296 270 297

usemtl m567
f 308 275 274

usemtl m568
f 275 308 309

usemtl m569
f 275 309 310

usemtl m570
f 275 310 276

usemtl m571
f 276 310 311

usemtl m572
f 276 311 277

usemtl m573
f 277 311 278

usemtl m574
f 278 311 312

usemtl m575
f 278 312 313

usemtl m576
f 278 313 279

usemtl m577
f 279 313 314

usemtl m578
f 279 314 280

usemtl m579
f 280 314 281

usemtl m580
f 281 314 258

usemtl m581
f 281 258 282

usemtl m582
f 260 304 261

usemtl m583
f 304 260 315

usemtl m584
f 304 315 316

usemtl m585
f 304 316 305

usemtl m586
f 305 316 317

usemtl m587
f 305 317 306

usemtl m588
f 306 317 318

usemtl m589
f 306 318 319

usemtl m590
f 306 319 307

usemtl m591
f 307 319 320

usemtl m592
f 307 320 309

usemtl m593
f 307 309 308

usemtl m594
f 259 315 260

usemtl m595
f 315 259 258

usemtl m596
f 315 258 316

usemtl m597
f 316 258 317

usemtl m598
f 317 258 318

usemtl m599
f 318 258 319

usemtl m600
f 319 258 320

usemtl m601
f 320 258 321

usemtl m602
f 320 321 310

usemtl m603
f 320 310 309

usemtl m604
f 321 312 311

usemtl m605
f 321 311 310

usemtl m606
f 314 313 258

usemtl m607
f 258 313 312

usemtl m608
f 258 312 321

usemtl m609
f 126 152 127

usemtl m610
f 149 148 153

usemtl m611
f 199 198 200

usemtl m612
f 205 204 203

usemtl m613
f 299 210 262

usemtl m614
f 267 266 270

usemtl m615
f 274 285 284

usemtl m616
f 285 274 273

usemtl m617
f 283 271 270

