mtllib 33573.mtl
o runescapemodel
v 28 32 5
v 22 32 -2
v 17 0 3
v 22 0 10
v 33 67 -6
v 11 44 -18
v 18 44 -12
v 23 0 -18
v 16 0 -24
v 6 89 -6
v 41 23 -19
v 45 23 -25
v 41 0 -29
v 35 0 -22
v 52 46 -15
v 42 23 4
v 47 23 -2
v 42 0 -7
v 36 0 0
v 53 47 8
v 39 23 -39
v 38 23 -47
v 31 0 -48
v 31 0 -38
v 53 48 -44
v 5 36 9
v 10 36 1
v 4 0 -3
v -2 0 4
v 19 73 14
v 11 42 23
v 2 42 20
v -1 0 27
v 7 0 30
v 10 89 12
v 53 21 23
v 60 21 17
v 56 0 12
v 50 0 16
v 63 44 29
v 29 27 31
v 32 27 24
v 25 0 20
v 21 0 29
v 41 55 31
v 6 34 -21
v 11 34 -27
v 5 0 -32
v 0 0 -26
v 17 69 -15
v -39 155 34
v -39 155 46
v -6 141 46
v -6 141 34
v -55 126 34
v -55 127 46
v -7 127 46
v -7 126 34
v -39 168 54
v -39 168 60
v -7 148 62
v -7 148 50
v -55 128 50
v -55 128 62
v -7 128 62
v -7 128 50
v -58 21 -64
v -58 37 -55
v -5 37 -56
v -5 20 -65
v -5 38 9
v -5 19 4
v -58 38 9
v -58 18 5
v -57 36 62
v -57 21 59
v -7 20 59
v -6 36 62
v -57 37 18
v -54 18 12
v -6 37 18
v -8 18 12
v -58 0 20
v -58 17 25
v -5 17 25
v -5 -1 19
v -5 -1 64
v -5 18 64
v -58 -1 64
v -58 18 64
v -58 16 18
v -58 -1 14
v -5 1 14
v -5 16 18
v -58 19 -53
v -58 0 -51
v -5 18 -52
v -5 0 -51
v -58 55 39
v -58 70 36
v -5 70 36
v -5 55 40
v -5 56 64
v -5 72 64
v -58 56 64
v -58 72 64
v -7 55 34
v -7 72 28
v -56 72 28
v -56 55 34
v -57 70 -26
v -55 57 -32
v -8 70 -26
v -9 58 -34
v -58 38 51
v -58 50 51
v -5 50 51
v -5 38 52
v -5 41 64
v -5 53 64
v -58 41 64
v -58 53 64
v -60 39 -18
v -59 55 -16
v -3 54 -15
v -4 39 -18
v -4 53 48
v -3 39 45
v -59 53 48
v -59 39 44
v -5 91 -16
v -5 73 -13
v -58 72 -12
v -58 91 -16
v -5 92 64
v -5 73 64
v -58 73 64
v -58 92 64
v -4 94 64
v -59 113 59
v -61 94 64
v -60 111 -4
v -60 92 -5
v -4 110 1
v -3 93 -6
v -4 112 59
v -5 124 19
v -5 113 25
v -58 113 25
v -58 124 19
v -5 126 64
v -5 114 64
v -58 114 64
v -58 126 64
vn -202 -55 -144
vn 204 59 145
vn -187 -61 -161
vn 191 54 163
vn 0 0 0
vn 164 -44 191
vn -164 44 -191
vn 164 -44 191
vn -164 44 -191
vn 0 0 0
vn -189 -58 162
vn 187 72 -160
vn -205 -68 136
vn 207 63 -138
vn 0 0 0
vn -186 -75 160
vn 185 76 -158
vn -187 -76 157
vn 188 75 -156
vn 0 0 0
vn -246 -72 0
vn 241 86 0
vn -241 -82 -30
vn 243 74 30
vn 0 0 0
vn -191 -50 163
vn 188 58 -162
vn -212 -60 132
vn 212 49 -133
vn 0 0 0
vn -88 -45 -236
vn 88 47 235
vn -79 -47 -238
vn 79 45 239
vn 0 0 0
vn -135 -76 203
vn 135 84 -202
vn -157 -86 183
vn 160 72 -187
vn 0 0 0
vn -224 -71 99
vn 224 75 -99
vn -226 -72 96
vn 226 74 -96
vn 0 0 0
vn -192 -57 160
vn 192 57 -160
vn -192 -57 160
vn 192 57 -160
vn 0 0 0
vn -24 -593 256
vn -346 -485 -502
vn 456 -452 -256
vn 612 -200 511
vn -446 -250 522
vn -222 -127 -246
vn 512 35 -513
vn 256 17 255
vn 20 -559 253
vn -356 -419 -510
vn 511 -434 -255
vn 635 -247 509
vn -488 -220 509
vn -238 -107 -255
vn 497 -12 -510
vn 256 0 256
vn -262 -244 449
vn -516 -637 230
vn 250 -500 452
vn 510 -119 226
vn 512 -447 -240
vn 261 115 -498
vn -251 -141 -494
vn -507 50 -251
vn -508 -123 -491
vn -256 47 -235
vn 508 137 -498
vn 255 -450 -261
vn -252 -550 234
vn -507 -118 504
vn 509 -370 487
vn 254 -52 248
vn -515 -153 488
vn -256 -584 257
vn 509 -409 494
vn 253 -81 243
vn 512 0 -256
vn 256 -512 -500
vn -256 0 -512
vn -512 -256 -250
vn -510 -131 -506
vn -254 58 -249
vn 514 124 -496
vn 260 -444 -264
vn -248 -484 237
vn -508 40 509
vn 520 -215 502
vn 256 14 255
vn -508 116 498
vn -256 -460 287
vn 516 -139 516
vn 260 66 247
vn 512 0 -256
vn 256 -510 -476
vn -256 0 -512
vn -512 -255 -238
vn 256 -168 -475
vn 511 -575 -212
vn -256 -426 -477
vn -509 -50 -241
vn -509 -582 250
vn -265 -213 448
vn 243 -486 457
vn 499 -122 223
vn -508 21 511
vn -256 -498 370
vn 516 -228 568
vn 260 21 255
vn 512 0 -256
vn 256 -498 -398
vn -256 0 -512
vn -512 -249 -199
vn -250 -96 501
vn -502 -556 239
vn 264 -319 498
vn 510 -52 252
vn 514 -459 -260
vn 251 104 -492
vn -260 -132 -503
vn -515 55 -250
vn 509 -162 505
vn 253 42 252
vn -515 94 502
vn -256 -460 256
vn 256 -512 -506
vn 512 0 -256
vn -256 0 -512
vn -512 -256 -253
vn 257 -134 -496
vn -249 -415 -488
vn -510 -92 -247
vn -479 -550 270
vn -239 -110 493
vn 277 -380 498
vn 506 -113 233
vn 521 -594 -233
vn 512 -11 459
vn 256 122 224
vn -512 244 448
vn -256 -388 246
vn 256 -510 -490
vn 512 0 -256
vn -256 0 -512
vn -512 -255 -245
usemtl m0
f 1 2 3

usemtl m1
f 1 3 4

usemtl m2
f 1 4 2

usemtl m3
f 1 2 5

usemtl m4
f 1 5 2

usemtl m5
f 4 3 2

usemtl m6
f 6 7 8

usemtl m7
f 6 8 9

usemtl m8
f 6 9 7

usemtl m9
f 6 7 10

usemtl m10
f 6 10 7

usemtl m11
f 9 8 7

usemtl m12
f 11 12 13

usemtl m13
f 11 13 14

usemtl m14
f 11 14 12

usemtl m15
f 11 12 15

usemtl m16
f 11 15 12

usemtl m17
f 14 13 12

usemtl m18
f 16 17 18

usemtl m19
f 16 18 19

usemtl m20
f 16 19 17

usemtl m21
f 16 17 20

usemtl m22
f 16 20 17

usemtl m23
f 19 18 17

usemtl m24
f 21 22 23

usemtl m25
f 21 23 24

usemtl m26
f 21 24 22

usemtl m27
f 21 22 25

usemtl m28
f 21 25 22

usemtl m29
f 24 23 22

usemtl m30
f 26 27 28

usemtl m31
f 26 28 29

usemtl m32
f 26 29 27

usemtl m33
f 26 27 30

usemtl m34
f 26 30 27

usemtl m35
f 29 28 27

usemtl m36
f 31 32 33

usemtl m37
f 31 33 34

usemtl m38
f 31 34 32

usemtl m39
f 31 32 35

usemtl m40
f 31 35 32

usemtl m41
f 34 33 32

usemtl m42
f 36 37 38

usemtl m43
f 36 38 39

usemtl m44
f 36 39 37

usemtl m45
f 36 37 40

usemtl m46
f 36 40 37

usemtl m47
f 39 38 37

usemtl m48
f 41 42 43

usemtl m49
f 41 43 44

usemtl m50
f 41 44 42

usemtl m51
f 41 42 45

usemtl m52
f 41 45 42

usemtl m53
f 44 43 42

usemtl m54
f 46 47 48

usemtl m55
f 46 48 49

usemtl m56
f 46 49 47

usemtl m57
f 46 47 50

usemtl m58
f 46 50 47

usemtl m59
f 49 48 47

usemtl m60
f 51 52 53

usemtl m61
f 51 53 54

usemtl m62
f 51 54 55

usemtl m63
f 51 55 52

usemtl m64
f 52 55 56

usemtl m65
f 52 56 57

usemtl m66
f 52 57 53

usemtl m67
f 53 57 54

usemtl m68
f 54 57 58

usemtl m69
f 54 58 55

usemtl m70
f 59 60 61

usemtl m71
f 59 61 62

usemtl m72
f 59 62 63

usemtl m73
f 59 63 60

usemtl m74
f 60 63 64

usemtl m75
f 60 64 65

usemtl m76
f 60 65 61

usemtl m77
f 61 65 62

usemtl m78
f 62 65 66

usemtl m79
f 62 66 63

usemtl m80
f 67 68 69

usemtl m81
f 67 69 70

usemtl m82
f 70 69 71

usemtl m83
f 70 71 72

usemtl m84
f 72 71 73

usemtl m85
f 72 73 74

usemtl m86
f 74 73 68

usemtl m87
f 74 68 67

usemtl m88
f 75 76 77

usemtl m89
f 75 77 78

usemtl m90
f 75 78 79

usemtl m91
f 75 79 80

usemtl m92
f 75 80 76

usemtl m93
f 80 79 81

usemtl m94
f 80 81 82

usemtl m95
f 82 81 77

usemtl m96
f 77 81 78

usemtl m97
f 78 81 79

usemtl m98
f 68 73 71

usemtl m99
f 68 71 69

usemtl m100
f 83 84 85

usemtl m101
f 83 85 86

usemtl m102
f 86 85 87

usemtl m103
f 87 85 88

usemtl m104
f 87 88 89

usemtl m105
f 89 88 90

usemtl m106
f 89 90 83

usemtl m107
f 83 90 84

usemtl m108
f 84 90 88

usemtl m109
f 84 88 85

usemtl m110
f 91 92 93

usemtl m111
f 91 93 94

usemtl m112
f 91 94 95

usemtl m113
f 91 95 96

usemtl m114
f 91 96 92

usemtl m115
f 97 96 95

usemtl m116
f 97 95 94

usemtl m117
f 97 94 93

usemtl m118
f 97 93 98

usemtl m119
f 97 98 96

usemtl m120
f 99 100 101

usemtl m121
f 99 101 102

usemtl m122
f 102 101 103

usemtl m123
f 103 101 104

usemtl m124
f 103 104 105

usemtl m125
f 105 104 106

usemtl m126
f 105 106 99

usemtl m127
f 99 106 100

usemtl m128
f 100 106 104

usemtl m129
f 100 104 101

usemtl m130
f 107 108 109

usemtl m131
f 107 109 110

usemtl m132
f 110 109 111

usemtl m133
f 110 111 112

usemtl m134
f 112 111 113

usemtl m135
f 112 113 114

usemtl m136
f 114 113 108

usemtl m137
f 114 108 107

usemtl m138
f 108 113 111

usemtl m139
f 108 111 109

usemtl m140
f 115 116 117

usemtl m141
f 115 117 118

usemtl m142
f 118 117 119

usemtl m143
f 119 117 120

usemtl m144
f 119 120 121

usemtl m145
f 121 120 122

usemtl m146
f 121 122 115

usemtl m147
f 115 122 116

usemtl m148
f 116 122 120

usemtl m149
f 116 120 117

usemtl m150
f 123 124 125

usemtl m151
f 123 125 126

usemtl m152
f 126 125 127

usemtl m153
f 126 127 128

usemtl m154
f 128 127 129

usemtl m155
f 128 129 130

usemtl m156
f 130 129 124

usemtl m157
f 130 124 123

usemtl m158
f 124 129 127

usemtl m159
f 124 127 125

usemtl m160
f 131 132 133

usemtl m161
f 131 133 134

usemtl m162
f 131 134 135

usemtl m163
f 131 135 136

usemtl m164
f 131 136 132

usemtl m165
f 137 136 135

usemtl m166
f 137 135 138

usemtl m167
f 137 138 133

usemtl m168
f 133 138 134

usemtl m169
f 134 138 135

usemtl m170
f 139 140 141

usemtl m171
f 141 140 142

usemtl m172
f 141 142 143

usemtl m173
f 143 142 144

usemtl m174
f 143 144 145

usemtl m175
f 145 144 146

usemtl m176
f 145 146 139

usemtl m177
f 139 146 140

usemtl m178
f 140 146 142

usemtl m179
f 142 146 144

usemtl m180
f 147 148 149

usemtl m181
f 147 149 150

usemtl m182
f 147 150 151

usemtl m183
f 147 151 152

usemtl m184
f 147 152 148

usemtl m185
f 153 152 151

usemtl m186
f 153 151 154

usemtl m187
f 153 154 149

usemtl m188
f 149 154 150

usemtl m189
f 150 154 151

