mtllib 34013.mtl
o runescapemodel
v -18 23 40
v -20 20 40
v -16 23 40
v -17 20 40
v -15 20 40
v -12 20 40
v -14 23 40
v -18 17 40
v -16 17 40
v -14 17 40
v 18 23 40
v 16 23 40
v 20 20 40
v 17 20 40
v 18 17 40
v 16 17 40
v 15 20 40
v 14 17 40
v 12 20 40
v 14 23 40
v -19 24 39
v -24 20 36
v -19 17 39
v -13 17 39
v -13 24 39
v -20 27 40
v -24 25 34
v -20 21 40
v -12 21 40
v -8 20 37
v 0 20 43
v -10 25 42
v -5 26 45
v -20 30 41
v -29 26 29
v -26 23 32
v -28 20 29
v -28 14 33
v -20 16 39
v -12 16 39
v -5 -11 48
v 0 -12 48
v 0 -9 49
v -5 -8 48
v -12 -10 43
v -13 -12 41
v -7 -14 44
v 0 -15 47
v 5 -11 48
v 5 -8 48
v 0 -4 47
v -9 -3 45
v -22 -9 34
v -10 -15 45
v 0 -18 48
v 10 -15 45
v 7 -14 44
v 13 -12 41
v 12 -10 43
v 9 -3 45
v 5 -3 49
v 0 -3 52
v -5 -3 49
v -6 -1 52
v -6 15 43
v -17 13 41
v -33 17 17
v -31 -8 15
v -22 -18 24
v -16 -23 34
v -10 -22 41
v -6 -23 43
v 0 -24 45
v 6 -23 43
v 10 -22 41
v 16 -23 34
v 22 -9 34
v -20 33 43
v -28 46 29
v -35 28 11
v 0 11 49
v 6 15 43
v 12 16 39
v 8 20 37
v 13 24 39
v 10 25 42
v 5 26 45
v 0 31 45
v -24 -18 -16
v -28 -16 1
v -35 5 -2
v -40 16 -23
v -29 -5 -33
v -20 -19 -29
v -24 -47 -29
v -20 -53 9
v -20 -28 1
v -24 -26 14
v -35 12 1
v -37 12 -3
v -39 3 -12
v -35 3 -12
v -44 16 -21
v -44 27 -16
v -40 28 -18
v -45 13 -25
v -38 4 -30
v -45 -11 -30
v -27 -16 -33
v -17 -15 -42
v 0 -5 -42
v 0 -16 -25
v 0 -47 -27
v 24 -47 -29
v 20 -19 -29
v 24 -18 -16
v 20 -53 9
v 20 -28 1
v 0 -60 13
v 9 -33 9
v 0 -35 18
v -9 -33 9
v -10 -33 36
v -40 22 -3
v -37 47 15
v -20 66 32
v -19 57 32
v 0 61 39
v 0 69 32
v -10 77 10
v -21 73 10
v -40 54 -16
v -17 52 33
v 0 54 39
v 19 57 32
v 20 66 32
v 10 77 10
v 0 78 10
v 0 82 -11
v -22 76 -11
v -29 43 -52
v -49 35 -34
v -45 29 -11
v -57 3 -20
v -48 -5 -29
v -46 -4 -58
v -44 -12 -59
v -50 -23 -62
v -51 -36 -36
v -33 -35 -39
v -22 -16 -52
v 0 16 -62
v 22 -16 -52
v 17 -15 -42
v 0 68 -42
v 0 43 -59
v 22 76 -11
v 29 43 -52
v -27 2 -64
v -42 24 -59
v -58 4 -53
v -64 7 -38
v -67 -9 -38
v -59 -17 -25
v -53 -25 -30
v -53 -24 -56
v -28 -25 -55
v -33 -43 -70
v -51 -36 -71
v -53 -55 -55
v -38 -55 -61
v 20 33 43
v 16 52 33
v 28 46 29
v 37 47 15
v 40 54 -16
v 21 73 10
v -3 4 56
v 3 4 56
v 6 -1 52
v 17 13 41
v 20 16 39
v 13 17 39
v 19 17 39
v 19 24 39
v 20 27 40
v 20 30 41
v -7 -28 45
v 0 -30 45
v 7 -28 45
v 10 -33 36
v 24 -26 14
v 22 -18 24
v 31 -8 15
v 33 17 17
v 28 14 33
v 0 -35 40
v 24 20 36
v 24 25 34
v 29 26 29
v 35 5 -2
v 28 -16 1
v 40 22 -3
v 44 16 -21
v 44 27 -16
v 40 28 -18
v 35 28 11
v 35 12 1
v 37 12 -3
v 39 3 -12
v 40 16 -23
v 38 4 -30
v 45 13 -25
v 45 29 -11
v 49 35 -34
v 35 3 -12
v 29 -5 -33
v 27 -16 -33
v 45 -11 -30
v 48 -5 -29
v 57 3 -20
v 64 7 -38
v 42 24 -59
v 27 2 -64
v 44 -12 -59
v 50 -23 -62
v 28 -25 -55
v -39 -62 -83
v -34 -49 -85
v -50 -43 -85
v -52 -63 -79
v -60 -16 -51
v -71 -30 -50
v -76 -23 -38
v -70 -31 -27
v -62 -39 -31
v -62 -38 -55
v -77 -47 -53
v -85 -42 -50
v -90 -37 -39
v -84 -42 -29
v -77 -47 -33
v -88 -60 -34
v -88 -60 -52
v -96 -56 -50
v -100 -53 -39
v -95 -56 -30
v -97 -78 -34
v -97 -78 -50
v -106 -75 -39
v -105 -84 -39
v -101 -94 -34
v -101 -94 -50
v 58 4 -53
v 46 -4 -58
v 51 -36 -36
v 53 -55 -55
v 51 -36 -71
v 33 -43 -70
v 33 -35 -39
v 38 -55 -61
v 39 -62 -83
v 52 -63 -79
v 50 -43 -85
v 34 -49 -85
v 53 -25 -30
v 59 -17 -25
v 67 -9 -38
v 60 -16 -51
v 53 -24 -56
v 62 -38 -55
v 62 -39 -31
v 70 -31 -27
v 76 -23 -38
v 71 -30 -50
v 85 -42 -50
v 77 -47 -53
v 77 -47 -33
v 84 -42 -29
v 90 -37 -39
v 100 -53 -39
v 96 -56 -50
v 88 -60 -52
v 88 -60 -34
v 95 -56 -30
v 97 -78 -34
v 106 -75 -39
v 97 -78 -50
v 105 -84 -39
v 101 -94 -50
v 101 -94 -34
v 28 20 29
v 26 23 32
v 12 21 39
v 20 21 39
vn 0 0 -256
vn 0 0 -768
vn 0 0 -1280
vn 0 0 -1280
vn 0 0 -1280
vn 0 0 -768
vn 0 0 -256
vn 0 0 -512
vn 0 0 -768
vn 0 0 -512
vn 0 0 -256
vn 0 0 -1280
vn 0 0 -768
vn 0 0 -1280
vn 0 0 -512
vn 0 0 -768
vn 0 0 -1280
vn 0 0 -512
vn 0 0 -768
vn 0 0 -256
vn -664 -75 -1741
vn -1373 -433 -1393
vn -219 -85 -963
vn 160 -64 -1522
vn -18 386 -1868
vn -772 824 -1277
vn -926 89 -834
vn -184 -279 -657
vn 160 -193 -421
vn 109 -162 -956
vn 0 228 -2564
vn -333 701 -676
vn -309 550 -1314
vn -535 373 -760
vn -1866 323 -1242
vn -826 -48 -636
vn -1105 -87 -605
vn -1147 -34 -885
vn -390 -218 -1369
vn -217 -726 -1220
vn -612 583 -1508
vn 0 340 -1024
vn 0 -18 -1498
vn -420 -206 -1148
vn -784 177 -969
vn -547 -17 -870
vn -269 -125 -646
vn 0 -114 -1622
vn 612 583 -1508
vn 420 -206 -1148
vn 0 620 -1114
vn -946 284 -1311
vn -1826 344 -1463
vn -764 -275 -1463
vn 0 262 -1352
vn 764 -275 -1463
vn 269 -125 -646
vn 547 -17 -870
vn 784 177 -969
vn 946 284 -1311
vn 246 946 -315
vn 0 1356 -986
vn -246 946 -315
vn -690 468 -624
vn -839 -793 -1142
vn -575 -315 -1226
vn -1935 131 -556
vn -1389 419 -352
vn -873 359 -394
vn -1416 527 -893
vn -583 88 -751
vn -460 113 -1092
vn 0 8 -1416
vn 460 113 -1092
vn 583 88 -751
vn 1416 527 -893
vn 1826 344 -1463
vn -735 -94 -1395
vn -1083 -218 -904
vn -1402 174 -544
vn 0 -818 -910
vn 839 -793 -1142
vn 217 -726 -1220
vn -77 -92 -1014
vn 50 622 -1937
vn 333 701 -676
vn 309 550 -1314
vn 0 -84 -1508
vn -1854 546 129
vn -1140 539 125
vn -1434 589 -277
vn -646 644 160
vn -532 432 -862
vn -397 807 417
vn -424 -32 556
vn -520 -88 -339
vn -951 436 -441
vn -1314 961 -270
vn -1180 221 -409
vn -1157 268 -488
vn -558 663 136
vn 243 341 160
vn -916 194 167
vn -490 -393 260
vn -142 78 -383
vn 519 614 -1182
vn 108 375 -1168
vn -783 94 -981
vn 187 751 -936
vn 236 927 156
vn 0 1582 734
vn 0 400 1278
vn 0 -32 508
vn 424 -32 556
vn 397 807 417
vn 1854 546 129
vn 520 -88 -339
vn 951 436 -441
vn 0 -40 -1238
vn 660 1022 -373
vn 0 570 -350
vn -660 1022 -373
vn -665 878 -355
vn -1423 14 -565
vn -1642 -71 -815
vn -815 -880 -904
vn -711 -114 -1284
vn 0 -318 -1346
vn 0 -1274 -776
vn -318 -1433 -384
vn -578 -761 -199
vn -1188 -841 27
vn -398 -263 -875
vn 7 -384 -1869
vn 702 -86 -1285
vn 815 -880 -904
vn 318 -1433 -384
vn 0 -974 -286
vn 0 -1444 58
vn -700 -1214 238
vn -714 -987 1390
vn -1430 -790 270
vn -242 246 -617
vn -223 160 -880
vn 553 433 -1105
vn -334 293 976
vn -347 9 960
vn -507 -501 639
vn -652 233 -676
vn 833 772 -635
vn 953 1071 813
vn 0 336 1714
vn -785 971 1046
vn -236 927 156
vn 0 -1108 878
vn 0 -336 908
vn 700 -1214 238
vn 714 -987 1390
vn -29 96 1403
vn -508 -358 948
vn -971 -265 990
vn -1324 -394 69
vn -1173 -412 38
vn -207 -4 -1110
vn 963 472 -695
vn 320 306 685
vn 933 114 655
vn 952 -240 441
vn -526 -629 425
vn -630 558 -377
vn 857 927 -374
vn 732 -104 -1392
vn 386 -245 -873
vn 1064 -214 -907
vn 1399 -18 -759
vn 1435 -882 -26
vn 578 -761 -199
vn -318 -160 -885
vn 318 -160 -885
vn 690 468 -624
vn 575 -315 -1226
vn 390 -218 -1369
vn -160 -64 -1266
vn 219 -85 -1219
vn 644 69 -1786
vn 772 824 -1277
vn 535 373 -760
vn -689 246 -1318
vn 0 358 -870
vn 689 246 -1318
vn 665 878 -355
vn 1314 961 -270
vn 873 359 -394
vn 1389 419 -352
vn 1935 131 -556
vn 1147 -34 -885
vn 0 1746 -634
vn 1353 -374 -1438
vn 926 89 -834
vn 1866 323 -1242
vn 1434 589 -277
vn 1140 539 125
vn 1423 14 -565
vn 916 194 167
vn 490 -393 260
vn 264 20 -201
vn 1402 174 -544
vn 1180 221 -409
vn 1157 268 -488
vn 558 663 136
vn 776 342 793
vn -16 220 -984
vn -581 532 -1200
vn 270 256 -551
vn 1209 -692 101
vn -243 341 160
vn 535 397 -599
vn -437 831 -948
vn 317 265 -1201
vn -764 313 -663
vn 332 94 -1167
vn 1067 -431 110
vn 707 -482 1051
vn 29 96 1403
vn 677 -11 671
vn 498 -339 643
vn -905 11 547
vn 520 417 -110
vn 412 -350 178
vn -428 -247 142
vn -182 462 -139
vn -959 -268 1056
vn -690 -570 1161
vn -931 -768 -72
vn -276 -149 -1202
vn 684 768 -681
vn 206 415 716
vn 332 384 726
vn -615 -582 1162
vn -966 -797 -103
vn -338 -95 -1143
vn 642 896 -669
vn 801 580 -457
vn 482 318 743
vn -711 -304 831
vn -1181 -476 -68
vn -255 56 -1180
vn 396 344 -870
vn 52 128 673
vn -1091 -87 -175
vn -769 98 -357
vn 105 181 -201
vn -425 137 232
vn 851 -171 800
vn 494 116 1170
vn 578 241 -615
vn 623 598 -309
vn 529 -551 548
vn -962 -331 334
vn -821 593 -714
vn -857 870 -466
vn -313 569 -173
vn 466 207 -40
vn 81 -457 222
vn -563 -48 59
vn -1023 526 -641
vn 146 117 -991
vn 1406 -406 -181
vn 898 -314 1105
vn -386 159 679
vn -343 330 734
vn -623 825 -691
vn 340 -71 -1206
vn 930 -767 -49
vn 705 -617 1131
vn 693 -594 1103
vn -273 490 747
vn -656 840 -694
vn 235 -121 -1171
vn 960 -800 -31
vn 1115 -464 -149
vn 778 -287 1110
vn -509 419 499
vn -912 607 -690
vn 385 -96 -878
vn -374 231 -806
vn 1077 -84 -160
vn -34 249 697
vn 875 88 157
vn -45 166 127
vn 326 152 -354
vn 1105 -87 -605
vn 826 -48 -636
vn -128 -42 -746
vn 164 -54 -457
usemtl m0
f 1 2 3

usemtl m1
f 3 2 4

usemtl m2
f 3 4 5

usemtl m3
f 3 5 6

usemtl m4
f 3 6 7

usemtl m5
f 8 4 2

usemtl m6
f 4 8 9

usemtl m7
f 4 9 5

usemtl m8
f 5 9 10

usemtl m9
f 5 10 6

usemtl m10
f 11 12 13

usemtl m11
f 13 12 14

usemtl m12
f 13 14 15

usemtl m13
f 15 14 16

usemtl m14
f 16 14 17

usemtl m15
f 16 17 18

usemtl m16
f 18 17 19

usemtl m17
f 19 17 12

usemtl m18
f 19 12 20

usemtl m19
f 12 17 14

usemtl m20
f 21 22 23

usemtl m21
f 21 23 24

usemtl m22
f 21 24 25

usemtl m23
f 21 25 26

usemtl m24
f 21 26 27

usemtl m25
f 21 27 22

usemtl m26
f 21 22 28

usemtl m27
f 21 28 25

usemtl m28
f 25 28 29

usemtl m29
f 25 29 30

usemtl m30
f 25 30 31

usemtl m31
f 25 31 32

usemtl m32
f 25 32 26

usemtl m33
f 26 32 33

usemtl m34
f 26 33 34

usemtl m35
f 26 34 35

usemtl m36
f 26 35 27

usemtl m37
f 27 35 36

usemtl m38
f 27 36 22

usemtl m39
f 22 36 37

usemtl m40
f 22 37 38

usemtl m41
f 22 38 39

usemtl m42
f 22 39 23

usemtl m43
f 23 39 24

usemtl m44
f 24 39 40

usemtl m45
f 24 40 30

usemtl m46
f 24 30 25

usemtl m47
f 41 42 43

usemtl m48
f 41 43 44

usemtl m49
f 41 44 45

usemtl m50
f 41 45 46

usemtl m51
f 41 46 47

usemtl m52
f 41 47 48

usemtl m53
f 41 48 42

usemtl m54
f 42 48 49

usemtl m55
f 42 49 43

usemtl m56
f 43 49 50

usemtl m57
f 43 50 51

usemtl m58
f 43 51 44

usemtl m59
f 44 51 52

usemtl m60
f 44 52 45

usemtl m61
f 45 52 53

usemtl m62
f 45 53 46

usemtl m63
f 46 53 54

usemtl m64
f 46 54 47

usemtl m65
f 47 54 48

usemtl m66
f 48 54 55

usemtl m67
f 48 55 56

usemtl m68
f 48 56 57

usemtl m69
f 48 57 49

usemtl m70
f 49 57 58

usemtl m71
f 49 58 59

usemtl m72
f 49 59 50

usemtl m73
f 50 59 60

usemtl m74
f 50 60 51

usemtl m75
f 51 60 61

usemtl m76
f 51 61 62

usemtl m77
f 51 62 63

usemtl m78
f 51 63 52

usemtl m79
f 52 63 64

usemtl m80
f 52 64 65

usemtl m81
f 52 65 66

usemtl m82
f 52 66 53

usemtl m83
f 53 66 38

usemtl m84
f 53 38 67

usemtl m85
f 53 67 68

usemtl m86
f 53 68 69

usemtl m87
f 53 69 70

usemtl m88
f 53 70 54

usemtl m89
f 54 70 71

usemtl m90
f 54 71 72

usemtl m91
f 54 72 55

usemtl m92
f 55 72 73

usemtl m93
f 55 73 74

usemtl m94
f 55 74 56

usemtl m95
f 56 74 75

usemtl m96
f 56 75 76

usemtl m97
f 56 76 77

usemtl m98
f 56 77 58

usemtl m99
f 56 58 57

usemtl m100
f 40 66 65

usemtl m101
f 40 65 31

usemtl m102
f 40 31 30

usemtl m103
f 35 34 78

usemtl m104
f 35 78 79

usemtl m105
f 35 79 80

usemtl m106
f 35 80 67

usemtl m107
f 35 67 37

usemtl m108
f 35 37 36

usemtl m109
f 31 65 81

usemtl m110
f 31 81 82

usemtl m111
f 31 82 83

usemtl m112
f 31 83 84

usemtl m113
f 31 84 85

usemtl m114
f 31 85 86

usemtl m115
f 31 86 87

usemtl m116
f 31 87 88

usemtl m117
f 31 88 33

usemtl m118
f 31 33 32

usemtl m119
f 67 38 37

usemtl m120
f 39 38 66

usemtl m121
f 39 66 40

usemtl m122
f 89 90 91

usemtl m123
f 89 91 92

usemtl m124
f 89 92 93

usemtl m125
f 89 93 94

usemtl m126
f 89 94 95

usemtl m127
f 89 95 96

usemtl m128
f 89 96 97

usemtl m129
f 89 97 90

usemtl m130
f 90 97 98

usemtl m131
f 90 98 68

usemtl m132
f 90 68 91

usemtl m133
f 91 68 67

usemtl m134
f 91 67 99

usemtl m135
f 91 99 100

usemtl m136
f 91 100 101

usemtl m137
f 91 101 102

usemtl m138
f 91 102 92

usemtl m139
f 92 102 101

usemtl m140
f 92 101 103

usemtl m141
f 92 103 104

usemtl m142
f 92 104 105

usemtl m143
f 92 105 106

usemtl m144
f 92 106 107

usemtl m145
f 92 107 93

usemtl m146
f 93 107 108

usemtl m147
f 93 108 109

usemtl m148
f 93 109 94

usemtl m149
f 94 109 110

usemtl m150
f 94 110 111

usemtl m151
f 94 111 112

usemtl m152
f 94 112 95

usemtl m153
f 95 112 113

usemtl m154
f 113 112 114

usemtl m155
f 114 112 115

usemtl m156
f 114 115 116

usemtl m157
f 114 116 117

usemtl m158
f 117 116 118

usemtl m159
f 117 118 119

usemtl m160
f 119 118 120

usemtl m161
f 119 120 121

usemtl m162
f 119 121 122

usemtl m163
f 119 122 97

usemtl m164
f 119 97 96

usemtl m165
f 98 122 123

usemtl m166
f 98 123 70

usemtl m167
f 98 70 69

usemtl m168
f 98 69 68

usemtl m169
f 124 104 103

usemtl m170
f 124 103 100

usemtl m171
f 124 100 99

usemtl m172
f 124 99 80

usemtl m173
f 124 80 125

usemtl m174
f 124 125 105

usemtl m175
f 124 105 104

usemtl m176
f 126 127 128

usemtl m177
f 126 128 129

usemtl m178
f 126 129 130

usemtl m179
f 126 130 131

usemtl m180
f 126 131 132

usemtl m181
f 126 132 125

usemtl m182
f 126 125 127

usemtl m183
f 127 125 79

usemtl m184
f 127 79 133

usemtl m185
f 127 133 134

usemtl m186
f 127 134 128

usemtl m187
f 128 134 135

usemtl m188
f 128 135 136

usemtl m189
f 128 136 129

usemtl m190
f 129 136 137

usemtl m191
f 129 137 138

usemtl m192
f 129 138 130

usemtl m193
f 130 138 139

usemtl m194
f 130 139 140

usemtl m195
f 130 140 131

usemtl m196
f 131 140 132

usemtl m197
f 132 140 141

usemtl m198
f 132 141 142

usemtl m199
f 132 142 125

usemtl m200
f 125 142 143

usemtl m201
f 125 143 105

usemtl m202
f 105 143 106

usemtl m203
f 106 143 144

usemtl m204
f 106 144 145

usemtl m205
f 106 145 107

usemtl m206
f 107 145 108

usemtl m207
f 108 145 146

usemtl m208
f 108 146 147

usemtl m209
f 108 147 148

usemtl m210
f 108 148 149

usemtl m211
f 108 149 109

usemtl m212
f 109 149 150

usemtl m213
f 109 150 151

usemtl m214
f 109 151 110

usemtl m215
f 110 151 111

usemtl m216
f 111 151 152

usemtl m217
f 111 152 153

usemtl m218
f 111 153 154

usemtl m219
f 111 154 115

usemtl m220
f 111 115 112

usemtl m221
f 155 156 141

usemtl m222
f 155 141 140

usemtl m223
f 155 140 139

usemtl m224
f 155 139 157

usemtl m225
f 155 157 158

usemtl m226
f 155 158 156

usemtl m227
f 156 158 152

usemtl m228
f 156 152 141

usemtl m229
f 141 152 159

usemtl m230
f 141 159 160

usemtl m231
f 141 160 142

usemtl m232
f 142 160 161

usemtl m233
f 142 161 162

usemtl m234
f 142 162 143

usemtl m235
f 143 162 144

usemtl m236
f 144 162 163

usemtl m237
f 144 163 164

usemtl m238
f 144 164 145

usemtl m239
f 145 164 165

usemtl m240
f 145 165 146

usemtl m241
f 146 165 166

usemtl m242
f 146 166 161

usemtl m243
f 146 161 160

usemtl m244
f 146 160 159

usemtl m245
f 146 159 147

usemtl m246
f 147 159 151

usemtl m247
f 147 151 167

usemtl m248
f 147 167 148

usemtl m249
f 148 167 168

usemtl m250
f 148 168 169

usemtl m251
f 148 169 149

usemtl m252
f 149 169 170

usemtl m253
f 149 170 150

usemtl m254
f 150 170 171

usemtl m255
f 150 171 167

usemtl m256
f 150 167 151

usemtl m257
f 78 133 79

usemtl m258
f 133 78 134

usemtl m259
f 134 78 88

usemtl m260
f 134 88 172

usemtl m261
f 134 172 173

usemtl m262
f 134 173 135

usemtl m263
f 135 173 174

usemtl m264
f 135 174 175

usemtl m265
f 135 175 136

usemtl m266
f 136 175 176

usemtl m267
f 136 176 177

usemtl m268
f 136 177 137

usemtl m269
f 137 177 157

usemtl m270
f 137 157 139

usemtl m271
f 137 139 138

usemtl m272
f 80 99 67

usemtl m273
f 78 33 88

usemtl m274
f 33 78 34

usemtl m275
f 65 64 178

usemtl m276
f 65 178 81

usemtl m277
f 81 178 179

usemtl m278
f 81 179 82

usemtl m279
f 82 179 180

usemtl m280
f 82 180 60

usemtl m281
f 82 60 181

usemtl m282
f 82 181 83

usemtl m283
f 83 181 182

usemtl m284
f 83 182 183

usemtl m285
f 83 183 84

usemtl m286
f 84 183 85

usemtl m287
f 85 183 184

usemtl m288
f 85 184 185

usemtl m289
f 85 185 186

usemtl m290
f 85 186 86

usemtl m291
f 86 186 87

usemtl m292
f 87 186 187

usemtl m293
f 87 187 172

usemtl m294
f 87 172 88

usemtl m295
f 70 188 71

usemtl m296
f 71 188 72

usemtl m297
f 72 188 73

usemtl m298
f 73 188 189

usemtl m299
f 73 189 190

usemtl m300
f 73 190 74

usemtl m301
f 74 190 75

usemtl m302
f 75 190 76

usemtl m303
f 76 190 191

usemtl m304
f 76 191 192

usemtl m305
f 76 192 193

usemtl m306
f 76 193 77

usemtl m307
f 77 193 194

usemtl m308
f 77 194 195

usemtl m309
f 77 195 196

usemtl m310
f 77 196 181

usemtl m311
f 77 181 60

usemtl m312
f 77 60 59

usemtl m313
f 77 59 58

usemtl m314
f 123 122 197

usemtl m315
f 123 197 188

usemtl m316
f 123 188 70

usemtl m317
f 62 64 63

usemtl m318
f 64 62 178

usemtl m319
f 178 62 179

usemtl m320
f 179 62 180

usemtl m321
f 180 62 61

usemtl m322
f 180 61 60

usemtl m323
f 101 100 103

usemtl m324
f 125 80 79

usemtl m325
f 121 197 122

usemtl m326
f 197 121 120

usemtl m327
f 197 120 191

usemtl m328
f 197 191 190

usemtl m329
f 197 190 189

usemtl m330
f 197 189 188

usemtl m331
f 185 184 198

usemtl m332
f 185 198 199

usemtl m333
f 185 199 186

usemtl m334
f 186 199 200

usemtl m335
f 186 200 187

usemtl m336
f 187 200 172

usemtl m337
f 172 200 174

usemtl m338
f 172 174 173

usemtl m339
f 116 201 202

usemtl m340
f 116 202 118

usemtl m341
f 118 202 192

usemtl m342
f 118 192 120

usemtl m343
f 120 192 191

usemtl m344
f 203 204 205

usemtl m345
f 203 205 206

usemtl m346
f 203 206 175

usemtl m347
f 203 175 207

usemtl m348
f 203 207 208

usemtl m349
f 203 208 209

usemtl m350
f 203 209 204

usemtl m351
f 204 209 210

usemtl m352
f 204 210 211

usemtl m353
f 204 211 205

usemtl m354
f 205 211 206

usemtl m355
f 206 211 212

usemtl m356
f 206 212 213

usemtl m357
f 206 213 214

usemtl m358
f 206 214 175

usemtl m359
f 175 214 176

usemtl m360
f 176 214 215

usemtl m361
f 176 215 158

usemtl m362
f 176 158 157

usemtl m363
f 176 157 177

usemtl m364
f 209 201 210

usemtl m365
f 210 201 216

usemtl m366
f 210 216 211

usemtl m367
f 211 216 201

usemtl m368
f 211 201 116

usemtl m369
f 211 116 217

usemtl m370
f 211 217 212

usemtl m371
f 212 217 218

usemtl m372
f 212 218 219

usemtl m373
f 212 219 213

usemtl m374
f 213 219 220

usemtl m375
f 213 220 221

usemtl m376
f 213 221 214

usemtl m377
f 214 221 215

usemtl m378
f 215 221 222

usemtl m379
f 215 222 223

usemtl m380
f 215 223 158

usemtl m381
f 158 223 224

usemtl m382
f 158 224 152

usemtl m383
f 152 224 153

usemtl m384
f 153 224 225

usemtl m385
f 153 225 226

usemtl m386
f 153 226 227

usemtl m387
f 153 227 218

usemtl m388
f 153 218 154

usemtl m389
f 154 218 115

usemtl m390
f 115 218 217

usemtl m391
f 115 217 116

usemtl m392
f 207 174 200

usemtl m393
f 207 200 195

usemtl m394
f 207 195 208

usemtl m395
f 208 195 201

usemtl m396
f 208 201 209

usemtl m397
f 201 195 194

usemtl m398
f 201 194 202

usemtl m399
f 202 194 192

usemtl m400
f 192 194 193

usemtl m401
f 175 174 207

usemtl m402
f 98 97 122

usemtl m403
f 151 159 152

usemtl m404
f 167 171 168

usemtl m405
f 168 171 228

usemtl m406
f 168 228 229

usemtl m407
f 168 229 169

usemtl m408
f 169 229 230

usemtl m409
f 169 230 170

usemtl m410
f 170 230 231

usemtl m411
f 170 231 171

usemtl m412
f 171 231 228

usemtl m413
f 162 161 232

usemtl m414
f 162 232 163

usemtl m415
f 163 232 233

usemtl m416
f 163 233 234

usemtl m417
f 163 234 164

usemtl m418
f 164 234 235

usemtl m419
f 164 235 165

usemtl m420
f 165 235 236

usemtl m421
f 165 236 166

usemtl m422
f 166 236 237

usemtl m423
f 166 237 232

usemtl m424
f 166 232 161

usemtl m425
f 232 237 233

usemtl m426
f 233 237 238

usemtl m427
f 233 238 239

usemtl m428
f 233 239 234

usemtl m429
f 234 239 240

usemtl m430
f 234 240 235

usemtl m431
f 235 240 241

usemtl m432
f 235 241 236

usemtl m433
f 236 241 242

usemtl m434
f 236 242 237

usemtl m435
f 237 242 238

usemtl m436
f 238 242 243

usemtl m437
f 238 243 244

usemtl m438
f 238 244 239

usemtl m439
f 239 244 245

usemtl m440
f 239 245 240

usemtl m441
f 240 245 246

usemtl m442
f 240 246 241

usemtl m443
f 241 246 247

usemtl m444
f 241 247 242

usemtl m445
f 242 247 243

usemtl m446
f 243 247 248

usemtl m447
f 243 248 244

usemtl m448
f 244 248 249

usemtl m449
f 244 249 245

usemtl m450
f 245 249 246

usemtl m451
f 246 249 250

usemtl m452
f 246 250 247

usemtl m453
f 247 250 248

usemtl m454
f 248 250 251

usemtl m455
f 248 251 252

usemtl m456
f 248 252 249

usemtl m457
f 249 252 253

usemtl m458
f 249 253 250

usemtl m459
f 250 253 251

usemtl m460
f 251 253 252

usemtl m461
f 223 222 254

usemtl m462
f 223 254 255

usemtl m463
f 223 255 224

usemtl m464
f 224 255 225

usemtl m465
f 225 255 219

usemtl m466
f 225 219 256

usemtl m467
f 225 256 226

usemtl m468
f 226 256 257

usemtl m469
f 226 257 258

usemtl m470
f 226 258 227

usemtl m471
f 227 258 259

usemtl m472
f 227 259 260

usemtl m473
f 227 260 218

usemtl m474
f 218 260 219

usemtl m475
f 219 260 256

usemtl m476
f 256 260 261

usemtl m477
f 256 261 257

usemtl m478
f 257 261 262

usemtl m479
f 257 262 263

usemtl m480
f 257 263 258

usemtl m481
f 258 263 264

usemtl m482
f 258 264 259

usemtl m483
f 259 264 265

usemtl m484
f 259 265 261

usemtl m485
f 259 261 260

usemtl m486
f 221 220 266

usemtl m487
f 221 266 267

usemtl m488
f 221 267 268

usemtl m489
f 221 268 222

usemtl m490
f 222 268 254

usemtl m491
f 254 268 269

usemtl m492
f 254 269 255

usemtl m493
f 255 269 270

usemtl m494
f 255 270 220

usemtl m495
f 220 270 266

usemtl m496
f 266 270 271

usemtl m497
f 266 271 272

usemtl m498
f 266 272 267

usemtl m499
f 267 272 273

usemtl m500
f 267 273 268

usemtl m501
f 268 273 274

usemtl m502
f 268 274 269

usemtl m503
f 269 274 275

usemtl m504
f 269 275 270

usemtl m505
f 270 275 271

usemtl m506
f 271 275 276

usemtl m507
f 271 276 277

usemtl m508
f 271 277 272

usemtl m509
f 272 277 278

usemtl m510
f 272 278 273

usemtl m511
f 273 278 279

usemtl m512
f 273 279 274

usemtl m513
f 274 279 280

usemtl m514
f 274 280 275

usemtl m515
f 275 280 276

usemtl m516
f 276 280 281

usemtl m517
f 276 281 282

usemtl m518
f 276 282 277

usemtl m519
f 277 282 283

usemtl m520
f 277 283 278

usemtl m521
f 278 283 284

usemtl m522
f 278 284 279

usemtl m523
f 279 284 285

usemtl m524
f 279 285 280

usemtl m525
f 280 285 281

usemtl m526
f 281 285 286

usemtl m527
f 281 286 287

usemtl m528
f 281 287 282

usemtl m529
f 282 287 288

usemtl m530
f 282 288 283

usemtl m531
f 283 288 284

usemtl m532
f 284 288 286

usemtl m533
f 284 286 285

usemtl m534
f 261 265 262

usemtl m535
f 288 287 289

usemtl m536
f 288 289 290

usemtl m537
f 288 290 286

usemtl m538
f 286 290 291

usemtl m539
f 286 291 287

usemtl m540
f 287 291 289

usemtl m541
f 289 291 290

usemtl m542
f 183 182 184

usemtl m543
f 184 182 198

usemtl m544
f 198 182 196

usemtl m545
f 198 196 292

usemtl m546
f 198 292 293

usemtl m547
f 198 293 199

usemtl m548
f 199 293 200

usemtl m549
f 200 293 292

usemtl m550
f 200 292 195

usemtl m551
f 195 292 196

usemtl m552
f 182 181 196

usemtl m553
f 85 84 294

usemtl m554
f 85 294 185

usemtl m555
f 185 294 295

usemtl m556
f 185 295 198

