mtllib 34170.mtl
o runescapemodel
v -41 36 -61
v 0 39 -76
v -24 -5 -65
v -70 8 -36
v -70 53 -26
v -24 78 -51
v 24 78 -51
v 41 36 -61
v 24 -5 -65
v 0 -33 -44
v -41 -33 -26
v -73 -16 1
v -88 21 8
v -73 64 18
v -41 96 -1
v 0 102 -19
v 41 96 -1
v 70 53 -26
v 70 8 -36
v 41 -33 -26
v 48 -33 -30
v 0 -33 -51
v -48 -33 -30
v -41 -44 22
v -70 -9 46
v -70 39 53
v -41 88 46
v 0 102 25
v 41 88 46
v 73 64 18
v 88 21 8
v 73 -16 1
v 41 -44 22
v 48 -44 25
v 48 -62 22
v 48 -51 -33
v 0 -51 -54
v -48 -51 -33
v -48 -44 25
v 0 -48 40
v -24 -30 71
v -41 11 81
v -24 53 85
v 0 88 64
v 24 53 85
v 70 39 53
v 70 -9 46
v 24 -30 71
v 0 -51 46
v 0 -68 43
v 41 11 81
v 0 8 96
v -48 -62 22
vn -654 -180 1021
vn 0 -228 1389
vn -441 587 1225
vn -1107 347 826
vn -1152 -584 655
vn -472 -922 986
vn 472 -922 986
vn 654 -180 1021
vn 441 587 1225
vn 0 -249 530
vn -565 -84 425
vn -966 709 158
vn -1406 14 13
vn -1026 -635 -117
vn -692 -1233 198
vn 0 -1148 363
vn 692 -1233 198
vn 1152 -584 655
vn 1107 347 826
vn 537 -78 376
vn 641 -799 182
vn 101 -882 693
vn -469 -829 356
vn -528 47 -316
vn -1124 606 -622
vn -1158 -314 -814
vn -692 -1075 -615
vn 0 -1470 -252
vn 692 -1075 -615
vn 1026 -635 -117
vn 1406 14 13
vn 966 709 158
vn 514 70 -394
vn 453 -671 -606
vn 617 38 -230
vn 458 -76 462
vn -101 -114 693
vn -613 -38 231
vn -601 -694 -421
vn 23 -25 -558
vn -436 975 -933
vn -662 165 -1013
vn -471 -521 -1256
vn 0 -931 -749
vn 471 -521 -1256
vn 1158 -314 -814
vn 1124 606 -622
vn 436 975 -933
vn -112 -590 -957
vn 106 118 -688
vn 662 165 -1013
vn 0 236 -1385
vn -467 78 -458
usemtl m0
f 1 2 3

usemtl m1
f 1 3 4

usemtl m2
f 1 4 5

usemtl m3
f 1 5 6

usemtl m4
f 1 6 2

usemtl m5
f 2 6 7

usemtl m6
f 2 7 8

usemtl m7
f 2 8 9

usemtl m8
f 2 9 3

usemtl m9
f 3 9 10

usemtl m10
f 3 10 11

usemtl m11
f 3 11 4

usemtl m12
f 4 11 12

usemtl m13
f 4 12 13

usemtl m14
f 4 13 5

usemtl m15
f 5 13 14

usemtl m16
f 5 14 15

usemtl m17
f 5 15 6

usemtl m18
f 6 15 16

usemtl m19
f 6 16 7

usemtl m20
f 7 16 17

usemtl m21
f 7 17 18

usemtl m22
f 7 18 8

usemtl m23
f 8 18 19

usemtl m24
f 8 19 9

usemtl m25
f 9 19 20

usemtl m26
f 9 20 10

usemtl m27
f 10 20 21

usemtl m28
f 10 21 22

usemtl m29
f 10 22 11

usemtl m30
f 11 22 23

usemtl m31
f 11 23 24

usemtl m32
f 11 24 12

usemtl m33
f 12 24 25

usemtl m34
f 12 25 13

usemtl m35
f 13 25 26

usemtl m36
f 13 26 14

usemtl m37
f 14 26 27

usemtl m38
f 14 27 15

usemtl m39
f 15 27 28

usemtl m40
f 15 28 16

usemtl m41
f 16 28 17

usemtl m42
f 17 28 29

usemtl m43
f 17 29 30

usemtl m44
f 17 30 18

usemtl m45
f 18 30 31

usemtl m46
f 18 31 19

usemtl m47
f 19 31 32

usemtl m48
f 19 32 20

usemtl m49
f 20 32 33

usemtl m50
f 20 33 34

usemtl m51
f 20 34 21

usemtl m52
f 21 34 35

usemtl m53
f 21 35 36

usemtl m54
f 21 36 22

usemtl m55
f 22 36 37

usemtl m56
f 22 37 23

usemtl m57
f 23 37 38

usemtl m58
f 23 38 39

usemtl m59
f 23 39 24

usemtl m60
f 24 39 40

usemtl m61
f 24 40 41

usemtl m62
f 24 41 25

usemtl m63
f 25 41 42

usemtl m64
f 25 42 26

usemtl m65
f 26 42 43

usemtl m66
f 26 43 27

usemtl m67
f 27 43 44

usemtl m68
f 27 44 28

usemtl m69
f 28 44 29

usemtl m70
f 29 44 45

usemtl m71
f 29 45 46

usemtl m72
f 29 46 30

usemtl m73
f 30 46 31

usemtl m74
f 31 46 47

usemtl m75
f 31 47 32

usemtl m76
f 32 47 33

usemtl m77
f 33 47 48

usemtl m78
f 33 48 40

usemtl m79
f 33 40 49

usemtl m80
f 33 49 34

usemtl m81
f 34 49 50

usemtl m82
f 34 50 35

usemtl m83
f 51 47 46

usemtl m84
f 51 46 45

usemtl m85
f 51 45 52

usemtl m86
f 51 52 48

usemtl m87
f 51 48 47

usemtl m88
f 40 48 41

usemtl m89
f 41 48 52

usemtl m90
f 41 52 42

usemtl m91
f 42 52 43

usemtl m92
f 43 52 45

usemtl m93
f 43 45 44

usemtl m94
f 40 39 49

usemtl m95
f 49 39 53

usemtl m96
f 49 53 50

usemtl m97
f 39 38 53

