mtllib 34275.mtl
o runescapemodel
v -9 -6 19
v -17 -6 -5
v -3 -6 -5
v -3 -6 16
v -10 0 21
v -17 -6 16
v -15 2 8
v -15 -1 -6
v -5 -1 -6
v -6 2 8
v -5 -1 18
v -10 2 10
v -15 -1 18
v -13 3 8
v -13 6 7
v -14 7 5
v -15 4 -4
v -6 4 -4
v -6 7 5
v -8 6 7
v -8 3 8
v -10 3 9
v -10 6 8
v -10 7 7
v -13 18 4
v -13 17 -4
v -6 17 -4
v -6 18 4
v -13 110 -8
v -13 114 -8
v 0 114 -10
v 0 110 -10
v 0 101 -13
v -15 97 -13
v -15 110 0
v -15 114 0
v 0 113 10
v -13 114 8
v -13 110 8
v 0 109 10
v 13 110 8
v 13 114 8
v 15 114 0
v 15 110 0
v 13 110 -8
v 13 114 -8
v 15 97 -13
v 0 92 -11
v -17 92 -9
v -17 97 8
v 0 97 9
v 17 97 8
v -15 58 -7
v -3 58 -7
v -1 49 -9
v -17 49 -9
v -17 51 9
v -15 61 9
v -3 61 9
v -1 51 9
v -1 41 9
v -1 39 -9
v -17 39 -9
v -17 40 -5
v -17 41 9
v -19 27 -10
v -18 26 -13
v 9 -6 19
v 3 -6 -5
v 17 -6 -5
v 17 -6 16
v 10 0 21
v 3 -6 16
v 6 2 8
v 5 -1 -6
v 15 -1 -6
v 15 2 8
v 15 -1 18
v 10 2 10
v 5 -1 18
v 15 4 -4
v 14 7 5
v 13 6 7
v 13 3 8
v 6 4 -4
v 13 17 -4
v 13 18 4
v 10 7 7
v 10 6 8
v 10 3 9
v 8 3 8
v 8 6 7
v 6 7 5
v 17 92 -9
v 15 58 -7
v 3 58 -7
v 3 61 9
v 15 61 9
v 1 49 -9
v 1 51 9
v 17 51 9
v 17 49 -9
v 1 39 -9
v 1 41 9
v 17 41 9
v 17 40 -5
v 17 39 -9
v 6 17 -4
v 6 18 4
v 19 27 -10
v 18 26 -13
v 6 -6 2
v -6 -6 2
v 0 -6 -6
v 0 96 15
v -10 96 12
v -11 81 12
v 0 85 15
v 10 96 12
v 7 113 9
v -7 113 9
v -18 96 7
v -17 77 7
v -10 77 12
v 0 81 15
v 11 81 12
v 17 77 7
v 18 96 7
v 13 114 7
v 0 73 15
v 10 77 12
v 11 73 12
v 21 67 7
v 24 66 5
v 20 78 5
v 22 97 5
v 17 115 5
v -11 73 12
v 0 69 15
v 0 59 15
v 13 60 12
v 14 57 12
v 0 56 15
v -14 57 12
v -13 60 12
v -21 67 7
v -24 66 5
v -20 78 5
v -22 97 5
v -13 114 7
v -17 115 5
vn 27 914 -451
vn -487 460 527
vn 479 377 255
vn 718 168 -454
vn 58 -507 -1054
vn -703 237 -479
vn -1571 -923 -711
vn -495 -232 756
vn 491 -137 745
vn 1595 -1187 -737
vn 449 -287 -291
vn -60 -1446 -908
vn -474 -535 -369
vn -276 -532 -917
vn -528 -794 -1259
vn -873 -458 -557
vn -1016 -215 471
vn 1020 -239 986
vn 848 -308 -595
vn 458 -616 -1011
vn 430 -571 -1034
vn -40 -605 -1093
vn 154 -593 -1056
vn 33 -870 -1385
vn -1128 -22 -753
vn -759 160 1002
vn 506 112 501
vn 1125 130 -991
vn -894 -235 1177
vn -295 0 320
vn 0 0 1024
vn 0 -160 994
vn 0 -240 1454
vn -775 -49 798
vn -1247 -157 25
vn -1024 0 0
vn -71 -190 -1752
vn -295 0 -320
vn -884 -56 -1207
vn 0 42 -1016
vn 884 -56 -1207
vn 295 0 -320
vn 1024 0 0
vn 1247 -157 25
vn 894 -235 1177
vn 295 0 320
vn 775 -49 798
vn 0 550 1914
vn -552 105 477
vn -1278 -158 -529
vn 0 106 -2054
vn 1278 -158 -529
vn -1040 -143 1017
vn 1010 -90 512
vn 761 -166 763
vn -761 -111 768
vn -1012 -106 -753
vn -522 -42 -1016
vn 506 -29 -506
vn 756 -106 -753
vn 761 109 -768
vn 755 223 1001
vn -1000 9 600
vn -1782 87 -8
vn -508 152 -760
vn -491 -90 104
vn -235 -47 94
vn -27 914 -451
vn -479 377 255
vn 487 460 527
vn 703 237 -479
vn -58 -507 -1054
vn -718 168 -454
vn -1595 -1187 -737
vn -491 -137 745
vn 495 -232 756
vn 1571 -923 -711
vn 474 -535 -369
vn 60 -1446 -908
vn -449 -287 -291
vn 1016 -215 471
vn 873 -458 -557
vn 528 -794 -1259
vn 276 -532 -917
vn -1020 -239 986
vn 759 160 1002
vn 1128 -22 -753
vn -33 -870 -1385
vn -154 -593 -1056
vn 40 -605 -1093
vn -430 -571 -1034
vn -458 -616 -1011
vn -848 -308 -595
vn 552 105 477
vn 1040 -143 1017
vn -1010 -90 512
vn -506 -29 -506
vn 522 -42 -1016
vn -761 -166 763
vn -756 -106 -753
vn 1012 -106 -753
vn 761 -111 768
vn -755 223 1001
vn -761 109 -768
vn 508 152 -760
vn 1782 87 -8
vn 1000 9 600
vn -506 112 501
vn -1125 130 -991
vn 491 -90 104
vn 235 -47 94
vn 0 256 0
vn 0 256 0
vn 0 256 0
vn -30 -199 -1459
vn -445 -192 -1159
vn -649 47 -1370
vn 7 11 -1489
vn 721 -154 -1598
vn 176 -180 -723
vn -243 -131 -703
vn -728 -106 -1330
vn -1111 -87 -1711
vn -578 -2 -1415
vn 62 17 -1241
vn 522 39 -1149
vn 1170 -157 -1670
vn 747 -71 -1335
vn 312 -121 -686
vn -62 -17 -1241
vn 578 2 -1415
vn 596 -133 -1389
vn 558 -128 -851
vn 550 -138 -862
vn 392 -24 -658
vn 225 -18 -459
vn 216 -60 -462
vn -504 -86 -1160
vn 14 -24 -1493
vn 14 -26 -1501
vn 554 -76 -1416
vn 174 -57 -476
vn 55 -17 -755
vn -367 -60 -953
vn -549 -129 -1412
vn -644 -186 -1099
vn -298 -56 -419
vn -428 -87 -634
vn -478 -39 -903
vn -293 -81 -705
vn -108 -30 -231
usemtl m0
f 1 2 3

usemtl m1
f 1 3 4

usemtl m2
f 1 4 5

usemtl m3
f 1 5 6

usemtl m4
f 1 6 2

usemtl m5
f 2 6 7

usemtl m6
f 2 7 8

usemtl m7
f 2 8 9

usemtl m8
f 2 9 3

usemtl m9
f 3 9 10

usemtl m10
f 3 10 4

usemtl m11
f 4 10 11

usemtl m12
f 4 11 5

usemtl m13
f 5 11 10

usemtl m14
f 5 10 12

usemtl m15
f 5 12 13

usemtl m16
f 5 13 6

usemtl m17
f 6 13 7

usemtl m18
f 7 13 12

usemtl m19
f 7 12 14

usemtl m20
f 7 14 15

usemtl m21
f 7 15 16

usemtl m22
f 7 16 17

usemtl m23
f 7 17 8

usemtl m24
f 8 17 18

usemtl m25
f 8 18 9

usemtl m26
f 9 18 10

usemtl m27
f 10 18 19

usemtl m28
f 10 19 20

usemtl m29
f 10 20 21

usemtl m30
f 10 21 12

usemtl m31
f 12 21 22

usemtl m32
f 12 22 14

usemtl m33
f 14 22 15

usemtl m34
f 15 22 23

usemtl m35
f 15 23 24

usemtl m36
f 15 24 16

usemtl m37
f 16 24 25

usemtl m38
f 16 25 17

usemtl m39
f 17 25 26

usemtl m40
f 17 26 18

usemtl m41
f 18 26 27

usemtl m42
f 18 27 28

usemtl m43
f 18 28 19

usemtl m44
f 19 28 24

usemtl m45
f 19 24 20

usemtl m46
f 20 24 23

usemtl m47
f 20 23 21

usemtl m48
f 21 23 22

usemtl m49
f 29 30 31

usemtl m50
f 29 31 32

usemtl m51
f 29 32 33

usemtl m52
f 29 33 34

usemtl m53
f 29 34 35

usemtl m54
f 29 35 36

usemtl m55
f 29 36 30

usemtl m56
f 37 38 39

usemtl m57
f 37 39 40

usemtl m58
f 37 40 41

usemtl m59
f 37 41 42

usemtl m60
f 42 41 43

usemtl m61
f 43 41 44

usemtl m62
f 43 44 45

usemtl m63
f 43 45 46

usemtl m64
f 46 45 31

usemtl m65
f 31 45 32

usemtl m66
f 32 45 33

usemtl m67
f 33 45 47

usemtl m68
f 33 47 48

usemtl m69
f 33 48 34

usemtl m70
f 34 48 49

usemtl m71
f 34 49 50

usemtl m72
f 34 50 35

usemtl m73
f 35 50 39

usemtl m74
f 35 39 36

usemtl m75
f 36 39 38

usemtl m76
f 39 50 51

usemtl m77
f 39 51 40

usemtl m78
f 40 51 41

usemtl m79
f 41 51 52

usemtl m80
f 41 52 44

usemtl m81
f 44 52 47

usemtl m82
f 44 47 45

usemtl m83
f 53 54 55

usemtl m84
f 53 55 56

usemtl m85
f 53 56 57

usemtl m86
f 53 57 58

usemtl m87
f 53 58 50

usemtl m88
f 53 50 49

usemtl m89
f 53 49 48

usemtl m90
f 53 48 54

usemtl m91
f 54 48 51

usemtl m92
f 54 51 59

usemtl m93
f 54 59 60

usemtl m94
f 54 60 55

usemtl m95
f 55 60 61

usemtl m96
f 55 61 62

usemtl m97
f 55 62 56

usemtl m98
f 56 62 63

usemtl m99
f 56 63 64

usemtl m100
f 56 64 57

usemtl m101
f 57 64 65

usemtl m102
f 57 65 61

usemtl m103
f 57 61 60

usemtl m104
f 57 60 58

usemtl m105
f 58 60 59

usemtl m106
f 58 59 51

usemtl m107
f 58 51 50

usemtl m108
f 66 64 63

usemtl m109
f 66 63 67

usemtl m110
f 62 27 26

usemtl m111
f 62 26 63

usemtl m112
f 63 26 64

usemtl m113
f 64 26 25

usemtl m114
f 64 25 65

usemtl m115
f 65 25 28

usemtl m116
f 65 28 61

usemtl m117
f 61 28 62

usemtl m118
f 62 28 27

usemtl m119
f 25 24 28

usemtl m120
f 68 69 70

usemtl m121
f 68 70 71

usemtl m122
f 68 71 72

usemtl m123
f 68 72 73

usemtl m124
f 68 73 69

usemtl m125
f 69 73 74

usemtl m126
f 69 74 75

usemtl m127
f 69 75 70

usemtl m128
f 70 75 76

usemtl m129
f 70 76 77

usemtl m130
f 70 77 71

usemtl m131
f 71 77 78

usemtl m132
f 71 78 72

usemtl m133
f 72 78 79

usemtl m134
f 72 79 74

usemtl m135
f 72 74 80

usemtl m136
f 72 80 73

usemtl m137
f 73 80 74

usemtl m138
f 77 81 82

usemtl m139
f 77 82 83

usemtl m140
f 77 83 84

usemtl m141
f 77 84 79

usemtl m142
f 77 79 78

usemtl m143
f 77 76 81

usemtl m144
f 81 76 85

usemtl m145
f 81 85 86

usemtl m146
f 81 86 87

usemtl m147
f 81 87 82

usemtl m148
f 82 87 88

usemtl m149
f 82 88 83

usemtl m150
f 83 88 89

usemtl m151
f 83 89 90

usemtl m152
f 83 90 84

usemtl m153
f 84 90 79

usemtl m154
f 79 90 91

usemtl m155
f 79 91 74

usemtl m156
f 74 91 92

usemtl m157
f 74 92 93

usemtl m158
f 74 93 85

usemtl m159
f 74 85 75

usemtl m160
f 75 85 76

usemtl m161
f 88 92 89

usemtl m162
f 89 92 91

usemtl m163
f 89 91 90

usemtl m164
f 48 47 94

usemtl m165
f 48 94 95

usemtl m166
f 48 95 96

usemtl m167
f 48 96 51

usemtl m168
f 51 96 97

usemtl m169
f 51 97 98

usemtl m170
f 51 98 52

usemtl m171
f 52 98 95

usemtl m172
f 52 95 94

usemtl m173
f 52 94 47

usemtl m174
f 95 99 96

usemtl m175
f 96 99 100

usemtl m176
f 96 100 97

usemtl m177
f 97 100 98

usemtl m178
f 98 100 101

usemtl m179
f 98 101 95

usemtl m180
f 95 101 102

usemtl m181
f 95 102 99

usemtl m182
f 99 102 103

usemtl m183
f 99 103 104

usemtl m184
f 99 104 100

usemtl m185
f 100 104 101

usemtl m186
f 101 104 105

usemtl m187
f 101 105 106

usemtl m188
f 101 106 102

usemtl m189
f 102 106 107

usemtl m190
f 102 107 103

usemtl m191
f 103 107 86

usemtl m192
f 103 86 108

usemtl m193
f 103 108 109

usemtl m194
f 103 109 104

usemtl m195
f 104 109 105

usemtl m196
f 105 109 87

usemtl m197
f 105 87 106

usemtl m198
f 106 87 86

usemtl m199
f 106 86 107

usemtl m200
f 110 107 106

usemtl m201
f 107 110 111

usemtl m202
f 85 109 108

usemtl m203
f 85 108 86

usemtl m204
f 85 93 109

usemtl m205
f 109 93 88

usemtl m206
f 109 88 87

usemtl m207
f 92 88 93

usemtl m208
f 112 113 114

usemtl m209
f 115 116 117

usemtl m210
f 115 117 118

usemtl m211
f 115 118 119

usemtl m212
f 115 119 120

usemtl m213
f 115 120 37

usemtl m214
f 115 37 116

usemtl m215
f 116 37 121

usemtl m216
f 116 121 122

usemtl m217
f 116 122 117

usemtl m218
f 117 122 123

usemtl m219
f 117 123 124

usemtl m220
f 117 124 118

usemtl m221
f 118 124 125

usemtl m222
f 118 125 126

usemtl m223
f 118 126 119

usemtl m224
f 119 126 127

usemtl m225
f 119 127 128

usemtl m226
f 119 128 129

usemtl m227
f 119 129 120

usemtl m228
f 125 124 130

usemtl m229
f 125 130 131

usemtl m230
f 125 131 126

usemtl m231
f 126 131 127

usemtl m232
f 127 131 132

usemtl m233
f 127 132 133

usemtl m234
f 127 133 134

usemtl m235
f 127 134 135

usemtl m236
f 127 135 128

usemtl m237
f 128 135 136

usemtl m238
f 128 136 137

usemtl m239
f 128 137 129

usemtl m240
f 130 124 138

usemtl m241
f 130 138 139

usemtl m242
f 130 139 131

usemtl m243
f 131 139 132

usemtl m244
f 132 139 140

usemtl m245
f 132 140 141

usemtl m246
f 132 141 133

usemtl m247
f 133 141 134

usemtl m248
f 134 141 142

usemtl m249
f 142 141 143

usemtl m250
f 143 141 140

usemtl m251
f 143 140 144

usemtl m252
f 144 140 145

usemtl m253
f 144 145 146

usemtl m254
f 144 146 147

usemtl m255
f 147 146 148

usemtl m256
f 148 146 123

usemtl m257
f 148 123 149

usemtl m258
f 149 123 122

usemtl m259
f 149 122 150

usemtl m260
f 149 150 151

usemtl m261
f 139 138 145

usemtl m262
f 139 145 140

usemtl m263
f 138 124 123

usemtl m264
f 138 123 145

usemtl m265
f 145 123 146

usemtl m266
f 122 121 150

