mtllib 34328.mtl
o runescapemodel
v -64 256 64
v 64 128 64
v 64 256 -64
v -64 256 -64
v -64 0 -64
v -64 0 64
v 64 0 64
v 64 0 -64
vn -365 -403 -403
vn 659 -147 -659
vn 403 -403 109
vn -256 -256 512
vn -512 0 256
vn -256 0 -512
vn 256 0 -256
vn 512 0 512
usemtl m0
f 1 2 3

usemtl m1
f 1 3 4

usemtl m2
f 1 4 5

usemtl m3
f 1 5 6

usemtl m4
f 1 6 2

usemtl m5
f 2 6 7

usemtl m6
f 2 7 8

usemtl m7
f 2 8 3

usemtl m8
f 3 8 4

usemtl m9
f 4 8 5

