mtllib 34338.mtl
o runescapemodel
v -41 13 -64
v -35 7 -64
v -61 7 -64
v -55 13 -64
v -41 16 -60
v -32 7 -60
v -32 -25 -60
v -35 -25 -64
v -61 -55 -64
v -64 7 -60
v -55 16 -60
v -41 16 -24
v -32 7 -24
v -32 -25 -24
v -32 -55 -24
v -32 -55 -60
v -35 -55 -64
v -55 -61 -64
v -55 -64 -60
v -64 -55 -60
v -64 7 -24
v -55 16 -24
v -41 16 12
v -32 7 12
v -32 -25 12
v -32 -55 12
v -41 -64 12
v -41 -64 -24
v -41 -64 -60
v -41 -61 -64
v -55 -64 -24
v -64 -55 -24
v -64 7 12
v -55 16 12
v -41 13 16
v -35 7 16
v -35 -25 16
v -35 -55 16
v -41 -61 16
v -55 -61 16
v -55 -64 12
v -55 13 16
v -61 7 16
v -61 -55 16
v -64 -55 12
v -64 28 60
v -60 32 60
v -60 32 20
v -64 28 20
v -64 -76 60
v -62 28 62
v -20 32 20
v -60 28 16
v -60 -76 16
v -64 -76 20
v -60 -80 60
v -62 -76 62
v -60 -80 20
v -20 -80 20
v -20 -76 16
v -18 -76 18
v -20 28 16
v -18 28 18
vn 161 -365 786
vn 730 -322 1060
vn -526 -322 1419
vn -161 -569 683
vn 684 -1348 548
vn 1058 -342 274
vn 1380 0 459
vn 612 0 1227
vn -730 322 1316
vn -1187 -523 427
vn -503 -1219 395
vn 543 -1311 0
vn 1311 -543 0
vn 1536 0 0
vn 1311 543 0
vn 1187 523 427
vn 526 322 1163
vn -161 365 786
vn -684 1348 548
vn -1058 342 274
vn -1311 -543 0
vn -543 -1311 0
vn 503 -1219 -395
vn 1187 -523 -427
vn 1380 0 -459
vn 1058 342 -274
vn 684 1348 -548
vn 543 1311 0
vn 503 1219 395
vn 161 569 683
vn -543 1311 0
vn -1311 543 0
vn -1058 -342 -274
vn -684 -1348 -548
vn 161 -569 -683
vn 526 -322 -1163
vn 612 0 -1227
vn 730 322 -1060
vn 161 365 -786
vn -161 569 -683
vn -503 1219 -395
vn -161 -365 -786
vn -730 -322 -1316
vn -526 322 -1419
vn -1187 523 -427
vn -956 -519 -338
vn -338 -594 -157
vn -513 -950 332
vn -1206 -332 513
vn -1212 338 -519
vn -519 -157 -519
vn 157 -775 519
vn -332 -513 1206
vn -513 332 950
vn -950 513 332
vn -519 775 -157
vn -338 157 -338
vn -332 950 513
vn 157 594 338
vn 338 519 1212
vn 519 157 519
vn 519 -338 956
vn 338 -157 338
usemtl m0
f 1 2 3

usemtl m1
f 1 3 4

usemtl m2
f 1 4 5

usemtl m3
f 1 5 2

usemtl m4
f 2 5 6

usemtl m5
f 2 6 7

usemtl m6
f 2 7 8

usemtl m7
f 2 8 3

usemtl m8
f 3 8 9

usemtl m9
f 3 9 10

usemtl m10
f 3 10 11

usemtl m11
f 3 11 4

usemtl m12
f 4 11 5

usemtl m13
f 5 11 12

usemtl m14
f 5 12 13

usemtl m15
f 5 13 6

usemtl m16
f 6 13 14

usemtl m17
f 6 14 7

usemtl m18
f 7 14 15

usemtl m19
f 7 15 16

usemtl m20
f 7 16 8

usemtl m21
f 8 16 17

usemtl m22
f 8 17 9

usemtl m23
f 9 17 18

usemtl m24
f 9 18 19

usemtl m25
f 9 19 20

usemtl m26
f 9 20 10

usemtl m27
f 10 20 21

usemtl m28
f 10 21 22

usemtl m29
f 10 22 11

usemtl m30
f 11 22 12

usemtl m31
f 12 22 23

usemtl m32
f 12 23 24

usemtl m33
f 12 24 13

usemtl m34
f 13 24 25

usemtl m35
f 13 25 14

usemtl m36
f 14 25 26

usemtl m37
f 14 26 15

usemtl m38
f 15 26 27

usemtl m39
f 15 27 28

usemtl m40
f 15 28 16

usemtl m41
f 16 28 29

usemtl m42
f 16 29 17

usemtl m43
f 17 29 30

usemtl m44
f 17 30 18

usemtl m45
f 18 30 19

usemtl m46
f 19 30 29

usemtl m47
f 19 29 31

usemtl m48
f 19 31 32

usemtl m49
f 19 32 20

usemtl m50
f 20 32 21

usemtl m51
f 21 32 33

usemtl m52
f 21 33 34

usemtl m53
f 21 34 22

usemtl m54
f 22 34 23

usemtl m55
f 23 34 35

usemtl m56
f 23 35 36

usemtl m57
f 23 36 24

usemtl m58
f 24 36 37

usemtl m59
f 24 37 25

usemtl m60
f 25 37 38

usemtl m61
f 25 38 26

usemtl m62
f 26 38 27

usemtl m63
f 27 38 39

usemtl m64
f 27 39 40

usemtl m65
f 27 40 41

usemtl m66
f 27 41 28

usemtl m67
f 28 41 31

usemtl m68
f 28 31 29

usemtl m69
f 35 34 42

usemtl m70
f 35 42 36

usemtl m71
f 36 42 43

usemtl m72
f 36 43 37

usemtl m73
f 37 43 44

usemtl m74
f 37 44 38

usemtl m75
f 38 44 39

usemtl m76
f 39 44 40

usemtl m77
f 40 44 41

usemtl m78
f 41 44 45

usemtl m79
f 41 45 31

usemtl m80
f 31 45 32

usemtl m81
f 32 45 33

usemtl m82
f 33 45 43

usemtl m83
f 33 43 34

usemtl m84
f 34 43 42

usemtl m85
f 45 44 43

usemtl m86
f 46 47 48

usemtl m87
f 46 48 49

usemtl m88
f 46 49 50

usemtl m89
f 46 50 51

usemtl m90
f 46 51 47

usemtl m91
f 47 52 48

usemtl m92
f 48 52 53

usemtl m93
f 48 53 49

usemtl m94
f 49 53 54

usemtl m95
f 49 54 55

usemtl m96
f 49 55 50

usemtl m97
f 50 55 56

usemtl m98
f 50 56 57

usemtl m99
f 50 57 51

usemtl m100
f 56 55 58

usemtl m101
f 56 58 59

usemtl m102
f 59 58 60

usemtl m103
f 59 60 61

usemtl m104
f 61 60 62

usemtl m105
f 61 62 63

usemtl m106
f 63 62 52

usemtl m107
f 52 62 53

usemtl m108
f 53 62 60

usemtl m109
f 53 60 54

usemtl m110
f 54 60 58

usemtl m111
f 54 58 55

