mtllib 34357.mtl
o runescapemodel
v -64 512 64
v -64 256 64
v -32 304 64
v -17 415 64
v -24 388 11
v -24 389 4
v -17 394 0
v -29 444 -3
v -64 512 0
v -64 256 0
v -64 0 64
v 0 129 64
v 0 256 64
v -8 275 49
v -16 276 42
v -32 286 0
v -33 349 -4
v 32 54 64
v 46 0 64
v 32 73 0
v 36 101 42
v -64 512 -64
v -17 415 -64
v -32 304 -64
v -64 256 -64
v -39 429 -33
v -36 399 -37
v 10 404 -48
v 6 388 -56
v -27 333 -45
v 6 281 -3
v 12 276 -40
v 0 256 -64
v 0 129 -64
v -64 0 -64
v -64 0 0
v 32 54 -64
v 46 0 -64
v 30 70 -8
v 28 63 -8
v 33 59 -6
v 64 0 0
v 0 142 0
v 29 61 0
v 39 0 52
v 0 188 -50
v 0 198 -46
v 0 248 -51
v 3 239 0
v -21 132 32
v 32 125 3
v 32 115 -5
v 41 117 32
v 12 248 0
v 3 268 30
v -33 346 -8
v 6 385 -16
v 9 399 -20
vn 823 -308 -704
vn -768 0 -1024
vn 1301 -388 -612
vn 471 -71 -158
vn 1214 -47 128
vn 803 102 -390
vn 1262 -100 -866
vn 1125 -368 262
vn -354 -297 120
vn -1280 0 0
vn -512 0 -768
vn 603 -382 -978
vn 1297 -103 -622
vn 755 -839 -104
vn 377 -829 95
vn 1294 -620 -95
vn 1401 253 -209
vn 667 -109 -705
vn 682 61 -39
vn 1625 78 541
vn 1067 -5 -287
vn 199 -175 409
vn 841 -291 335
vn 842 -493 898
vn -1024 0 1024
vn 1096 -319 -34
vn 646 -804 -162
vn 385 -471 25
vn 877 243 464
vn 1172 414 159
vn 919 -1188 -282
vn 785 -291 195
vn 1142 60 788
vn 980 -200 808
vn -256 0 768
vn -768 0 0
vn 1107 -404 604
vn 239 -61 323
vn 1176 -161 139
vn 1052 -201 40
vn 951 -752 -195
vn 669 -295 -17
vn 1816 -507 296
vn 1037 -137 152
vn 621 -164 -72
vn 1280 0 0
vn 768 0 0
vn 1434 274 112
vn 1073 415 -159
vn 892 -639 -180
vn 493 -642 72
vn 760 -64 564
vn 754 -503 -107
vn 1567 373 -19
vn 905 -370 -219
vn 1038 312 -399
vn 918 398 -489
vn 619 -413 -284
usemtl m0
f 1 2 3

usemtl m1
f 1 3 4

usemtl m2
f 1 4 5

usemtl m3
f 1 5 6

usemtl m4
f 1 6 7

usemtl m5
f 1 7 8

usemtl m6
f 1 8 9

usemtl m7
f 1 9 2

usemtl m8
f 2 9 10

usemtl m9
f 2 10 11

usemtl m10
f 2 11 12

usemtl m11
f 2 12 13

usemtl m12
f 2 13 3

usemtl m13
f 3 13 14

usemtl m14
f 3 14 15

usemtl m15
f 3 15 16

usemtl m16
f 3 16 17

usemtl m17
f 3 17 5

usemtl m18
f 3 5 4

usemtl m19
f 18 11 19

usemtl m20
f 18 19 20

usemtl m21
f 18 20 21

usemtl m22
f 18 21 12

usemtl m23
f 18 12 11

usemtl m24
f 22 23 24

usemtl m25
f 22 24 25

usemtl m26
f 22 25 9

usemtl m27
f 22 9 26

usemtl m28
f 22 26 23

usemtl m29
f 23 26 27

usemtl m30
f 23 27 28

usemtl m31
f 23 28 29

usemtl m32
f 23 29 30

usemtl m33
f 23 30 24

usemtl m34
f 24 30 16

usemtl m35
f 24 16 31

usemtl m36
f 24 31 32

usemtl m37
f 24 32 33

usemtl m38
f 24 33 25

usemtl m39
f 25 33 34

usemtl m40
f 25 34 35

usemtl m41
f 25 35 36

usemtl m42
f 25 36 10

usemtl m43
f 25 10 9

usemtl m44
f 37 38 35

usemtl m45
f 37 35 34

usemtl m46
f 37 34 39

usemtl m47
f 37 39 40

usemtl m48
f 37 40 41

usemtl m49
f 37 41 42

usemtl m50
f 37 42 38

usemtl m51
f 39 34 43

usemtl m52
f 39 43 20

usemtl m53
f 39 20 40

usemtl m54
f 40 20 44

usemtl m55
f 40 44 41

usemtl m56
f 41 44 45

usemtl m57
f 41 45 42

usemtl m58
f 34 33 46

usemtl m59
f 34 46 43

usemtl m60
f 43 46 47

usemtl m61
f 43 47 48

usemtl m62
f 43 48 49

usemtl m63
f 43 49 50

usemtl m64
f 43 50 51

usemtl m65
f 43 51 52

usemtl m66
f 43 52 20

usemtl m67
f 20 52 21

usemtl m68
f 21 52 53

usemtl m69
f 21 53 12

usemtl m70
f 12 53 50

usemtl m71
f 12 50 13

usemtl m72
f 13 50 49

usemtl m73
f 13 49 54

usemtl m74
f 13 54 55

usemtl m75
f 13 55 14

usemtl m76
f 14 55 31

usemtl m77
f 14 31 15

usemtl m78
f 15 31 16

usemtl m79
f 30 56 16

usemtl m80
f 16 56 17

usemtl m81
f 17 56 7

usemtl m82
f 17 7 6

usemtl m83
f 17 6 5

usemtl m84
f 56 30 57

usemtl m85
f 56 57 7

usemtl m86
f 7 57 58

usemtl m87
f 7 58 27

usemtl m88
f 7 27 8

usemtl m89
f 8 27 26

usemtl m90
f 8 26 9

usemtl m91
f 57 29 58

usemtl m92
f 58 29 28

usemtl m93
f 58 28 27

usemtl m94
f 19 45 44

usemtl m95
f 19 44 20

usemtl m96
f 10 36 11

usemtl m97
f 54 49 48

usemtl m98
f 54 48 33

usemtl m99
f 54 33 32

usemtl m100
f 54 32 31

usemtl m101
f 54 31 55

usemtl m102
f 46 33 48

usemtl m103
f 46 48 47

usemtl m104
f 53 51 50

usemtl m105
f 51 53 52

usemtl m106
f 30 29 57

