newmtl m0
Kd 0.996078431372549 0.9921568627450981 0.9921568627450981
d 0.8823529411764706
newmtl m1
Kd 0.996078431372549 0.9921568627450981 0.9921568627450981
d 0.8823529411764706
newmtl m2
Kd 0.20392156862745098 0.49019607843137253 0.01568627450980392
d 0.7843137254901961
newmtl m3
Kd 0.20392156862745098 0.49019607843137253 0.01568627450980392
d 0.7843137254901961
newmtl m4
Kd 0.20392156862745098 0.49019607843137253 0.01568627450980392
d 0.7843137254901961
newmtl m5
Kd 0.20392156862745098 0.49019607843137253 0.01568627450980392
d 0.7843137254901961
newmtl m6
Kd 0.20392156862745098 0.49019607843137253 0.01568627450980392
d 0.7843137254901961
newmtl m7
Kd 0.20392156862745098 0.49019607843137253 0.01568627450980392
d 0.7843137254901961
newmtl m8
Kd 0.20392156862745098 0.49019607843137253 0.01568627450980392
d 0.7843137254901961
newmtl m9
Kd 0.20392156862745098 0.49019607843137253 0.01568627450980392
d 0.7843137254901961
newmtl m10
Kd 0.996078431372549 0.9921568627450981 0.9921568627450981
d 0.8823529411764706
newmtl m11
Kd 0.996078431372549 0.9921568627450981 0.9921568627450981
d 0.8823529411764706
newmtl m12
Kd 0.996078431372549 0.9921568627450981 0.9921568627450981
d 0.8823529411764706
newmtl m13
Kd 0.20392156862745098 0.49019607843137253 0.01568627450980392
d 0.7843137254901961
newmtl m14
Kd 0.20392156862745098 0.49019607843137253 0.01568627450980392
d 0.7843137254901961
newmtl m15
Kd 0.996078431372549 0.9921568627450981 0.9921568627450981
d 0.8823529411764706
newmtl m16
Kd 0.996078431372549 0.9921568627450981 0.9921568627450981
d 0.8823529411764706
newmtl m17
Kd 0.20392156862745098 0.49019607843137253 0.01568627450980392
d 0.7843137254901961
newmtl m18
Kd 0.20392156862745098 0.49019607843137253 0.01568627450980392
d 0.7843137254901961
newmtl m19
Kd 0.996078431372549 0.9921568627450981 0.9921568627450981
d 0.8823529411764706
newmtl m20
Kd 0.996078431372549 0.9921568627450981 0.9921568627450981
d 0.8823529411764706
newmtl m21
Kd 0.996078431372549 0.9921568627450981 0.9921568627450981
d 0.8823529411764706
newmtl m22
Kd 0.996078431372549 0.9921568627450981 0.9921568627450981
d 0.8823529411764706
newmtl m23
Kd 0.996078431372549 0.9921568627450981 0.9921568627450981
d 0.8823529411764706
newmtl m24
Kd 0.996078431372549 0.9921568627450981 0.9921568627450981
d 0.8823529411764706
newmtl m25
Kd 0.996078431372549 0.9921568627450981 0.9921568627450981
d 0.8823529411764706
newmtl m26
Kd 0.996078431372549 0.9921568627450981 0.9921568627450981
d 0.8823529411764706
newmtl m27
Kd 0.996078431372549 0.9921568627450981 0.9921568627450981
d 0.8823529411764706
newmtl m28
Kd 0.20392156862745098 0.49019607843137253 0.01568627450980392
d 0.7843137254901961
newmtl m29
Kd 0.20392156862745098 0.49019607843137253 0.01568627450980392
d 0.7843137254901961
newmtl m30
Kd 0.996078431372549 0.9921568627450981 0.9921568627450981
d 0.8823529411764706
newmtl m31
Kd 0.996078431372549 0.9921568627450981 0.9921568627450981
d 0.8823529411764706
newmtl m32
Kd 0.20392156862745098 0.49019607843137253 0.01568627450980392
d 0.7843137254901961
newmtl m33
Kd 0.20392156862745098 0.49019607843137253 0.01568627450980392
d 0.7843137254901961
newmtl m34
Kd 0.996078431372549 0.9921568627450981 0.9921568627450981
d 0.8823529411764706
newmtl m35
Kd 0.996078431372549 0.9921568627450981 0.9921568627450981
d 0.8823529411764706
newmtl m36
Kd 0.996078431372549 0.9921568627450981 0.9921568627450981
d 0.8823529411764706
newmtl m37
Kd 0.996078431372549 0.9921568627450981 0.9921568627450981
d 0.8823529411764706
newmtl m38
Kd 0.996078431372549 0.9921568627450981 0.9921568627450981
d 0.8823529411764706
newmtl m39
Kd 0.996078431372549 0.9921568627450981 0.9921568627450981
d 0.8823529411764706
newmtl m40
Kd 0.996078431372549 0.9921568627450981 0.9921568627450981
d 0.8823529411764706
newmtl m41
Kd 0.996078431372549 0.9921568627450981 0.9921568627450981
d 0.8823529411764706
newmtl m42
Kd 0.996078431372549 0.9921568627450981 0.9921568627450981
d 0.8823529411764706
newmtl m43
Kd 0.996078431372549 0.9921568627450981 0.9921568627450981
d 0.8823529411764706
newmtl m44
Kd 0.996078431372549 0.9921568627450981 0.9921568627450981
d 0.8823529411764706
newmtl m45
Kd 0.996078431372549 0.9921568627450981 0.9921568627450981
d 0.8823529411764706
newmtl m46
Kd 0.996078431372549 0.9921568627450981 0.9921568627450981
d 0.8823529411764706
newmtl m47
Kd 0.996078431372549 0.9921568627450981 0.9921568627450981
d 0.8823529411764706
newmtl m48
Kd 0.996078431372549 0.9921568627450981 0.9921568627450981
d 0.8823529411764706
newmtl m49
Kd 0.996078431372549 0.9921568627450981 0.9921568627450981
d 0.8823529411764706
newmtl m50
Kd 0.996078431372549 0.9921568627450981 0.9921568627450981
d 0.8823529411764706
newmtl m51
Kd 0.996078431372549 0.9921568627450981 0.9921568627450981
d 0.8823529411764706
