mtllib 34577.mtl
o runescapemodel
v -2 8 5
v 0 8 7
v 0 10 0
v -5 8 -1
v -7 5 5
v 0 5 10
v 7 5 7
v 4 8 5
v 6 8 0
v 2 8 -5
v 0 8 -7
v -3 8 -8
v -8 5 -7
v -10 5 0
v -7 1 0
v -6 1 10
v 0 1 10
v 5 1 9
v 9 5 -1
v -1 5 -13
v 7 5 -8
v 7 1 -10
v 0 1 -10
v -5 1 -7
v -5 -2 0
v -2 -2 5
v 0 -2 7
v 2 -2 5
v 4 -2 1
v 8 1 2
v 0 -4 0
v 2 -2 -5
v 0 -2 -7
v -2 -2 -5
vn -416 -877 -301
vn -113 -1204 -752
vn 28 -1938 9
vn -711 -1334 -80
vn -1036 -784 -710
vn -53 -505 -988
vn 884 -743 -983
vn 357 -884 -328
vn 774 -1279 44
vn 326 -936 291
vn 233 -989 635
vn -140 -544 330
vn -755 -87 788
vn -850 15 -27
vn -1077 612 -40
vn -760 659 -784
vn 186 269 -1103
vn 921 800 -805
vn 1062 -182 -91
vn -16 -234 784
vn 1041 -867 619
vn 717 904 734
vn -358 749 918
vn -1105 1102 750
vn -856 1187 66
vn -340 946 -263
vn 52 1308 -678
vn 394 905 -279
vn 753 1311 -88
vn 1022 491 -62
vn 36 1881 -11
vn 367 938 215
vn -145 1266 678
vn -422 870 327
usemtl m0
f 1 2 3

usemtl m1
f 1 3 4

usemtl m2
f 1 4 5

usemtl m3
f 1 5 2

usemtl m4
f 2 5 6

usemtl m5
f 2 6 7

usemtl m6
f 2 7 8

usemtl m7
f 2 8 3

usemtl m8
f 3 8 9

usemtl m9
f 3 9 10

usemtl m10
f 3 10 11

usemtl m11
f 3 11 12

usemtl m12
f 3 12 4

usemtl m13
f 4 12 13

usemtl m14
f 4 13 14

usemtl m15
f 4 14 5

usemtl m16
f 5 14 15

usemtl m17
f 5 15 16

usemtl m18
f 5 16 6

usemtl m19
f 6 16 17

usemtl m20
f 6 17 7

usemtl m21
f 7 17 18

usemtl m22
f 7 18 19

usemtl m23
f 7 19 9

usemtl m24
f 7 9 8

usemtl m25
f 11 20 13

usemtl m26
f 11 13 12

usemtl m27
f 11 10 21

usemtl m28
f 11 21 20

usemtl m29
f 20 21 22

usemtl m30
f 20 22 23

usemtl m31
f 20 23 13

usemtl m32
f 13 23 24

usemtl m33
f 13 24 14

usemtl m34
f 14 24 15

usemtl m35
f 15 24 25

usemtl m36
f 15 25 16

usemtl m37
f 16 25 26

usemtl m38
f 16 26 27

usemtl m39
f 16 27 17

usemtl m40
f 17 27 18

usemtl m41
f 18 27 28

usemtl m42
f 18 28 29

usemtl m43
f 18 29 30

usemtl m44
f 18 30 19

usemtl m45
f 19 30 21

usemtl m46
f 19 21 9

usemtl m47
f 9 21 10

usemtl m48
f 28 27 31

usemtl m49
f 28 31 29

usemtl m50
f 29 31 32

usemtl m51
f 29 32 22

usemtl m52
f 29 22 30

usemtl m53
f 30 22 21

usemtl m54
f 33 23 22

usemtl m55
f 33 22 32

usemtl m56
f 33 32 31

usemtl m57
f 33 31 34

usemtl m58
f 33 34 24

usemtl m59
f 33 24 23

usemtl m60
f 26 31 27

usemtl m61
f 31 26 25

usemtl m62
f 31 25 34

usemtl m63
f 34 25 24

