mtllib 34590.mtl
o runescapemodel
v 256 16 96
v 250 25 96
v 253 28 112
v 256 19 120
v 256 0 96
v 256 9 -12
v 250 18 -12
v 224 25 96
v 224 21 102
v 254 23 123
v 256 0 135
v 256 24 131
v 256 0 240
v 254 30 125
v 256 32 240
v 184 32 240
v 136 0 240
v 136 32 240
v 72 0 240
v 56 32 240
v 54 15 240
v 40 0 240
v 52 16 244
v 48 19 240
v 24 32 240
v 18 27 237
v 28 0 236
v 20 0 240
v 12 32 240
v -33 32 240
v -33 0 240
v -256 0 240
v -256 32 240
v -256 32 162
v -256 0 162
v -256 32 0
v -256 0 0
v -256 32 -160
v -256 0 -160
v -256 32 -240
v -256 0 -240
v -33 0 -240
v -33 32 -240
v 40 0 -240
v 32 32 -240
v 45 19 -240
v 48 16 -244
v 54 15 -240
v 72 0 -240
v 56 32 -240
v 136 32 -240
v 136 0 -240
v 184 32 -240
v 256 0 -240
v 256 32 -240
v 256 24 -168
v 256 0 -168
v 254 7 -161
v 256 0 -154
v 256 20 -154
v 256 16 -86
v 256 0 -86
v 256 0 0
v 224 28 108
v 224 57 106
v 224 32 208
v 205 32 229
v 158 32 231
v 130 32 224
v 125 32 232
v 97 32 230
v 58 32 224
v 49 36 247
v 41 32 240
v 18 32 224
v 14 27 221
v 9 32 224
v -17 32 224
v -113 32 224
v -163 32 224
v -235 32 208
v -235 32 162
v -235 32 0
v -235 32 -160
v -235 32 -208
v -194 32 -224
v -113 32 -232
v -82 32 -224
v -17 32 -224
v 29 32 -224
v 41 32 -240
v 49 36 -247
v 224 64 208
v 218 60 106
v 210 59 143
v 208 62 165
v 192 64 176
v 175 64 188
v 188 64 208
v 188 40 208
v 152 32 208
v 142 47 208
v 109 39 208
v 109 51 216
v 109 46 224
v 96 36 227
v 83 37 224
v 62 64 224
v 48 38 227
v 41 32 224
v 15 64 224
v 10 55 219
v 4 64 224
v -17 64 224
v -17 32 208
v -132 51 208
v -235 96 208
v -235 96 162
v -235 96 0
v -235 96 -160
v -235 96 -208
v -132 60 -208
v -17 32 -208
v -17 64 -208
v -17 64 -224
v 1 64 -224
v 18 64 -224
v 41 32 -224
v 48 38 -227
v 58 32 -224
v 97 32 -230
v 125 32 -232
v 130 32 -224
v 158 32 -231
v 205 32 -229
v 224 32 -208
v 253 28 -168
v 250 22 -159
v 251 26 -154
v 250 25 -86
v 224 21 0
v 224 45 16
v 224 51 96
v 216 55 101
v 192 57 96
v 204 59 130
v 200 61 144
v 194 74 150
v 192 80 149
v 192 96 176
v 129 69 176
v 128 64 182
v 150 64 208
v 192 80 96
v 192 67 123
v 190 70 10
v 186 88 96
v 166 89 96
v 141 96 118
v 129 96 176
v 93 75 176
v 107 67 187
v 126 64 192
v 109 64 208
v 135 64 208
v 140 60 203
v 93 96 176
v 93 96 208
v 93 71 208
v 98 67 200
v 106 64 195
v 104 64 208
v 109 64 224
v 58 80 208
v 0 96 208
v 22 72 208
v 19 64 214
v 47 68 221
v 65 64 220
v 90 64 215
v 99 64 214
v 0 96 176
v -5 100 199
v -132 96 208
v -17 64 208
v 0 64 208
v 4 64 213
v 24 64 219
v 32 64 224
v 49 66 229
v 0 96 96
v 0 144 160
v 0 144 199
v -42 175 199
v -132 104 199
v 0 132 96
v -36 132 96
v -36 144 160
v -42 192 160
v -6 192 160
v -6 192 208
v -42 175 208
v -120 265 199
v -126 271 199
v -132 277 199
v -226 104 199
v -226 104 161
v -226 104 0
v -226 104 -159
v -226 104 -199
v -132 96 -208
v 212 57 96
v 212 53 0
v 192 53 7
v 192 81 -86
v 183 89 -86
v 179 81 10
v 166 89 0
v 134 96 0
v 0 96 0
v 0 117 0
v -11 122 0
v -36 127 0
v -42 180 96
v 224 35 0
v 224 51 -86
v 212 57 -86
v 192 57 -86
v 192 67 -123
v 192 80 -149
v 192 96 -176
v 166 89 -86
v 224 25 -86
v 221 58 -152
v 208 62 -165
v 204 59 -130
v 200 61 -144
v 194 74 -150
v 192 64 -176
v 129 96 -176
v 141 96 -108
v 224 28 -152
v 93 96 -176
v 93 75 -176
v 93 71 -208
v 93 96 -208
v 0 96 -176
v 0 96 -96
v 129 69 -176
v 107 67 -187
v 98 67 -200
v 104 64 -208
v 99 64 -214
v 90 64 -215
v 58 80 -208
v 0 96 -208
v -5 100 -199
v 0 144 -199
v 0 144 -160
v 0 132 -96
v 65 64 -220
v 47 68 -221
v 19 64 -214
v 22 72 -208
v 0 64 -208
v -132 104 -199
v -42 175 -199
v -42 175 -208
v -6 192 -208
v -6 192 -160
v -36 144 -160
v -36 132 -96
v 32 64 -224
v 49 66 -229
v 62 64 -224
v 83 37 -224
v 96 36 -227
v 109 46 -224
v 109 39 -208
v 142 47 -208
v 152 32 -208
v 188 40 -208
v 211 48 -193
v 222 54 -180
v 212 63 -189
v 109 64 -208
v 106 64 -195
v 126 64 -192
v 135 64 -208
v 109 64 -224
v 27 64 -219
v 1 64 -211
v 128 64 -182
v 188 64 -208
v 206 64 -208
v 175 64 -188
v 5 127 120
v 85 127 120
v 85 96 120
v 5 96 120
v 5 127 200
v 9 132 196
v 9 132 124
v 81 132 124
v 85 127 200
v 85 96 200
v 5 96 200
v 81 132 196
v 67 132 187
v 23 132 187
v 23 132 143
v 67 132 143
v 77 136 138
v 77 136 192
v 18 136 192
v 18 136 138
v 18 172 138
v 77 172 138
v 77 172 192
v 18 172 192
v 23 176 180
v 23 176 143
v 67 176 143
v 67 176 180
v 72 180 185
v 13 180 185
v 13 180 138
v 72 180 138
v 72 205 138
v 72 205 185
v 13 205 185
v 13 205 138
v 23 208 143
v 67 208 143
v 67 208 180
v 23 208 180
v 18 211 199
v 18 211 138
v 77 211 138
v 77 211 199
v 77 256 199
v 18 256 199
v 18 256 138
v 77 256 138
v 67 259 143
v 67 259 188
v 23 259 188
v 23 259 143
v 13 262 138
v 72 262 138
v 72 262 193
v 13 262 193
v 13 304 193
v 13 304 138
v 72 304 138
v 72 304 193
v 67 307 188
v 23 307 188
v 23 307 143
v 67 307 143
v 72 310 138
v 72 310 199
v 18 310 199
v 18 310 138
v 18 341 138
v 72 341 138
v 72 341 199
v 18 341 199
v 23 344 187
v 23 344 143
v 67 344 143
v 67 344 187
v 90 353 213
v 90 342 232
v 90 329 219
v 90 341 199
v 90 359 195
v 2 359 195
v 2 353 213
v 2 342 232
v 2 324 247
v 90 324 247
v 90 315 232
v 2 315 232
v 2 329 219
v 2 341 199
v 90 344 176
v 90 361 176
v 2 361 176
v 2 344 176
v 2 303 236
v 2 301 256
v 90 301 256
v 90 303 236
v 77 361 137
v 77 361 155
v 77 344 155
v 77 344 137
v 15 361 137
v 15 361 155
v 90 361 161
v 90 344 161
v 15 344 155
v 15 344 137
v 2 361 161
v 2 279 248
v 90 279 248
v 90 291 233
v 86 292 232
v 90 305 225
v 2 305 225
v 6 292 232
v 2 291 233
v 2 270 235
v 90 270 235
v 90 288 225
v 90 299 215
v 2 299 215
v 2 288 225
v 2 272 220
v 90 272 220
v 90 288 210
v 2 288 210
v 2 344 161
v -42 165 21
v -53 170 21
v -78 175 0
v -78 180 96
v -78 192 160
v -84 240 160
v -48 240 160
v -12 240 160
v -12 240 208
v -48 240 208
v -84 223 208
v -126 271 208
v -168 319 208
v -210 367 199
v -237 367 199
v -246 384 160
v -246 372 96
v -246 367 0
v -246 372 -96
v -246 384 -160
v -237 367 -199
v -210 367 -199
v -132 277 -199
v -84 228 96
v -120 228 96
v -120 240 160
v -126 288 160
v -90 288 160
v -54 288 160
v -54 288 208
v -84 213 -9
v -95 218 -9
v -120 223 0
v -126 276 96
v -126 261 21
v -137 266 21
v -162 271 0
v -162 276 96
v -162 288 160
v -168 336 160
v -132 336 160
v -96 336 160
v -96 336 208
v -90 288 208
v -168 324 96
v -204 324 96
v -204 336 160
v -210 384 160
v -174 384 160
v -138 384 160
v -138 384 208
v -132 336 208
v -168 309 -6
v -179 314 -6
v -204 319 0
v -210 372 96
v -210 357 21
v -221 362 21
v -250 432 160
v -180 432 160
v -180 432 208
v -174 384 208
v -250 432 208
v -210 367 208
v -246 367 208
v -42 192 -160
v -42 180 -96
v -78 192 -160
v -78 180 -96
v -84 240 -160
v -84 228 -96
v -120 240 -160
v -120 228 -96
v -126 288 -160
v -126 276 -96
v -162 288 -160
v -162 276 -96
v -168 336 -160
v -168 324 -96
v -204 336 -160
v -204 324 -96
v -210 384 -160
v -210 372 -96
v -12 240 -160
v -48 240 -160
v -54 288 -160
v -90 288 -160
v -96 336 -160
v -132 336 -160
v -138 384 -160
v -174 384 -160
v -180 432 -160
v -250 432 -160
v -250 432 -208
v -246 367 -208
v -210 367 -208
v -168 319 -208
v -126 271 -199
v -120 265 -199
v -84 223 -208
v -48 240 -208
v -12 240 -208
v -54 288 -208
v -90 288 -208
v -96 336 -208
v -132 336 -208
v -138 384 -208
v -174 384 -208
v -180 432 -208
v -126 271 -208
v 85 127 -120
v 5 127 -120
v 5 96 -120
v 85 96 -120
v 85 127 -200
v 81 132 -196
v 81 132 -124
v 9 132 -124
v 5 127 -200
v 5 96 -200
v 85 96 -200
v 9 132 -196
v 23 132 -187
v 67 132 -187
v 67 132 -143
v 23 132 -143
v 18 136 -138
v 18 136 -192
v 77 136 -192
v 77 136 -138
v 77 172 -138
v 18 172 -138
v 18 172 -192
v 77 172 -192
v 67 176 -180
v 67 176 -143
v 23 176 -143
v 23 176 -180
v 13 180 -185
v 72 180 -185
v 72 180 -138
v 13 180 -138
v 13 205 -138
v 13 205 -185
v 72 205 -185
v 72 205 -138
v 67 208 -143
v 23 208 -143
v 23 208 -180
v 67 208 -180
v 77 211 -199
v 77 211 -138
v 18 211 -138
v 18 211 -199
v 18 256 -199
v 77 256 -199
v 77 256 -138
v 18 256 -138
v 23 259 -143
v 23 259 -188
v 67 259 -188
v 67 259 -143
v 72 262 -138
v 13 262 -138
v 13 262 -193
v 72 262 -193
v 72 304 -193
v 72 304 -138
v 13 304 -138
v 13 304 -193
v 23 307 -188
v 67 307 -188
v 67 307 -143
v 23 307 -143
v 18 310 -138
v 18 310 -199
v 72 310 -199
v 72 310 -138
v 72 341 -138
v 18 341 -138
v 18 341 -199
v 72 341 -199
v 67 344 -187
v 67 344 -143
v 23 344 -143
v 23 344 -187
v 90 353 -213
v 90 329 -219
v 90 342 -232
v 2 342 -232
v 2 353 -213
v 90 359 -195
v 90 341 -199
v 2 341 -199
v 2 329 -219
v 90 315 -232
v 90 324 -247
v 2 324 -247
v 2 359 -195
v 90 361 -176
v 90 344 -176
v 2 344 -176
v 2 361 -176
v 90 361 -161
v 90 344 -161
v 77 344 -155
v 15 344 -155
v 2 344 -161
v 2 361 -161
v 77 361 -155
v 77 361 -137
v 77 344 -137
v 15 344 -137
v 15 361 -137
v 15 361 -155
v 90 301 -256
v 2 301 -256
v 2 315 -232
v 90 303 -236
v 90 291 -233
v 90 279 -248
v 2 279 -248
v 2 303 -236
v 90 305 -225
v 86 292 -232
v 90 288 -225
v 90 270 -235
v 2 270 -235
v 2 291 -233
v 6 292 -232
v 2 305 -225
v 90 299 -215
v 90 272 -220
v 2 272 -220
v 2 288 -225
v 2 299 -215
v 90 288 -210
v 2 288 -210
v 194 228 149
v 191 213 149
v 204 213 149
v 201 228 149
v 201 240 149
v 194 240 149
v 191 237 149
v 191 232 149
v 204 232 149
v 204 237 149
v 212 205 144
v 212 247 144
v 209 244 149
v 209 209 149
v 185 209 149
v 183 205 144
v 183 205 135
v 212 205 135
v 212 247 135
v 183 247 144
v 185 244 149
v 183 247 135
v 94 161 130
v 94 161 126
v 97 146 126
v 97 146 130
v 101 146 130
v 104 161 130
v 104 161 126
v 101 146 126
v 127 161 130
v 127 161 126
v 130 146 126
v 130 146 130
v 134 146 130
v 137 161 130
v 137 161 126
v 134 146 126
v 159 161 130
v 159 161 126
v 162 146 126
v 162 146 130
v 166 146 130
v 169 161 130
v 169 161 126
v 166 146 126
v 101 137 130
v 97 137 130
v 97 103 130
v 101 103 130
v 101 137 126
v 101 103 126
v 97 137 126
v 97 103 126
v 134 137 130
v 130 137 130
v 130 103 130
v 134 103 130
v 134 137 126
v 134 103 126
v 130 137 126
v 130 103 126
v 166 137 130
v 162 137 130
v 162 103 130
v 166 103 130
v 166 137 126
v 166 103 126
v 162 137 126
v 162 103 126
v 101 198 130
v 97 197 130
v 97 161 130
v 101 161 130
v 101 198 126
v 101 161 126
v 97 197 126
v 101 207 126
v 130 222 126
v 130 213 126
v 134 223 126
v 134 214 126
v 134 161 126
v 130 161 126
v 130 213 130
v 130 161 130
v 134 214 130
v 130 222 130
v 101 207 130
v 97 206 130
v 74 204 130
v 74 195 130
v 74 199 132
v 74 146 130
v 74 195 126
v 74 146 126
v 74 146 124
v 74 199 124
v 74 204 126
v 97 206 126
v 97 221 123
v 101 221 123
v 130 237 133
v 130 237 123
v 134 237 123
v 134 223 130
v 162 231 130
v 162 231 126
v 162 222 126
v 166 232 126
v 166 223 126
v 166 161 126
v 162 161 126
v 162 222 130
v 162 161 130
v 166 223 130
v 134 237 133
v 97 161 126
v 134 161 130
v 166 161 130
v 187 146 130
v 187 146 126
v 74 137 130
v 187 137 130
v 187 146 132
v 187 226 130
v 187 226 126
v 187 226 124
v 187 146 124
v 187 137 126
v 74 137 126
v 74 132 124
v 64 132 124
v 64 267 124
v 74 257 124
v 74 253 126
v 97 221 133
v 101 221 133
v 101 256 130
v 97 255 130
v 97 221 130
v 101 221 130
v 101 256 126
v 101 221 126
v 97 255 126
v 101 265 126
v 130 279 126
v 130 270 126
v 134 281 126
v 134 272 126
v 134 237 126
v 130 237 126
v 130 270 130
v 130 237 130
v 134 272 130
v 130 279 130
v 101 265 130
v 97 264 130
v 97 221 126
v 134 237 130
v 166 279 130
v 162 278 130
v 162 246 130
v 166 246 130
v 166 279 126
v 166 246 126
v 162 278 126
v 166 288 126
v 187 290 126
v 187 281 126
v 187 290 124
v 187 235 126
v 187 281 130
v 187 235 130
v 187 226 132
v 187 290 132
v 187 290 130
v 166 288 130
v 162 287 130
v 162 246 126
v 101 311 130
v 97 311 130
v 97 277 130
v 101 277 130
v 101 311 126
v 101 277 126
v 97 311 126
v 98 323 127
v 100 323 127
v 104 308 126
v 104 308 130
v 100 323 129
v 98 323 129
v 94 308 130
v 94 308 126
v 97 277 126
v 134 328 130
v 130 328 130
v 130 294 130
v 134 294 130
v 134 328 126
v 134 294 126
v 130 328 126
v 131 340 127
v 133 340 127
v 137 325 126
v 137 325 130
v 133 340 129
v 131 340 129
v 127 325 130
v 127 325 126
v 130 294 126
v 166 336 130
v 162 336 130
v 162 302 130
v 166 302 130
v 166 336 126
v 166 302 126
v 162 336 126
v 163 348 127
v 165 348 127
v 169 333 126
v 169 333 130
v 165 348 129
v 163 348 129
v 159 333 130
v 159 333 126
v 162 302 126
v 99 327 128
v 132 344 128
v 164 352 128
v 94 277 130
v 94 277 126
v 97 264 126
v 104 277 130
v 104 277 126
v 74 262 126
v 127 294 130
v 127 294 126
v 137 294 126
v 134 281 130
v 162 287 126
v 169 302 126
v 187 305 132
v 187 305 124
v 195 291 124
v 166 232 130
v 195 103 132
v 195 205 132
v 195 291 132
v 137 294 130
v 159 302 130
v 159 302 126
v 169 302 130
v 166 246 133
v 162 246 133
v 166 246 123
v 162 246 123
v 187 103 124
v 187 103 132
v 195 103 124
v 195 358 124
v 195 358 132
v 189 350 132
v 189 321 132
v 184 317 132
v 184 317 124
v 189 321 124
v 189 350 124
v 189 358 124
v 193 377 126
v 195 377 126
v 195 377 130
v 189 358 132
v 183 349 132
v 184 347 132
v 180 343 132
v 180 343 124
v 183 349 124
v 184 347 124
v 188 362 132
v 181 352 132
v 181 352 124
v 188 362 124
v 193 377 130
v 195 389 128
v 74 262 130
v 74 267 124
v 74 267 132
v 74 257 132
v 74 253 130
v 64 267 132
v 64 132 132
v 74 146 132
v 74 132 132
v 179 328 132
v 179 328 124
v 94 161 -126
v 94 161 -130
v 97 146 -130
v 97 146 -126
v 101 146 -126
v 104 161 -126
v 104 161 -130
v 101 146 -130
v 127 161 -126
v 127 161 -130
v 130 146 -130
v 130 146 -126
v 134 146 -126
v 137 161 -126
v 137 161 -130
v 134 146 -130
v 159 161 -126
v 159 161 -130
v 162 146 -130
v 162 146 -126
v 166 146 -126
v 169 161 -126
v 169 161 -130
v 166 146 -130
v 101 137 -126
v 97 137 -126
v 97 103 -126
v 101 103 -126
v 101 137 -130
v 101 103 -130
v 97 137 -130
v 97 103 -130
v 134 137 -126
v 130 137 -126
v 130 103 -126
v 134 103 -126
v 134 137 -130
v 134 103 -130
v 130 137 -130
v 130 103 -130
v 166 137 -126
v 162 137 -126
v 162 103 -126
v 166 103 -126
v 166 137 -130
v 166 103 -130
v 162 137 -130
v 162 103 -130
v 101 198 -126
v 97 197 -126
v 97 161 -126
v 101 161 -126
v 101 198 -130
v 101 161 -130
v 97 197 -130
v 101 207 -130
v 130 222 -130
v 130 213 -130
v 134 223 -130
v 134 214 -130
v 134 161 -130
v 130 161 -130
v 130 213 -126
v 130 161 -126
v 134 214 -126
v 130 222 -126
v 101 207 -126
v 97 206 -126
v 74 204 -126
v 74 195 -126
v 74 199 -124
v 74 146 -126
v 74 195 -130
v 74 146 -130
v 74 146 -132
v 74 199 -132
v 74 204 -130
v 97 206 -130
v 97 221 -133
v 101 221 -133
v 130 237 -123
v 130 237 -133
v 134 237 -133
v 134 223 -126
v 162 231 -126
v 162 231 -130
v 162 222 -130
v 166 232 -130
v 166 223 -130
v 166 161 -130
v 162 161 -130
v 162 222 -126
v 162 161 -126
v 166 223 -126
v 134 237 -123
v 97 161 -130
v 134 161 -126
v 166 161 -126
v 187 146 -126
v 187 146 -130
v 74 137 -126
v 187 137 -126
v 187 146 -124
v 187 226 -126
v 187 226 -130
v 187 226 -132
v 187 146 -132
v 187 137 -130
v 74 137 -130
v 74 132 -132
v 64 132 -132
v 64 267 -132
v 74 257 -132
v 74 253 -130
v 97 221 -123
v 101 221 -123
v 101 256 -126
v 97 255 -126
v 97 221 -126
v 101 221 -126
v 101 256 -130
v 101 221 -130
v 97 255 -130
v 101 265 -130
v 130 279 -130
v 130 270 -130
v 134 281 -130
v 134 272 -130
v 134 237 -130
v 130 237 -130
v 130 270 -126
v 130 237 -126
v 134 272 -126
v 130 279 -126
v 101 265 -126
v 97 264 -126
v 97 221 -130
v 134 237 -126
v 166 279 -126
v 162 278 -126
v 162 246 -126
v 166 246 -126
v 166 279 -130
v 166 246 -130
v 162 278 -130
v 166 288 -130
v 187 290 -130
v 187 281 -130
v 187 290 -132
v 187 235 -130
v 187 281 -126
v 187 235 -126
v 187 226 -124
v 187 290 -124
v 187 290 -126
v 166 288 -126
v 162 287 -126
v 162 246 -130
v 101 311 -126
v 97 311 -126
v 97 277 -126
v 101 277 -126
v 101 311 -130
v 101 277 -130
v 97 311 -130
v 98 323 -129
v 100 323 -129
v 104 308 -130
v 104 308 -126
v 100 323 -127
v 98 323 -127
v 94 308 -126
v 94 308 -130
v 97 277 -130
v 134 328 -126
v 130 328 -126
v 130 294 -126
v 134 294 -126
v 134 328 -130
v 134 294 -130
v 130 328 -130
v 131 340 -129
v 133 340 -129
v 137 325 -130
v 137 325 -126
v 133 340 -127
v 131 340 -127
v 127 325 -126
v 127 325 -130
v 130 294 -130
v 166 336 -126
v 162 336 -126
v 162 302 -126
v 166 302 -126
v 166 336 -130
v 166 302 -130
v 162 336 -130
v 163 348 -129
v 165 348 -129
v 169 333 -130
v 169 333 -126
v 165 348 -127
v 163 348 -127
v 159 333 -126
v 159 333 -130
v 162 302 -130
v 99 327 -128
v 132 344 -128
v 164 352 -128
v 94 277 -126
v 94 277 -130
v 97 264 -130
v 104 277 -126
v 104 277 -130
v 74 262 -130
v 127 294 -126
v 127 294 -130
v 137 294 -130
v 134 281 -126
v 162 287 -130
v 169 302 -130
v 187 305 -124
v 187 305 -132
v 195 291 -132
v 166 232 -126
v 195 103 -124
v 195 205 -124
v 195 291 -124
v 137 294 -126
v 159 302 -126
v 159 302 -130
v 169 302 -126
v 166 246 -123
v 162 246 -123
v 166 246 -133
v 162 246 -133
v 187 103 -132
v 187 103 -124
v 195 103 -132
v 195 358 -132
v 195 358 -124
v 189 350 -124
v 189 321 -124
v 184 317 -124
v 184 317 -132
v 189 321 -132
v 189 350 -132
v 189 358 -132
v 193 377 -130
v 195 377 -130
v 195 377 -126
v 189 358 -124
v 183 349 -124
v 184 347 -124
v 180 343 -124
v 180 343 -132
v 183 349 -132
v 184 347 -132
v 188 362 -124
v 181 352 -124
v 181 352 -132
v 188 362 -132
v 193 377 -126
v 195 389 -128
v 74 262 -126
v 74 267 -132
v 74 267 -124
v 74 257 -124
v 74 253 -126
v 64 267 -124
v 64 132 -124
v 74 146 -124
v 74 132 -124
v 179 328 -124
v 179 328 -132
vn 1390 -495 91
vn 420 -786 136
vn 507 -975 -142
vn 1230 -233 -92
vn 1024 0 0
vn 1405 -424 -17
vn 702 -1185 8
vn 824 -1017 -315
vn 564 -646 117
vn 1116 -595 312
vn 998 -50 -16
vn 1256 -83 131
vn 512 0 -512
vn 600 -410 292
vn 496 -1097 -237
vn 0 -768 -768
vn 0 0 -768
vn 0 -1280 -768
vn 0 0 -1024
vn 315 -706 -715
vn 571 156 -930
vn -149 171 -1309
vn -104 233 -751
vn -351 45 -830
vn -262 -387 -816
vn -154 -500 -1000
vn 33 5 -467
vn 248 -66 -953
vn 456 -682 -401
vn 0 -1024 -1024
vn 0 0 -512
vn -512 0 -512
vn -256 -1280 -256
vn -768 -768 0
vn -768 0 0
vn -768 -768 0
vn -768 0 0
vn -768 -768 0
vn -768 0 0
vn -512 -1024 512
vn -256 0 256
vn 0 0 768
vn 0 -1280 768
vn -67 60 1398
vn 0 -512 768
vn -544 9 1032
vn 32 123 925
vn 256 124 927
vn 0 0 1024
vn 448 -674 933
vn 0 -1280 768
vn 0 0 768
vn 0 -768 768
vn 512 0 512
vn 474 -920 225
vn 1341 -316 -375
vn 751 -70 -70
vn 1121 -174 31
vn 1007 -70 70
vn 1249 -513 378
vn 1449 -283 -21
vn 512 0 0
vn 768 0 0
vn 739 -722 407
vn 1091 -408 422
vn 576 -756 -295
vn 6 -1488 -172
vn 0 -1280 0
vn 148 -1309 -378
vn 339 -1289 -477
vn -46 -1067 -414
vn 278 -989 -936
vn 398 -594 -557
vn -650 -764 -605
vn -531 -809 -586
vn -47 -543 -584
vn 513 -766 -595
vn -256 -768 -512
vn 29 -1369 -374
vn -35 -872 -356
vn -547 -707 -417
vn -768 -768 0
vn -768 -768 0
vn -768 -768 0
vn -311 -973 398
vn -74 -875 342
vn 26 -1107 375
vn 88 -1128 352
vn -512 -768 512
vn 0 -1024 768
vn -452 -878 484
vn -52 -555 596
vn 377 -1492 -444
vn 149 -1309 397
vn 74 -1256 82
vn 131 -1007 95
vn 784 -1189 -349
vn 0 -1475 -189
vn 0 -512 -768
vn 6 -464 -940
vn 92 -824 -1083
vn 162 -436 -1458
vn 476 -527 -324
vn 1090 -275 -4
vn 300 -420 -831
vn -144 -685 -1062
vn -73 -283 -1184
vn 210 -733 -1037
vn -162 -563 -1014
vn -250 -428 -753
vn -494 -489 -1095
vn 205 -198 -742
vn 401 -428 -684
vn -512 -512 -256
vn -483 -436 -435
vn -6 -540 -1815
vn -596 -764 -852
vn -1278 -573 0
vn -1278 -573 0
vn -1278 -573 0
vn -682 -382 682
vn 14 -723 1718
vn -213 -435 433
vn -512 -512 1024
vn -256 -512 256
vn 0 -512 768
vn 0 -768 768
vn -250 -428 753
vn -162 -563 1014
vn 278 -989 936
vn -46 -1067 414
vn 198 -1179 401
vn 148 -1309 378
vn 0 -1280 0
vn 6 -1488 172
vn 699 -1436 324
vn 482 -978 -344
vn 801 -758 40
vn 383 -757 295
vn 892 -1603 -88
vn 1088 -760 -24
vn 1124 -336 98
vn 774 -659 -193
vn 757 -873 243
vn 951 -1384 192
vn 312 -1162 83
vn 706 -1179 59
vn 934 -369 -17
vn 1247 -161 -14
vn 766 -912 -422
vn 304 -929 -1202
vn 234 -868 -286
vn -262 -763 -835
vn 1431 -305 57
vn 1275 -597 145
vn 1496 -760 2
vn 759 -1199 135
vn 132 -1005 60
vn 162 -2026 37
vn 0 -512 -768
vn 815 -638 -709
vn 286 -1141 -437
vn 280 -492 -220
vn 512 -768 -512
vn 336 -552 -355
vn 74 -547 -422
vn 256 -1024 -256
vn 512 -256 -512
vn 762 -939 -733
vn 634 -1068 -166
vn 244 -1190 -198
vn 361 -1420 -98
vn 512 -1024 -512
vn 30 -861 -1672
vn 160 -945 -1639
vn -94 -324 -896
vn -204 -1290 -567
vn -103 -1344 -571
vn 195 -1076 -472
vn 101 -1275 -566
vn 146 -886 -290
vn 919 -940 -58
vn 413 -596 -843
vn 6 -615 -955
vn -256 -512 -768
vn -59 -676 -700
vn 33 -1679 -181
vn -95 -1257 -125
vn -250 -699 -893
vn 80 -699 -644
vn 768 -768 0
vn 1276 -564 606
vn 626 247 -565
vn -345 373 -768
vn 6 -573 -1790
vn 921 -985 127
vn 762 -850 118
vn 254 -282 308
vn 508 -564 1384
vn 762 -93 768
vn 783 -49 -507
vn -516 585 -1003
vn -549 499 -387
vn -537 513 -403
vn -566 516 -792
vn -675 -354 -991
vn -1275 -518 -3
vn -1275 -516 -1
vn -1530 -500 3
vn -845 -736 1161
vn 0 -573 1278
vn 228 -951 -76
vn 795 -1698 81
vn 764 -823 -18
vn 1615 -407 -64
vn 637 -1294 -120
vn 628 -789 12
vn 458 -1687 8
vn 173 -1515 -1
vn 768 -768 0
vn 976 -460 0
vn 307 -1213 -8
vn 857 -867 38
vn 947 -1078 163
vn 924 -275 57
vn 1206 -597 -44
vn 261 -1722 -91
vn 671 -704 -74
vn 1271 -605 -129
vn 1247 -161 14
vn 722 -950 175
vn 161 -1258 -54
vn 765 -535 -12
vn 1297 -772 0
vn 358 -1697 -91
vn 299 -1170 -97
vn 647 -930 -33
vn 934 -369 17
vn 799 -1445 610
vn 0 -512 768
vn 107 -1777 -35
vn 623 -1202 -28
vn 512 -1024 512
vn 559 -638 453
vn 1018 -939 733
vn 256 -512 512
vn 1175 -940 58
vn 768 -768 0
vn 304 -929 1202
vn 286 -1141 437
vn 634 -1068 166
vn 361 -1420 98
vn 146 -886 290
vn 101 -1275 566
vn 30 -861 1672
vn 167 -882 1550
vn 414 -407 670
vn 880 216 565
vn 766 -282 -303
vn 872 -986 -156
vn 195 -1076 472
vn -117 -1333 589
vn -185 -1015 618
vn -154 -561 934
vn -87 -497 541
vn 7 -617 1720
vn -537 541 760
vn -323 418 763
vn 783 -49 763
vn 762 -93 -768
vn 508 -564 -616
vn 811 -855 -97
vn -256 -703 869
vn 80 -699 644
vn 210 -733 1037
vn -73 -283 1184
vn -144 -685 1062
vn 371 -389 637
vn 701 -613 370
vn 92 -293 1367
vn 92 -824 827
vn 199 -541 1022
vn 692 -310 736
vn 764 -679 311
vn 615 -1006 190
vn 256 -1024 512
vn 244 -1190 198
vn 280 -1260 220
vn 0 -768 512
vn 512 -1024 512
vn -109 -1246 143
vn -119 -1937 226
vn 230 -976 211
vn 11 -1280 1012
vn 395 -147 491
vn 0 -963 189
vn -655 -479 712
vn 712 -479 655
vn 256 0 512
vn -512 0 256
vn -712 -479 -655
vn -399 -1246 -199
vn -199 -1246 399
vn 399 -1246 199
vn 655 -479 -712
vn 512 0 -256
vn -256 0 -512
vn 199 -1246 -399
vn 190 -93 -160
vn -160 -168 -320
vn -320 -168 160
vn 95 -130 320
vn 446 675 672
vn 607 637 -576
vn -576 600 -672
vn -672 600 576
vn -576 -600 672
vn 607 -637 576
vn 446 -716 -592
vn -672 -685 -417
vn -415 -6 -401
vn -350 74 480
vn 350 -74 480
vn 415 -122 -321
vn 672 600 -576
vn -446 674 -672
vn -607 637 576
vn 576 600 672
vn 643 -658 519
vn 519 -658 -643
vn -585 -684 -519
vn -402 -709 643
vn -336 -25 395
vn 336 25 395
vn 278 83 -302
vn -278 15 -210
vn -519 692 -551
vn -643 658 519
vn 402 709 643
vn 585 750 -334
vn 402 -737 -579
vn -643 -713 -390
vn -518 -657 643
vn 585 -684 519
vn 277 -52 395
vn 336 -80 -266
vn -335 -1 -330
vn -277 52 395
vn -585 684 519
vn 519 658 643
vn 644 659 -519
vn -402 709 -643
vn -585 -684 -519
vn -402 -709 643
vn 644 -659 519
vn 519 -658 -643
vn 393 27 -330
vn -277 3 -266
vn -335 -26 395
vn 394 0 396
vn 518 658 644
vn 643 713 -390
vn -518 685 -579
vn -643 659 520
vn -519 -659 644
vn 643 -659 520
vn 519 -687 -574
vn -643 -715 -380
vn -263 -687 -62
vn -132 -660 264
vn 263 -659 132
vn 132 -716 -124
vn 768 -705 -288
vn 512 -768 -648
vn 1024 567 505
vn 768 691 295
vn 768 -750 -132
vn -768 -738 -186
vn -768 -684 -336
vn -768 -384 -324
vn -768 -419 -630
vn 768 -349 -672
vn 768 334 671
vn -768 428 616
vn -768 612 449
vn -768 725 197
vn 1024 1018 66
vn 512 -766 -26
vn -768 -764 -52
vn -768 1021 33
vn -1085 -70 694
vn -768 -99 -716
vn 768 81 -718
vn 1085 -402 407
vn 512 -512 256
vn 470 -512 464
vn 619 1280 232
vn 256 256 512
vn -256 -256 512
vn -619 -1024 232
vn 619 -768 232
vn 470 256 464
vn -470 768 464
vn -512 512 256
vn -470 -768 464
vn -512 594 -770
vn 768 297 -385
vn 923 -294 327
vn 619 -212 215
vn 720 -608 105
vn -720 -641 -71
vn -619 -212 215
vn -1179 -294 327
vn -768 716 -79
vn 768 673 -257
vn 1582 -234 -40
vn 512 -429 597
vn -512 -543 495
vn -1582 -234 -40
vn -512 523 467
vn 512 641 283
vn 512 165 667
vn -512 -75 683
vn -619 256 232
vn 967 -573 18
vn 332 -1204 26
vn 882 -853 48
vn 762 -850 118
vn 254 -282 308
vn 508 -564 1384
vn 508 -318 1280
vn 254 -543 256
vn 508 -318 -512
vn 254 -543 -768
vn -548 500 -899
vn -565 517 -1040
vn -577 503 -1048
vn -385 591 -520
vn -331 750 -228
vn -1351 59 333
vn -765 -701 103
vn -642 -688 43
vn -471 -722 -78
vn -1351 -192 -380
vn -331 494 228
vn -193 679 512
vn -549 499 893
vn 906 -1088 132
vn 762 -850 118
vn 254 -282 308
vn 508 -564 1384
vn 508 -318 1280
vn 254 -543 256
vn 508 -318 -512
vn 967 -570 -8
vn 303 -1215 -20
vn 852 -868 35
vn 947 -1078 163
vn 967 -573 18
vn 332 -1204 26
vn 882 -854 48
vn 762 -850 118
vn 254 -282 308
vn 508 -564 1384
vn 508 -318 1280
vn 254 -543 256
vn 508 -318 -512
vn 254 -543 -768
vn 909 -1088 133
vn 762 -850 118
vn 254 -282 308
vn 508 -564 1384
vn 508 -318 1024
vn 254 -543 256
vn 508 -318 -512
vn 254 -543 -768
vn 968 -571 -7
vn 305 -1215 -17
vn 854 -868 36
vn 947 -1078 163
vn 967 -573 18
vn 332 -1204 26
vn -255 -235 512
vn 254 -543 512
vn 508 -318 -512
vn 254 -543 -768
vn -510 -476 -507
vn -192 680 -1024
vn -336 499 -170
vn 254 -282 -1076
vn 867 -1081 -158
vn 508 -564 -616
vn 798 -860 -93
vn 254 -282 -1076
vn 865 -1079 -177
vn 508 -564 -616
vn 815 -854 -100
vn 254 -282 -1076
vn 867 -1081 -158
vn 508 -564 -616
vn 799 -860 -93
vn 254 -282 -1076
vn 866 -1079 -175
vn 508 -564 -616
vn 814 -855 -99
vn 254 -282 -1076
vn 867 -1081 -158
vn 508 -318 -512
vn 254 -543 -1024
vn 508 -318 -512
vn 254 -543 -1024
vn 508 -318 -512
vn 254 -543 -1024
vn 508 -318 -512
vn 254 -543 -1024
vn 508 -318 -512
vn -255 -491 -512
vn -510 -220 507
vn -336 755 170
vn -385 591 1040
vn -548 500 893
vn -537 513 621
vn -566 516 488
vn -577 503 744
vn 508 -318 1280
vn 254 -543 256
vn 254 -543 256
vn 508 -318 1280
vn 254 -543 256
vn 508 -318 1280
vn 254 -543 256
vn 508 -318 1024
vn 254 -543 512
vn -565 517 752
vn 655 -479 -712
vn -712 -479 -655
vn -256 0 -512
vn 512 0 -256
vn 712 -479 655
vn 399 -1246 199
vn 199 -1246 -399
vn -399 -1246 -199
vn -655 -479 712
vn -512 0 256
vn 256 0 512
vn -199 -1246 399
vn -320 -168 160
vn 95 -130 320
vn 190 -93 -160
vn -160 -168 -320
vn -576 600 -672
vn -672 600 576
vn 446 675 672
vn 607 637 -576
vn 446 -674 -672
vn -672 -600 -576
vn -576 -642 592
vn 607 -722 417
vn 350 -117 401
vn 415 -37 -480
vn -415 37 -480
vn -350 -11 321
vn -607 637 576
vn 576 600 672
vn 672 600 -576
vn -446 674 -672
vn -585 -684 -519
vn -402 -709 643
vn 643 -658 519
vn 519 -658 -643
vn 278 51 -395
vn -278 -51 -395
vn -336 7 302
vn 336 91 210
vn 402 743 551
vn 585 684 -519
vn -519 658 -643
vn -643 724 334
vn -518 -685 579
vn 585 -739 390
vn 402 -709 -643
vn -643 -658 -519
vn -335 26 -395
vn -277 -3 266
vn 277 -79 330
vn 336 -25 -395
vn 644 659 -519
vn -402 709 -643
vn -585 684 519
vn 519 658 643
vn 644 -659 519
vn 519 -658 -643
vn -585 -684 -519
vn -402 -709 643
vn -335 1 330
vn 394 54 266
vn 393 0 -395
vn -277 -51 -396
vn -518 658 -644
vn -643 713 390
vn 518 685 579
vn 643 659 -520
vn 519 -659 -644
vn -643 -659 -520
vn -519 -687 574
vn 643 -715 380
vn 263 -687 62
vn 132 -660 -264
vn -263 -659 -132
vn -132 -716 124
vn 768 -684 336
vn 768 612 -449
vn 768 -384 324
vn -512 -768 648
vn -768 -705 288
vn 768 -738 186
vn 768 725 -197
vn -768 691 -295
vn -1024 567 -505
vn 768 428 -616
vn 768 -419 630
vn -768 -349 672
vn -768 -750 132
vn 768 -764 52
vn 768 765 -33
vn -1024 1274 -66
vn -512 -766 26
vn 470 -768 -464
vn 619 256 -232
vn 470 1280 -464
vn -619 768 -232
vn -470 256 -464
vn -619 -768 -232
vn 619 -1024 -232
vn 256 -256 -512
vn 512 256 -256
vn -256 512 -512
vn -512 -512 -256
vn -470 -512 -464
vn 768 -99 716
vn -768 81 718
vn -768 334 -671
vn 1085 -70 -694
vn 1179 -294 -327
vn 512 594 770
vn -768 297 385
vn -1085 -402 -407
vn 720 -641 71
vn 619 -212 -215
vn 1582 -234 40
vn 768 716 79
vn -768 673 257
vn -923 -294 -327
vn -619 -212 -215
vn -720 -608 -105
vn 512 -543 -495
vn 512 523 -467
vn -512 641 -283
vn -1582 -234 40
vn -512 -429 -597
vn 512 -75 -683
vn -512 165 -667
vn 0 0 -1536
vn 0 0 -256
vn 0 0 -512
vn 0 0 -768
vn 0 0 -1024
vn 0 0 -512
vn 0 0 -512
vn 0 0 -256
vn 0 0 -512
vn 0 0 -256
vn 695 912 -583
vn 732 -696 -395
vn 439 -221 -651
vn 219 200 -803
vn -475 400 -766
vn -749 456 -255
vn -256 512 512
vn 512 256 256
vn 256 -512 512
vn -731 -731 -321
vn -238 -440 -870
vn -512 -256 256
vn -502 -412 -512
vn -251 -206 256
vn -502 100 512
vn -251 50 -256
vn 502 100 -512
vn 251 -206 -256
vn 502 -412 512
vn 251 50 256
vn -502 -412 -512
vn -251 -206 256
vn -502 100 512
vn -251 50 -256
vn 502 100 -512
vn 251 -206 -256
vn 502 -412 512
vn 251 50 256
vn -502 -412 -512
vn -251 -206 256
vn -502 100 512
vn -251 50 -256
vn 502 100 -512
vn 251 -206 -256
vn 502 -412 512
vn 251 50 256
vn 256 0 -512
vn -512 0 -256
vn -256 0 -512
vn 512 0 -256
vn 512 0 256
vn 256 0 512
vn -256 0 512
vn -512 0 256
vn 256 0 -512
vn -512 0 -256
vn -256 0 -512
vn 512 0 -256
vn 512 0 256
vn 256 0 512
vn -256 0 512
vn -512 0 256
vn 256 0 -512
vn -512 0 -256
vn -256 0 -512
vn 512 0 -256
vn 512 0 256
vn 256 0 512
vn -256 0 512
vn -512 0 256
vn 256 0 -1280
vn -512 0 -1024
vn -256 0 -512
vn 512 0 -256
vn 512 0 1024
vn 256 0 512
vn -256 0 1280
vn 32 -353 1270
vn -618 -178 1019
vn -256 0 1280
vn 128 -391 1270
vn 512 0 1024
vn 256 0 512
vn -512 0 256
vn -512 0 -1024
vn -256 0 -512
vn 256 0 -1280
vn -479 -353 -1270
vn 407 -175 -1019
vn -287 -409 -1270
vn 1258 -256 -512
vn 768 0 -256
vn 1024 0 -768
vn 1280 -256 -256
vn 1280 0 512
vn 768 -512 512
vn 1024 0 512
vn 1024 0 768
vn 724 -512 256
vn -522 -206 1019
vn -244 -153 502
vn 512 -459 251
vn -512 -462 -251
vn -244 -153 502
vn 512 -459 251
vn 455 -194 -1019
vn -383 -391 -1270
vn -570 -197 1019
vn -256 0 1280
vn 196 -409 1270
vn 512 0 1024
vn 256 0 512
vn -512 0 256
vn -512 0 -1024
vn -256 0 -512
vn 256 0 -1280
vn 269 -153 -502
vn -512 0 256
vn 512 0 -256
vn 512 0 -256
vn -768 -512 -512
vn -1280 -256 256
vn 768 0 -512
vn -1024 0 -256
vn -1024 0 -512
vn -1280 0 -512
vn -768 0 256
vn -1024 0 768
vn -768 0 512
vn -768 0 512
vn 1024 0 256
vn 512 0 256
vn -256 0 768
vn -512 -512 768
vn 768 0 512
vn 1280 0 512
vn -512 -462 -251
vn 269 -153 -502
vn 320 256 -1280
vn -384 512 -1024
vn -256 0 -512
vn 512 0 -256
vn 640 512 1024
vn 256 0 512
vn -192 256 1280
vn -38 -658 1024
vn -854 -612 1280
vn -136 240 1280
vn 25 -685 1024
vn 752 480 1024
vn 256 0 512
vn -512 0 256
vn -272 480 -1024
vn -256 0 -512
vn 376 240 -1280
vn -595 -654 -1024
vn 260 -620 -1280
vn -359 -711 -1024
vn -512 0 256
vn 512 0 -256
vn 320 256 -1280
vn -384 512 -1024
vn -256 0 -512
vn 512 0 -256
vn 640 512 1024
vn 256 0 512
vn -192 256 1280
vn 139 -715 1024
vn -1048 -256 512
vn -768 0 256
vn -1024 0 512
vn -1316 -256 512
vn -1280 0 -512
vn -840 -512 -256
vn -1024 0 -1024
vn -768 0 -256
vn -816 -512 -256
vn 350 -662 -1280
vn -421 -708 -1024
vn -512 0 256
vn 279 -44 -1024
vn -535 -65 -1024
vn -256 0 -512
vn 512 0 -256
vn 535 -65 1024
vn 256 0 512
vn -279 -44 1024
vn -526 -259 1024
vn 773 -304 768
vn 270 -89 256
vn 517 -155 -256
vn 526 -259 -1024
vn -773 -304 -768
vn -270 -89 -256
vn -517 -155 256
vn -512 0 256
vn 279 -44 -1024
vn -535 -65 -1024
vn -256 0 -512
vn 512 0 -256
vn 535 -65 1024
vn 256 0 512
vn -279 -44 1024
vn -526 -259 1024
vn 773 -304 768
vn 270 -89 256
vn 517 -155 -256
vn 526 -259 -1024
vn -773 -304 -768
vn -270 -89 -256
vn -517 -155 256
vn -512 0 256
vn 279 -44 -1024
vn -535 -65 -1024
vn -256 0 -512
vn 512 0 -256
vn 535 -65 1024
vn 256 0 512
vn -279 -44 1024
vn -526 -259 1024
vn 773 -304 768
vn 270 -89 256
vn 517 -155 -256
vn 526 -259 -1024
vn -773 -304 -768
vn -270 -89 -256
vn -517 -155 256
vn -512 0 256
vn 0 -256 0
vn 0 -256 0
vn 0 -256 0
vn -502 -398 -512
vn -251 -199 256
vn -652 -654 1280
vn 250 -194 -256
vn 500 -388 512
vn 724 -512 256
vn -502 -412 -512
vn -251 -206 256
vn 502 -398 512
vn 209 -617 -1280
vn -683 -663 1280
vn 502 -406 512
vn -1018 62 0
vn -1012 124 768
vn 768 0 1280
vn 489 -203 -1019
vn 256 0 -768
vn 768 0 -512
vn 768 0 -768
vn 251 -199 -256
vn -502 -412 -512
vn -251 -206 256
vn 251 -203 -256
vn 269 -153 -502
vn -512 -462 -251
vn 512 -459 251
vn -244 -153 502
vn -768 0 256
vn -512 0 -256
vn 512 0 768
vn 768 -52 512
vn 768 0 -512
vn -512 0 -512
vn 38 -422 0
vn -734 230 0
vn -718 274 512
vn -365 -211 1024
vn -256 0 512
vn -156 -182 1280
vn -441 -231 1024
vn 768 -68 512
vn 512 0 0
vn -428 -284 -256
vn -676 -372 0
vn 0 0 0
vn -231 -115 0
vn -462 -230 256
vn -659 -399 512
vn 0 0 768
vn -665 -375 0
vn -211 -147 0
vn -422 -294 256
vn -639 -323 512
vn -742 -204 0
vn 0 -84 256
vn 1002 -256 -512
vn 768 -256 256
vn 512 -512 -256
vn 1024 0 -512
vn 768 0 -256
vn -256 -256 -768
vn -512 0 -768
vn 768 0 -512
vn 768 0 -256
vn -321 1 0
vn 60 -316 256
vn -502 -412 -512
vn -251 -206 256
vn -502 100 512
vn -251 50 -256
vn 502 100 -512
vn 251 -206 -256
vn 502 -412 512
vn 251 50 256
vn -502 -412 -512
vn -251 -206 256
vn -502 100 512
vn -251 50 -256
vn 502 100 -512
vn 251 -206 -256
vn 502 -412 512
vn 251 50 256
vn -502 -412 -512
vn -251 -206 256
vn -502 100 512
vn -251 50 -256
vn 502 100 -512
vn 251 -206 -256
vn 502 -412 512
vn 251 50 256
vn 256 0 -512
vn -512 0 -256
vn -256 0 -512
vn 512 0 -256
vn 512 0 256
vn 256 0 512
vn -256 0 512
vn -512 0 256
vn 256 0 -512
vn -512 0 -256
vn -256 0 -512
vn 512 0 -256
vn 512 0 256
vn 256 0 512
vn -256 0 512
vn -512 0 256
vn 256 0 -512
vn -512 0 -256
vn -256 0 -512
vn 512 0 -256
vn 512 0 256
vn 256 0 512
vn -256 0 512
vn -512 0 256
vn 256 0 -1280
vn -512 0 -1024
vn -256 0 -512
vn 512 0 -256
vn 512 0 1024
vn 256 0 512
vn -256 0 1280
vn 32 -353 1270
vn -618 -178 1019
vn -256 0 1280
vn 128 -391 1270
vn 512 0 1024
vn 256 0 512
vn -512 0 256
vn -512 0 -1024
vn -256 0 -512
vn 256 0 -1280
vn -479 -353 -1270
vn 407 -175 -1019
vn -287 -409 -1270
vn 1258 -256 -512
vn 768 0 -256
vn 1024 0 -768
vn 1280 -256 -256
vn 1280 0 512
vn 768 -512 512
vn 1024 0 512
vn 1024 0 768
vn 724 -512 256
vn -522 -206 1019
vn -244 -153 502
vn 512 -459 251
vn -512 -462 -251
vn -244 -153 502
vn 512 -459 251
vn 455 -194 -1019
vn -383 -391 -1270
vn -570 -197 1019
vn -256 0 1280
vn 196 -409 1270
vn 512 0 1024
vn 256 0 512
vn -512 0 256
vn -512 0 -1024
vn -256 0 -512
vn 256 0 -1280
vn 269 -153 -502
vn -512 0 256
vn 512 0 -256
vn 512 0 -256
vn -768 -512 -512
vn -1280 -256 256
vn 768 0 -512
vn -1024 0 -256
vn -1024 0 -512
vn -1280 0 -512
vn -768 0 256
vn -1024 0 768
vn -768 0 512
vn -768 0 512
vn 1024 0 256
vn 512 0 256
vn -256 0 768
vn -512 -512 768
vn 768 0 512
vn 1280 0 512
vn -512 -462 -251
vn 269 -153 -502
vn 320 256 -1280
vn -384 512 -1024
vn -256 0 -512
vn 512 0 -256
vn 640 512 1024
vn 256 0 512
vn -192 256 1280
vn -38 -658 1024
vn -854 -612 1280
vn -136 240 1280
vn 25 -685 1024
vn 752 480 1024
vn 256 0 512
vn -512 0 256
vn -272 480 -1024
vn -256 0 -512
vn 376 240 -1280
vn -595 -654 -1024
vn 260 -620 -1280
vn -359 -711 -1024
vn -512 0 256
vn 512 0 -256
vn 320 256 -1280
vn -384 512 -1024
vn -256 0 -512
vn 512 0 -256
vn 640 512 1024
vn 256 0 512
vn -192 256 1280
vn 139 -715 1024
vn -1048 -256 512
vn -768 0 256
vn -1024 0 512
vn -1316 -256 512
vn -1280 0 -512
vn -840 -512 -256
vn -1024 0 -1024
vn -768 0 -256
vn -816 -512 -256
vn 350 -662 -1280
vn -421 -708 -1024
vn -512 0 256
vn 279 -44 -1024
vn -535 -65 -1024
vn -256 0 -512
vn 512 0 -256
vn 535 -65 1024
vn 256 0 512
vn -279 -44 1024
vn -526 -259 1024
vn 773 -304 768
vn 270 -89 256
vn 517 -155 -256
vn 526 -259 -1024
vn -773 -304 -768
vn -270 -89 -256
vn -517 -155 256
vn -512 0 256
vn 279 -44 -1024
vn -535 -65 -1024
vn -256 0 -512
vn 512 0 -256
vn 535 -65 1024
vn 256 0 512
vn -279 -44 1024
vn -526 -259 1024
vn 773 -304 768
vn 270 -89 256
vn 517 -155 -256
vn 526 -259 -1024
vn -773 -304 -768
vn -270 -89 -256
vn -517 -155 256
vn -512 0 256
vn 279 -44 -1024
vn -535 -65 -1024
vn -256 0 -512
vn 512 0 -256
vn 535 -65 1024
vn 256 0 512
vn -279 -44 1024
vn -526 -259 1024
vn 773 -304 768
vn 270 -89 256
vn 517 -155 -256
vn 526 -259 -1024
vn -773 -304 -768
vn -270 -89 -256
vn -517 -155 256
vn -512 0 256
vn 0 -256 0
vn 0 -256 0
vn 0 -256 0
vn -502 -398 -512
vn -251 -199 256
vn -652 -654 1280
vn 250 -194 -256
vn 500 -388 512
vn 724 -512 256
vn -502 -412 -512
vn -251 -206 256
vn 502 -398 512
vn 209 -617 -1280
vn -683 -663 1280
vn 502 -406 512
vn -1018 62 0
vn -1012 124 768
vn 768 0 1280
vn 489 -203 -1019
vn 256 0 -768
vn 768 0 -512
vn 768 0 -768
vn 251 -199 -256
vn -502 -412 -512
vn -251 -206 256
vn 251 -203 -256
vn 269 -153 -502
vn -512 -462 -251
vn 512 -459 251
vn -244 -153 502
vn -768 0 256
vn -512 0 -256
vn 512 0 768
vn 768 -52 512
vn 768 0 -512
vn -512 0 -512
vn 38 -422 0
vn -734 230 0
vn -718 274 512
vn -365 -211 1024
vn -256 0 512
vn -156 -182 1280
vn -441 -231 1024
vn 768 -68 512
vn 512 0 0
vn -428 -284 -256
vn -676 -372 0
vn 0 0 0
vn -231 -115 0
vn -462 -230 256
vn -659 -399 512
vn 0 0 768
vn -665 -375 0
vn -211 -147 0
vn -422 -294 256
vn -639 -323 512
vn -742 -204 0
vn 0 -84 256
vn 1002 -256 -512
vn 768 -256 256
vn 512 -512 -256
vn 1024 0 -512
vn 768 0 -256
vn -256 -256 -768
vn -512 0 -768
vn 768 0 -512
vn 768 0 -256
vn -321 1 0
vn 60 -316 256
usemtl m0
f 1 2 3

usemtl m1
f 1 3 4

usemtl m2
f 1 4 5

usemtl m3
f 1 5 6

usemtl m4
f 1 6 7

usemtl m5
f 1 7 2

usemtl m6
f 2 7 8

usemtl m7
f 2 8 3

usemtl m8
f 3 8 9

usemtl m9
f 3 9 10

usemtl m10
f 3 10 4

usemtl m11
f 4 10 11

usemtl m12
f 4 11 5

usemtl m13
f 12 13 11

usemtl m14
f 12 11 10

usemtl m15
f 12 10 14

usemtl m16
f 12 14 15

usemtl m17
f 12 15 13

usemtl m18
f 13 15 16

usemtl m19
f 13 16 17

usemtl m20
f 17 16 18

usemtl m21
f 17 18 19

usemtl m22
f 19 18 20

usemtl m23
f 19 20 21

usemtl m24
f 19 21 22

usemtl m25
f 22 21 23

usemtl m26
f 22 23 24

usemtl m27
f 22 24 25

usemtl m28
f 22 25 26

usemtl m29
f 22 26 27

usemtl m30
f 27 26 28

usemtl m31
f 28 26 29

usemtl m32
f 28 29 30

usemtl m33
f 28 30 31

usemtl m34
f 31 30 32

usemtl m35
f 32 30 33

usemtl m36
f 32 33 34

usemtl m37
f 32 34 35

usemtl m38
f 35 34 36

usemtl m39
f 35 36 37

usemtl m40
f 37 36 38

usemtl m41
f 37 38 39

usemtl m42
f 39 38 40

usemtl m43
f 39 40 41

usemtl m44
f 41 40 42

usemtl m45
f 42 40 43

usemtl m46
f 42 43 44

usemtl m47
f 44 43 45

usemtl m48
f 44 45 46

usemtl m49
f 44 46 47

usemtl m50
f 44 47 48

usemtl m51
f 44 48 49

usemtl m52
f 49 48 50

usemtl m53
f 49 50 51

usemtl m54
f 49 51 52

usemtl m55
f 52 51 53

usemtl m56
f 52 53 54

usemtl m57
f 54 53 55

usemtl m58
f 54 55 56

usemtl m59
f 54 56 57

usemtl m60
f 57 56 58

usemtl m61
f 57 58 59

usemtl m62
f 59 58 60

usemtl m63
f 59 60 61

usemtl m64
f 59 61 62

usemtl m65
f 62 61 63

usemtl m66
f 63 61 6

usemtl m67
f 63 6 5

usemtl m68
f 64 15 14

usemtl m69
f 64 14 10

usemtl m70
f 64 10 9

usemtl m71
f 64 9 65

usemtl m72
f 64 65 66

usemtl m73
f 64 66 15

usemtl m74
f 15 66 67

usemtl m75
f 15 67 16

usemtl m76
f 16 67 68

usemtl m77
f 16 68 18

usemtl m78
f 18 68 69

usemtl m79
f 18 69 70

usemtl m80
f 18 70 71

usemtl m81
f 18 71 20

usemtl m82
f 20 71 72

usemtl m83
f 20 72 73

usemtl m84
f 20 73 21

usemtl m85
f 21 73 23

usemtl m86
f 23 73 74

usemtl m87
f 23 74 24

usemtl m88
f 24 74 25

usemtl m89
f 25 74 75

usemtl m90
f 25 75 26

usemtl m91
f 26 75 76

usemtl m92
f 26 76 29

usemtl m93
f 29 76 77

usemtl m94
f 29 77 30

usemtl m95
f 30 77 78

usemtl m96
f 30 78 79

usemtl m97
f 30 79 33

usemtl m98
f 33 79 80

usemtl m99
f 33 80 81

usemtl m100
f 33 81 82

usemtl m101
f 33 82 34

usemtl m102
f 34 82 83

usemtl m103
f 34 83 36

usemtl m104
f 36 83 84

usemtl m105
f 36 84 38

usemtl m106
f 38 84 85

usemtl m107
f 38 85 40

usemtl m108
f 40 85 86

usemtl m109
f 40 86 87

usemtl m110
f 40 87 43

usemtl m111
f 43 87 88

usemtl m112
f 43 88 89

usemtl m113
f 43 89 90

usemtl m114
f 43 90 45

usemtl m115
f 45 90 91

usemtl m116
f 45 91 46

usemtl m117
f 46 91 92

usemtl m118
f 46 92 47

usemtl m119
f 47 92 50

usemtl m120
f 47 50 48

usemtl m121
f 93 66 65

usemtl m122
f 93 65 94

usemtl m123
f 93 94 95

usemtl m124
f 93 95 96

usemtl m125
f 93 96 97

usemtl m126
f 93 97 98

usemtl m127
f 93 98 99

usemtl m128
f 93 99 100

usemtl m129
f 93 100 66

usemtl m130
f 66 100 67

usemtl m131
f 67 100 101

usemtl m132
f 67 101 68

usemtl m133
f 68 101 69

usemtl m134
f 69 101 102

usemtl m135
f 69 102 103

usemtl m136
f 69 103 70

usemtl m137
f 70 103 104

usemtl m138
f 70 104 105

usemtl m139
f 70 105 106

usemtl m140
f 70 106 71

usemtl m141
f 71 106 72

usemtl m142
f 72 106 107

usemtl m143
f 72 107 108

usemtl m144
f 72 108 109

usemtl m145
f 72 109 73

usemtl m146
f 73 109 74

usemtl m147
f 74 109 110

usemtl m148
f 74 110 75

usemtl m149
f 75 110 111

usemtl m150
f 75 111 76

usemtl m151
f 76 111 112

usemtl m152
f 76 112 77

usemtl m153
f 77 112 113

usemtl m154
f 77 113 78

usemtl m155
f 78 113 114

usemtl m156
f 78 114 115

usemtl m157
f 78 115 79

usemtl m158
f 79 115 116

usemtl m159
f 79 116 80

usemtl m160
f 80 116 81

usemtl m161
f 81 116 117

usemtl m162
f 81 117 118

usemtl m163
f 81 118 82

usemtl m164
f 82 118 119

usemtl m165
f 82 119 83

usemtl m166
f 83 119 120

usemtl m167
f 83 120 84

usemtl m168
f 84 120 121

usemtl m169
f 84 121 85

usemtl m170
f 85 121 122

usemtl m171
f 85 122 86

usemtl m172
f 86 122 87

usemtl m173
f 87 122 88

usemtl m174
f 88 122 123

usemtl m175
f 88 123 89

usemtl m176
f 89 123 124

usemtl m177
f 89 124 125

usemtl m178
f 89 125 126

usemtl m179
f 89 126 90

usemtl m180
f 90 126 127

usemtl m181
f 90 127 128

usemtl m182
f 90 128 91

usemtl m183
f 91 128 129

usemtl m184
f 91 129 92

usemtl m185
f 92 129 130

usemtl m186
f 92 130 50

usemtl m187
f 50 130 131

usemtl m188
f 50 131 51

usemtl m189
f 51 131 132

usemtl m190
f 51 132 133

usemtl m191
f 51 133 134

usemtl m192
f 51 134 53

usemtl m193
f 53 134 135

usemtl m194
f 53 135 55

usemtl m195
f 55 135 136

usemtl m196
f 55 136 137

usemtl m197
f 55 137 56

usemtl m198
f 56 137 138

usemtl m199
f 56 138 58

usemtl m200
f 58 138 60

usemtl m201
f 60 138 139

usemtl m202
f 60 139 140

usemtl m203
f 60 140 61

usemtl m204
f 61 140 6

usemtl m205
f 6 140 7

usemtl m206
f 7 140 141

usemtl m207
f 7 141 8

usemtl m208
f 8 141 142

usemtl m209
f 8 142 143

usemtl m210
f 8 143 144

usemtl m211
f 8 144 9

usemtl m212
f 9 144 65

usemtl m213
f 65 144 94

usemtl m214
f 94 144 145

usemtl m215
f 94 145 146

usemtl m216
f 94 146 95

usemtl m217
f 95 146 147

usemtl m218
f 95 147 96

usemtl m219
f 96 147 97

usemtl m220
f 97 147 148

usemtl m221
f 97 148 149

usemtl m222
f 97 149 150

usemtl m223
f 97 150 151

usemtl m224
f 97 151 98

usemtl m225
f 98 151 152

usemtl m226
f 98 152 153

usemtl m227
f 98 153 99

usemtl m228
f 99 153 101

usemtl m229
f 99 101 100

usemtl m230
f 154 150 149

usemtl m231
f 154 149 155

usemtl m232
f 154 155 145

usemtl m233
f 154 145 156

usemtl m234
f 154 156 157

usemtl m235
f 154 157 150

usemtl m236
f 150 157 158

usemtl m237
f 150 158 159

usemtl m238
f 150 159 160

usemtl m239
f 150 160 151

usemtl m240
f 151 160 161

usemtl m241
f 151 161 162

usemtl m242
f 151 162 163

usemtl m243
f 151 163 152

usemtl m244
f 152 163 164

usemtl m245
f 152 164 165

usemtl m246
f 152 165 166

usemtl m247
f 152 166 153

usemtl m248
f 153 166 102

usemtl m249
f 153 102 101

usemtl m250
f 161 167 168

usemtl m251
f 161 168 169

usemtl m252
f 161 169 170

usemtl m253
f 161 170 162

usemtl m254
f 162 170 171

usemtl m255
f 162 171 163

usemtl m256
f 163 171 164

usemtl m257
f 164 171 172

usemtl m258
f 164 172 173

usemtl m259
f 164 173 104

usemtl m260
f 164 104 103

usemtl m261
f 164 103 102

usemtl m262
f 164 102 165

usemtl m263
f 165 102 166

usemtl m264
f 174 169 168

usemtl m265
f 174 168 175

usemtl m266
f 174 175 176

usemtl m267
f 174 176 177

usemtl m268
f 174 177 178

usemtl m269
f 174 178 179

usemtl m270
f 174 179 180

usemtl m271
f 174 180 169

usemtl m272
f 169 180 181

usemtl m273
f 169 181 172

usemtl m274
f 169 172 170

usemtl m275
f 170 172 171

usemtl m276
f 175 168 167

usemtl m277
f 175 167 182

usemtl m278
f 175 182 183

usemtl m279
f 175 183 184

usemtl m280
f 175 184 116

usemtl m281
f 175 116 185

usemtl m282
f 175 185 186

usemtl m283
f 175 186 176

usemtl m284
f 176 186 177

usemtl m285
f 177 186 187

usemtl m286
f 177 187 188

usemtl m287
f 177 188 178

usemtl m288
f 178 188 189

usemtl m289
f 178 189 190

usemtl m290
f 178 190 179

usemtl m291
f 179 190 108

usemtl m292
f 179 108 180

usemtl m293
f 180 108 173

usemtl m294
f 180 173 181

usemtl m295
f 181 173 172

usemtl m296
f 182 167 159

usemtl m297
f 182 159 191

usemtl m298
f 182 191 192

usemtl m299
f 182 192 193

usemtl m300
f 182 193 183

usemtl m301
f 183 193 194

usemtl m302
f 183 194 195

usemtl m303
f 183 195 184

usemtl m304
f 184 195 117

usemtl m305
f 184 117 116

usemtl m306
f 109 190 189

usemtl m307
f 109 189 110

usemtl m308
f 110 189 111

usemtl m309
f 111 189 188

usemtl m310
f 111 188 187

usemtl m311
f 111 187 112

usemtl m312
f 112 187 113

usemtl m313
f 113 187 114

usemtl m314
f 114 187 185

usemtl m315
f 114 185 115

usemtl m316
f 115 185 116

usemtl m317
f 190 109 108

usemtl m318
f 161 160 167

usemtl m319
f 167 160 159

usemtl m320
f 104 173 105

usemtl m321
f 105 173 107

usemtl m322
f 105 107 106

usemtl m323
f 192 191 196

usemtl m324
f 192 196 197

usemtl m325
f 192 197 198

usemtl m326
f 192 198 199

usemtl m327
f 192 199 200

usemtl m328
f 192 200 201

usemtl m329
f 192 201 193

usemtl m330
f 193 201 202

usemtl m331
f 193 202 194

usemtl m332
f 194 202 203

usemtl m333
f 194 203 195

usemtl m334
f 195 203 204

usemtl m335
f 195 204 205

usemtl m336
f 195 205 206

usemtl m337
f 195 206 117

usemtl m338
f 117 206 207

usemtl m339
f 117 207 118

usemtl m340
f 118 207 208

usemtl m341
f 118 208 119

usemtl m342
f 119 208 209

usemtl m343
f 119 209 120

usemtl m344
f 120 209 210

usemtl m345
f 120 210 121

usemtl m346
f 121 210 211

usemtl m347
f 121 211 122

usemtl m348
f 122 211 124

usemtl m349
f 122 124 123

usemtl m350
f 107 173 108

usemtl m351
f 145 212 213

usemtl m352
f 145 213 214

usemtl m353
f 145 214 156

usemtl m354
f 156 214 215

usemtl m355
f 156 215 216

usemtl m356
f 156 216 217

usemtl m357
f 156 217 157

usemtl m358
f 157 217 218

usemtl m359
f 157 218 158

usemtl m360
f 158 218 159

usemtl m361
f 159 218 219

usemtl m362
f 159 219 191

usemtl m363
f 191 219 220

usemtl m364
f 191 220 196

usemtl m365
f 196 220 221

usemtl m366
f 196 221 222

usemtl m367
f 196 222 223

usemtl m368
f 196 223 197

usemtl m369
f 197 223 224

usemtl m370
f 197 224 199

usemtl m371
f 197 199 198

usemtl m372
f 213 212 143

usemtl m373
f 213 143 142

usemtl m374
f 213 142 225

usemtl m375
f 213 225 226

usemtl m376
f 213 226 227

usemtl m377
f 213 227 214

usemtl m378
f 214 227 228

usemtl m379
f 214 228 215

usemtl m380
f 215 228 229

usemtl m381
f 215 229 230

usemtl m382
f 215 230 231

usemtl m383
f 215 231 216

usemtl m384
f 216 231 232

usemtl m385
f 216 232 218

usemtl m386
f 216 218 217

usemtl m387
f 143 212 144

usemtl m388
f 144 212 145

usemtl m389
f 142 141 225

usemtl m390
f 225 141 226

usemtl m391
f 226 141 233

usemtl m392
f 226 233 234

usemtl m393
f 226 234 227

usemtl m394
f 227 234 235

usemtl m395
f 227 235 236

usemtl m396
f 227 236 228

usemtl m397
f 228 236 229

usemtl m398
f 229 236 237

usemtl m399
f 229 237 238

usemtl m400
f 229 238 230

usemtl m401
f 230 238 239

usemtl m402
f 230 239 231

usemtl m403
f 231 239 240

usemtl m404
f 231 240 241

usemtl m405
f 231 241 232

usemtl m406
f 232 241 219

usemtl m407
f 232 219 218

usemtl m408
f 146 145 155

usemtl m409
f 146 155 147

usemtl m410
f 147 155 148

usemtl m411
f 148 155 149

usemtl m412
f 140 139 242

usemtl m413
f 140 242 233

usemtl m414
f 140 233 141

usemtl m415
f 242 137 136

usemtl m416
f 242 136 234

usemtl m417
f 242 234 233

usemtl m418
f 243 244 245

usemtl m419
f 243 245 246

usemtl m420
f 243 246 247

usemtl m421
f 243 247 248

usemtl m422
f 243 248 241

usemtl m423
f 243 241 240

usemtl m424
f 243 240 249

usemtl m425
f 243 249 244

usemtl m426
f 244 249 250

usemtl m427
f 244 250 251

usemtl m428
f 244 251 245

usemtl m429
f 245 251 252

usemtl m430
f 245 252 253

usemtl m431
f 245 253 254

usemtl m432
f 245 254 255

usemtl m433
f 245 255 246

usemtl m434
f 246 255 256

usemtl m435
f 246 256 247

usemtl m436
f 247 256 257

usemtl m437
f 247 257 258

usemtl m438
f 247 258 259

usemtl m439
f 247 259 260

usemtl m440
f 247 260 248

usemtl m441
f 248 260 221

usemtl m442
f 248 221 220

usemtl m443
f 248 220 241

usemtl m444
f 241 220 219

usemtl m445
f 255 254 261

usemtl m446
f 255 261 262

usemtl m447
f 255 262 263

usemtl m448
f 255 263 264

usemtl m449
f 255 264 256

usemtl m450
f 256 264 265

usemtl m451
f 256 265 124

usemtl m452
f 256 124 211

usemtl m453
f 256 211 266

usemtl m454
f 256 266 257

usemtl m455
f 257 266 267

usemtl m456
f 257 267 258

usemtl m457
f 258 267 268

usemtl m458
f 258 268 269

usemtl m459
f 258 269 270

usemtl m460
f 258 270 259

usemtl m461
f 259 270 271

usemtl m462
f 259 271 260

usemtl m463
f 260 271 272

usemtl m464
f 260 272 222

usemtl m465
f 260 222 221

usemtl m466
f 129 273 274

usemtl m467
f 129 274 275

usemtl m468
f 129 275 130

usemtl m469
f 130 275 276

usemtl m470
f 130 276 277

usemtl m471
f 130 277 131

usemtl m472
f 131 277 132

usemtl m473
f 132 277 278

usemtl m474
f 132 278 279

usemtl m475
f 132 279 133

usemtl m476
f 133 279 280

usemtl m477
f 133 280 281

usemtl m478
f 133 281 134

usemtl m479
f 134 281 135

usemtl m480
f 135 281 282

usemtl m481
f 135 282 136

usemtl m482
f 136 282 283

usemtl m483
f 136 283 284

usemtl m484
f 136 284 234

usemtl m485
f 234 284 235

usemtl m486
f 235 284 285

usemtl m487
f 235 285 239

usemtl m488
f 235 239 237

usemtl m489
f 235 237 236

usemtl m490
f 286 252 287

usemtl m491
f 286 287 288

usemtl m492
f 286 288 289

usemtl m493
f 286 289 280

usemtl m494
f 286 280 279

usemtl m495
f 286 279 290

usemtl m496
f 286 290 252

usemtl m497
f 252 290 253

usemtl m498
f 253 290 254

usemtl m499
f 254 290 275

usemtl m500
f 254 275 261

usemtl m501
f 261 275 274

usemtl m502
f 261 274 262

usemtl m503
f 262 274 273

usemtl m504
f 262 273 291

usemtl m505
f 262 291 263

usemtl m506
f 263 291 292

usemtl m507
f 263 292 264

usemtl m508
f 264 292 265

usemtl m509
f 265 292 124

usemtl m510
f 124 292 125

usemtl m511
f 125 292 126

usemtl m512
f 126 292 127

usemtl m513
f 127 292 291

usemtl m514
f 127 291 273

usemtl m515
f 127 273 128

usemtl m516
f 128 273 129

usemtl m517
f 288 249 293

usemtl m518
f 288 293 289

usemtl m519
f 289 293 294

usemtl m520
f 289 294 280

usemtl m521
f 280 294 281

usemtl m522
f 281 294 282

usemtl m523
f 282 294 295

usemtl m524
f 282 295 283

usemtl m525
f 283 295 285

usemtl m526
f 283 285 284

usemtl m527
f 239 249 240

usemtl m528
f 249 239 296

usemtl m529
f 249 296 293

usemtl m530
f 293 296 294

usemtl m531
f 294 296 239

usemtl m532
f 294 239 285

usemtl m533
f 294 285 295

usemtl m534
f 279 278 290

usemtl m535
f 290 278 276

usemtl m536
f 290 276 275

usemtl m537
f 251 250 287

usemtl m538
f 251 287 252

usemtl m539
f 250 288 287

usemtl m540
f 288 250 249

usemtl m541
f 276 278 277

usemtl m542
f 237 239 238

usemtl m543
f 139 138 242

usemtl m544
f 242 138 137

usemtl m545
f 297 298 299

usemtl m546
f 297 299 300

usemtl m547
f 297 300 301

usemtl m548
f 297 301 302

usemtl m549
f 297 302 303

usemtl m550
f 297 303 298

usemtl m551
f 298 303 304

usemtl m552
f 298 304 305

usemtl m553
f 298 305 306

usemtl m554
f 298 306 299

usemtl m555
f 301 300 307

usemtl m556
f 301 307 305

usemtl m557
f 301 305 308

usemtl m558
f 301 308 302

usemtl m559
f 302 308 309

usemtl m560
f 302 309 310

usemtl m561
f 302 310 303

usemtl m562
f 303 310 311

usemtl m563
f 303 311 304

usemtl m564
f 304 311 312

usemtl m565
f 304 312 308

usemtl m566
f 304 308 305

usemtl m567
f 305 307 306

usemtl m568
f 308 312 309

usemtl m569
f 309 312 313

usemtl m570
f 309 313 314

usemtl m571
f 309 314 310

usemtl m572
f 310 314 315

usemtl m573
f 310 315 311

usemtl m574
f 311 315 316

usemtl m575
f 311 316 312

usemtl m576
f 312 316 313

usemtl m577
f 313 316 317

usemtl m578
f 313 317 318

usemtl m579
f 313 318 314

usemtl m580
f 314 318 319

usemtl m581
f 314 319 315

usemtl m582
f 315 319 320

usemtl m583
f 315 320 316

usemtl m584
f 316 320 317

usemtl m585
f 317 320 321

usemtl m586
f 317 321 322

usemtl m587
f 317 322 318

usemtl m588
f 318 322 323

usemtl m589
f 318 323 319

usemtl m590
f 319 323 324

usemtl m591
f 319 324 320

usemtl m592
f 320 324 321

usemtl m593
f 321 324 325

usemtl m594
f 321 325 326

usemtl m595
f 321 326 322

usemtl m596
f 322 326 327

usemtl m597
f 322 327 323

usemtl m598
f 323 327 328

usemtl m599
f 323 328 324

usemtl m600
f 324 328 325

usemtl m601
f 325 328 329

usemtl m602
f 325 329 330

usemtl m603
f 325 330 326

usemtl m604
f 326 330 331

usemtl m605
f 326 331 327

usemtl m606
f 327 331 332

usemtl m607
f 327 332 328

usemtl m608
f 328 332 329

usemtl m609
f 329 332 333

usemtl m610
f 329 333 334

usemtl m611
f 329 334 330

usemtl m612
f 330 334 335

usemtl m613
f 330 335 331

usemtl m614
f 331 335 336

usemtl m615
f 331 336 332

usemtl m616
f 332 336 333

usemtl m617
f 333 336 337

usemtl m618
f 333 337 338

usemtl m619
f 333 338 334

usemtl m620
f 334 338 339

usemtl m621
f 334 339 335

usemtl m622
f 335 339 340

usemtl m623
f 335 340 336

usemtl m624
f 336 340 337

usemtl m625
f 337 340 341

usemtl m626
f 337 341 342

usemtl m627
f 337 342 338

usemtl m628
f 338 342 343

usemtl m629
f 338 343 339

usemtl m630
f 339 343 344

usemtl m631
f 339 344 340

usemtl m632
f 340 344 341

usemtl m633
f 341 344 345

usemtl m634
f 341 345 346

usemtl m635
f 341 346 342

usemtl m636
f 342 346 347

usemtl m637
f 342 347 343

usemtl m638
f 343 347 348

usemtl m639
f 343 348 344

usemtl m640
f 344 348 345

usemtl m641
f 345 348 349

usemtl m642
f 345 349 350

usemtl m643
f 345 350 346

usemtl m644
f 346 350 351

usemtl m645
f 346 351 347

usemtl m646
f 347 351 352

usemtl m647
f 347 352 348

usemtl m648
f 348 352 349

usemtl m649
f 349 352 353

usemtl m650
f 349 353 354

usemtl m651
f 349 354 350

usemtl m652
f 350 354 355

usemtl m653
f 350 355 351

usemtl m654
f 351 355 356

usemtl m655
f 351 356 352

usemtl m656
f 352 356 353

usemtl m657
f 353 356 357

usemtl m658
f 353 357 358

usemtl m659
f 353 358 354

usemtl m660
f 354 358 359

usemtl m661
f 354 359 355

usemtl m662
f 355 359 360

usemtl m663
f 355 360 356

usemtl m664
f 356 360 357

usemtl m665
f 357 360 361

usemtl m666
f 357 361 362

usemtl m667
f 357 362 358

usemtl m668
f 358 362 363

usemtl m669
f 358 363 359

usemtl m670
f 359 363 364

usemtl m671
f 359 364 360

usemtl m672
f 360 364 361

usemtl m673
f 361 364 365

usemtl m674
f 361 365 366

usemtl m675
f 361 366 362

usemtl m676
f 362 366 367

usemtl m677
f 362 367 363

usemtl m678
f 363 367 368

usemtl m679
f 363 368 364

usemtl m680
f 364 368 365

usemtl m681
f 365 368 369

usemtl m682
f 365 369 370

usemtl m683
f 365 370 366

usemtl m684
f 366 370 371

usemtl m685
f 366 371 367

usemtl m686
f 367 371 372

usemtl m687
f 367 372 368

usemtl m688
f 368 372 369

usemtl m689
f 373 374 375

usemtl m690
f 373 375 376

usemtl m691
f 373 376 377

usemtl m692
f 373 377 378

usemtl m693
f 373 378 379

usemtl m694
f 373 379 374

usemtl m695
f 374 379 380

usemtl m696
f 374 380 381

usemtl m697
f 374 381 382

usemtl m698
f 374 382 375

usemtl m699
f 375 382 383

usemtl m700
f 375 383 384

usemtl m701
f 375 384 385

usemtl m702
f 375 385 376

usemtl m703
f 376 385 386

usemtl m704
f 376 386 387

usemtl m705
f 376 387 377

usemtl m706
f 377 387 388

usemtl m707
f 377 388 389

usemtl m708
f 377 389 378

usemtl m709
f 378 389 390

usemtl m710
f 378 390 386

usemtl m711
f 378 386 379

usemtl m712
f 379 386 385

usemtl m713
f 379 385 380

usemtl m714
f 380 385 384

usemtl m715
f 380 384 381

usemtl m716
f 381 384 391

usemtl m717
f 381 391 392

usemtl m718
f 381 392 382

usemtl m719
f 382 392 393

usemtl m720
f 382 393 383

usemtl m721
f 383 393 394

usemtl m722
f 383 394 391

usemtl m723
f 383 391 384

usemtl m724
f 395 396 397

usemtl m725
f 395 397 398

usemtl m726
f 395 398 399

usemtl m727
f 395 399 400

usemtl m728
f 395 400 396

usemtl m729
f 396 400 401

usemtl m730
f 396 401 402

usemtl m731
f 396 402 397

usemtl m732
f 397 402 387

usemtl m733
f 397 387 390

usemtl m734
f 397 390 403

usemtl m735
f 397 403 404

usemtl m736
f 397 404 398

usemtl m737
f 398 404 399

usemtl m738
f 399 404 400

usemtl m739
f 400 404 403

usemtl m740
f 400 403 405

usemtl m741
f 400 405 401

usemtl m742
f 401 405 388

usemtl m743
f 401 388 387

usemtl m744
f 401 387 402

usemtl m745
f 393 392 406

usemtl m746
f 393 406 407

usemtl m747
f 393 407 394

usemtl m748
f 394 407 408

usemtl m749
f 394 408 409

usemtl m750
f 394 409 410

usemtl m751
f 394 410 411

usemtl m752
f 394 411 391

usemtl m753
f 391 411 412

usemtl m754
f 391 412 413

usemtl m755
f 391 413 392

usemtl m756
f 392 413 406

usemtl m757
f 406 413 414

usemtl m758
f 406 414 415

usemtl m759
f 406 415 407

usemtl m760
f 407 415 408

usemtl m761
f 408 415 416

usemtl m762
f 408 416 409

usemtl m763
f 409 416 410

usemtl m764
f 410 416 417

usemtl m765
f 410 417 418

usemtl m766
f 410 418 411

usemtl m767
f 411 418 419

usemtl m768
f 411 419 412

usemtl m769
f 412 419 413

usemtl m770
f 413 419 414

usemtl m771
f 414 419 420

usemtl m772
f 414 420 421

usemtl m773
f 414 421 415

usemtl m774
f 415 421 416

usemtl m775
f 416 421 422

usemtl m776
f 416 422 417

usemtl m777
f 417 422 423

usemtl m778
f 417 423 418

usemtl m779
f 418 423 419

usemtl m780
f 419 423 420

usemtl m781
f 420 423 422

usemtl m782
f 420 422 421

usemtl m783
f 387 386 390

usemtl m784
f 405 403 424

usemtl m785
f 405 424 389

usemtl m786
f 405 389 388

usemtl m787
f 389 424 390

usemtl m788
f 390 424 403

usemtl m789
f 224 223 425

usemtl m790
f 224 425 426

usemtl m791
f 224 426 427

usemtl m792
f 224 427 428

usemtl m793
f 224 428 199

usemtl m794
f 199 428 429

usemtl m795
f 199 429 430

usemtl m796
f 199 430 431

usemtl m797
f 199 431 200

usemtl m798
f 200 431 432

usemtl m799
f 200 432 433

usemtl m800
f 200 433 201

usemtl m801
f 201 433 202

usemtl m802
f 202 433 434

usemtl m803
f 202 434 435

usemtl m804
f 202 435 203

usemtl m805
f 203 435 204

usemtl m806
f 204 435 436

usemtl m807
f 204 436 205

usemtl m808
f 205 436 437

usemtl m809
f 205 437 438

usemtl m810
f 205 438 206

usemtl m811
f 206 438 439

usemtl m812
f 206 439 440

usemtl m813
f 206 440 207

usemtl m814
f 207 440 441

usemtl m815
f 207 441 208

usemtl m816
f 208 441 442

usemtl m817
f 208 442 209

usemtl m818
f 209 442 443

usemtl m819
f 209 443 444

usemtl m820
f 209 444 210

usemtl m821
f 210 444 445

usemtl m822
f 210 445 446

usemtl m823
f 210 446 447

usemtl m824
f 210 447 266

usemtl m825
f 210 266 211

usemtl m826
f 430 429 428

usemtl m827
f 430 428 448

usemtl m828
f 430 448 449

usemtl m829
f 430 449 450

usemtl m830
f 430 450 451

usemtl m831
f 430 451 452

usemtl m832
f 430 452 431

usemtl m833
f 431 452 453

usemtl m834
f 431 453 454

usemtl m835
f 431 454 434

usemtl m836
f 431 434 432

usemtl m837
f 432 434 433

usemtl m838
f 448 428 427

usemtl m839
f 448 427 455

usemtl m840
f 448 455 456

usemtl m841
f 448 456 457

usemtl m842
f 448 457 449

usemtl m843
f 449 457 458

usemtl m844
f 449 458 451

usemtl m845
f 449 451 450

usemtl m846
f 458 457 459

usemtl m847
f 458 459 460

usemtl m848
f 458 460 461

usemtl m849
f 458 461 462

usemtl m850
f 458 462 451

usemtl m851
f 451 462 463

usemtl m852
f 451 463 464

usemtl m853
f 451 464 465

usemtl m854
f 451 465 452

usemtl m855
f 452 465 466

usemtl m856
f 452 466 467

usemtl m857
f 452 467 468

usemtl m858
f 452 468 453

usemtl m859
f 453 468 454

usemtl m860
f 454 468 435

usemtl m861
f 454 435 434

usemtl m862
f 464 463 462

usemtl m863
f 464 462 469

usemtl m864
f 464 469 470

usemtl m865
f 464 470 471

usemtl m866
f 464 471 472

usemtl m867
f 464 472 473

usemtl m868
f 464 473 465

usemtl m869
f 465 473 474

usemtl m870
f 465 474 475

usemtl m871
f 465 475 476

usemtl m872
f 465 476 466

usemtl m873
f 466 476 467

usemtl m874
f 467 476 436

usemtl m875
f 467 436 468

usemtl m876
f 468 436 435

usemtl m877
f 469 462 461

usemtl m878
f 469 461 477

usemtl m879
f 469 477 478

usemtl m880
f 469 478 479

usemtl m881
f 469 479 470

usemtl m882
f 470 479 480

usemtl m883
f 470 480 472

usemtl m884
f 470 472 471

usemtl m885
f 480 479 481

usemtl m886
f 480 481 482

usemtl m887
f 480 482 442

usemtl m888
f 480 442 441

usemtl m889
f 480 441 472

usemtl m890
f 472 441 440

usemtl m891
f 472 440 483

usemtl m892
f 472 483 484

usemtl m893
f 472 484 473

usemtl m894
f 473 484 485

usemtl m895
f 473 485 486

usemtl m896
f 473 486 474

usemtl m897
f 474 486 475

usemtl m898
f 475 486 437

usemtl m899
f 475 437 476

usemtl m900
f 476 437 436

usemtl m901
f 484 483 487

usemtl m902
f 484 487 485

usemtl m903
f 485 487 488

usemtl m904
f 485 488 486

usemtl m905
f 486 488 437

usemtl m906
f 437 488 438

usemtl m907
f 438 488 439

usemtl m908
f 439 488 489

usemtl m909
f 439 489 440

usemtl m910
f 440 489 487

usemtl m911
f 440 487 483

usemtl m912
f 487 489 488

usemtl m913
f 185 187 186

usemtl m914
f 271 490 491

usemtl m915
f 271 491 272

usemtl m916
f 272 491 425

usemtl m917
f 272 425 223

usemtl m918
f 272 223 222

usemtl m919
f 491 490 492

usemtl m920
f 491 492 493

usemtl m921
f 491 493 426

usemtl m922
f 491 426 425

usemtl m923
f 492 494 495

usemtl m924
f 492 495 493

usemtl m925
f 493 495 455

usemtl m926
f 493 455 427

usemtl m927
f 493 427 426

usemtl m928
f 495 494 496

usemtl m929
f 495 496 497

usemtl m930
f 495 497 456

usemtl m931
f 495 456 455

usemtl m932
f 496 498 499

usemtl m933
f 496 499 497

usemtl m934
f 497 499 459

usemtl m935
f 497 459 457

usemtl m936
f 497 457 456

usemtl m937
f 499 498 500

usemtl m938
f 499 500 501

usemtl m939
f 499 501 460

usemtl m940
f 499 460 459

usemtl m941
f 500 502 503

usemtl m942
f 500 503 501

usemtl m943
f 501 503 477

usemtl m944
f 501 477 461

usemtl m945
f 501 461 460

usemtl m946
f 503 502 504

usemtl m947
f 503 504 505

usemtl m948
f 503 505 478

usemtl m949
f 503 478 477

usemtl m950
f 504 506 507

usemtl m951
f 504 507 505

usemtl m952
f 505 507 481

usemtl m953
f 505 481 479

usemtl m954
f 505 479 478

usemtl m955
f 507 506 444

usemtl m956
f 507 444 443

usemtl m957
f 507 443 482

usemtl m958
f 507 482 481

usemtl m959
f 271 270 490

usemtl m960
f 490 270 508

usemtl m961
f 490 508 509

usemtl m962
f 490 509 492

usemtl m963
f 492 509 494

usemtl m964
f 494 509 510

usemtl m965
f 494 510 511

usemtl m966
f 494 511 496

usemtl m967
f 496 511 498

usemtl m968
f 498 511 512

usemtl m969
f 498 512 513

usemtl m970
f 498 513 500

usemtl m971
f 500 513 502

usemtl m972
f 502 513 514

usemtl m973
f 502 514 515

usemtl m974
f 502 515 504

usemtl m975
f 504 515 506

usemtl m976
f 506 515 516

usemtl m977
f 506 516 517

usemtl m978
f 506 517 444

usemtl m979
f 444 517 518

usemtl m980
f 444 518 519

usemtl m981
f 444 519 445

usemtl m982
f 445 519 446

usemtl m983
f 446 519 520

usemtl m984
f 446 520 447

usemtl m985
f 447 520 521

usemtl m986
f 447 521 522

usemtl m987
f 447 522 266

usemtl m988
f 266 522 523

usemtl m989
f 266 523 267

usemtl m990
f 267 523 524

usemtl m991
f 267 524 268

usemtl m992
f 268 524 525

usemtl m993
f 268 525 269

usemtl m994
f 269 525 526

usemtl m995
f 269 526 508

usemtl m996
f 269 508 270

usemtl m997
f 509 508 526

usemtl m998
f 509 526 525

usemtl m999
f 509 525 510

usemtl m1000
f 510 525 527

usemtl m1001
f 510 527 511

usemtl m1002
f 511 527 528

usemtl m1003
f 511 528 512

usemtl m1004
f 512 528 529

usemtl m1005
f 512 529 513

usemtl m1006
f 513 529 530

usemtl m1007
f 513 530 514

usemtl m1008
f 514 530 531

usemtl m1009
f 514 531 515

usemtl m1010
f 515 531 532

usemtl m1011
f 515 532 516

usemtl m1012
f 516 532 533

usemtl m1013
f 516 533 517

usemtl m1014
f 517 533 518

usemtl m1015
f 518 533 520

usemtl m1016
f 518 520 519

usemtl m1017
f 528 527 525

usemtl m1018
f 528 525 524

usemtl m1019
f 528 524 534

usemtl m1020
f 528 534 530

usemtl m1021
f 528 530 529

usemtl m1022
f 532 531 530

usemtl m1023
f 532 530 521

usemtl m1024
f 532 521 520

usemtl m1025
f 532 520 533

usemtl m1026
f 534 521 530

usemtl m1027
f 521 534 522

usemtl m1028
f 522 534 523

usemtl m1029
f 523 534 524

usemtl m1030
f 535 536 537

usemtl m1031
f 535 537 538

usemtl m1032
f 535 538 539

usemtl m1033
f 535 539 540

usemtl m1034
f 535 540 541

usemtl m1035
f 535 541 536

usemtl m1036
f 536 541 542

usemtl m1037
f 536 542 543

usemtl m1038
f 536 543 544

usemtl m1039
f 536 544 537

usemtl m1040
f 543 539 545

usemtl m1041
f 543 545 544

usemtl m1042
f 539 538 545

usemtl m1043
f 543 542 546

usemtl m1044
f 543 546 539

usemtl m1045
f 539 546 540

usemtl m1046
f 540 546 547

usemtl m1047
f 540 547 548

usemtl m1048
f 540 548 541

usemtl m1049
f 541 548 549

usemtl m1050
f 541 549 542

usemtl m1051
f 542 549 550

usemtl m1052
f 542 550 546

usemtl m1053
f 546 550 547

usemtl m1054
f 547 550 551

usemtl m1055
f 547 551 552

usemtl m1056
f 547 552 548

usemtl m1057
f 548 552 553

usemtl m1058
f 548 553 549

usemtl m1059
f 549 553 554

usemtl m1060
f 549 554 550

usemtl m1061
f 550 554 551

usemtl m1062
f 551 554 555

usemtl m1063
f 551 555 556

usemtl m1064
f 551 556 552

usemtl m1065
f 552 556 557

usemtl m1066
f 552 557 553

usemtl m1067
f 553 557 558

usemtl m1068
f 553 558 554

usemtl m1069
f 554 558 555

usemtl m1070
f 555 558 559

usemtl m1071
f 555 559 560

usemtl m1072
f 555 560 556

usemtl m1073
f 556 560 561

usemtl m1074
f 556 561 557

usemtl m1075
f 557 561 562

usemtl m1076
f 557 562 558

usemtl m1077
f 558 562 559

usemtl m1078
f 559 562 563

usemtl m1079
f 559 563 564

usemtl m1080
f 559 564 560

usemtl m1081
f 560 564 565

usemtl m1082
f 560 565 561

usemtl m1083
f 561 565 566

usemtl m1084
f 561 566 562

usemtl m1085
f 562 566 563

usemtl m1086
f 563 566 567

usemtl m1087
f 563 567 568

usemtl m1088
f 563 568 564

usemtl m1089
f 564 568 569

usemtl m1090
f 564 569 565

usemtl m1091
f 565 569 570

usemtl m1092
f 565 570 566

usemtl m1093
f 566 570 567

usemtl m1094
f 567 570 571

usemtl m1095
f 567 571 572

usemtl m1096
f 567 572 568

usemtl m1097
f 568 572 573

usemtl m1098
f 568 573 569

usemtl m1099
f 569 573 574

usemtl m1100
f 569 574 570

usemtl m1101
f 570 574 571

usemtl m1102
f 571 574 575

usemtl m1103
f 571 575 576

usemtl m1104
f 571 576 572

usemtl m1105
f 572 576 577

usemtl m1106
f 572 577 573

usemtl m1107
f 573 577 578

usemtl m1108
f 573 578 574

usemtl m1109
f 574 578 575

usemtl m1110
f 575 578 579

usemtl m1111
f 575 579 580

usemtl m1112
f 575 580 576

usemtl m1113
f 576 580 581

usemtl m1114
f 576 581 577

usemtl m1115
f 577 581 582

usemtl m1116
f 577 582 578

usemtl m1117
f 578 582 579

usemtl m1118
f 579 582 583

usemtl m1119
f 579 583 584

usemtl m1120
f 579 584 580

usemtl m1121
f 580 584 585

usemtl m1122
f 580 585 581

usemtl m1123
f 581 585 586

usemtl m1124
f 581 586 582

usemtl m1125
f 582 586 583

usemtl m1126
f 583 586 587

usemtl m1127
f 583 587 588

usemtl m1128
f 583 588 584

usemtl m1129
f 584 588 589

usemtl m1130
f 584 589 585

usemtl m1131
f 585 589 590

usemtl m1132
f 585 590 586

usemtl m1133
f 586 590 587

usemtl m1134
f 587 590 591

usemtl m1135
f 587 591 592

usemtl m1136
f 587 592 588

usemtl m1137
f 588 592 593

usemtl m1138
f 588 593 589

usemtl m1139
f 589 593 594

usemtl m1140
f 589 594 590

usemtl m1141
f 590 594 591

usemtl m1142
f 591 594 595

usemtl m1143
f 591 595 596

usemtl m1144
f 591 596 592

usemtl m1145
f 592 596 597

usemtl m1146
f 592 597 593

usemtl m1147
f 593 597 598

usemtl m1148
f 593 598 594

usemtl m1149
f 594 598 595

usemtl m1150
f 595 598 599

usemtl m1151
f 595 599 600

usemtl m1152
f 595 600 596

usemtl m1153
f 596 600 601

usemtl m1154
f 596 601 597

usemtl m1155
f 597 601 602

usemtl m1156
f 597 602 598

usemtl m1157
f 598 602 599

usemtl m1158
f 599 602 603

usemtl m1159
f 599 603 604

usemtl m1160
f 599 604 600

usemtl m1161
f 600 604 605

usemtl m1162
f 600 605 601

usemtl m1163
f 601 605 606

usemtl m1164
f 601 606 602

usemtl m1165
f 602 606 603

usemtl m1166
f 603 606 607

usemtl m1167
f 603 607 608

usemtl m1168
f 603 608 604

usemtl m1169
f 604 608 609

usemtl m1170
f 604 609 605

usemtl m1171
f 605 609 610

usemtl m1172
f 605 610 606

usemtl m1173
f 606 610 607

usemtl m1174
f 611 612 613

usemtl m1175
f 611 613 614

usemtl m1176
f 611 614 615

usemtl m1177
f 611 615 616

usemtl m1178
f 611 616 617

usemtl m1179
f 611 617 612

usemtl m1180
f 612 617 618

usemtl m1181
f 612 618 619

usemtl m1182
f 612 619 620

usemtl m1183
f 612 620 613

usemtl m1184
f 613 620 621

usemtl m1185
f 613 621 614

usemtl m1186
f 614 621 622

usemtl m1187
f 614 622 619

usemtl m1188
f 614 619 615

usemtl m1189
f 615 619 618

usemtl m1190
f 615 618 623

usemtl m1191
f 615 623 616

usemtl m1192
f 616 623 624

usemtl m1193
f 616 624 625

usemtl m1194
f 616 625 617

usemtl m1195
f 617 625 626

usemtl m1196
f 617 626 618

usemtl m1197
f 618 626 623

usemtl m1198
f 623 626 627

usemtl m1199
f 623 627 624

usemtl m1200
f 624 627 628

usemtl m1201
f 624 628 629

usemtl m1202
f 624 629 625

usemtl m1203
f 625 629 630

usemtl m1204
f 625 630 626

usemtl m1205
f 626 630 631

usemtl m1206
f 626 631 632

usemtl m1207
f 626 632 633

usemtl m1208
f 626 633 627

usemtl m1209
f 627 633 628

usemtl m1210
f 628 633 634

usemtl m1211
f 628 634 630

usemtl m1212
f 628 630 629

usemtl m1213
f 634 635 636

usemtl m1214
f 634 636 630

usemtl m1215
f 630 636 637

usemtl m1216
f 630 637 631

usemtl m1217
f 631 637 638

usemtl m1218
f 631 638 639

usemtl m1219
f 631 639 632

usemtl m1220
f 632 639 633

usemtl m1221
f 633 639 634

usemtl m1222
f 634 639 638

usemtl m1223
f 634 638 635

usemtl m1224
f 635 638 637

usemtl m1225
f 635 637 636

usemtl m1226
f 622 621 640

usemtl m1227
f 622 640 641

usemtl m1228
f 622 641 642

usemtl m1229
f 622 642 619

usemtl m1230
f 619 642 620

usemtl m1231
f 620 642 643

usemtl m1232
f 620 643 621

usemtl m1233
f 621 643 640

usemtl m1234
f 640 643 644

usemtl m1235
f 640 644 645

usemtl m1236
f 640 645 641

usemtl m1237
f 641 645 646

usemtl m1238
f 641 646 647

usemtl m1239
f 641 647 642

usemtl m1240
f 642 647 643

usemtl m1241
f 643 647 648

usemtl m1242
f 643 648 649

usemtl m1243
f 643 649 644

usemtl m1244
f 644 649 650

usemtl m1245
f 644 650 651

usemtl m1246
f 644 651 645

usemtl m1247
f 645 651 652

usemtl m1248
f 645 652 646

usemtl m1249
f 646 652 653

usemtl m1250
f 646 653 647

usemtl m1251
f 647 653 654

usemtl m1252
f 647 654 655

usemtl m1253
f 647 655 648

usemtl m1254
f 648 655 656

usemtl m1255
f 648 656 650

usemtl m1256
f 648 650 649

usemtl m1257
f 651 650 657

usemtl m1258
f 651 657 658

usemtl m1259
f 651 658 652

usemtl m1260
f 652 658 659

usemtl m1261
f 652 659 653

usemtl m1262
f 653 659 654

usemtl m1263
f 654 659 655

usemtl m1264
f 655 659 660

usemtl m1265
f 655 660 656

usemtl m1266
f 656 660 661

usemtl m1267
f 656 661 650

usemtl m1268
f 650 661 657

usemtl m1269
f 657 661 662

usemtl m1270
f 657 662 658

usemtl m1271
f 658 662 659

usemtl m1272
f 659 662 660

usemtl m1273
f 660 662 661

usemtl m1274
f 482 443 442

usemtl m1275
f 663 664 665

usemtl m1276
f 663 665 666

usemtl m1277
f 663 666 667

usemtl m1278
f 663 667 668

usemtl m1279
f 663 668 669

usemtl m1280
f 663 669 670

usemtl m1281
f 667 666 671

usemtl m1282
f 667 671 672

usemtl m1283
f 673 674 675

usemtl m1284
f 673 675 676

usemtl m1285
f 673 676 677

usemtl m1286
f 673 677 678

usemtl m1287
f 673 678 679

usemtl m1288
f 673 679 680

usemtl m1289
f 673 680 674

usemtl m1290
f 674 680 681

usemtl m1291
f 674 681 682

usemtl m1292
f 674 682 683

usemtl m1293
f 674 683 675

usemtl m1294
f 675 683 676

usemtl m1295
f 676 683 677

usemtl m1296
f 677 683 682

usemtl m1297
f 677 682 678

usemtl m1298
f 678 682 684

usemtl m1299
f 678 684 679

usemtl m1300
f 679 684 681

usemtl m1301
f 679 681 680

usemtl m1302
f 682 681 684

usemtl m1303
f 685 686 687

usemtl m1304
f 685 687 688

usemtl m1305
f 685 688 689

usemtl m1306
f 685 689 690

usemtl m1307
f 685 690 691

usemtl m1308
f 685 691 686

usemtl m1309
f 686 691 687

usemtl m1310
f 687 691 692

usemtl m1311
f 692 691 689

usemtl m1312
f 689 691 690

usemtl m1313
f 693 694 695

usemtl m1314
f 693 695 696

usemtl m1315
f 693 696 697

usemtl m1316
f 693 697 698

usemtl m1317
f 693 698 699

usemtl m1318
f 693 699 694

usemtl m1319
f 694 699 695

usemtl m1320
f 695 699 700

usemtl m1321
f 700 699 697

usemtl m1322
f 697 699 698

usemtl m1323
f 701 702 703

usemtl m1324
f 701 703 704

usemtl m1325
f 701 704 705

usemtl m1326
f 701 705 706

usemtl m1327
f 701 706 707

usemtl m1328
f 701 707 702

usemtl m1329
f 702 707 703

usemtl m1330
f 703 707 708

usemtl m1331
f 708 707 705

usemtl m1332
f 705 707 706

usemtl m1333
f 709 710 711

usemtl m1334
f 709 711 712

usemtl m1335
f 709 712 713

usemtl m1336
f 713 712 714

usemtl m1337
f 713 714 715

usemtl m1338
f 715 714 716

usemtl m1339
f 715 716 710

usemtl m1340
f 710 716 711

usemtl m1341
f 717 718 719

usemtl m1342
f 717 719 720

usemtl m1343
f 717 720 721

usemtl m1344
f 721 720 722

usemtl m1345
f 721 722 723

usemtl m1346
f 723 722 724

usemtl m1347
f 723 724 718

usemtl m1348
f 718 724 719

usemtl m1349
f 725 726 727

usemtl m1350
f 725 727 728

usemtl m1351
f 725 728 729

usemtl m1352
f 729 728 730

usemtl m1353
f 729 730 731

usemtl m1354
f 731 730 732

usemtl m1355
f 731 732 726

usemtl m1356
f 726 732 727

usemtl m1357
f 733 734 735

usemtl m1358
f 733 735 736

usemtl m1359
f 733 736 737

usemtl m1360
f 737 736 738

usemtl m1361
f 737 738 739

usemtl m1362
f 737 739 740

usemtl m1363
f 737 740 741

usemtl m1364
f 737 741 742

usemtl m1365
f 742 741 743

usemtl m1366
f 742 743 744

usemtl m1367
f 742 744 745

usemtl m1368
f 742 745 746

usemtl m1369
f 742 746 747

usemtl m1370
f 747 746 748

usemtl m1371
f 747 748 749

usemtl m1372
f 747 749 750

usemtl m1373
f 747 750 751

usemtl m1374
f 747 751 733

usemtl m1375
f 733 751 752

usemtl m1376
f 733 752 734

usemtl m1377
f 734 752 753

usemtl m1378
f 734 753 754

usemtl m1379
f 754 753 755

usemtl m1380
f 754 755 756

usemtl m1381
f 754 756 757

usemtl m1382
f 757 756 758

usemtl m1383
f 757 758 759

usemtl m1384
f 757 759 760

usemtl m1385
f 757 760 761

usemtl m1386
f 757 761 762

usemtl m1387
f 757 762 739

usemtl m1388
f 739 762 740

usemtl m1389
f 740 762 763

usemtl m1390
f 740 763 764

usemtl m1391
f 740 764 751

usemtl m1392
f 740 751 750

usemtl m1393
f 740 750 741

usemtl m1394
f 741 750 765

usemtl m1395
f 741 765 766

usemtl m1396
f 741 766 743

usemtl m1397
f 743 766 767

usemtl m1398
f 743 767 768

usemtl m1399
f 743 768 769

usemtl m1400
f 743 769 770

usemtl m1401
f 743 770 744

usemtl m1402
f 744 770 771

usemtl m1403
f 771 770 772

usemtl m1404
f 771 772 773

usemtl m1405
f 771 773 774

usemtl m1406
f 771 774 775

usemtl m1407
f 771 775 776

usemtl m1408
f 776 775 777

usemtl m1409
f 776 777 778

usemtl m1410
f 776 778 769

usemtl m1411
f 776 769 768

usemtl m1412
f 776 768 749

usemtl m1413
f 749 768 750

usemtl m1414
f 750 768 779

usemtl m1415
f 750 779 765

usemtl m1416
f 765 779 767

usemtl m1417
f 765 767 766

usemtl m1418
f 734 739 780

usemtl m1419
f 734 780 735

usemtl m1420
f 739 738 780

usemtl m1421
f 749 748 781

usemtl m1422
f 749 781 744

usemtl m1423
f 744 781 745

usemtl m1424
f 778 777 782

usemtl m1425
f 778 782 773

usemtl m1426
f 773 782 774

usemtl m1427
f 783 784 758

usemtl m1428
f 783 758 756

usemtl m1429
f 783 756 785

usemtl m1430
f 783 785 786

usemtl m1431
f 783 786 787

usemtl m1432
f 783 787 788

usemtl m1433
f 783 788 784

usemtl m1434
f 784 788 789

usemtl m1435
f 784 789 790

usemtl m1436
f 784 790 791

usemtl m1437
f 784 791 792

usemtl m1438
f 784 792 758

usemtl m1439
f 758 792 793

usemtl m1440
f 758 793 759

usemtl m1441
f 759 793 794

usemtl m1442
f 759 794 795

usemtl m1443
f 759 795 760

usemtl m1444
f 760 795 796

usemtl m1445
f 760 796 797

usemtl m1446
f 760 797 798

usemtl m1447
f 760 798 761

usemtl m1448
f 761 798 753

usemtl m1449
f 761 753 752

usemtl m1450
f 761 752 762

usemtl m1451
f 762 752 799

usemtl m1452
f 762 799 763

usemtl m1453
f 763 799 764

usemtl m1454
f 764 799 800

usemtl m1455
f 764 800 751

usemtl m1456
f 751 800 752

usemtl m1457
f 752 800 799

usemtl m1458
f 801 802 803

usemtl m1459
f 801 803 804

usemtl m1460
f 801 804 805

usemtl m1461
f 805 804 806

usemtl m1462
f 805 806 807

usemtl m1463
f 805 807 808

usemtl m1464
f 805 808 809

usemtl m1465
f 805 809 810

usemtl m1466
f 810 809 811

usemtl m1467
f 810 811 812

usemtl m1468
f 810 812 813

usemtl m1469
f 810 813 814

usemtl m1470
f 810 814 815

usemtl m1471
f 815 814 816

usemtl m1472
f 815 816 817

usemtl m1473
f 815 817 818

usemtl m1474
f 815 818 819

usemtl m1475
f 815 819 801

usemtl m1476
f 801 819 820

usemtl m1477
f 801 820 802

usemtl m1478
f 801 802 805

usemtl m1479
f 805 802 807

usemtl m1480
f 802 807 821

usemtl m1481
f 802 821 803

usemtl m1482
f 807 806 821

usemtl m1483
f 817 816 822

usemtl m1484
f 817 822 812

usemtl m1485
f 812 822 813

usemtl m1486
f 823 824 825

usemtl m1487
f 823 825 826

usemtl m1488
f 823 826 827

usemtl m1489
f 827 826 828

usemtl m1490
f 827 828 829

usemtl m1491
f 827 829 830

usemtl m1492
f 827 830 831

usemtl m1493
f 827 831 832

usemtl m1494
f 832 831 833

usemtl m1495
f 832 833 834

usemtl m1496
f 832 834 835

usemtl m1497
f 835 834 836

usemtl m1498
f 835 836 837

usemtl m1499
f 835 837 838

usemtl m1500
f 835 838 839

usemtl m1501
f 835 839 840

usemtl m1502
f 835 840 823

usemtl m1503
f 823 840 841

usemtl m1504
f 823 841 824

usemtl m1505
f 823 824 827

usemtl m1506
f 827 824 829

usemtl m1507
f 824 829 842

usemtl m1508
f 824 842 825

usemtl m1509
f 829 828 842

usemtl m1510
f 843 844 845

usemtl m1511
f 843 845 846

usemtl m1512
f 843 846 847

usemtl m1513
f 847 846 848

usemtl m1514
f 847 848 849

usemtl m1515
f 847 849 850

usemtl m1516
f 847 850 851

usemtl m1517
f 847 851 852

usemtl m1518
f 852 851 853

usemtl m1519
f 853 851 854

usemtl m1520
f 853 854 843

usemtl m1521
f 843 854 844

usemtl m1522
f 844 854 855

usemtl m1523
f 844 855 856

usemtl m1524
f 856 855 857

usemtl m1525
f 857 855 850

usemtl m1526
f 857 850 849

usemtl m1527
f 844 849 858

usemtl m1528
f 844 858 845

usemtl m1529
f 849 848 858

usemtl m1530
f 859 860 861

usemtl m1531
f 859 861 862

usemtl m1532
f 859 862 863

usemtl m1533
f 863 862 864

usemtl m1534
f 863 864 865

usemtl m1535
f 863 865 866

usemtl m1536
f 863 866 867

usemtl m1537
f 863 867 868

usemtl m1538
f 868 867 869

usemtl m1539
f 869 867 870

usemtl m1540
f 869 870 859

usemtl m1541
f 859 870 860

usemtl m1542
f 860 870 871

usemtl m1543
f 860 871 872

usemtl m1544
f 872 871 873

usemtl m1545
f 873 871 866

usemtl m1546
f 873 866 865

usemtl m1547
f 860 865 874

usemtl m1548
f 860 874 861

usemtl m1549
f 865 864 874

usemtl m1550
f 875 876 877

usemtl m1551
f 875 877 878

usemtl m1552
f 875 878 879

usemtl m1553
f 879 878 880

usemtl m1554
f 879 880 881

usemtl m1555
f 879 881 882

usemtl m1556
f 879 882 883

usemtl m1557
f 879 883 884

usemtl m1558
f 884 883 885

usemtl m1559
f 885 883 886

usemtl m1560
f 885 886 875

usemtl m1561
f 875 886 876

usemtl m1562
f 876 886 887

usemtl m1563
f 876 887 888

usemtl m1564
f 888 887 889

usemtl m1565
f 889 887 882

usemtl m1566
f 889 882 881

usemtl m1567
f 876 881 890

usemtl m1568
f 876 890 877

usemtl m1569
f 881 880 890

usemtl m1570
f 891 854 851

usemtl m1571
f 891 851 850

usemtl m1572
f 891 850 855

usemtl m1573
f 891 855 854

usemtl m1574
f 892 870 867

usemtl m1575
f 892 867 866

usemtl m1576
f 892 866 871

usemtl m1577
f 892 871 870

usemtl m1578
f 893 886 883

usemtl m1579
f 893 883 882

usemtl m1580
f 893 882 887

usemtl m1581
f 893 887 886

usemtl m1582
f 894 895 896

usemtl m1583
f 894 896 820

usemtl m1584
f 894 820 819

usemtl m1585
f 894 819 897

usemtl m1586
f 894 897 898

usemtl m1587
f 894 898 895

usemtl m1588
f 895 898 896

usemtl m1589
f 896 898 808

usemtl m1590
f 896 808 807

usemtl m1591
f 896 807 798

usemtl m1592
f 896 798 899

usemtl m1593
f 896 899 820

usemtl m1594
f 896 820 819

usemtl m1595
f 896 819 808

usemtl m1596
f 808 819 818

usemtl m1597
f 808 818 809

usemtl m1598
f 809 818 900

usemtl m1599
f 809 900 901

usemtl m1600
f 809 901 902

usemtl m1601
f 809 902 811

usemtl m1602
f 811 902 903

usemtl m1603
f 811 903 841

usemtl m1604
f 811 841 904

usemtl m1605
f 811 904 812

usemtl m1606
f 812 904 829

usemtl m1607
f 829 904 830

usemtl m1608
f 830 904 905

usemtl m1609
f 830 905 840

usemtl m1610
f 830 840 839

usemtl m1611
f 830 839 831

usemtl m1612
f 831 839 906

usemtl m1613
f 831 906 907

usemtl m1614
f 831 907 833

usemtl m1615
f 833 907 908

usemtl m1616
f 833 908 790

usemtl m1617
f 833 790 834

usemtl m1618
f 834 790 789

usemtl m1619
f 834 789 773

usemtl m1620
f 834 773 772

usemtl m1621
f 834 772 836

usemtl m1622
f 836 772 909

usemtl m1623
f 836 909 788

usemtl m1624
f 836 788 837

usemtl m1625
f 837 788 787

usemtl m1626
f 837 787 910

usemtl m1627
f 837 910 911

usemtl m1628
f 837 911 912

usemtl m1629
f 837 912 838

usemtl m1630
f 838 912 906

usemtl m1631
f 838 906 839

usemtl m1632
f 898 897 819

usemtl m1633
f 898 819 808

usemtl m1634
f 902 913 903

usemtl m1635
f 903 913 900

usemtl m1636
f 903 900 818

usemtl m1637
f 903 818 817

usemtl m1638
f 903 817 824

usemtl m1639
f 903 824 841

usemtl m1640
f 900 913 902

usemtl m1641
f 900 902 901

usemtl m1642
f 914 915 904

usemtl m1643
f 914 904 841

usemtl m1644
f 914 841 840

usemtl m1645
f 914 840 916

usemtl m1646
f 914 916 905

usemtl m1647
f 914 905 915

usemtl m1648
f 915 905 904

usemtl m1649
f 905 916 840

usemtl m1650
f 767 779 768

usemtl m1651
f 917 918 769

usemtl m1652
f 917 769 909

usemtl m1653
f 917 909 919

usemtl m1654
f 917 919 918

usemtl m1655
f 918 919 920

usemtl m1656
f 918 920 770

usemtl m1657
f 918 770 769

usemtl m1658
f 920 919 772

usemtl m1659
f 920 772 770

usemtl m1660
f 919 909 772

usemtl m1661
f 921 922 786

usemtl m1662
f 921 786 792

usemtl m1663
f 921 792 791

usemtl m1664
f 921 791 923

usemtl m1665
f 923 791 790

usemtl m1666
f 923 790 908

usemtl m1667
f 923 908 911

usemtl m1668
f 923 911 910

usemtl m1669
f 922 787 786

usemtl m1670
f 787 922 910

usemtl m1671
f 911 908 912

usemtl m1672
f 912 908 924

usemtl m1673
f 912 924 925

usemtl m1674
f 912 925 926

usemtl m1675
f 912 926 927

usemtl m1676
f 912 927 906

usemtl m1677
f 906 927 928

usemtl m1678
f 906 928 907

usemtl m1679
f 907 928 929

usemtl m1680
f 907 929 930

usemtl m1681
f 907 930 908

usemtl m1682
f 908 930 931

usemtl m1683
f 908 931 924

usemtl m1684
f 924 931 932

usemtl m1685
f 924 932 933

usemtl m1686
f 924 933 934

usemtl m1687
f 924 934 925

usemtl m1688
f 925 934 935

usemtl m1689
f 925 935 936

usemtl m1690
f 925 936 926

usemtl m1691
f 926 936 937

usemtl m1692
f 926 937 938

usemtl m1693
f 938 937 939

usemtl m1694
f 939 937 940

usemtl m1695
f 940 937 941

usemtl m1696
f 940 941 942

usemtl m1697
f 942 941 932

usemtl m1698
f 942 932 931

usemtl m1699
f 936 943 944

usemtl m1700
f 944 943 945

usemtl m1701
f 945 943 946

usemtl m1702
f 945 946 932

usemtl m1703
f 932 946 933

usemtl m1704
f 933 946 947

usemtl m1705
f 933 947 948

usemtl m1706
f 933 948 934

usemtl m1707
f 934 948 935

usemtl m1708
f 935 948 947

usemtl m1709
f 935 947 936

usemtl m1710
f 936 947 943

usemtl m1711
f 943 947 946

usemtl m1712
f 949 899 950

usemtl m1713
f 949 950 951

usemtl m1714
f 949 951 952

usemtl m1715
f 949 952 953

usemtl m1716
f 949 953 802

usemtl m1717
f 949 802 820

usemtl m1718
f 949 820 899

usemtl m1719
f 753 798 953

usemtl m1720
f 753 953 952

usemtl m1721
f 753 952 755

usemtl m1722
f 755 952 954

usemtl m1723
f 755 954 955

usemtl m1724
f 755 955 956

usemtl m1725
f 755 956 756

usemtl m1726
f 756 956 785

usemtl m1727
f 785 956 957

usemtl m1728
f 785 957 793

usemtl m1729
f 793 957 794

usemtl m1730
f 798 797 899

usemtl m1731
f 899 797 950

usemtl m1732
f 950 797 796

usemtl m1733
f 950 796 951

usemtl m1734
f 951 796 954

usemtl m1735
f 951 954 952

usemtl m1736
f 956 955 957

usemtl m1737
f 796 795 955

usemtl m1738
f 796 955 954

usemtl m1739
f 809 818 903

usemtl m1740
f 809 903 811

usemtl m1741
f 815 810 812

usemtl m1742
f 815 812 817

usemtl m1743
f 904 841 840

usemtl m1744
f 904 840 830

usemtl m1745
f 769 778 909

usemtl m1746
f 909 778 788

usemtl m1747
f 930 927 926

usemtl m1748
f 930 926 931

usemtl m1749
f 941 937 936

usemtl m1750
f 941 936 932

usemtl m1751
f 929 928 958

usemtl m1752
f 929 958 959

usemtl m1753
f 929 959 930

usemtl m1754
f 930 959 927

usemtl m1755
f 927 959 958

usemtl m1756
f 927 958 928

usemtl m1757
f 960 961 962

usemtl m1758
f 960 962 963

usemtl m1759
f 960 963 964

usemtl m1760
f 960 964 965

usemtl m1761
f 960 965 966

usemtl m1762
f 960 966 961

usemtl m1763
f 961 966 962

usemtl m1764
f 962 966 967

usemtl m1765
f 967 966 964

usemtl m1766
f 964 966 965

usemtl m1767
f 968 969 970

usemtl m1768
f 968 970 971

usemtl m1769
f 968 971 972

usemtl m1770
f 968 972 973

usemtl m1771
f 968 973 974

usemtl m1772
f 968 974 969

usemtl m1773
f 969 974 970

usemtl m1774
f 970 974 975

usemtl m1775
f 975 974 972

usemtl m1776
f 972 974 973

usemtl m1777
f 976 977 978

usemtl m1778
f 976 978 979

usemtl m1779
f 976 979 980

usemtl m1780
f 976 980 981

usemtl m1781
f 976 981 982

usemtl m1782
f 976 982 977

usemtl m1783
f 977 982 978

usemtl m1784
f 978 982 983

usemtl m1785
f 983 982 980

usemtl m1786
f 980 982 981

usemtl m1787
f 984 985 986

usemtl m1788
f 984 986 987

usemtl m1789
f 984 987 988

usemtl m1790
f 988 987 989

usemtl m1791
f 988 989 990

usemtl m1792
f 990 989 991

usemtl m1793
f 990 991 985

usemtl m1794
f 985 991 986

usemtl m1795
f 992 993 994

usemtl m1796
f 992 994 995

usemtl m1797
f 992 995 996

usemtl m1798
f 996 995 997

usemtl m1799
f 996 997 998

usemtl m1800
f 998 997 999

usemtl m1801
f 998 999 993

usemtl m1802
f 993 999 994

usemtl m1803
f 1000 1001 1002

usemtl m1804
f 1000 1002 1003

usemtl m1805
f 1000 1003 1004

usemtl m1806
f 1004 1003 1005

usemtl m1807
f 1004 1005 1006

usemtl m1808
f 1006 1005 1007

usemtl m1809
f 1006 1007 1001

usemtl m1810
f 1001 1007 1002

usemtl m1811
f 1008 1009 1010

usemtl m1812
f 1008 1010 1011

usemtl m1813
f 1008 1011 1012

usemtl m1814
f 1012 1011 1013

usemtl m1815
f 1012 1013 1014

usemtl m1816
f 1012 1014 1015

usemtl m1817
f 1012 1015 1016

usemtl m1818
f 1012 1016 1017

usemtl m1819
f 1017 1016 1018

usemtl m1820
f 1017 1018 1019

usemtl m1821
f 1017 1019 1020

usemtl m1822
f 1017 1020 1021

usemtl m1823
f 1017 1021 1022

usemtl m1824
f 1022 1021 1023

usemtl m1825
f 1022 1023 1024

usemtl m1826
f 1022 1024 1025

usemtl m1827
f 1022 1025 1026

usemtl m1828
f 1022 1026 1008

usemtl m1829
f 1008 1026 1027

usemtl m1830
f 1008 1027 1009

usemtl m1831
f 1009 1027 1028

usemtl m1832
f 1009 1028 1029

usemtl m1833
f 1029 1028 1030

usemtl m1834
f 1029 1030 1031

usemtl m1835
f 1029 1031 1032

usemtl m1836
f 1032 1031 1033

usemtl m1837
f 1032 1033 1034

usemtl m1838
f 1032 1034 1035

usemtl m1839
f 1032 1035 1036

usemtl m1840
f 1032 1036 1037

usemtl m1841
f 1032 1037 1014

usemtl m1842
f 1014 1037 1015

usemtl m1843
f 1015 1037 1038

usemtl m1844
f 1015 1038 1039

usemtl m1845
f 1015 1039 1026

usemtl m1846
f 1015 1026 1025

usemtl m1847
f 1015 1025 1016

usemtl m1848
f 1016 1025 1040

usemtl m1849
f 1016 1040 1041

usemtl m1850
f 1016 1041 1018

usemtl m1851
f 1018 1041 1042

usemtl m1852
f 1018 1042 1043

usemtl m1853
f 1018 1043 1044

usemtl m1854
f 1018 1044 1045

usemtl m1855
f 1018 1045 1019

usemtl m1856
f 1019 1045 1046

usemtl m1857
f 1046 1045 1047

usemtl m1858
f 1046 1047 1048

usemtl m1859
f 1046 1048 1049

usemtl m1860
f 1046 1049 1050

usemtl m1861
f 1046 1050 1051

usemtl m1862
f 1051 1050 1052

usemtl m1863
f 1051 1052 1053

usemtl m1864
f 1051 1053 1044

usemtl m1865
f 1051 1044 1043

usemtl m1866
f 1051 1043 1024

usemtl m1867
f 1024 1043 1025

usemtl m1868
f 1025 1043 1054

usemtl m1869
f 1025 1054 1040

usemtl m1870
f 1040 1054 1042

usemtl m1871
f 1040 1042 1041

usemtl m1872
f 1009 1014 1055

usemtl m1873
f 1009 1055 1010

usemtl m1874
f 1014 1013 1055

usemtl m1875
f 1024 1023 1056

usemtl m1876
f 1024 1056 1019

usemtl m1877
f 1019 1056 1020

usemtl m1878
f 1053 1052 1057

usemtl m1879
f 1053 1057 1048

usemtl m1880
f 1048 1057 1049

usemtl m1881
f 1058 1059 1033

usemtl m1882
f 1058 1033 1031

usemtl m1883
f 1058 1031 1060

usemtl m1884
f 1058 1060 1061

usemtl m1885
f 1058 1061 1062

usemtl m1886
f 1058 1062 1063

usemtl m1887
f 1058 1063 1059

usemtl m1888
f 1059 1063 1064

usemtl m1889
f 1059 1064 1065

usemtl m1890
f 1059 1065 1066

usemtl m1891
f 1059 1066 1067

usemtl m1892
f 1059 1067 1033

usemtl m1893
f 1033 1067 1068

usemtl m1894
f 1033 1068 1034

usemtl m1895
f 1034 1068 1069

usemtl m1896
f 1034 1069 1070

usemtl m1897
f 1034 1070 1035

usemtl m1898
f 1035 1070 1071

usemtl m1899
f 1035 1071 1072

usemtl m1900
f 1035 1072 1073

usemtl m1901
f 1035 1073 1036

usemtl m1902
f 1036 1073 1028

usemtl m1903
f 1036 1028 1027

usemtl m1904
f 1036 1027 1037

usemtl m1905
f 1037 1027 1074

usemtl m1906
f 1037 1074 1038

usemtl m1907
f 1038 1074 1039

usemtl m1908
f 1039 1074 1075

usemtl m1909
f 1039 1075 1026

usemtl m1910
f 1026 1075 1027

usemtl m1911
f 1027 1075 1074

usemtl m1912
f 1076 1077 1078

usemtl m1913
f 1076 1078 1079

usemtl m1914
f 1076 1079 1080

usemtl m1915
f 1080 1079 1081

usemtl m1916
f 1080 1081 1082

usemtl m1917
f 1080 1082 1083

usemtl m1918
f 1080 1083 1084

usemtl m1919
f 1080 1084 1085

usemtl m1920
f 1085 1084 1086

usemtl m1921
f 1085 1086 1087

usemtl m1922
f 1085 1087 1088

usemtl m1923
f 1085 1088 1089

usemtl m1924
f 1085 1089 1090

usemtl m1925
f 1090 1089 1091

usemtl m1926
f 1090 1091 1092

usemtl m1927
f 1090 1092 1093

usemtl m1928
f 1090 1093 1094

usemtl m1929
f 1090 1094 1076

usemtl m1930
f 1076 1094 1095

usemtl m1931
f 1076 1095 1077

usemtl m1932
f 1076 1077 1080

usemtl m1933
f 1080 1077 1082

usemtl m1934
f 1077 1082 1096

usemtl m1935
f 1077 1096 1078

usemtl m1936
f 1082 1081 1096

usemtl m1937
f 1092 1091 1097

usemtl m1938
f 1092 1097 1087

usemtl m1939
f 1087 1097 1088

usemtl m1940
f 1098 1099 1100

usemtl m1941
f 1098 1100 1101

usemtl m1942
f 1098 1101 1102

usemtl m1943
f 1102 1101 1103

usemtl m1944
f 1102 1103 1104

usemtl m1945
f 1102 1104 1105

usemtl m1946
f 1102 1105 1106

usemtl m1947
f 1102 1106 1107

usemtl m1948
f 1107 1106 1108

usemtl m1949
f 1107 1108 1109

usemtl m1950
f 1107 1109 1110

usemtl m1951
f 1110 1109 1111

usemtl m1952
f 1110 1111 1112

usemtl m1953
f 1110 1112 1113

usemtl m1954
f 1110 1113 1114

usemtl m1955
f 1110 1114 1115

usemtl m1956
f 1110 1115 1098

usemtl m1957
f 1098 1115 1116

usemtl m1958
f 1098 1116 1099

usemtl m1959
f 1098 1099 1102

usemtl m1960
f 1102 1099 1104

usemtl m1961
f 1099 1104 1117

usemtl m1962
f 1099 1117 1100

usemtl m1963
f 1104 1103 1117

usemtl m1964
f 1118 1119 1120

usemtl m1965
f 1118 1120 1121

usemtl m1966
f 1118 1121 1122

usemtl m1967
f 1122 1121 1123

usemtl m1968
f 1122 1123 1124

usemtl m1969
f 1122 1124 1125

usemtl m1970
f 1122 1125 1126

usemtl m1971
f 1122 1126 1127

usemtl m1972
f 1127 1126 1128

usemtl m1973
f 1128 1126 1129

usemtl m1974
f 1128 1129 1118

usemtl m1975
f 1118 1129 1119

usemtl m1976
f 1119 1129 1130

usemtl m1977
f 1119 1130 1131

usemtl m1978
f 1131 1130 1132

usemtl m1979
f 1132 1130 1125

usemtl m1980
f 1132 1125 1124

usemtl m1981
f 1119 1124 1133

usemtl m1982
f 1119 1133 1120

usemtl m1983
f 1124 1123 1133

usemtl m1984
f 1134 1135 1136

usemtl m1985
f 1134 1136 1137

usemtl m1986
f 1134 1137 1138

usemtl m1987
f 1138 1137 1139

usemtl m1988
f 1138 1139 1140

usemtl m1989
f 1138 1140 1141

usemtl m1990
f 1138 1141 1142

usemtl m1991
f 1138 1142 1143

usemtl m1992
f 1143 1142 1144

usemtl m1993
f 1144 1142 1145

usemtl m1994
f 1144 1145 1134

usemtl m1995
f 1134 1145 1135

usemtl m1996
f 1135 1145 1146

usemtl m1997
f 1135 1146 1147

usemtl m1998
f 1147 1146 1148

usemtl m1999
f 1148 1146 1141

usemtl m2000
f 1148 1141 1140

usemtl m2001
f 1135 1140 1149

usemtl m2002
f 1135 1149 1136

usemtl m2003
f 1140 1139 1149

usemtl m2004
f 1150 1151 1152

usemtl m2005
f 1150 1152 1153

usemtl m2006
f 1150 1153 1154

usemtl m2007
f 1154 1153 1155

usemtl m2008
f 1154 1155 1156

usemtl m2009
f 1154 1156 1157

usemtl m2010
f 1154 1157 1158

usemtl m2011
f 1154 1158 1159

usemtl m2012
f 1159 1158 1160

usemtl m2013
f 1160 1158 1161

usemtl m2014
f 1160 1161 1150

usemtl m2015
f 1150 1161 1151

usemtl m2016
f 1151 1161 1162

usemtl m2017
f 1151 1162 1163

usemtl m2018
f 1163 1162 1164

usemtl m2019
f 1164 1162 1157

usemtl m2020
f 1164 1157 1156

usemtl m2021
f 1151 1156 1165

usemtl m2022
f 1151 1165 1152

usemtl m2023
f 1156 1155 1165

usemtl m2024
f 1166 1129 1126

usemtl m2025
f 1166 1126 1125

usemtl m2026
f 1166 1125 1130

usemtl m2027
f 1166 1130 1129

usemtl m2028
f 1167 1145 1142

usemtl m2029
f 1167 1142 1141

usemtl m2030
f 1167 1141 1146

usemtl m2031
f 1167 1146 1145

usemtl m2032
f 1168 1161 1158

usemtl m2033
f 1168 1158 1157

usemtl m2034
f 1168 1157 1162

usemtl m2035
f 1168 1162 1161

usemtl m2036
f 1169 1170 1171

usemtl m2037
f 1169 1171 1095

usemtl m2038
f 1169 1095 1094

usemtl m2039
f 1169 1094 1172

usemtl m2040
f 1169 1172 1173

usemtl m2041
f 1169 1173 1170

usemtl m2042
f 1170 1173 1171

usemtl m2043
f 1171 1173 1083

usemtl m2044
f 1171 1083 1082

usemtl m2045
f 1171 1082 1073

usemtl m2046
f 1171 1073 1174

usemtl m2047
f 1171 1174 1095

usemtl m2048
f 1171 1095 1094

usemtl m2049
f 1171 1094 1083

usemtl m2050
f 1083 1094 1093

usemtl m2051
f 1083 1093 1084

usemtl m2052
f 1084 1093 1175

usemtl m2053
f 1084 1175 1176

usemtl m2054
f 1084 1176 1177

usemtl m2055
f 1084 1177 1086

usemtl m2056
f 1086 1177 1178

usemtl m2057
f 1086 1178 1116

usemtl m2058
f 1086 1116 1179

usemtl m2059
f 1086 1179 1087

usemtl m2060
f 1087 1179 1104

usemtl m2061
f 1104 1179 1105

usemtl m2062
f 1105 1179 1180

usemtl m2063
f 1105 1180 1115

usemtl m2064
f 1105 1115 1114

usemtl m2065
f 1105 1114 1106

usemtl m2066
f 1106 1114 1181

usemtl m2067
f 1106 1181 1182

usemtl m2068
f 1106 1182 1108

usemtl m2069
f 1108 1182 1183

usemtl m2070
f 1108 1183 1065

usemtl m2071
f 1108 1065 1109

usemtl m2072
f 1109 1065 1064

usemtl m2073
f 1109 1064 1048

usemtl m2074
f 1109 1048 1047

usemtl m2075
f 1109 1047 1111

usemtl m2076
f 1111 1047 1184

usemtl m2077
f 1111 1184 1063

usemtl m2078
f 1111 1063 1112

usemtl m2079
f 1112 1063 1062

usemtl m2080
f 1112 1062 1185

usemtl m2081
f 1112 1185 1186

usemtl m2082
f 1112 1186 1187

usemtl m2083
f 1112 1187 1113

usemtl m2084
f 1113 1187 1181

usemtl m2085
f 1113 1181 1114

usemtl m2086
f 1173 1172 1094

usemtl m2087
f 1173 1094 1083

usemtl m2088
f 1177 1188 1178

usemtl m2089
f 1178 1188 1175

usemtl m2090
f 1178 1175 1093

usemtl m2091
f 1178 1093 1092

usemtl m2092
f 1178 1092 1099

usemtl m2093
f 1178 1099 1116

usemtl m2094
f 1175 1188 1177

usemtl m2095
f 1175 1177 1176

usemtl m2096
f 1189 1190 1179

usemtl m2097
f 1189 1179 1116

usemtl m2098
f 1189 1116 1115

usemtl m2099
f 1189 1115 1191

usemtl m2100
f 1189 1191 1180

usemtl m2101
f 1189 1180 1190

usemtl m2102
f 1190 1180 1179

usemtl m2103
f 1180 1191 1115

usemtl m2104
f 1042 1054 1043

usemtl m2105
f 1192 1193 1044

usemtl m2106
f 1192 1044 1184

usemtl m2107
f 1192 1184 1194

usemtl m2108
f 1192 1194 1193

usemtl m2109
f 1193 1194 1195

usemtl m2110
f 1193 1195 1045

usemtl m2111
f 1193 1045 1044

usemtl m2112
f 1195 1194 1047

usemtl m2113
f 1195 1047 1045

usemtl m2114
f 1194 1184 1047

usemtl m2115
f 1196 1197 1061

usemtl m2116
f 1196 1061 1067

usemtl m2117
f 1196 1067 1066

usemtl m2118
f 1196 1066 1198

usemtl m2119
f 1198 1066 1065

usemtl m2120
f 1198 1065 1183

usemtl m2121
f 1198 1183 1186

usemtl m2122
f 1198 1186 1185

usemtl m2123
f 1197 1062 1061

usemtl m2124
f 1062 1197 1185

usemtl m2125
f 1186 1183 1187

usemtl m2126
f 1187 1183 1199

usemtl m2127
f 1187 1199 1200

usemtl m2128
f 1187 1200 1201

usemtl m2129
f 1187 1201 1202

usemtl m2130
f 1187 1202 1181

usemtl m2131
f 1181 1202 1203

usemtl m2132
f 1181 1203 1182

usemtl m2133
f 1182 1203 1204

usemtl m2134
f 1182 1204 1205

usemtl m2135
f 1182 1205 1183

usemtl m2136
f 1183 1205 1206

usemtl m2137
f 1183 1206 1199

usemtl m2138
f 1199 1206 1207

usemtl m2139
f 1199 1207 1208

usemtl m2140
f 1199 1208 1209

usemtl m2141
f 1199 1209 1200

usemtl m2142
f 1200 1209 1210

usemtl m2143
f 1200 1210 1211

usemtl m2144
f 1200 1211 1201

usemtl m2145
f 1201 1211 1212

usemtl m2146
f 1201 1212 1213

usemtl m2147
f 1213 1212 1214

usemtl m2148
f 1214 1212 1215

usemtl m2149
f 1215 1212 1216

usemtl m2150
f 1215 1216 1217

usemtl m2151
f 1217 1216 1207

usemtl m2152
f 1217 1207 1206

usemtl m2153
f 1211 1218 1219

usemtl m2154
f 1219 1218 1220

usemtl m2155
f 1220 1218 1221

usemtl m2156
f 1220 1221 1207

usemtl m2157
f 1207 1221 1208

usemtl m2158
f 1208 1221 1222

usemtl m2159
f 1208 1222 1223

usemtl m2160
f 1208 1223 1209

usemtl m2161
f 1209 1223 1210

usemtl m2162
f 1210 1223 1222

usemtl m2163
f 1210 1222 1211

usemtl m2164
f 1211 1222 1218

usemtl m2165
f 1218 1222 1221

usemtl m2166
f 1224 1174 1225

usemtl m2167
f 1224 1225 1226

usemtl m2168
f 1224 1226 1227

usemtl m2169
f 1224 1227 1228

usemtl m2170
f 1224 1228 1077

usemtl m2171
f 1224 1077 1095

usemtl m2172
f 1224 1095 1174

usemtl m2173
f 1028 1073 1228

usemtl m2174
f 1028 1228 1227

usemtl m2175
f 1028 1227 1030

usemtl m2176
f 1030 1227 1229

usemtl m2177
f 1030 1229 1230

usemtl m2178
f 1030 1230 1231

usemtl m2179
f 1030 1231 1031

usemtl m2180
f 1031 1231 1060

usemtl m2181
f 1060 1231 1232

usemtl m2182
f 1060 1232 1068

usemtl m2183
f 1068 1232 1069

usemtl m2184
f 1073 1072 1174

usemtl m2185
f 1174 1072 1225

usemtl m2186
f 1225 1072 1071

usemtl m2187
f 1225 1071 1226

usemtl m2188
f 1226 1071 1229

usemtl m2189
f 1226 1229 1227

usemtl m2190
f 1231 1230 1232

usemtl m2191
f 1071 1070 1230

usemtl m2192
f 1071 1230 1229

usemtl m2193
f 1084 1093 1178

usemtl m2194
f 1084 1178 1086

usemtl m2195
f 1090 1085 1087

usemtl m2196
f 1090 1087 1092

usemtl m2197
f 1179 1116 1115

usemtl m2198
f 1179 1115 1105

usemtl m2199
f 1044 1053 1184

usemtl m2200
f 1184 1053 1063

usemtl m2201
f 1205 1202 1201

usemtl m2202
f 1205 1201 1206

usemtl m2203
f 1216 1212 1211

usemtl m2204
f 1216 1211 1207

usemtl m2205
f 1204 1203 1233

usemtl m2206
f 1204 1233 1234

usemtl m2207
f 1204 1234 1205

usemtl m2208
f 1205 1234 1202

usemtl m2209
f 1202 1234 1233

usemtl m2210
f 1202 1233 1203

