mtllib 35079.mtl
o runescapemodel
v -30 5 30
v 30 5 30
v 28 5 28
v -28 5 28
v -30 5 -30
v -28 5 -28
v 30 5 -30
v 28 5 -28
vn 0 -768 0
vn 0 -768 0
vn 0 -1280 0
vn 0 -1024 0
vn 0 -768 0
vn 0 -1280 0
vn 0 -768 0
vn 0 -1024 0
usemtl m0
f 1 2 3

usemtl m1
f 1 3 4

usemtl m2
f 1 4 5

usemtl m3
f 5 4 6

usemtl m4
f 5 6 7

usemtl m5
f 7 6 8

usemtl m6
f 7 8 2

usemtl m7
f 2 8 3

usemtl m8
f 3 8 6

usemtl m9
f 3 6 4

