newmtl m0
map_Kd sprite/462-0.png
newmtl m1
map_Kd sprite/462-0.png
newmtl m2
map_Kd sprite/462-0.png
newmtl m3
map_Kd sprite/462-0.png
newmtl m4
map_Kd sprite/488-0.png
newmtl m5
map_Kd sprite/488-0.png
newmtl m6
Kd 0.23137254901960785 0.20784313725490197 0.20784313725490197
newmtl m7
Kd 0.23137254901960785 0.20784313725490197 0.20784313725490197
newmtl m8
Kd 0.23137254901960785 0.20784313725490197 0.20784313725490197
newmtl m9
Kd 0.23137254901960785 0.20784313725490197 0.20784313725490197
newmtl m10
Kd 0.23137254901960785 0.20784313725490197 0.20784313725490197
newmtl m11
map_Kd sprite/488-0.png
newmtl m12
map_Kd sprite/488-0.png
newmtl m13
map_Kd sprite/462-0.png
newmtl m14
map_Kd sprite/462-0.png
newmtl m15
map_Kd sprite/462-0.png
newmtl m16
map_Kd sprite/462-0.png
newmtl m17
map_Kd sprite/462-0.png
newmtl m18
map_Kd sprite/488-0.png
newmtl m19
map_Kd sprite/488-0.png
newmtl m20
map_Kd sprite/462-0.png
newmtl m21
map_Kd sprite/462-0.png
newmtl m22
map_Kd sprite/462-0.png
newmtl m23
map_Kd sprite/462-0.png
newmtl m24
map_Kd sprite/462-0.png
newmtl m25
map_Kd sprite/462-0.png
newmtl m26
map_Kd sprite/462-0.png
newmtl m27
map_Kd sprite/462-0.png
newmtl m28
map_Kd sprite/462-0.png
newmtl m29
map_Kd sprite/462-0.png
newmtl m30
map_Kd sprite/462-0.png
newmtl m31
map_Kd sprite/449-0.png
newmtl m32
map_Kd sprite/449-0.png
newmtl m33
Kd 0.14901960784313725 0.08235294117647059 0.00392156862745098
newmtl m34
Kd 0.14901960784313725 0.08235294117647059 0.00392156862745098
newmtl m35
Kd 0.14901960784313725 0.08235294117647059 0.00392156862745098
newmtl m36
map_Kd sprite/449-0.png
newmtl m37
map_Kd sprite/449-0.png
newmtl m38
map_Kd sprite/449-0.png
newmtl m39
map_Kd sprite/449-0.png
newmtl m40
map_Kd sprite/449-0.png
newmtl m41
map_Kd sprite/449-0.png
newmtl m42
Kd 0.14901960784313725 0.08235294117647059 0.00392156862745098
newmtl m43
Kd 0.14901960784313725 0.08235294117647059 0.00392156862745098
newmtl m44
Kd 0.21176470588235294 0.1568627450980392 0.00392156862745098
newmtl m45
Kd 0.21176470588235294 0.1568627450980392 0.00392156862745098
newmtl m46
Kd 0.21176470588235294 0.1568627450980392 0.00392156862745098
newmtl m47
Kd 0.21176470588235294 0.1568627450980392 0.00392156862745098
newmtl m48
Kd 0.21176470588235294 0.1568627450980392 0.00392156862745098
newmtl m49
Kd 0.14901960784313725 0.08235294117647059 0.00392156862745098
newmtl m50
Kd 0.14901960784313725 0.08235294117647059 0.00392156862745098
newmtl m51
Kd 0.14901960784313725 0.08235294117647059 0.00392156862745098
newmtl m52
Kd 0.21176470588235294 0.1568627450980392 0.00392156862745098
newmtl m53
Kd 0.21176470588235294 0.1568627450980392 0.00392156862745098
newmtl m54
Kd 0.23137254901960785 0.20784313725490197 0.20784313725490197
newmtl m55
Kd 0.23137254901960785 0.20784313725490197 0.20784313725490197
newmtl m56
Kd 0.23137254901960785 0.20784313725490197 0.20784313725490197
newmtl m57
Kd 0.21176470588235294 0.1568627450980392 0.00392156862745098
