mtllib 35418.mtl
o runescapemodel
v -8 0 38
v -44 0 -27
v -39 0 -29
v -4 0 35
v -4 0 43
v -4 7 43
v -8 7 38
v -44 7 -27
v -47 0 -34
v -44 0 -35
v 6 0 -63
v 9 0 -55
v 45 0 10
v -1 0 42
v -3 3 43
v -3 7 43
v -3 12 43
v -4 15 43
v -8 15 38
v -44 15 -27
v -47 7 -34
v -45 3 -34
v 6 3 -63
v 9 3 -55
v 45 3 10
v 49 3 15
v 49 0 15
v 43 3 13
v -5 3 39
v -5 5 39
v -5 7 39
v -5 10 39
v -5 12 39
v 49 12 15
v 49 15 15
v -1 15 42
v -4 15 35
v -39 15 -29
v -47 15 -34
v -45 12 -34
v -45 7 -34
v -44 5 -31
v -44 3 -31
v 4 3 -58
v 43 5 13
v 43 7 13
v 43 10 13
v 43 12 13
v 45 12 10
v 45 15 10
v 4 5 -58
v 4 7 -58
v 4 10 -58
v 4 12 -58
v 9 12 -55
v 9 15 -55
v 16 15 -29
v 10 15 -13
v 6 15 3
v -6 15 -4
v -24 15 -6
v -17 15 -19
v -44 15 -35
v 6 12 -63
v -44 12 -31
v -44 10 -31
v -44 7 -31
v 6 15 -63
v 2 15 -29
v 11 15 -26
v 5 15 -11
v 5 15 -2
v -1 15 -7
v -18 15 -10
v -14 15 -12
v 6 15 -23
v 2 15 -7
v -18 16 46
v -40 16 -25
v -35 16 -26
v -13 16 44
v -16 16 52
v -16 23 52
v -18 23 46
v -40 23 -25
v -41 16 -32
v -37 16 -32
v 17 16 -49
v 19 16 -42
v 39 16 29
v -11 16 51
v -14 19 52
v -14 23 52
v -14 28 52
v -16 31 52
v -18 31 46
v -40 31 -25
v -41 23 -32
v -39 19 -33
v 17 19 -49
v 19 19 -42
v 39 19 29
v 42 19 35
v 42 16 35
v 37 19 33
v -15 19 48
v -15 21 48
v -15 23 48
v -15 26 48
v -15 28 48
v 42 28 35
v 42 31 35
v -11 31 51
v -13 31 44
v -35 31 -26
v -41 31 -32
v -39 28 -33
v -39 23 -33
v -38 21 -29
v -38 19 -29
v 13 19 -45
v 37 21 33
v 37 23 33
v 37 26 33
v 37 28 33
v 39 28 29
v 39 31 29
v 13 21 -45
v 13 23 -45
v 13 26 -45
v 13 28 -45
v 19 28 -42
v 19 31 -42
v 20 31 -15
v 9 31 0
v 4 31 14
v -8 31 5
v -23 31 -1
v -14 31 -12
v -37 31 -32
v 17 28 -49
v -38 28 -29
v -38 26 -29
v -38 23 -29
v 17 31 -49
v 6 31 -18
v 14 31 -13
v 5 31 1
v 3 31 10
v -3 31 4
v -18 31 -3
v -13 31 -5
v 8 31 -11
v 1 31 4
v -49 32 -7
v 19 32 -38
v 20 32 -32
v -46 32 -4
v -55 32 -5
v -55 39 -5
v -49 39 -7
v 19 39 -38
v 25 32 -40
v 26 32 -36
v 50 32 16
v 42 32 18
v -26 32 48
v -54 32 -1
v -55 35 -3
v -55 39 -3
v -55 44 -3
v -55 47 -5
v -49 47 -7
v 19 47 -38
v 25 39 -40
v 26 35 -37
v 50 35 16
v 42 35 18
v -26 35 48
v -31 35 50
v -31 32 50
v -29 35 45
v -51 35 -4
v -51 37 -4
v -51 39 -4
v -51 42 -4
v -51 44 -4
v -31 44 50
v -31 47 50
v -54 47 -1
v -46 47 -4
v 20 47 -32
v 25 47 -40
v 26 44 -37
v 26 39 -37
v 24 37 -37
v 24 35 -37
v 45 35 13
v -29 37 45
v -29 39 45
v -29 42 45
v -29 44 45
v -26 44 48
v -26 47 48
v 45 37 13
v 45 39 13
v 45 42 13
v 45 44 13
v 42 44 18
v 42 47 18
v 16 47 22
v -1 47 13
v -15 47 10
v -8 47 -2
v -4 47 -20
v 8 47 -12
v 26 47 -36
v 50 44 16
v 24 44 -37
v 24 42 -37
v 24 39 -37
v 50 47 16
v 17 47 9
v 13 47 17
v -1 47 10
v -11 47 8
v -6 47 2
v -1 47 -14
v 1 47 -9
v 11 47 13
v -5 47 6
v -42 48 27
v -14 48 -41
v -10 48 -39
v -38 48 28
v -44 48 33
v -44 55 33
v -42 55 27
v -14 55 -41
v -11 48 -48
v -8 48 -47
v 45 48 -25
v 41 48 -18
v 13 48 50
v -41 48 35
v -43 51 34
v -43 55 34
v -43 60 34
v -44 63 33
v -42 63 27
v -14 63 -41
v -11 55 -48
v -9 51 -47
v 45 51 -25
v 41 51 -18
v 13 51 50
v 12 51 57
v 12 48 57
v 9 51 51
v -41 51 30
v -41 53 30
v -41 55 30
v -41 58 30
v -41 60 30
v 12 60 57
v 12 63 57
v -41 63 35
v -38 63 28
v -10 63 -39
v -11 63 -48
v -9 60 -47
v -9 55 -47
v -11 53 -44
v -11 51 -44
v 40 51 -24
v 9 53 51
v 9 55 51
v 9 58 51
v 9 60 51
v 13 60 50
v 13 63 50
v 40 53 -24
v 40 55 -24
v 40 58 -24
v 40 60 -24
v 41 60 -18
v 41 63 -18
v 25 63 3
v 8 63 9
v -6 63 16
v -9 63 2
v -18 63 -13
v -4 63 -16
v -8 63 -47
v 45 60 -25
v -11 60 -44
v -11 58 -44
v -11 55 -44
v 45 63 -25
v 17 63 -7
v 19 63 1
v 4 63 6
v -3 63 12
v -3 63 4
v -11 63 -11
v -7 63 -9
v 14 63 -1
v -1 63 6
v -13 64 48
v -41 64 -21
v -36 64 -22
v -8 64 45
v -9 64 53
v -9 71 53
v -13 71 48
v -41 71 -21
v -44 64 -28
v -40 64 -29
v 12 64 -51
v 15 64 -43
v 43 64 25
v -6 64 53
v -8 67 53
v -8 71 53
v -8 76 53
v -9 79 53
v -13 79 48
v -41 79 -21
v -44 71 -28
v -41 67 -28
v 12 67 -51
v 15 67 -43
v 43 67 25
v 46 67 31
v 46 64 31
v 41 67 29
v -10 67 49
v -10 69 49
v -10 71 49
v -10 74 49
v -10 76 49
v 46 76 31
v 46 79 31
v -6 79 53
v -8 79 45
v -36 79 -22
v -44 79 -28
v -41 76 -28
v -41 71 -28
v -41 69 -25
v -41 67 -25
v 9 67 -46
v 41 69 29
v 41 71 29
v 41 74 29
v 41 76 29
v 43 76 25
v 43 79 25
v 9 69 -46
v 9 71 -46
v 9 74 -46
v 9 76 -46
v 15 76 -43
v 15 79 -43
v 18 79 -16
v 10 79 -1
v 5 79 14
v -7 79 6
v -24 79 2
v -15 79 -10
v -40 79 -29
v 12 76 -51
v -41 76 -25
v -41 74 -25
v -41 71 -25
v 12 79 -51
v 5 79 -18
v 13 79 -14
v 5 79 0
v 4 79 9
v -1 79 4
v -18 79 -1
v -13 79 -2
v 8 79 -12
v 2 79 4
vn -630 768 -448
vn -684 768 -349
vn 0 1536 0
vn 0 1536 0
vn -203 512 -162
vn -606 0 -484
vn -1275 0 -854
vn -1382 0 -676
vn -472 256 -202
vn 0 768 0
vn 0 512 0
vn 0 768 0
vn 0 768 0
vn 0 768 0
vn 0 0 0
vn 0 0 0
vn 0 0 0
vn -400 -256 -320
vn -648 -768 -408
vn -700 -768 -328
vn -712 0 -305
vn 0 0 0
vn 0 0 0
vn 0 0 0
vn 0 0 0
vn 0 0 0
vn 0 256 0
vn 570 0 21
vn 244 0 -450
vn 366 0 -675
vn 366 0 -677
vn 366 0 -676
vn 122 0 -225
vn 0 0 0
vn 0 -512 0
vn 0 -768 0
vn 0 -2304 0
vn 0 -1792 0
vn -238 -512 -102
vn 0 0 0
vn 0 0 0
vn -375 0 669
vn -125 0 223
vn -26 0 569
vn 1038 0 -306
vn 1038 0 -307
vn 1038 0 -308
vn 468 0 -327
vn 0 0 0
vn 0 -1280 0
vn 297 0 1038
vn 297 0 1038
vn 297 0 1038
vn 323 0 469
vn 0 0 0
vn 0 -1536 0
vn 0 -768 0
vn 0 -512 0
vn 0 -768 0
vn 0 -512 0
vn 0 -768 0
vn 0 -1024 0
vn 0 -768 0
vn 0 0 0
vn -250 0 446
vn -375 0 669
vn -375 0 669
vn 0 -256 0
vn 0 -1024 0
vn 0 0 0
vn 0 0 0
vn 0 0 0
vn 0 0 0
vn 0 0 0
vn 0 -768 0
vn 0 -512 0
vn 0 -256 0
vn -732 768 -237
vn -744 768 -186
vn 0 1536 0
vn 0 1536 0
vn -244 512 -81
vn -733 0 -243
vn -1466 0 -468
vn -1500 0 -333
vn -512 256 -72
vn 0 768 0
vn 0 512 0
vn 0 768 0
vn 0 768 0
vn 0 768 0
vn 0 0 0
vn 0 0 0
vn 0 0 0
vn -490 -256 -162
vn -733 -768 -231
vn -756 -768 -147
vn -768 0 -108
vn 0 0 0
vn 0 0 0
vn 0 0 0
vn 0 0 0
vn 0 0 0
vn 0 256 0
vn 561 0 -96
vn 142 0 -492
vn 213 0 -738
vn 213 0 -738
vn 213 0 -738
vn 71 0 -246
vn 0 0 0
vn 0 -512 0
vn 0 -768 0
vn 0 -2304 0
vn 0 -1792 0
vn -256 -512 -36
vn 0 0 0
vn 0 0 0
vn -231 0 738
vn -77 0 246
vn 91 0 567
vn 948 0 -513
vn 948 0 -513
vn 948 0 -513
vn 387 0 -417
vn 0 0 0
vn 0 -1280 0
vn 504 0 963
vn 506 0 959
vn 505 0 961
vn 413 0 396
vn 0 0 0
vn 0 -1536 0
vn 0 -768 0
vn 0 -512 0
vn 0 -768 0
vn 0 -512 0
vn 0 -768 0
vn 0 -1024 0
vn 0 -768 0
vn 0 0 0
vn -154 0 492
vn -229 0 734
vn -230 0 736
vn 0 -256 0
vn 0 -1024 0
vn 0 0 0
vn 0 0 0
vn 0 0 0
vn 0 0 0
vn 0 0 0
vn 0 -768 0
vn 0 -512 0
vn 0 -256 0
vn -268 768 720
vn -293 768 708
vn 0 1536 0
vn 0 1536 0
vn -81 512 244
vn -243 0 733
vn -561 0 1431
vn -561 0 1431
vn -162 256 488
vn 0 768 0
vn 0 512 0
vn 0 768 0
vn 0 768 0
vn 0 768 0
vn 0 0 0
vn 0 0 0
vn 0 0 0
vn -162 -256 490
vn -293 -768 711
vn -268 -768 723
vn -243 0 734
vn 0 0 0
vn 0 0 0
vn 0 0 0
vn 0 0 0
vn 0 0 0
vn 0 256 0
vn -32 0 -575
vn -468 0 -210
vn -702 0 -315
vn -700 0 -313
vn -701 0 -314
vn -234 0 -105
vn 0 0 0
vn 0 -512 0
vn 0 -768 0
vn 0 -2304 0
vn 0 -1792 0
vn -81 -512 245
vn 0 0 0
vn 0 0 0
vn 711 0 297
vn 237 0 99
vn 575 0 -37
vn -399 0 -1020
vn -398 0 -1019
vn -397 0 -1018
vn -367 0 -445
vn 0 0 0
vn 0 -1280 0
vn 1014 0 -408
vn 1014 0 -408
vn 1014 0 -408
vn 439 0 -371
vn 0 0 0
vn 0 -1536 0
vn 0 -768 0
vn 0 -512 0
vn 0 -768 0
vn 0 -512 0
vn 0 -768 0
vn 0 -1024 0
vn 0 -768 0
vn 0 0 0
vn 474 0 198
vn 711 0 297
vn 711 0 297
vn 0 -256 0
vn 0 -1024 0
vn 0 0 0
vn 0 0 0
vn 0 0 0
vn 0 0 0
vn 0 0 0
vn 0 -768 0
vn 0 -512 0
vn 0 -256 0
vn -725 768 259
vn -710 768 295
vn 0 1536 0
vn 0 1536 0
vn -244 512 81
vn -733 0 243
vn -1444 0 534
vn -1419 0 595
vn -472 256 202
vn 0 768 0
vn 0 512 0
vn 0 768 0
vn 0 768 0
vn 0 768 0
vn 0 0 0
vn 0 0 0
vn 0 0 0
vn -490 -256 162
vn -717 -768 275
vn -712 -768 301
vn -712 0 305
vn 0 0 0
vn 0 0 0
vn 0 0 0
vn 0 0 0
vn 0 0 0
vn 0 256 0
vn 375 0 -431
vn -198 0 -474
vn -297 0 -711
vn -297 0 -711
vn -297 0 -711
vn -99 0 -237
vn 0 0 0
vn 0 -512 0
vn 0 -768 0
vn 0 -2304 0
vn 0 -1792 0
vn -238 -512 102
vn 0 0 0
vn 0 0 0
vn 279 0 717
vn 93 0 239
vn 423 0 381
vn 414 0 -1002
vn 414 0 -1002
vn 414 0 -1002
vn 39 0 -571
vn 0 0 0
vn 0 -1280 0
vn 990 0 426
vn 990 0 424
vn 990 0 425
vn 567 0 45
vn 0 0 0
vn 0 -1536 0
vn 0 -768 0
vn 0 -512 0
vn 0 -768 0
vn 0 -512 0
vn 0 -768 0
vn 0 -1024 0
vn 0 -768 0
vn 0 0 0
vn 186 0 478
vn 279 0 715
vn 279 0 716
vn 0 -256 0
vn 0 -1024 0
vn 0 0 0
vn 0 0 0
vn 0 0 0
vn 0 0 0
vn 0 0 0
vn 0 -768 0
vn 0 -512 0
vn 0 -256 0
vn -643 768 -420
vn -710 768 -293
vn 0 1536 0
vn 0 1536 0
vn -203 512 -162
vn -606 0 -484
vn -1314 0 -770
vn -1421 0 -592
vn -472 256 -202
vn 0 768 0
vn 0 512 0
vn 0 768 0
vn 0 768 0
vn 0 768 0
vn 0 0 0
vn 0 0 0
vn 0 0 0
vn -400 -256 -320
vn -674 -768 -352
vn -713 -768 -300
vn -712 0 -305
vn 0 0 0
vn 0 0 0
vn 0 0 0
vn 0 0 0
vn 0 0 0
vn 0 256 0
vn 563 0 -39
vn 186 0 -478
vn 279 0 -717
vn 279 0 -715
vn 279 0 -716
vn 93 0 -239
vn 0 0 0
vn 0 -512 0
vn 0 -768 0
vn 0 -2304 0
vn 0 -1792 0
vn -238 -512 -102
vn 0 0 0
vn 0 0 0
vn -297 0 711
vn -99 0 237
vn 37 0 574
vn 984 0 -417
vn 986 0 -416
vn 985 0 -415
vn 421 0 -378
vn 0 0 0
vn 0 -1280 0
vn 408 0 1011
vn 409 0 1011
vn 410 0 1011
vn 371 0 437
vn 0 0 0
vn 0 -1536 0
vn 0 -768 0
vn 0 -512 0
vn 0 -768 0
vn 0 -512 0
vn 0 -768 0
vn 0 -1024 0
vn 0 -768 0
vn 0 0 0
vn -198 0 474
vn -297 0 711
vn -297 0 711
vn 0 -256 0
vn 0 -1024 0
vn 0 0 0
vn 0 0 0
vn 0 0 0
vn 0 0 0
vn 0 0 0
vn 0 -768 0
vn 0 -512 0
vn 0 -256 0
usemtl m0
f 1 2 3

usemtl m1
f 1 3 4

usemtl m2
f 1 4 5

usemtl m3
f 1 5 6

usemtl m4
f 1 6 7

usemtl m5
f 1 7 2

usemtl m6
f 2 7 8

usemtl m7
f 2 8 9

usemtl m8
f 2 9 10

usemtl m9
f 2 10 3

usemtl m10
f 3 10 11

usemtl m11
f 3 11 12

usemtl m12
f 3 12 4

usemtl m13
f 4 12 13

usemtl m14
f 4 13 14

usemtl m15
f 4 14 5

usemtl m16
f 5 14 15

usemtl m17
f 5 15 6

usemtl m18
f 6 15 16

usemtl m19
f 6 16 17

usemtl m20
f 6 17 18

usemtl m21
f 6 18 7

usemtl m22
f 7 18 19

usemtl m23
f 7 19 8

usemtl m24
f 8 19 20

usemtl m25
f 8 20 21

usemtl m26
f 8 21 9

usemtl m27
f 9 21 22

usemtl m28
f 9 22 10

usemtl m29
f 10 22 11

usemtl m30
f 11 22 23

usemtl m31
f 11 23 24

usemtl m32
f 11 24 12

usemtl m33
f 12 24 25

usemtl m34
f 12 25 13

usemtl m35
f 13 25 26

usemtl m36
f 13 26 27

usemtl m37
f 13 27 14

usemtl m38
f 14 27 26

usemtl m39
f 14 26 15

usemtl m40
f 15 26 28

usemtl m41
f 15 28 29

usemtl m42
f 15 29 30

usemtl m43
f 15 30 31

usemtl m44
f 15 31 16

usemtl m45
f 16 31 32

usemtl m46
f 16 32 17

usemtl m47
f 17 32 33

usemtl m48
f 17 33 34

usemtl m49
f 17 34 35

usemtl m50
f 17 35 36

usemtl m51
f 17 36 18

usemtl m52
f 18 36 19

usemtl m53
f 19 36 37

usemtl m54
f 19 37 20

usemtl m55
f 20 37 38

usemtl m56
f 20 38 39

usemtl m57
f 20 39 21

usemtl m58
f 21 39 40

usemtl m59
f 21 40 41

usemtl m60
f 21 41 22

usemtl m61
f 22 41 42

usemtl m62
f 22 42 43

usemtl m63
f 22 43 23

usemtl m64
f 23 43 44

usemtl m65
f 23 44 24

usemtl m66
f 24 44 28

usemtl m67
f 24 28 25

usemtl m68
f 25 28 26

usemtl m69
f 30 45 46

usemtl m70
f 30 46 31

usemtl m71
f 31 46 47

usemtl m72
f 31 47 32

usemtl m73
f 32 47 48

usemtl m74
f 32 48 33

usemtl m75
f 33 48 34

usemtl m76
f 34 48 49

usemtl m77
f 34 49 35

usemtl m78
f 35 49 50

usemtl m79
f 35 50 37

usemtl m80
f 35 37 36

usemtl m81
f 45 51 52

usemtl m82
f 45 52 46

usemtl m83
f 46 52 53

usemtl m84
f 46 53 47

usemtl m85
f 47 53 54

usemtl m86
f 47 54 48

usemtl m87
f 48 54 49

usemtl m88
f 49 54 55

usemtl m89
f 49 55 50

usemtl m90
f 50 55 56

usemtl m91
f 50 56 57

usemtl m92
f 50 57 58

usemtl m93
f 50 58 59

usemtl m94
f 50 59 37

usemtl m95
f 37 59 60

usemtl m96
f 37 60 61

usemtl m97
f 37 61 38

usemtl m98
f 38 61 62

usemtl m99
f 38 62 56

usemtl m100
f 38 56 63

usemtl m101
f 38 63 39

usemtl m102
f 39 63 40

usemtl m103
f 40 63 64

usemtl m104
f 40 64 54

usemtl m105
f 40 54 65

usemtl m106
f 40 65 66

usemtl m107
f 40 66 67

usemtl m108
f 40 67 41

usemtl m109
f 41 67 42

usemtl m110
f 42 67 51

usemtl m111
f 42 51 44

usemtl m112
f 42 44 43

usemtl m113
f 51 67 52

usemtl m114
f 52 67 66

usemtl m115
f 52 66 53

usemtl m116
f 53 66 65

usemtl m117
f 53 65 54

usemtl m118
f 64 63 68

usemtl m119
f 64 68 56

usemtl m120
f 64 56 55

usemtl m121
f 64 55 54

usemtl m122
f 45 30 29

usemtl m123
f 45 29 28

usemtl m124
f 45 28 51

usemtl m125
f 51 28 44

usemtl m126
f 63 56 68

usemtl m127
f 56 62 69

usemtl m128
f 56 69 57

usemtl m129
f 57 69 70

usemtl m130
f 57 70 71

usemtl m131
f 57 71 58

usemtl m132
f 58 71 59

usemtl m133
f 59 71 72

usemtl m134
f 59 72 73

usemtl m135
f 59 73 60

usemtl m136
f 60 73 61

usemtl m137
f 61 73 74

usemtl m138
f 61 74 62

usemtl m139
f 62 74 75

usemtl m140
f 62 75 69

usemtl m141
f 69 75 76

usemtl m142
f 69 76 70

usemtl m143
f 70 76 77

usemtl m144
f 70 77 71

usemtl m145
f 71 77 72

usemtl m146
f 72 77 73

usemtl m147
f 73 77 74

usemtl m148
f 74 77 75

usemtl m149
f 75 77 76

usemtl m150
f 78 79 80

usemtl m151
f 78 80 81

usemtl m152
f 78 81 82

usemtl m153
f 78 82 83

usemtl m154
f 78 83 84

usemtl m155
f 78 84 79

usemtl m156
f 79 84 85

usemtl m157
f 79 85 86

usemtl m158
f 79 86 87

usemtl m159
f 79 87 80

usemtl m160
f 80 87 88

usemtl m161
f 80 88 89

usemtl m162
f 80 89 81

usemtl m163
f 81 89 90

usemtl m164
f 81 90 91

usemtl m165
f 81 91 82

usemtl m166
f 82 91 92

usemtl m167
f 82 92 83

usemtl m168
f 83 92 93

usemtl m169
f 83 93 94

usemtl m170
f 83 94 95

usemtl m171
f 83 95 84

usemtl m172
f 84 95 96

usemtl m173
f 84 96 85

usemtl m174
f 85 96 97

usemtl m175
f 85 97 98

usemtl m176
f 85 98 86

usemtl m177
f 86 98 99

usemtl m178
f 86 99 87

usemtl m179
f 87 99 88

usemtl m180
f 88 99 100

usemtl m181
f 88 100 101

usemtl m182
f 88 101 89

usemtl m183
f 89 101 102

usemtl m184
f 89 102 90

usemtl m185
f 90 102 103

usemtl m186
f 90 103 104

usemtl m187
f 90 104 91

usemtl m188
f 91 104 103

usemtl m189
f 91 103 92

usemtl m190
f 92 103 105

usemtl m191
f 92 105 106

usemtl m192
f 92 106 107

usemtl m193
f 92 107 108

usemtl m194
f 92 108 93

usemtl m195
f 93 108 109

usemtl m196
f 93 109 94

usemtl m197
f 94 109 110

usemtl m198
f 94 110 111

usemtl m199
f 94 111 112

usemtl m200
f 94 112 113

usemtl m201
f 94 113 95

usemtl m202
f 95 113 96

usemtl m203
f 96 113 114

usemtl m204
f 96 114 97

usemtl m205
f 97 114 115

usemtl m206
f 97 115 116

usemtl m207
f 97 116 98

usemtl m208
f 98 116 117

usemtl m209
f 98 117 118

usemtl m210
f 98 118 99

usemtl m211
f 99 118 119

usemtl m212
f 99 119 120

usemtl m213
f 99 120 100

usemtl m214
f 100 120 121

usemtl m215
f 100 121 101

usemtl m216
f 101 121 105

usemtl m217
f 101 105 102

usemtl m218
f 102 105 103

usemtl m219
f 107 122 123

usemtl m220
f 107 123 108

usemtl m221
f 108 123 124

usemtl m222
f 108 124 109

usemtl m223
f 109 124 125

usemtl m224
f 109 125 110

usemtl m225
f 110 125 111

usemtl m226
f 111 125 126

usemtl m227
f 111 126 112

usemtl m228
f 112 126 127

usemtl m229
f 112 127 114

usemtl m230
f 112 114 113

usemtl m231
f 122 128 129

usemtl m232
f 122 129 123

usemtl m233
f 123 129 130

usemtl m234
f 123 130 124

usemtl m235
f 124 130 131

usemtl m236
f 124 131 125

usemtl m237
f 125 131 126

usemtl m238
f 126 131 132

usemtl m239
f 126 132 127

usemtl m240
f 127 132 133

usemtl m241
f 127 133 134

usemtl m242
f 127 134 135

usemtl m243
f 127 135 136

usemtl m244
f 127 136 114

usemtl m245
f 114 136 137

usemtl m246
f 114 137 138

usemtl m247
f 114 138 115

usemtl m248
f 115 138 139

usemtl m249
f 115 139 133

usemtl m250
f 115 133 140

usemtl m251
f 115 140 116

usemtl m252
f 116 140 117

usemtl m253
f 117 140 141

usemtl m254
f 117 141 131

usemtl m255
f 117 131 142

usemtl m256
f 117 142 143

usemtl m257
f 117 143 144

usemtl m258
f 117 144 118

usemtl m259
f 118 144 119

usemtl m260
f 119 144 128

usemtl m261
f 119 128 121

usemtl m262
f 119 121 120

usemtl m263
f 128 144 129

usemtl m264
f 129 144 143

usemtl m265
f 129 143 130

usemtl m266
f 130 143 142

usemtl m267
f 130 142 131

usemtl m268
f 141 140 145

usemtl m269
f 141 145 133

usemtl m270
f 141 133 132

usemtl m271
f 141 132 131

usemtl m272
f 122 107 106

usemtl m273
f 122 106 105

usemtl m274
f 122 105 128

usemtl m275
f 128 105 121

usemtl m276
f 140 133 145

usemtl m277
f 133 139 146

usemtl m278
f 133 146 134

usemtl m279
f 134 146 147

usemtl m280
f 134 147 148

usemtl m281
f 134 148 135

usemtl m282
f 135 148 136

usemtl m283
f 136 148 149

usemtl m284
f 136 149 150

usemtl m285
f 136 150 137

usemtl m286
f 137 150 138

usemtl m287
f 138 150 151

usemtl m288
f 138 151 139

usemtl m289
f 139 151 152

usemtl m290
f 139 152 146

usemtl m291
f 146 152 153

usemtl m292
f 146 153 147

usemtl m293
f 147 153 154

usemtl m294
f 147 154 148

usemtl m295
f 148 154 149

usemtl m296
f 149 154 150

usemtl m297
f 150 154 151

usemtl m298
f 151 154 152

usemtl m299
f 152 154 153

usemtl m300
f 155 156 157

usemtl m301
f 155 157 158

usemtl m302
f 155 158 159

usemtl m303
f 155 159 160

usemtl m304
f 155 160 161

usemtl m305
f 155 161 156

usemtl m306
f 156 161 162

usemtl m307
f 156 162 163

usemtl m308
f 156 163 164

usemtl m309
f 156 164 157

usemtl m310
f 157 164 165

usemtl m311
f 157 165 166

usemtl m312
f 157 166 158

usemtl m313
f 158 166 167

usemtl m314
f 158 167 168

usemtl m315
f 158 168 159

usemtl m316
f 159 168 169

usemtl m317
f 159 169 160

usemtl m318
f 160 169 170

usemtl m319
f 160 170 171

usemtl m320
f 160 171 172

usemtl m321
f 160 172 161

usemtl m322
f 161 172 173

usemtl m323
f 161 173 162

usemtl m324
f 162 173 174

usemtl m325
f 162 174 175

usemtl m326
f 162 175 163

usemtl m327
f 163 175 176

usemtl m328
f 163 176 164

usemtl m329
f 164 176 165

usemtl m330
f 165 176 177

usemtl m331
f 165 177 178

usemtl m332
f 165 178 166

usemtl m333
f 166 178 179

usemtl m334
f 166 179 167

usemtl m335
f 167 179 180

usemtl m336
f 167 180 181

usemtl m337
f 167 181 168

usemtl m338
f 168 181 180

usemtl m339
f 168 180 169

usemtl m340
f 169 180 182

usemtl m341
f 169 182 183

usemtl m342
f 169 183 184

usemtl m343
f 169 184 185

usemtl m344
f 169 185 170

usemtl m345
f 170 185 186

usemtl m346
f 170 186 171

usemtl m347
f 171 186 187

usemtl m348
f 171 187 188

usemtl m349
f 171 188 189

usemtl m350
f 171 189 190

usemtl m351
f 171 190 172

usemtl m352
f 172 190 173

usemtl m353
f 173 190 191

usemtl m354
f 173 191 174

usemtl m355
f 174 191 192

usemtl m356
f 174 192 193

usemtl m357
f 174 193 175

usemtl m358
f 175 193 194

usemtl m359
f 175 194 195

usemtl m360
f 175 195 176

usemtl m361
f 176 195 196

usemtl m362
f 176 196 197

usemtl m363
f 176 197 177

usemtl m364
f 177 197 198

usemtl m365
f 177 198 178

usemtl m366
f 178 198 182

usemtl m367
f 178 182 179

usemtl m368
f 179 182 180

usemtl m369
f 184 199 200

usemtl m370
f 184 200 185

usemtl m371
f 185 200 201

usemtl m372
f 185 201 186

usemtl m373
f 186 201 202

usemtl m374
f 186 202 187

usemtl m375
f 187 202 188

usemtl m376
f 188 202 203

usemtl m377
f 188 203 189

usemtl m378
f 189 203 204

usemtl m379
f 189 204 191

usemtl m380
f 189 191 190

usemtl m381
f 199 205 206

usemtl m382
f 199 206 200

usemtl m383
f 200 206 207

usemtl m384
f 200 207 201

usemtl m385
f 201 207 208

usemtl m386
f 201 208 202

usemtl m387
f 202 208 203

usemtl m388
f 203 208 209

usemtl m389
f 203 209 204

usemtl m390
f 204 209 210

usemtl m391
f 204 210 211

usemtl m392
f 204 211 212

usemtl m393
f 204 212 213

usemtl m394
f 204 213 191

usemtl m395
f 191 213 214

usemtl m396
f 191 214 215

usemtl m397
f 191 215 192

usemtl m398
f 192 215 216

usemtl m399
f 192 216 210

usemtl m400
f 192 210 217

usemtl m401
f 192 217 193

usemtl m402
f 193 217 194

usemtl m403
f 194 217 218

usemtl m404
f 194 218 208

usemtl m405
f 194 208 219

usemtl m406
f 194 219 220

usemtl m407
f 194 220 221

usemtl m408
f 194 221 195

usemtl m409
f 195 221 196

usemtl m410
f 196 221 205

usemtl m411
f 196 205 198

usemtl m412
f 196 198 197

usemtl m413
f 205 221 206

usemtl m414
f 206 221 220

usemtl m415
f 206 220 207

usemtl m416
f 207 220 219

usemtl m417
f 207 219 208

usemtl m418
f 218 217 222

usemtl m419
f 218 222 210

usemtl m420
f 218 210 209

usemtl m421
f 218 209 208

usemtl m422
f 199 184 183

usemtl m423
f 199 183 182

usemtl m424
f 199 182 205

usemtl m425
f 205 182 198

usemtl m426
f 217 210 222

usemtl m427
f 210 216 223

usemtl m428
f 210 223 211

usemtl m429
f 211 223 224

usemtl m430
f 211 224 225

usemtl m431
f 211 225 212

usemtl m432
f 212 225 213

usemtl m433
f 213 225 226

usemtl m434
f 213 226 227

usemtl m435
f 213 227 214

usemtl m436
f 214 227 215

usemtl m437
f 215 227 228

usemtl m438
f 215 228 216

usemtl m439
f 216 228 229

usemtl m440
f 216 229 223

usemtl m441
f 223 229 230

usemtl m442
f 223 230 224

usemtl m443
f 224 230 231

usemtl m444
f 224 231 225

usemtl m445
f 225 231 226

usemtl m446
f 226 231 227

usemtl m447
f 227 231 228

usemtl m448
f 228 231 229

usemtl m449
f 229 231 230

usemtl m450
f 232 233 234

usemtl m451
f 232 234 235

usemtl m452
f 232 235 236

usemtl m453
f 232 236 237

usemtl m454
f 232 237 238

usemtl m455
f 232 238 233

usemtl m456
f 233 238 239

usemtl m457
f 233 239 240

usemtl m458
f 233 240 241

usemtl m459
f 233 241 234

usemtl m460
f 234 241 242

usemtl m461
f 234 242 243

usemtl m462
f 234 243 235

usemtl m463
f 235 243 244

usemtl m464
f 235 244 245

usemtl m465
f 235 245 236

usemtl m466
f 236 245 246

usemtl m467
f 236 246 237

usemtl m468
f 237 246 247

usemtl m469
f 237 247 248

usemtl m470
f 237 248 249

usemtl m471
f 237 249 238

usemtl m472
f 238 249 250

usemtl m473
f 238 250 239

usemtl m474
f 239 250 251

usemtl m475
f 239 251 252

usemtl m476
f 239 252 240

usemtl m477
f 240 252 253

usemtl m478
f 240 253 241

usemtl m479
f 241 253 242

usemtl m480
f 242 253 254

usemtl m481
f 242 254 255

usemtl m482
f 242 255 243

usemtl m483
f 243 255 256

usemtl m484
f 243 256 244

usemtl m485
f 244 256 257

usemtl m486
f 244 257 258

usemtl m487
f 244 258 245

usemtl m488
f 245 258 257

usemtl m489
f 245 257 246

usemtl m490
f 246 257 259

usemtl m491
f 246 259 260

usemtl m492
f 246 260 261

usemtl m493
f 246 261 262

usemtl m494
f 246 262 247

usemtl m495
f 247 262 263

usemtl m496
f 247 263 248

usemtl m497
f 248 263 264

usemtl m498
f 248 264 265

usemtl m499
f 248 265 266

usemtl m500
f 248 266 267

usemtl m501
f 248 267 249

usemtl m502
f 249 267 250

usemtl m503
f 250 267 268

usemtl m504
f 250 268 251

usemtl m505
f 251 268 269

usemtl m506
f 251 269 270

usemtl m507
f 251 270 252

usemtl m508
f 252 270 271

usemtl m509
f 252 271 272

usemtl m510
f 252 272 253

usemtl m511
f 253 272 273

usemtl m512
f 253 273 274

usemtl m513
f 253 274 254

usemtl m514
f 254 274 275

usemtl m515
f 254 275 255

usemtl m516
f 255 275 259

usemtl m517
f 255 259 256

usemtl m518
f 256 259 257

usemtl m519
f 261 276 277

usemtl m520
f 261 277 262

usemtl m521
f 262 277 278

usemtl m522
f 262 278 263

usemtl m523
f 263 278 279

usemtl m524
f 263 279 264

usemtl m525
f 264 279 265

usemtl m526
f 265 279 280

usemtl m527
f 265 280 266

usemtl m528
f 266 280 281

usemtl m529
f 266 281 268

usemtl m530
f 266 268 267

usemtl m531
f 276 282 283

usemtl m532
f 276 283 277

usemtl m533
f 277 283 284

usemtl m534
f 277 284 278

usemtl m535
f 278 284 285

usemtl m536
f 278 285 279

usemtl m537
f 279 285 280

usemtl m538
f 280 285 286

usemtl m539
f 280 286 281

usemtl m540
f 281 286 287

usemtl m541
f 281 287 288

usemtl m542
f 281 288 289

usemtl m543
f 281 289 290

usemtl m544
f 281 290 268

usemtl m545
f 268 290 291

usemtl m546
f 268 291 292

usemtl m547
f 268 292 269

usemtl m548
f 269 292 293

usemtl m549
f 269 293 287

usemtl m550
f 269 287 294

usemtl m551
f 269 294 270

usemtl m552
f 270 294 271

usemtl m553
f 271 294 295

usemtl m554
f 271 295 285

usemtl m555
f 271 285 296

usemtl m556
f 271 296 297

usemtl m557
f 271 297 298

usemtl m558
f 271 298 272

usemtl m559
f 272 298 273

usemtl m560
f 273 298 282

usemtl m561
f 273 282 275

usemtl m562
f 273 275 274

usemtl m563
f 282 298 283

usemtl m564
f 283 298 297

usemtl m565
f 283 297 284

usemtl m566
f 284 297 296

usemtl m567
f 284 296 285

usemtl m568
f 295 294 299

usemtl m569
f 295 299 287

usemtl m570
f 295 287 286

usemtl m571
f 295 286 285

usemtl m572
f 276 261 260

usemtl m573
f 276 260 259

usemtl m574
f 276 259 282

usemtl m575
f 282 259 275

usemtl m576
f 294 287 299

usemtl m577
f 287 293 300

usemtl m578
f 287 300 288

usemtl m579
f 288 300 301

usemtl m580
f 288 301 302

usemtl m581
f 288 302 289

usemtl m582
f 289 302 290

usemtl m583
f 290 302 303

usemtl m584
f 290 303 304

usemtl m585
f 290 304 291

usemtl m586
f 291 304 292

usemtl m587
f 292 304 305

usemtl m588
f 292 305 293

usemtl m589
f 293 305 306

usemtl m590
f 293 306 300

usemtl m591
f 300 306 307

usemtl m592
f 300 307 301

usemtl m593
f 301 307 308

usemtl m594
f 301 308 302

usemtl m595
f 302 308 303

usemtl m596
f 303 308 304

usemtl m597
f 304 308 305

usemtl m598
f 305 308 306

usemtl m599
f 306 308 307

usemtl m600
f 309 310 311

usemtl m601
f 309 311 312

usemtl m602
f 309 312 313

usemtl m603
f 309 313 314

usemtl m604
f 309 314 315

usemtl m605
f 309 315 310

usemtl m606
f 310 315 316

usemtl m607
f 310 316 317

usemtl m608
f 310 317 318

usemtl m609
f 310 318 311

usemtl m610
f 311 318 319

usemtl m611
f 311 319 320

usemtl m612
f 311 320 312

usemtl m613
f 312 320 321

usemtl m614
f 312 321 322

usemtl m615
f 312 322 313

usemtl m616
f 313 322 323

usemtl m617
f 313 323 314

usemtl m618
f 314 323 324

usemtl m619
f 314 324 325

usemtl m620
f 314 325 326

usemtl m621
f 314 326 315

usemtl m622
f 315 326 327

usemtl m623
f 315 327 316

usemtl m624
f 316 327 328

usemtl m625
f 316 328 329

usemtl m626
f 316 329 317

usemtl m627
f 317 329 330

usemtl m628
f 317 330 318

usemtl m629
f 318 330 319

usemtl m630
f 319 330 331

usemtl m631
f 319 331 332

usemtl m632
f 319 332 320

usemtl m633
f 320 332 333

usemtl m634
f 320 333 321

usemtl m635
f 321 333 334

usemtl m636
f 321 334 335

usemtl m637
f 321 335 322

usemtl m638
f 322 335 334

usemtl m639
f 322 334 323

usemtl m640
f 323 334 336

usemtl m641
f 323 336 337

usemtl m642
f 323 337 338

usemtl m643
f 323 338 339

usemtl m644
f 323 339 324

usemtl m645
f 324 339 340

usemtl m646
f 324 340 325

usemtl m647
f 325 340 341

usemtl m648
f 325 341 342

usemtl m649
f 325 342 343

usemtl m650
f 325 343 344

usemtl m651
f 325 344 326

usemtl m652
f 326 344 327

usemtl m653
f 327 344 345

usemtl m654
f 327 345 328

usemtl m655
f 328 345 346

usemtl m656
f 328 346 347

usemtl m657
f 328 347 329

usemtl m658
f 329 347 348

usemtl m659
f 329 348 349

usemtl m660
f 329 349 330

usemtl m661
f 330 349 350

usemtl m662
f 330 350 351

usemtl m663
f 330 351 331

usemtl m664
f 331 351 352

usemtl m665
f 331 352 332

usemtl m666
f 332 352 336

usemtl m667
f 332 336 333

usemtl m668
f 333 336 334

usemtl m669
f 338 353 354

usemtl m670
f 338 354 339

usemtl m671
f 339 354 355

usemtl m672
f 339 355 340

usemtl m673
f 340 355 356

usemtl m674
f 340 356 341

usemtl m675
f 341 356 342

usemtl m676
f 342 356 357

usemtl m677
f 342 357 343

usemtl m678
f 343 357 358

usemtl m679
f 343 358 345

usemtl m680
f 343 345 344

usemtl m681
f 353 359 360

usemtl m682
f 353 360 354

usemtl m683
f 354 360 361

usemtl m684
f 354 361 355

usemtl m685
f 355 361 362

usemtl m686
f 355 362 356

usemtl m687
f 356 362 357

usemtl m688
f 357 362 363

usemtl m689
f 357 363 358

usemtl m690
f 358 363 364

usemtl m691
f 358 364 365

usemtl m692
f 358 365 366

usemtl m693
f 358 366 367

usemtl m694
f 358 367 345

usemtl m695
f 345 367 368

usemtl m696
f 345 368 369

usemtl m697
f 345 369 346

usemtl m698
f 346 369 370

usemtl m699
f 346 370 364

usemtl m700
f 346 364 371

usemtl m701
f 346 371 347

usemtl m702
f 347 371 348

usemtl m703
f 348 371 372

usemtl m704
f 348 372 362

usemtl m705
f 348 362 373

usemtl m706
f 348 373 374

usemtl m707
f 348 374 375

usemtl m708
f 348 375 349

usemtl m709
f 349 375 350

usemtl m710
f 350 375 359

usemtl m711
f 350 359 352

usemtl m712
f 350 352 351

usemtl m713
f 359 375 360

usemtl m714
f 360 375 374

usemtl m715
f 360 374 361

usemtl m716
f 361 374 373

usemtl m717
f 361 373 362

usemtl m718
f 372 371 376

usemtl m719
f 372 376 364

usemtl m720
f 372 364 363

usemtl m721
f 372 363 362

usemtl m722
f 353 338 337

usemtl m723
f 353 337 336

usemtl m724
f 353 336 359

usemtl m725
f 359 336 352

usemtl m726
f 371 364 376

usemtl m727
f 364 370 377

usemtl m728
f 364 377 365

usemtl m729
f 365 377 378

usemtl m730
f 365 378 379

usemtl m731
f 365 379 366

usemtl m732
f 366 379 367

usemtl m733
f 367 379 380

usemtl m734
f 367 380 381

usemtl m735
f 367 381 368

usemtl m736
f 368 381 369

usemtl m737
f 369 381 382

usemtl m738
f 369 382 370

usemtl m739
f 370 382 383

usemtl m740
f 370 383 377

usemtl m741
f 377 383 384

usemtl m742
f 377 384 378

usemtl m743
f 378 384 385

usemtl m744
f 378 385 379

usemtl m745
f 379 385 380

usemtl m746
f 380 385 381

usemtl m747
f 381 385 382

usemtl m748
f 382 385 383

usemtl m749
f 383 385 384

