mtllib 3589.mtl
o runescapemodel
v 27 100 -41
v 33 102 -45
v 39 102 -38
v 33 100 -33
v 26 122 -38
v 30 82 -43
v 34 82 -34
v 3 94 4
v 7 94 11
v 38 100 -28
v 34 126 -37
v 30 122 -34
v 30 126 -43
v 36 82 -49
v 30 64 -43
v 34 64 -34
v 42 64 -41
v 42 82 -41
v 46 82 -36
v 40 82 -29
v 3 78 4
v -20 98 25
v -16 98 31
v -16 80 31
v 7 78 11
v 42 102 -32
v 64 104 -48
v 64 84 -48
v 36 64 -49
v 36 52 -49
v 30 52 -43
v 34 52 -34
v 2 48 2
v 9 56 -7
v 12 56 -1
v 41 64 -28
v 41 52 -28
v 6 48 5
v 48 64 -33
v -16 60 27
v 11 56 4
v 8 56 -1
v -19 60 23
v -16 52 27
v 3 52 10
v 0 52 7
v -19 52 23
v -29 82 42
v -40 84 64
v -48 84 64
v -32 82 37
v -29 100 42
v -40 104 64
v -48 104 64
v -32 100 37
v -38 100 29
v -38 82 29
v -31 62 34
v -20 80 25
v -33 32 25
v -25 32 17
v -28 32 11
v -37 32 19
v -48 32 64
v -48 20 64
v -33 20 25
v -28 20 32
v -28 32 32
v -37 52 28
v -25 52 17
v -19 32 23
v -25 20 17
v 39 32 -23
v 31 32 -32
v 31 20 -29
v -28 20 11
v -37 20 19
v -56 32 64
v -56 20 64
v -33 0 25
v -28 0 32
v -20 0 25
v -19 20 23
v -31 52 34
v -37 62 28
v -25 60 17
v 38 20 -19
v 45 32 -28
v 39 32 -38
v 42 52 -41
v 27 32 -37
v 26 20 -33
v 29 0 -24
v 34 0 -28
v 38 20 -34
v 44 20 -27
v -32 122 37
v -38 122 29
v -25 114 17
v -26 98 17
v -26 80 17
v -56 64 64
v -48 64 64
v -28 62 39
v -19 114 23
v 64 104 -40
v 64 84 -40
v 64 32 -48
v 64 32 -56
v 64 20 -56
v 34 20 -40
v 34 32 -44
v 64 52 -56
v 64 52 -48
v 48 52 -33
v 64 64 -48
v 64 64 -56
v 30 0 -34
v 25 0 -29
v -26 0 17
v -28 52 39
v -56 52 64
v -48 52 64
v 64 20 -48
vn -822 574 98
vn -23 84 1278
vn 525 -458 744
vn -538 -494 -786
vn -823 -184 -56
vn -1202 40 265
vn -715 837 -407
vn -541 -758 528
vn 515 -760 -567
vn 428 -768 -611
vn 560 -336 -202
vn -277 -431 -583
vn -216 -447 119
vn 50 -121 1008
vn -1428 0 414
vn -820 -712 -25
vn 660 -768 495
vn 744 692 524
vn 362 792 -635
vn 599 740 -486
vn -525 766 557
vn 716 -744 534
vn 579 -763 -533
vn 436 768 -622
vn 554 755 -522
vn 341 -739 -635
vn 121 -512 229
vn 361 232 479
vn 249 0 822
vn 63 84 999
vn -1198 -65 183
vn -373 729 73
vn -433 344 263
vn -479 -597 -45
vn 104 -689 -516
vn 624 -763 -43
vn 839 759 -561
vn -63 -144 -367
vn 473 -768 -602
vn 395 -764 -663
vn 500 278 -255
vn -50 -236 262
vn 47 -751 484
vn 107 822 -870
vn 235 804 -119
vn -193 766 496
vn 530 761 218
vn 518 768 -551
vn 458 256 -763
vn -235 512 -158
vn -938 819 -421
vn 715 -763 -367
vn 270 -504 -309
vn -440 -253 -215
vn -584 -760 -433
vn -1146 -11 91
vn -1303 60 246
vn -369 -689 -680
vn 714 759 270
vn -321 -697 -443
vn 325 -759 697
vn -460 -718 605
vn -575 -768 483
vn 239 -512 -347
vn 478 256 -694
vn -566 768 -355
vn 88 -9 -1182
vn -53 99 -1022
vn -1089 115 55
vn 28 0 1114
vn 1088 0 2
vn 429 707 463
vn 419 -880 -626
vn -446 -877 -609
vn -492 574 -536
vn -483 768 595
vn -640 768 390
vn -470 -256 -314
vn -235 512 -157
vn -582 -9 202
vn -247 0 -489
vn 554 16 -221
vn 929 25 154
vn -761 805 -403
vn -1063 18 23
vn 40 -28 1074
vn 488 660 -562
vn 550 -815 -523
vn 436 -556 656
vn 774 877 277
vn -903 -119 -145
vn -1016 -46 14
vn -195 -138 -549
vn 507 15 -271
vn 596 1009 391
vn 574 772 -505
vn 321 -478 -372
vn -497 -233 -55
vn -17 -469 684
vn 47 31 1030
vn 250 -1 820
vn -392 -256 -167
vn 214 -512 -391
vn 646 -768 -459
vn 645 -203 233
vn 633 -227 -488
vn 358 512 -231
vn 882 -256 -352
vn 107 -512 208
vn 201 306 400
vn 91 305 992
vn -117 323 1197
vn 224 256 422
vn 431 512 -186
vn 499 768 -580
vn 862 -256 -372
vn 112 -512 211
vn 223 178 449
vn -546 6 214
vn 192 25 503
vn 563 768 -523
vn -196 512 -92
vn 400 256 -832
vn 441 512 -176
usemtl m0
f 1 2 3

usemtl m1
f 1 3 4

usemtl m2
f 1 4 5

usemtl m3
f 1 5 2

usemtl m4
f 1 2 6

usemtl m5
f 1 6 7

usemtl m6
f 1 7 4

usemtl m7
f 4 7 8

usemtl m8
f 4 8 9

usemtl m9
f 4 9 10

usemtl m10
f 4 10 3

usemtl m11
f 4 3 11

usemtl m12
f 4 11 12

usemtl m13
f 4 12 5

usemtl m14
f 5 12 13

usemtl m15
f 5 13 2

usemtl m16
f 2 13 11

usemtl m17
f 2 11 3

usemtl m18
f 2 3 14

usemtl m19
f 2 14 6

usemtl m20
f 6 14 15

usemtl m21
f 6 15 16

usemtl m22
f 6 16 7

usemtl m23
f 7 16 17

usemtl m24
f 7 17 18

usemtl m25
f 7 18 19

usemtl m26
f 7 19 20

usemtl m27
f 7 20 21

usemtl m28
f 7 21 8

usemtl m29
f 8 21 22

usemtl m30
f 8 22 23

usemtl m31
f 8 23 9

usemtl m32
f 9 23 24

usemtl m33
f 9 24 25

usemtl m34
f 9 25 10

usemtl m35
f 10 25 20

usemtl m36
f 10 20 26

usemtl m37
f 10 26 3

usemtl m38
f 3 26 27

usemtl m39
f 3 27 28

usemtl m40
f 3 28 18

usemtl m41
f 3 18 14

usemtl m42
f 14 18 29

usemtl m43
f 14 29 15

usemtl m44
f 15 29 30

usemtl m45
f 15 30 31

usemtl m46
f 15 31 32

usemtl m47
f 15 32 16

usemtl m48
f 16 32 33

usemtl m49
f 16 33 34

usemtl m50
f 16 34 35

usemtl m51
f 16 35 36

usemtl m52
f 16 36 32

usemtl m53
f 32 36 37

usemtl m54
f 32 37 33

usemtl m55
f 33 37 38

usemtl m56
f 33 38 34

usemtl m57
f 34 38 35

usemtl m58
f 35 38 37

usemtl m59
f 35 37 36

usemtl m60
f 36 37 39

usemtl m61
f 36 39 17

usemtl m62
f 36 17 16

usemtl m63
f 13 12 11

usemtl m64
f 40 41 42

usemtl m65
f 40 42 43

usemtl m66
f 40 43 44

usemtl m67
f 40 44 41

usemtl m68
f 41 44 45

usemtl m69
f 41 45 46

usemtl m70
f 41 46 42

usemtl m71
f 42 46 43

usemtl m72
f 43 46 47

usemtl m73
f 43 47 44

usemtl m74
f 44 47 45

usemtl m75
f 45 47 46

usemtl m76
f 48 49 50

usemtl m77
f 48 50 51

usemtl m78
f 48 51 24

usemtl m79
f 48 24 23

usemtl m80
f 48 23 52

usemtl m81
f 48 52 49

usemtl m82
f 49 52 53

usemtl m83
f 49 53 54

usemtl m84
f 49 54 50

usemtl m85
f 50 54 51

usemtl m86
f 51 54 55

usemtl m87
f 51 55 56

usemtl m88
f 51 56 57

usemtl m89
f 51 57 58

usemtl m90
f 51 58 59

usemtl m91
f 51 59 24

usemtl m92
f 24 59 25

usemtl m93
f 25 59 21

usemtl m94
f 25 21 20

usemtl m95
f 53 52 55

usemtl m96
f 53 55 54

usemtl m97
f 60 61 62

usemtl m98
f 60 62 63

usemtl m99
f 60 63 64

usemtl m100
f 60 64 65

usemtl m101
f 60 65 66

usemtl m102
f 60 66 67

usemtl m103
f 60 67 68

usemtl m104
f 60 68 69

usemtl m105
f 60 69 61

usemtl m106
f 61 69 70

usemtl m107
f 61 70 47

usemtl m108
f 61 47 71

usemtl m109
f 61 71 72

usemtl m110
f 61 72 73

usemtl m111
f 61 73 74

usemtl m112
f 61 74 62

usemtl m113
f 62 74 75

usemtl m114
f 62 75 76

usemtl m115
f 62 76 63

usemtl m116
f 63 76 77

usemtl m117
f 63 77 78

usemtl m118
f 63 78 64

usemtl m119
f 64 78 65

usemtl m120
f 65 78 79

usemtl m121
f 65 79 66

usemtl m122
f 66 79 77

usemtl m123
f 66 77 72

usemtl m124
f 66 72 80

usemtl m125
f 66 80 81

usemtl m126
f 66 81 67

usemtl m127
f 67 81 82

usemtl m128
f 67 82 83

usemtl m129
f 67 83 71

usemtl m130
f 67 71 68

usemtl m131
f 68 71 47

usemtl m132
f 68 47 84

usemtl m133
f 68 84 69

usemtl m134
f 69 84 85

usemtl m135
f 69 85 70

usemtl m136
f 70 85 86

usemtl m137
f 70 86 43

usemtl m138
f 70 43 47

usemtl m139
f 72 77 76

usemtl m140
f 72 76 87

usemtl m141
f 72 87 73

usemtl m142
f 73 87 88

usemtl m143
f 73 88 89

usemtl m144
f 73 89 74

usemtl m145
f 74 89 90

usemtl m146
f 74 90 32

usemtl m147
f 74 32 31

usemtl m148
f 74 31 91

usemtl m149
f 74 91 75

usemtl m150
f 75 91 92

usemtl m151
f 75 92 93

usemtl m152
f 75 93 94

usemtl m153
f 75 94 95

usemtl m154
f 75 95 96

usemtl m155
f 75 96 87

usemtl m156
f 75 87 76

usemtl m157
f 77 79 78

usemtl m158
f 52 23 22

usemtl m159
f 52 22 55

usemtl m160
f 55 22 97

usemtl m161
f 55 97 98

usemtl m162
f 55 98 56

usemtl m163
f 56 98 99

usemtl m164
f 56 99 100

usemtl m165
f 56 100 57

usemtl m166
f 57 100 101

usemtl m167
f 57 101 86

usemtl m168
f 57 86 85

usemtl m169
f 57 85 58

usemtl m170
f 58 85 84

usemtl m171
f 58 84 102

usemtl m172
f 58 102 103

usemtl m173
f 58 103 104

usemtl m174
f 58 104 43

usemtl m175
f 58 43 59

usemtl m176
f 59 43 86

usemtl m177
f 59 86 101

usemtl m178
f 59 101 22

usemtl m179
f 59 22 21

usemtl m180
f 22 101 100

usemtl m181
f 22 100 105

usemtl m182
f 22 105 97

usemtl m183
f 97 105 99

usemtl m184
f 97 99 98

usemtl m185
f 105 100 99

usemtl m186
f 26 106 27

usemtl m187
f 27 106 28

usemtl m188
f 28 106 107

usemtl m189
f 28 107 18

usemtl m190
f 18 107 19

usemtl m191
f 19 107 106

usemtl m192
f 19 106 26

usemtl m193
f 19 26 20

usemtl m194
f 87 96 88

usemtl m195
f 88 96 108

usemtl m196
f 88 108 109

usemtl m197
f 88 109 89

usemtl m198
f 89 109 110

usemtl m199
f 89 110 95

usemtl m200
f 89 95 111

usemtl m201
f 89 111 112

usemtl m202
f 89 112 90

usemtl m203
f 90 112 30

usemtl m204
f 90 30 17

usemtl m205
f 90 17 113

usemtl m206
f 90 113 114

usemtl m207
f 90 114 115

usemtl m208
f 90 115 32

usemtl m209
f 32 115 37

usemtl m210
f 37 115 39

usemtl m211
f 39 115 116

usemtl m212
f 39 116 117

usemtl m213
f 39 117 17

usemtl m214
f 17 117 113

usemtl m215
f 113 117 116

usemtl m216
f 113 116 114

usemtl m217
f 114 116 115

usemtl m218
f 111 118 119

usemtl m219
f 111 119 92

usemtl m220
f 111 92 112

usemtl m221
f 112 92 91

usemtl m222
f 112 91 31

usemtl m223
f 112 31 30

usemtl m224
f 95 94 118

usemtl m225
f 95 118 111

usemtl m226
f 93 92 119

usemtl m227
f 120 72 83

usemtl m228
f 120 83 82

usemtl m229
f 72 120 80

usemtl m230
f 71 83 72

usemtl m231
f 104 40 43

usemtl m232
f 40 104 121

usemtl m233
f 40 121 44

usemtl m234
f 44 121 84

usemtl m235
f 44 84 47

usemtl m236
f 29 18 17

usemtl m237
f 29 17 30

usemtl m238
f 84 122 102

usemtl m239
f 102 122 123

usemtl m240
f 102 123 103

usemtl m241
f 103 123 104

usemtl m242
f 104 123 121

usemtl m243
f 121 123 122

usemtl m244
f 121 122 84

usemtl m245
f 96 124 108

usemtl m246
f 108 124 110

usemtl m247
f 108 110 109

usemtl m248
f 124 96 95

usemtl m249
f 124 95 110

