newmtl m0
Kd 0.5372549019607843 0.49019607843137253 0.2980392156862745
newmtl m1
Kd 0.5372549019607843 0.49019607843137253 0.2980392156862745
newmtl m2
Kd 0.5372549019607843 0.49019607843137253 0.2980392156862745
newmtl m3
Kd 0.5372549019607843 0.49019607843137253 0.2980392156862745
newmtl m4
Kd 0.5372549019607843 0.49019607843137253 0.2980392156862745
newmtl m5
Kd 0.5372549019607843 0.49019607843137253 0.2980392156862745
newmtl m6
Kd 0.5372549019607843 0.49019607843137253 0.2980392156862745
newmtl m7
Kd 0.5372549019607843 0.49019607843137253 0.2980392156862745
newmtl m8
Kd 0.5372549019607843 0.49019607843137253 0.2980392156862745
newmtl m9
Kd 0.5372549019607843 0.49019607843137253 0.2980392156862745
newmtl m10
Kd 0.5372549019607843 0.49019607843137253 0.2980392156862745
newmtl m11
Kd 0.5372549019607843 0.49019607843137253 0.2980392156862745
newmtl m12
Kd 0.5372549019607843 0.49019607843137253 0.2980392156862745
newmtl m13
Kd 0.7450980392156863 0.7098039215686275 0.7098039215686275
newmtl m14
Kd 0.7450980392156863 0.7098039215686275 0.7098039215686275
newmtl m15
Kd 0.7450980392156863 0.7098039215686275 0.7098039215686275
newmtl m16
Kd 0.7450980392156863 0.7098039215686275 0.7098039215686275
newmtl m17
Kd 0.7450980392156863 0.7098039215686275 0.7098039215686275
newmtl m18
Kd 0.7450980392156863 0.7098039215686275 0.7098039215686275
newmtl m19
Kd 0.5803921568627451 0.5294117647058824 0.40784313725490196
newmtl m20
Kd 0.5803921568627451 0.5294117647058824 0.40784313725490196
newmtl m21
Kd 0.5803921568627451 0.5294117647058824 0.40784313725490196
newmtl m22
Kd 0.5803921568627451 0.5294117647058824 0.40784313725490196
newmtl m23
Kd 0.5803921568627451 0.5294117647058824 0.40784313725490196
newmtl m24
Kd 0.5803921568627451 0.5294117647058824 0.40784313725490196
newmtl m25
Kd 0.5254901960784314 0.4823529411764706 0.37254901960784315
newmtl m26
Kd 0.5254901960784314 0.4823529411764706 0.37254901960784315
newmtl m27
Kd 0.5254901960784314 0.4823529411764706 0.37254901960784315
newmtl m28
Kd 0.5254901960784314 0.4823529411764706 0.37254901960784315
newmtl m29
Kd 0.5254901960784314 0.4823529411764706 0.37254901960784315
newmtl m30
Kd 0.5254901960784314 0.4823529411764706 0.37254901960784315
newmtl m31
Kd 0.47058823529411764 0.41568627450980394 0.3333333333333333
newmtl m32
Kd 0.47058823529411764 0.41568627450980394 0.3333333333333333
newmtl m33
Kd 0.47058823529411764 0.41568627450980394 0.3333333333333333
newmtl m34
Kd 0.47058823529411764 0.41568627450980394 0.3333333333333333
newmtl m35
Kd 0.47058823529411764 0.41568627450980394 0.3333333333333333
newmtl m36
Kd 0.47058823529411764 0.41568627450980394 0.3333333333333333
newmtl m37
Kd 0.7450980392156863 0.7098039215686275 0.7098039215686275
newmtl m38
Kd 0.47058823529411764 0.41568627450980394 0.3333333333333333
newmtl m39
Kd 0.7450980392156863 0.7098039215686275 0.7098039215686275
newmtl m40
Kd 0.43529411764705883 0.3607843137254902 0.24313725490196078
newmtl m41
Kd 0.7450980392156863 0.7098039215686275 0.7098039215686275
newmtl m42
Kd 0.47058823529411764 0.41568627450980394 0.3333333333333333
