mtllib 35960.mtl
o runescapemodel
v 8 45 -10
v 2 38 0
v 2 49 0
v 9 48 -8
v 16 49 0
v 16 38 0
v 9 37 -9
v 9 30 -6
v 3 29 0
v 7 30 5
v 6 39 7
v 4 49 6
v 1 53 0
v 9 53 -9
v 18 53 0
v 14 49 6
v 12 39 7
v 11 30 5
v 15 29 0
v 11 110 -11
v 0 111 -12
v 10 113 -9
v 13 110 -11
v 12 102 -12
v 0 102 -13
v -11 110 -11
v -9 113 -9
v 0 113 -11
v 10 116 -8
v 15 116 0
v 11 112 -7
v 14 110 -9
v 16 103 -10
v 15 102 -12
v 16 96 -11
v 11 95 -11
v 0 96 -12
v 0 96 -9
v -12 102 -12
v -13 110 -11
v -11 112 -8
v -15 116 0
v -9 116 -8
v 0 116 -9
v 10 117 -7
v 14 117 0
v 9 117 9
v 9 116 9
v 14 112 0
v 14 110 -8
v 15 103 -9
v 16 98 -8
v 17 98 -9
v 20 98 1
v 20 97 2
v 15 94 -10
v 14 95 -11
v 15 83 -12
v 7 78 -12
v 0 93 -10
v 0 93 4
v -11 95 -11
v -16 96 -11
v -15 102 -12
v -16 103 -10
v -14 110 -9
v -14 110 -8
v -14 112 0
v -10 112 7
v -10 116 9
v -10 117 9
v -14 117 0
v -9 117 -7
v 0 117 -9
v 0 121 -7
v 12 121 -5
v 14 121 -1
v 9 121 9
v 0 116 12
v 0 115 13
v 8 112 10
v 10 112 7
v 17 109 0
v 18 103 0
v 19 98 1
v 15 99 8
v 15 99 10
v 13 98 12
v 18 95 2
v 17 90 -10
v 18 85 -12
v 17 83 -12
v 16 65 -10
v 10 57 -11
v 2 57 -13
v 1 77 -11
v 1 77 3
v -1 77 3
v -1 77 -11
v -7 78 -12
v -15 83 -12
v -17 83 -12
v -14 95 -11
v -15 94 -10
v -20 97 2
v -17 98 -9
v -16 98 -8
v -15 103 -9
v -18 103 0
v -17 109 0
v -13 109 7
v -13 109 8
v -11 109 10
v -8 112 10
v -10 121 9
v -14 121 -1
v -13 121 -5
v 9 20 -5
v 5 20 0
v 14 20 0
v 12 18 -3
v 7 18 -3
v 7 17 3
v 9 20 5
v 9 30 6
v 9 39 9
v 9 49 10
v 9 53 11
v 2 57 2
v 9 58 -8
v 16 58 0
v 0 109 12
v 9 109 10
v 0 111 12
v -9 109 10
v 0 98 12
v 9 96 11
v 12 102 11
v 11 109 10
v 13 109 8
v 13 109 7
v 14 103 8
v 14 103 9
v 12 96 11
v 13 95 9
v 13 92 10
v 20 91 1
v 17 86 -10
v 22 86 1
v 23 85 1
v 22 83 2
v 17 82 -10
v 17 75 -9
v 19 68 -10
v 17 66 -10
v 20 64 2
v 22 59 1
v 18 58 -9
v 2 59 17
v 1 84 15
v -1 84 15
v -2 59 17
v -2 57 2
v -2 57 -13
v -10 57 -11
v -16 65 -10
v -17 66 -10
v -19 68 -10
v -17 75 -9
v -17 82 -10
v -22 83 2
v -18 85 -12
v -17 90 -10
v -18 95 2
v -13 98 12
v -20 98 1
v -19 98 1
v -14 103 8
v -9 96 11
v -9 84 14
v -11 66 14
v -9 59 16
v -9 58 10
v -9 53 11
v -1 53 0
v -9 58 -8
v -18 58 -9
v -22 59 1
v -20 64 2
v -22 65 2
v -24 67 2
v -18 69 -8
v -21 76 2
v -20 82 2
v -13 83 12
v -11 85 14
v -23 85 1
v -17 86 -10
v -20 91 1
v -13 92 10
v -13 95 9
v -12 96 11
v -12 102 11
v -14 103 9
v -15 99 10
v -15 99 8
v 22 65 2
v 13 67 15
v 11 66 14
v 9 59 16
v 9 58 10
v 24 67 2
v 23 68 2
v 15 69 11
v 16 69 13
v 18 69 -8
v 21 76 2
v 14 78 12
v 11 85 14
v 9 84 14
v 14 87 13
v 20 82 2
v 13 83 12
v 13 88 11
v 12 17 3
v 0 120 13
v 9 121 8
v -10 121 8
v -8 45 -10
v -2 49 0
v -2 38 0
v -9 37 -9
v -16 38 0
v -16 49 0
v -9 48 -8
v -9 53 -9
v -4 49 6
v -6 39 7
v -7 30 5
v -3 29 0
v -9 30 -6
v -15 29 0
v -11 30 5
v -12 39 7
v -14 49 6
v -18 53 0
v -9 20 -5
v -5 20 0
v -7 18 -3
v -12 18 -3
v -14 20 0
v -9 20 5
v -9 30 6
v -9 39 9
v -9 49 10
v -16 58 0
v -23 68 2
v -16 69 13
v -15 69 11
v -13 67 15
v -14 78 12
v -14 87 13
v -22 86 1
v -13 88 11
v -12 17 3
v -7 17 3
vn 20 -160 921
vn -1441 202 194
vn -1450 31 326
vn 211 -37 814
vn 1037 151 327
vn 1660 183 145
vn 0 167 609
vn 182 221 1208
vn -1145 185 39
vn -838 200 -918
vn -1236 259 -1191
vn -994 92 -700
vn -1220 -84 87
vn -214 46 862
vn 1338 8 284
vn 1195 156 -840
vn 990 249 -1112
vn 838 200 -918
vn 931 118 -143
vn 78 -390 1191
vn -5 -594 1381
vn 756 -708 1158
vn 736 -774 1041
vn 68 61 1781
vn 0 -40 1516
vn -78 -397 1184
vn -634 -928 1252
vn -12 -676 1369
vn 675 -732 991
vn 1461 -268 72
vn 1053 -816 329
vn 962 -627 -31
vn 1234 -346 -181
vn 671 -98 910
vn 1013 485 1349
vn -6 160 1746
vn 0 448 1440
vn 0 0 0
vn -68 61 1781
vn -707 -812 1105
vn -968 -1013 412
vn -1604 -379 70
vn -670 -778 1069
vn -11 -660 1315
vn 576 -458 1142
vn 1221 -415 238
vn 1031 -208 -996
vn 1127 -132 -1234
vn 1140 -450 -165
vn 1214 -776 264
vn 1367 -246 -139
vn 609 -434 -283
vn 883 -574 147
vn 745 -758 71
vn 1199 534 -224
vn 960 247 535
vn 515 -108 1542
vn 6 252 1406
vn 0 -39 1768
vn 0 284 1446
vn 0 64 -20
vn 6 139 2002
vn -777 420 1279
vn -671 -98 910
vn -1234 -346 -181
vn -977 -624 -23
vn -1227 -768 262
vn -940 -447 -36
vn -1486 -691 -831
vn -894 -61 -1076
vn -1031 -203 -911
vn -1226 -378 285
vn -550 -408 1190
vn -9 -225 963
vn -2 -662 929
vn 490 -1046 477
vn 683 -515 -127
vn 423 -704 -657
vn 33 -244 -1831
vn 10 -284 -1317
vn 671 -137 -1498
vn 1274 -852 -714
vn 980 -593 -190
vn 1398 -276 -106
vn 936 -954 -33
vn 531 -632 -84
vn 1117 -479 -442
vn 908 459 -1439
vn 1372 123 -393
vn 1402 -458 337
vn 943 -397 467
vn 1147 661 1517
vn 798 132 1504
vn 165 516 587
vn -221 491 424
vn -857 5 504
vn -1792 97 -25
vn 1792 97 -25
vn 857 5 504
vn 0 -39 1768
vn -32 301 1406
vn -916 476 1439
vn -515 -87 1286
vn -960 247 535
vn -1258 475 -23
vn -1141 -239 221
vn -609 -690 -283
vn -1367 -246 -139
vn -1398 -276 -106
vn -980 -593 -190
vn -1323 -537 -337
vn -931 -531 -513
vn -482 -437 -939
vn -666 -61 -1506
vn -410 -959 -638
vn -730 -522 -136
vn -481 -714 440
vn -238 135 1044
vn -1013 181 35
vn 1097 73 196
vn 372 258 378
vn -415 301 378
vn -404 277 -348
vn -36 242 -1684
vn 0 312 -1342
vn 0 180 -844
vn 0 164 -1218
vn -7 -129 -1316
vn -1331 424 -226
vn 56 995 495
vn 670 322 -123
vn 0 -36 -1524
vn 104 -92 -1527
vn 0 120 -992
vn -104 -92 -1527
vn 0 -206 -2034
vn -78 -142 -1757
vn 374 -291 -1320
vn 482 -437 -939
vn 931 -531 -513
vn 1323 -537 -337
vn 1441 -348 -344
vn 1231 -378 -579
vn 705 54 -1029
vn 800 200 -541
vn 1350 -215 -449
vn 1284 -391 -224
vn 843 -312 93
vn 873 -733 -55
vn 1098 -298 -106
vn 1184 875 -416
vn 829 641 293
vn 1445 -156 27
vn 974 -302 230
vn 693 807 823
vn 1093 722 -313
vn 786 808 -51
vn 308 467 236
vn -367 443 -829
vn -450 -51 -516
vn 450 -51 -516
vn 367 443 -829
vn 1331 424 -226
vn 221 491 424
vn -165 516 587
vn -897 317 1314
vn -396 426 938
vn -968 54 250
vn -1445 -156 27
vn -829 641 293
vn -1240 829 -188
vn -983 -83 468
vn -1402 -458 337
vn -1372 123 -393
vn -1104 371 -1542
vn -644 -684 -143
vn -1000 -954 -41
vn -1441 -348 -344
vn 46 -73 -1502
vn -144 -276 -1741
vn -378 390 -1337
vn -485 414 -654
vn -104 951 -454
vn 7 -129 -1316
vn 1220 -84 87
vn -56 995 495
vn -308 467 236
vn -786 808 -51
vn -840 305 -313
vn -960 1341 -24
vn -998 -132 -181
vn -1024 -533 219
vn -1320 -210 -164
vn -1128 333 -200
vn -724 111 -585
vn -990 -117 -1975
vn -1016 -269 -207
vn -1030 -490 169
vn -1284 -391 -224
vn -1350 -215 -449
vn -800 200 -541
vn -671 -10 -1274
vn -374 -291 -1320
vn -1231 -378 -579
vn -912 -589 -283
vn -544 -376 -120
vn 724 892 -240
vn 370 546 -1049
vn 276 190 -972
vn 485 414 -654
vn 104 951 -454
vn 877 -104 -22
vn 896 -670 -81
vn 833 -513 -305
vn 950 -100 -486
vn 838 -357 151
vn 1320 -210 -164
vn 1295 -224 -598
vn 907 -214 -1849
vn 31 -210 -1735
vn 995 -151 -506
vn 1128 333 -200
vn 724 111 -585
vn 910 -477 -354
vn 384 243 -369
vn 10 -134 -524
vn 0 -1280 0
vn 0 -1280 0
vn -20 -160 921
vn 1450 31 326
vn 1441 202 194
vn 0 167 609
vn -1660 183 145
vn -1037 151 327
vn -211 -37 814
vn 214 46 862
vn 994 92 -700
vn 1236 259 -1191
vn 838 200 -918
vn 1145 185 39
vn -182 221 1208
vn -931 118 -143
vn -838 200 -918
vn -990 249 -1112
vn -1195 156 -840
vn -1338 8 284
vn 238 135 1044
vn 1013 181 35
vn 415 301 378
vn -372 258 378
vn -1097 73 196
vn 36 242 -1684
vn 0 312 -1342
vn 0 180 -844
vn 0 164 -1218
vn -670 322 -123
vn -797 -718 -70
vn -950 -443 -454
vn -652 -349 -185
vn -421 481 -821
vn -1295 -224 -598
vn -953 -329 -429
vn -869 -734 -131
vn -732 -306 -239
vn -384 243 -369
vn 404 277 -348
usemtl m0
f 1 2 3

usemtl m1
f 1 3 4

usemtl m2
f 1 4 5

usemtl m3
f 1 5 6

usemtl m4
f 1 6 7

usemtl m5
f 1 7 2

usemtl m6
f 2 7 8

usemtl m7
f 2 8 9

usemtl m8
f 2 9 10

usemtl m9
f 2 10 11

usemtl m10
f 2 11 3

usemtl m11
f 3 11 12

usemtl m12
f 3 12 13

usemtl m13
f 3 13 14

usemtl m14
f 3 14 4

usemtl m15
f 4 14 15

usemtl m16
f 4 15 5

usemtl m17
f 5 15 16

usemtl m18
f 5 16 6

usemtl m19
f 6 16 17

usemtl m20
f 6 17 18

usemtl m21
f 6 18 19

usemtl m22
f 6 19 8

usemtl m23
f 6 8 7

usemtl m24
f 20 21 22

usemtl m25
f 20 22 23

usemtl m26
f 20 23 24

usemtl m27
f 20 24 25

usemtl m28
f 20 25 21

usemtl m29
f 21 25 26

usemtl m30
f 21 26 27

usemtl m31
f 21 27 28

usemtl m32
f 21 28 22

usemtl m33
f 22 28 29

usemtl m34
f 22 29 30

usemtl m35
f 22 30 31

usemtl m36
f 22 31 23

usemtl m37
f 23 31 32

usemtl m38
f 23 32 33

usemtl m39
f 23 33 34

usemtl m40
f 23 34 24

usemtl m41
f 24 34 35

usemtl m42
f 24 35 36

usemtl m43
f 24 36 37

usemtl m44
f 24 37 25

usemtl m45
f 25 37 38

usemtl m46
f 25 38 37

usemtl m47
f 25 37 39

usemtl m48
f 25 39 26

usemtl m49
f 26 39 40

usemtl m50
f 26 40 27

usemtl m51
f 27 40 41

usemtl m52
f 27 41 42

usemtl m53
f 27 42 43

usemtl m54
f 27 43 28

usemtl m55
f 28 43 44

usemtl m56
f 28 44 29

usemtl m57
f 29 44 45

usemtl m58
f 29 45 46

usemtl m59
f 29 46 30

usemtl m60
f 30 46 47

usemtl m61
f 30 47 48

usemtl m62
f 30 48 49

usemtl m63
f 30 49 31

usemtl m64
f 31 49 50

usemtl m65
f 31 50 32

usemtl m66
f 32 50 51

usemtl m67
f 32 51 33

usemtl m68
f 33 51 52

usemtl m69
f 33 52 53

usemtl m70
f 33 53 34

usemtl m71
f 34 53 35

usemtl m72
f 35 53 54

usemtl m73
f 35 54 55

usemtl m74
f 35 55 56

usemtl m75
f 35 56 57

usemtl m76
f 35 57 36

usemtl m77
f 36 57 58

usemtl m78
f 36 58 59

usemtl m79
f 36 59 60

usemtl m80
f 36 60 37

usemtl m81
f 37 60 61

usemtl m82
f 37 61 38

usemtl m83
f 37 38 61

usemtl m84
f 37 61 60

usemtl m85
f 37 60 62

usemtl m86
f 37 62 39

usemtl m87
f 39 62 63

usemtl m88
f 39 63 64

usemtl m89
f 39 64 40

usemtl m90
f 40 64 65

usemtl m91
f 40 65 66

usemtl m92
f 40 66 41

usemtl m93
f 41 66 67

usemtl m94
f 41 67 68

usemtl m95
f 41 68 42

usemtl m96
f 42 68 69

usemtl m97
f 42 69 70

usemtl m98
f 42 70 71

usemtl m99
f 42 71 72

usemtl m100
f 42 72 43

usemtl m101
f 43 72 73

usemtl m102
f 43 73 44

usemtl m103
f 44 73 74

usemtl m104
f 44 74 45

usemtl m105
f 45 74 75

usemtl m106
f 45 75 76

usemtl m107
f 45 76 46

usemtl m108
f 46 76 77

usemtl m109
f 46 77 47

usemtl m110
f 47 77 78

usemtl m111
f 47 78 79

usemtl m112
f 47 79 48

usemtl m113
f 48 79 80

usemtl m114
f 48 80 81

usemtl m115
f 48 81 82

usemtl m116
f 48 82 49

usemtl m117
f 49 82 83

usemtl m118
f 49 83 50

usemtl m119
f 50 83 84

usemtl m120
f 50 84 51

usemtl m121
f 51 84 85

usemtl m122
f 51 85 52

usemtl m123
f 52 85 53

usemtl m124
f 53 85 54

usemtl m125
f 54 85 86

usemtl m126
f 54 86 87

usemtl m127
f 54 87 55

usemtl m128
f 55 87 88

usemtl m129
f 55 88 89

usemtl m130
f 55 89 56

usemtl m131
f 56 89 90

usemtl m132
f 56 90 57

usemtl m133
f 57 90 91

usemtl m134
f 57 91 92

usemtl m135
f 57 92 58

usemtl m136
f 58 92 93

usemtl m137
f 58 93 59

usemtl m138
f 59 93 94

usemtl m139
f 59 94 95

usemtl m140
f 59 95 96

usemtl m141
f 59 96 60

usemtl m142
f 60 96 97

usemtl m143
f 60 97 61

usemtl m144
f 60 61 98

usemtl m145
f 60 98 99

usemtl m146
f 60 99 100

usemtl m147
f 60 100 62

usemtl m148
f 62 100 101

usemtl m149
f 62 101 102

usemtl m150
f 62 102 103

usemtl m151
f 62 103 63

usemtl m152
f 63 103 104

usemtl m153
f 63 104 105

usemtl m154
f 63 105 106

usemtl m155
f 63 106 64

usemtl m156
f 64 106 65

usemtl m157
f 65 106 107

usemtl m158
f 65 107 108

usemtl m159
f 65 108 66

usemtl m160
f 66 108 67

usemtl m161
f 67 108 109

usemtl m162
f 67 109 110

usemtl m163
f 67 110 68

usemtl m164
f 68 110 69

usemtl m165
f 69 110 111

usemtl m166
f 69 111 112

usemtl m167
f 69 112 113

usemtl m168
f 69 113 114

usemtl m169
f 69 114 70

usemtl m170
f 70 114 80

usemtl m171
f 70 80 79

usemtl m172
f 70 79 71

usemtl m173
f 71 79 115

usemtl m174
f 71 115 116

usemtl m175
f 71 116 72

usemtl m176
f 72 116 117

usemtl m177
f 72 117 73

usemtl m178
f 73 117 75

usemtl m179
f 73 75 74

usemtl m180
f 118 119 9

usemtl m181
f 118 9 8

usemtl m182
f 118 8 120

usemtl m183
f 118 120 121

usemtl m184
f 118 121 122

usemtl m185
f 118 122 119

usemtl m186
f 119 122 123

usemtl m187
f 119 123 124

usemtl m188
f 119 124 9

usemtl m189
f 9 124 10

usemtl m190
f 10 124 125

usemtl m191
f 10 125 11

usemtl m192
f 11 125 126

usemtl m193
f 11 126 127

usemtl m194
f 11 127 12

usemtl m195
f 12 127 128

usemtl m196
f 12 128 13

usemtl m197
f 13 128 129

usemtl m198
f 13 129 130

usemtl m199
f 13 130 14

usemtl m200
f 14 130 15

usemtl m201
f 15 130 131

usemtl m202
f 15 131 128

usemtl m203
f 15 128 16

usemtl m204
f 16 128 127

usemtl m205
f 16 127 17

usemtl m206
f 17 127 126

usemtl m207
f 17 126 125

usemtl m208
f 17 125 18

usemtl m209
f 18 125 124

usemtl m210
f 18 124 19

usemtl m211
f 19 124 120

usemtl m212
f 19 120 8

usemtl m213
f 132 133 81

usemtl m214
f 132 81 134

usemtl m215
f 132 134 114

usemtl m216
f 132 114 135

usemtl m217
f 132 135 136

usemtl m218
f 132 136 133

usemtl m219
f 133 136 137

usemtl m220
f 133 137 138

usemtl m221
f 133 138 139

usemtl m222
f 133 139 81

usemtl m223
f 81 139 82

usemtl m224
f 82 139 140

usemtl m225
f 82 140 141

usemtl m226
f 82 141 83

usemtl m227
f 83 141 84

usemtl m228
f 84 141 142

usemtl m229
f 84 142 85

usemtl m230
f 85 142 86

usemtl m231
f 86 142 87

usemtl m232
f 87 142 143

usemtl m233
f 87 143 88

usemtl m234
f 88 143 138

usemtl m235
f 88 138 137

usemtl m236
f 88 137 144

usemtl m237
f 88 144 145

usemtl m238
f 88 145 89

usemtl m239
f 89 145 146

usemtl m240
f 89 146 147

usemtl m241
f 89 147 90

usemtl m242
f 90 147 148

usemtl m243
f 90 148 91

usemtl m244
f 91 148 149

usemtl m245
f 91 149 150

usemtl m246
f 91 150 92

usemtl m247
f 92 150 151

usemtl m248
f 92 151 152

usemtl m249
f 92 152 153

usemtl m250
f 92 153 154

usemtl m251
f 92 154 155

usemtl m252
f 92 155 93

usemtl m253
f 93 155 156

usemtl m254
f 93 156 157

usemtl m255
f 93 157 158

usemtl m256
f 93 158 94

usemtl m257
f 94 158 130

usemtl m258
f 94 130 95

usemtl m259
f 95 130 129

usemtl m260
f 95 129 96

usemtl m261
f 96 129 97

usemtl m262
f 97 129 159

usemtl m263
f 97 159 160

usemtl m264
f 97 160 136

usemtl m265
f 97 136 61

usemtl m266
f 61 136 98

usemtl m267
f 98 136 161

usemtl m268
f 98 161 162

usemtl m269
f 98 162 163

usemtl m270
f 98 163 99

usemtl m271
f 99 163 164

usemtl m272
f 99 164 100

usemtl m273
f 100 164 165

usemtl m274
f 100 165 166

usemtl m275
f 100 166 101

usemtl m276
f 101 166 167

usemtl m277
f 101 167 102

usemtl m278
f 102 167 168

usemtl m279
f 102 168 169

usemtl m280
f 102 169 170

usemtl m281
f 102 170 171

usemtl m282
f 102 171 172

usemtl m283
f 102 172 103

usemtl m284
f 103 172 173

usemtl m285
f 103 173 104

usemtl m286
f 104 173 174

usemtl m287
f 104 174 105

usemtl m288
f 105 174 175

usemtl m289
f 105 175 176

usemtl m290
f 105 176 106

usemtl m291
f 106 176 107

usemtl m292
f 107 176 177

usemtl m293
f 107 177 108

usemtl m294
f 108 177 109

usemtl m295
f 109 177 178

usemtl m296
f 109 178 111

usemtl m297
f 109 111 110

usemtl m298
f 135 179 136

usemtl m299
f 136 179 180

usemtl m300
f 136 180 161

usemtl m301
f 161 180 162

usemtl m302
f 162 180 181

usemtl m303
f 162 181 182

usemtl m304
f 162 182 183

usemtl m305
f 162 183 163

usemtl m306
f 163 183 184

usemtl m307
f 163 184 185

usemtl m308
f 163 185 186

usemtl m309
f 163 186 164

usemtl m310
f 164 186 165

usemtl m311
f 165 186 187

usemtl m312
f 165 187 166

usemtl m313
f 166 187 188

usemtl m314
f 166 188 189

usemtl m315
f 166 189 190

usemtl m316
f 166 190 167

usemtl m317
f 167 190 168

usemtl m318
f 168 190 191

usemtl m319
f 168 191 192

usemtl m320
f 168 192 169

usemtl m321
f 169 192 193

usemtl m322
f 169 193 194

usemtl m323
f 169 194 170

usemtl m324
f 170 194 171

usemtl m325
f 171 194 195

usemtl m326
f 171 195 196

usemtl m327
f 171 196 197

usemtl m328
f 171 197 172

usemtl m329
f 172 197 198

usemtl m330
f 172 198 173

usemtl m331
f 173 198 199

usemtl m332
f 173 199 174

usemtl m333
f 174 199 200

usemtl m334
f 174 200 201

usemtl m335
f 174 201 175

usemtl m336
f 175 201 202

usemtl m337
f 175 202 179

usemtl m338
f 175 179 203

usemtl m339
f 175 203 204

usemtl m340
f 175 204 205

usemtl m341
f 175 205 176

usemtl m342
f 176 205 177

usemtl m343
f 177 205 206

usemtl m344
f 177 206 178

usemtl m345
f 178 206 205

usemtl m346
f 178 205 204

usemtl m347
f 178 204 111

usemtl m348
f 111 204 112

usemtl m349
f 112 204 203

usemtl m350
f 112 203 113

usemtl m351
f 113 203 135

usemtl m352
f 113 135 114

usemtl m353
f 155 207 156

usemtl m354
f 156 207 208

usemtl m355
f 156 208 209

usemtl m356
f 156 209 210

usemtl m357
f 156 210 157

usemtl m358
f 157 210 211

usemtl m359
f 157 211 131

usemtl m360
f 157 131 130

usemtl m361
f 157 130 158

usemtl m362
f 212 213 214

usemtl m363
f 212 214 215

usemtl m364
f 212 215 207

usemtl m365
f 212 207 155

usemtl m366
f 212 155 154

usemtl m367
f 212 154 213

usemtl m368
f 213 154 216

usemtl m369
f 213 216 217

usemtl m370
f 213 217 214

usemtl m371
f 214 217 218

usemtl m372
f 214 218 215

usemtl m373
f 215 218 219

usemtl m374
f 215 219 208

usemtl m375
f 215 208 207

usemtl m376
f 160 159 220

usemtl m377
f 160 220 136

usemtl m378
f 136 220 137

usemtl m379
f 137 220 219

usemtl m380
f 137 219 144

usemtl m381
f 144 219 221

usemtl m382
f 144 221 146

usemtl m383
f 144 146 145

usemtl m384
f 220 209 208

usemtl m385
f 220 208 219

usemtl m386
f 211 159 129

usemtl m387
f 211 129 128

usemtl m388
f 211 128 131

usemtl m389
f 211 210 159

usemtl m390
f 159 210 209

usemtl m391
f 159 209 220

usemtl m392
f 218 217 222

usemtl m393
f 218 222 223

usemtl m394
f 218 223 219

usemtl m395
f 219 223 151

usemtl m396
f 219 151 221

usemtl m397
f 221 151 150

usemtl m398
f 221 150 224

usemtl m399
f 221 224 146

usemtl m400
f 146 224 147

usemtl m401
f 147 224 149

usemtl m402
f 147 149 148

usemtl m403
f 152 151 222

usemtl m404
f 152 222 153

usemtl m405
f 153 222 217

usemtl m406
f 153 217 216

usemtl m407
f 153 216 154

usemtl m408
f 92 152 58

usemtl m409
f 151 223 222

usemtl m410
f 150 149 224

usemtl m411
f 179 135 203

usemtl m412
f 143 142 141

usemtl m413
f 143 141 140

usemtl m414
f 143 140 138

usemtl m415
f 138 140 139

usemtl m416
f 124 225 120

usemtl m417
f 120 225 121

usemtl m418
f 124 123 225

usemtl m419
f 80 134 81

usemtl m420
f 134 80 114

usemtl m421
f 115 79 226

usemtl m422
f 115 226 78

usemtl m423
f 115 78 227

usemtl m424
f 115 227 228

usemtl m425
f 115 228 116

usemtl m426
f 116 228 117

usemtl m427
f 117 228 76

usemtl m428
f 117 76 75

usemtl m429
f 78 226 79

usemtl m430
f 76 228 227

usemtl m431
f 76 227 77

usemtl m432
f 77 227 78

usemtl m433
f 229 230 231

usemtl m434
f 229 231 232

usemtl m435
f 229 232 233

usemtl m436
f 229 233 234

usemtl m437
f 229 234 235

usemtl m438
f 229 235 230

usemtl m439
f 230 235 236

usemtl m440
f 230 236 185

usemtl m441
f 230 185 237

usemtl m442
f 230 237 238

usemtl m443
f 230 238 231

usemtl m444
f 231 238 239

usemtl m445
f 231 239 240

usemtl m446
f 231 240 241

usemtl m447
f 231 241 232

usemtl m448
f 232 241 233

usemtl m449
f 233 241 242

usemtl m450
f 233 242 243

usemtl m451
f 233 243 244

usemtl m452
f 233 244 245

usemtl m453
f 233 245 234

usemtl m454
f 234 245 246

usemtl m455
f 234 246 235

usemtl m456
f 235 246 236

usemtl m457
f 236 246 186

usemtl m458
f 236 186 185

usemtl m459
f 247 240 248

usemtl m460
f 247 248 249

usemtl m461
f 247 249 250

usemtl m462
f 247 250 251

usemtl m463
f 247 251 241

usemtl m464
f 247 241 240

usemtl m465
f 251 242 241

usemtl m466
f 242 251 252

usemtl m467
f 242 252 243

usemtl m468
f 243 252 253

usemtl m469
f 243 253 244

usemtl m470
f 244 253 254

usemtl m471
f 244 254 255

usemtl m472
f 244 255 245

usemtl m473
f 245 255 184

usemtl m474
f 245 184 246

usemtl m475
f 246 184 256

usemtl m476
f 246 256 186

usemtl m477
f 186 256 188

usemtl m478
f 186 188 187

usemtl m479
f 252 248 240

usemtl m480
f 252 240 239

usemtl m481
f 252 239 253

usemtl m482
f 253 239 238

usemtl m483
f 253 238 254

usemtl m484
f 254 238 255

usemtl m485
f 255 238 237

usemtl m486
f 255 237 184

usemtl m487
f 184 237 185

usemtl m488
f 257 191 258

usemtl m489
f 257 258 259

usemtl m490
f 257 259 193

usemtl m491
f 257 193 192

usemtl m492
f 257 192 191

usemtl m493
f 191 190 260

usemtl m494
f 191 260 258

usemtl m495
f 258 260 196

usemtl m496
f 258 196 261

usemtl m497
f 258 261 259

usemtl m498
f 259 261 193

usemtl m499
f 193 261 194

usemtl m500
f 194 261 195

usemtl m501
f 195 261 196

usemtl m502
f 181 260 190

usemtl m503
f 181 190 189

usemtl m504
f 181 189 182

usemtl m505
f 182 189 188

usemtl m506
f 182 188 183

usemtl m507
f 183 188 256

usemtl m508
f 183 256 184

usemtl m509
f 181 180 196

usemtl m510
f 181 196 260

usemtl m511
f 102 101 170

usemtl m512
f 180 179 202

usemtl m513
f 180 202 196

usemtl m514
f 196 202 262

usemtl m515
f 196 262 197

usemtl m516
f 197 262 263

usemtl m517
f 197 263 198

usemtl m518
f 198 263 199

usemtl m519
f 199 263 264

usemtl m520
f 199 264 200

usemtl m521
f 200 264 262

usemtl m522
f 200 262 202

usemtl m523
f 200 202 201

usemtl m524
f 263 262 264

usemtl m525
f 252 251 265

usemtl m526
f 252 265 266

usemtl m527
f 252 266 248

usemtl m528
f 248 266 249

usemtl m529
f 251 250 265

