mtllib 36061.mtl
o runescapemodel
v -64 237 -60
v -64 269 -60
v -64 269 -56
v -64 237 -56
v -64 92 -60
v -64 124 -60
v -64 124 -56
v -64 92 -56
v -64 56 -60
v -64 88 -60
v -60 89 -64
v -60 57 -64
v -64 128 -60
v -64 160 -60
v -60 161 -64
v -60 129 -64
v -64 200 -60
v -64 232 -60
v -60 233 -64
v -60 201 -64
v -64 273 -60
v -64 305 -60
v -60 305 -64
v -60 273 -64
v -56 345 -64
v -56 16 -64
v -64 16 -56
v -64 345 -56
v -64 345 -64
v -64 16 -64
v -57 197 -63
v -57 165 -63
v -61 165 -63
v -61 197 -63
v -63 197 -61
v -63 197 -57
v -63 165 -57
v -63 165 -61
v -57 269 -63
v -57 237 -63
v -61 237 -63
v -61 269 -63
v -63 269 -61
v -63 269 -57
v -63 237 -57
v -63 237 -61
v -57 341 -63
v -57 309 -63
v -61 309 -63
v -61 341 -63
v -63 341 -61
v -63 341 -57
v -63 309 -57
v -63 309 -61
v -57 125 -63
v -57 93 -63
v -61 93 -63
v -61 125 -63
v -63 125 -61
v -63 125 -57
v -63 93 -57
v -63 93 -61
v -57 53 -63
v -57 21 -63
v -61 21 -63
v -61 53 -63
v -63 53 -61
v -63 53 -57
v -63 21 -57
v -63 21 -61
v -64 384 -32
v -64 384 -16
v -16 384 -64
v -32 384 -64
v -64 384 -64
v -64 384 0
v -64 384 64
v 64 384 64
v 0 384 -64
v 64 384 -64
vn 512 0 0
vn 256 0 0
vn 512 0 0
vn 256 0 0
vn 512 0 0
vn 256 0 0
vn 512 0 0
vn 256 0 0
vn -362 0 362
vn -181 0 181
vn -362 0 362
vn -181 0 181
vn -362 0 362
vn -181 0 181
vn -362 0 362
vn -181 0 181
vn -362 0 362
vn -181 0 181
vn -362 0 362
vn -181 0 181
vn -362 0 362
vn -181 0 181
vn -362 0 362
vn -181 0 181
vn -362 256 362
vn -181 -256 181
vn -362 -256 362
vn -181 256 181
vn 0 256 0
vn 0 -256 0
vn 0 -512 512
vn 0 0 256
vn -182 0 694
vn -364 -256 620
vn -694 -512 182
vn -256 -256 0
vn -512 0 0
vn -620 0 364
vn 0 -512 512
vn 0 0 256
vn -182 0 694
vn -364 -256 620
vn -694 -512 182
vn -256 -256 0
vn -512 0 0
vn -620 0 364
vn 0 -512 512
vn 0 0 256
vn -182 0 694
vn -364 -256 620
vn -694 -512 182
vn -256 -256 0
vn -512 0 0
vn -620 0 364
vn 0 -512 512
vn 0 0 256
vn -182 0 694
vn -364 -256 620
vn -694 -512 182
vn -256 -256 0
vn -512 0 0
vn -620 0 364
vn 0 -512 512
vn 0 0 256
vn -182 0 694
vn -364 -256 620
vn -694 -512 182
vn -256 -256 0
vn -512 0 0
vn -620 0 364
vn 0 -768 0
vn 0 -768 0
vn 0 -768 0
vn 0 -512 0
vn 0 -256 0
vn 0 -768 0
vn 0 -256 0
vn 0 -768 0
vn 0 -1024 0
vn 0 -256 0
usemtl m0
f 1 2 3

usemtl m1
f 1 3 4

usemtl m2
f 5 6 7

usemtl m3
f 5 7 8

usemtl m4
f 9 10 11

usemtl m5
f 9 11 12

usemtl m6
f 13 14 15

usemtl m7
f 13 15 16

usemtl m8
f 17 18 19

usemtl m9
f 17 19 20

usemtl m10
f 21 22 23

usemtl m11
f 21 23 24

usemtl m12
f 25 26 27

usemtl m13
f 25 27 28

usemtl m14
f 25 28 29

usemtl m15
f 30 27 26

usemtl m16
f 31 32 33

usemtl m17
f 31 33 34

usemtl m18
f 31 34 35

usemtl m19
f 31 35 36

usemtl m20
f 36 35 37

usemtl m21
f 37 35 38

usemtl m22
f 38 35 34

usemtl m23
f 38 34 33

usemtl m24
f 39 40 41

usemtl m25
f 39 41 42

usemtl m26
f 39 42 43

usemtl m27
f 39 43 44

usemtl m28
f 44 43 45

usemtl m29
f 45 43 46

usemtl m30
f 46 43 42

usemtl m31
f 46 42 41

usemtl m32
f 47 48 49

usemtl m33
f 47 49 50

usemtl m34
f 47 50 51

usemtl m35
f 47 51 52

usemtl m36
f 52 51 53

usemtl m37
f 53 51 54

usemtl m38
f 54 51 50

usemtl m39
f 54 50 49

usemtl m40
f 55 56 57

usemtl m41
f 55 57 58

usemtl m42
f 55 58 59

usemtl m43
f 55 59 60

usemtl m44
f 60 59 61

usemtl m45
f 61 59 62

usemtl m46
f 62 59 58

usemtl m47
f 62 58 57

usemtl m48
f 63 64 65

usemtl m49
f 63 65 66

usemtl m50
f 63 66 67

usemtl m51
f 63 67 68

usemtl m52
f 68 67 69

usemtl m53
f 69 67 70

usemtl m54
f 70 67 66

usemtl m55
f 70 66 65

usemtl m56
f 71 72 73

usemtl m57
f 71 73 74

usemtl m58
f 71 74 75

usemtl m59
f 76 77 78

usemtl m60
f 76 78 79

usemtl m61
f 76 79 72

usemtl m62
f 72 79 73

usemtl m63
f 78 80 79

