newmtl m0
map_Kd sprite/480-0.png
newmtl m1
map_Kd sprite/480-0.png
newmtl m2
map_Kd sprite/480-0.png
newmtl m3
map_Kd sprite/480-0.png
newmtl m4
map_Kd sprite/480-0.png
newmtl m5
map_Kd sprite/480-0.png
newmtl m6
map_Kd sprite/480-0.png
newmtl m7
map_Kd sprite/480-0.png
newmtl m8
map_Kd sprite/480-0.png
newmtl m9
map_Kd sprite/480-0.png
newmtl m10
map_Kd sprite/480-0.png
newmtl m11
map_Kd sprite/480-0.png
newmtl m12
map_Kd sprite/480-0.png
newmtl m13
map_Kd sprite/480-0.png
newmtl m14
map_Kd sprite/480-0.png
newmtl m15
map_Kd sprite/480-0.png
newmtl m16
map_Kd sprite/480-0.png
newmtl m17
map_Kd sprite/480-0.png
newmtl m18
map_Kd sprite/480-0.png
newmtl m19
map_Kd sprite/480-0.png
newmtl m20
Kd 0.5098039215686274 0.4823529411764706 0.45098039215686275
newmtl m21
Kd 0.11372549019607843 0.08235294117647059 0.0
newmtl m22
Kd 0.11372549019607843 0.08235294117647059 0.0
newmtl m23
Kd 0.11372549019607843 0.08235294117647059 0.0
newmtl m24
Kd 0.11372549019607843 0.08235294117647059 0.0
newmtl m25
Kd 0.11372549019607843 0.08235294117647059 0.0
newmtl m26
Kd 0.11372549019607843 0.08235294117647059 0.0
newmtl m27
Kd 0.11372549019607843 0.08235294117647059 0.0
newmtl m28
Kd 0.11372549019607843 0.08235294117647059 0.0
newmtl m29
Kd 0.11372549019607843 0.08235294117647059 0.0
newmtl m30
Kd 0.11372549019607843 0.08235294117647059 0.0
newmtl m31
Kd 0.11372549019607843 0.08235294117647059 0.0
newmtl m32
Kd 0.11372549019607843 0.08235294117647059 0.0
newmtl m33
Kd 0.11372549019607843 0.08235294117647059 0.0
newmtl m34
Kd 0.11372549019607843 0.08235294117647059 0.0
newmtl m35
Kd 0.11372549019607843 0.08235294117647059 0.0
newmtl m36
Kd 0.11372549019607843 0.08235294117647059 0.0
newmtl m37
Kd 0.11372549019607843 0.08235294117647059 0.0
newmtl m38
Kd 0.11372549019607843 0.08235294117647059 0.0
newmtl m39
Kd 0.11372549019607843 0.08235294117647059 0.0
newmtl m40
Kd 0.11372549019607843 0.08235294117647059 0.0
newmtl m41
Kd 0.5098039215686274 0.4823529411764706 0.45098039215686275
newmtl m42
Kd 0.5098039215686274 0.4823529411764706 0.45098039215686275
newmtl m43
Kd 0.5098039215686274 0.4823529411764706 0.45098039215686275
newmtl m44
Kd 0.5098039215686274 0.4823529411764706 0.45098039215686275
newmtl m45
Kd 0.5098039215686274 0.4823529411764706 0.45098039215686275
newmtl m46
Kd 0.5098039215686274 0.4823529411764706 0.45098039215686275
newmtl m47
Kd 0.5098039215686274 0.4823529411764706 0.45098039215686275
newmtl m48
Kd 0.5098039215686274 0.4823529411764706 0.45098039215686275
newmtl m49
Kd 0.5098039215686274 0.4823529411764706 0.45098039215686275
newmtl m50
Kd 0.5098039215686274 0.4823529411764706 0.45098039215686275
newmtl m51
Kd 0.5098039215686274 0.4823529411764706 0.45098039215686275
newmtl m52
Kd 0.5098039215686274 0.4823529411764706 0.45098039215686275
newmtl m53
Kd 0.5098039215686274 0.4823529411764706 0.45098039215686275
newmtl m54
Kd 0.5098039215686274 0.4823529411764706 0.45098039215686275
newmtl m55
Kd 0.5098039215686274 0.4823529411764706 0.45098039215686275
newmtl m56
Kd 0.5098039215686274 0.4823529411764706 0.45098039215686275
newmtl m57
Kd 0.5098039215686274 0.4823529411764706 0.45098039215686275
newmtl m58
Kd 0.5098039215686274 0.4823529411764706 0.45098039215686275
newmtl m59
Kd 0.5098039215686274 0.4823529411764706 0.45098039215686275
newmtl m60
Kd 0.5098039215686274 0.4823529411764706 0.45098039215686275
newmtl m61
Kd 0.5098039215686274 0.4823529411764706 0.45098039215686275
newmtl m62
Kd 0.5098039215686274 0.4823529411764706 0.45098039215686275
newmtl m63
Kd 0.5098039215686274 0.4823529411764706 0.45098039215686275
newmtl m64
Kd 0.5098039215686274 0.4823529411764706 0.45098039215686275
newmtl m65
Kd 0.5098039215686274 0.4823529411764706 0.45098039215686275
newmtl m66
Kd 0.5098039215686274 0.4823529411764706 0.45098039215686275
newmtl m67
Kd 0.5098039215686274 0.4823529411764706 0.45098039215686275
newmtl m68
Kd 0.5098039215686274 0.4823529411764706 0.45098039215686275
newmtl m69
Kd 0.5098039215686274 0.4823529411764706 0.45098039215686275
newmtl m70
Kd 0.5098039215686274 0.4823529411764706 0.45098039215686275
newmtl m71
Kd 0.5098039215686274 0.4823529411764706 0.45098039215686275
newmtl m72
Kd 0.4745098039215686 0.45098039215686275 0.4235294117647059
newmtl m73
Kd 0.4745098039215686 0.45098039215686275 0.4235294117647059
newmtl m74
Kd 0.4745098039215686 0.45098039215686275 0.4235294117647059
newmtl m75
Kd 0.5098039215686274 0.4823529411764706 0.45098039215686275
newmtl m76
Kd 0.5098039215686274 0.4823529411764706 0.45098039215686275
newmtl m77
Kd 0.5098039215686274 0.4823529411764706 0.45098039215686275
newmtl m78
Kd 0.5098039215686274 0.4823529411764706 0.45098039215686275
newmtl m79
Kd 0.5098039215686274 0.4823529411764706 0.45098039215686275
newmtl m80
Kd 0.5098039215686274 0.4823529411764706 0.45098039215686275
newmtl m81
Kd 0.5098039215686274 0.4823529411764706 0.45098039215686275
newmtl m82
Kd 0.5098039215686274 0.4823529411764706 0.45098039215686275
newmtl m83
Kd 0.5098039215686274 0.4823529411764706 0.45098039215686275
newmtl m84
Kd 0.5098039215686274 0.4823529411764706 0.45098039215686275
newmtl m85
Kd 0.5098039215686274 0.4823529411764706 0.45098039215686275
newmtl m86
Kd 0.5098039215686274 0.4823529411764706 0.45098039215686275
newmtl m87
Kd 0.5098039215686274 0.4823529411764706 0.45098039215686275
newmtl m88
Kd 0.5098039215686274 0.4823529411764706 0.45098039215686275
newmtl m89
Kd 0.5098039215686274 0.4823529411764706 0.45098039215686275
newmtl m90
Kd 0.5098039215686274 0.4823529411764706 0.45098039215686275
newmtl m91
Kd 0.5098039215686274 0.4823529411764706 0.45098039215686275
newmtl m92
Kd 0.5098039215686274 0.4823529411764706 0.45098039215686275
newmtl m93
Kd 0.5098039215686274 0.4823529411764706 0.45098039215686275
newmtl m94
Kd 0.5098039215686274 0.4823529411764706 0.45098039215686275
newmtl m95
Kd 0.5098039215686274 0.4823529411764706 0.45098039215686275
newmtl m96
Kd 0.5098039215686274 0.4823529411764706 0.45098039215686275
newmtl m97
Kd 0.5098039215686274 0.4823529411764706 0.45098039215686275
newmtl m98
Kd 0.4745098039215686 0.45098039215686275 0.4235294117647059
newmtl m99
Kd 0.4745098039215686 0.45098039215686275 0.4235294117647059
newmtl m100
Kd 0.5098039215686274 0.4823529411764706 0.45098039215686275
newmtl m101
Kd 0.5098039215686274 0.4823529411764706 0.45098039215686275
newmtl m102
Kd 0.5098039215686274 0.4823529411764706 0.45098039215686275
newmtl m103
Kd 0.5098039215686274 0.4823529411764706 0.45098039215686275
newmtl m104
Kd 0.5098039215686274 0.4823529411764706 0.45098039215686275
newmtl m105
Kd 0.5098039215686274 0.4823529411764706 0.45098039215686275
newmtl m106
Kd 0.5098039215686274 0.4823529411764706 0.45098039215686275
newmtl m107
Kd 0.5098039215686274 0.4823529411764706 0.45098039215686275
newmtl m108
Kd 0.5098039215686274 0.4823529411764706 0.45098039215686275
newmtl m109
Kd 0.5098039215686274 0.4823529411764706 0.45098039215686275
newmtl m110
Kd 0.5098039215686274 0.4823529411764706 0.45098039215686275
newmtl m111
Kd 0.5098039215686274 0.4823529411764706 0.45098039215686275
newmtl m112
Kd 0.5098039215686274 0.4823529411764706 0.45098039215686275
newmtl m113
Kd 0.5098039215686274 0.4823529411764706 0.45098039215686275
newmtl m114
Kd 0.5098039215686274 0.4823529411764706 0.45098039215686275
newmtl m115
Kd 0.5098039215686274 0.4823529411764706 0.45098039215686275
newmtl m116
Kd 0.5098039215686274 0.4823529411764706 0.45098039215686275
newmtl m117
Kd 0.5098039215686274 0.4823529411764706 0.45098039215686275
newmtl m118
Kd 0.5098039215686274 0.4823529411764706 0.45098039215686275
newmtl m119
Kd 0.5098039215686274 0.4823529411764706 0.45098039215686275
newmtl m120
Kd 0.4745098039215686 0.45098039215686275 0.4235294117647059
newmtl m121
Kd 0.4745098039215686 0.45098039215686275 0.4235294117647059
newmtl m122
Kd 0.4745098039215686 0.45098039215686275 0.4235294117647059
newmtl m123
Kd 0.4745098039215686 0.45098039215686275 0.4235294117647059
newmtl m124
Kd 0.4745098039215686 0.45098039215686275 0.4235294117647059
newmtl m125
Kd 0.4745098039215686 0.45098039215686275 0.4235294117647059
newmtl m126
Kd 0.4745098039215686 0.45098039215686275 0.4235294117647059
newmtl m127
Kd 0.4745098039215686 0.45098039215686275 0.4235294117647059
newmtl m128
Kd 0.4745098039215686 0.45098039215686275 0.4235294117647059
newmtl m129
Kd 0.4745098039215686 0.45098039215686275 0.4235294117647059
newmtl m130
Kd 0.4745098039215686 0.45098039215686275 0.4235294117647059
newmtl m131
Kd 0.5098039215686274 0.4823529411764706 0.45098039215686275
newmtl m132
Kd 0.5098039215686274 0.4823529411764706 0.45098039215686275
newmtl m133
Kd 0.5098039215686274 0.4823529411764706 0.45098039215686275
newmtl m134
Kd 0.5098039215686274 0.4823529411764706 0.45098039215686275
newmtl m135
Kd 0.5098039215686274 0.4823529411764706 0.45098039215686275
newmtl m136
Kd 0.5098039215686274 0.4823529411764706 0.45098039215686275
newmtl m137
Kd 0.5098039215686274 0.4823529411764706 0.45098039215686275
newmtl m138
Kd 0.5098039215686274 0.4823529411764706 0.45098039215686275
newmtl m139
Kd 0.5098039215686274 0.4823529411764706 0.45098039215686275
newmtl m140
Kd 0.5098039215686274 0.4823529411764706 0.45098039215686275
newmtl m141
Kd 0.5098039215686274 0.4823529411764706 0.45098039215686275
newmtl m142
Kd 0.5098039215686274 0.4823529411764706 0.45098039215686275
newmtl m143
Kd 0.5098039215686274 0.4823529411764706 0.45098039215686275
newmtl m144
Kd 0.5098039215686274 0.4823529411764706 0.45098039215686275
newmtl m145
Kd 0.5098039215686274 0.4823529411764706 0.45098039215686275
newmtl m146
Kd 0.5098039215686274 0.4823529411764706 0.45098039215686275
newmtl m147
Kd 0.5098039215686274 0.4823529411764706 0.45098039215686275
newmtl m148
Kd 0.4745098039215686 0.45098039215686275 0.4235294117647059
newmtl m149
Kd 0.4745098039215686 0.45098039215686275 0.4235294117647059
newmtl m150
Kd 0.4745098039215686 0.45098039215686275 0.4235294117647059
newmtl m151
Kd 0.5098039215686274 0.4823529411764706 0.45098039215686275
newmtl m152
Kd 0.5098039215686274 0.4823529411764706 0.45098039215686275
newmtl m153
Kd 0.5098039215686274 0.4823529411764706 0.45098039215686275
newmtl m154
Kd 0.4745098039215686 0.45098039215686275 0.4235294117647059
newmtl m155
Kd 0.4745098039215686 0.45098039215686275 0.4235294117647059
newmtl m156
Kd 0.4745098039215686 0.45098039215686275 0.4235294117647059
newmtl m157
Kd 0.5098039215686274 0.4823529411764706 0.45098039215686275
newmtl m158
Kd 0.5098039215686274 0.4823529411764706 0.45098039215686275
newmtl m159
Kd 0.5098039215686274 0.4823529411764706 0.45098039215686275
newmtl m160
Kd 0.5098039215686274 0.4823529411764706 0.45098039215686275
newmtl m161
Kd 0.5098039215686274 0.4823529411764706 0.45098039215686275
newmtl m162
Kd 0.5098039215686274 0.4823529411764706 0.45098039215686275
newmtl m163
Kd 0.5098039215686274 0.4823529411764706 0.45098039215686275
newmtl m164
Kd 0.5098039215686274 0.4823529411764706 0.45098039215686275
newmtl m165
Kd 0.5098039215686274 0.4823529411764706 0.45098039215686275
newmtl m166
Kd 0.5098039215686274 0.4823529411764706 0.45098039215686275
newmtl m167
Kd 0.5098039215686274 0.4823529411764706 0.45098039215686275
newmtl m168
Kd 0.5098039215686274 0.4823529411764706 0.45098039215686275
newmtl m169
Kd 0.5098039215686274 0.4823529411764706 0.45098039215686275
newmtl m170
Kd 0.5098039215686274 0.4823529411764706 0.45098039215686275
newmtl m171
Kd 0.5098039215686274 0.4823529411764706 0.45098039215686275
newmtl m172
Kd 0.5098039215686274 0.4823529411764706 0.45098039215686275
newmtl m173
Kd 0.5098039215686274 0.4823529411764706 0.45098039215686275
newmtl m174
Kd 0.5098039215686274 0.4823529411764706 0.45098039215686275
newmtl m175
Kd 0.5098039215686274 0.4823529411764706 0.45098039215686275
newmtl m176
Kd 0.5098039215686274 0.4823529411764706 0.45098039215686275
newmtl m177
Kd 0.5098039215686274 0.4823529411764706 0.45098039215686275
newmtl m178
Kd 0.5098039215686274 0.4823529411764706 0.45098039215686275
newmtl m179
Kd 0.5098039215686274 0.4823529411764706 0.45098039215686275
newmtl m180
Kd 0.5098039215686274 0.4823529411764706 0.45098039215686275
newmtl m181
Kd 0.5098039215686274 0.4823529411764706 0.45098039215686275
newmtl m182
Kd 0.5098039215686274 0.4823529411764706 0.45098039215686275
newmtl m183
Kd 0.5098039215686274 0.4823529411764706 0.45098039215686275
newmtl m184
Kd 0.5098039215686274 0.4823529411764706 0.45098039215686275
newmtl m185
Kd 0.5098039215686274 0.4823529411764706 0.45098039215686275
newmtl m186
Kd 0.5098039215686274 0.4823529411764706 0.45098039215686275
newmtl m187
Kd 0.5098039215686274 0.4823529411764706 0.45098039215686275
newmtl m188
Kd 0.5098039215686274 0.4823529411764706 0.45098039215686275
newmtl m189
Kd 0.5098039215686274 0.4823529411764706 0.45098039215686275
newmtl m190
Kd 0.5098039215686274 0.4823529411764706 0.45098039215686275
newmtl m191
Kd 0.5098039215686274 0.4823529411764706 0.45098039215686275
newmtl m192
Kd 0.5098039215686274 0.4823529411764706 0.45098039215686275
newmtl m193
Kd 0.5098039215686274 0.4823529411764706 0.45098039215686275
newmtl m194
Kd 0.5098039215686274 0.4823529411764706 0.45098039215686275
newmtl m195
Kd 0.5098039215686274 0.4823529411764706 0.45098039215686275
newmtl m196
Kd 0.5098039215686274 0.4823529411764706 0.45098039215686275
newmtl m197
Kd 0.5098039215686274 0.4823529411764706 0.45098039215686275
newmtl m198
Kd 0.5098039215686274 0.4823529411764706 0.45098039215686275
newmtl m199
Kd 0.5098039215686274 0.4823529411764706 0.45098039215686275
newmtl m200
Kd 0.5098039215686274 0.4823529411764706 0.45098039215686275
newmtl m201
Kd 0.5098039215686274 0.4823529411764706 0.45098039215686275
newmtl m202
Kd 0.5098039215686274 0.4823529411764706 0.45098039215686275
newmtl m203
Kd 0.5098039215686274 0.4823529411764706 0.45098039215686275
newmtl m204
Kd 0.5098039215686274 0.4823529411764706 0.45098039215686275
newmtl m205
Kd 0.5098039215686274 0.4823529411764706 0.45098039215686275
newmtl m206
Kd 0.5098039215686274 0.4823529411764706 0.45098039215686275
newmtl m207
Kd 0.5098039215686274 0.4823529411764706 0.45098039215686275
newmtl m208
Kd 0.5098039215686274 0.4823529411764706 0.45098039215686275
newmtl m209
Kd 0.5098039215686274 0.4823529411764706 0.45098039215686275
newmtl m210
Kd 0.5098039215686274 0.4823529411764706 0.45098039215686275
newmtl m211
Kd 0.5098039215686274 0.4823529411764706 0.45098039215686275
newmtl m212
Kd 0.5098039215686274 0.4823529411764706 0.45098039215686275
newmtl m213
Kd 0.5098039215686274 0.4823529411764706 0.45098039215686275
newmtl m214
Kd 0.5098039215686274 0.4823529411764706 0.45098039215686275
newmtl m215
Kd 0.5098039215686274 0.4823529411764706 0.45098039215686275
newmtl m216
Kd 0.5098039215686274 0.4823529411764706 0.45098039215686275
newmtl m217
Kd 0.5098039215686274 0.4823529411764706 0.45098039215686275
newmtl m218
Kd 0.5098039215686274 0.4823529411764706 0.45098039215686275
newmtl m219
Kd 0.5098039215686274 0.4823529411764706 0.45098039215686275
newmtl m220
Kd 0.5098039215686274 0.4823529411764706 0.45098039215686275
newmtl m221
Kd 0.5098039215686274 0.4823529411764706 0.45098039215686275
newmtl m222
Kd 0.5098039215686274 0.4823529411764706 0.45098039215686275
newmtl m223
Kd 0.5098039215686274 0.4823529411764706 0.45098039215686275
newmtl m224
Kd 0.5098039215686274 0.4823529411764706 0.45098039215686275
newmtl m225
Kd 0.5098039215686274 0.4823529411764706 0.45098039215686275
newmtl m226
Kd 0.5098039215686274 0.4823529411764706 0.45098039215686275
newmtl m227
Kd 0.5098039215686274 0.4823529411764706 0.45098039215686275
newmtl m228
Kd 0.5098039215686274 0.4823529411764706 0.45098039215686275
newmtl m229
Kd 0.5098039215686274 0.4823529411764706 0.45098039215686275
newmtl m230
Kd 0.5098039215686274 0.4823529411764706 0.45098039215686275
newmtl m231
Kd 0.5098039215686274 0.4823529411764706 0.45098039215686275
newmtl m232
Kd 0.5098039215686274 0.4823529411764706 0.45098039215686275
newmtl m233
Kd 0.5098039215686274 0.4823529411764706 0.45098039215686275
newmtl m234
Kd 0.5098039215686274 0.4823529411764706 0.45098039215686275
newmtl m235
Kd 0.5098039215686274 0.4823529411764706 0.45098039215686275
newmtl m236
Kd 0.5098039215686274 0.4823529411764706 0.45098039215686275
newmtl m237
Kd 0.5098039215686274 0.4823529411764706 0.45098039215686275
newmtl m238
Kd 0.5098039215686274 0.4823529411764706 0.45098039215686275
newmtl m239
Kd 0.5098039215686274 0.4823529411764706 0.45098039215686275
newmtl m240
Kd 0.5098039215686274 0.4823529411764706 0.45098039215686275
newmtl m241
Kd 0.5098039215686274 0.4823529411764706 0.45098039215686275
newmtl m242
Kd 0.5098039215686274 0.4823529411764706 0.45098039215686275
newmtl m243
Kd 0.5098039215686274 0.4823529411764706 0.45098039215686275
newmtl m244
Kd 0.5098039215686274 0.4823529411764706 0.45098039215686275
newmtl m245
Kd 0.5098039215686274 0.4823529411764706 0.45098039215686275
newmtl m246
Kd 0.5098039215686274 0.4823529411764706 0.45098039215686275
newmtl m247
Kd 0.5098039215686274 0.4823529411764706 0.45098039215686275
newmtl m248
Kd 0.5098039215686274 0.4823529411764706 0.45098039215686275
newmtl m249
Kd 0.5098039215686274 0.4823529411764706 0.45098039215686275
newmtl m250
Kd 0.5098039215686274 0.4823529411764706 0.45098039215686275
newmtl m251
Kd 0.5098039215686274 0.4823529411764706 0.45098039215686275
newmtl m252
Kd 0.5098039215686274 0.4823529411764706 0.45098039215686275
newmtl m253
Kd 0.5098039215686274 0.4823529411764706 0.45098039215686275
newmtl m254
Kd 0.5098039215686274 0.4823529411764706 0.45098039215686275
newmtl m255
Kd 0.5098039215686274 0.4823529411764706 0.45098039215686275
newmtl m256
Kd 0.5098039215686274 0.4823529411764706 0.45098039215686275
newmtl m257
Kd 0.5098039215686274 0.4823529411764706 0.45098039215686275
newmtl m258
Kd 0.5098039215686274 0.4823529411764706 0.45098039215686275
newmtl m259
Kd 0.5098039215686274 0.4823529411764706 0.45098039215686275
newmtl m260
Kd 0.5098039215686274 0.4823529411764706 0.45098039215686275
newmtl m261
Kd 0.4745098039215686 0.45098039215686275 0.4235294117647059
newmtl m262
Kd 0.4745098039215686 0.45098039215686275 0.4235294117647059
newmtl m263
Kd 0.4745098039215686 0.45098039215686275 0.4235294117647059
newmtl m264
Kd 0.4745098039215686 0.45098039215686275 0.4235294117647059
newmtl m265
Kd 0.4745098039215686 0.45098039215686275 0.4235294117647059
newmtl m266
Kd 0.4745098039215686 0.45098039215686275 0.4235294117647059
newmtl m267
Kd 0.4745098039215686 0.45098039215686275 0.4235294117647059
newmtl m268
Kd 0.4745098039215686 0.45098039215686275 0.4235294117647059
newmtl m269
Kd 0.4745098039215686 0.45098039215686275 0.4235294117647059
newmtl m270
Kd 0.4745098039215686 0.45098039215686275 0.4235294117647059
newmtl m271
Kd 0.5098039215686274 0.4823529411764706 0.45098039215686275
newmtl m272
Kd 0.5098039215686274 0.4823529411764706 0.45098039215686275
newmtl m273
Kd 0.5098039215686274 0.4823529411764706 0.45098039215686275
newmtl m274
Kd 0.5098039215686274 0.4823529411764706 0.45098039215686275
newmtl m275
Kd 0.5098039215686274 0.4823529411764706 0.45098039215686275
newmtl m276
Kd 0.5098039215686274 0.4823529411764706 0.45098039215686275
newmtl m277
Kd 0.5098039215686274 0.4823529411764706 0.45098039215686275
newmtl m278
Kd 0.5098039215686274 0.4823529411764706 0.45098039215686275
newmtl m279
Kd 0.5098039215686274 0.4823529411764706 0.45098039215686275
newmtl m280
Kd 0.5098039215686274 0.4823529411764706 0.45098039215686275
newmtl m281
Kd 0.5098039215686274 0.4823529411764706 0.45098039215686275
newmtl m282
Kd 0.5098039215686274 0.4823529411764706 0.45098039215686275
newmtl m283
Kd 0.5098039215686274 0.4823529411764706 0.45098039215686275
newmtl m284
Kd 0.5098039215686274 0.4823529411764706 0.45098039215686275
newmtl m285
Kd 0.5098039215686274 0.4823529411764706 0.45098039215686275
newmtl m286
Kd 0.5098039215686274 0.4823529411764706 0.45098039215686275
newmtl m287
Kd 0.5098039215686274 0.4823529411764706 0.45098039215686275
newmtl m288
Kd 0.5098039215686274 0.4823529411764706 0.45098039215686275
