mtllib 36754.mtl
o runescapemodel
v -106 37 -65
v -95 24 -108
v -128 50 -86
v -128 51 -83
v -110 40 -72
v -100 32 -103
v -128 55 -87
v -128 55 -86
v -123 61 -81
v -105 46 -97
v -128 60 -85
v -128 61 -83
v -128 52 -94
v -128 52 -86
v -120 50 -94
v -120 50 -110
v -128 46 -108
v -128 57 -90
v -128 57 -86
v -120 55 -94
v -120 55 -102
v -128 51 -100
v -104 50 -94
v -128 54 -82
v -99 37 -59
v -128 51 -74
v -104 43 -52
v -128 52 -72
v -128 124 -28
v -128 125 -27
v -104 49 -40
v -92 44 -40
v -128 127 -27
v -58 82 -30
v -71 38 -58
v -43 52 -61
v -43 55 -45
v -27 52 -45
v -26 39 -14
v -45 46 7
v -65 160 40
v -30 47 5
v -32 46 19
v 4 82 33
v -12 39 1
v 20 52 2
v 20 55 18
v 35 52 18
v 32 38 46
v 14 44 66
v 0 134 106
v 15 49 78
v 27 43 79
v 53 55 110
v 34 37 74
v 69 50 79
v 69 50 94
v 84 50 94
v 78 37 118
v 61 41 128
v 68 37 128
v -112 55 -94
v -128 58 -84
v -97 55 -78
v -128 58 -78
v -101 58 -62
v -128 59 -75
v -128 86 -51
v -128 134 -29
v -128 135 -28
v -100 72 -52
v -89 61 -50
v -128 136 -27
v -99 116 -26
v -58 88 -30
v -58 56 -69
v -43 57 -54
v -43 60 -45
v -34 58 -45
v -19 58 -30
v -38 77 0
v -65 126 7
v -65 168 40
v -36 83 11
v -25 77 13
v -32 126 40
v 4 89 33
v 4 58 -6
v 20 58 9
v 20 60 18
v 28 58 18
v 44 56 33
v 25 61 63
v 0 116 73
v 0 142 106
v 27 72 74
v 37 58 75
v 22 94 110
v 53 59 110
v 53 55 71
v 69 55 87
v 69 55 94
v 77 55 94
v 70 43 118
v 55 45 128
v 61 42 128
v -52 72 -36
v -22 24 -62
v -65 38 -51
v -33 39 -19
v -50 77 -38
v -27 32 -57
v -45 55 -66
v -22 56 -43
v -53 86 -35
v -17 42 -71
v -56 82 -43
v -45 83 -33
v -58 95 -30
v -50 83 -38
v -58 72 -61
v -99 122 -26
v -99 168 7
v -65 132 7
v -27 76 -30
v 11 72 26
v 37 24 -3
v -6 39 8
v 25 38 40
v 12 77 25
v 32 32 2
v 18 56 -3
v 40 55 19
v 9 86 28
v 45 42 -8
v 7 85 20
v 18 82 31
v 4 95 33
v 12 83 25
v 4 76 2
v -32 132 40
v -32 168 73
v 0 122 73
v 36 72 33
v 60 52 104
v 82 24 69
v 40 37 80
v 71 37 112
v 77 32 74
v 66 49 75
v 61 55 103
v 89 49 97
v 58 61 105
v 94 42 70
v 55 61 97
v 66 59 108
v 53 73 110
v 61 60 103
v 53 59 79
v 22 101 110
v 40 102 128
v 53 77 128
v 67 63 128
v 69 60 126
v 84 58 110
v -128 132 -26
v -128 139 -26
v -89 83 -39
v -112 97 -39
v -128 140 -28
v -128 144 -27
v -128 146 -26
v -128 150 -23
v -128 199 7
v -128 251 37
v -128 256 40
v -99 219 40
v -65 175 40
v -49 91 0
v -112 76 -63
v -128 92 -53
v -128 137 -31
v -41 116 16
v -25 91 24
v 0 148 106
v 14 97 87
v 14 83 63
v -33 202 106
v -23 205 128
v 0 164 128
v 22 129 128
v 28 113 128
v 37 76 87
v -125 247 33
v -77 124 -14
v -125 188 -1
v -90 205 33
v -123 250 32
v -83 143 -8
v -118 194 3
v -93 205 26
v -128 253 26
v -128 255 27
v -125 264 35
v -88 165 -2
v -118 260 37
v -128 253 34
v -128 258 37
v -114 220 24
v -114 192 7
v -128 184 -6
v -128 263 36
v -128 265 37
v -114 227 24
v -114 213 16
v -128 204 2
v -99 201 24
v -128 260 38
v -82 205 40
v -128 263 40
v -88 224 48
v -128 355 102
v -128 357 103
v -86 241 61
v -74 224 62
v -128 357 104
v -65 266 106
v -65 204 56
v -49 200 73
v -49 219 89
v -32 192 89
v -17 181 106
v -33 225 122
v -45 253 128
v -21 207 128
v -107 217 24
v -128 266 38
v -90 222 40
v -128 269 40
v -95 253 56
v -128 272 41
v -128 321 72
v -128 362 102
v -128 364 103
v -93 267 68
v -82 253 69
v -128 365 104
v -99 327 106
v -65 273 106
v -65 222 65
v -49 217 81
v -49 226 89
v -41 212 89
v -25 201 106
v -41 247 122
v -51 270 128
v -29 230 128
v -99 240 40
v -123 257 32
v -128 272 37
v -128 277 40
v -128 325 70
v -128 327 71
v -107 276 56
v -128 367 100
v -128 371 103
v -107 313 81
v -82 276 81
v -128 373 104
v -99 333 106
v -65 239 73
v -65 280 106
v -57 256 98
v -33 223 106
v -49 269 122
v -55 286 128
v -37 251 128
v -58 246 99
v -11 124 51
v -58 204 64
v -24 187 99
v -57 249 98
v -17 143 57
v -52 205 68
v -28 194 91
v -60 263 100
v -23 163 63
v -62 258 92
v -52 253 103
v -65 218 73
v -65 259 106
v -43 241 128
v -33 222 128
v -128 360 106
v -128 368 106
v -128 375 106
v -99 357 128
v -88 340 128
v -65 303 128
v -99 269 73
v -99 313 106
v -128 260 43
v -128 309 73
v -128 350 103
v -128 354 106
v -65 289 128
v -65 296 128
v -65 282 128
v -128 34 -99
v -128 39 -94
v -128 57 -93
v -128 70 -78
v -104 59 -78
v -128 60 -86
v -128 91 -55
v -128 235 16
v -128 378 109
v -109 372 128
v 53 58 128
v 53 68 128
v 72 59 128
v -128 398 128
vn 315 -393 86
vn 142 -369 223
vn 310 -554 284
vn 168 -185 61
vn 329 -397 -1
vn 115 -297 229
vn 281 -497 229
vn 166 -200 0
vn 107 -444 246
vn 153 -436 214
vn 199 -668 330
vn 46 -232 116
vn 0 -708 88
vn 44 -731 176
vn 125 -752 62
vn -63 -456 88
vn -125 -206 88
vn 2 -701 115
vn 36 -735 176
vn 127 -760 63
vn -62 -445 115
vn -125 -193 115
vn 57 -711 101
vn 124 -693 -48
vn 280 -666 -87
vn 353 -623 82
vn 916 -664 464
vn 320 -287 255
vn 392 -191 254
vn 392 -224 626
vn 258 -131 291
vn -158 -242 920
vn -46 -97 742
vn 682 -1036 979
vn -204 -293 365
vn 123 -281 212
vn 241 -268 241
vn 212 -296 154
vn 357 -325 -161
vn 381 -280 180
vn 494 -236 486
vn 208 -127 206
vn 187 -282 378
vn 735 -997 659
vn -156 -325 359
vn 152 -302 214
vn 239 -275 241
vn 214 -282 122
vn 363 -293 -207
vn 671 -252 -50
vn 718 -292 469
vn 308 -145 276
vn 296 -387 544
vn 675 -1527 243
vn -2 -433 215
vn 1 -476 76
vn 76 -488 76
vn 99 -440 -55
vn 323 -598 -352
vn 455 -510 -203
vn 113 -199 -113
vn 1 -731 204
vn 25 -735 141
vn 77 -759 69
vn 95 -748 121
vn 491 -1002 839
vn 138 -399 258
vn 106 -264 410
vn 208 -227 353
vn 648 -508 596
vn 278 -254 342
vn 402 -670 887
vn 321 -320 585
vn 195 -295 678
vn 847 -1238 1037
vn 64 -362 297
vn 340 -308 185
vn 240 -269 262
vn 162 -305 350
vn 288 -374 162
vn 744 -547 363
vn 377 -241 238
vn 629 -442 629
vn 308 -210 308
vn 359 -545 747
vn 237 -241 377
vn 1013 -1233 857
vn 155 -372 295
vn 344 -307 166
vn 247 -264 246
vn 173 -301 344
vn 298 -361 60
vn 745 -544 231
vn 436 -223 140
vn 785 -474 372
vn 341 -257 275
vn 641 -641 238
vn 412 -264 96
vn 793 -1559 -50
vn 66 -504 51
vn 88 -502 26
vn 62 -499 62
vn 117 -438 -66
vn 333 -582 -375
vn 471 -416 -236
vn 103 -207 -114
vn 197 -241 219
vn 197 -241 219
vn -22 -110 229
vn 219 -131 -10
vn 255 -252 289
vn 255 -252 289
vn 206 -134 68
vn 49 -118 221
vn 206 -386 264
vn 206 -386 264
vn 101 -193 134
vn 105 -193 130
vn 691 -1005 898
vn 239 -349 284
vn 104 -396 480
vn 324 -699 1175
vn 1257 -1270 1791
vn 818 -620 450
vn 426 -410 182
vn 218 -234 192
vn 218 -234 192
vn -12 -127 221
vn 230 -107 -29
vn 282 -254 251
vn 282 -254 251
vn 222 -120 42
vn 60 -134 209
vn 286 -379 176
vn 286 -379 176
vn 163 -186 64
vn 123 -193 112
vn 894 -997 699
vn 280 -349 243
vn 181 -406 423
vn 448 -611 820
vn 1428 -1013 1004
vn 958 -596 230
vn 470 -400 110
vn 228 -359 143
vn 228 -359 143
vn 24 -206 149
vn 204 -153 -6
vn 225 -341 147
vn 215 -138 -8
vn 225 -341 147
vn 10 -203 155
vn 169 -474 83
vn 169 -474 83
vn 91 -236 34
vn 78 -238 49
vn 1265 -1318 543
vn 263 -304 265
vn 495 -519 258
vn 1017 -865 580
vn 505 -424 323
vn 405 -296 65
vn 514 -524 223
vn 442 -566 112
vn 179 -370 123
vn 21 -50 250
vn 62 -78 236
vn 9 -270 922
vn 264 -181 328
vn 486 -354 687
vn 188 -264 687
vn 306 -381 588
vn 230 -256 376
vn 244 -228 385
vn 249 -226 385
vn 559 -472 712
vn 587 -456 699
vn 1559 -1146 1571
vn 480 -277 220
vn 466 -506 592
vn 204 -475 482
vn 171 -222 339
vn 286 -232 286
vn 217 -275 478
vn 2186 -1174 1074
vn 333 -188 260
vn 669 -221 -13
vn 1204 -693 648
vn 608 -357 298
vn 412 -245 177
vn 404 -203 229
vn 547 -314 411
vn 467 -398 289
vn 247 -239 373
vn 247 -239 373
vn 101 -117 203
vn 146 -122 170
vn 246 -233 379
vn 246 -233 379
vn 103 -114 204
vn 143 -119 175
vn 327 -203 357
vn 199 -85 170
vn 449 -320 549
vn 250 -235 379
vn 122 -117 192
vn 382 -340 570
vn 387 -331 575
vn 409 -340 552
vn 250 -227 382
vn 117 -114 196
vn 335 -332 607
vn 456 -342 495
vn 377 -335 572
vn 242 -224 390
vn 122 -112 194
vn 397 -330 567
vn 400 -332 563
vn 438 -346 524
vn 444 -350 517
vn 507 -461 739
vn 212 -227 395
vn 624 -439 540
vn 322 -232 318
vn 755 -449 440
vn 574 -322 311
vn 1851 -1132 1325
vn 347 -234 291
vn 367 -226 275
vn 367 -225 276
vn 382 -227 248
vn 403 -227 216
vn 611 -333 319
vn 610 -330 323
vn 212 -110 92
vn 502 -346 461
vn 482 -348 477
vn 425 -344 536
vn 420 -301 560
vn 802 -640 1108
vn 279 -181 384
vn 308 -228 336
vn 221 -228 384
vn 577 -461 663
vn 322 -232 321
vn 878 -576 721
vn 519 -345 443
vn 501 -340 469
vn 1719 -1006 1136
vn 355 -229 286
vn 372 -225 267
vn 388 -222 249
vn 393 -221 240
vn 397 -220 234
vn 606 -340 321
vn 609 -338 316
vn 209 -115 92
vn 656 -549 943
vn 271 -215 376
vn 411 -325 559
vn 283 -222 362
vn 235 -219 394
vn 400 -333 553
vn 625 -457 664
vn 339 -227 309
vn 606 -452 676
vn 318 -236 319
vn 645 -451 633
vn 468 -345 481
vn 1266 -830 945
vn 552 -335 410
vn 1521 -899 1019
vn 381 -214 265
vn 388 -217 251
vn 604 -329 336
vn 602 -333 335
vn 211 -108 96
vn 372 -240 246
vn 372 -240 246
vn 168 -123 147
vn 204 -117 99
vn 364 -239 263
vn 364 -239 263
vn 168 -121 150
vn 196 -118 113
vn 384 -232 244
vn 384 -232 244
vn 193 -116 121
vn 191 -116 123
vn 696 -461 588
vn 1132 -677 769
vn 613 -331 322
vn 409 -228 207
vn 163 -109 164
vn 159 -112 168
vn 715 -500 530
vn 543 -361 402
vn 560 -355 383
vn 384 -232 242
vn 1596 -1159 1612
vn 341 -228 304
vn 287 -237 349
vn 310 -225 337
vn 326 -234 316
vn 330 -234 312
vn 199 -110 115
vn 201 -108 113
vn 202 -108 113
vn -5 -161 198
vn -48 -100 230
vn 92 -224 84
vn 152 -333 355
vn 387 -697 609
vn 70 -154 192
vn 238 -362 254
vn 133 -107 190
vn 349 -260 267
vn 528 -379 405
vn 231 -108 18
vn 255 -22 11
vn 146 -182 128
vn 175 -128 135
usemtl m0
f 1 2 3

usemtl m1
f 1 3 4

usemtl m2
f 5 6 7

usemtl m3
f 5 7 8

usemtl m4
f 9 10 11

usemtl m5
f 9 11 12

usemtl m6
f 13 14 15

usemtl m7
f 13 15 16

usemtl m8
f 13 16 17

usemtl m9
f 18 19 20

usemtl m10
f 18 20 21

usemtl m11
f 18 21 22

usemtl m12
f 23 15 14

usemtl m13
f 23 14 24

usemtl m14
f 23 24 25

usemtl m15
f 25 24 26

usemtl m16
f 25 26 27

usemtl m17
f 27 26 28

usemtl m18
f 27 28 29

usemtl m19
f 27 29 30

usemtl m20
f 27 30 31

usemtl m21
f 31 30 32

usemtl m22
f 32 30 33

usemtl m23
f 32 33 34

usemtl m24
f 32 34 35

usemtl m25
f 35 34 36

usemtl m26
f 36 34 37

usemtl m27
f 37 34 38

usemtl m28
f 38 34 39

usemtl m29
f 39 34 40

usemtl m30
f 40 34 41

usemtl m31
f 40 41 42

usemtl m32
f 42 41 43

usemtl m33
f 43 41 44

usemtl m34
f 43 44 45

usemtl m35
f 45 44 46

usemtl m36
f 46 44 47

usemtl m37
f 47 44 48

usemtl m38
f 48 44 49

usemtl m39
f 49 44 50

usemtl m40
f 50 44 51

usemtl m41
f 50 51 52

usemtl m42
f 52 51 53

usemtl m43
f 53 51 54

usemtl m44
f 53 54 55

usemtl m45
f 55 54 56

usemtl m46
f 56 54 57

usemtl m47
f 57 54 58

usemtl m48
f 58 54 59

usemtl m49
f 59 54 60

usemtl m50
f 59 60 61

usemtl m51
f 62 20 19

usemtl m52
f 62 19 63

usemtl m53
f 62 63 64

usemtl m54
f 64 63 65

usemtl m55
f 64 65 66

usemtl m56
f 66 65 67

usemtl m57
f 66 67 68

usemtl m58
f 66 68 69

usemtl m59
f 66 69 70

usemtl m60
f 66 70 71

usemtl m61
f 71 70 72

usemtl m62
f 72 70 73

usemtl m63
f 72 73 74

usemtl m64
f 72 74 75

usemtl m65
f 72 75 76

usemtl m66
f 76 75 77

usemtl m67
f 77 75 78

usemtl m68
f 78 75 79

usemtl m69
f 79 75 80

usemtl m70
f 80 75 81

usemtl m71
f 81 75 82

usemtl m72
f 81 82 83

usemtl m73
f 81 83 84

usemtl m74
f 84 83 85

usemtl m75
f 85 83 86

usemtl m76
f 85 86 87

usemtl m77
f 85 87 88

usemtl m78
f 88 87 89

usemtl m79
f 89 87 90

usemtl m80
f 90 87 91

usemtl m81
f 91 87 92

usemtl m82
f 92 87 93

usemtl m83
f 93 87 94

usemtl m84
f 93 94 95

usemtl m85
f 93 95 96

usemtl m86
f 96 95 97

usemtl m87
f 97 95 98

usemtl m88
f 97 98 99

usemtl m89
f 97 99 100

usemtl m90
f 100 99 101

usemtl m91
f 101 99 102

usemtl m92
f 102 99 103

usemtl m93
f 103 99 104

usemtl m94
f 104 99 105

usemtl m95
f 104 105 106

usemtl m96
f 107 108 109

usemtl m97
f 108 107 110

usemtl m98
f 111 112 113

usemtl m99
f 112 111 114

usemtl m100
f 115 116 117

usemtl m101
f 116 115 118

usemtl m102
f 119 120 121

usemtl m103
f 119 121 122

usemtl m104
f 119 122 123

usemtl m105
f 119 123 124

usemtl m106
f 119 124 125

usemtl m107
f 119 125 120

usemtl m108
f 126 127 128

usemtl m109
f 127 126 129

usemtl m110
f 130 131 132

usemtl m111
f 131 130 133

usemtl m112
f 134 135 136

usemtl m113
f 135 134 137

usemtl m114
f 138 139 140

usemtl m115
f 138 140 141

usemtl m116
f 138 141 142

usemtl m117
f 138 142 143

usemtl m118
f 138 143 144

usemtl m119
f 138 144 139

usemtl m120
f 145 146 147

usemtl m121
f 146 145 148

usemtl m122
f 149 150 151

usemtl m123
f 149 151 152

usemtl m124
f 153 154 155

usemtl m125
f 154 153 156

usemtl m126
f 157 158 159

usemtl m127
f 157 159 160

usemtl m128
f 157 160 161

usemtl m129
f 157 161 162

usemtl m130
f 157 162 163

usemtl m131
f 157 163 164

usemtl m132
f 157 164 165

usemtl m133
f 157 165 158

usemtl m134
f 34 33 166

usemtl m135
f 74 73 167

usemtl m136
f 168 169 170

usemtl m137
f 168 170 171

usemtl m138
f 168 171 122

usemtl m139
f 168 122 121

usemtl m140
f 122 171 172

usemtl m141
f 122 172 123

usemtl m142
f 123 172 173

usemtl m143
f 123 173 174

usemtl m144
f 123 174 175

usemtl m145
f 123 175 176

usemtl m146
f 123 176 177

usemtl m147
f 123 177 178

usemtl m148
f 123 178 124

usemtl m149
f 124 178 179

usemtl m150
f 124 179 125

usemtl m151
f 180 181 182

usemtl m152
f 180 182 170

usemtl m153
f 180 170 169

usemtl m154
f 178 183 179

usemtl m155
f 183 178 184

usemtl m156
f 184 178 141

usemtl m157
f 184 141 140

usemtl m158
f 185 186 187

usemtl m159
f 185 187 143

usemtl m160
f 185 143 142

usemtl m161
f 185 142 188

usemtl m162
f 185 188 189

usemtl m163
f 185 189 190

usemtl m164
f 185 190 191

usemtl m165
f 185 191 192

usemtl m166
f 185 192 160

usemtl m167
f 185 160 193

usemtl m168
f 185 193 186

usemtl m169
f 193 160 159

usemtl m170
f 143 187 144

usemtl m171
f 160 192 161

usemtl m172
f 194 195 196

usemtl m173
f 195 194 197

usemtl m174
f 198 199 200

usemtl m175
f 199 198 201

usemtl m176
f 202 203 204

usemtl m177
f 202 204 205

usemtl m178
f 205 204 206

usemtl m179
f 207 208 209

usemtl m180
f 207 209 210

usemtl m181
f 207 210 211

usemtl m182
f 212 213 214

usemtl m183
f 212 214 215

usemtl m184
f 212 215 216

usemtl m185
f 217 209 208

usemtl m186
f 217 208 218

usemtl m187
f 217 218 219

usemtl m188
f 219 218 220

usemtl m189
f 219 220 221

usemtl m190
f 221 220 222

usemtl m191
f 221 222 223

usemtl m192
f 221 223 224

usemtl m193
f 224 223 225

usemtl m194
f 225 223 226

usemtl m195
f 225 226 227

usemtl m196
f 225 227 228

usemtl m197
f 228 227 229

usemtl m198
f 229 227 230

usemtl m199
f 230 227 231

usemtl m200
f 231 227 232

usemtl m201
f 232 227 233

usemtl m202
f 233 227 234

usemtl m203
f 233 234 235

usemtl m204
f 236 214 213

usemtl m205
f 236 213 237

usemtl m206
f 236 237 238

usemtl m207
f 238 237 239

usemtl m208
f 238 239 240

usemtl m209
f 240 239 241

usemtl m210
f 240 241 242

usemtl m211
f 240 242 243

usemtl m212
f 240 243 244

usemtl m213
f 240 244 245

usemtl m214
f 245 244 246

usemtl m215
f 246 244 247

usemtl m216
f 246 247 248

usemtl m217
f 246 248 249

usemtl m218
f 246 249 250

usemtl m219
f 250 249 251

usemtl m220
f 251 249 252

usemtl m221
f 252 249 253

usemtl m222
f 253 249 254

usemtl m223
f 254 249 255

usemtl m224
f 255 249 256

usemtl m225
f 255 256 257

usemtl m226
f 258 259 260

usemtl m227
f 258 260 261

usemtl m228
f 258 261 262

usemtl m229
f 258 262 263

usemtl m230
f 258 263 264

usemtl m231
f 264 263 265

usemtl m232
f 264 265 266

usemtl m233
f 264 266 267

usemtl m234
f 267 266 268

usemtl m235
f 268 266 269

usemtl m236
f 268 269 270

usemtl m237
f 268 270 271

usemtl m238
f 271 270 272

usemtl m239
f 271 272 273

usemtl m240
f 273 272 274

usemtl m241
f 274 272 275

usemtl m242
f 275 272 276

usemtl m243
f 275 276 277

usemtl m244
f 278 279 280

usemtl m245
f 279 278 281

usemtl m246
f 282 283 284

usemtl m247
f 283 282 285

usemtl m248
f 286 287 288

usemtl m249
f 287 286 289

usemtl m250
f 142 141 178

usemtl m251
f 142 178 290

usemtl m252
f 142 290 291

usemtl m253
f 142 291 188

usemtl m254
f 188 291 292

usemtl m255
f 188 292 293

usemtl m256
f 188 293 189

usemtl m257
f 227 226 294

usemtl m258
f 248 247 295

usemtl m259
f 270 269 296

usemtl m260
f 270 296 297

usemtl m261
f 270 297 298

usemtl m262
f 270 298 272

usemtl m263
f 272 298 299

usemtl m264
f 272 299 276

usemtl m265
f 300 301 291

usemtl m266
f 300 291 290

usemtl m267
f 300 290 178

usemtl m268
f 300 178 177

usemtl m269
f 300 177 176

usemtl m270
f 300 176 302

usemtl m271
f 300 302 303

usemtl m272
f 300 303 304

usemtl m273
f 300 304 305

usemtl m274
f 300 305 301

usemtl m275
f 227 306 234

usemtl m276
f 249 307 256

usemtl m277
f 291 308 292

usemtl m278
f 3 2 309

usemtl m279
f 7 6 310

usemtl m280
f 11 10 311

usemtl m281
f 312 313 314

usemtl m282
f 313 312 315

usemtl m283
f 313 315 181

usemtl m284
f 313 181 180

usemtl m285
f 260 259 316

usemtl m286
f 296 317 318

usemtl m287
f 296 318 297

usemtl m288
f 60 54 319

usemtl m289
f 105 99 320

usemtl m290
f 321 164 163

usemtl m291
f 318 317 322

