mtllib 3712.mtl
o runescapemodel
v 32 -8 56
v 24 -8 64
v 24 -120 64
v 32 -120 56
v 32 -8 -56
v 24 0 56
v -88 0 56
v -88 -8 64
v -88 -120 64
v 24 -128 56
v 24 -128 -56
v 32 -120 -56
v 24 -8 -64
v 24 0 -56
v -88 0 -56
v -96 -8 56
v -96 -120 56
v -88 -128 56
v -88 -128 -56
v 24 -120 -64
v -88 -8 -64
v -96 -8 -56
v -96 -120 -56
v -88 -120 -64
v -32 0 -12
v -44 0 0
v -32 0 12
v -20 0 0
v 8 -128 36
v -4 -128 48
v -16 -128 36
v -4 -128 24
v 8 -128 0
v -4 -128 12
v -16 -128 0
v -4 -128 -12
v 8 -128 -36
v -4 -128 -24
v -16 -128 -36
v -4 -128 -48
v -48 -128 -36
v -60 -128 -24
v -72 -128 -36
v -60 -128 -48
v -48 -128 0
v -60 -128 12
v -72 -128 0
v -60 -128 -12
v -48 -128 36
v -60 -128 48
v -72 -128 36
v -60 -128 24
v 8 -36 64
v -4 -24 64
v -16 -36 64
v -4 -48 64
v -52 -92 64
v -64 -80 64
v -76 -92 64
v -64 -104 64
v -32 -76 -64
v -44 -64 -64
v -32 -52 -64
v -20 -64 -64
v -4 -112 -64
v -16 -100 -64
v -4 -88 -64
v 8 -100 -64
v -60 -112 -64
v -72 -100 -64
v -60 -88 -64
v -48 -100 -64
v -60 -40 -64
v -72 -28 -64
v -60 -16 -64
v -48 -28 -64
v -4 -40 -64
v -16 -28 -64
v -4 -16 -64
v 8 -28 -64
v 32 -84 -32
v 32 -96 -20
v 32 -108 -32
v 32 -96 -44
v 32 -52 0
v 32 -64 12
v 32 -76 0
v 32 -64 -12
v 32 -20 32
v 32 -32 44
v 32 -44 32
v 32 -32 20
v -96 -16 28
v -96 -28 16
v -96 -40 28
v -96 -28 40
v -96 -16 -28
v -96 -28 -40
v -96 -40 -28
v -96 -28 -16
v -96 -88 -28
v -96 -100 -40
v -96 -112 -28
v -96 -100 -16
v -96 -88 28
v -96 -100 16
v -96 -112 28
v -96 -100 40
vn 947 -329 -510
vn 329 -510 -1203
vn 510 329 -947
vn 1203 510 -329
vn 1203 -510 329
vn 510 -1203 -329
vn -329 -947 -510
vn -510 -329 -947
vn -329 510 -1203
vn 329 947 -510
vn 510 1203 329
vn 947 329 510
vn 510 -329 947
vn 329 -947 510
vn -510 -1203 329
vn -1203 -510 -329
vn -947 329 -510
vn -510 1203 -329
vn -329 947 510
vn 329 510 1203
vn -329 -510 1203
vn -947 -329 510
vn -1203 510 329
vn -510 329 947
vn 0 -512 0
vn 0 -256 0
vn 0 -512 0
vn 0 -256 0
vn 0 512 0
vn 0 256 0
vn 0 512 0
vn 0 256 0
vn 0 512 0
vn 0 256 0
vn 0 512 0
vn 0 256 0
vn 0 512 0
vn 0 256 0
vn 0 512 0
vn 0 256 0
vn 0 512 0
vn 0 256 0
vn 0 512 0
vn 0 256 0
vn 0 512 0
vn 0 256 0
vn 0 512 0
vn 0 256 0
vn 0 512 0
vn 0 256 0
vn 0 512 0
vn 0 256 0
vn 0 0 -512
vn 0 0 -256
vn 0 0 -512
vn 0 0 -256
vn 0 0 -512
vn 0 0 -256
vn 0 0 -512
vn 0 0 -256
vn 0 0 512
vn 0 0 256
vn 0 0 512
vn 0 0 256
vn 0 0 512
vn 0 0 256
vn 0 0 512
vn 0 0 256
vn 0 0 512
vn 0 0 256
vn 0 0 512
vn 0 0 256
vn 0 0 512
vn 0 0 256
vn 0 0 512
vn 0 0 256
vn 0 0 512
vn 0 0 256
vn 0 0 512
vn 0 0 256
vn 512 0 0
vn 256 0 0
vn 512 0 0
vn 256 0 0
vn 512 0 0
vn 256 0 0
vn 512 0 0
vn 256 0 0
vn 512 0 0
vn 256 0 0
vn 512 0 0
vn 256 0 0
vn -512 0 0
vn -256 0 0
vn -512 0 0
vn -256 0 0
vn -512 0 0
vn -256 0 0
vn -512 0 0
vn -256 0 0
vn -512 0 0
vn -256 0 0
vn -512 0 0
vn -256 0 0
vn -512 0 0
vn -256 0 0
vn -512 0 0
vn -256 0 0
usemtl m0
f 1 2 3

usemtl m1
f 1 3 4

usemtl m2
f 1 4 5

usemtl m3
f 1 5 6

usemtl m4
f 1 6 2

usemtl m5
f 2 6 7

usemtl m6
f 2 7 8

usemtl m7
f 2 8 9

usemtl m8
f 2 9 3

usemtl m9
f 3 9 10

usemtl m10
f 3 10 4

usemtl m11
f 4 10 11

usemtl m12
f 4 11 12

usemtl m13
f 4 12 5

usemtl m14
f 5 12 13

usemtl m15
f 5 13 14

usemtl m16
f 5 14 6

usemtl m17
f 6 14 15

usemtl m18
f 6 15 7

usemtl m19
f 7 15 16

usemtl m20
f 7 16 8

usemtl m21
f 8 16 17

usemtl m22
f 8 17 9

usemtl m23
f 9 17 18

usemtl m24
f 9 18 10

usemtl m25
f 10 18 11

usemtl m26
f 11 18 19

usemtl m27
f 11 19 20

usemtl m28
f 11 20 12

usemtl m29
f 12 20 13

usemtl m30
f 13 20 21

usemtl m31
f 13 21 14

usemtl m32
f 14 21 15

usemtl m33
f 15 21 22

usemtl m34
f 15 22 16

usemtl m35
f 16 22 23

usemtl m36
f 16 23 17

usemtl m37
f 17 23 18

usemtl m38
f 18 23 19

usemtl m39
f 19 23 24

usemtl m40
f 19 24 20

usemtl m41
f 20 24 21

usemtl m42
f 21 24 22

usemtl m43
f 22 24 23

usemtl m44
f 25 26 27

usemtl m45
f 25 27 28

usemtl m46
f 29 30 31

usemtl m47
f 29 31 32

usemtl m48
f 33 34 35

usemtl m49
f 33 35 36

usemtl m50
f 37 38 39

usemtl m51
f 37 39 40

usemtl m52
f 41 42 43

usemtl m53
f 41 43 44

usemtl m54
f 45 46 47

usemtl m55
f 45 47 48

usemtl m56
f 49 50 51

usemtl m57
f 49 51 52

usemtl m58
f 53 54 55

usemtl m59
f 53 55 56

usemtl m60
f 57 58 59

usemtl m61
f 57 59 60

usemtl m62
f 61 62 63

usemtl m63
f 61 63 64

usemtl m64
f 65 66 67

usemtl m65
f 65 67 68

usemtl m66
f 69 70 71

usemtl m67
f 69 71 72

usemtl m68
f 73 74 75

usemtl m69
f 73 75 76

usemtl m70
f 77 78 79

usemtl m71
f 77 79 80

usemtl m72
f 81 82 83

usemtl m73
f 81 83 84

usemtl m74
f 85 86 87

usemtl m75
f 85 87 88

usemtl m76
f 89 90 91

usemtl m77
f 89 91 92

usemtl m78
f 93 94 95

usemtl m79
f 93 95 96

usemtl m80
f 97 98 99

usemtl m81
f 97 99 100

usemtl m82
f 101 102 103

usemtl m83
f 101 103 104

usemtl m84
f 105 106 107

usemtl m85
f 105 107 108

