mtllib 37256.mtl
o runescapemodel
v 12 3 88
v 0 -17 92
v 9 -19 82
v 19 -21 73
v 35 -4 64
v 44 8 53
v 7 13 60
v -12 3 88
v -9 -19 82
v -9 -21 76
v 0 -19 86
v 9 -21 76
v 9 -21 73
v 6 -34 78
v 6 -34 75
v 0 -15 79
v 0 -38 80
v 0 -38 87
v -9 -21 73
v -6 -34 75
v -19 -21 73
v -35 -4 64
v -44 8 53
v -54 -8 35
v -35 -13 58
v -32 -14 61
v -16 -27 65
v -12 -32 56
v 0 -31 72
v 12 -32 56
v 16 -27 65
v 35 -13 58
v 32 -14 61
v 54 -8 35
v 44 -42 23
v 67 3 -4
v 60 40 -1
v 48 23 48
v -67 3 -4
v -44 -42 23
v -48 -27 -27
v -22 -39 -28
v -22 -54 12
v -19 -56 36
v 22 41 53
v 25 55 48
v 16 41 56
v 14 29 57
v 25 29 59
v 35 33 46
v 38 50 40
v 12 69 33
v -16 41 56
v -9 32 58
v 9 32 58
v 6 23 61
v 15 18 61
v 23 24 61
v 28 25 58
v 38 22 51
v 38 59 1
v 19 74 2
v -12 69 33
v -25 55 48
v -22 41 53
v -14 29 57
v -6 23 61
v -7 13 60
v 35 16 53
v 67 185 16
v 92 215 41
v 140 229 61
v 150 214 53
v 131 145 12
v 89 101 -8
v 41 136 -5
v 67 184 29
v 92 211 52
v 140 222 73
v 150 207 62
v 131 143 25
v 89 100 5
v 38 61 -19
v 19 76 -18
v 41 135 8
v 76 178 28
v 92 196 45
v 134 210 65
v 121 149 25
v 80 106 5
v 35 81 3
v -19 74 2
v -38 59 1
v -38 50 40
v -35 33 46
v -24 29 59
v -22 24 61
v -15 18 61
v 118 153 19
v 128 205 52
v 96 197 36
v 80 176 21
v 54 126 0
v 76 110 -1
v 41 91 -3
v 51 129 7
v -19 76 -18
v -41 135 8
v -35 81 3
v -89 100 5
v -89 101 -8
v -38 61 -19
v -60 42 -21
v -60 40 -1
v 60 42 -21
v 28 56 -35
v 0 57 -42
v -28 56 -35
v -41 136 -5
v -67 185 16
v -67 184 29
v -51 129 7
v -54 126 0
v -41 91 -3
v -80 106 5
v -121 149 25
v -131 143 25
v -131 145 12
v -150 214 53
v -140 229 61
v -92 215 41
v -92 211 52
v -76 178 28
v -80 176 21
v -76 110 -1
v -118 153 19
v -134 210 65
v -150 207 62
v 32 20 -48
v 0 25 -57
v 60 11 -30
v 29 -16 -49
v 0 -12 -58
v -32 20 -48
v 48 -27 -27
v -60 11 -30
v -29 -16 -49
v 0 -30 -44
v 22 -39 -28
v 22 -54 12
v 19 -56 36
v -128 205 52
v -92 196 45
v -140 222 73
v -96 197 36
v -48 23 48
v -38 22 51
v -27 25 58
v -35 16 53
v -6 -34 78
v -10 -14 42
v -9 -15 41
v 0 -16 41
v -3 -13 44
v -3 -11 44
v -8 -2 44
v -28 -12 32
v -13 -14 41
v -9 -16 42
v 0 -17 43
v 9 -16 42
v 9 -15 41
v 10 -14 42
v 3 -13 44
v 3 -11 44
v 4 -2 44
v -4 -2 44
v -7 -2 47
v -9 2 47
v -9 2 44
v -16 14 44
v -32 6 36
v -40 10 16
v -40 2 12
v -16 -34 12
v -12 -36 36
v 13 -14 41
v 28 -12 32
v 8 -2 44
v 32 30 44
v 26 22 41
v 40 26 24
v 28 56 40
v 26 37 48
v 26 35 48
v 16 35 52
v 13 30 44
v 21 23 44
v 22 21 44
v 32 6 36
v 40 10 16
v 40 18 8
v 40 54 0
v 18 72 -8
v 0 68 32
v 0 52 48
v 16 38 52
v 5 41 52
v 7 35 52
v 0 34 48
v 7 24 44
v 14 26 46
v 15 19 46
v 16 14 44
v 40 2 12
v 40 10 8
v 44 18 8
v 40 22 -4
v 32 38 -40
v 0 58 -32
v -18 72 -8
v -28 56 40
v -16 38 52
v -5 41 52
v -4 38 52
v 4 38 52
v -40 26 24
v -27 22 41
v -32 30 44
v -40 54 0
v -40 18 8
v -22 21 44
v -21 23 44
v -13 30 44
v -16 35 52
v -26 35 48
v -26 37 48
v -7 35 52
v 32 -14 -16
v 16 -34 12
v 20 -19 -28
v 40 14 -8
v 40 -2 4
v 8 -36 36
v -3 -54 14
v 3 -54 14
v 22 -54 -2
v 26 -51 -31
v 6 -50 -40
v -6 -50 -40
v -20 -19 -28
v -32 38 -40
v -32 -14 -16
v -40 14 -8
v -40 22 -4
v -44 18 8
v -40 10 8
v -44 14 -8
v -40 -2 4
v -44 22 -4
v 44 14 -8
v 44 22 -4
v -7 24 44
v -4 22 44
v 0 20 49
v 4 22 44
v 6 22 44
v -15 19 46
v -14 26 46
v -6 22 44
v -6 5 44
v -6 5 47
v 0 11 52
v 6 5 47
v 6 5 44
v -26 -51 -31
v -21 -54 -2
v -12 22 48
v 12 22 48
v 1 -2 49
v -1 -2 49
v 1 -2 52
v -1 -2 52
v 3 0 55
v -3 0 55
v -8 -2 50
v -9 2 50
v -1 5 55
v 8 -2 47
v 9 2 44
v 9 2 47
v 8 -2 50
v 9 2 50
v 1 5 55
v -13 24 46
v -15 24 46
v -16 23 46
v -16 21 46
v -15 20 46
v -13 20 46
v -12 21 46
v -12 23 46
v -13 25 46
v -15 25 46
v -17 23 46
v -17 21 46
v -13 19 46
v -11 21 46
v -11 23 46
v 11 23 46
v 11 21 46
v 13 19 46
v 17 21 46
v 17 23 46
v 15 25 46
v 13 25 46
v 12 23 46
v 12 21 46
v 13 20 46
v 15 20 46
v 16 21 46
v 16 23 46
v 15 24 46
v 13 24 46
vn 733 -342 -1129
vn -35 816 -835
vn 425 870 -602
vn 349 635 -451
vn 539 145 -504
vn 474 -385 -1182
vn 62 -572 -996
vn -733 -583 -1215
vn -390 628 -522
vn -780 1113 -414
vn -429 727 -727
vn 717 820 -463
vn 356 370 213
vn 1005 578 -132
vn 93 284 412
vn 100 17 622
vn 43 658 603
vn 308 664 -446
vn 64 314 404
vn -620 540 194
vn -349 635 -451
vn -539 145 -504
vn -416 -332 -938
vn 0 0 0
vn -598 599 -490
vn -345 267 -257
vn -413 588 -228
vn -345 976 -528
vn 0 704 -182
vn 345 1139 -724
vn 413 588 -228
vn 598 599 -490
vn 345 267 -257
vn 0 0 0
vn 484 469 -178
vn 949 48 -568
vn 419 -167 -786
vn 145 -259 -703
vn -949 -103 -532
vn -595 988 310
vn -812 671 505
vn -392 998 597
vn -267 931 119
vn -217 1115 -376
vn 485 -325 -1055
vn 464 -505 -916
vn 222 -491 -1599
vn 158 -447 -1651
vn 523 -558 -1200
vn 687 -525 -1200
vn 438 -543 -576
vn 361 -1335 -824
vn -222 -598 -1545
vn -136 -254 -1233
vn 136 -280 -1228
vn 114 -146 -1485
vn 312 74 -1558
vn 151 -62 -843
vn 641 123 -1014
vn 634 -416 -1270
vn 944 -334 -626
vn -96 -1025 -179
vn -361 -1425 -667
vn -323 -457 -707
vn -626 -363 -1266
vn -143 -447 -1648
vn -114 -252 -1472
vn -62 -306 -1166
vn 378 -99 -901
vn -405 -964 1052
vn -357 -696 -37
vn 430 -683 162
vn 817 -246 398
vn 715 214 510
vn 622 324 1028
vn -633 -444 467
vn -737 -187 -481
vn -736 -202 -787
vn -97 -169 -911
vn 720 119 -531
vn 539 676 -840
vn 484 642 -698
vn 612 -378 522
vn -262 -1317 909
vn -761 -69 -1008
vn 221 913 -1207
vn 17 993 -770
vn -525 802 -1150
vn -695 28 -882
vn -458 -260 -1255
vn 332 110 -1645
vn 96 -1010 -419
vn -944 -325 -625
vn -562 -688 -1007
vn -562 -453 -954
vn -366 -449 -1021
vn -229 -129 -1137
vn -173 -58 -1399
vn -845 335 -1289
vn -194 639 -399
vn 215 858 -607
vn 363 663 -850
vn 522 486 -1067
vn -488 -254 -995
vn 30 -213 -675
vn 522 474 -882
vn 262 -1063 934
vn 958 -271 -777
vn -332 110 -1645
vn -252 544 -966
vn -772 578 816
vn -612 -378 522
vn -1243 -762 558
vn -419 -173 -787
vn 1243 -762 558
vn 503 -694 884
vn 0 -936 1418
vn -503 -694 884
vn 375 -405 717
vn 672 -1007 803
vn 539 16 -711
vn -327 419 -987
vn -719 552 -959
vn -30 -213 -675
vn 592 -431 -1168
vn 571 182 -953
vn -772 781 -585
vn -570 -40 737
vn -817 -246 398
vn -430 -683 162
vn 357 -696 -37
vn 736 -202 -787
vn -414 969 -1101
vn -153 596 -959
vn 348 -73 -1079
vn 973 176 -1219
vn 525 802 -1150
vn -720 119 -531
vn 695 -339 1560
vn 0 -218 932
vn 929 75 741
vn 563 580 1177
vn 0 298 1378
vn -695 -339 1560
vn 949 872 579
vn -929 75 741
vn -563 580 1177
vn 0 887 875
vn 246 794 546
vn 366 905 157
vn 217 1380 28
vn 194 639 -399
vn -17 993 -770
vn 97 -169 -911
vn -215 858 -607
vn -185 -202 -715
vn -358 -349 -1097
vn -714 -241 -1008
vn -572 -122 -1358
vn -794 285 -317
vn -387 400 -1338
vn 0 0 -719
vn 0 108 -1478
vn -94 376 -1122
vn -130 32 -1529
vn -849 595 -1515
vn -1394 454 -1180
vn -159 -78 -640
vn -194 -354 -1139
vn 1 -230 -957
vn 197 -325 -1130
vn 0 0 -719
vn 387 400 -1338
vn 94 376 -866
vn 130 32 -1529
vn 0 512 -768
vn 0 768 -512
vn -438 730 0
vn -1400 -257 -103
vn -640 -320 -512
vn -178 293 -1940
vn -1079 311 -1230
vn -1467 162 -266
vn -1397 337 -289
vn -1639 1013 -566
vn -372 850 -685
vn 159 -78 -640
vn 1378 494 -1202
vn 630 486 -1442
vn 910 491 -1392
vn 746 219 -875
vn 1587 78 -503
vn 1057 -978 -1045
vn 519 -137 -858
vn 430 73 -930
vn 187 509 -1252
vn 45 502 -1313
vn 624 -218 -1577
vn 720 -24 -1615
vn 1092 283 -1226
vn 1467 162 -266
vn 1024 -245 -337
vn 1322 -430 48
vn 478 -1257 270
vn 0 -1082 -505
vn 0 -860 -2112
vn 362 -297 -1418
vn -83 -133 -1240
vn -139 551 -976
vn 0 888 -2318
vn -347 -199 -1887
vn 113 -475 -1604
vn -44 154 -1720
vn 178 293 -1940
vn 1397 337 -289
vn 984 78 -354
vn 483 -377 -446
vn 757 -635 169
vn 1168 -252 1342
vn 0 -682 690
vn -478 -1257 270
vn -1057 -978 -1045
vn -265 -297 -1687
vn 83 -133 -728
vn 396 69 -1142
vn -396 69 -886
vn -1605 73 -497
vn -726 228 -918
vn -914 467 -1406
vn -1322 -430 48
vn -1024 -245 -337
vn -592 24 -1401
vn -651 -220 -1859
vn -45 502 -1313
vn -284 509 -1239
vn -334 73 -690
vn -615 -137 -1098
vn 139 551 -976
vn 1016 517 366
vn 1615 1239 -827
vn 687 59 1134
vn 729 -12 873
vn 903 536 172
vn 357 641 -725
vn -160 36 -690
vn 156 57 -441
vn 404 35 -224
vn 602 -130 150
vn 105 -133 468
vn -105 -225 706
vn -687 203 1145
vn -1168 -304 1092
vn -1016 517 366
vn -729 -12 873
vn -757 -635 169
vn -483 -377 -446
vn -984 78 -354
vn -979 159 318
vn -903 536 172
vn -256 -479 387
vn 979 159 318
vn 256 -479 387
vn 316 -226 -1636
vn -870 -82 -1509
vn 0 -134 -664
vn 870 -82 -1509
vn -277 7 -1206
vn -84 144 -1714
vn 49 -473 -1598
vn 372 -3 -1457
vn -448 -222 -512
vn -1196 -727 -393
vn 0 -524 -1156
vn 1158 -769 -370
vn 640 -414 -512
vn -604 -113 143
vn -410 56 -226
vn 51 -332 -871
vn -51 -332 -871
vn 0 768 0
vn 0 768 0
vn 36 1215 -274
vn -36 1178 -420
vn 354 649 -1065
vn -354 430 -1175
vn -681 699 -242
vn -666 -198 -389
vn -607 -684 -922
vn 768 704 0
vn 704 -64 -512
vn 1344 -384 0
vn 718 654 -315
vn 894 -353 -469
vn 477 -481 -1155
vn 0 0 -1536
vn 0 0 -256
vn 0 0 -512
vn 0 0 -512
vn 0 0 -512
vn 0 0 -512
vn 0 0 -512
vn 0 0 -256
vn 0 0 -1536
vn 0 0 -256
vn 0 0 -512
vn 0 0 -512
vn 0 0 -512
vn 0 0 -512
vn 0 0 -256
vn 0 0 -1536
vn 0 0 -256
vn 0 0 -512
vn 0 0 -512
vn 0 0 -512
vn 0 0 -512
vn 0 0 -256
vn 0 0 -1536
vn 0 0 -256
vn 0 0 -512
vn 0 0 -512
vn 0 0 -512
vn 0 0 -512
vn 0 0 -512
vn 0 0 -256
usemtl m0
f 1 2 3

usemtl m1
f 1 3 4

usemtl m2
f 1 4 5

usemtl m3
f 1 5 6

usemtl m4
f 1 6 7

usemtl m5
f 1 7 8

usemtl m6
f 1 8 2

usemtl m7
f 2 8 9

usemtl m8
f 2 9 10

usemtl m9
f 2 10 11

usemtl m10
f 2 11 3

usemtl m11
f 3 11 12

usemtl m12
f 3 12 4

usemtl m13
f 4 12 13

usemtl m14
f 13 12 14

usemtl m15
f 13 14 15

usemtl m16
f 13 15 16

usemtl m17
f 16 15 17

usemtl m18
f 16 17 11

usemtl m19
f 16 11 18

usemtl m20
f 16 18 17

usemtl m21
f 16 17 19

usemtl m22
f 19 17 20

usemtl m23
f 19 20 10

usemtl m24
f 19 10 21

usemtl m25
f 21 10 9

usemtl m26
f 21 9 8

usemtl m27
f 21 8 22

usemtl m28
f 22 8 23

usemtl m29
f 22 23 24

usemtl m30
f 22 24 25

usemtl m31
f 22 25 26

usemtl m32
f 26 25 27

usemtl m33
f 27 25 28

usemtl m34
f 27 28 29

usemtl m35
f 29 28 30

usemtl m36
f 29 30 31

usemtl m37
f 31 30 32

usemtl m38
f 31 32 33

usemtl m39
f 33 32 5

usemtl m40
f 5 32 34

usemtl m41
f 5 34 6

usemtl m42
f 5 6 34

usemtl m43
f 5 34 32

usemtl m44
f 32 34 35

usemtl m45
f 32 35 34

usemtl m46
f 34 35 36

usemtl m47
f 34 36 37

usemtl m48
f 34 37 38

usemtl m49
f 34 38 6

usemtl m50
f 34 6 38

usemtl m51
f 34 38 37

usemtl m52
f 34 37 36

usemtl m53
f 34 36 35

usemtl m54
f 35 36 39

usemtl m55
f 35 39 40

usemtl m56
f 40 39 41

usemtl m57
f 40 41 42

usemtl m58
f 40 42 43

usemtl m59
f 40 43 44

usemtl m60
f 40 44 25

usemtl m61
f 40 25 24

usemtl m62
f 40 24 39

usemtl m63
f 40 39 24

usemtl m64
f 40 24 25

usemtl m65
f 40 25 44

usemtl m66
f 45 46 47

usemtl m67
f 45 47 48

usemtl m68
f 45 48 49

usemtl m69
f 45 49 50

usemtl m70
f 45 50 46

usemtl m71
f 46 50 51

usemtl m72
f 46 51 52

usemtl m73
f 46 52 47

usemtl m74
f 47 52 53

usemtl m75
f 47 53 54

usemtl m76
f 47 54 55

usemtl m77
f 47 55 48

usemtl m78
f 48 55 56

usemtl m79
f 48 56 57

usemtl m80
f 48 57 58

usemtl m81
f 48 58 49

usemtl m82
f 49 58 59

usemtl m83
f 49 59 60

usemtl m84
f 49 60 50

usemtl m85
f 50 60 38

usemtl m86
f 50 38 51

usemtl m87
f 51 38 37

usemtl m88
f 51 37 61

usemtl m89
f 51 61 52

usemtl m90
f 52 61 62

usemtl m91
f 52 62 63

usemtl m92
f 52 63 53

usemtl m93
f 53 63 64

usemtl m94
f 53 64 65

usemtl m95
f 53 65 66

usemtl m96
f 53 66 54

usemtl m97
f 54 66 67

usemtl m98
f 54 67 55

usemtl m99
f 55 67 56

usemtl m100
f 56 67 68

usemtl m101
f 56 68 7

usemtl m102
f 56 7 57

usemtl m103
f 57 7 6

usemtl m104
f 57 6 69

usemtl m105
f 57 69 59

usemtl m106
f 57 59 58

usemtl m107
f 70 71 72

usemtl m108
f 70 72 73

usemtl m109
f 70 73 74

usemtl m110
f 70 74 75

usemtl m111
f 70 75 76

usemtl m112
f 70 76 77

usemtl m113
f 70 77 78

usemtl m114
f 70 78 71

usemtl m115
f 71 78 79

usemtl m116
f 71 79 72

usemtl m117
f 72 79 80

usemtl m118
f 72 80 73

usemtl m119
f 73 80 81

usemtl m120
f 73 81 74

usemtl m121
f 74 81 82

usemtl m122
f 74 82 75

usemtl m123
f 75 82 61

usemtl m124
f 75 61 83

usemtl m125
f 75 83 84

usemtl m126
f 75 84 76

usemtl m127
f 76 84 85

usemtl m128
f 76 85 77

usemtl m129
f 77 85 86

usemtl m130
f 77 86 78

usemtl m131
f 78 86 87

usemtl m132
f 78 87 79

usemtl m133
f 79 87 88

usemtl m134
f 79 88 80

usemtl m135
f 80 88 81

usemtl m136
f 81 88 89

usemtl m137
f 81 89 90

usemtl m138
f 81 90 82

usemtl m139
f 82 90 91

usemtl m140
f 82 91 61

usemtl m141
f 61 91 62

usemtl m142
f 62 91 85

usemtl m143
f 62 85 84

usemtl m144
f 62 84 92

usemtl m145
f 62 92 63

usemtl m146
f 63 92 93

usemtl m147
f 63 93 94

usemtl m148
f 63 94 64

usemtl m149
f 64 94 65

usemtl m150
f 65 94 95

usemtl m151
f 65 95 96

usemtl m152
f 65 96 66

usemtl m153
f 66 96 97

usemtl m154
f 66 97 98

usemtl m155
f 66 98 67

usemtl m156
f 67 98 68

usemtl m157
f 68 98 23

usemtl m158
f 68 23 8

usemtl m159
f 68 8 7

usemtl m160
f 99 89 88

usemtl m161
f 99 88 100

usemtl m162
f 99 100 101

usemtl m163
f 99 101 102

usemtl m164
f 99 102 103

usemtl m165
f 99 103 104

usemtl m166
f 99 104 89

usemtl m167
f 89 104 90

usemtl m168
f 90 104 105

usemtl m169
f 90 105 91

usemtl m170
f 91 105 103

usemtl m171
f 91 103 106

usemtl m172
f 91 106 85

usemtl m173
f 85 106 86

usemtl m174
f 86 106 102

usemtl m175
f 86 102 101

usemtl m176
f 86 101 87

usemtl m177
f 87 101 100

usemtl m178
f 87 100 88

usemtl m179
f 84 107 92

usemtl m180
f 92 107 108

usemtl m181
f 92 108 109

usemtl m182
f 92 109 93

usemtl m183
f 93 109 110

usemtl m184
f 93 110 111

usemtl m185
f 93 111 112

usemtl m186
f 93 112 113

usemtl m187
f 93 113 114

usemtl m188
f 93 114 94

usemtl m189
f 93 94 114

usemtl m190
f 93 114 37

usemtl m191
f 93 37 61

usemtl m192
f 61 37 115

usemtl m193
f 61 115 83

usemtl m194
f 83 115 116

usemtl m195
f 83 116 84

usemtl m196
f 84 116 117

usemtl m197
f 84 117 107

usemtl m198
f 107 117 118

usemtl m199
f 107 118 112

usemtl m200
f 107 112 111

usemtl m201
f 107 111 119

usemtl m202
f 107 119 108

usemtl m203
f 108 119 120

usemtl m204
f 108 120 121

usemtl m205
f 108 121 122

usemtl m206
f 108 122 109

usemtl m207
f 109 122 123

usemtl m208
f 109 123 124

usemtl m209
f 109 124 125

usemtl m210
f 109 125 110

usemtl m211
f 110 125 126

usemtl m212
f 110 126 127

usemtl m213
f 110 127 111

usemtl m214
f 111 127 128

usemtl m215
f 111 128 119

usemtl m216
f 119 128 120

usemtl m217
f 120 128 129

usemtl m218
f 120 129 130

usemtl m219
f 120 130 131

usemtl m220
f 120 131 132

usemtl m221
f 120 132 121

usemtl m222
f 121 132 133

usemtl m223
f 121 133 122

usemtl m224
f 122 133 123

usemtl m225
f 123 133 134

usemtl m226
f 123 134 135

usemtl m227
f 123 135 124

usemtl m228
f 124 135 125

usemtl m229
f 125 135 136

usemtl m230
f 125 136 126

usemtl m231
f 126 136 137

usemtl m232
f 126 137 127

usemtl m233
f 127 137 138

usemtl m234
f 127 138 129

usemtl m235
f 127 129 128

usemtl m236
f 139 140 117

usemtl m237
f 139 117 116

usemtl m238
f 139 116 115

usemtl m239
f 139 115 141

usemtl m240
f 139 141 142

usemtl m241
f 139 142 143

usemtl m242
f 139 143 140

usemtl m243
f 140 143 144

usemtl m244
f 140 144 117

usemtl m245
f 117 144 118

usemtl m246
f 118 144 113

usemtl m247
f 118 113 112

usemtl m248
f 35 145 36

usemtl m249
f 36 145 141

usemtl m250
f 36 141 115

usemtl m251
f 36 115 37

usemtl m252
f 36 37 114

usemtl m253
f 36 114 39

usemtl m254
f 39 114 113

usemtl m255
f 39 113 146

usemtl m256
f 39 146 41

usemtl m257
f 41 146 147

usemtl m258
f 41 147 42

usemtl m259
f 42 147 148

usemtl m260
f 42 148 149

usemtl m261
f 149 148 142

usemtl m262
f 149 142 145

usemtl m263
f 149 145 150

usemtl m264
f 150 145 35

usemtl m265
f 150 35 151

usemtl m266
f 150 151 43

usemtl m267
f 43 151 44

usemtl m268
f 44 151 30

usemtl m269
f 44 30 28

usemtl m270
f 44 28 25

usemtl m271
f 141 145 142

usemtl m272
f 6 38 60

usemtl m273
f 6 60 69

usemtl m274
f 69 60 59

usemtl m275
f 151 32 30

usemtl m276
f 32 151 35

usemtl m277
f 32 35 151

usemtl m278
f 14 18 17

usemtl m279
f 14 17 15

usemtl m280
f 11 17 18

usemtl m281
f 11 18 12

usemtl m282
f 12 18 14

usemtl m283
f 104 103 105

usemtl m284
f 106 103 102

usemtl m285
f 136 152 137

usemtl m286
f 137 152 153

usemtl m287
f 137 153 154

usemtl m288
f 137 154 138

usemtl m289
f 138 154 130

usemtl m290
f 138 130 129

usemtl m291
f 155 153 152

usemtl m292
f 155 152 136

usemtl m293
f 155 136 134

usemtl m294
f 155 134 133

usemtl m295
f 155 133 153

usemtl m296
f 153 133 132

usemtl m297
f 153 132 154

usemtl m298
f 154 132 131

usemtl m299
f 154 131 130

usemtl m300
f 146 144 147

usemtl m301
f 147 144 143

usemtl m302
f 147 143 148

usemtl m303
f 148 143 142

usemtl m304
f 94 156 157

usemtl m305
f 94 157 95

usemtl m306
f 95 157 158

usemtl m307
f 95 158 96

usemtl m308
f 96 158 97

usemtl m309
f 97 158 159

usemtl m310
f 97 159 98

usemtl m311
f 98 159 23

usemtl m312
f 23 159 156

usemtl m313
f 23 156 24

usemtl m314
f 23 24 156

usemtl m315
f 156 24 114

usemtl m316
f 156 114 24

usemtl m317
f 24 114 39

usemtl m318
f 24 39 114

usemtl m319
f 156 159 157

usemtl m320
f 157 159 158

usemtl m321
f 18 160 20

usemtl m322
f 18 20 17

usemtl m323
f 11 10 160

usemtl m324
f 11 160 18

usemtl m325
f 10 20 160

usemtl m326
f 135 134 136

usemtl m327
f 114 156 94

usemtl m328
f 114 94 156

usemtl m329
f 144 146 113

usemtl m330
f 62 61 93

usemtl m331
f 62 93 92

usemtl m332
f 151 44 40

usemtl m333
f 151 40 35

usemtl m334
f 51 61 37

usemtl m335
f 51 37 38

usemtl m336
f 22 24 23

usemtl m337
f 24 22 25

usemtl m338
f 161 162 163

usemtl m339
f 161 163 164

usemtl m340
f 161 164 165

usemtl m341
f 161 165 166

usemtl m342
f 161 166 167

usemtl m343
f 161 167 168

usemtl m344
f 161 168 162

usemtl m345
f 162 168 169

usemtl m346
f 162 169 163

usemtl m347
f 163 169 170

usemtl m348
f 163 170 171

usemtl m349
f 163 171 172

usemtl m350
f 163 172 173

usemtl m351
f 163 173 174

usemtl m352
f 163 174 164

usemtl m353
f 164 174 175

usemtl m354
f 164 175 165

usemtl m355
f 165 175 176

usemtl m356
f 165 176 177

usemtl m357
f 165 177 166

usemtl m358
f 166 177 178

usemtl m359
f 166 178 179

usemtl m360
f 166 179 180

usemtl m361
f 166 180 181

usemtl m362
f 166 181 182

usemtl m363
f 166 182 167

usemtl m364
f 167 182 183

usemtl m365
f 167 183 184

usemtl m366
f 167 184 185

usemtl m367
f 167 185 186

usemtl m368
f 167 186 169

usemtl m369
f 167 169 168

usemtl m370
f 187 173 172

usemtl m371
f 187 172 171

usemtl m372
f 187 171 188

usemtl m373
f 187 188 173

usemtl m374
f 173 188 189

usemtl m375
f 173 189 175

usemtl m376
f 173 175 174

usemtl m377
f 190 191 192

usemtl m378
f 190 192 193

usemtl m379
f 190 193 194

usemtl m380
f 190 194 195

usemtl m381
f 190 195 196

usemtl m382
f 190 196 197

usemtl m383
f 190 197 198

usemtl m384
f 190 198 191

usemtl m385
f 191 198 199

usemtl m386
f 191 199 200

usemtl m387
f 191 200 192

usemtl m388
f 192 200 201

usemtl m389
f 192 201 202

usemtl m390
f 192 202 203

usemtl m391
f 192 203 193

usemtl m392
f 193 203 204

usemtl m393
f 193 204 205

usemtl m394
f 193 205 206

usemtl m395
f 193 206 207

usemtl m396
f 193 207 194

usemtl m397
f 194 207 195

usemtl m398
f 195 207 196

usemtl m399
f 196 207 208

usemtl m400
f 196 208 209

usemtl m401
f 196 209 197

usemtl m402
f 197 209 210

usemtl m403
f 197 210 211

usemtl m404
f 197 211 212

usemtl m405
f 197 212 198

usemtl m406
f 198 212 199

usemtl m407
f 199 212 213

usemtl m408
f 199 213 214

usemtl m409
f 199 214 200

usemtl m410
f 200 214 189

usemtl m411
f 200 189 188

usemtl m412
f 200 188 201

usemtl m413
f 201 188 215

usemtl m414
f 201 215 216

usemtl m415
f 201 216 202

usemtl m416
f 202 216 217

usemtl m417
f 202 217 218

usemtl m418
f 202 218 203

usemtl m419
f 203 218 219

usemtl m420
f 203 219 204

usemtl m421
f 204 219 220

usemtl m422
f 204 220 221

usemtl m423
f 204 221 205

usemtl m424
f 205 221 222

usemtl m425
f 205 222 206

usemtl m426
f 206 222 223

usemtl m427
f 206 223 224

usemtl m428
f 206 224 225

usemtl m429
f 206 225 210

usemtl m430
f 206 210 226

usemtl m431
f 206 226 208

usemtl m432
f 206 208 207

usemtl m433
f 227 228 229

usemtl m434
f 227 229 222

usemtl m435
f 227 222 230

usemtl m436
f 227 230 231

usemtl m437
f 227 231 183

usemtl m438
f 227 183 182

usemtl m439
f 227 182 228

usemtl m440
f 228 182 232

usemtl m441
f 228 232 233

usemtl m442
f 228 233 229

usemtl m443
f 229 233 234

usemtl m444
f 229 234 235

usemtl m445
f 229 235 236

usemtl m446
f 229 236 237

usemtl m447
f 229 237 222

usemtl m448
f 222 237 223

usemtl m449
f 223 237 235

usemtl m450
f 223 235 238

usemtl m451
f 223 238 225

usemtl m452
f 223 225 224

usemtl m453
f 239 240 241

usemtl m454
f 239 241 219

usemtl m455
f 239 219 242

usemtl m456
f 239 242 243

usemtl m457
f 239 243 240

usemtl m458
f 240 243 215

usemtl m459
f 240 215 188

usemtl m460
f 240 188 244

usemtl m461
f 240 244 186

usemtl m462
f 240 186 185

usemtl m463
f 240 185 245

usemtl m464
f 240 245 246

usemtl m465
f 240 246 247

usemtl m466
f 240 247 248

usemtl m467
f 240 248 241

usemtl m468
f 241 248 249

usemtl m469
f 241 249 250

usemtl m470
f 241 250 251

usemtl m471
f 241 251 219

usemtl m472
f 219 251 252

usemtl m473
f 219 252 220

usemtl m474
f 220 252 221

usemtl m475
f 221 252 230

usemtl m476
f 221 230 222

usemtl m477
f 251 185 253

usemtl m478
f 251 253 252

usemtl m479
f 252 253 254

usemtl m480
f 252 254 255

usemtl m481
f 252 255 230

usemtl m482
f 230 255 231

usemtl m483
f 231 255 256

usemtl m484
f 231 256 257

usemtl m485
f 231 257 183

usemtl m486
f 183 257 184

usemtl m487
f 184 257 258

usemtl m488
f 184 258 259

usemtl m489
f 184 259 185

usemtl m490
f 185 259 253

usemtl m491
f 253 259 254

usemtl m492
f 254 259 258

usemtl m493
f 254 258 260

usemtl m494
f 254 260 255

usemtl m495
f 255 260 256

usemtl m496
f 256 260 258

usemtl m497
f 256 258 257

usemtl m498
f 217 261 262

usemtl m499
f 217 262 218

usemtl m500
f 218 262 242

usemtl m501
f 218 242 219

usemtl m502
f 261 217 216

usemtl m503
f 261 216 215

usemtl m504
f 261 215 243

usemtl m505
f 261 243 242

usemtl m506
f 261 242 262

usemtl m507
f 208 226 209

usemtl m508
f 209 226 210

usemtl m509
f 237 236 235

usemtl m510
f 210 225 238

usemtl m511
f 210 238 234

usemtl m512
f 210 234 263

usemtl m513
f 210 263 264

usemtl m514
f 210 264 265

usemtl m515
f 210 265 266

usemtl m516
f 210 266 211

usemtl m517
f 211 266 267

usemtl m518
f 211 267 213

usemtl m519
f 211 213 212

usemtl m520
f 233 232 268

usemtl m521
f 233 268 269

usemtl m522
f 233 269 234

usemtl m523
f 234 269 263

usemtl m524
f 263 269 270

usemtl m525
f 263 270 264

usemtl m526
f 264 270 181

usemtl m527
f 264 181 271

usemtl m528
f 264 271 272

usemtl m529
f 264 272 273

usemtl m530
f 264 273 265

usemtl m531
f 265 273 266

usemtl m532
f 266 273 274

usemtl m533
f 266 274 275

usemtl m534
f 266 275 214

usemtl m535
f 266 214 267

usemtl m536
f 267 214 213

usemtl m537
f 269 268 270

usemtl m538
f 270 268 181

usemtl m539
f 181 268 232

usemtl m540
f 181 232 182

usemtl m541
f 185 276 277

usemtl m542
f 185 277 245

usemtl m543
f 185 251 276

usemtl m544
f 276 251 250

usemtl m545
f 269 233 278

usemtl m546
f 269 278 263

usemtl m547
f 263 278 270

usemtl m548
f 233 232 278

usemtl m549
f 279 198 212

usemtl m550
f 279 212 211

usemtl m551
f 279 211 267

usemtl m552
f 279 199 198

usemtl m553
f 177 176 280

usemtl m554
f 177 280 281

usemtl m555
f 281 280 282

usemtl m556
f 281 282 283

usemtl m557
f 283 282 284

usemtl m558
f 283 284 285

usemtl m559
f 283 285 286

usemtl m560
f 283 286 178

usemtl m561
f 178 286 179

usemtl m562
f 179 286 287

usemtl m563
f 179 287 288

usemtl m564
f 179 288 272

usemtl m565
f 179 272 180

usemtl m566
f 180 272 271

usemtl m567
f 180 271 181

usemtl m568
f 176 189 289

usemtl m569
f 289 189 290

usemtl m570
f 289 290 291

usemtl m571
f 289 291 292

usemtl m572
f 289 292 282

usemtl m573
f 282 292 284

usemtl m574
f 284 292 293

usemtl m575
f 284 293 294

usemtl m576
f 284 294 285

usemtl m577
f 285 294 288

usemtl m578
f 285 288 287

usemtl m579
f 285 287 286

usemtl m580
f 290 189 214

usemtl m581
f 290 214 275

usemtl m582
f 290 275 291

usemtl m583
f 291 275 274

usemtl m584
f 291 274 293

usemtl m585
f 291 293 292

usemtl m586
f 274 294 293

usemtl m587
f 294 274 273

usemtl m588
f 294 273 288

usemtl m589
f 288 273 272

usemtl m590
f 238 235 234

usemtl m591
f 189 176 175

usemtl m592
f 186 170 169

usemtl m593
f 170 186 244

usemtl m594
f 170 244 171

usemtl m595
f 171 244 188

usemtl m596
f 295 296 297

usemtl m597
f 295 297 298

usemtl m598
f 295 298 299

usemtl m599
f 295 299 300

usemtl m600
f 295 300 301

usemtl m601
f 295 301 302

usemtl m602
f 303 304 305

usemtl m603
f 303 305 306

usemtl m604
f 303 306 268

usemtl m605
f 303 268 307

usemtl m606
f 303 307 308

usemtl m607
f 303 308 309

usemtl m608
f 310 311 312

usemtl m609
f 310 312 213

usemtl m610
f 310 213 313

usemtl m611
f 310 313 314

usemtl m612
f 310 314 315

usemtl m613
f 310 315 316

usemtl m614
f 317 318 319

usemtl m615
f 317 319 320

usemtl m616
f 317 320 321

usemtl m617
f 317 321 322

usemtl m618
f 317 322 323

usemtl m619
f 317 323 324

