newmtl m0
Kd 0.08627450980392157 0.07450980392156863 0.07450980392156863
newmtl m1
Kd 0.08627450980392157 0.07450980392156863 0.07450980392156863
newmtl m2
Kd 0.08627450980392157 0.07450980392156863 0.07450980392156863
newmtl m3
Kd 0.08627450980392157 0.07450980392156863 0.07450980392156863
newmtl m4
Kd 0.08627450980392157 0.07450980392156863 0.07450980392156863
newmtl m5
Kd 0.12156862745098039 0.10980392156862745 0.10980392156862745
newmtl m6
Kd 0.12156862745098039 0.10980392156862745 0.10980392156862745
newmtl m7
Kd 0.12156862745098039 0.10980392156862745 0.10980392156862745
newmtl m8
Kd 0.1607843137254902 0.1450980392156863 0.1450980392156863
newmtl m9
Kd 0.1607843137254902 0.1450980392156863 0.1450980392156863
newmtl m10
Kd 0.1607843137254902 0.1450980392156863 0.1450980392156863
newmtl m11
Kd 0.1607843137254902 0.1450980392156863 0.1450980392156863
newmtl m12
Kd 0.1607843137254902 0.1450980392156863 0.1450980392156863
newmtl m13
Kd 0.1607843137254902 0.1450980392156863 0.1450980392156863
newmtl m14
Kd 0.1607843137254902 0.1450980392156863 0.1450980392156863
newmtl m15
Kd 0.1607843137254902 0.1450980392156863 0.1450980392156863
newmtl m16
Kd 0.1607843137254902 0.1450980392156863 0.1450980392156863
newmtl m17
Kd 0.1607843137254902 0.1450980392156863 0.1450980392156863
newmtl m18
Kd 0.1607843137254902 0.1450980392156863 0.1450980392156863
newmtl m19
Kd 0.1607843137254902 0.1450980392156863 0.1450980392156863
newmtl m20
Kd 0.1607843137254902 0.1450980392156863 0.1450980392156863
newmtl m21
Kd 0.1607843137254902 0.1450980392156863 0.1450980392156863
newmtl m22
Kd 0.1607843137254902 0.1450980392156863 0.1450980392156863
newmtl m23
Kd 0.1607843137254902 0.1450980392156863 0.1450980392156863
newmtl m24
Kd 0.1607843137254902 0.1450980392156863 0.1450980392156863
newmtl m25
Kd 0.1607843137254902 0.1450980392156863 0.1450980392156863
newmtl m26
Kd 0.1607843137254902 0.1450980392156863 0.1450980392156863
newmtl m27
Kd 0.1607843137254902 0.1450980392156863 0.1450980392156863
newmtl m28
Kd 0.1607843137254902 0.1450980392156863 0.1450980392156863
newmtl m29
Kd 0.1607843137254902 0.1450980392156863 0.1450980392156863
newmtl m30
Kd 0.1607843137254902 0.1450980392156863 0.1450980392156863
newmtl m31
Kd 0.1607843137254902 0.1450980392156863 0.1450980392156863
newmtl m32
Kd 0.1607843137254902 0.1450980392156863 0.1450980392156863
newmtl m33
Kd 0.44313725490196076 0.396078431372549 0.39215686274509803
newmtl m34
Kd 0.23137254901960785 0.20784313725490197 0.20784313725490197
newmtl m35
Kd 0.23137254901960785 0.20784313725490197 0.20784313725490197
newmtl m36
Kd 0.23137254901960785 0.20784313725490197 0.20784313725490197
newmtl m37
Kd 0.23137254901960785 0.20784313725490197 0.20784313725490197
newmtl m38
Kd 0.23137254901960785 0.20784313725490197 0.20784313725490197
newmtl m39
Kd 0.23137254901960785 0.20784313725490197 0.20784313725490197
newmtl m40
Kd 0.23137254901960785 0.20784313725490197 0.20784313725490197
newmtl m41
Kd 0.23137254901960785 0.20784313725490197 0.20784313725490197
newmtl m42
Kd 0.23137254901960785 0.20784313725490197 0.20784313725490197
newmtl m43
Kd 0.44313725490196076 0.396078431372549 0.39215686274509803
newmtl m44
Kd 0.44313725490196076 0.396078431372549 0.39215686274509803
newmtl m45
Kd 0.44313725490196076 0.396078431372549 0.39215686274509803
newmtl m46
Kd 0.44313725490196076 0.396078431372549 0.39215686274509803
newmtl m47
Kd 0.44313725490196076 0.396078431372549 0.39215686274509803
newmtl m48
Kd 0.44313725490196076 0.396078431372549 0.39215686274509803
newmtl m49
Kd 0.44313725490196076 0.396078431372549 0.39215686274509803
newmtl m50
Kd 0.44313725490196076 0.396078431372549 0.39215686274509803
newmtl m51
Kd 0.44313725490196076 0.396078431372549 0.39215686274509803
newmtl m52
Kd 0.23137254901960785 0.20784313725490197 0.20784313725490197
newmtl m53
Kd 0.23137254901960785 0.20784313725490197 0.20784313725490197
newmtl m54
Kd 0.08627450980392157 0.07450980392156863 0.07450980392156863
newmtl m55
Kd 0.08627450980392157 0.07450980392156863 0.07450980392156863
newmtl m56
Kd 0.08627450980392157 0.07450980392156863 0.07450980392156863
newmtl m57
Kd 0.08627450980392157 0.07450980392156863 0.07450980392156863
newmtl m58
Kd 0.08627450980392157 0.07450980392156863 0.07450980392156863
newmtl m59
Kd 0.08627450980392157 0.07450980392156863 0.07450980392156863
newmtl m60
Kd 0.08627450980392157 0.07450980392156863 0.07450980392156863
newmtl m61
Kd 0.08627450980392157 0.07450980392156863 0.07450980392156863
newmtl m62
Kd 0.08627450980392157 0.07450980392156863 0.07450980392156863
newmtl m63
Kd 0.08627450980392157 0.07450980392156863 0.07450980392156863
newmtl m64
Kd 0.08627450980392157 0.07450980392156863 0.07450980392156863
newmtl m65
Kd 0.44313725490196076 0.396078431372549 0.39215686274509803
