newmtl m0
Kd 0.7254901960784313 0.6470588235294118 0.4627450980392157
newmtl m1
Kd 0.7254901960784313 0.6470588235294118 0.4627450980392157
newmtl m2
Kd 0.7254901960784313 0.6470588235294118 0.4627450980392157
newmtl m3
Kd 0.7254901960784313 0.6470588235294118 0.4627450980392157
newmtl m4
Kd 0.7254901960784313 0.6470588235294118 0.4627450980392157
newmtl m5
Kd 0.7254901960784313 0.6470588235294118 0.4627450980392157
newmtl m6
Kd 0.7254901960784313 0.6470588235294118 0.4627450980392157
newmtl m7
Kd 0.7254901960784313 0.6470588235294118 0.4627450980392157
