newmtl m0
Kd 0.43137254901960786 0.9568627450980393 0.984313725490196
newmtl m1
Kd 0.011764705882352941 0.26666666666666666 0.2784313725490196
newmtl m2
Kd 0.011764705882352941 0.26666666666666666 0.2784313725490196
newmtl m3
Kd 0.011764705882352941 0.26666666666666666 0.2784313725490196
newmtl m4
Kd 0.43137254901960786 0.9568627450980393 0.984313725490196
newmtl m5
Kd 0.43137254901960786 0.9568627450980393 0.984313725490196
newmtl m6
Kd 0.43137254901960786 0.9568627450980393 0.984313725490196
newmtl m7
Kd 0.43137254901960786 0.9568627450980393 0.984313725490196
newmtl m8
Kd 0.43137254901960786 0.9568627450980393 0.984313725490196
newmtl m9
Kd 0.43137254901960786 0.9568627450980393 0.984313725490196
newmtl m10
Kd 0.011764705882352941 0.26666666666666666 0.2784313725490196
newmtl m11
Kd 0.011764705882352941 0.26666666666666666 0.2784313725490196
newmtl m12
Kd 0.023529411764705882 0.5176470588235295 0.592156862745098
d 0.09803921568627451
newmtl m13
Kd 0.023529411764705882 0.5176470588235295 0.592156862745098
d 0.09803921568627451
newmtl m14
Kd 0.023529411764705882 0.5176470588235295 0.592156862745098
d 0.09803921568627451
newmtl m15
Kd 0.023529411764705882 0.5176470588235295 0.592156862745098
d 0.09803921568627451
newmtl m16
Kd 0.023529411764705882 0.5176470588235295 0.592156862745098
d 0.09803921568627451
newmtl m17
Kd 0.011764705882352941 0.26666666666666666 0.2784313725490196
newmtl m18
Kd 0.011764705882352941 0.26666666666666666 0.2784313725490196
newmtl m19
Kd 0.43137254901960786 0.9568627450980393 0.984313725490196
newmtl m20
Kd 0.43137254901960786 0.9568627450980393 0.984313725490196
newmtl m21
Kd 0.43137254901960786 0.9568627450980393 0.984313725490196
newmtl m22
Kd 0.43137254901960786 0.9568627450980393 0.984313725490196
newmtl m23
Kd 0.43137254901960786 0.9568627450980393 0.984313725490196
newmtl m24
Kd 0.43137254901960786 0.9568627450980393 0.984313725490196
newmtl m25
Kd 0.43137254901960786 0.9568627450980393 0.984313725490196
newmtl m26
Kd 0.011764705882352941 0.26666666666666666 0.2784313725490196
newmtl m27
Kd 0.011764705882352941 0.26666666666666666 0.2784313725490196
newmtl m28
Kd 0.023529411764705882 0.5176470588235295 0.592156862745098
d 0.09803921568627451
newmtl m29
Kd 0.023529411764705882 0.5176470588235295 0.592156862745098
d 0.09803921568627451
newmtl m30
Kd 0.023529411764705882 0.5176470588235295 0.592156862745098
d 0.09803921568627451
newmtl m31
Kd 0.023529411764705882 0.5176470588235295 0.592156862745098
d 0.09803921568627451
newmtl m32
Kd 0.023529411764705882 0.5176470588235295 0.592156862745098
d 0.09803921568627451
newmtl m33
Kd 0.023529411764705882 0.5176470588235295 0.592156862745098
d 0.09803921568627451
newmtl m34
Kd 0.023529411764705882 0.5176470588235295 0.592156862745098
d 0.09803921568627451
newmtl m35
Kd 0.023529411764705882 0.5176470588235295 0.592156862745098
d 0.09803921568627451
newmtl m36
Kd 0.011764705882352941 0.26666666666666666 0.2784313725490196
newmtl m37
Kd 0.011764705882352941 0.26666666666666666 0.2784313725490196
newmtl m38
Kd 0.011764705882352941 0.26666666666666666 0.2784313725490196
newmtl m39
Kd 0.43137254901960786 0.9568627450980393 0.984313725490196
newmtl m40
Kd 0.43137254901960786 0.9568627450980393 0.984313725490196
newmtl m41
Kd 0.43137254901960786 0.9568627450980393 0.984313725490196
newmtl m42
Kd 0.43137254901960786 0.9568627450980393 0.984313725490196
newmtl m43
Kd 0.011764705882352941 0.26666666666666666 0.2784313725490196
newmtl m44
Kd 0.011764705882352941 0.26666666666666666 0.2784313725490196
newmtl m45
Kd 0.00392156862745098 0.16862745098039217 0.17647058823529413
newmtl m46
Kd 0.00392156862745098 0.16862745098039217 0.17647058823529413
newmtl m47
Kd 0.00392156862745098 0.16862745098039217 0.17647058823529413
newmtl m48
Kd 0.00392156862745098 0.16862745098039217 0.17647058823529413
newmtl m49
Kd 0.00392156862745098 0.16862745098039217 0.17647058823529413
newmtl m50
Kd 0.00392156862745098 0.16862745098039217 0.17647058823529413
newmtl m51
Kd 0.00392156862745098 0.16862745098039217 0.17647058823529413
newmtl m52
Kd 0.00392156862745098 0.16862745098039217 0.17647058823529413
newmtl m53
Kd 0.00392156862745098 0.16862745098039217 0.17647058823529413
newmtl m54
Kd 0.00392156862745098 0.16862745098039217 0.17647058823529413
newmtl m55
Kd 0.00392156862745098 0.16862745098039217 0.17647058823529413
newmtl m56
Kd 0.00392156862745098 0.16862745098039217 0.17647058823529413
newmtl m57
Kd 0.00392156862745098 0.16862745098039217 0.17647058823529413
newmtl m58
Kd 0.00392156862745098 0.16862745098039217 0.17647058823529413
newmtl m59
Kd 0.011764705882352941 0.26666666666666666 0.2784313725490196
newmtl m60
Kd 0.011764705882352941 0.26666666666666666 0.2784313725490196
newmtl m61
Kd 0.023529411764705882 0.5176470588235295 0.592156862745098
d 0.09803921568627451
newmtl m62
Kd 0.023529411764705882 0.5176470588235295 0.592156862745098
d 0.09803921568627451
newmtl m63
Kd 0.023529411764705882 0.5176470588235295 0.592156862745098
d 0.09803921568627451
newmtl m64
Kd 0.023529411764705882 0.5176470588235295 0.592156862745098
d 0.09803921568627451
newmtl m65
Kd 0.023529411764705882 0.5176470588235295 0.592156862745098
d 0.09803921568627451
newmtl m66
Kd 0.08627450980392157 0.07450980392156863 0.07450980392156863
newmtl m67
Kd 0.08627450980392157 0.07450980392156863 0.07450980392156863
newmtl m68
Kd 0.08627450980392157 0.07450980392156863 0.07450980392156863
newmtl m69
Kd 0.00392156862745098 0.16862745098039217 0.17647058823529413
newmtl m70
Kd 0.00392156862745098 0.16862745098039217 0.17647058823529413
newmtl m71
Kd 0.00392156862745098 0.16862745098039217 0.17647058823529413
newmtl m72
Kd 0.023529411764705882 0.5176470588235295 0.592156862745098
d 0.09803921568627451
newmtl m73
Kd 0.023529411764705882 0.5176470588235295 0.592156862745098
d 0.09803921568627451
newmtl m74
Kd 0.023529411764705882 0.5176470588235295 0.592156862745098
d 0.09803921568627451
newmtl m75
Kd 0.023529411764705882 0.5176470588235295 0.592156862745098
d 0.09803921568627451
newmtl m76
Kd 0.00392156862745098 0.16862745098039217 0.17647058823529413
newmtl m77
Kd 0.00392156862745098 0.16862745098039217 0.17647058823529413
newmtl m78
Kd 0.43137254901960786 0.9568627450980393 0.984313725490196
newmtl m79
Kd 0.43137254901960786 0.9568627450980393 0.984313725490196
newmtl m80
Kd 0.43137254901960786 0.9568627450980393 0.984313725490196
newmtl m81
Kd 0.43137254901960786 0.9568627450980393 0.984313725490196
newmtl m82
Kd 0.43137254901960786 0.9568627450980393 0.984313725490196
newmtl m83
Kd 0.00392156862745098 0.16862745098039217 0.17647058823529413
newmtl m84
Kd 0.011764705882352941 0.26666666666666666 0.2784313725490196
newmtl m85
Kd 0.12156862745098039 0.10980392156862745 0.10980392156862745
newmtl m86
Kd 0.12156862745098039 0.10980392156862745 0.10980392156862745
newmtl m87
Kd 0.10980392156862745 0.15294117647058825 0.1568627450980392
newmtl m88
Kd 0.10980392156862745 0.15294117647058825 0.1568627450980392
newmtl m89
Kd 0.08627450980392157 0.07450980392156863 0.07450980392156863
newmtl m90
Kd 0.08627450980392157 0.07450980392156863 0.07450980392156863
newmtl m91
Kd 0.12156862745098039 0.10980392156862745 0.10980392156862745
newmtl m92
Kd 0.12156862745098039 0.10980392156862745 0.10980392156862745
newmtl m93
Kd 0.12156862745098039 0.10980392156862745 0.10980392156862745
newmtl m94
Kd 0.12156862745098039 0.10980392156862745 0.10980392156862745
newmtl m95
Kd 0.12156862745098039 0.10980392156862745 0.10980392156862745
newmtl m96
Kd 0.12156862745098039 0.10980392156862745 0.10980392156862745
newmtl m97
Kd 0.08627450980392157 0.07450980392156863 0.07450980392156863
newmtl m98
Kd 0.08627450980392157 0.07450980392156863 0.07450980392156863
newmtl m99
Kd 0.08627450980392157 0.07450980392156863 0.07450980392156863
newmtl m100
Kd 0.08627450980392157 0.07450980392156863 0.07450980392156863
newmtl m101
Kd 0.00392156862745098 0.16862745098039217 0.17647058823529413
newmtl m102
Kd 0.00392156862745098 0.16862745098039217 0.17647058823529413
newmtl m103
Kd 0.43137254901960786 0.9568627450980393 0.984313725490196
newmtl m104
Kd 0.43137254901960786 0.9568627450980393 0.984313725490196
newmtl m105
Kd 0.011764705882352941 0.26666666666666666 0.2784313725490196
newmtl m106
Kd 0.011764705882352941 0.26666666666666666 0.2784313725490196
newmtl m107
Kd 0.011764705882352941 0.26666666666666666 0.2784313725490196
newmtl m108
Kd 0.011764705882352941 0.26666666666666666 0.2784313725490196
newmtl m109
Kd 0.011764705882352941 0.26666666666666666 0.2784313725490196
newmtl m110
Kd 0.011764705882352941 0.26666666666666666 0.2784313725490196
newmtl m111
Kd 0.011764705882352941 0.26666666666666666 0.2784313725490196
newmtl m112
Kd 0.08627450980392157 0.07450980392156863 0.07450980392156863
newmtl m113
Kd 0.08627450980392157 0.07450980392156863 0.07450980392156863
newmtl m114
Kd 0.08627450980392157 0.07450980392156863 0.07450980392156863
newmtl m115
Kd 0.08627450980392157 0.07450980392156863 0.07450980392156863
newmtl m116
Kd 0.08627450980392157 0.07450980392156863 0.07450980392156863
newmtl m117
Kd 0.00392156862745098 0.16862745098039217 0.17647058823529413
newmtl m118
Kd 0.00392156862745098 0.16862745098039217 0.17647058823529413
newmtl m119
Kd 0.43137254901960786 0.9568627450980393 0.984313725490196
newmtl m120
Kd 0.43137254901960786 0.9568627450980393 0.984313725490196
newmtl m121
Kd 0.011764705882352941 0.26666666666666666 0.2784313725490196
newmtl m122
Kd 0.011764705882352941 0.26666666666666666 0.2784313725490196
newmtl m123
Kd 0.023529411764705882 0.5176470588235295 0.592156862745098
d 0.09803921568627451
newmtl m124
Kd 0.023529411764705882 0.5176470588235295 0.592156862745098
d 0.09803921568627451
newmtl m125
Kd 0.023529411764705882 0.5176470588235295 0.592156862745098
d 0.09803921568627451
newmtl m126
Kd 0.023529411764705882 0.5176470588235295 0.592156862745098
d 0.09803921568627451
newmtl m127
Kd 0.023529411764705882 0.5176470588235295 0.592156862745098
d 0.09803921568627451
newmtl m128
Kd 0.12156862745098039 0.10980392156862745 0.10980392156862745
newmtl m129
Kd 0.08627450980392157 0.07450980392156863 0.07450980392156863
newmtl m130
Kd 0.08627450980392157 0.07450980392156863 0.07450980392156863
newmtl m131
Kd 0.08627450980392157 0.07450980392156863 0.07450980392156863
newmtl m132
Kd 0.08627450980392157 0.07450980392156863 0.07450980392156863
newmtl m133
Kd 0.12156862745098039 0.10980392156862745 0.10980392156862745
newmtl m134
Kd 0.12156862745098039 0.10980392156862745 0.10980392156862745
newmtl m135
Kd 0.12156862745098039 0.10980392156862745 0.10980392156862745
newmtl m136
Kd 0.10980392156862745 0.15294117647058825 0.1568627450980392
newmtl m137
Kd 0.10980392156862745 0.15294117647058825 0.1568627450980392
newmtl m138
Kd 0.08627450980392157 0.07450980392156863 0.07450980392156863
newmtl m139
Kd 0.08627450980392157 0.07450980392156863 0.07450980392156863
newmtl m140
Kd 0.12156862745098039 0.10980392156862745 0.10980392156862745
newmtl m141
Kd 0.12156862745098039 0.10980392156862745 0.10980392156862745
newmtl m142
Kd 0.12156862745098039 0.10980392156862745 0.10980392156862745
newmtl m143
Kd 0.12156862745098039 0.10980392156862745 0.10980392156862745
newmtl m144
Kd 0.12156862745098039 0.10980392156862745 0.10980392156862745
newmtl m145
Kd 0.12156862745098039 0.10980392156862745 0.10980392156862745
newmtl m146
Kd 0.00392156862745098 0.16862745098039217 0.17647058823529413
newmtl m147
Kd 0.00392156862745098 0.16862745098039217 0.17647058823529413
newmtl m148
Kd 0.12156862745098039 0.10980392156862745 0.10980392156862745
newmtl m149
Kd 0.12156862745098039 0.10980392156862745 0.10980392156862745
newmtl m150
Kd 0.12156862745098039 0.10980392156862745 0.10980392156862745
newmtl m151
Kd 0.00392156862745098 0.16862745098039217 0.17647058823529413
newmtl m152
Kd 0.08627450980392157 0.07450980392156863 0.07450980392156863
newmtl m153
Kd 0.08627450980392157 0.07450980392156863 0.07450980392156863
newmtl m154
Kd 0.08627450980392157 0.07450980392156863 0.07450980392156863
newmtl m155
Kd 0.08627450980392157 0.07450980392156863 0.07450980392156863
newmtl m156
Kd 0.08627450980392157 0.07450980392156863 0.07450980392156863
newmtl m157
Kd 0.08627450980392157 0.07450980392156863 0.07450980392156863
newmtl m158
Kd 0.08627450980392157 0.07450980392156863 0.07450980392156863
newmtl m159
Kd 0.08627450980392157 0.07450980392156863 0.07450980392156863
newmtl m160
Kd 0.08627450980392157 0.07450980392156863 0.07450980392156863
newmtl m161
Kd 0.08627450980392157 0.07450980392156863 0.07450980392156863
newmtl m162
Kd 0.08627450980392157 0.07450980392156863 0.07450980392156863
newmtl m163
Kd 0.08627450980392157 0.07450980392156863 0.07450980392156863
newmtl m164
Kd 0.08627450980392157 0.07450980392156863 0.07450980392156863
newmtl m165
Kd 0.08627450980392157 0.07450980392156863 0.07450980392156863
newmtl m166
Kd 0.12156862745098039 0.10980392156862745 0.10980392156862745
newmtl m167
Kd 0.08627450980392157 0.07450980392156863 0.07450980392156863
newmtl m168
Kd 0.12156862745098039 0.10980392156862745 0.10980392156862745
newmtl m169
Kd 0.08627450980392157 0.07450980392156863 0.07450980392156863
newmtl m170
Kd 0.08627450980392157 0.07450980392156863 0.07450980392156863
newmtl m171
Kd 0.12156862745098039 0.10980392156862745 0.10980392156862745
newmtl m172
Kd 0.12156862745098039 0.10980392156862745 0.10980392156862745
newmtl m173
Kd 0.011764705882352941 0.26666666666666666 0.2784313725490196
newmtl m174
Kd 0.011764705882352941 0.26666666666666666 0.2784313725490196
newmtl m175
Kd 0.00392156862745098 0.16862745098039217 0.17647058823529413
newmtl m176
Kd 0.023529411764705882 0.5176470588235295 0.592156862745098
d 0.09803921568627451
newmtl m177
Kd 0.00392156862745098 0.16862745098039217 0.17647058823529413
newmtl m178
Kd 0.00392156862745098 0.16862745098039217 0.17647058823529413
newmtl m179
Kd 0.12156862745098039 0.10980392156862745 0.10980392156862745
newmtl m180
Kd 0.12156862745098039 0.10980392156862745 0.10980392156862745
newmtl m181
Kd 0.12156862745098039 0.10980392156862745 0.10980392156862745
newmtl m182
Kd 0.00392156862745098 0.16862745098039217 0.17647058823529413
newmtl m183
Kd 0.08627450980392157 0.07450980392156863 0.07450980392156863
newmtl m184
Kd 0.12156862745098039 0.10980392156862745 0.10980392156862745
newmtl m185
Kd 0.12156862745098039 0.10980392156862745 0.10980392156862745
newmtl m186
Kd 0.12156862745098039 0.10980392156862745 0.10980392156862745
newmtl m187
Kd 0.12156862745098039 0.10980392156862745 0.10980392156862745
newmtl m188
Kd 0.00392156862745098 0.16862745098039217 0.17647058823529413
newmtl m189
Kd 0.43137254901960786 0.9568627450980393 0.984313725490196
newmtl m190
Kd 0.43137254901960786 0.9568627450980393 0.984313725490196
d 0.8627450980392157
newmtl m191
Kd 0.43137254901960786 0.9568627450980393 0.984313725490196
d 0.8627450980392157
newmtl m192
Kd 0.43137254901960786 0.9568627450980393 0.984313725490196
d 0.8627450980392157
newmtl m193
Kd 0.43137254901960786 0.9568627450980393 0.984313725490196
d 0.7843137254901961
newmtl m194
Kd 0.43137254901960786 0.9568627450980393 0.984313725490196
d 0.7843137254901961
newmtl m195
Kd 0.43137254901960786 0.9568627450980393 0.984313725490196
d 0.7843137254901961
newmtl m196
Kd 0.43137254901960786 0.9568627450980393 0.984313725490196
d 0.7843137254901961
newmtl m197
Kd 0.43137254901960786 0.9568627450980393 0.984313725490196
d 0.7843137254901961
newmtl m198
Kd 0.43137254901960786 0.9568627450980393 0.984313725490196
d 0.8235294117647058
newmtl m199
Kd 0.43137254901960786 0.9568627450980393 0.984313725490196
d 0.8627450980392157
newmtl m200
Kd 0.43137254901960786 0.9568627450980393 0.984313725490196
d 0.8627450980392157
newmtl m201
Kd 0.43137254901960786 0.9568627450980393 0.984313725490196
d 0.8627450980392157
newmtl m202
Kd 0.43137254901960786 0.9568627450980393 0.984313725490196
d 0.8627450980392157
newmtl m203
Kd 0.43137254901960786 0.9568627450980393 0.984313725490196
d 0.7843137254901961
newmtl m204
Kd 0.43137254901960786 0.9568627450980393 0.984313725490196
d 0.7843137254901961
newmtl m205
Kd 0.10980392156862745 0.15294117647058825 0.1568627450980392
d 0.29411764705882354
newmtl m206
Kd 0.10980392156862745 0.15294117647058825 0.1568627450980392
d 0.29411764705882354
newmtl m207
Kd 0.10980392156862745 0.15294117647058825 0.1568627450980392
d 0.29411764705882354
newmtl m208
Kd 0.10980392156862745 0.15294117647058825 0.1568627450980392
d 0.29411764705882354
newmtl m209
Kd 0.43137254901960786 0.9568627450980393 0.984313725490196
d 0.7843137254901961
newmtl m210
Kd 0.43137254901960786 0.9568627450980393 0.984313725490196
d 0.7843137254901961
newmtl m211
Kd 0.43137254901960786 0.9568627450980393 0.984313725490196
d 0.8235294117647058
newmtl m212
Kd 0.43137254901960786 0.9568627450980393 0.984313725490196
d 0.8235294117647058
newmtl m213
Kd 0.43137254901960786 0.9568627450980393 0.984313725490196
d 0.8627450980392157
newmtl m214
Kd 0.43137254901960786 0.9568627450980393 0.984313725490196
d 0.8627450980392157
newmtl m215
Kd 0.43137254901960786 0.9568627450980393 0.984313725490196
d 0.8627450980392157
newmtl m216
Kd 0.43137254901960786 0.9568627450980393 0.984313725490196
d 0.8627450980392157
newmtl m217
Kd 0.43137254901960786 0.9568627450980393 0.984313725490196
d 0.7843137254901961
newmtl m218
Kd 0.43137254901960786 0.9568627450980393 0.984313725490196
d 0.7843137254901961
newmtl m219
Kd 0.10980392156862745 0.15294117647058825 0.1568627450980392
d 0.29411764705882354
newmtl m220
Kd 0.10980392156862745 0.15294117647058825 0.1568627450980392
d 0.29411764705882354
newmtl m221
Kd 0.10980392156862745 0.15294117647058825 0.1568627450980392
d 0.29411764705882354
newmtl m222
Kd 0.10980392156862745 0.15294117647058825 0.1568627450980392
d 0.29411764705882354
newmtl m223
Kd 0.10980392156862745 0.15294117647058825 0.1568627450980392
d 0.29411764705882354
newmtl m224
Kd 0.10980392156862745 0.15294117647058825 0.1568627450980392
d 0.29411764705882354
newmtl m225
Kd 0.43137254901960786 0.9568627450980393 0.984313725490196
d 0.7843137254901961
newmtl m226
Kd 0.43137254901960786 0.9568627450980393 0.984313725490196
d 0.7843137254901961
newmtl m227
Kd 0.43137254901960786 0.9568627450980393 0.984313725490196
d 0.8235294117647058
newmtl m228
Kd 0.43137254901960786 0.9568627450980393 0.984313725490196
d 0.8235294117647058
newmtl m229
Kd 0.43137254901960786 0.9568627450980393 0.984313725490196
d 0.8627450980392157
newmtl m230
Kd 0.43137254901960786 0.9568627450980393 0.984313725490196
d 0.8627450980392157
newmtl m231
Kd 0.43137254901960786 0.9568627450980393 0.984313725490196
d 0.8627450980392157
newmtl m232
Kd 0.43137254901960786 0.9568627450980393 0.984313725490196
d 0.8627450980392157
newmtl m233
Kd 0.43137254901960786 0.9568627450980393 0.984313725490196
d 0.7843137254901961
newmtl m234
Kd 0.43137254901960786 0.9568627450980393 0.984313725490196
d 0.7843137254901961
newmtl m235
Kd 0.43137254901960786 0.9568627450980393 0.984313725490196
d 0.8627450980392157
newmtl m236
Kd 0.43137254901960786 0.9568627450980393 0.984313725490196
d 0.8627450980392157
newmtl m237
Kd 0.43137254901960786 0.9568627450980393 0.984313725490196
d 0.8235294117647058
newmtl m238
Kd 0.43137254901960786 0.9568627450980393 0.984313725490196
d 0.7843137254901961
newmtl m239
Kd 0.43137254901960786 0.9568627450980393 0.984313725490196
d 0.7843137254901961
newmtl m240
Kd 0.43137254901960786 0.9568627450980393 0.984313725490196
d 0.8627450980392157
newmtl m241
Kd 0.43137254901960786 0.9568627450980393 0.984313725490196
d 0.8235294117647058
newmtl m242
Kd 0.43137254901960786 0.9568627450980393 0.984313725490196
d 0.8235294117647058
newmtl m243
Kd 0.43137254901960786 0.9568627450980393 0.984313725490196
d 0.7843137254901961
newmtl m244
Kd 0.43137254901960786 0.9568627450980393 0.984313725490196
d 0.7843137254901961
newmtl m245
Kd 0.43137254901960786 0.9568627450980393 0.984313725490196
d 0.7843137254901961
newmtl m246
Kd 0.43137254901960786 0.9568627450980393 0.984313725490196
d 0.8627450980392157
newmtl m247
Kd 0.43137254901960786 0.9568627450980393 0.984313725490196
d 0.8627450980392157
