mtllib 37529.mtl
o runescapemodel
v 32 351 64
v 32 351 24
v -32 351 24
v -32 351 64
v -36 345 64
v -36 345 24
v -40 304 64
v -40 304 24
v -64 288 24
v -64 288 64
v 40 304 64
v 64 288 64
v 64 288 24
v 40 304 24
v 36 345 24
v 36 345 64
v 32 351 -24
v -32 351 -24
v -36 345 -24
v -40 304 -24
v -64 288 -24
v -40 304 -64
v -64 288 -64
v 64 288 -24
v 40 304 -24
v 36 345 -24
v 36 345 -64
v 32 351 -64
v -32 351 -64
v -36 345 -64
v 40 304 -64
v 64 288 -64
vn 213 -654 0
vn 852 -1080 0
vn -639 -1450 0
vn -213 -398 0
vn -680 -308 0
vn -1401 -498 0
vn -792 -474 0
vn -1046 -498 0
vn -568 -852 0
vn -142 -213 0
vn 792 -474 0
vn 142 -213 0
vn 426 -639 0
vn 934 -687 0
vn 1442 -380 0
vn 680 -308 0
vn 639 -1194 0
vn -852 -1336 0
vn -1442 -380 0
vn -934 -687 0
vn -426 -639 0
vn -792 -474 0
vn -142 -213 0
vn 568 -852 0
vn 1046 -498 0
vn 1401 -498 0
vn 680 -308 0
vn 213 -654 0
vn -213 -398 0
vn -680 -308 0
vn 792 -474 0
vn 142 -213 0
usemtl m0
f 1 2 3

usemtl m1
f 1 3 4

usemtl m2
f 4 3 5

usemtl m3
f 5 3 6

usemtl m4
f 5 6 7

usemtl m5
f 7 6 8

usemtl m6
f 7 8 9

usemtl m7
f 7 9 10

usemtl m8
f 11 12 13

usemtl m9
f 11 13 14

usemtl m10
f 11 14 15

usemtl m11
f 11 15 16

usemtl m12
f 16 15 2

usemtl m13
f 16 2 1

usemtl m14
f 3 2 17

usemtl m15
f 3 17 18

usemtl m16
f 3 18 6

usemtl m17
f 6 18 19

usemtl m18
f 6 19 8

usemtl m19
f 8 19 20

usemtl m20
f 8 20 9

usemtl m21
f 9 20 21

usemtl m22
f 21 20 22

usemtl m23
f 21 22 23

usemtl m24
f 14 13 24

usemtl m25
f 14 24 25

usemtl m26
f 14 25 15

usemtl m27
f 15 25 26

usemtl m28
f 15 26 2

usemtl m29
f 2 26 17

usemtl m30
f 17 26 27

usemtl m31
f 17 27 28

usemtl m32
f 17 28 18

usemtl m33
f 18 28 29

usemtl m34
f 18 29 30

usemtl m35
f 18 30 19

usemtl m36
f 19 30 22

usemtl m37
f 19 22 20

usemtl m38
f 31 25 24

usemtl m39
f 31 24 32

usemtl m40
f 27 26 31

usemtl m41
f 31 26 25

