mtllib 38307.mtl
o runescapemodel
v -27 101 -24
v -22 98 -24
v -21 93 -24
v -36 98 -24
v -31 101 -24
v -31 101 -21
v -27 101 -21
v -22 98 -21
v -21 93 -21
v -22 88 -24
v -27 85 -24
v -36 88 -24
v -37 93 -24
v -37 93 -21
v -36 98 -21
v -34 96 -19
v -31 99 -19
v -29 101 -19
v -28 99 -19
v -24 96 -19
v -22 95 -19
v -23 93 -19
v -22 88 -21
v -27 85 -21
v -31 85 -24
v -31 85 -21
v -36 88 -21
v -34 90 -19
v -35 93 -19
v -36 95 -19
v -32 93 -17
v -32 95 -17
v -30 96 -17
v -28 88 -19
v -31 88 -19
v -33 87 -19
v -30 90 -17
v -32 91 -17
v -31 92 -13
v -31 93 -13
v -31 94 -13
v -30 95 -13
v -28 96 -17
v -26 95 -17
v -24 90 -19
v -25 87 -19
v -26 91 -17
v -28 90 -17
v -29 91 -13
v -30 91 -13
v -30 88 -11
v -33 91 -11
v -34 93 -11
v -33 96 -11
v -30 98 -11
v -29 95 -13
v -27 94 -13
v -26 93 -17
v -27 93 -13
v -27 92 -13
v -25 91 -11
v -28 88 -11
v -28 88 -8
v -30 88 -8
v -33 91 -8
v -34 93 -8
v -33 96 -8
v -30 98 -8
v -28 98 -11
v -25 96 -11
v -24 93 -11
v -24 93 -8
v -25 91 -8
v -27 92 -7
v -29 91 -7
v -29 89 -6
v -31 92 -7
v -33 92 -6
v -31 93 -7
v -31 94 -7
v -31 96 -6
v -29 95 -7
v -28 98 -8
v -25 96 -8
v -27 94 -7
v -27 93 -7
v -25 92 -6
v -27 93 3
v -27 92 3
v -29 91 3
v -31 92 3
v -29 93 -7
v -31 94 3
v -29 95 3
v -27 96 -6
v -30 96 7
v -28 96 7
v -27 94 3
v -27 95 7
v -26 93 7
v -27 91 7
v -28 90 7
v -30 90 7
v -32 91 7
v -31 93 3
v -32 93 7
v -32 95 7
v -35 97 11
v -31 100 11
v -27 100 11
v -35 89 11
v -36 93 11
v -44 93 15
v -41 101 15
v -33 107 15
v -25 107 15
v -23 97 11
v -22 93 11
v -23 89 11
v -27 86 11
v -31 86 11
v -33 80 15
v -41 85 15
v -43 83 21
v -46 93 21
v -43 103 21
v -34 110 21
v -24 110 21
v -17 101 15
v -14 93 15
v -17 85 15
v -25 80 15
v -24 77 21
v -34 77 21
v -34 78 24
v -41 84 24
v -45 93 24
v -41 102 24
v -34 108 24
v -24 108 24
v -15 103 21
v -12 93 21
v -15 83 21
v -17 84 24
v -24 78 24
v -26 82 23
v -32 82 23
v -39 86 23
v -41 93 23
v -39 100 23
v -32 105 23
v -26 105 23
v -17 102 24
v -13 93 24
v -17 93 23
v -19 86 23
v -21 87 17
v -26 83 17
v -32 83 17
v -38 87 17
v -40 93 17
v -38 99 17
v -32 103 17
v -26 103 17
v -19 100 23
v -21 99 17
v -18 93 17
v -29 93 12
vn 135 -737 768
vn 526 -501 256
vn 768 -51 1280
vn -647 -327 1024
vn -270 -706 256
vn -538 -1450 -538
vn 530 -1197 -365
vn 1156 -794 -700
vn 1376 121 -428
vn 647 327 256
vn 270 706 768
vn -526 501 1024
vn -768 51 256
vn -1556 81 -642
vn -935 -832 -510
vn -777 -607 -1448
vn -515 -732 -1225
vn 0 -511 -596
vn 452 -790 -1484
vn 520 -628 -1258
vn 499 -112 -721
vn 960 162 -1439
vn 1142 852 -675
vn 212 1249 -508
vn -135 737 256
vn -325 1364 -753
vn -1098 625 -493
vn -872 528 -1429
vn -817 159 -1245
vn -499 -112 -721
vn -1257 -46 -824
vn -1021 -483 -833
vn -381 -1114 -873
vn 119 984 -1441
vn -29 848 -1305
vn -208 410 -764
vn -300 1266 -762
vn -940 623 -793
vn -1194 426 427
vn -1340 73 539
vn -1024 -610 516
vn -425 -1153 542
vn 300 -1191 -806
vn 883 -680 -822
vn 734 318 -1247
vn 230 417 -749
vn 999 567 -757
vn 311 1276 -800
vn 307 1188 432
vn -411 1097 462
vn -448 1106 603
vn -1170 713 667
vn -1237 193 679
vn -1039 -718 669
vn -399 -1171 684
vn 290 -1154 465
vn 1030 -483 480
vn 1257 46 -824
vn 1333 -46 529
vn 907 709 405
vn 1068 812 602
vn 493 1065 694
vn 569 1067 -742
vn -704 909 -486
vn -1024 1024 -704
vn -1160 -198 -473
vn -1073 -680 -810
vn -135 -1128 -566
vn 302 -1144 656
vn 1042 -719 678
vn 1247 -3 678
vn 1256 11 -729
vn 917 981 -448
vn 557 646 -1408
vn 24 859 -1484
vn 0 154 -332
vn -360 848 -1152
vn -115 128 -601
vn -904 -284 -1433
vn -862 -19 -1194
vn -88 -88 -736
vn -116 -743 -1644
vn 288 -1102 -566
vn 1059 -539 -554
vn 775 -283 -1450
vn 776 -256 -1177
vn 115 128 -601
vn 1507 -113 120
vn 1084 804 148
vn 54 1576 290
vn -1110 686 234
vn 0 0 -2048
vn -1113 -691 213
vn 3 -1633 319
vn 88 -88 -736
vn -319 -1006 677
vn 463 -1205 754
vn 1201 -663 136
vn 1099 -687 667
vn 1223 -39 700
vn 978 765 723
vn 411 891 707
vn -311 1252 798
vn -1032 554 725
vn -1536 0 192
vn -1344 46 717
vn -956 -688 752
vn -710 -562 1184
vn -269 -861 1222
vn 333 -839 1221
vn -792 461 1163
vn -921 44 1220
vn -1034 37 933
vn -873 -594 952
vn -358 -959 1008
vn 293 -981 1013
vn 736 -512 1234
vn 880 35 1226
vn 720 498 1236
vn 265 892 1209
vn -288 915 1192
vn -277 1024 994
vn -785 659 998
vn -1068 778 -82
vn -1368 6 -56
vn -1072 -760 -58
vn -420 -1195 -57
vn 421 -1203 -68
vn 822 -629 999
vn 1034 -37 933
vn 853 619 943
vn 325 1028 988
vn 413 1272 59
vn -389 1321 106
vn -241 449 -1052
vn -405 167 -1116
vn -451 -83 -1063
vn -259 -307 -1151
vn -52 -395 -1140
vn 235 -337 -1161
vn 1084 -740 -133
vn 1368 -6 -56
vn 1033 796 -54
vn 265 339 -1098
vn 80 509 -979
vn -311 -848 -912
vn 209 -920 -870
vn 704 -634 -893
vn 950 -45 -879
vn 823 503 -888
vn 326 887 -962
vn -240 908 -982
vn 390 -164 -1116
vn 451 83 -1063
vn -927 77 -914
vn -763 -534 -951
vn -679 -669 -658
vn -235 -920 -576
vn 331 -899 -596
vn 794 -489 -611
vn 938 69 -595
vn 697 626 -642
vn 203 917 -694
vn -371 849 -692
vn -730 586 -986
vn -793 516 -668
vn -899 -63 -625
vn -16 0 -2296
usemtl m0
f 1 2 3

usemtl m1
f 1 3 4

usemtl m2
f 1 4 5

usemtl m3
f 1 5 6

usemtl m4
f 1 6 7

usemtl m5
f 1 7 2

usemtl m6
f 2 7 8

usemtl m7
f 2 8 3

usemtl m8
f 3 8 9

usemtl m9
f 3 9 10

usemtl m10
f 3 10 11

usemtl m11
f 3 11 12

usemtl m12
f 3 12 4

usemtl m13
f 4 12 13

usemtl m14
f 4 13 14

usemtl m15
f 4 14 15

usemtl m16
f 4 15 5

usemtl m17
f 5 15 6

usemtl m18
f 6 15 16

usemtl m19
f 6 16 17

usemtl m20
f 6 17 18

usemtl m21
f 6 18 7

usemtl m22
f 7 18 19

usemtl m23
f 7 19 8

usemtl m24
f 8 19 20

usemtl m25
f 8 20 21

usemtl m26
f 8 21 9

usemtl m27
f 9 21 22

usemtl m28
f 9 22 23

usemtl m29
f 9 23 10

usemtl m30
f 10 23 11

usemtl m31
f 11 23 24

usemtl m32
f 11 24 25

usemtl m33
f 11 25 12

usemtl m34
f 12 25 26

usemtl m35
f 12 26 27

usemtl m36
f 12 27 13

usemtl m37
f 13 27 14

usemtl m38
f 14 27 28

usemtl m39
f 14 28 29

usemtl m40
f 14 29 30

usemtl m41
f 14 30 15

usemtl m42
f 15 30 16

usemtl m43
f 16 30 29

usemtl m44
f 16 29 31

usemtl m45
f 16 31 32

usemtl m46
f 16 32 17

usemtl m47
f 17 32 33

usemtl m48
f 17 33 19

usemtl m49
f 17 19 18

usemtl m50
f 24 26 25

usemtl m51
f 26 24 34

usemtl m52
f 26 34 35

usemtl m53
f 26 35 36

usemtl m54
f 26 36 27

usemtl m55
f 27 36 28

usemtl m56
f 28 36 35

usemtl m57
f 28 35 37

usemtl m58
f 28 37 38

usemtl m59
f 28 38 29

usemtl m60
f 29 38 31

usemtl m61
f 31 38 39

usemtl m62
f 31 39 40

usemtl m63
f 31 40 32

usemtl m64
f 32 40 41

usemtl m65
f 32 41 33

usemtl m66
f 33 41 42

usemtl m67
f 33 42 43

usemtl m68
f 33 43 19

usemtl m69
f 19 43 20

usemtl m70
f 20 43 44

usemtl m71
f 20 44 22

usemtl m72
f 20 22 21

usemtl m73
f 22 45 23

usemtl m74
f 23 45 46

usemtl m75
f 23 46 24

usemtl m76
f 24 46 34

usemtl m77
f 34 46 45

usemtl m78
f 34 45 47

usemtl m79
f 34 47 48

usemtl m80
f 34 48 35

usemtl m81
f 35 48 37

usemtl m82
f 37 48 49

usemtl m83
f 37 49 50

usemtl m84
f 37 50 38

usemtl m85
f 38 50 39

usemtl m86
f 39 50 51

usemtl m87
f 39 51 52

usemtl m88
f 39 52 40

usemtl m89
f 40 52 53

usemtl m90
f 40 53 41

usemtl m91
f 41 53 54

usemtl m92
f 41 54 42

usemtl m93
f 42 54 55

usemtl m94
f 42 55 56

usemtl m95
f 42 56 43

usemtl m96
f 43 56 44

usemtl m97
f 44 56 57

usemtl m98
f 44 57 58

usemtl m99
f 44 58 22

usemtl m100
f 22 58 45

usemtl m101
f 45 58 47

usemtl m102
f 47 58 59

usemtl m103
f 47 59 60

usemtl m104
f 47 60 48

usemtl m105
f 48 60 49

usemtl m106
f 49 60 61

usemtl m107
f 49 61 62

usemtl m108
f 49 62 50

usemtl m109
f 50 62 51

usemtl m110
f 51 62 63

usemtl m111
f 51 63 64

usemtl m112
f 51 64 52

usemtl m113
f 52 64 65

usemtl m114
f 52 65 53

usemtl m115
f 53 65 66

usemtl m116
f 53 66 54

usemtl m117
f 54 66 67

usemtl m118
f 54 67 55

usemtl m119
f 55 67 68

usemtl m120
f 55 68 69

usemtl m121
f 55 69 56

usemtl m122
f 56 69 57

usemtl m123
f 57 69 70

usemtl m124
f 57 70 59

usemtl m125
f 57 59 58

usemtl m126
f 70 71 59

usemtl m127
f 59 71 60

usemtl m128
f 60 71 61

usemtl m129
f 61 71 72

usemtl m130
f 61 72 73

usemtl m131
f 61 73 62

usemtl m132
f 62 73 63

usemtl m133
f 63 73 74

usemtl m134
f 63 74 75

usemtl m135
f 63 75 76

usemtl m136
f 63 76 64

usemtl m137
f 64 76 75

usemtl m138
f 64 75 65

usemtl m139
f 65 75 77

usemtl m140
f 65 77 78

usemtl m141
f 65 78 66

usemtl m142
f 66 78 79

usemtl m143
f 66 79 67

usemtl m144
f 67 79 80

usemtl m145
f 67 80 81

usemtl m146
f 67 81 68

usemtl m147
f 68 81 82

usemtl m148
f 68 82 83

usemtl m149
f 68 83 69

usemtl m150
f 69 83 70

usemtl m151
f 70 83 84

usemtl m152
f 70 84 71

usemtl m153
f 71 84 72

usemtl m154
f 72 84 85

usemtl m155
f 72 85 86

usemtl m156
f 72 86 87

usemtl m157
f 72 87 73

usemtl m158
f 73 87 74

usemtl m159
f 74 87 86

usemtl m160
f 74 86 88

usemtl m161
f 74 88 89

usemtl m162
f 74 89 75

usemtl m163
f 75 89 90

usemtl m164
f 75 90 77

usemtl m165
f 77 90 91

usemtl m166
f 77 91 79

usemtl m167
f 77 79 78

usemtl m168
f 79 77 92

usemtl m169
f 79 92 80

usemtl m170
f 80 92 92

usemtl m171
f 80 92 82

usemtl m172
f 80 82 81

usemtl m173
f 82 80 93

usemtl m174
f 82 93 94

usemtl m175
f 82 94 85

usemtl m176
f 82 85 95

usemtl m177
f 82 95 83

usemtl m178
f 82 83 82

usemtl m179
f 82 82 94

usemtl m180
f 82 94 94

usemtl m181
f 94 94 96

usemtl m182
f 94 96 97

usemtl m183
f 94 97 98

usemtl m184
f 94 98 85

usemtl m185
f 85 98 86

usemtl m186
f 86 98 88

usemtl m187
f 88 98 99

usemtl m188
f 88 99 100

usemtl m189
f 88 100 89

usemtl m190
f 89 100 101

usemtl m191
f 89 101 90

usemtl m192
f 90 101 102

usemtl m193
f 90 102 103

usemtl m194
f 90 103 91

usemtl m195
f 91 103 104

usemtl m196
f 91 104 105

usemtl m197
f 91 105 79

usemtl m198
f 79 105 80

usemtl m199
f 80 105 93

usemtl m200
f 93 105 106

usemtl m201
f 93 106 107

usemtl m202
f 93 107 94

usemtl m203
f 94 107 96

usemtl m204
f 96 107 108

usemtl m205
f 96 108 109

usemtl m206
f 96 109 97

usemtl m207
f 97 109 110

usemtl m208
f 97 110 99

usemtl m209
f 97 99 98

usemtl m210
f 90 90 75

usemtl m211
f 90 75 75

usemtl m212
f 75 75 76

usemtl m213
f 75 75 92

usemtl m214
f 75 92 77

usemtl m215
f 77 92 92

usemtl m216
f 92 92 86

usemtl m217
f 92 86 85

usemtl m218
f 92 85 82

usemtl m219
f 92 82 92

usemtl m220
f 92 92 75

usemtl m221
f 92 75 74

usemtl m222
f 92 74 86

usemtl m223
f 74 92 92

usemtl m224
f 92 92 85

usemtl m225
f 92 92 82

usemtl m226
f 92 82 82

usemtl m227
f 104 106 105

usemtl m228
f 106 104 111

usemtl m229
f 106 111 112

usemtl m230
f 106 112 107

usemtl m231
f 107 112 108

usemtl m232
f 108 112 113

usemtl m233
f 108 113 114

usemtl m234
f 108 114 109

usemtl m235
f 109 114 115

usemtl m236
f 109 115 110

usemtl m237
f 110 115 116

usemtl m238
f 110 116 117

usemtl m239
f 110 117 99

usemtl m240
f 99 117 100

usemtl m241
f 100 117 118

usemtl m242
f 100 118 101

usemtl m243
f 101 118 119

usemtl m244
f 101 119 102

usemtl m245
f 102 119 120

usemtl m246
f 102 120 103

usemtl m247
f 103 120 121

usemtl m248
f 103 121 104

usemtl m249
f 104 121 111

usemtl m250
f 111 121 122

usemtl m251
f 111 122 123

usemtl m252
f 111 123 112

usemtl m253
f 112 123 113

usemtl m254
f 113 123 124

usemtl m255
f 113 124 125

usemtl m256
f 113 125 114

usemtl m257
f 114 125 126

usemtl m258
f 114 126 115

usemtl m259
f 115 126 127

usemtl m260
f 115 127 116

usemtl m261
f 116 127 128

usemtl m262
f 116 128 129

usemtl m263
f 116 129 117

usemtl m264
f 117 129 118

usemtl m265
f 118 129 130

usemtl m266
f 118 130 119

usemtl m267
f 119 130 131

usemtl m268
f 119 131 120

usemtl m269
f 120 131 132

usemtl m270
f 120 132 121

usemtl m271
f 121 132 122

usemtl m272
f 122 132 133

usemtl m273
f 122 133 134

usemtl m274
f 122 134 123

usemtl m275
f 123 134 124

usemtl m276
f 124 134 135

usemtl m277
f 124 135 136

usemtl m278
f 124 136 125

usemtl m279
f 125 136 137

usemtl m280
f 125 137 126

usemtl m281
f 126 137 138

usemtl m282
f 126 138 127

usemtl m283
f 127 138 139

usemtl m284
f 127 139 128

usemtl m285
f 128 139 140

usemtl m286
f 128 140 141

usemtl m287
f 128 141 129

usemtl m288
f 129 141 130

usemtl m289
f 130 141 142

usemtl m290
f 130 142 131

usemtl m291
f 131 142 143

usemtl m292
f 131 143 132

usemtl m293
f 132 143 133

usemtl m294
f 133 143 144

usemtl m295
f 133 144 145

usemtl m296
f 133 145 134

usemtl m297
f 134 145 135

usemtl m298
f 135 145 146

usemtl m299
f 135 146 147

usemtl m300
f 135 147 136

usemtl m301
f 136 147 148

usemtl m302
f 136 148 137

usemtl m303
f 137 148 149

usemtl m304
f 137 149 138

usemtl m305
f 138 149 150

usemtl m306
f 138 150 139

usemtl m307
f 139 150 151

usemtl m308
f 139 151 140

usemtl m309
f 140 151 152

usemtl m310
f 140 152 153

usemtl m311
f 140 153 141

usemtl m312
f 141 153 142

usemtl m313
f 142 153 154

usemtl m314
f 142 154 143

usemtl m315
f 143 154 144

usemtl m316
f 144 154 155

usemtl m317
f 144 155 156

usemtl m318
f 144 156 145

usemtl m319
f 145 156 146

usemtl m320
f 146 156 157

usemtl m321
f 146 157 158

usemtl m322
f 146 158 147

usemtl m323
f 147 158 159

usemtl m324
f 147 159 148

usemtl m325
f 148 159 160

usemtl m326
f 148 160 149

usemtl m327
f 149 160 161

usemtl m328
f 149 161 150

usemtl m329
f 150 161 162

usemtl m330
f 150 162 151

usemtl m331
f 151 162 163

usemtl m332
f 151 163 152

usemtl m333
f 152 163 164

usemtl m334
f 152 164 165

usemtl m335
f 152 165 153

usemtl m336
f 153 165 154

usemtl m337
f 154 165 155

usemtl m338
f 155 165 166

usemtl m339
f 155 166 167

usemtl m340
f 155 167 156

usemtl m341
f 156 167 157

usemtl m342
f 157 167 168

usemtl m343
f 157 168 158

usemtl m344
f 158 168 159

usemtl m345
f 159 168 160

usemtl m346
f 160 168 161

usemtl m347
f 161 168 162

usemtl m348
f 162 168 163

usemtl m349
f 163 168 164

usemtl m350
f 164 168 166

usemtl m351
f 164 166 165

usemtl m352
f 102 90 90

usemtl m353
f 167 166 168

usemtl m354
f 84 83 95

usemtl m355
f 84 95 85

usemtl m356
f 79 92 92

usemtl m357
f 92 92 75

