mtllib 38511.mtl
o runescapemodel
v -40 0 64
v -40 0 -64
v -56 0 -64
v -56 0 64
v -64 -8 -64
v -64 -8 64
v -64 -14 -64
v -64 -14 64
v -66 -20 -64
v -66 -20 64
v -66 -60 -64
v -66 -60 64
v -64 -66 -64
v -64 -66 64
v -64 -72 -64
v -64 -72 64
v -56 -80 -64
v -56 -80 64
v 48 0 64
v 48 0 -64
v 36 -3 52
v -4 -3 52
v -16 0 64
v -4 -3 -52
v -16 0 -64
v -28 -3 64
v -28 -3 -64
v -30 -3 -64
v -30 -3 64
v -32 -3 64
v -32 -3 -64
v 0 -3 48
v 0 -3 -48
v 36 -3 -52
v 62 -3 64
v 62 -3 -64
v 64 -3 64
v 64 -3 -64
v 32 -3 48
v 32 -3 -48
v 8 0 -40
v 24 0 -40
v 24 0 40
v 8 0 40
vn 0 -512 0
vn 0 -256 0
vn 0 -512 0
vn 0 -256 0
vn 0 0 0
vn 0 0 0
vn 0 0 0
vn 0 0 0
vn 0 0 0
vn 0 0 0
vn 0 0 0
vn 0 0 0
vn 0 0 0
vn 0 0 0
vn 0 0 0
vn 0 0 0
vn 0 0 0
vn 0 0 0
vn 0 0 0
vn 0 0 0
vn 0 0 0
vn 0 0 0
vn 0 0 0
vn 0 0 0
vn 0 0 0
vn 0 0 0
vn 0 0 0
vn 0 0 0
vn 0 0 0
vn 0 0 0
vn 0 0 0
vn 0 0 0
vn 0 0 0
vn 0 0 0
vn 0 0 0
vn 0 0 0
vn 0 0 0
vn 0 0 0
vn 0 0 0
vn 0 0 0
vn 0 -256 0
vn 0 -512 0
vn 0 -256 0
vn 0 -512 0
usemtl m0
f 1 2 3

usemtl m1
f 1 3 4

usemtl m2
f 4 3 5

usemtl m3
f 4 5 6

usemtl m4
f 6 5 7

usemtl m5
f 6 7 8

usemtl m6
f 8 7 9

usemtl m7
f 8 9 10

usemtl m8
f 10 9 11

usemtl m9
f 10 11 12

usemtl m10
f 12 11 13

usemtl m11
f 12 13 14

usemtl m12
f 14 13 15

usemtl m13
f 14 15 16

usemtl m14
f 16 15 17

usemtl m15
f 16 17 18

usemtl m16
f 19 20 21

usemtl m17
f 19 21 22

usemtl m18
f 19 22 23

usemtl m19
f 23 22 24

usemtl m20
f 23 24 25

usemtl m21
f 23 25 26

usemtl m22
f 26 25 27

usemtl m23
f 26 27 28

usemtl m24
f 26 28 29

usemtl m25
f 29 28 30

usemtl m26
f 30 28 31

usemtl m27
f 30 31 2

usemtl m28
f 30 2 1

usemtl m29
f 22 21 32

usemtl m30
f 22 32 33

usemtl m31
f 22 33 24

usemtl m32
f 24 33 34

usemtl m33
f 24 34 20

usemtl m34
f 24 20 25

usemtl m35
f 20 19 35

usemtl m36
f 20 35 36

usemtl m37
f 36 35 37

usemtl m38
f 36 37 38

usemtl m39
f 34 39 21

usemtl m40
f 34 21 20

usemtl m41
f 40 34 33

usemtl m42
f 40 33 41

usemtl m43
f 40 41 42

usemtl m44
f 40 42 39

usemtl m45
f 40 39 34

usemtl m46
f 32 39 43

usemtl m47
f 32 43 44

usemtl m48
f 32 44 33

usemtl m49
f 33 44 41

usemtl m50
f 41 44 42

usemtl m51
f 42 44 43

usemtl m52
f 42 43 39

usemtl m53
f 21 39 32

