mtllib 38655.mtl
o runescapemodel
v -26 17 30
v -35 16 18
v -32 -5 27
v -17 12 32
v -16 23 39
v -24 22 32
v -34 27 24
v -39 21 8
v -35 0 8
v -35 -11 -3
v -26 -28 2
v -22 -34 13
v -20 -20 31
v -15 -15 36
v -10 -6 42
v -8 0 40
v -8 14 34
v -9 19 36
v -20 29 34
v -24 34 31
v -27 39 31
v -31 47 32
v -39 48 -2
v -39 10 -3
v -44 10 -14
v -39 -11 -24
v -35 0 -24
v -19 -28 -34
v -10 -42 8
v -12 -38 24
v -14 -22 33
v -14 -21 34
v -4 -15 45
v 0 -16 46
v 0 -9 45
v 0 -3 51
v 0 2 51
v 0 6 45
v 0 14 39
v -6 26 40
v -9 32 40
v 0 49 39
v -13 67 8
v -35 47 -29
v -39 21 -24
v -49 32 -55
v -35 -16 -39
v -50 -31 -55
v -24 -46 -44
v -13 -26 -44
v 0 -28 -39
v 0 -32 -39
v -19 -32 -29
v -10 -56 13
v 10 -42 8
v 0 -41 34
v 0 -36 37
v 0 -26 41
v 0 -22 42
v 0 -22 24
v -14 -22 35
v -1 -22 44
v 1 -22 44
v 4 -15 45
v 10 -6 42
v 8 0 40
v 8 14 34
v 5 26 40
v 9 32 40
v 22 39 31
v 30 47 32
v 13 67 8
v 0 64 8
v 0 65 -29
v 0 32 -55
v -19 5 -44
v -29 -5 -44
v -24 -11 -66
v -24 -20 -81
v -40 -31 -66
v -24 -41 -60
v -3 -41 -50
v -13 -11 -55
v 0 -26 -44
v 19 -28 -34
v 19 -32 -29
v 22 -52 -39
v -20 -52 -39
v 29 17 30
v 33 -3 27
v 35 16 15
v 34 27 23
v 27 22 32
v 18 23 39
v 19 12 32
v 15 -15 36
v 20 -22 31
v 22 -34 13
v 26 -28 2
v 33 -5 13
v 42 21 23
v 24 34 31
v 21 29 35
v 10 19 36
v 35 -11 -3
v 35 -11 8
v 38 -11 8
v 35 0 2
v 38 10 -3
v 38 48 -8
v 35 47 -29
v 38 -11 -24
v 48 32 -55
v 43 10 -14
v 35 0 -24
v 38 21 -24
v 19 5 -44
v 35 -16 -39
v 29 -5 -44
v 13 -11 -55
v 0 5 -55
v -13 -36 -71
v -24 -32 -66
v -35 -27 -87
v -61 -41 -76
v -24 -52 -55
v 10 -56 13
v 13 -26 -44
v 5 -41 -50
v 24 -46 -44
v 50 -31 -55
v 24 -11 -66
v 24 -20 -81
v 13 -36 -71
v 24 -41 -60
v 45 -31 -71
v 24 -32 -66
v 61 -41 -76
v 35 -27 -87
v 5 -46 -76
v 24 -52 -55
v -3 -46 -76
v -35 -36 -103
v 35 -36 -103
v 14 -22 35
v 14 -21 34
v 14 -22 33
v 12 -38 24
v 14 17 35
v 14 15 35
v 16 13 35
v 20 13 35
v 21 15 35
v 21 18 35
v 20 19 35
v 16 19 35
v 15 17 35
v 15 16 35
v 17 14 35
v 19 14 35
v 20 16 35
v 20 17 35
v 19 18 35
v 17 18 35
v -12 17 35
v -13 13 35
v -12 15 35
v -17 13 35
v -19 15 35
v -19 18 35
v -17 19 35
v -13 19 35
v -13 17 35
v -14 14 35
v -13 16 35
v -16 14 35
v -18 16 35
v -18 17 35
v -16 18 35
v -14 18 35
v 19 13 37
v -17 13 37
vn -1067 209 -1337
vn -1135 120 -493
vn -1677 392 -1090
vn -639 40 -1505
vn -338 199 -1574
vn -651 -47 -782
vn -1350 204 -1367
vn -1479 88 -336
vn -1240 191 -232
vn -1401 627 -128
vn -994 725 49
vn -895 762 -255
vn -859 694 -1016
vn -883 244 -1182
vn -1014 -91 -1555
vn -687 -532 -858
vn -426 153 -1723
vn 29 83 -795
vn -665 -158 -1365
vn -520 112 -856
vn -480 215 -1129
vn -843 -301 -784
vn -1312 -457 -36
vn -1546 -193 -397
vn -921 54 -240
vn -61 291 158
vn 47 404 120
vn -1190 1187 -151
vn -1007 890 -398
vn -842 915 -735
vn -909 538 -943
vn -838 231 -681
vn -771 117 -1182
vn 0 49 -1720
vn 0 262 -828
vn 0 332 -714
vn 0 -522 -836
vn 0 -734 -928
vn 2 -102 -1040
vn -411 339 -1396
vn -460 28 -1648
vn 21 -880 -1685
vn -351 -1310 -218
vn -914 -625 695
vn -1113 -381 475
vn -125 -249 21
vn -934 94 -311
vn -1081 -130 -31
vn -15 917 -319
vn 476 704 -101
vn 10 724 747
vn -2 156 1464
vn -907 -31 163
vn -497 -184 -595
vn 1007 804 -639
vn 0 922 -437
vn 0 586 -1068
vn 0 264 -822
vn 0 -408 -420
vn 0 768 0
vn -590 483 -315
vn -212 750 -692
vn 212 750 -692
vn 771 117 -1182
vn 1077 -76 -1821
vn 666 -532 -864
vn 400 134 -1730
vn 335 327 -1678
vn 433 -181 -1395
vn 531 -24 -1070
vn 476 -204 -909
vn 360 -1304 -211
vn 0 -948 -230
vn 0 -1242 474
vn 0 -442 1660
vn -724 -281 971
vn -736 -812 641
vn -165 -776 355
vn 67 -183 879
vn -604 146 182
vn -84 540 -424
vn 799 282 -18
vn 415 -510 1233
vn 25 1187 1100
vn 965 1310 -96
vn 903 -58 148
vn 355 -124 399
vn -359 -97 414
vn 1137 188 -1208
vn 1644 365 -1114
vn 479 9 -120
vn 640 94 -1392
vn 686 -120 -737
vn 324 215 -1648
vn 428 34 -1340
vn 687 326 -1017
vn 751 717 -1046
vn 901 770 -232
vn 1301 856 109
vn 349 380 -612
vn 914 272 -583
vn 594 -264 -776
vn 652 -302 -1377
vn -68 89 -848
vn 1394 562 -82
vn 482 159 469
vn 387 259 132
vn 981 220 250
vn 1537 -183 -339
vn 1304 -509 16
vn 920 -612 689
vn 42 253 145
vn 111 -251 11
vn 925 40 -230
vn -65 370 112
vn 1128 -371 476
vn 731 -277 962
vn 1070 154 -511
vn 740 -816 634
vn -434 -484 1247
vn 0 158 958
vn 342 141 156
vn -89 -109 502
vn 36 -1061 160
vn -452 -488 -362
vn 220 -255 -590
vn 495 -117 -365
vn -430 271 16
vn -1052 329 -123
vn 222 763 -460
vn 1002 -150 62
vn 165 -776 355
vn -167 -361 721
vn -544 -155 179
vn -149 722 -340
vn 317 29 31
vn 27 -117 442
vn 271 -495 34
vn -170 -1001 210
vn -639 -475 -153
vn 9 -242 -622
vn 341 -487 174
vn 1 -368 207
vn -8 -364 205
vn 590 483 -315
vn 765 253 -715
vn 823 564 -979
vn 801 930 -741
vn 0 0 -1536
vn 0 0 -256
vn 0 0 -512
vn 0 0 -512
vn 0 0 -512
vn 0 0 -512
vn 0 0 -512
vn 0 0 -256
vn 0 0 -1536
vn 0 0 -256
vn 0 0 -512
vn 0 0 -512
vn 0 0 -512
vn 0 0 -512
vn 0 0 -512
vn 0 0 -256
vn 0 0 -1536
vn 0 0 -512
vn 0 0 -256
vn 0 0 -512
vn 0 0 -512
vn 0 0 -512
vn 0 0 -512
vn 0 0 -256
vn 0 0 -1536
vn 0 0 -512
vn 0 0 -256
vn 0 0 -512
vn 0 0 -512
vn 0 0 -512
vn 0 0 -512
vn 0 0 -256
vn 83 80 -444
vn -78 79 -434
usemtl m0
f 1 2 3

usemtl m1
f 1 3 4

usemtl m2
f 1 4 5

usemtl m3
f 1 5 6

usemtl m4
f 1 6 7

usemtl m5
f 1 7 2

usemtl m6
f 2 7 8

usemtl m7
f 2 8 9

usemtl m8
f 2 9 3

usemtl m9
f 3 9 10

usemtl m10
f 3 10 11

usemtl m11
f 3 11 12

usemtl m12
f 3 12 13

usemtl m13
f 3 13 14

usemtl m14
f 3 14 4

usemtl m15
f 4 14 15

usemtl m16
f 4 15 16

usemtl m17
f 4 16 17

usemtl m18
f 4 17 5

usemtl m19
f 5 17 18

usemtl m20
f 5 18 19

usemtl m21
f 5 19 6

usemtl m22
f 6 19 7

usemtl m23
f 7 19 20

usemtl m24
f 7 20 21

usemtl m25
f 7 21 22

usemtl m26
f 7 22 8

usemtl m27
f 8 22 23

usemtl m28
f 8 23 24

usemtl m29
f 8 24 9

usemtl m30
f 9 24 10

usemtl m31
f 10 24 25

usemtl m32
f 10 25 26

usemtl m33
f 10 26 27

usemtl m34
f 10 27 28

usemtl m35
f 10 28 11

usemtl m36
f 11 28 29

usemtl m37
f 11 29 12

usemtl m38
f 12 29 30

usemtl m39
f 12 30 13

usemtl m40
f 13 30 31

usemtl m41
f 13 31 32

usemtl m42
f 13 32 14

usemtl m43
f 14 32 33

usemtl m44
f 14 33 15

usemtl m45
f 15 33 34

usemtl m46
f 15 34 35

usemtl m47
f 15 35 36

usemtl m48
f 15 36 37

usemtl m49
f 15 37 16

usemtl m50
f 16 37 38

usemtl m51
f 16 38 17

usemtl m52
f 17 38 39

usemtl m53
f 17 39 40

usemtl m54
f 17 40 18

usemtl m55
f 18 40 19

usemtl m56
f 19 40 41

usemtl m57
f 19 41 20

usemtl m58
f 20 41 21

usemtl m59
f 21 41 42

usemtl m60
f 21 42 22

usemtl m61
f 22 42 43

usemtl m62
f 22 43 23

usemtl m63
f 23 43 44

usemtl m64
f 23 44 45

usemtl m65
f 23 45 24

usemtl m66
f 24 45 46

usemtl m67
f 24 46 25

usemtl m68
f 25 46 26

usemtl m69
f 26 46 27

usemtl m70
f 27 46 45

usemtl m71
f 27 45 47

usemtl m72
f 27 47 28

usemtl m73
f 28 47 48

usemtl m74
f 28 48 49

usemtl m75
f 28 49 50

usemtl m76
f 28 50 51

usemtl m77
f 28 51 52

usemtl m78
f 28 52 53

usemtl m79
f 28 53 29

usemtl m80
f 29 53 54

usemtl m81
f 29 54 55

usemtl m82
f 29 55 56

usemtl m83
f 29 56 30

usemtl m84
f 30 56 57

usemtl m85
f 30 57 31

usemtl m86
f 31 57 58

usemtl m87
f 31 58 59

usemtl m88
f 31 59 60

usemtl m89
f 31 60 61

usemtl m90
f 31 61 32

usemtl m91
f 32 61 33

usemtl m92
f 33 61 62

usemtl m93
f 33 62 34

usemtl m94
f 34 62 63

usemtl m95
f 34 63 64

usemtl m96
f 34 64 65

usemtl m97
f 34 65 35

usemtl m98
f 35 65 36

usemtl m99
f 36 65 37

usemtl m100
f 37 65 66

usemtl m101
f 37 66 38

usemtl m102
f 38 66 67

usemtl m103
f 38 67 39

usemtl m104
f 39 67 68

usemtl m105
f 39 68 40

usemtl m106
f 40 68 41

usemtl m107
f 41 68 69

usemtl m108
f 41 69 42

usemtl m109
f 42 69 70

usemtl m110
f 42 70 71

usemtl m111
f 42 71 72

usemtl m112
f 42 72 73

usemtl m113
f 42 73 43

usemtl m114
f 43 73 74

usemtl m115
f 43 74 44

usemtl m116
f 44 74 75

usemtl m117
f 44 75 76

usemtl m118
f 44 76 45

usemtl m119
f 45 76 77

usemtl m120
f 45 77 47

usemtl m121
f 47 77 48

usemtl m122
f 48 77 78

usemtl m123
f 48 78 79

usemtl m124
f 48 79 80

usemtl m125
f 48 80 49

usemtl m126
f 49 80 81

usemtl m127
f 49 81 82

usemtl m128
f 49 82 50

usemtl m129
f 50 82 83

usemtl m130
f 50 83 84

usemtl m131
f 50 84 51

usemtl m132
f 51 84 85

usemtl m133
f 51 85 52

usemtl m134
f 52 85 86

usemtl m135
f 52 86 87

usemtl m136
f 52 87 88

usemtl m137
f 52 88 53

usemtl m138
f 53 88 54

usemtl m139
f 89 90 91

usemtl m140
f 89 91 92

usemtl m141
f 89 92 93

usemtl m142
f 89 93 94

usemtl m143
f 89 94 95

usemtl m144
f 89 95 90

usemtl m145
f 90 95 65

usemtl m146
f 90 65 96

usemtl m147
f 90 96 97

usemtl m148
f 90 97 98

usemtl m149
f 90 98 99

usemtl m150
f 90 99 100

usemtl m151
f 90 100 91

usemtl m152
f 91 100 92

usemtl m153
f 92 100 101

usemtl m154
f 92 101 71

usemtl m155
f 92 71 70

usemtl m156
f 92 70 102

usemtl m157
f 92 102 103

usemtl m158
f 92 103 93

usemtl m159
f 93 103 94

usemtl m160
f 94 103 104

usemtl m161
f 94 104 67

usemtl m162
f 94 67 95

usemtl m163
f 95 67 66

usemtl m164
f 95 66 65

usemtl m165
f 98 55 99

usemtl m166
f 99 55 85

usemtl m167
f 99 85 105

usemtl m168
f 99 105 106

usemtl m169
f 99 106 107

usemtl m170
f 99 107 100

usemtl m171
f 100 107 101

usemtl m172
f 101 107 108

usemtl m173
f 101 108 109

usemtl m174
f 101 109 110

usemtl m175
f 101 110 71

usemtl m176
f 71 110 72

usemtl m177
f 72 110 111

usemtl m178
f 72 111 74

usemtl m179
f 72 74 73

usemtl m180
f 112 113 114

usemtl m181
f 112 114 105

usemtl m182
f 112 105 115

usemtl m183
f 112 115 113

usemtl m184
f 113 115 116

usemtl m185
f 113 116 109

usemtl m186
f 113 109 114

usemtl m187
f 114 109 105

usemtl m188
f 105 109 108

usemtl m189
f 105 108 106

usemtl m190
f 106 108 107

usemtl m191
f 110 109 116

usemtl m192
f 110 116 111

usemtl m193
f 111 116 117

usemtl m194
f 111 117 75

usemtl m195
f 111 75 74

usemtl m196
f 116 118 119

usemtl m197
f 116 119 117

usemtl m198
f 117 119 120

usemtl m199
f 117 120 75

usemtl m200
f 75 120 121

usemtl m201
f 75 121 83

usemtl m202
f 75 83 76

usemtl m203
f 76 83 77

usemtl m204
f 77 83 78

usemtl m205
f 78 83 79

usemtl m206
f 79 83 82

usemtl m207
f 79 82 122

usemtl m208
f 79 122 123

usemtl m209
f 79 123 80

usemtl m210
f 80 123 124

usemtl m211
f 80 124 125

usemtl m212
f 80 125 81

usemtl m213
f 81 125 126

usemtl m214
f 81 126 122

usemtl m215
f 81 122 82

usemtl m216
f 55 86 85

usemtl m217
f 86 55 127

usemtl m218
f 86 127 87

usemtl m219
f 55 54 127

usemtl m220
f 85 115 105

usemtl m221
f 115 85 118

usemtl m222
f 115 118 116

usemtl m223
f 70 69 102

usemtl m224
f 102 69 103

usemtl m225
f 103 69 68

usemtl m226
f 103 68 104

usemtl m227
f 104 68 67

usemtl m228
f 85 84 128

usemtl m229
f 85 128 129

usemtl m230
f 85 129 130

usemtl m231
f 85 130 118

usemtl m232
f 118 130 131

usemtl m233
f 118 131 119

usemtl m234
f 119 131 132

usemtl m235
f 119 132 120

usemtl m236
f 120 132 133

usemtl m237
f 120 133 129

usemtl m238
f 120 129 128

usemtl m239
f 120 128 84

usemtl m240
f 120 84 121

usemtl m241
f 121 84 83

usemtl m242
f 129 134 135

usemtl m243
f 129 135 130

usemtl m244
f 130 135 131

usemtl m245
f 131 135 136

usemtl m246
f 131 136 133

usemtl m247
f 131 133 132

usemtl m248
f 133 137 134

usemtl m249
f 133 134 129

usemtl m250
f 136 137 133

usemtl m251
f 137 136 138

usemtl m252
f 137 138 139

usemtl m253
f 137 139 134

usemtl m254
f 134 139 140

usemtl m255
f 134 140 135

usemtl m256
f 135 140 141

usemtl m257
f 135 141 136

usemtl m258
f 136 141 138

usemtl m259
f 126 142 122

usemtl m260
f 122 142 123

usemtl m261
f 123 142 124

usemtl m262
f 124 142 143

usemtl m263
f 124 143 125

usemtl m264
f 144 140 139

usemtl m265
f 144 139 138

usemtl m266
f 60 62 61

usemtl m267
f 62 60 63

usemtl m268
f 63 60 145

usemtl m269
f 63 145 64

usemtl m270
f 64 145 146

usemtl m271
f 64 146 96

usemtl m272
f 64 96 65

usemtl m273
f 145 60 147

usemtl m274
f 145 147 146

usemtl m275
f 146 147 97

usemtl m276
f 146 97 96

usemtl m277
f 56 148 57

usemtl m278
f 57 148 147

usemtl m279
f 57 147 58

usemtl m280
f 58 147 59

usemtl m281
f 59 147 60

usemtl m282
f 97 147 148

usemtl m283
f 97 148 98

usemtl m284
f 98 148 55

usemtl m285
f 55 148 56

usemtl m286
f 149 150 151

usemtl m287
f 149 151 152

usemtl m288
f 149 152 153

usemtl m289
f 149 153 154

usemtl m290
f 149 154 155

usemtl m291
f 149 155 156

usemtl m292
f 157 158 159

usemtl m293
f 157 159 160

usemtl m294
f 157 160 161

usemtl m295
f 157 161 162

usemtl m296
f 157 162 163

usemtl m297
f 157 163 164

usemtl m298
f 165 166 167

usemtl m299
f 166 165 168

usemtl m300
f 168 165 169

usemtl m301
f 169 165 170

usemtl m302
f 170 165 171

usemtl m303
f 171 165 172

usemtl m304
f 173 174 175

usemtl m305
f 174 173 176

usemtl m306
f 176 173 177

usemtl m307
f 177 173 178

usemtl m308
f 178 173 179

usemtl m309
f 179 173 180

usemtl m310
f 94 181 89

usemtl m311
f 181 94 67

usemtl m312
f 1 182 5

usemtl m313
f 5 182 17

