newmtl m0
Kd 0.25882352941176473 0.1843137254901961 0.1450980392156863
newmtl m1
Kd 0.25882352941176473 0.1843137254901961 0.1450980392156863
newmtl m2
Kd 0.18823529411764706 0.11372549019607843 0.07450980392156863
newmtl m3
Kd 0.18823529411764706 0.11372549019607843 0.07450980392156863
newmtl m4
Kd 0.18823529411764706 0.11372549019607843 0.07450980392156863
newmtl m5
Kd 0.18823529411764706 0.11372549019607843 0.07450980392156863
newmtl m6
Kd 0.25882352941176473 0.1843137254901961 0.1450980392156863
newmtl m7
Kd 0.25882352941176473 0.1843137254901961 0.1450980392156863
newmtl m8
Kd 0.18823529411764706 0.11372549019607843 0.07450980392156863
newmtl m9
Kd 0.18823529411764706 0.11372549019607843 0.07450980392156863
newmtl m10
Kd 0.25882352941176473 0.1843137254901961 0.1450980392156863
newmtl m11
Kd 0.25882352941176473 0.1843137254901961 0.1450980392156863
newmtl m12
Kd 0.25882352941176473 0.1843137254901961 0.1450980392156863
newmtl m13
Kd 0.25882352941176473 0.1843137254901961 0.1450980392156863
newmtl m14
Kd 0.18823529411764706 0.11372549019607843 0.07450980392156863
newmtl m15
Kd 0.18823529411764706 0.11372549019607843 0.07450980392156863
newmtl m16
Kd 0.3764705882352941 0.33725490196078434 0.3333333333333333
newmtl m17
Kd 0.3764705882352941 0.33725490196078434 0.3333333333333333
newmtl m18
Kd 0.3764705882352941 0.33725490196078434 0.3333333333333333
newmtl m19
Kd 0.3764705882352941 0.33725490196078434 0.3333333333333333
newmtl m20
Kd 0.3764705882352941 0.33725490196078434 0.3333333333333333
newmtl m21
Kd 0.3764705882352941 0.33725490196078434 0.3333333333333333
newmtl m22
Kd 0.3764705882352941 0.33725490196078434 0.3333333333333333
newmtl m23
Kd 0.3764705882352941 0.33725490196078434 0.3333333333333333
newmtl m24
Kd 0.3764705882352941 0.33725490196078434 0.3333333333333333
newmtl m25
Kd 0.3764705882352941 0.33725490196078434 0.3333333333333333
newmtl m26
Kd 0.3764705882352941 0.33725490196078434 0.3333333333333333
newmtl m27
Kd 0.3764705882352941 0.33725490196078434 0.3333333333333333
newmtl m28
Kd 0.3764705882352941 0.33725490196078434 0.3333333333333333
newmtl m29
Kd 0.3764705882352941 0.33725490196078434 0.3333333333333333
newmtl m30
Kd 0.3764705882352941 0.33725490196078434 0.3333333333333333
newmtl m31
Kd 0.3764705882352941 0.33725490196078434 0.3333333333333333
newmtl m32
Kd 0.44313725490196076 0.396078431372549 0.39215686274509803
newmtl m33
Kd 0.44313725490196076 0.396078431372549 0.39215686274509803
newmtl m34
Kd 0.44313725490196076 0.396078431372549 0.39215686274509803
newmtl m35
Kd 0.44313725490196076 0.396078431372549 0.39215686274509803
newmtl m36
Kd 0.44313725490196076 0.396078431372549 0.39215686274509803
newmtl m37
Kd 0.44313725490196076 0.396078431372549 0.39215686274509803
newmtl m38
Kd 0.44313725490196076 0.396078431372549 0.39215686274509803
newmtl m39
Kd 0.44313725490196076 0.396078431372549 0.39215686274509803
newmtl m40
Kd 0.44313725490196076 0.396078431372549 0.39215686274509803
newmtl m41
Kd 0.44313725490196076 0.396078431372549 0.39215686274509803
newmtl m42
Kd 0.44313725490196076 0.396078431372549 0.39215686274509803
newmtl m43
Kd 0.44313725490196076 0.396078431372549 0.39215686274509803
newmtl m44
Kd 0.44313725490196076 0.396078431372549 0.39215686274509803
newmtl m45
Kd 0.44313725490196076 0.396078431372549 0.39215686274509803
newmtl m46
Kd 0.44313725490196076 0.396078431372549 0.39215686274509803
newmtl m47
Kd 0.44313725490196076 0.396078431372549 0.39215686274509803
newmtl m48
Kd 0.5764705882352941 0.5254901960784314 0.3176470588235294
newmtl m49
Kd 0.43529411764705883 0.43137254901960786 0.3058823529411765
newmtl m50
Kd 0.403921568627451 0.33725490196078434 0.17254901960784313
newmtl m51
Kd 0.403921568627451 0.33725490196078434 0.17254901960784313
newmtl m52
Kd 0.5176470588235295 0.4470588235294118 0.28627450980392155
newmtl m53
Kd 0.4549019607843137 0.41568627450980394 0.2549019607843137
newmtl m54
Kd 0.4549019607843137 0.41568627450980394 0.2549019607843137
newmtl m55
Kd 0.5176470588235295 0.42745098039215684 0.28627450980392155
newmtl m56
Kd 0.403921568627451 0.33725490196078434 0.17254901960784313
newmtl m57
Kd 0.43529411764705883 0.43137254901960786 0.3058823529411765
newmtl m58
Kd 0.5372549019607843 0.5098039215686274 0.2980392156862745
newmtl m59
Kd 0.43529411764705883 0.43137254901960786 0.3058823529411765
newmtl m60
Kd 0.5764705882352941 0.5254901960784314 0.3176470588235294
newmtl m61
Kd 0.43529411764705883 0.43137254901960786 0.3058823529411765
newmtl m62
Kd 0.5372549019607843 0.5098039215686274 0.2980392156862745
newmtl m63
Kd 0.43529411764705883 0.43137254901960786 0.3058823529411765
newmtl m64
Kd 0.5764705882352941 0.5254901960784314 0.3176470588235294
newmtl m65
Kd 0.43529411764705883 0.43137254901960786 0.3058823529411765
newmtl m66
Kd 0.5372549019607843 0.5098039215686274 0.2980392156862745
newmtl m67
Kd 0.43529411764705883 0.43137254901960786 0.3058823529411765
newmtl m68
Kd 0.5764705882352941 0.5254901960784314 0.3176470588235294
newmtl m69
Kd 0.43529411764705883 0.43137254901960786 0.3058823529411765
newmtl m70
Kd 0.5372549019607843 0.5098039215686274 0.2980392156862745
newmtl m71
Kd 0.43529411764705883 0.43137254901960786 0.3058823529411765
newmtl m72
Kd 0.5764705882352941 0.5254901960784314 0.3176470588235294
newmtl m73
Kd 0.43529411764705883 0.43137254901960786 0.3058823529411765
newmtl m74
Kd 0.5372549019607843 0.5098039215686274 0.2980392156862745
newmtl m75
Kd 0.4549019607843137 0.41568627450980394 0.2549019607843137
newmtl m76
Kd 0.4549019607843137 0.41568627450980394 0.2549019607843137
newmtl m77
Kd 0.5176470588235295 0.42745098039215684 0.28627450980392155
newmtl m78
Kd 0.403921568627451 0.33725490196078434 0.17254901960784313
newmtl m79
Kd 0.43529411764705883 0.40784313725490196 0.3058823529411765
newmtl m80
Kd 0.4549019607843137 0.41568627450980394 0.2549019607843137
newmtl m81
Kd 0.4549019607843137 0.41568627450980394 0.2549019607843137
newmtl m82
Kd 0.5176470588235295 0.42745098039215684 0.28627450980392155
newmtl m83
Kd 0.403921568627451 0.33725490196078434 0.17254901960784313
newmtl m84
Kd 0.403921568627451 0.33725490196078434 0.17254901960784313
newmtl m85
Kd 0.43529411764705883 0.40784313725490196 0.3058823529411765
newmtl m86
Kd 0.4549019607843137 0.41568627450980394 0.2549019607843137
newmtl m87
Kd 0.4549019607843137 0.41568627450980394 0.2549019607843137
newmtl m88
Kd 0.5176470588235295 0.42745098039215684 0.28627450980392155
newmtl m89
Kd 0.403921568627451 0.33725490196078434 0.17254901960784313
newmtl m90
Kd 0.403921568627451 0.33725490196078434 0.17254901960784313
newmtl m91
Kd 0.43529411764705883 0.40784313725490196 0.3058823529411765
newmtl m92
Kd 0.4549019607843137 0.41568627450980394 0.2549019607843137
newmtl m93
Kd 0.4549019607843137 0.41568627450980394 0.2549019607843137
newmtl m94
Kd 0.5176470588235295 0.42745098039215684 0.28627450980392155
newmtl m95
Kd 0.403921568627451 0.33725490196078434 0.17254901960784313
newmtl m96
Kd 0.403921568627451 0.33725490196078434 0.17254901960784313
newmtl m97
Kd 0.43529411764705883 0.40784313725490196 0.3058823529411765
newmtl m98
Kd 0.4549019607843137 0.41568627450980394 0.2549019607843137
newmtl m99
Kd 0.4549019607843137 0.41568627450980394 0.2549019607843137
newmtl m100
Kd 0.5176470588235295 0.42745098039215684 0.28627450980392155
newmtl m101
Kd 0.403921568627451 0.33725490196078434 0.17254901960784313
newmtl m102
Kd 0.403921568627451 0.33725490196078434 0.17254901960784313
newmtl m103
Kd 0.43529411764705883 0.40784313725490196 0.3058823529411765
newmtl m104
Kd 0.4549019607843137 0.41568627450980394 0.2549019607843137
newmtl m105
Kd 0.4549019607843137 0.41568627450980394 0.2549019607843137
newmtl m106
Kd 0.5176470588235295 0.42745098039215684 0.28627450980392155
newmtl m107
Kd 0.403921568627451 0.33725490196078434 0.17254901960784313
newmtl m108
Kd 0.403921568627451 0.33725490196078434 0.17254901960784313
newmtl m109
Kd 0.43529411764705883 0.40784313725490196 0.3058823529411765
newmtl m110
Kd 0.4549019607843137 0.41568627450980394 0.2549019607843137
newmtl m111
Kd 0.4549019607843137 0.41568627450980394 0.2549019607843137
newmtl m112
Kd 0.5176470588235295 0.42745098039215684 0.28627450980392155
newmtl m113
Kd 0.403921568627451 0.33725490196078434 0.17254901960784313
newmtl m114
Kd 0.403921568627451 0.33725490196078434 0.17254901960784313
newmtl m115
Kd 0.43529411764705883 0.40784313725490196 0.3058823529411765
newmtl m116
Kd 0.4549019607843137 0.41568627450980394 0.2549019607843137
newmtl m117
Kd 0.4549019607843137 0.41568627450980394 0.2549019607843137
newmtl m118
Kd 0.5176470588235295 0.42745098039215684 0.28627450980392155
newmtl m119
Kd 0.403921568627451 0.33725490196078434 0.17254901960784313
newmtl m120
Kd 0.403921568627451 0.33725490196078434 0.17254901960784313
newmtl m121
Kd 0.43529411764705883 0.40784313725490196 0.3058823529411765
newmtl m122
Kd 0.4549019607843137 0.41568627450980394 0.2549019607843137
newmtl m123
Kd 0.4549019607843137 0.41568627450980394 0.2549019607843137
newmtl m124
Kd 0.5176470588235295 0.42745098039215684 0.28627450980392155
newmtl m125
Kd 0.403921568627451 0.33725490196078434 0.17254901960784313
newmtl m126
Kd 0.403921568627451 0.33725490196078434 0.17254901960784313
newmtl m127
Kd 0.43529411764705883 0.40784313725490196 0.3058823529411765
newmtl m128
Kd 0.788235294117647 0.8196078431372549 0.8549019607843137
newmtl m129
Kd 0.788235294117647 0.8196078431372549 0.8549019607843137
newmtl m130
Kd 0.788235294117647 0.8196078431372549 0.8549019607843137
newmtl m131
Kd 0.788235294117647 0.8196078431372549 0.8549019607843137
newmtl m132
Kd 0.788235294117647 0.8196078431372549 0.8549019607843137
newmtl m133
Kd 0.788235294117647 0.8196078431372549 0.8549019607843137
newmtl m134
Kd 0.5764705882352941 0.5254901960784314 0.3176470588235294
newmtl m135
Kd 0.43529411764705883 0.43137254901960786 0.3058823529411765
newmtl m136
Kd 0.403921568627451 0.33725490196078434 0.17254901960784313
newmtl m137
Kd 0.403921568627451 0.33725490196078434 0.17254901960784313
newmtl m138
Kd 0.5176470588235295 0.4470588235294118 0.28627450980392155
newmtl m139
Kd 0.4549019607843137 0.41568627450980394 0.2549019607843137
newmtl m140
Kd 0.4549019607843137 0.41568627450980394 0.2549019607843137
newmtl m141
Kd 0.5176470588235295 0.42745098039215684 0.28627450980392155
newmtl m142
Kd 0.403921568627451 0.33725490196078434 0.17254901960784313
newmtl m143
Kd 0.43529411764705883 0.43137254901960786 0.3058823529411765
newmtl m144
Kd 0.5372549019607843 0.5098039215686274 0.2980392156862745
newmtl m145
Kd 0.43529411764705883 0.43137254901960786 0.3058823529411765
newmtl m146
Kd 0.5764705882352941 0.5254901960784314 0.3176470588235294
newmtl m147
Kd 0.43529411764705883 0.43137254901960786 0.3058823529411765
newmtl m148
Kd 0.5372549019607843 0.5098039215686274 0.2980392156862745
newmtl m149
Kd 0.43529411764705883 0.43137254901960786 0.3058823529411765
newmtl m150
Kd 0.5764705882352941 0.5254901960784314 0.3176470588235294
newmtl m151
Kd 0.43529411764705883 0.43137254901960786 0.3058823529411765
newmtl m152
Kd 0.5372549019607843 0.5098039215686274 0.2980392156862745
newmtl m153
Kd 0.43529411764705883 0.43137254901960786 0.3058823529411765
newmtl m154
Kd 0.5764705882352941 0.5254901960784314 0.3176470588235294
newmtl m155
Kd 0.43529411764705883 0.43137254901960786 0.3058823529411765
newmtl m156
Kd 0.5372549019607843 0.5098039215686274 0.2980392156862745
newmtl m157
Kd 0.43529411764705883 0.43137254901960786 0.3058823529411765
newmtl m158
Kd 0.5764705882352941 0.5254901960784314 0.3176470588235294
newmtl m159
Kd 0.43529411764705883 0.43137254901960786 0.3058823529411765
newmtl m160
Kd 0.5372549019607843 0.5098039215686274 0.2980392156862745
newmtl m161
Kd 0.4549019607843137 0.41568627450980394 0.2549019607843137
newmtl m162
Kd 0.4549019607843137 0.41568627450980394 0.2549019607843137
newmtl m163
Kd 0.5176470588235295 0.42745098039215684 0.28627450980392155
newmtl m164
Kd 0.5176470588235295 0.4470588235294118 0.28627450980392155
newmtl m165
Kd 0.5372549019607843 0.5098039215686274 0.2980392156862745
newmtl m166
Kd 0.43529411764705883 0.43137254901960786 0.3058823529411765
newmtl m167
Kd 0.5764705882352941 0.5254901960784314 0.3176470588235294
newmtl m168
Kd 0.5176470588235295 0.4470588235294118 0.28627450980392155
newmtl m169
Kd 0.5176470588235295 0.4470588235294118 0.28627450980392155
newmtl m170
Kd 0.403921568627451 0.33725490196078434 0.17254901960784313
newmtl m171
Kd 0.43529411764705883 0.40784313725490196 0.3058823529411765
newmtl m172
Kd 0.4549019607843137 0.41568627450980394 0.2549019607843137
newmtl m173
Kd 0.4549019607843137 0.41568627450980394 0.2549019607843137
newmtl m174
Kd 0.5176470588235295 0.42745098039215684 0.28627450980392155
newmtl m175
Kd 0.403921568627451 0.33725490196078434 0.17254901960784313
newmtl m176
Kd 0.403921568627451 0.33725490196078434 0.17254901960784313
newmtl m177
Kd 0.43529411764705883 0.40784313725490196 0.3058823529411765
newmtl m178
Kd 0.4549019607843137 0.41568627450980394 0.2549019607843137
newmtl m179
Kd 0.4549019607843137 0.41568627450980394 0.2549019607843137
newmtl m180
Kd 0.5176470588235295 0.42745098039215684 0.28627450980392155
newmtl m181
Kd 0.403921568627451 0.33725490196078434 0.17254901960784313
newmtl m182
Kd 0.403921568627451 0.33725490196078434 0.17254901960784313
newmtl m183
Kd 0.43529411764705883 0.40784313725490196 0.3058823529411765
newmtl m184
Kd 0.4549019607843137 0.41568627450980394 0.2549019607843137
newmtl m185
Kd 0.4549019607843137 0.41568627450980394 0.2549019607843137
newmtl m186
Kd 0.5176470588235295 0.42745098039215684 0.28627450980392155
newmtl m187
Kd 0.403921568627451 0.33725490196078434 0.17254901960784313
newmtl m188
Kd 0.403921568627451 0.33725490196078434 0.17254901960784313
newmtl m189
Kd 0.43529411764705883 0.40784313725490196 0.3058823529411765
newmtl m190
Kd 0.4549019607843137 0.41568627450980394 0.2549019607843137
newmtl m191
Kd 0.4549019607843137 0.41568627450980394 0.2549019607843137
newmtl m192
Kd 0.5176470588235295 0.42745098039215684 0.28627450980392155
newmtl m193
Kd 0.403921568627451 0.33725490196078434 0.17254901960784313
newmtl m194
Kd 0.403921568627451 0.33725490196078434 0.17254901960784313
newmtl m195
Kd 0.43529411764705883 0.40784313725490196 0.3058823529411765
newmtl m196
Kd 0.4549019607843137 0.41568627450980394 0.2549019607843137
newmtl m197
Kd 0.4549019607843137 0.41568627450980394 0.2549019607843137
newmtl m198
Kd 0.5176470588235295 0.42745098039215684 0.28627450980392155
newmtl m199
Kd 0.403921568627451 0.33725490196078434 0.17254901960784313
newmtl m200
Kd 0.403921568627451 0.33725490196078434 0.17254901960784313
newmtl m201
Kd 0.43529411764705883 0.40784313725490196 0.3058823529411765
newmtl m202
Kd 0.4549019607843137 0.41568627450980394 0.2549019607843137
newmtl m203
Kd 0.4549019607843137 0.41568627450980394 0.2549019607843137
newmtl m204
Kd 0.5176470588235295 0.42745098039215684 0.28627450980392155
newmtl m205
Kd 0.403921568627451 0.33725490196078434 0.17254901960784313
newmtl m206
Kd 0.403921568627451 0.33725490196078434 0.17254901960784313
newmtl m207
Kd 0.43529411764705883 0.40784313725490196 0.3058823529411765
newmtl m208
Kd 0.4549019607843137 0.41568627450980394 0.2549019607843137
newmtl m209
Kd 0.4549019607843137 0.41568627450980394 0.2549019607843137
newmtl m210
Kd 0.5176470588235295 0.42745098039215684 0.28627450980392155
newmtl m211
Kd 0.403921568627451 0.33725490196078434 0.17254901960784313
newmtl m212
Kd 0.403921568627451 0.33725490196078434 0.17254901960784313
newmtl m213
Kd 0.43529411764705883 0.40784313725490196 0.3058823529411765
newmtl m214
Kd 0.4549019607843137 0.41568627450980394 0.2549019607843137
newmtl m215
Kd 0.4549019607843137 0.41568627450980394 0.2549019607843137
newmtl m216
Kd 0.5176470588235295 0.42745098039215684 0.28627450980392155
newmtl m217
Kd 0.403921568627451 0.33725490196078434 0.17254901960784313
newmtl m218
Kd 0.403921568627451 0.33725490196078434 0.17254901960784313
newmtl m219
Kd 0.43529411764705883 0.40784313725490196 0.3058823529411765
newmtl m220
Kd 0.5176470588235295 0.4470588235294118 0.28627450980392155
newmtl m221
Kd 0.43529411764705883 0.43137254901960786 0.3058823529411765
newmtl m222
Kd 0.5372549019607843 0.5098039215686274 0.2980392156862745
newmtl m223
Kd 0.5176470588235295 0.4470588235294118 0.28627450980392155
newmtl m224
Kd 0.5176470588235295 0.4470588235294118 0.28627450980392155
newmtl m225
Kd 0.43529411764705883 0.43137254901960786 0.3058823529411765
newmtl m226
Kd 0.5764705882352941 0.5254901960784314 0.3176470588235294
newmtl m227
Kd 0.5176470588235295 0.4470588235294118 0.28627450980392155
newmtl m228
Kd 0.5176470588235295 0.4470588235294118 0.28627450980392155
newmtl m229
Kd 0.43529411764705883 0.43137254901960786 0.3058823529411765
newmtl m230
Kd 0.5372549019607843 0.5098039215686274 0.2980392156862745
newmtl m231
Kd 0.5176470588235295 0.4470588235294118 0.28627450980392155
newmtl m232
Kd 0.5176470588235295 0.4470588235294118 0.28627450980392155
newmtl m233
Kd 0.43529411764705883 0.43137254901960786 0.3058823529411765
newmtl m234
Kd 0.5764705882352941 0.5254901960784314 0.3176470588235294
newmtl m235
Kd 0.5176470588235295 0.4470588235294118 0.28627450980392155
newmtl m236
Kd 0.5176470588235295 0.4470588235294118 0.28627450980392155
newmtl m237
Kd 0.43529411764705883 0.43137254901960786 0.3058823529411765
newmtl m238
Kd 0.5372549019607843 0.5098039215686274 0.2980392156862745
newmtl m239
Kd 0.5176470588235295 0.4470588235294118 0.28627450980392155
newmtl m240
Kd 0.5176470588235295 0.4470588235294118 0.28627450980392155
newmtl m241
Kd 0.43529411764705883 0.43137254901960786 0.3058823529411765
newmtl m242
Kd 0.5764705882352941 0.5254901960784314 0.3176470588235294
newmtl m243
Kd 0.5176470588235295 0.4470588235294118 0.28627450980392155
newmtl m244
Kd 0.5176470588235295 0.4470588235294118 0.28627450980392155
newmtl m245
Kd 0.43529411764705883 0.43137254901960786 0.3058823529411765
newmtl m246
Kd 0.5372549019607843 0.5098039215686274 0.2980392156862745
newmtl m247
Kd 0.5176470588235295 0.4470588235294118 0.28627450980392155
newmtl m248
Kd 0.5176470588235295 0.4470588235294118 0.28627450980392155
newmtl m249
Kd 0.43529411764705883 0.43137254901960786 0.3058823529411765
newmtl m250
Kd 0.5764705882352941 0.5254901960784314 0.3176470588235294
newmtl m251
Kd 0.5176470588235295 0.4470588235294118 0.28627450980392155
newmtl m252
Kd 0.5176470588235295 0.4470588235294118 0.28627450980392155
newmtl m253
Kd 0.43529411764705883 0.43137254901960786 0.3058823529411765
newmtl m254
Kd 0.788235294117647 0.8196078431372549 0.8549019607843137
newmtl m255
Kd 0.788235294117647 0.8196078431372549 0.8549019607843137
newmtl m256
Kd 0.788235294117647 0.8196078431372549 0.8549019607843137
newmtl m257
Kd 0.788235294117647 0.8196078431372549 0.8549019607843137
newmtl m258
Kd 0.788235294117647 0.8196078431372549 0.8549019607843137
newmtl m259
Kd 0.788235294117647 0.8196078431372549 0.8549019607843137
newmtl m260
Kd 0.21568627450980393 0.15294117647058825 0.11764705882352941
newmtl m261
Kd 0.21568627450980393 0.15294117647058825 0.11764705882352941
newmtl m262
Kd 0.25882352941176473 0.1843137254901961 0.1450980392156863
newmtl m263
Kd 0.27450980392156865 0.2196078431372549 0.19607843137254902
newmtl m264
Kd 0.27450980392156865 0.2196078431372549 0.19607843137254902
newmtl m265
Kd 0.25882352941176473 0.1843137254901961 0.1450980392156863
newmtl m266
Kd 0.25882352941176473 0.1843137254901961 0.1450980392156863
newmtl m267
Kd 0.27450980392156865 0.2196078431372549 0.19607843137254902
newmtl m268
Kd 0.18823529411764706 0.11372549019607843 0.07450980392156863
newmtl m269
Kd 0.18823529411764706 0.11372549019607843 0.07450980392156863
newmtl m270
Kd 0.27450980392156865 0.2196078431372549 0.19607843137254902
newmtl m271
Kd 0.27450980392156865 0.2196078431372549 0.19607843137254902
newmtl m272
Kd 0.25882352941176473 0.1843137254901961 0.1450980392156863
newmtl m273
Kd 0.25882352941176473 0.1843137254901961 0.1450980392156863
newmtl m274
Kd 0.21568627450980393 0.15294117647058825 0.11764705882352941
newmtl m275
Kd 0.21568627450980393 0.15294117647058825 0.11764705882352941
newmtl m276
Kd 0.25882352941176473 0.1843137254901961 0.1450980392156863
newmtl m277
Kd 0.25882352941176473 0.1843137254901961 0.1450980392156863
newmtl m278
Kd 0.18823529411764706 0.11372549019607843 0.07450980392156863
newmtl m279
Kd 0.25882352941176473 0.1843137254901961 0.1450980392156863
newmtl m280
Kd 0.25882352941176473 0.1843137254901961 0.1450980392156863
newmtl m281
Kd 0.27450980392156865 0.2196078431372549 0.19607843137254902
newmtl m282
Kd 0.27450980392156865 0.2196078431372549 0.19607843137254902
newmtl m283
Kd 0.25882352941176473 0.1843137254901961 0.1450980392156863
newmtl m284
Kd 0.25882352941176473 0.1843137254901961 0.1450980392156863
newmtl m285
Kd 0.27450980392156865 0.2196078431372549 0.19607843137254902
newmtl m286
Kd 0.27450980392156865 0.2196078431372549 0.19607843137254902
newmtl m287
Kd 0.25882352941176473 0.1843137254901961 0.1450980392156863
newmtl m288
Kd 0.27450980392156865 0.2196078431372549 0.19607843137254902
newmtl m289
Kd 0.25882352941176473 0.1843137254901961 0.1450980392156863
newmtl m290
Kd 0.21568627450980393 0.15294117647058825 0.11764705882352941
newmtl m291
Kd 0.21568627450980393 0.15294117647058825 0.11764705882352941
newmtl m292
Kd 0.27450980392156865 0.2196078431372549 0.19607843137254902
newmtl m293
Kd 0.27450980392156865 0.2196078431372549 0.19607843137254902
newmtl m294
Kd 0.25882352941176473 0.1843137254901961 0.1450980392156863
newmtl m295
Kd 0.25882352941176473 0.1843137254901961 0.1450980392156863
newmtl m296
Kd 0.18823529411764706 0.11372549019607843 0.07450980392156863
newmtl m297
Kd 0.21568627450980393 0.15294117647058825 0.11764705882352941
newmtl m298
Kd 0.21568627450980393 0.15294117647058825 0.11764705882352941
newmtl m299
Kd 0.25882352941176473 0.1843137254901961 0.1450980392156863
newmtl m300
Kd 0.27450980392156865 0.2196078431372549 0.19607843137254902
newmtl m301
Kd 0.27450980392156865 0.2196078431372549 0.19607843137254902
newmtl m302
Kd 0.25882352941176473 0.1843137254901961 0.1450980392156863
newmtl m303
Kd 0.25882352941176473 0.1843137254901961 0.1450980392156863
newmtl m304
Kd 0.25882352941176473 0.1843137254901961 0.1450980392156863
newmtl m305
Kd 0.25882352941176473 0.1843137254901961 0.1450980392156863
newmtl m306
Kd 0.25882352941176473 0.1843137254901961 0.1450980392156863
newmtl m307
Kd 0.18823529411764706 0.11372549019607843 0.07450980392156863
newmtl m308
Kd 0.18823529411764706 0.11372549019607843 0.07450980392156863
newmtl m309
Kd 0.18823529411764706 0.11372549019607843 0.07450980392156863
newmtl m310
Kd 0.18823529411764706 0.11372549019607843 0.07450980392156863
newmtl m311
Kd 0.25882352941176473 0.1843137254901961 0.1450980392156863
newmtl m312
Kd 0.27450980392156865 0.2196078431372549 0.19607843137254902
newmtl m313
Kd 0.27450980392156865 0.2196078431372549 0.19607843137254902
newmtl m314
Kd 0.25882352941176473 0.1843137254901961 0.1450980392156863
newmtl m315
Kd 0.25882352941176473 0.1843137254901961 0.1450980392156863
newmtl m316
Kd 0.27450980392156865 0.2196078431372549 0.19607843137254902
newmtl m317
Kd 0.27450980392156865 0.2196078431372549 0.19607843137254902
newmtl m318
Kd 0.25882352941176473 0.1843137254901961 0.1450980392156863
newmtl m319
Kd 0.27450980392156865 0.2196078431372549 0.19607843137254902
newmtl m320
Kd 0.25882352941176473 0.1843137254901961 0.1450980392156863
newmtl m321
Kd 0.25882352941176473 0.1843137254901961 0.1450980392156863
newmtl m322
Kd 0.25882352941176473 0.1843137254901961 0.1450980392156863
newmtl m323
Kd 0.27450980392156865 0.2196078431372549 0.19607843137254902
newmtl m324
Kd 0.27450980392156865 0.2196078431372549 0.19607843137254902
newmtl m325
Kd 0.27450980392156865 0.2196078431372549 0.19607843137254902
newmtl m326
Kd 0.23137254901960785 0.20784313725490197 0.20784313725490197
newmtl m327
Kd 0.23137254901960785 0.20784313725490197 0.20784313725490197
newmtl m328
Kd 0.23137254901960785 0.20784313725490197 0.20784313725490197
newmtl m329
Kd 0.23137254901960785 0.20784313725490197 0.20784313725490197
newmtl m330
Kd 0.23137254901960785 0.20784313725490197 0.20784313725490197
newmtl m331
Kd 0.27450980392156865 0.2196078431372549 0.19607843137254902
newmtl m332
Kd 0.27450980392156865 0.2196078431372549 0.19607843137254902
newmtl m333
Kd 0.18823529411764706 0.11372549019607843 0.07450980392156863
newmtl m334
Kd 0.18823529411764706 0.11372549019607843 0.07450980392156863
newmtl m335
Kd 0.25882352941176473 0.1843137254901961 0.1450980392156863
newmtl m336
Kd 0.27450980392156865 0.2196078431372549 0.19607843137254902
newmtl m337
Kd 0.27450980392156865 0.2196078431372549 0.19607843137254902
newmtl m338
Kd 0.23137254901960785 0.20784313725490197 0.20784313725490197
newmtl m339
Kd 0.23137254901960785 0.20784313725490197 0.20784313725490197
newmtl m340
Kd 0.30980392156862746 0.2784313725490196 0.27450980392156865
newmtl m341
Kd 0.30980392156862746 0.2784313725490196 0.27450980392156865
newmtl m342
Kd 0.30980392156862746 0.2784313725490196 0.27450980392156865
newmtl m343
Kd 0.30980392156862746 0.2784313725490196 0.27450980392156865
newmtl m344
Kd 0.30980392156862746 0.2784313725490196 0.27450980392156865
newmtl m345
Kd 0.30980392156862746 0.2784313725490196 0.27450980392156865
newmtl m346
Kd 0.30980392156862746 0.2784313725490196 0.27450980392156865
newmtl m347
Kd 0.23137254901960785 0.20784313725490197 0.20784313725490197
newmtl m348
Kd 0.23137254901960785 0.20784313725490197 0.20784313725490197
newmtl m349
Kd 0.27450980392156865 0.2196078431372549 0.19607843137254902
newmtl m350
Kd 0.27450980392156865 0.2196078431372549 0.19607843137254902
newmtl m351
Kd 0.21568627450980393 0.15294117647058825 0.11764705882352941
newmtl m352
Kd 0.21568627450980393 0.15294117647058825 0.11764705882352941
newmtl m353
Kd 0.21568627450980393 0.15294117647058825 0.11764705882352941
newmtl m354
Kd 0.21568627450980393 0.15294117647058825 0.11764705882352941
newmtl m355
Kd 0.18823529411764706 0.11372549019607843 0.07450980392156863
newmtl m356
Kd 0.18823529411764706 0.11372549019607843 0.07450980392156863
newmtl m357
Kd 0.21568627450980393 0.15294117647058825 0.11764705882352941
newmtl m358
Kd 0.21568627450980393 0.15294117647058825 0.11764705882352941
newmtl m359
Kd 0.25882352941176473 0.1843137254901961 0.1450980392156863
newmtl m360
Kd 0.27450980392156865 0.2196078431372549 0.19607843137254902
newmtl m361
Kd 0.27450980392156865 0.2196078431372549 0.19607843137254902
newmtl m362
Kd 0.23137254901960785 0.20784313725490197 0.20784313725490197
newmtl m363
Kd 0.23137254901960785 0.20784313725490197 0.20784313725490197
newmtl m364
Kd 0.30980392156862746 0.2784313725490196 0.27450980392156865
newmtl m365
Kd 0.30980392156862746 0.2784313725490196 0.27450980392156865
newmtl m366
Kd 0.44313725490196076 0.396078431372549 0.39215686274509803
newmtl m367
Kd 0.44313725490196076 0.396078431372549 0.39215686274509803
newmtl m368
Kd 0.44313725490196076 0.396078431372549 0.39215686274509803
newmtl m369
Kd 0.44313725490196076 0.396078431372549 0.39215686274509803
newmtl m370
Kd 0.27450980392156865 0.2196078431372549 0.19607843137254902
newmtl m371
Kd 0.27450980392156865 0.2196078431372549 0.19607843137254902
newmtl m372
Kd 0.23137254901960785 0.20784313725490197 0.20784313725490197
newmtl m373
Kd 0.23137254901960785 0.20784313725490197 0.20784313725490197
newmtl m374
Kd 0.23137254901960785 0.20784313725490197 0.20784313725490197
newmtl m375
Kd 0.23137254901960785 0.20784313725490197 0.20784313725490197
newmtl m376
Kd 0.30980392156862746 0.2784313725490196 0.27450980392156865
newmtl m377
Kd 0.30980392156862746 0.2784313725490196 0.27450980392156865
newmtl m378
Kd 0.44313725490196076 0.396078431372549 0.39215686274509803
newmtl m379
Kd 0.44313725490196076 0.396078431372549 0.39215686274509803
newmtl m380
Kd 0.30980392156862746 0.2784313725490196 0.27450980392156865
newmtl m381
Kd 0.30980392156862746 0.2784313725490196 0.27450980392156865
newmtl m382
Kd 0.30980392156862746 0.2784313725490196 0.27450980392156865
newmtl m383
Kd 0.27450980392156865 0.2196078431372549 0.19607843137254902
newmtl m384
Kd 0.21568627450980393 0.15294117647058825 0.11764705882352941
newmtl m385
Kd 0.21568627450980393 0.15294117647058825 0.11764705882352941
newmtl m386
Kd 0.25882352941176473 0.1843137254901961 0.1450980392156863
newmtl m387
Kd 0.25882352941176473 0.1843137254901961 0.1450980392156863
newmtl m388
Kd 0.25882352941176473 0.1843137254901961 0.1450980392156863
newmtl m389
Kd 0.25882352941176473 0.1843137254901961 0.1450980392156863
newmtl m390
Kd 0.27450980392156865 0.2196078431372549 0.19607843137254902
newmtl m391
Kd 0.27450980392156865 0.2196078431372549 0.19607843137254902
newmtl m392
Kd 0.27450980392156865 0.2196078431372549 0.19607843137254902
newmtl m393
Kd 0.27450980392156865 0.2196078431372549 0.19607843137254902
newmtl m394
Kd 0.27450980392156865 0.2196078431372549 0.19607843137254902
newmtl m395
Kd 0.27450980392156865 0.2196078431372549 0.19607843137254902
newmtl m396
Kd 0.27450980392156865 0.2196078431372549 0.19607843137254902
newmtl m397
Kd 0.27450980392156865 0.2196078431372549 0.19607843137254902
newmtl m398
Kd 0.27450980392156865 0.2196078431372549 0.19607843137254902
newmtl m399
Kd 0.25882352941176473 0.1843137254901961 0.1450980392156863
newmtl m400
Kd 0.25882352941176473 0.1843137254901961 0.1450980392156863
newmtl m401
Kd 0.21568627450980393 0.15294117647058825 0.11764705882352941
newmtl m402
Kd 0.44313725490196076 0.396078431372549 0.39215686274509803
newmtl m403
Kd 0.44313725490196076 0.396078431372549 0.39215686274509803
newmtl m404
Kd 0.3764705882352941 0.33725490196078434 0.3333333333333333
newmtl m405
Kd 0.3764705882352941 0.33725490196078434 0.3333333333333333
newmtl m406
Kd 0.44313725490196076 0.396078431372549 0.39215686274509803
newmtl m407
Kd 0.44313725490196076 0.396078431372549 0.39215686274509803
newmtl m408
Kd 0.3764705882352941 0.33725490196078434 0.3333333333333333
newmtl m409
Kd 0.3764705882352941 0.33725490196078434 0.3333333333333333
newmtl m410
Kd 0.44313725490196076 0.396078431372549 0.39215686274509803
newmtl m411
Kd 0.18823529411764706 0.11372549019607843 0.07450980392156863
newmtl m412
Kd 0.18823529411764706 0.11372549019607843 0.07450980392156863
newmtl m413
Kd 0.27450980392156865 0.2196078431372549 0.19607843137254902
newmtl m414
Kd 0.27450980392156865 0.2196078431372549 0.19607843137254902
newmtl m415
Kd 0.21568627450980393 0.15294117647058825 0.11764705882352941
newmtl m416
Kd 0.21568627450980393 0.15294117647058825 0.11764705882352941
newmtl m417
Kd 0.27450980392156865 0.2196078431372549 0.19607843137254902
newmtl m418
Kd 0.27450980392156865 0.2196078431372549 0.19607843137254902
newmtl m419
Kd 0.23137254901960785 0.20784313725490197 0.20784313725490197
newmtl m420
Kd 0.23137254901960785 0.20784313725490197 0.20784313725490197
newmtl m421
Kd 0.23137254901960785 0.20784313725490197 0.20784313725490197
newmtl m422
Kd 0.23137254901960785 0.20784313725490197 0.20784313725490197
newmtl m423
Kd 0.23137254901960785 0.20784313725490197 0.20784313725490197
newmtl m424
Kd 0.23137254901960785 0.20784313725490197 0.20784313725490197
newmtl m425
Kd 0.23137254901960785 0.20784313725490197 0.20784313725490197
newmtl m426
Kd 0.23137254901960785 0.20784313725490197 0.20784313725490197
newmtl m427
Kd 0.23137254901960785 0.20784313725490197 0.20784313725490197
newmtl m428
Kd 0.23137254901960785 0.20784313725490197 0.20784313725490197
newmtl m429
Kd 0.23137254901960785 0.20784313725490197 0.20784313725490197
newmtl m430
Kd 0.27450980392156865 0.2196078431372549 0.19607843137254902
newmtl m431
Kd 0.27450980392156865 0.2196078431372549 0.19607843137254902
newmtl m432
Kd 0.21568627450980393 0.15294117647058825 0.11764705882352941
newmtl m433
Kd 0.21568627450980393 0.15294117647058825 0.11764705882352941
newmtl m434
Kd 0.21568627450980393 0.15294117647058825 0.11764705882352941
newmtl m435
Kd 0.21568627450980393 0.15294117647058825 0.11764705882352941
newmtl m436
Kd 0.21568627450980393 0.15294117647058825 0.11764705882352941
newmtl m437
Kd 0.25882352941176473 0.1843137254901961 0.1450980392156863
newmtl m438
Kd 0.3764705882352941 0.33725490196078434 0.3333333333333333
newmtl m439
Kd 0.3764705882352941 0.33725490196078434 0.3333333333333333
newmtl m440
Kd 0.3764705882352941 0.33725490196078434 0.3333333333333333
newmtl m441
Kd 0.3764705882352941 0.33725490196078434 0.3333333333333333
newmtl m442
Kd 0.44313725490196076 0.396078431372549 0.39215686274509803
newmtl m443
Kd 0.44313725490196076 0.396078431372549 0.39215686274509803
newmtl m444
Kd 0.3764705882352941 0.33725490196078434 0.3333333333333333
newmtl m445
Kd 0.3764705882352941 0.33725490196078434 0.3333333333333333
newmtl m446
Kd 0.44313725490196076 0.396078431372549 0.39215686274509803
newmtl m447
Kd 0.44313725490196076 0.396078431372549 0.39215686274509803
newmtl m448
Kd 0.3764705882352941 0.33725490196078434 0.3333333333333333
newmtl m449
Kd 0.3764705882352941 0.33725490196078434 0.3333333333333333
newmtl m450
Kd 0.44313725490196076 0.396078431372549 0.39215686274509803
newmtl m451
Kd 0.44313725490196076 0.396078431372549 0.39215686274509803
newmtl m452
Kd 0.3764705882352941 0.33725490196078434 0.3333333333333333
newmtl m453
Kd 0.3764705882352941 0.33725490196078434 0.3333333333333333
newmtl m454
Kd 0.44313725490196076 0.396078431372549 0.39215686274509803
newmtl m455
Kd 0.44313725490196076 0.396078431372549 0.39215686274509803
newmtl m456
Kd 0.44313725490196076 0.396078431372549 0.39215686274509803
newmtl m457
Kd 0.44313725490196076 0.396078431372549 0.39215686274509803
newmtl m458
Kd 0.23137254901960785 0.20784313725490197 0.20784313725490197
newmtl m459
Kd 0.30980392156862746 0.2784313725490196 0.27450980392156865
newmtl m460
Kd 0.30980392156862746 0.2784313725490196 0.27450980392156865
newmtl m461
Kd 0.25882352941176473 0.1843137254901961 0.1450980392156863
newmtl m462
Kd 0.27450980392156865 0.2196078431372549 0.19607843137254902
newmtl m463
Kd 0.27450980392156865 0.2196078431372549 0.19607843137254902
newmtl m464
Kd 0.23137254901960785 0.20784313725490197 0.20784313725490197
newmtl m465
Kd 0.23137254901960785 0.20784313725490197 0.20784313725490197
newmtl m466
Kd 0.30980392156862746 0.2784313725490196 0.27450980392156865
newmtl m467
Kd 0.30980392156862746 0.2784313725490196 0.27450980392156865
newmtl m468
Kd 0.30980392156862746 0.2784313725490196 0.27450980392156865
newmtl m469
Kd 0.30980392156862746 0.2784313725490196 0.27450980392156865
newmtl m470
Kd 0.30980392156862746 0.2784313725490196 0.27450980392156865
newmtl m471
Kd 0.30980392156862746 0.2784313725490196 0.27450980392156865
newmtl m472
Kd 0.30980392156862746 0.2784313725490196 0.27450980392156865
newmtl m473
Kd 0.30980392156862746 0.2784313725490196 0.27450980392156865
newmtl m474
Kd 0.30980392156862746 0.2784313725490196 0.27450980392156865
newmtl m475
Kd 0.30980392156862746 0.2784313725490196 0.27450980392156865
newmtl m476
Kd 0.30980392156862746 0.2784313725490196 0.27450980392156865
newmtl m477
Kd 0.30980392156862746 0.2784313725490196 0.27450980392156865
newmtl m478
Kd 0.30980392156862746 0.2784313725490196 0.27450980392156865
newmtl m479
Kd 0.23137254901960785 0.20784313725490197 0.20784313725490197
newmtl m480
Kd 0.23137254901960785 0.20784313725490197 0.20784313725490197
newmtl m481
Kd 0.27450980392156865 0.2196078431372549 0.19607843137254902
newmtl m482
Kd 0.27450980392156865 0.2196078431372549 0.19607843137254902
newmtl m483
Kd 0.27450980392156865 0.2196078431372549 0.19607843137254902
newmtl m484
Kd 0.25882352941176473 0.1843137254901961 0.1450980392156863
newmtl m485
Kd 0.25882352941176473 0.1843137254901961 0.1450980392156863
newmtl m486
Kd 0.18823529411764706 0.11372549019607843 0.07450980392156863
newmtl m487
Kd 0.18823529411764706 0.11372549019607843 0.07450980392156863
newmtl m488
Kd 0.18823529411764706 0.11372549019607843 0.07450980392156863
newmtl m489
Kd 0.23137254901960785 0.20784313725490197 0.20784313725490197
newmtl m490
Kd 0.30980392156862746 0.2784313725490196 0.27450980392156865
newmtl m491
Kd 0.30980392156862746 0.2784313725490196 0.27450980392156865
newmtl m492
Kd 0.44313725490196076 0.396078431372549 0.39215686274509803
newmtl m493
Kd 0.44313725490196076 0.396078431372549 0.39215686274509803
newmtl m494
Kd 0.44313725490196076 0.396078431372549 0.39215686274509803
newmtl m495
Kd 0.44313725490196076 0.396078431372549 0.39215686274509803
newmtl m496
Kd 0.44313725490196076 0.396078431372549 0.39215686274509803
newmtl m497
Kd 0.3764705882352941 0.33725490196078434 0.3333333333333333
newmtl m498
Kd 0.3764705882352941 0.33725490196078434 0.3333333333333333
newmtl m499
Kd 0.44313725490196076 0.396078431372549 0.39215686274509803
newmtl m500
Kd 0.44313725490196076 0.396078431372549 0.39215686274509803
newmtl m501
Kd 0.30980392156862746 0.2784313725490196 0.27450980392156865
newmtl m502
Kd 0.18823529411764706 0.11372549019607843 0.07450980392156863
newmtl m503
Kd 0.18823529411764706 0.11372549019607843 0.07450980392156863
newmtl m504
Kd 0.18823529411764706 0.11372549019607843 0.07450980392156863
newmtl m505
Kd 0.21568627450980393 0.15294117647058825 0.11764705882352941
newmtl m506
Kd 0.21568627450980393 0.15294117647058825 0.11764705882352941
newmtl m507
Kd 0.21568627450980393 0.15294117647058825 0.11764705882352941
