mtllib 39013.mtl
o runescapemodel
v -60 114 -2
v -54 114 -2
v -54 129 -17
v -60 129 -17
v -64 112 0
v -60 114 2
v -60 129 17
v -54 114 2
v -54 129 17
v -48 112 0
v -48 152 -40
v -54 135 -23
v -60 135 -23
v -64 152 -40
v -64 152 -44
v -64 108 0
v -64 152 40
v -60 135 23
v -54 135 23
v -48 152 40
v -48 108 0
v -48 152 -44
v -48 196 0
v -48 192 0
v -54 169 -23
v -54 154 -38
v -54 150 -38
v -60 150 -38
v -60 154 -38
v -60 169 -23
v -64 192 0
v -64 196 0
v -60 200 0
v -60 152 -48
v -60 104 0
v -64 152 44
v -60 175 17
v -60 169 23
v -60 154 38
v -60 150 38
v -54 150 38
v -54 154 38
v -54 169 23
v -54 175 17
v -48 152 44
v -52 152 48
v -52 104 0
v -52 152 -48
v -52 200 0
v -54 175 -17
v -60 175 -17
v -60 190 -2
v -60 190 2
v -54 190 -2
v -54 190 2
v -48 240 22
v -48 228 0
v -48 240 -22
v -60 240 -22
v -60 240 22
v -48 240 64
v -48 228 64
v -52 224 64
v -52 224 0
v -48 228 -64
v -48 240 -64
v -60 240 -64
v -64 238 -24
v -60 200 -22
v -64 202 -20
v -64 238 -20
v -64 238 20
v -60 200 22
v -64 202 24
v -64 238 24
v -60 240 64
v -52 144 -48
v -52 152 -64
v -52 200 -64
v -52 220 0
v -52 200 64
v -64 38 -44
v -64 38 -64
v -64 2 -64
v -64 2 -44
v -60 0 -42
v -60 40 -42
v -60 40 -64
v -60 0 -64
v -52 220 64
v -64 202 64
v -60 200 64
v -52 224 -64
v -52 220 -64
v -64 202 -64
v -64 238 -64
v -64 202 -24
v -60 200 -64
v -60 195 -42
v -64 202 20
v -48 5 -59
v -48 39 -59
v -52 36 -56
v -52 8 -56
v -48 5 -26
v -48 0 -21
v -48 0 -64
v -48 44 -64
v -48 39 -26
v -52 36 -29
v -52 8 -29
v -48 44 -21
v -48 39 -16
v -48 5 -16
v -48 0 21
v -48 5 16
v -48 44 21
v -48 39 26
v -48 5 26
v -48 0 64
v -48 5 59
v -48 44 64
v -60 40 64
v -60 0 64
v -64 2 64
v -60 0 42
v -64 2 44
v -60 40 42
v -64 38 40
v -64 2 40
v -64 2 -40
v -64 38 -40
v -60 44 0
v -60 50 -42
v -60 46 -64
v -52 48 -64
v -60 194 64
v -60 152 64
v -60 197 42
v -60 152 48
v -60 144 48
v -60 96 64
v -52 152 64
v -52 144 48
v -52 96 0
v -60 96 0
v -60 48 42
v -60 46 64
v -52 51 64
v -52 51 0
v -52 51 -64
v -60 96 -64
v -60 152 -64
v -60 194 -64
v -48 39 59
v -52 48 0
v -52 48 64
v -64 38 44
v -64 38 64
v -64 238 64
v -52 8 -13
v -52 36 13
v -52 8 13
v -52 36 -13
v -48 39 16
v -60 144 -48
v -52 36 56
v -52 8 29
v -52 36 29
v -52 8 56
v -60 172 -2
v -60 173 -4
v -60 167 -2
v -60 167 0
v -60 168 6
v -60 173 2
v -60 182 0
v -60 180 -2
v -54 180 -2
v -54 173 -4
v -54 167 -2
v -60 163 -3
v -60 162 -1
v -60 161 7
v -60 168 8
v -60 173 4
v -54 168 6
v -54 161 7
v -54 155 1
v -60 155 1
v -60 154 3
v -60 159 9
v -60 169 23
v -60 175 17
v -60 180 2
v -54 173 2
v -54 173 4
v -54 168 8
v -54 167 0
v -54 172 -2
v -54 182 0
v -54 180 2
v -54 159 9
v -54 154 3
v -54 162 -1
v -60 155 -8
v -54 155 -8
v -54 163 -3
v -54 169 -23
v -54 175 -17
v -54 133 -10
v -54 127 -2
v -60 127 -2
v -60 133 -10
v -54 140 -11
v -54 139 -9
v -54 134 -8
v -54 129 -17
v -54 135 -23
v -54 150 -38
v -54 148 -10
v -54 144 -7
v -54 144 -4
v -54 134 8
v -54 129 0
v -54 127 2
v -54 114 -2
v -60 114 -2
v -60 127 2
v -60 129 0
v -60 134 -8
v -60 129 -17
v -54 140 9
v -54 139 11
v -54 145 7
v -54 146 9
v -54 135 23
v -54 129 17
v -54 133 10
v -60 134 8
v -60 140 9
v -60 145 7
v -60 149 1
v -54 149 1
v -54 150 3
v -54 150 38
v -60 140 -11
v -60 144 -7
v -54 149 -8
v -54 154 38
v -60 150 38
v -60 150 3
v -60 146 9
v -60 139 11
v -60 133 10
v -54 114 2
v -60 156 -10
v -60 169 -23
v -60 154 -38
v -60 154 -10
v -60 149 -8
v -54 175 17
v -54 190 2
v -54 190 -2
v -60 190 -2
v -60 190 2
v -60 144 -4
v -60 139 -9
v -60 148 -10
v -54 150 -10
v -54 154 -10
v -60 150 -10
v -60 150 -38
v -54 154 -38
v -54 156 -10
v -60 175 -17
v -60 114 2
v -54 169 23
v -60 135 -23
v -60 154 38
v -60 135 23
v -60 129 17
v -54 114 2
v -54 114 2
v -54 114 2
v -54 114 2
v -54 114 2
v -54 114 2
vn 0 0 0
vn 0 0 0
vn 0 0 0
vn 0 0 0
vn 0 0 0
vn 0 0 0
vn 0 0 0
vn 0 0 0
vn 0 0 0
vn 0 0 0
vn 0 0 0
vn 0 0 0
vn 0 0 0
vn 0 0 0
vn 0 0 0
vn 0 0 0
vn 0 0 0
vn 0 0 0
vn 0 0 0
vn 0 0 0
vn 0 0 0
vn 0 0 0
vn 0 0 0
vn 0 0 0
vn 0 0 0
vn 0 0 0
vn 0 0 0
vn 0 0 0
vn 0 0 0
vn 0 0 0
vn 0 0 0
vn 0 0 0
vn 0 0 0
vn 0 0 0
vn 0 0 0
vn 0 0 0
vn 0 0 0
vn 0 0 0
vn 0 0 0
vn 0 0 0
vn 0 0 0
vn 0 0 0
vn 0 0 0
vn 0 0 0
vn 0 0 0
vn 0 0 0
vn 0 0 0
vn 0 0 0
vn 0 0 0
vn 0 0 0
vn 0 0 0
vn 0 0 0
vn 0 0 0
vn 0 0 0
vn 0 0 0
vn 0 0 0
vn 0 0 0
vn 0 0 0
vn 0 0 0
vn 0 0 0
vn 0 0 0
vn 0 0 0
vn 0 0 0
vn 0 0 0
vn 0 0 0
vn 0 0 0
vn 0 0 0
vn 0 0 0
vn 0 0 0
vn 0 0 0
vn 0 0 0
vn 0 0 0
vn 0 0 0
vn 0 0 0
vn 0 0 0
vn 0 0 0
vn 0 0 0
vn 0 0 0
vn 0 0 0
vn 0 0 0
vn 0 0 0
vn 0 0 0
vn 0 0 0
vn 0 0 0
vn 0 0 0
vn 0 0 0
vn 0 0 0
vn 0 0 0
vn 0 0 0
vn 0 0 0
vn 0 0 0
vn 0 0 0
vn 0 0 0
vn 0 0 0
vn 0 0 0
vn 0 0 0
vn 0 0 0
vn 0 0 0
vn 0 0 0
vn 0 0 0
vn 0 0 0
vn 0 0 0
vn 0 0 0
vn 0 0 0
vn 0 0 0
vn 0 0 0
vn 0 0 0
vn 0 0 0
vn 0 0 0
vn 0 0 0
vn 0 0 0
vn 0 0 0
vn 0 0 0
vn 0 0 0
vn 0 0 0
vn 0 0 0
vn 0 0 0
vn 0 0 0
vn 0 0 0
vn 0 0 0
vn 0 0 0
vn 0 0 0
vn 0 0 0
vn 0 0 0
vn 0 0 0
vn 0 0 0
vn 0 0 0
vn 0 0 0
vn 0 0 0
vn 0 0 0
vn 0 0 0
vn 0 0 0
vn 0 0 0
vn 0 0 0
vn 0 0 0
vn 0 0 0
vn 0 0 0
vn 0 0 0
vn 0 0 0
vn 0 0 0
vn 0 0 0
vn 0 0 0
vn 0 0 0
vn 0 0 0
vn 0 0 0
vn 0 0 0
vn 0 0 0
vn 0 0 0
vn 0 0 0
vn 0 0 0
vn 0 0 0
vn 0 0 0
vn 0 0 0
vn 0 0 0
vn 0 0 0
vn 0 0 0
vn 0 0 0
vn 0 0 0
vn 0 0 0
vn 0 0 0
vn 0 0 0
vn 0 0 0
vn 0 0 0
vn 0 0 0
vn 0 0 0
vn 0 0 0
vn 0 0 0
vn 0 0 0
vn 0 0 0
vn 0 0 0
vn 0 0 0
vn 0 0 0
vn 0 0 0
vn 0 0 0
vn 0 0 0
vn 0 0 0
vn 0 0 0
vn 0 0 0
vn 0 0 0
vn 0 0 0
vn 0 0 0
vn 0 0 0
vn 0 0 0
vn 0 0 0
vn 0 0 0
vn 0 0 0
vn 0 0 0
vn 0 0 0
vn 0 0 0
vn 0 0 0
vn 0 0 0
vn 0 0 0
vn 0 0 0
vn 0 0 0
vn 0 0 0
vn 0 0 0
vn 0 0 0
vn 0 0 0
vn 0 0 0
vn 0 0 0
vn 0 0 0
vn 0 0 0
vn 0 0 0
vn 0 0 0
vn 0 0 0
vn 0 0 0
vn 0 0 0
vn 0 0 0
vn 0 0 0
vn 0 0 0
vn 0 0 0
vn 0 0 0
vn 0 0 0
vn 0 0 0
vn 0 0 0
vn 0 0 0
vn 0 0 0
vn 0 0 0
vn 0 0 0
vn 0 0 0
vn 0 0 0
vn 0 0 0
vn 0 0 0
vn 0 0 0
vn 0 0 0
vn 0 0 0
vn 0 0 0
vn 0 0 0
vn 0 0 0
vn 0 0 0
vn 0 0 0
vn 0 0 0
vn 0 0 0
vn 0 0 0
vn 0 0 0
vn 0 0 0
vn 0 0 0
vn 0 0 0
vn 0 0 0
vn 0 0 0
vn 0 0 0
vn 0 0 0
vn 0 0 0
vn 0 0 0
vn 0 0 0
vn 0 0 0
vn 0 0 0
vn 0 0 0
vn 0 0 0
vn 0 0 0
vn 0 0 0
vn 0 0 0
vn 0 0 0
vn 0 0 0
vn 0 0 0
vn 0 0 0
vn 0 0 0
vn 0 0 0
vn 0 0 0
vn 0 0 0
vn 0 0 0
vn 0 0 0
vn 0 0 0
vn 0 0 0
vn 0 0 0
vn 0 0 0
vn 0 0 0
vn 0 0 0
vn 0 0 0
vn 0 0 0
vn 0 0 0
vn 0 0 0
vn 0 0 0
vn 0 0 0
vn 0 0 0
vn 0 0 0
vn 0 0 0
vn 0 0 0
vn 0 0 0
vn 0 0 0
vn 0 0 0
vn 0 0 0
vn 0 0 0
vn 0 0 0
vn 0 0 0
vn 0 0 0
vn 0 0 0
vn 0 0 0
usemtl m0
f 1 2 3

usemtl m1
f 1 3 4

usemtl m2
f 1 4 5

usemtl m3
f 1 5 6

usemtl m4
f 6 5 7

usemtl m5
f 6 7 8

usemtl m6
f 8 7 9

usemtl m7
f 8 9 10

usemtl m8
f 8 10 2

usemtl m9
f 2 10 3

usemtl m10
f 3 10 11

usemtl m11
f 3 11 12

usemtl m12
f 3 12 4

usemtl m13
f 4 12 13

usemtl m14
f 4 13 14

usemtl m15
f 4 14 5

usemtl m16
f 5 14 15

usemtl m17
f 5 15 16

usemtl m18
f 5 16 17

usemtl m19
f 5 17 7

usemtl m20
f 7 17 18

usemtl m21
f 7 18 9

usemtl m22
f 9 18 19

usemtl m23
f 9 19 20

usemtl m24
f 9 20 10

usemtl m25
f 10 20 21

usemtl m26
f 10 21 22

usemtl m27
f 10 22 11

usemtl m28
f 11 22 23

usemtl m29
f 11 23 24

usemtl m30
f 11 24 25

usemtl m31
f 11 25 26

usemtl m32
f 11 26 27

usemtl m33
f 11 27 12

usemtl m34
f 12 27 13

usemtl m35
f 13 27 28

usemtl m36
f 13 28 14

usemtl m37
f 14 28 29

usemtl m38
f 14 29 30

usemtl m39
f 14 30 31

usemtl m40
f 14 31 32

usemtl m41
f 14 32 15

usemtl m42
f 15 32 33

usemtl m43
f 15 33 34

usemtl m44
f 15 34 16

usemtl m45
f 16 34 35

usemtl m46
f 16 35 36

usemtl m47
f 16 36 17

usemtl m48
f 17 36 31

usemtl m49
f 17 31 37

usemtl m50
f 17 37 38

usemtl m51
f 17 38 39

usemtl m52
f 17 39 40

usemtl m53
f 17 40 18

usemtl m54
f 18 40 19

usemtl m55
f 19 40 41

usemtl m56
f 19 41 20

usemtl m57
f 20 41 42

usemtl m58
f 20 42 43

usemtl m59
f 20 43 44

usemtl m60
f 20 44 24

usemtl m61
f 20 24 45

usemtl m62
f 20 45 21

usemtl m63
f 21 45 46

usemtl m64
f 21 46 47

usemtl m65
f 21 47 22

usemtl m66
f 22 47 48

usemtl m67
f 22 48 23

usemtl m68
f 23 48 49

usemtl m69
f 23 49 45

usemtl m70
f 23 45 24

usemtl m71
f 29 26 25

usemtl m72
f 29 25 30

usemtl m73
f 30 25 50

usemtl m74
f 30 50 51

usemtl m75
f 30 51 31

usemtl m76
f 31 51 52

usemtl m77
f 31 52 53

usemtl m78
f 31 53 37

usemtl m79
f 37 53 44

usemtl m80
f 37 44 43

usemtl m81
f 37 43 38

usemtl m82
f 38 43 42

usemtl m83
f 38 42 39

usemtl m84
f 51 50 54

usemtl m85
f 51 54 52

usemtl m86
f 53 55 44

usemtl m87
f 44 55 24

usemtl m88
f 24 55 54

usemtl m89
f 24 54 50

usemtl m90
f 24 50 25

usemtl m91
f 56 57 58

usemtl m92
f 56 58 59

usemtl m93
f 56 59 60

usemtl m94
f 56 60 61

usemtl m95
f 56 61 62

usemtl m96
f 56 62 57

usemtl m97
f 57 62 63

usemtl m98
f 57 63 64

usemtl m99
f 57 64 65

usemtl m100
f 57 65 66

usemtl m101
f 57 66 58

usemtl m102
f 58 66 67

usemtl m103
f 58 67 59

usemtl m104
f 59 67 68

usemtl m105
f 59 68 69

usemtl m106
f 59 69 70

usemtl m107
f 59 70 71

usemtl m108
f 59 71 60

usemtl m109
f 60 71 72

usemtl m110
f 60 72 73

usemtl m111
f 60 73 74

usemtl m112
f 60 74 75

usemtl m113
f 60 75 76

usemtl m114
f 60 76 61

usemtl m115
f 61 76 63

usemtl m116
f 61 63 62

usemtl m117
f 48 77 78

usemtl m118
f 48 78 79

usemtl m119
f 48 79 49

usemtl m120
f 49 79 80

usemtl m121
f 49 80 81

usemtl m122
f 49 81 46

usemtl m123
f 49 46 45

usemtl m124
f 82 83 84

usemtl m125
f 82 84 85

usemtl m126
f 82 85 86

usemtl m127
f 82 86 87

usemtl m128
f 82 87 88

usemtl m129
f 82 88 83

usemtl m130
f 83 88 84

usemtl m131
f 84 88 89

usemtl m132
f 84 89 85

usemtl m133
f 85 89 86

usemtl m134
f 90 63 76

usemtl m135
f 90 76 91

usemtl m136
f 90 91 92

usemtl m137
f 90 92 81

usemtl m138
f 90 81 80

usemtl m139
f 90 80 63

usemtl m140
f 63 80 64

usemtl m141
f 64 80 93

usemtl m142
f 64 93 65

usemtl m143
f 65 93 66

usemtl m144
f 66 93 67

usemtl m145
f 67 93 94

usemtl m146
f 67 94 95

usemtl m147
f 67 95 96

usemtl m148
f 67 96 68

usemtl m149
f 68 96 95

usemtl m150
f 68 95 97

usemtl m151
f 68 97 69

usemtl m152
f 69 97 98

usemtl m153
f 69 98 99

usemtl m154
f 69 99 33

usemtl m155
f 69 33 73

usemtl m156
f 69 73 100

usemtl m157
f 69 100 70

usemtl m158
f 70 100 72

usemtl m159
f 70 72 71

usemtl m160
f 101 102 103

usemtl m161
f 101 103 104

usemtl m162
f 101 104 105

usemtl m163
f 101 105 106

usemtl m164
f 101 106 107

usemtl m165
f 101 107 102

usemtl m166
f 102 107 108

usemtl m167
f 102 108 109

usemtl m168
f 102 109 110

usemtl m169
f 102 110 103

usemtl m170
f 103 110 111

usemtl m171
f 103 111 104

usemtl m172
f 104 111 105

usemtl m173
f 105 111 109

usemtl m174
f 105 109 112

usemtl m175
f 105 112 106

usemtl m176
f 106 112 113

usemtl m177
f 106 113 114

usemtl m178
f 106 114 115

usemtl m179
f 115 114 116

usemtl m180
f 115 116 117

usemtl m181
f 115 117 118

usemtl m182
f 115 118 119

usemtl m183
f 115 119 120

usemtl m184
f 120 119 121

usemtl m185
f 120 121 122

usemtl m186
f 120 122 123

usemtl m187
f 120 123 124

usemtl m188
f 124 123 125

usemtl m189
f 124 125 126

usemtl m190
f 126 125 127

usemtl m191
f 126 127 128

usemtl m192
f 126 128 129

usemtl m193
f 126 129 130

usemtl m194
f 126 130 86

usemtl m195
f 86 130 131

usemtl m196
f 86 131 87

usemtl m197
f 87 131 132

usemtl m198
f 87 132 129

usemtl m199
f 87 129 128

usemtl m200
f 87 128 133

usemtl m201
f 87 133 134

usemtl m202
f 87 134 135

usemtl m203
f 87 135 88

usemtl m204
f 88 135 136

usemtl m205
f 88 136 108

usemtl m206
f 88 108 107

usemtl m207
f 88 107 89

usemtl m208
f 137 138 81

usemtl m209
f 137 81 92

usemtl m210
f 137 92 139

usemtl m211
f 137 139 33

usemtl m212
f 137 33 138

usemtl m213
f 138 33 140

usemtl m214
f 138 140 141

usemtl m215
f 138 141 142

usemtl m216
f 138 142 143

usemtl m217
f 138 143 81

usemtl m218
f 81 143 46

usemtl m219
f 46 143 144

usemtl m220
f 46 144 47

usemtl m221
f 47 144 145

usemtl m222
f 47 145 77

usemtl m223
f 47 77 48

usemtl m224
f 141 140 35

usemtl m225
f 141 35 146

usemtl m226
f 141 146 147

usemtl m227
f 141 147 142

usemtl m228
f 142 147 148

usemtl m229
f 142 148 149

usemtl m230
f 142 149 143

usemtl m231
f 143 149 144

usemtl m232
f 144 149 145

usemtl m233
f 145 149 150

usemtl m234
f 145 150 151

usemtl m235
f 145 151 77

usemtl m236
f 77 151 78

usemtl m237
f 78 151 152

usemtl m238
f 78 152 153

usemtl m239
f 78 153 79

usemtl m240
f 79 153 154

usemtl m241
f 79 154 98

usemtl m242
f 79 98 94

usemtl m243
f 79 94 80

usemtl m244
f 80 94 93

usemtl m245
f 72 100 73

usemtl m246
f 121 155 122

usemtl m247
f 122 155 117

usemtl m248
f 122 117 156

usemtl m249
f 122 156 157

usemtl m250
f 122 157 123

usemtl m251
f 123 157 148

usemtl m252
f 123 148 128

usemtl m253
f 123 128 158

usemtl m254
f 123 158 159

usemtl m255
f 123 159 125

usemtl m256
f 125 159 127

usemtl m257
f 127 159 158

usemtl m258
f 127 158 128

usemtl m259
f 139 73 33

usemtl m260
f 73 139 92

usemtl m261
f 73 92 74

usemtl m262
f 74 92 91

usemtl m263
f 74 91 160

usemtl m264
f 74 160 75

usemtl m265
f 75 160 76

usemtl m266
f 76 160 91

usemtl m267
f 161 162 163

usemtl m268
f 161 163 116

usemtl m269
f 161 116 114

usemtl m270
f 161 114 164

usemtl m271
f 161 164 162

usemtl m272
f 162 164 113

usemtl m273
f 162 113 165

usemtl m274
f 162 165 163

usemtl m275
f 163 165 116

usemtl m276
f 116 165 117

usemtl m277
f 117 165 112

usemtl m278
f 117 112 156

usemtl m279
f 156 112 136

usemtl m280
f 156 136 150

usemtl m281
f 156 150 157

usemtl m282
f 157 150 149

usemtl m283
f 157 149 148

usemtl m284
f 150 136 151

usemtl m285
f 151 136 135

usemtl m286
f 151 135 152

usemtl m287
f 152 135 134

usemtl m288
f 152 134 166

usemtl m289
f 152 166 153

usemtl m290
f 153 166 34

usemtl m291
f 153 34 33

usemtl m292
f 153 33 99

usemtl m293
f 153 99 154

usemtl m294
f 154 99 98

usemtl m295
f 112 108 136

usemtl m296
f 108 112 109

usemtl m297
f 167 168 169

usemtl m298
f 167 169 118

usemtl m299
f 167 118 155

usemtl m300
f 167 155 170

usemtl m301
f 167 170 168

usemtl m302
f 168 170 121

usemtl m303
f 168 121 119

usemtl m304
f 168 119 169

usemtl m305
f 169 119 118

usemtl m306
f 98 97 95

usemtl m307
f 98 95 94

usemtl m308
f 134 133 146

usemtl m309
f 134 146 166

usemtl m310
f 166 146 35

usemtl m311
f 166 35 34

usemtl m312
f 147 128 148

usemtl m313
f 128 147 133

usemtl m314
f 133 147 146

usemtl m315
f 35 140 36

usemtl m316
f 36 140 32

usemtl m317
f 36 32 31

usemtl m318
f 114 113 164

usemtl m319
f 165 113 112

usemtl m320
f 140 33 32

usemtl m321
f 129 132 131

usemtl m322
f 129 131 130

usemtl m323
f 155 121 170

usemtl m324
f 110 109 111

usemtl m325
f 155 118 117

usemtl m326
f 171 172 173

usemtl m327
f 171 173 174

usemtl m328
f 171 174 175

usemtl m329
f 171 175 176

usemtl m330
f 171 176 177

usemtl m331
f 171 177 178

usemtl m332
f 171 178 172

usemtl m333
f 172 178 179

usemtl m334
f 172 179 180

usemtl m335
f 172 180 173

usemtl m336
f 173 180 181

usemtl m337
f 173 181 182

usemtl m338
f 173 182 183

usemtl m339
f 173 183 174

usemtl m340
f 174 183 184

usemtl m341
f 174 184 175

usemtl m342
f 175 184 185

usemtl m343
f 175 185 186

usemtl m344
f 175 186 176

usemtl m345
f 175 176 187

usemtl m346
f 175 187 188

usemtl m347
f 175 188 184

usemtl m348
f 184 188 189

usemtl m349
f 184 189 190

usemtl m350
f 184 190 191

usemtl m351
f 184 191 192

usemtl m352
f 184 192 185

usemtl m353
f 185 192 193

usemtl m354
f 185 193 194

usemtl m355
f 185 194 186

usemtl m356
f 186 194 195

usemtl m357
f 186 195 176

usemtl m358
f 176 195 177

usemtl m359
f 176 177 196

usemtl m360
f 176 196 187

usemtl m361
f 187 196 197

usemtl m362
f 187 197 198

usemtl m363
f 187 198 188

usemtl m364
f 187 188 199

usemtl m365
f 187 199 200

usemtl m366
f 187 200 196

usemtl m367
f 196 200 201

usemtl m368
f 196 201 202

usemtl m369
f 196 202 197

usemtl m370
f 197 202 195

usemtl m371
f 197 195 186

usemtl m372
f 197 186 198

usemtl m373
f 198 186 185

usemtl m374
f 198 185 203

usemtl m375
f 198 203 188

usemtl m376
f 188 203 204

usemtl m377
f 188 204 189

usemtl m378
f 188 189 205

usemtl m379
f 188 205 199

usemtl m380
f 199 205 181

usemtl m381
f 199 181 200

usemtl m382
f 199 200 174

usemtl m383
f 199 174 183

usemtl m384
f 199 183 205

usemtl m385
f 205 183 206

usemtl m386
f 205 206 207

usemtl m387
f 205 207 208

usemtl m388
f 205 208 181

usemtl m389
f 181 208 209

usemtl m390
f 181 209 210

usemtl m391
f 181 210 180

usemtl m392
f 181 180 200

usemtl m393
f 200 180 179

usemtl m394
f 200 179 201

usemtl m395
f 200 201 171

usemtl m396
f 200 171 174

usemtl m397
f 211 212 213

usemtl m398
f 211 213 214

usemtl m399
f 211 214 215

usemtl m400
f 211 215 216

usemtl m401
f 211 216 217

usemtl m402
f 211 217 212

usemtl m403
f 211 212 218

usemtl m404
f 211 218 215

usemtl m405
f 215 218 219

usemtl m406
f 215 219 220

usemtl m407
f 215 220 221

usemtl m408
f 215 221 222

usemtl m409
f 215 222 216

usemtl m410
f 216 222 223

usemtl m411
f 216 223 217

usemtl m412
f 217 223 224

usemtl m413
f 217 224 225

usemtl m414
f 217 225 212

usemtl m415
f 212 225 226

usemtl m416
f 212 226 227

usemtl m417
f 212 227 228

usemtl m418
f 212 228 213

usemtl m419
f 213 228 229

usemtl m420
f 213 229 230

usemtl m421
f 213 230 231

usemtl m422
f 213 231 214

usemtl m423
f 213 214 232

usemtl m424
f 213 232 228

usemtl m425
f 233 234 224

usemtl m426
f 233 224 223

usemtl m427
f 233 223 235

usemtl m428
f 233 235 236

usemtl m429
f 233 236 234

usemtl m430
f 234 236 237

usemtl m431
f 234 237 238

usemtl m432
f 234 238 239

usemtl m433
f 234 239 224

usemtl m434
f 224 239 226

usemtl m435
f 224 226 225

usemtl m436
f 224 225 240

usemtl m437
f 224 240 241

usemtl m438
f 224 241 233

usemtl m439
f 233 241 242

usemtl m440
f 233 242 235

usemtl m441
f 235 242 243

usemtl m442
f 235 243 244

usemtl m443
f 235 244 236

usemtl m444
f 236 244 245

usemtl m445
f 236 245 246

usemtl m446
f 236 246 237

usemtl m447
f 222 215 247

usemtl m448
f 222 247 248

usemtl m449
f 222 248 221

usemtl m450
f 222 221 223

usemtl m451
f 223 221 249

usemtl m452
f 223 249 235

usemtl m453
f 235 249 244

usemtl m454
f 244 249 207

usemtl m455
f 244 207 189

usemtl m456
f 244 189 204

usemtl m457
f 244 204 245

usemtl m458
f 245 204 250

usemtl m459
f 245 250 246

usemtl m460
f 245 246 251

usemtl m461
f 245 251 252

usemtl m462
f 245 252 236

usemtl m463
f 236 252 253

usemtl m464
f 236 253 234

usemtl m465
f 234 253 254

usemtl m466
f 234 254 239

usemtl m467
f 239 254 255

usemtl m468
f 239 255 226

usemtl m469
f 226 255 229

usemtl m470
f 226 229 256

usemtl m471
f 226 256 227

usemtl m472
f 256 226 238

usemtl m473
f 238 226 239

usemtl m474
f 257 206 182

usemtl m475
f 257 182 258

usemtl m476
f 257 258 259

usemtl m477
f 257 259 260

usemtl m478
f 257 260 206

usemtl m479
f 206 260 261

usemtl m480
f 206 261 243

usemtl m481
f 206 243 190

usemtl m482
f 206 190 183

usemtl m483
f 206 183 182

usemtl m484
f 262 202 263

usemtl m485
f 263 202 201

usemtl m486
f 263 201 264

usemtl m487
f 264 201 179

usemtl m488
f 264 179 178

usemtl m489
f 264 178 265

usemtl m490
f 265 178 177

usemtl m491
f 265 177 266

usemtl m492
f 266 177 195

usemtl m493
f 266 195 202

usemtl m494
f 266 202 263

usemtl m495
f 267 248 268

usemtl m496
f 267 268 231

usemtl m497
f 267 231 240

usemtl m498
f 267 240 241

usemtl m499
f 267 241 242

usemtl m500
f 267 242 261

usemtl m501
f 267 261 269

usemtl m502
f 267 269 248

usemtl m503
f 248 269 221

usemtl m504
f 221 269 270

usemtl m505
f 221 270 249

usemtl m506
f 249 270 271

usemtl m507
f 249 271 207

usemtl m508
f 249 207 261

usemtl m509
f 249 261 267

usemtl m510
f 249 267 223

usemtl m511
f 223 267 268

usemtl m512
f 223 268 216

usemtl m513
f 216 268 231

usemtl m514
f 216 231 217

usemtl m515
f 217 231 230

usemtl m516
f 217 230 225

usemtl m517
f 225 230 240

usemtl m518
f 240 230 229

usemtl m519
f 240 229 255

usemtl m520
f 240 255 254

usemtl m521
f 240 254 241

usemtl m522
f 241 254 253

usemtl m523
f 241 253 242

usemtl m524
f 242 253 243

usemtl m525
f 242 243 261

usemtl m526
f 243 252 191

usemtl m527
f 243 191 190

usemtl m528
f 243 190 244

usemtl m529
f 244 190 189

usemtl m530
f 272 261 260

usemtl m531
f 272 260 273

usemtl m532
f 272 273 269

usemtl m533
f 272 269 261

usemtl m534
f 269 272 270

usemtl m535
f 270 272 220

usemtl m536
f 270 220 271

usemtl m537
f 271 220 274

usemtl m538
f 271 274 275

usemtl m539
f 271 275 207

usemtl m540
f 207 275 208

usemtl m541
f 208 275 257

usemtl m542
f 208 257 182

usemtl m543
f 208 182 181

usemtl m544
f 276 178 265

usemtl m545
f 178 276 172

usemtl m546
f 172 276 173

usemtl m547
f 173 276 258

usemtl m548
f 173 258 182

usemtl m549
f 228 277 229

usemtl m550
f 229 277 256

usemtl m551
f 204 203 250

usemtl m552
f 250 203 278

usemtl m553
f 278 203 198

usemtl m554
f 278 198 262

usemtl m555
f 262 198 197

usemtl m556
f 262 197 202

usemtl m557
f 205 189 207

usemtl m558
f 214 268 247

usemtl m559
f 214 247 215

usemtl m560
f 247 273 279

usemtl m561
f 247 279 232

usemtl m562
f 247 232 214

usemtl m563
f 280 192 191

usemtl m564
f 280 191 252

usemtl m565
f 280 252 251

usemtl m566
f 251 252 253

usemtl m567
f 251 253 281

usemtl m568
f 281 253 254

usemtl m569
f 281 254 282

usemtl m570
f 282 254 255

usemtl m571
f 282 255 229

usemtl m572
f 282 229 277

usemtl m573
f 192 203 185

usemtl m574
f 203 192 204

usemtl m575
f 204 192 191

usemtl m576
f 204 191 250

usemtl m577
f 250 191 280

usemtl m578
f 270 221 220

usemtl m579
f 260 259 273

usemtl m580
f 259 260 271

usemtl m581
f 259 271 274

usemtl m582
f 268 214 231

usemtl m583
f 266 195 194

usemtl m584
f 247 269 273

usemtl m585
f 269 247 248

usemtl m586
f 248 247 268

usemtl m587
f 273 220 272

usemtl m588
f 264 179 210

usemtl m589
f 210 179 180

usemtl m590
f 275 274 209

usemtl m591
f 275 209 208

usemtl m592
f 230 240 231

usemtl m593
f 190 184 183

usemtl m594
f 275 271 260

usemtl m595
f 275 260 257

usemtl m596
f 253 252 243

usemtl m597
f 212 227 218

usemtl m598
f 280 193 192

usemtl m599
f 261 207 206

usemtl m600
f 177 201 196

usemtl m601
f 201 177 171

