newmtl m0
Kd 0.27450980392156865 0.2196078431372549 0.19607843137254902
newmtl m1
Kd 0.27450980392156865 0.2196078431372549 0.19607843137254902
newmtl m2
Kd 0.3137254901960784 0.2549019607843137 0.2196078431372549
newmtl m3
Kd 0.3137254901960784 0.2549019607843137 0.2196078431372549
newmtl m4
Kd 0.27450980392156865 0.2196078431372549 0.19607843137254902
newmtl m5
Kd 0.27450980392156865 0.2196078431372549 0.19607843137254902
newmtl m6
Kd 0.3137254901960784 0.2549019607843137 0.2196078431372549
newmtl m7
Kd 0.3137254901960784 0.2549019607843137 0.2196078431372549
newmtl m8
Kd 0.6745098039215687 0.6666666666666666 0.21176470588235294
newmtl m9
Kd 0.6745098039215687 0.6666666666666666 0.21176470588235294
newmtl m10
Kd 0.6745098039215687 0.6666666666666666 0.21176470588235294
newmtl m11
Kd 0.6745098039215687 0.6666666666666666 0.21176470588235294
newmtl m12
Kd 0.6745098039215687 0.6666666666666666 0.21176470588235294
newmtl m13
Kd 0.6745098039215687 0.6666666666666666 0.21176470588235294
newmtl m14
Kd 0.6745098039215687 0.6666666666666666 0.21176470588235294
newmtl m15
Kd 0.6745098039215687 0.6666666666666666 0.21176470588235294
newmtl m16
Kd 0.6745098039215687 0.6666666666666666 0.21176470588235294
newmtl m17
Kd 0.6745098039215687 0.6666666666666666 0.21176470588235294
newmtl m18
Kd 0.6745098039215687 0.6666666666666666 0.21176470588235294
newmtl m19
Kd 0.6745098039215687 0.6666666666666666 0.21176470588235294
newmtl m20
Kd 0.47058823529411764 0.39215686274509803 0.3333333333333333
newmtl m21
Kd 0.47058823529411764 0.39215686274509803 0.3333333333333333
newmtl m22
Kd 0.3607843137254902 0.2901960784313726 0.2549019607843137
newmtl m23
Kd 0.3607843137254902 0.2901960784313726 0.2549019607843137
newmtl m24
Kd 0.5098039215686274 0.4235294117647059 0.3568627450980392
newmtl m25
Kd 0.5098039215686274 0.4235294117647059 0.3568627450980392
newmtl m26
Kd 0.3607843137254902 0.2901960784313726 0.2549019607843137
newmtl m27
Kd 0.3607843137254902 0.2901960784313726 0.2549019607843137
newmtl m28
Kd 0.27450980392156865 0.2196078431372549 0.19607843137254902
newmtl m29
Kd 0.27450980392156865 0.2196078431372549 0.19607843137254902
newmtl m30
Kd 0.7647058823529411 0.7568627450980392 0.24313725490196078
newmtl m31
Kd 0.7647058823529411 0.7568627450980392 0.24313725490196078
newmtl m32
Kd 0.7647058823529411 0.7568627450980392 0.24313725490196078
newmtl m33
Kd 0.7647058823529411 0.7568627450980392 0.24313725490196078
newmtl m34
Kd 0.7647058823529411 0.7568627450980392 0.24313725490196078
newmtl m35
Kd 0.7647058823529411 0.7568627450980392 0.24313725490196078
