newmtl m0
Kd 0.12156862745098039 0.08235294117647059 0.0392156862745098
newmtl m1
Kd 0.12156862745098039 0.08235294117647059 0.0392156862745098
newmtl m2
Kd 0.12156862745098039 0.08235294117647059 0.0392156862745098
newmtl m3
Kd 0.12156862745098039 0.08235294117647059 0.0392156862745098
newmtl m4
Kd 0.12156862745098039 0.08235294117647059 0.0392156862745098
newmtl m5
Kd 0.12156862745098039 0.08235294117647059 0.0392156862745098
newmtl m6
Kd 0.12156862745098039 0.08235294117647059 0.0392156862745098
newmtl m7
Kd 0.12156862745098039 0.08235294117647059 0.0392156862745098
newmtl m8
Kd 0.12156862745098039 0.08235294117647059 0.0392156862745098
newmtl m9
Kd 0.12156862745098039 0.08235294117647059 0.0392156862745098
newmtl m10
Kd 0.12156862745098039 0.08235294117647059 0.0392156862745098
newmtl m11
Kd 0.12156862745098039 0.08235294117647059 0.0392156862745098
newmtl m12
Kd 0.12156862745098039 0.08235294117647059 0.0392156862745098
newmtl m13
Kd 0.12156862745098039 0.08235294117647059 0.0392156862745098
newmtl m14
Kd 0.12156862745098039 0.08235294117647059 0.0392156862745098
newmtl m15
Kd 0.12156862745098039 0.08235294117647059 0.0392156862745098
newmtl m16
Kd 0.14901960784313725 0.11764705882352941 0.08235294117647059
newmtl m17
Kd 0.14901960784313725 0.11764705882352941 0.08235294117647059
newmtl m18
Kd 0.14901960784313725 0.11764705882352941 0.08235294117647059
newmtl m19
Kd 0.14901960784313725 0.11764705882352941 0.08235294117647059
newmtl m20
Kd 0.14901960784313725 0.11764705882352941 0.08235294117647059
newmtl m21
Kd 0.12156862745098039 0.08235294117647059 0.0392156862745098
newmtl m22
Kd 0.12156862745098039 0.08235294117647059 0.0392156862745098
newmtl m23
Kd 0.12156862745098039 0.08235294117647059 0.0392156862745098
newmtl m24
Kd 0.12156862745098039 0.08235294117647059 0.0392156862745098
newmtl m25
Kd 0.12156862745098039 0.08235294117647059 0.0392156862745098
newmtl m26
Kd 0.12156862745098039 0.08235294117647059 0.0392156862745098
newmtl m27
Kd 0.12156862745098039 0.08235294117647059 0.0392156862745098
newmtl m28
Kd 0.12156862745098039 0.08235294117647059 0.0392156862745098
newmtl m29
Kd 0.12156862745098039 0.08235294117647059 0.0392156862745098
newmtl m30
Kd 0.12156862745098039 0.08235294117647059 0.0392156862745098
newmtl m31
Kd 0.14901960784313725 0.11764705882352941 0.08235294117647059
newmtl m32
Kd 0.14901960784313725 0.11764705882352941 0.08235294117647059
newmtl m33
Kd 0.14901960784313725 0.11764705882352941 0.08235294117647059
newmtl m34
Kd 0.14901960784313725 0.11764705882352941 0.08235294117647059
newmtl m35
Kd 0.14901960784313725 0.11764705882352941 0.08235294117647059
newmtl m36
Kd 0.14901960784313725 0.11764705882352941 0.08235294117647059
newmtl m37
Kd 0.14901960784313725 0.11764705882352941 0.08235294117647059
newmtl m38
Kd 0.14901960784313725 0.11764705882352941 0.08235294117647059
newmtl m39
Kd 0.14901960784313725 0.11764705882352941 0.08235294117647059
newmtl m40
Kd 0.14901960784313725 0.11764705882352941 0.08235294117647059
newmtl m41
Kd 0.14901960784313725 0.11764705882352941 0.08235294117647059
newmtl m42
Kd 0.19607843137254902 0.15294117647058825 0.10980392156862745
newmtl m43
Kd 0.19607843137254902 0.15294117647058825 0.10980392156862745
newmtl m44
Kd 0.19607843137254902 0.15294117647058825 0.10980392156862745
newmtl m45
Kd 0.19607843137254902 0.15294117647058825 0.10980392156862745
newmtl m46
Kd 0.19607843137254902 0.15294117647058825 0.10980392156862745
newmtl m47
Kd 0.19607843137254902 0.15294117647058825 0.10980392156862745
newmtl m48
Kd 0.19607843137254902 0.15294117647058825 0.10980392156862745
newmtl m49
Kd 0.19607843137254902 0.15294117647058825 0.10980392156862745
newmtl m50
Kd 0.19607843137254902 0.15294117647058825 0.10980392156862745
newmtl m51
Kd 0.14901960784313725 0.11764705882352941 0.08235294117647059
newmtl m52
Kd 0.14901960784313725 0.11764705882352941 0.08235294117647059
newmtl m53
Kd 0.12156862745098039 0.08235294117647059 0.0392156862745098
newmtl m54
Kd 0.12156862745098039 0.08235294117647059 0.0392156862745098
newmtl m55
Kd 0.21568627450980393 0.18823529411764706 0.15294117647058825
newmtl m56
Kd 0.25882352941176473 0.2196078431372549 0.1843137254901961
newmtl m57
Kd 0.25882352941176473 0.2196078431372549 0.1843137254901961
newmtl m58
Kd 0.25882352941176473 0.2196078431372549 0.1843137254901961
newmtl m59
Kd 0.21568627450980393 0.18823529411764706 0.15294117647058825
newmtl m60
Kd 0.21568627450980393 0.18823529411764706 0.15294117647058825
newmtl m61
Kd 0.19607843137254902 0.15294117647058825 0.10980392156862745
newmtl m62
Kd 0.19607843137254902 0.15294117647058825 0.10980392156862745
newmtl m63
Kd 0.19607843137254902 0.15294117647058825 0.10980392156862745
newmtl m64
Kd 0.19607843137254902 0.15294117647058825 0.10980392156862745
newmtl m65
Kd 0.21568627450980393 0.18823529411764706 0.15294117647058825
newmtl m66
Kd 0.21568627450980393 0.18823529411764706 0.15294117647058825
newmtl m67
Kd 0.25882352941176473 0.2196078431372549 0.1843137254901961
newmtl m68
Kd 0.25882352941176473 0.2196078431372549 0.1843137254901961
newmtl m69
Kd 0.18823529411764706 0.25882352941176473 0.1450980392156863
newmtl m70
Kd 0.18823529411764706 0.25882352941176473 0.1450980392156863
newmtl m71
Kd 0.18823529411764706 0.25882352941176473 0.1450980392156863
newmtl m72
Kd 0.18823529411764706 0.25882352941176473 0.1450980392156863
newmtl m73
Kd 0.18823529411764706 0.25882352941176473 0.1450980392156863
newmtl m74
Kd 0.25882352941176473 0.2196078431372549 0.1843137254901961
newmtl m75
Kd 0.25882352941176473 0.2196078431372549 0.1843137254901961
newmtl m76
Kd 0.21568627450980393 0.18823529411764706 0.15294117647058825
newmtl m77
Kd 0.21568627450980393 0.18823529411764706 0.15294117647058825
newmtl m78
Kd 0.19607843137254902 0.15294117647058825 0.10980392156862745
newmtl m79
Kd 0.19607843137254902 0.15294117647058825 0.10980392156862745
newmtl m80
Kd 0.19607843137254902 0.15294117647058825 0.10980392156862745
newmtl m81
Kd 0.19607843137254902 0.15294117647058825 0.10980392156862745
newmtl m82
Kd 0.19607843137254902 0.15294117647058825 0.10980392156862745
newmtl m83
Kd 0.19607843137254902 0.15294117647058825 0.10980392156862745
newmtl m84
Kd 0.19607843137254902 0.15294117647058825 0.10980392156862745
newmtl m85
Kd 0.19607843137254902 0.15294117647058825 0.10980392156862745
newmtl m86
Kd 0.21568627450980393 0.18823529411764706 0.15294117647058825
newmtl m87
Kd 0.21568627450980393 0.18823529411764706 0.15294117647058825
newmtl m88
Kd 0.25882352941176473 0.2196078431372549 0.1843137254901961
newmtl m89
Kd 0.25882352941176473 0.2196078431372549 0.1843137254901961
newmtl m90
Kd 0.18823529411764706 0.25882352941176473 0.1450980392156863
newmtl m91
Kd 0.18823529411764706 0.25882352941176473 0.1450980392156863
newmtl m92
Kd 0.18823529411764706 0.25882352941176473 0.1450980392156863
newmtl m93
Kd 0.2235294117647059 0.27450980392156865 0.19607843137254902
newmtl m94
Kd 0.2235294117647059 0.27450980392156865 0.19607843137254902
newmtl m95
Kd 0.2235294117647059 0.27450980392156865 0.19607843137254902
newmtl m96
Kd 0.2235294117647059 0.27450980392156865 0.19607843137254902
newmtl m97
Kd 0.2235294117647059 0.27450980392156865 0.19607843137254902
newmtl m98
Kd 0.2235294117647059 0.27450980392156865 0.19607843137254902
newmtl m99
Kd 0.2235294117647059 0.27450980392156865 0.19607843137254902
newmtl m100
Kd 0.18823529411764706 0.25882352941176473 0.1450980392156863
newmtl m101
Kd 0.18823529411764706 0.25882352941176473 0.1450980392156863
newmtl m102
Kd 0.25882352941176473 0.2196078431372549 0.1843137254901961
newmtl m103
Kd 0.25882352941176473 0.2196078431372549 0.1843137254901961
newmtl m104
Kd 0.21568627450980393 0.18823529411764706 0.15294117647058825
newmtl m105
Kd 0.21568627450980393 0.18823529411764706 0.15294117647058825
newmtl m106
Kd 0.21568627450980393 0.18823529411764706 0.15294117647058825
newmtl m107
Kd 0.19607843137254902 0.15294117647058825 0.10980392156862745
newmtl m108
Kd 0.19607843137254902 0.15294117647058825 0.10980392156862745
newmtl m109
Kd 0.25882352941176473 0.2196078431372549 0.1843137254901961
newmtl m110
Kd 0.19607843137254902 0.15294117647058825 0.10980392156862745
newmtl m111
Kd 0.19607843137254902 0.15294117647058825 0.10980392156862745
newmtl m112
Kd 0.19607843137254902 0.15294117647058825 0.10980392156862745
newmtl m113
Kd 0.19607843137254902 0.15294117647058825 0.10980392156862745
newmtl m114
Kd 0.21568627450980393 0.18823529411764706 0.15294117647058825
newmtl m115
Kd 0.21568627450980393 0.18823529411764706 0.15294117647058825
newmtl m116
Kd 0.21568627450980393 0.18823529411764706 0.15294117647058825
newmtl m117
Kd 0.21568627450980393 0.18823529411764706 0.15294117647058825
newmtl m118
Kd 0.21568627450980393 0.18823529411764706 0.15294117647058825
newmtl m119
Kd 0.21568627450980393 0.18823529411764706 0.15294117647058825
newmtl m120
Kd 0.21568627450980393 0.18823529411764706 0.15294117647058825
newmtl m121
Kd 0.21568627450980393 0.18823529411764706 0.15294117647058825
newmtl m122
Kd 0.21568627450980393 0.18823529411764706 0.15294117647058825
newmtl m123
Kd 0.21568627450980393 0.18823529411764706 0.15294117647058825
newmtl m124
Kd 0.21568627450980393 0.18823529411764706 0.15294117647058825
newmtl m125
Kd 0.21568627450980393 0.18823529411764706 0.15294117647058825
newmtl m126
Kd 0.21568627450980393 0.18823529411764706 0.15294117647058825
newmtl m127
Kd 0.21568627450980393 0.18823529411764706 0.15294117647058825
newmtl m128
Kd 0.21568627450980393 0.18823529411764706 0.15294117647058825
newmtl m129
Kd 0.19607843137254902 0.15294117647058825 0.10980392156862745
newmtl m130
Kd 0.19607843137254902 0.15294117647058825 0.10980392156862745
newmtl m131
Kd 0.19607843137254902 0.15294117647058825 0.10980392156862745
newmtl m132
Kd 0.19607843137254902 0.15294117647058825 0.10980392156862745
newmtl m133
Kd 0.14901960784313725 0.11764705882352941 0.08235294117647059
newmtl m134
Kd 0.14901960784313725 0.11764705882352941 0.08235294117647059
newmtl m135
Kd 0.14901960784313725 0.11764705882352941 0.08235294117647059
newmtl m136
Kd 0.14901960784313725 0.11764705882352941 0.08235294117647059
newmtl m137
Kd 0.19607843137254902 0.15294117647058825 0.10980392156862745
newmtl m138
Kd 0.19607843137254902 0.15294117647058825 0.10980392156862745
newmtl m139
Kd 0.19607843137254902 0.15294117647058825 0.10980392156862745
newmtl m140
Kd 0.19607843137254902 0.15294117647058825 0.10980392156862745
newmtl m141
Kd 0.19607843137254902 0.15294117647058825 0.10980392156862745
newmtl m142
Kd 0.19607843137254902 0.15294117647058825 0.10980392156862745
newmtl m143
Kd 0.14901960784313725 0.11764705882352941 0.08235294117647059
newmtl m144
Kd 0.14901960784313725 0.11764705882352941 0.08235294117647059
newmtl m145
Kd 0.14901960784313725 0.11764705882352941 0.08235294117647059
newmtl m146
Kd 0.14901960784313725 0.11764705882352941 0.08235294117647059
newmtl m147
Kd 0.14901960784313725 0.11764705882352941 0.08235294117647059
newmtl m148
Kd 0.19607843137254902 0.15294117647058825 0.10980392156862745
newmtl m149
Kd 0.19607843137254902 0.15294117647058825 0.10980392156862745
newmtl m150
Kd 0.19607843137254902 0.15294117647058825 0.10980392156862745
newmtl m151
Kd 0.19607843137254902 0.15294117647058825 0.10980392156862745
newmtl m152
Kd 0.19607843137254902 0.15294117647058825 0.10980392156862745
newmtl m153
Kd 0.21568627450980393 0.18823529411764706 0.15294117647058825
newmtl m154
Kd 0.25882352941176473 0.2196078431372549 0.1843137254901961
newmtl m155
Kd 0.25882352941176473 0.2196078431372549 0.1843137254901961
newmtl m156
Kd 0.18823529411764706 0.25882352941176473 0.1450980392156863
newmtl m157
Kd 0.18823529411764706 0.25882352941176473 0.1450980392156863
newmtl m158
Kd 0.2235294117647059 0.27450980392156865 0.19607843137254902
newmtl m159
Kd 0.19607843137254902 0.15294117647058825 0.10980392156862745
newmtl m160
Kd 0.19607843137254902 0.15294117647058825 0.10980392156862745
newmtl m161
Kd 0.19607843137254902 0.15294117647058825 0.10980392156862745
newmtl m162
Kd 0.19607843137254902 0.15294117647058825 0.10980392156862745
newmtl m163
Kd 0.21568627450980393 0.18823529411764706 0.15294117647058825
newmtl m164
Kd 0.25882352941176473 0.2196078431372549 0.1843137254901961
newmtl m165
Kd 0.25882352941176473 0.2196078431372549 0.1843137254901961
newmtl m166
Kd 0.25882352941176473 0.2196078431372549 0.1843137254901961
newmtl m167
Kd 0.25882352941176473 0.2196078431372549 0.1843137254901961
newmtl m168
Kd 0.21568627450980393 0.18823529411764706 0.15294117647058825
newmtl m169
Kd 0.21568627450980393 0.18823529411764706 0.15294117647058825
newmtl m170
Kd 0.21568627450980393 0.18823529411764706 0.15294117647058825
newmtl m171
Kd 0.21568627450980393 0.18823529411764706 0.15294117647058825
newmtl m172
Kd 0.19607843137254902 0.15294117647058825 0.10980392156862745
newmtl m173
Kd 0.18823529411764706 0.25882352941176473 0.1450980392156863
newmtl m174
Kd 0.18823529411764706 0.25882352941176473 0.1450980392156863
newmtl m175
Kd 0.2235294117647059 0.27450980392156865 0.19607843137254902
newmtl m176
Kd 0.2235294117647059 0.27450980392156865 0.19607843137254902
newmtl m177
Kd 0.18823529411764706 0.25882352941176473 0.1450980392156863
newmtl m178
Kd 0.18823529411764706 0.25882352941176473 0.1450980392156863
newmtl m179
Kd 0.18823529411764706 0.25882352941176473 0.1450980392156863
newmtl m180
Kd 0.18823529411764706 0.25882352941176473 0.1450980392156863
newmtl m181
Kd 0.25882352941176473 0.2196078431372549 0.1843137254901961
newmtl m182
Kd 0.25882352941176473 0.2196078431372549 0.1843137254901961
newmtl m183
Kd 0.25882352941176473 0.2196078431372549 0.1843137254901961
newmtl m184
Kd 0.21568627450980393 0.18823529411764706 0.15294117647058825
newmtl m185
Kd 0.21568627450980393 0.18823529411764706 0.15294117647058825
newmtl m186
Kd 0.21568627450980393 0.18823529411764706 0.15294117647058825
newmtl m187
Kd 0.21568627450980393 0.18823529411764706 0.15294117647058825
newmtl m188
Kd 0.21568627450980393 0.18823529411764706 0.15294117647058825
newmtl m189
Kd 0.21568627450980393 0.18823529411764706 0.15294117647058825
newmtl m190
Kd 0.21568627450980393 0.18823529411764706 0.15294117647058825
newmtl m191
Kd 0.21568627450980393 0.18823529411764706 0.15294117647058825
newmtl m192
Kd 0.21568627450980393 0.18823529411764706 0.15294117647058825
newmtl m193
Kd 0.21568627450980393 0.18823529411764706 0.15294117647058825
newmtl m194
Kd 0.21568627450980393 0.18823529411764706 0.15294117647058825
newmtl m195
Kd 0.21568627450980393 0.18823529411764706 0.15294117647058825
newmtl m196
Kd 0.21568627450980393 0.18823529411764706 0.15294117647058825
newmtl m197
Kd 0.19607843137254902 0.15294117647058825 0.10980392156862745
newmtl m198
Kd 0.19607843137254902 0.15294117647058825 0.10980392156862745
newmtl m199
Kd 0.19607843137254902 0.15294117647058825 0.10980392156862745
newmtl m200
Kd 0.19607843137254902 0.15294117647058825 0.10980392156862745
newmtl m201
Kd 0.19607843137254902 0.15294117647058825 0.10980392156862745
newmtl m202
Kd 0.19607843137254902 0.15294117647058825 0.10980392156862745
newmtl m203
Kd 0.19607843137254902 0.15294117647058825 0.10980392156862745
newmtl m204
Kd 0.19607843137254902 0.15294117647058825 0.10980392156862745
newmtl m205
Kd 0.21568627450980393 0.18823529411764706 0.15294117647058825
newmtl m206
Kd 0.21568627450980393 0.18823529411764706 0.15294117647058825
newmtl m207
Kd 0.21568627450980393 0.18823529411764706 0.15294117647058825
newmtl m208
Kd 0.21568627450980393 0.18823529411764706 0.15294117647058825
newmtl m209
Kd 0.21568627450980393 0.18823529411764706 0.15294117647058825
newmtl m210
Kd 0.12156862745098039 0.08235294117647059 0.0392156862745098
newmtl m211
Kd 0.12156862745098039 0.08235294117647059 0.0392156862745098
newmtl m212
Kd 0.12156862745098039 0.08235294117647059 0.0392156862745098
newmtl m213
Kd 0.12156862745098039 0.08235294117647059 0.0392156862745098
newmtl m214
Kd 0.12156862745098039 0.08235294117647059 0.0392156862745098
newmtl m215
Kd 0.12156862745098039 0.08235294117647059 0.0392156862745098
newmtl m216
Kd 0.12156862745098039 0.08235294117647059 0.0392156862745098
newmtl m217
Kd 0.12156862745098039 0.08235294117647059 0.0392156862745098
newmtl m218
Kd 0.12156862745098039 0.08235294117647059 0.0392156862745098
newmtl m219
Kd 0.12156862745098039 0.08235294117647059 0.0392156862745098
newmtl m220
Kd 0.12156862745098039 0.08235294117647059 0.0392156862745098
newmtl m221
Kd 0.12156862745098039 0.08235294117647059 0.0392156862745098
newmtl m222
Kd 0.12156862745098039 0.08235294117647059 0.0392156862745098
newmtl m223
Kd 0.12156862745098039 0.08235294117647059 0.0392156862745098
newmtl m224
Kd 0.12156862745098039 0.08235294117647059 0.0392156862745098
newmtl m225
Kd 0.12156862745098039 0.08235294117647059 0.0392156862745098
newmtl m226
Kd 0.12156862745098039 0.08235294117647059 0.0392156862745098
newmtl m227
Kd 0.12156862745098039 0.08235294117647059 0.0392156862745098
newmtl m228
Kd 0.12156862745098039 0.08235294117647059 0.0392156862745098
newmtl m229
Kd 0.12156862745098039 0.08235294117647059 0.0392156862745098
newmtl m230
Kd 0.12156862745098039 0.08235294117647059 0.0392156862745098
newmtl m231
Kd 0.12156862745098039 0.08235294117647059 0.0392156862745098
newmtl m232
Kd 0.12156862745098039 0.08235294117647059 0.0392156862745098
newmtl m233
Kd 0.12156862745098039 0.08235294117647059 0.0392156862745098
newmtl m234
Kd 0.12156862745098039 0.08235294117647059 0.0392156862745098
newmtl m235
Kd 0.12156862745098039 0.08235294117647059 0.0392156862745098
newmtl m236
Kd 0.12156862745098039 0.08235294117647059 0.0392156862745098
newmtl m237
Kd 0.12156862745098039 0.08235294117647059 0.0392156862745098
newmtl m238
Kd 0.12156862745098039 0.08235294117647059 0.0392156862745098
newmtl m239
Kd 0.21568627450980393 0.18823529411764706 0.15294117647058825
newmtl m240
Kd 0.21568627450980393 0.18823529411764706 0.15294117647058825
newmtl m241
Kd 0.21568627450980393 0.18823529411764706 0.15294117647058825
newmtl m242
Kd 0.21568627450980393 0.18823529411764706 0.15294117647058825
newmtl m243
Kd 0.21568627450980393 0.18823529411764706 0.15294117647058825
newmtl m244
Kd 0.25882352941176473 0.2196078431372549 0.1843137254901961
newmtl m245
Kd 0.25882352941176473 0.2196078431372549 0.1843137254901961
newmtl m246
Kd 0.21568627450980393 0.18823529411764706 0.15294117647058825
newmtl m247
Kd 0.21568627450980393 0.18823529411764706 0.15294117647058825
newmtl m248
Kd 0.21568627450980393 0.18823529411764706 0.15294117647058825
newmtl m249
Kd 0.19607843137254902 0.15294117647058825 0.10980392156862745
newmtl m250
Kd 0.19607843137254902 0.15294117647058825 0.10980392156862745
newmtl m251
Kd 0.19607843137254902 0.15294117647058825 0.10980392156862745
newmtl m252
Kd 0.19607843137254902 0.15294117647058825 0.10980392156862745
newmtl m253
Kd 0.19607843137254902 0.15294117647058825 0.10980392156862745
newmtl m254
Kd 0.19607843137254902 0.15294117647058825 0.10980392156862745
newmtl m255
Kd 0.21568627450980393 0.18823529411764706 0.15294117647058825
newmtl m256
Kd 0.21568627450980393 0.18823529411764706 0.15294117647058825
newmtl m257
Kd 0.25882352941176473 0.2196078431372549 0.1843137254901961
newmtl m258
Kd 0.25882352941176473 0.2196078431372549 0.1843137254901961
newmtl m259
Kd 0.25882352941176473 0.2196078431372549 0.1843137254901961
newmtl m260
Kd 0.18823529411764706 0.25882352941176473 0.1450980392156863
newmtl m261
Kd 0.18823529411764706 0.25882352941176473 0.1450980392156863
newmtl m262
Kd 0.18823529411764706 0.25882352941176473 0.1450980392156863
newmtl m263
Kd 0.18823529411764706 0.25882352941176473 0.1450980392156863
newmtl m264
Kd 0.25882352941176473 0.2196078431372549 0.1843137254901961
newmtl m265
Kd 0.25882352941176473 0.2196078431372549 0.1843137254901961
newmtl m266
Kd 0.21568627450980393 0.18823529411764706 0.15294117647058825
newmtl m267
Kd 0.21568627450980393 0.18823529411764706 0.15294117647058825
newmtl m268
Kd 0.21568627450980393 0.18823529411764706 0.15294117647058825
newmtl m269
Kd 0.21568627450980393 0.18823529411764706 0.15294117647058825
newmtl m270
Kd 0.21568627450980393 0.18823529411764706 0.15294117647058825
newmtl m271
Kd 0.21568627450980393 0.18823529411764706 0.15294117647058825
newmtl m272
Kd 0.21568627450980393 0.18823529411764706 0.15294117647058825
newmtl m273
Kd 0.21568627450980393 0.18823529411764706 0.15294117647058825
newmtl m274
Kd 0.21568627450980393 0.18823529411764706 0.15294117647058825
newmtl m275
Kd 0.21568627450980393 0.18823529411764706 0.15294117647058825
newmtl m276
Kd 0.21568627450980393 0.18823529411764706 0.15294117647058825
newmtl m277
Kd 0.21568627450980393 0.18823529411764706 0.15294117647058825
newmtl m278
Kd 0.21568627450980393 0.18823529411764706 0.15294117647058825
newmtl m279
Kd 0.21568627450980393 0.18823529411764706 0.15294117647058825
newmtl m280
Kd 0.21568627450980393 0.18823529411764706 0.15294117647058825
newmtl m281
Kd 0.21568627450980393 0.18823529411764706 0.15294117647058825
newmtl m282
Kd 0.21568627450980393 0.18823529411764706 0.15294117647058825
newmtl m283
Kd 0.21568627450980393 0.18823529411764706 0.15294117647058825
newmtl m284
Kd 0.21568627450980393 0.18823529411764706 0.15294117647058825
newmtl m285
Kd 0.21568627450980393 0.18823529411764706 0.15294117647058825
newmtl m286
Kd 0.21568627450980393 0.18823529411764706 0.15294117647058825
newmtl m287
Kd 0.21568627450980393 0.18823529411764706 0.15294117647058825
newmtl m288
Kd 0.21568627450980393 0.18823529411764706 0.15294117647058825
newmtl m289
Kd 0.21568627450980393 0.18823529411764706 0.15294117647058825
newmtl m290
Kd 0.21568627450980393 0.18823529411764706 0.15294117647058825
newmtl m291
Kd 0.21568627450980393 0.18823529411764706 0.15294117647058825
newmtl m292
Kd 0.21568627450980393 0.18823529411764706 0.15294117647058825
newmtl m293
Kd 0.14901960784313725 0.11764705882352941 0.08235294117647059
newmtl m294
Kd 0.14901960784313725 0.11764705882352941 0.08235294117647059
newmtl m295
Kd 0.14901960784313725 0.11764705882352941 0.08235294117647059
newmtl m296
Kd 0.14901960784313725 0.11764705882352941 0.08235294117647059
newmtl m297
Kd 0.14901960784313725 0.11764705882352941 0.08235294117647059
newmtl m298
Kd 0.14901960784313725 0.11764705882352941 0.08235294117647059
newmtl m299
Kd 0.14901960784313725 0.11764705882352941 0.08235294117647059
newmtl m300
Kd 0.14901960784313725 0.11764705882352941 0.08235294117647059
newmtl m301
Kd 0.14901960784313725 0.11764705882352941 0.08235294117647059
newmtl m302
Kd 0.14901960784313725 0.11764705882352941 0.08235294117647059
newmtl m303
Kd 0.14901960784313725 0.11764705882352941 0.08235294117647059
newmtl m304
Kd 0.14901960784313725 0.11764705882352941 0.08235294117647059
newmtl m305
Kd 0.14901960784313725 0.11764705882352941 0.08235294117647059
newmtl m306
Kd 0.14901960784313725 0.11764705882352941 0.08235294117647059
newmtl m307
Kd 0.14901960784313725 0.11764705882352941 0.08235294117647059
newmtl m308
Kd 0.14901960784313725 0.11764705882352941 0.08235294117647059
newmtl m309
Kd 0.14901960784313725 0.11764705882352941 0.08235294117647059
newmtl m310
Kd 0.14901960784313725 0.11764705882352941 0.08235294117647059
newmtl m311
Kd 0.14901960784313725 0.11764705882352941 0.08235294117647059
newmtl m312
Kd 0.14901960784313725 0.11764705882352941 0.08235294117647059
newmtl m313
Kd 0.14901960784313725 0.11764705882352941 0.08235294117647059
newmtl m314
Kd 0.14901960784313725 0.11764705882352941 0.08235294117647059
newmtl m315
Kd 0.14901960784313725 0.11764705882352941 0.08235294117647059
newmtl m316
Kd 0.14901960784313725 0.11764705882352941 0.08235294117647059
newmtl m317
Kd 0.14901960784313725 0.11764705882352941 0.08235294117647059
newmtl m318
Kd 0.14901960784313725 0.11764705882352941 0.08235294117647059
newmtl m319
Kd 0.14901960784313725 0.11764705882352941 0.08235294117647059
newmtl m320
Kd 0.14901960784313725 0.11764705882352941 0.08235294117647059
newmtl m321
Kd 0.14901960784313725 0.11764705882352941 0.08235294117647059
newmtl m322
Kd 0.14901960784313725 0.11764705882352941 0.08235294117647059
newmtl m323
Kd 0.14901960784313725 0.11764705882352941 0.08235294117647059
newmtl m324
Kd 0.14901960784313725 0.11764705882352941 0.08235294117647059
newmtl m325
Kd 0.14901960784313725 0.11764705882352941 0.08235294117647059
newmtl m326
Kd 0.14901960784313725 0.11764705882352941 0.08235294117647059
newmtl m327
Kd 0.14901960784313725 0.11764705882352941 0.08235294117647059
newmtl m328
Kd 0.14901960784313725 0.11764705882352941 0.08235294117647059
newmtl m329
Kd 0.14901960784313725 0.11764705882352941 0.08235294117647059
newmtl m330
Kd 0.14901960784313725 0.11764705882352941 0.08235294117647059
newmtl m331
Kd 0.25882352941176473 0.2196078431372549 0.1843137254901961
newmtl m332
Kd 0.25882352941176473 0.2196078431372549 0.1843137254901961
newmtl m333
Kd 0.25882352941176473 0.2196078431372549 0.1843137254901961
newmtl m334
Kd 0.21568627450980393 0.18823529411764706 0.15294117647058825
newmtl m335
Kd 0.21568627450980393 0.18823529411764706 0.15294117647058825
newmtl m336
Kd 0.21568627450980393 0.18823529411764706 0.15294117647058825
newmtl m337
Kd 0.21568627450980393 0.18823529411764706 0.15294117647058825
newmtl m338
Kd 0.21568627450980393 0.18823529411764706 0.15294117647058825
newmtl m339
Kd 0.21568627450980393 0.18823529411764706 0.15294117647058825
newmtl m340
Kd 0.21568627450980393 0.18823529411764706 0.15294117647058825
newmtl m341
Kd 0.21568627450980393 0.18823529411764706 0.15294117647058825
newmtl m342
Kd 0.14901960784313725 0.11764705882352941 0.08235294117647059
newmtl m343
Kd 0.14901960784313725 0.11764705882352941 0.08235294117647059
newmtl m344
Kd 0.14901960784313725 0.11764705882352941 0.08235294117647059
newmtl m345
Kd 0.14901960784313725 0.11764705882352941 0.08235294117647059
newmtl m346
Kd 0.14901960784313725 0.11764705882352941 0.08235294117647059
newmtl m347
Kd 0.14901960784313725 0.11764705882352941 0.08235294117647059
newmtl m348
Kd 0.14901960784313725 0.11764705882352941 0.08235294117647059
newmtl m349
Kd 0.14901960784313725 0.11764705882352941 0.08235294117647059
newmtl m350
Kd 0.14901960784313725 0.11764705882352941 0.08235294117647059
newmtl m351
Kd 0.14901960784313725 0.11764705882352941 0.08235294117647059
newmtl m352
Kd 0.14901960784313725 0.11764705882352941 0.08235294117647059
newmtl m353
Kd 0.14901960784313725 0.11764705882352941 0.08235294117647059
newmtl m354
Kd 0.14901960784313725 0.11764705882352941 0.08235294117647059
newmtl m355
Kd 0.25882352941176473 0.2196078431372549 0.1843137254901961
newmtl m356
Kd 0.25882352941176473 0.2196078431372549 0.1843137254901961
newmtl m357
Kd 0.25882352941176473 0.2196078431372549 0.1843137254901961
newmtl m358
Kd 0.18823529411764706 0.25882352941176473 0.1450980392156863
newmtl m359
Kd 0.18823529411764706 0.25882352941176473 0.1450980392156863
newmtl m360
Kd 0.2235294117647059 0.27450980392156865 0.19607843137254902
newmtl m361
Kd 0.2235294117647059 0.27450980392156865 0.19607843137254902
newmtl m362
Kd 0.18823529411764706 0.25882352941176473 0.1450980392156863
newmtl m363
Kd 0.18823529411764706 0.25882352941176473 0.1450980392156863
newmtl m364
Kd 0.18823529411764706 0.25882352941176473 0.1450980392156863
newmtl m365
Kd 0.2235294117647059 0.27450980392156865 0.19607843137254902
newmtl m366
Kd 0.2235294117647059 0.27450980392156865 0.19607843137254902
newmtl m367
Kd 0.2235294117647059 0.27450980392156865 0.19607843137254902
newmtl m368
Kd 0.18823529411764706 0.25882352941176473 0.1450980392156863
newmtl m369
Kd 0.18823529411764706 0.25882352941176473 0.1450980392156863
newmtl m370
Kd 0.25882352941176473 0.2196078431372549 0.1843137254901961
newmtl m371
Kd 0.25882352941176473 0.2196078431372549 0.1843137254901961
newmtl m372
Kd 0.21568627450980393 0.18823529411764706 0.15294117647058825
newmtl m373
Kd 0.21568627450980393 0.18823529411764706 0.15294117647058825
newmtl m374
Kd 0.21568627450980393 0.18823529411764706 0.15294117647058825
newmtl m375
Kd 0.21568627450980393 0.18823529411764706 0.15294117647058825
newmtl m376
Kd 0.21568627450980393 0.18823529411764706 0.15294117647058825
newmtl m377
Kd 0.21568627450980393 0.18823529411764706 0.15294117647058825
newmtl m378
Kd 0.21568627450980393 0.18823529411764706 0.15294117647058825
newmtl m379
Kd 0.21568627450980393 0.18823529411764706 0.15294117647058825
newmtl m380
Kd 0.21568627450980393 0.18823529411764706 0.15294117647058825
newmtl m381
Kd 0.21568627450980393 0.18823529411764706 0.15294117647058825
newmtl m382
Kd 0.21568627450980393 0.18823529411764706 0.15294117647058825
newmtl m383
Kd 0.21568627450980393 0.18823529411764706 0.15294117647058825
newmtl m384
Kd 0.21568627450980393 0.18823529411764706 0.15294117647058825
newmtl m385
Kd 0.21568627450980393 0.18823529411764706 0.15294117647058825
newmtl m386
Kd 0.21568627450980393 0.18823529411764706 0.15294117647058825
newmtl m387
Kd 0.21568627450980393 0.18823529411764706 0.15294117647058825
newmtl m388
Kd 0.21568627450980393 0.18823529411764706 0.15294117647058825
newmtl m389
Kd 0.21568627450980393 0.18823529411764706 0.15294117647058825
newmtl m390
Kd 0.21568627450980393 0.18823529411764706 0.15294117647058825
newmtl m391
Kd 0.21568627450980393 0.18823529411764706 0.15294117647058825
newmtl m392
Kd 0.21568627450980393 0.18823529411764706 0.15294117647058825
newmtl m393
Kd 0.21568627450980393 0.18823529411764706 0.15294117647058825
newmtl m394
Kd 0.21568627450980393 0.18823529411764706 0.15294117647058825
newmtl m395
Kd 0.21568627450980393 0.18823529411764706 0.15294117647058825
newmtl m396
Kd 0.21568627450980393 0.18823529411764706 0.15294117647058825
newmtl m397
Kd 0.21568627450980393 0.18823529411764706 0.15294117647058825
newmtl m398
Kd 0.21568627450980393 0.18823529411764706 0.15294117647058825
newmtl m399
Kd 0.21568627450980393 0.18823529411764706 0.15294117647058825
newmtl m400
Kd 0.21568627450980393 0.18823529411764706 0.15294117647058825
newmtl m401
Kd 0.25882352941176473 0.2196078431372549 0.1843137254901961
newmtl m402
Kd 0.25882352941176473 0.2196078431372549 0.1843137254901961
newmtl m403
Kd 0.25882352941176473 0.2196078431372549 0.1843137254901961
newmtl m404
Kd 0.25882352941176473 0.2196078431372549 0.1843137254901961
newmtl m405
Kd 0.25882352941176473 0.2196078431372549 0.1843137254901961
newmtl m406
Kd 0.21568627450980393 0.18823529411764706 0.15294117647058825
newmtl m407
Kd 0.21568627450980393 0.18823529411764706 0.15294117647058825
newmtl m408
Kd 0.21568627450980393 0.18823529411764706 0.15294117647058825
newmtl m409
Kd 0.21568627450980393 0.18823529411764706 0.15294117647058825
newmtl m410
Kd 0.25882352941176473 0.2196078431372549 0.1843137254901961
newmtl m411
Kd 0.25882352941176473 0.2196078431372549 0.1843137254901961
newmtl m412
Kd 0.25882352941176473 0.2196078431372549 0.1843137254901961
newmtl m413
Kd 0.25882352941176473 0.2196078431372549 0.1843137254901961
newmtl m414
Kd 0.18823529411764706 0.25882352941176473 0.1450980392156863
newmtl m415
Kd 0.18823529411764706 0.25882352941176473 0.1450980392156863
newmtl m416
Kd 0.21568627450980393 0.18823529411764706 0.15294117647058825
newmtl m417
Kd 0.12156862745098039 0.08235294117647059 0.0392156862745098
newmtl m418
Kd 0.12156862745098039 0.08235294117647059 0.0392156862745098
newmtl m419
Kd 0.12156862745098039 0.08235294117647059 0.0392156862745098
newmtl m420
Kd 0.12156862745098039 0.08235294117647059 0.0392156862745098
newmtl m421
Kd 0.12156862745098039 0.08235294117647059 0.0392156862745098
newmtl m422
Kd 0.12156862745098039 0.08235294117647059 0.0392156862745098
newmtl m423
Kd 0.12156862745098039 0.08235294117647059 0.0392156862745098
newmtl m424
Kd 0.12156862745098039 0.08235294117647059 0.0392156862745098
newmtl m425
Kd 0.12156862745098039 0.08235294117647059 0.0392156862745098
newmtl m426
Kd 0.12156862745098039 0.08235294117647059 0.0392156862745098
newmtl m427
Kd 0.12156862745098039 0.08235294117647059 0.0392156862745098
newmtl m428
Kd 0.12156862745098039 0.08235294117647059 0.0392156862745098
newmtl m429
Kd 0.12156862745098039 0.08235294117647059 0.0392156862745098
newmtl m430
Kd 0.12156862745098039 0.08235294117647059 0.0392156862745098
newmtl m431
Kd 0.12156862745098039 0.08235294117647059 0.0392156862745098
newmtl m432
Kd 0.12156862745098039 0.08235294117647059 0.0392156862745098
newmtl m433
Kd 0.12156862745098039 0.08235294117647059 0.0392156862745098
newmtl m434
Kd 0.2235294117647059 0.27450980392156865 0.19607843137254902
newmtl m435
Kd 0.2235294117647059 0.27450980392156865 0.19607843137254902
newmtl m436
Kd 0.18823529411764706 0.25882352941176473 0.1450980392156863
newmtl m437
Kd 0.18823529411764706 0.25882352941176473 0.1450980392156863
newmtl m438
Kd 0.25882352941176473 0.2196078431372549 0.1843137254901961
newmtl m439
Kd 0.25882352941176473 0.2196078431372549 0.1843137254901961
newmtl m440
Kd 0.21568627450980393 0.18823529411764706 0.15294117647058825
newmtl m441
Kd 0.21568627450980393 0.18823529411764706 0.15294117647058825
newmtl m442
Kd 0.21568627450980393 0.18823529411764706 0.15294117647058825
newmtl m443
Kd 0.19607843137254902 0.15294117647058825 0.10980392156862745
newmtl m444
Kd 0.19607843137254902 0.15294117647058825 0.10980392156862745
newmtl m445
Kd 0.21568627450980393 0.18823529411764706 0.15294117647058825
newmtl m446
Kd 0.21568627450980393 0.18823529411764706 0.15294117647058825
newmtl m447
Kd 0.21568627450980393 0.18823529411764706 0.15294117647058825
newmtl m448
Kd 0.25882352941176473 0.2196078431372549 0.1843137254901961
newmtl m449
Kd 0.25882352941176473 0.2196078431372549 0.1843137254901961
newmtl m450
Kd 0.12156862745098039 0.08235294117647059 0.0392156862745098
newmtl m451
Kd 0.12156862745098039 0.08235294117647059 0.0392156862745098
newmtl m452
Kd 0.12156862745098039 0.08235294117647059 0.0392156862745098
newmtl m453
Kd 0.14901960784313725 0.11764705882352941 0.08235294117647059
newmtl m454
Kd 0.25882352941176473 0.2196078431372549 0.1843137254901961
newmtl m455
Kd 0.18823529411764706 0.25882352941176473 0.1450980392156863
newmtl m456
Kd 0.18823529411764706 0.25882352941176473 0.1450980392156863
newmtl m457
Kd 0.25882352941176473 0.2196078431372549 0.1843137254901961
newmtl m458
Kd 0.18823529411764706 0.25882352941176473 0.1450980392156863
newmtl m459
Kd 0.18823529411764706 0.25882352941176473 0.1450980392156863
newmtl m460
Kd 0.12156862745098039 0.08235294117647059 0.0392156862745098
newmtl m461
Kd 0.12156862745098039 0.08235294117647059 0.0392156862745098
newmtl m462
Kd 0.12156862745098039 0.08235294117647059 0.0392156862745098
newmtl m463
Kd 0.18823529411764706 0.25882352941176473 0.1450980392156863
newmtl m464
Kd 0.2235294117647059 0.27450980392156865 0.19607843137254902
newmtl m465
Kd 0.25882352941176473 0.2196078431372549 0.1843137254901961
newmtl m466
Kd 0.25882352941176473 0.2196078431372549 0.1843137254901961
newmtl m467
Kd 0.25882352941176473 0.2196078431372549 0.1843137254901961
newmtl m468
Kd 0.21568627450980393 0.18823529411764706 0.15294117647058825
newmtl m469
Kd 0.21568627450980393 0.18823529411764706 0.15294117647058825
newmtl m470
Kd 0.18823529411764706 0.25882352941176473 0.1450980392156863
newmtl m471
Kd 0.18823529411764706 0.25882352941176473 0.1450980392156863
newmtl m472
Kd 0.25882352941176473 0.2196078431372549 0.1843137254901961
newmtl m473
Kd 0.19607843137254902 0.15294117647058825 0.10980392156862745
newmtl m474
Kd 0.043137254901960784 0.11372549019607843 0.0
newmtl m475
Kd 0.043137254901960784 0.11372549019607843 0.0
newmtl m476
Kd 0.043137254901960784 0.11372549019607843 0.0
newmtl m477
Kd 0.043137254901960784 0.11372549019607843 0.0
newmtl m478
Kd 0.043137254901960784 0.11372549019607843 0.0
newmtl m479
Kd 0.043137254901960784 0.11372549019607843 0.0
newmtl m480
Kd 0.043137254901960784 0.11372549019607843 0.0
newmtl m481
Kd 0.043137254901960784 0.11372549019607843 0.0
newmtl m482
Kd 0.043137254901960784 0.11372549019607843 0.0
newmtl m483
Kd 0.043137254901960784 0.11372549019607843 0.0
newmtl m484
Kd 0.043137254901960784 0.11372549019607843 0.0
newmtl m485
Kd 0.043137254901960784 0.11372549019607843 0.0
newmtl m486
Kd 0.043137254901960784 0.11372549019607843 0.0
newmtl m487
Kd 0.043137254901960784 0.11372549019607843 0.0
newmtl m488
Kd 0.043137254901960784 0.11372549019607843 0.0
newmtl m489
Kd 0.043137254901960784 0.11372549019607843 0.0
newmtl m490
Kd 0.043137254901960784 0.11372549019607843 0.0
newmtl m491
Kd 0.043137254901960784 0.11372549019607843 0.0
newmtl m492
Kd 0.043137254901960784 0.11372549019607843 0.0
newmtl m493
Kd 0.043137254901960784 0.11372549019607843 0.0
newmtl m494
Kd 0.043137254901960784 0.11372549019607843 0.0
newmtl m495
Kd 0.043137254901960784 0.11372549019607843 0.0
newmtl m496
Kd 0.043137254901960784 0.11372549019607843 0.0
newmtl m497
Kd 0.043137254901960784 0.11372549019607843 0.0
newmtl m498
Kd 0.043137254901960784 0.11372549019607843 0.0
newmtl m499
Kd 0.043137254901960784 0.11372549019607843 0.0
newmtl m500
Kd 0.043137254901960784 0.11372549019607843 0.0
newmtl m501
Kd 0.043137254901960784 0.11372549019607843 0.0
newmtl m502
Kd 0.043137254901960784 0.11372549019607843 0.0
newmtl m503
Kd 0.043137254901960784 0.11372549019607843 0.0
newmtl m504
Kd 0.043137254901960784 0.11372549019607843 0.0
newmtl m505
Kd 0.043137254901960784 0.11372549019607843 0.0
newmtl m506
Kd 0.043137254901960784 0.11372549019607843 0.0
newmtl m507
Kd 0.043137254901960784 0.11372549019607843 0.0
newmtl m508
Kd 0.043137254901960784 0.11372549019607843 0.0
newmtl m509
Kd 0.043137254901960784 0.11372549019607843 0.0
newmtl m510
Kd 0.043137254901960784 0.11372549019607843 0.0
newmtl m511
Kd 0.043137254901960784 0.11372549019607843 0.0
newmtl m512
Kd 0.043137254901960784 0.11372549019607843 0.0
newmtl m513
Kd 0.043137254901960784 0.11372549019607843 0.0
newmtl m514
Kd 0.043137254901960784 0.11372549019607843 0.0
newmtl m515
Kd 0.043137254901960784 0.11372549019607843 0.0
newmtl m516
Kd 0.043137254901960784 0.11372549019607843 0.0
newmtl m517
Kd 0.043137254901960784 0.11372549019607843 0.0
newmtl m518
Kd 0.043137254901960784 0.11372549019607843 0.0
newmtl m519
Kd 0.043137254901960784 0.11372549019607843 0.0
newmtl m520
Kd 0.043137254901960784 0.11372549019607843 0.0
newmtl m521
Kd 0.043137254901960784 0.11372549019607843 0.0
newmtl m522
Kd 0.043137254901960784 0.11372549019607843 0.0
newmtl m523
Kd 0.043137254901960784 0.11372549019607843 0.0
newmtl m524
Kd 0.043137254901960784 0.11372549019607843 0.0
newmtl m525
Kd 0.043137254901960784 0.11372549019607843 0.0
newmtl m526
Kd 0.043137254901960784 0.11372549019607843 0.0
newmtl m527
Kd 0.043137254901960784 0.11372549019607843 0.0
newmtl m528
Kd 0.043137254901960784 0.11372549019607843 0.0
newmtl m529
Kd 0.043137254901960784 0.11372549019607843 0.0
newmtl m530
Kd 0.043137254901960784 0.11372549019607843 0.0
newmtl m531
Kd 0.043137254901960784 0.11372549019607843 0.0
newmtl m532
Kd 0.043137254901960784 0.11372549019607843 0.0
newmtl m533
Kd 0.043137254901960784 0.11372549019607843 0.0
newmtl m534
Kd 0.043137254901960784 0.11372549019607843 0.0
newmtl m535
Kd 0.043137254901960784 0.11372549019607843 0.0
newmtl m536
Kd 0.043137254901960784 0.11372549019607843 0.0
newmtl m537
Kd 0.043137254901960784 0.11372549019607843 0.0
newmtl m538
Kd 0.043137254901960784 0.11372549019607843 0.0
newmtl m539
Kd 0.043137254901960784 0.11372549019607843 0.0
newmtl m540
Kd 0.043137254901960784 0.11372549019607843 0.0
newmtl m541
Kd 0.043137254901960784 0.11372549019607843 0.0
newmtl m542
Kd 0.043137254901960784 0.11372549019607843 0.0
newmtl m543
Kd 0.043137254901960784 0.11372549019607843 0.0
newmtl m544
Kd 0.043137254901960784 0.11372549019607843 0.0
newmtl m545
Kd 0.043137254901960784 0.11372549019607843 0.0
newmtl m546
Kd 0.043137254901960784 0.11372549019607843 0.0
newmtl m547
Kd 0.043137254901960784 0.11372549019607843 0.0
newmtl m548
Kd 0.043137254901960784 0.11372549019607843 0.0
newmtl m549
Kd 0.043137254901960784 0.11372549019607843 0.0
newmtl m550
Kd 0.043137254901960784 0.11372549019607843 0.0
newmtl m551
Kd 0.043137254901960784 0.11372549019607843 0.0
newmtl m552
Kd 0.043137254901960784 0.11372549019607843 0.0
newmtl m553
Kd 0.043137254901960784 0.11372549019607843 0.0
newmtl m554
Kd 0.043137254901960784 0.11372549019607843 0.0
newmtl m555
Kd 0.043137254901960784 0.11372549019607843 0.0
newmtl m556
Kd 0.043137254901960784 0.11372549019607843 0.0
newmtl m557
Kd 0.043137254901960784 0.11372549019607843 0.0
newmtl m558
Kd 0.043137254901960784 0.11372549019607843 0.0
newmtl m559
Kd 0.043137254901960784 0.11372549019607843 0.0
newmtl m560
Kd 0.043137254901960784 0.11372549019607843 0.0
newmtl m561
Kd 0.043137254901960784 0.11372549019607843 0.0
newmtl m562
Kd 0.043137254901960784 0.11372549019607843 0.0
newmtl m563
Kd 0.043137254901960784 0.11372549019607843 0.0
newmtl m564
Kd 0.043137254901960784 0.11372549019607843 0.0
newmtl m565
Kd 0.043137254901960784 0.11372549019607843 0.0
newmtl m566
Kd 0.043137254901960784 0.11372549019607843 0.0
newmtl m567
Kd 0.043137254901960784 0.11372549019607843 0.0
newmtl m568
Kd 0.043137254901960784 0.11372549019607843 0.0
newmtl m569
Kd 0.043137254901960784 0.11372549019607843 0.0
newmtl m570
Kd 0.043137254901960784 0.11372549019607843 0.0
newmtl m571
Kd 0.043137254901960784 0.11372549019607843 0.0
newmtl m572
Kd 0.043137254901960784 0.11372549019607843 0.0
newmtl m573
Kd 0.043137254901960784 0.11372549019607843 0.0
newmtl m574
Kd 0.043137254901960784 0.11372549019607843 0.0
newmtl m575
Kd 0.043137254901960784 0.11372549019607843 0.0
newmtl m576
Kd 0.043137254901960784 0.11372549019607843 0.0
newmtl m577
Kd 0.043137254901960784 0.11372549019607843 0.0
newmtl m578
Kd 0.043137254901960784 0.11372549019607843 0.0
newmtl m579
Kd 0.043137254901960784 0.11372549019607843 0.0
newmtl m580
Kd 0.043137254901960784 0.11372549019607843 0.0
newmtl m581
Kd 0.043137254901960784 0.11372549019607843 0.0
newmtl m582
Kd 0.043137254901960784 0.11372549019607843 0.0
newmtl m583
Kd 0.043137254901960784 0.11372549019607843 0.0
newmtl m584
Kd 0.043137254901960784 0.11372549019607843 0.0
newmtl m585
Kd 0.043137254901960784 0.11372549019607843 0.0
newmtl m586
Kd 0.043137254901960784 0.11372549019607843 0.0
newmtl m587
Kd 0.043137254901960784 0.11372549019607843 0.0
newmtl m588
Kd 0.043137254901960784 0.11372549019607843 0.0
newmtl m589
Kd 0.043137254901960784 0.11372549019607843 0.0
newmtl m590
Kd 0.043137254901960784 0.11372549019607843 0.0
newmtl m591
Kd 0.043137254901960784 0.11372549019607843 0.0
newmtl m592
Kd 0.043137254901960784 0.11372549019607843 0.0
newmtl m593
Kd 0.043137254901960784 0.11372549019607843 0.0
newmtl m594
Kd 0.043137254901960784 0.11372549019607843 0.0
newmtl m595
Kd 0.043137254901960784 0.11372549019607843 0.0
newmtl m596
Kd 0.043137254901960784 0.11372549019607843 0.0
newmtl m597
Kd 0.043137254901960784 0.11372549019607843 0.0
newmtl m598
Kd 0.043137254901960784 0.11372549019607843 0.0
newmtl m599
Kd 0.043137254901960784 0.11372549019607843 0.0
newmtl m600
Kd 0.043137254901960784 0.11372549019607843 0.0
newmtl m601
Kd 0.043137254901960784 0.11372549019607843 0.0
newmtl m602
Kd 0.043137254901960784 0.11372549019607843 0.0
newmtl m603
Kd 0.043137254901960784 0.11372549019607843 0.0
newmtl m604
Kd 0.043137254901960784 0.11372549019607843 0.0
newmtl m605
Kd 0.043137254901960784 0.11372549019607843 0.0
newmtl m606
Kd 0.043137254901960784 0.11372549019607843 0.0
newmtl m607
Kd 0.043137254901960784 0.11372549019607843 0.0
newmtl m608
Kd 0.043137254901960784 0.11372549019607843 0.0
newmtl m609
Kd 0.043137254901960784 0.11372549019607843 0.0
newmtl m610
Kd 0.043137254901960784 0.11372549019607843 0.0
newmtl m611
Kd 0.043137254901960784 0.11372549019607843 0.0
newmtl m612
Kd 0.043137254901960784 0.11372549019607843 0.0
newmtl m613
Kd 0.043137254901960784 0.11372549019607843 0.0
newmtl m614
Kd 0.043137254901960784 0.11372549019607843 0.0
newmtl m615
Kd 0.043137254901960784 0.11372549019607843 0.0
newmtl m616
Kd 0.043137254901960784 0.11372549019607843 0.0
newmtl m617
Kd 0.043137254901960784 0.11372549019607843 0.0
newmtl m618
Kd 0.043137254901960784 0.11372549019607843 0.0
newmtl m619
Kd 0.043137254901960784 0.11372549019607843 0.0
newmtl m620
Kd 0.043137254901960784 0.11372549019607843 0.0
newmtl m621
Kd 0.043137254901960784 0.11372549019607843 0.0
newmtl m622
Kd 0.043137254901960784 0.11372549019607843 0.0
newmtl m623
Kd 0.043137254901960784 0.11372549019607843 0.0
newmtl m624
Kd 0.043137254901960784 0.11372549019607843 0.0
newmtl m625
Kd 0.043137254901960784 0.11372549019607843 0.0
newmtl m626
Kd 0.043137254901960784 0.11372549019607843 0.0
newmtl m627
Kd 0.043137254901960784 0.11372549019607843 0.0
newmtl m628
Kd 0.043137254901960784 0.11372549019607843 0.0
newmtl m629
Kd 0.043137254901960784 0.11372549019607843 0.0
newmtl m630
Kd 0.043137254901960784 0.11372549019607843 0.0
newmtl m631
Kd 0.043137254901960784 0.11372549019607843 0.0
newmtl m632
Kd 0.043137254901960784 0.11372549019607843 0.0
newmtl m633
Kd 0.043137254901960784 0.11372549019607843 0.0
newmtl m634
Kd 0.043137254901960784 0.11372549019607843 0.0
newmtl m635
Kd 0.043137254901960784 0.11372549019607843 0.0
newmtl m636
Kd 0.043137254901960784 0.11372549019607843 0.0
newmtl m637
Kd 0.043137254901960784 0.11372549019607843 0.0
newmtl m638
Kd 0.043137254901960784 0.11372549019607843 0.0
newmtl m639
Kd 0.043137254901960784 0.11372549019607843 0.0
newmtl m640
Kd 0.043137254901960784 0.11372549019607843 0.0
newmtl m641
Kd 0.043137254901960784 0.11372549019607843 0.0
newmtl m642
Kd 0.043137254901960784 0.11372549019607843 0.0
newmtl m643
Kd 0.043137254901960784 0.11372549019607843 0.0
newmtl m644
Kd 0.043137254901960784 0.11372549019607843 0.0
newmtl m645
Kd 0.043137254901960784 0.11372549019607843 0.0
newmtl m646
Kd 0.043137254901960784 0.11372549019607843 0.0
newmtl m647
Kd 0.043137254901960784 0.11372549019607843 0.0
newmtl m648
Kd 0.043137254901960784 0.11372549019607843 0.0
newmtl m649
Kd 0.043137254901960784 0.11372549019607843 0.0
newmtl m650
Kd 0.043137254901960784 0.11372549019607843 0.0
newmtl m651
Kd 0.043137254901960784 0.11372549019607843 0.0
newmtl m652
Kd 0.043137254901960784 0.11372549019607843 0.0
newmtl m653
Kd 0.043137254901960784 0.11372549019607843 0.0
newmtl m654
Kd 0.043137254901960784 0.11372549019607843 0.0
newmtl m655
Kd 0.043137254901960784 0.11372549019607843 0.0
newmtl m656
Kd 0.043137254901960784 0.11372549019607843 0.0
newmtl m657
Kd 0.043137254901960784 0.11372549019607843 0.0
newmtl m658
Kd 0.043137254901960784 0.11372549019607843 0.0
newmtl m659
Kd 0.043137254901960784 0.11372549019607843 0.0
newmtl m660
Kd 0.043137254901960784 0.11372549019607843 0.0
newmtl m661
Kd 0.043137254901960784 0.11372549019607843 0.0
newmtl m662
Kd 0.043137254901960784 0.11372549019607843 0.0
newmtl m663
Kd 0.043137254901960784 0.11372549019607843 0.0
newmtl m664
Kd 0.043137254901960784 0.11372549019607843 0.0
newmtl m665
Kd 0.043137254901960784 0.11372549019607843 0.0
newmtl m666
Kd 0.043137254901960784 0.11372549019607843 0.0
newmtl m667
Kd 0.043137254901960784 0.11372549019607843 0.0
newmtl m668
Kd 0.043137254901960784 0.11372549019607843 0.0
newmtl m669
Kd 0.043137254901960784 0.11372549019607843 0.0
newmtl m670
Kd 0.043137254901960784 0.11372549019607843 0.0
newmtl m671
Kd 0.043137254901960784 0.11372549019607843 0.0
newmtl m672
Kd 0.043137254901960784 0.11372549019607843 0.0
newmtl m673
Kd 0.043137254901960784 0.11372549019607843 0.0
newmtl m674
Kd 0.043137254901960784 0.11372549019607843 0.0
newmtl m675
Kd 0.043137254901960784 0.11372549019607843 0.0
newmtl m676
Kd 0.043137254901960784 0.11372549019607843 0.0
newmtl m677
Kd 0.043137254901960784 0.11372549019607843 0.0
newmtl m678
Kd 0.043137254901960784 0.11372549019607843 0.0
newmtl m679
Kd 0.043137254901960784 0.11372549019607843 0.0
newmtl m680
Kd 0.043137254901960784 0.11372549019607843 0.0
newmtl m681
Kd 0.043137254901960784 0.11372549019607843 0.0
newmtl m682
Kd 0.043137254901960784 0.11372549019607843 0.0
newmtl m683
Kd 0.043137254901960784 0.11372549019607843 0.0
newmtl m684
Kd 0.043137254901960784 0.11372549019607843 0.0
newmtl m685
Kd 0.043137254901960784 0.11372549019607843 0.0
newmtl m686
Kd 0.043137254901960784 0.11372549019607843 0.0
newmtl m687
Kd 0.043137254901960784 0.11372549019607843 0.0
newmtl m688
Kd 0.043137254901960784 0.11372549019607843 0.0
newmtl m689
Kd 0.043137254901960784 0.11372549019607843 0.0
newmtl m690
Kd 0.043137254901960784 0.11372549019607843 0.0
newmtl m691
Kd 0.043137254901960784 0.11372549019607843 0.0
newmtl m692
Kd 0.043137254901960784 0.11372549019607843 0.0
newmtl m693
Kd 0.043137254901960784 0.11372549019607843 0.0
newmtl m694
Kd 0.043137254901960784 0.11372549019607843 0.0
newmtl m695
Kd 0.043137254901960784 0.11372549019607843 0.0
newmtl m696
Kd 0.043137254901960784 0.11372549019607843 0.0
newmtl m697
Kd 0.043137254901960784 0.11372549019607843 0.0
newmtl m698
Kd 0.043137254901960784 0.11372549019607843 0.0
newmtl m699
Kd 0.043137254901960784 0.11372549019607843 0.0
newmtl m700
Kd 0.043137254901960784 0.11372549019607843 0.0
newmtl m701
Kd 0.043137254901960784 0.11372549019607843 0.0
newmtl m702
Kd 0.043137254901960784 0.11372549019607843 0.0
newmtl m703
Kd 0.043137254901960784 0.11372549019607843 0.0
newmtl m704
Kd 0.043137254901960784 0.11372549019607843 0.0
newmtl m705
Kd 0.043137254901960784 0.11372549019607843 0.0
newmtl m706
Kd 0.043137254901960784 0.11372549019607843 0.0
newmtl m707
Kd 0.043137254901960784 0.11372549019607843 0.0
newmtl m708
Kd 0.043137254901960784 0.11372549019607843 0.0
newmtl m709
Kd 0.043137254901960784 0.11372549019607843 0.0
newmtl m710
Kd 0.043137254901960784 0.11372549019607843 0.0
newmtl m711
Kd 0.043137254901960784 0.11372549019607843 0.0
newmtl m712
Kd 0.043137254901960784 0.11372549019607843 0.0
newmtl m713
Kd 0.043137254901960784 0.11372549019607843 0.0
newmtl m714
Kd 0.043137254901960784 0.11372549019607843 0.0
newmtl m715
Kd 0.043137254901960784 0.11372549019607843 0.0
newmtl m716
Kd 0.043137254901960784 0.11372549019607843 0.0
newmtl m717
Kd 0.043137254901960784 0.11372549019607843 0.0
newmtl m718
Kd 0.043137254901960784 0.11372549019607843 0.0
newmtl m719
Kd 0.043137254901960784 0.11372549019607843 0.0
newmtl m720
Kd 0.043137254901960784 0.11372549019607843 0.0
newmtl m721
Kd 0.043137254901960784 0.11372549019607843 0.0
newmtl m722
Kd 0.043137254901960784 0.11372549019607843 0.0
newmtl m723
Kd 0.043137254901960784 0.11372549019607843 0.0
newmtl m724
Kd 0.043137254901960784 0.11372549019607843 0.0
newmtl m725
Kd 0.043137254901960784 0.11372549019607843 0.0
newmtl m726
Kd 0.043137254901960784 0.11372549019607843 0.0
newmtl m727
Kd 0.043137254901960784 0.11372549019607843 0.0
newmtl m728
Kd 0.043137254901960784 0.11372549019607843 0.0
newmtl m729
Kd 0.043137254901960784 0.11372549019607843 0.0
newmtl m730
Kd 0.043137254901960784 0.11372549019607843 0.0
newmtl m731
Kd 0.043137254901960784 0.11372549019607843 0.0
newmtl m732
Kd 0.043137254901960784 0.11372549019607843 0.0
newmtl m733
Kd 0.043137254901960784 0.11372549019607843 0.0
newmtl m734
Kd 0.043137254901960784 0.11372549019607843 0.0
newmtl m735
Kd 0.043137254901960784 0.11372549019607843 0.0
newmtl m736
Kd 0.043137254901960784 0.11372549019607843 0.0
newmtl m737
Kd 0.043137254901960784 0.11372549019607843 0.0
newmtl m738
Kd 0.043137254901960784 0.11372549019607843 0.0
newmtl m739
Kd 0.043137254901960784 0.11372549019607843 0.0
newmtl m740
Kd 0.043137254901960784 0.11372549019607843 0.0
newmtl m741
Kd 0.043137254901960784 0.11372549019607843 0.0
newmtl m742
Kd 0.043137254901960784 0.11372549019607843 0.0
newmtl m743
Kd 0.043137254901960784 0.11372549019607843 0.0
newmtl m744
Kd 0.043137254901960784 0.11372549019607843 0.0
newmtl m745
Kd 0.043137254901960784 0.11372549019607843 0.0
newmtl m746
Kd 0.043137254901960784 0.11372549019607843 0.0
newmtl m747
Kd 0.043137254901960784 0.11372549019607843 0.0
newmtl m748
Kd 0.043137254901960784 0.11372549019607843 0.0
newmtl m749
Kd 0.043137254901960784 0.11372549019607843 0.0
newmtl m750
Kd 0.043137254901960784 0.11372549019607843 0.0
newmtl m751
Kd 0.043137254901960784 0.11372549019607843 0.0
newmtl m752
Kd 0.043137254901960784 0.11372549019607843 0.0
newmtl m753
Kd 0.043137254901960784 0.11372549019607843 0.0
newmtl m754
Kd 0.043137254901960784 0.11372549019607843 0.0
newmtl m755
Kd 0.043137254901960784 0.11372549019607843 0.0
newmtl m756
Kd 0.043137254901960784 0.11372549019607843 0.0
newmtl m757
Kd 0.043137254901960784 0.11372549019607843 0.0
newmtl m758
Kd 0.043137254901960784 0.11372549019607843 0.0
newmtl m759
Kd 0.043137254901960784 0.11372549019607843 0.0
newmtl m760
Kd 0.043137254901960784 0.11372549019607843 0.0
newmtl m761
Kd 0.043137254901960784 0.11372549019607843 0.0
newmtl m762
Kd 0.043137254901960784 0.11372549019607843 0.0
newmtl m763
Kd 0.043137254901960784 0.11372549019607843 0.0
newmtl m764
Kd 0.043137254901960784 0.11372549019607843 0.0
newmtl m765
Kd 0.043137254901960784 0.11372549019607843 0.0
newmtl m766
Kd 0.043137254901960784 0.11372549019607843 0.0
newmtl m767
Kd 0.043137254901960784 0.11372549019607843 0.0
newmtl m768
Kd 0.043137254901960784 0.11372549019607843 0.0
newmtl m769
Kd 0.043137254901960784 0.11372549019607843 0.0
newmtl m770
Kd 0.043137254901960784 0.11372549019607843 0.0
newmtl m771
Kd 0.043137254901960784 0.11372549019607843 0.0
newmtl m772
Kd 0.043137254901960784 0.11372549019607843 0.0
newmtl m773
Kd 0.043137254901960784 0.11372549019607843 0.0
newmtl m774
Kd 0.043137254901960784 0.11372549019607843 0.0
newmtl m775
Kd 0.043137254901960784 0.11372549019607843 0.0
newmtl m776
Kd 0.043137254901960784 0.11372549019607843 0.0
newmtl m777
Kd 0.043137254901960784 0.11372549019607843 0.0
newmtl m778
Kd 0.043137254901960784 0.11372549019607843 0.0
newmtl m779
Kd 0.043137254901960784 0.11372549019607843 0.0
newmtl m780
Kd 0.043137254901960784 0.11372549019607843 0.0
newmtl m781
Kd 0.043137254901960784 0.11372549019607843 0.0
newmtl m782
Kd 0.043137254901960784 0.11372549019607843 0.0
newmtl m783
Kd 0.043137254901960784 0.11372549019607843 0.0
newmtl m784
Kd 0.043137254901960784 0.11372549019607843 0.0
newmtl m785
Kd 0.043137254901960784 0.11372549019607843 0.0
newmtl m786
Kd 0.043137254901960784 0.11372549019607843 0.0
newmtl m787
Kd 0.043137254901960784 0.11372549019607843 0.0
newmtl m788
Kd 0.043137254901960784 0.11372549019607843 0.0
newmtl m789
Kd 0.043137254901960784 0.11372549019607843 0.0
newmtl m790
Kd 0.043137254901960784 0.11372549019607843 0.0
newmtl m791
Kd 0.043137254901960784 0.11372549019607843 0.0
newmtl m792
Kd 0.043137254901960784 0.11372549019607843 0.0
newmtl m793
Kd 0.043137254901960784 0.11372549019607843 0.0
newmtl m794
Kd 0.043137254901960784 0.11372549019607843 0.0
newmtl m795
Kd 0.043137254901960784 0.11372549019607843 0.0
newmtl m796
Kd 0.043137254901960784 0.11372549019607843 0.0
newmtl m797
Kd 0.043137254901960784 0.11372549019607843 0.0
newmtl m798
Kd 0.043137254901960784 0.11372549019607843 0.0
newmtl m799
Kd 0.043137254901960784 0.11372549019607843 0.0
newmtl m800
Kd 0.043137254901960784 0.11372549019607843 0.0
newmtl m801
Kd 0.043137254901960784 0.11372549019607843 0.0
newmtl m802
Kd 0.043137254901960784 0.11372549019607843 0.0
newmtl m803
Kd 0.043137254901960784 0.11372549019607843 0.0
newmtl m804
Kd 0.043137254901960784 0.11372549019607843 0.0
newmtl m805
Kd 0.043137254901960784 0.11372549019607843 0.0
newmtl m806
Kd 0.043137254901960784 0.11372549019607843 0.0
newmtl m807
Kd 0.043137254901960784 0.11372549019607843 0.0
newmtl m808
Kd 0.043137254901960784 0.11372549019607843 0.0
newmtl m809
Kd 0.043137254901960784 0.11372549019607843 0.0
newmtl m810
Kd 0.043137254901960784 0.11372549019607843 0.0
newmtl m811
Kd 0.043137254901960784 0.11372549019607843 0.0
newmtl m812
Kd 0.043137254901960784 0.11372549019607843 0.0
newmtl m813
Kd 0.043137254901960784 0.11372549019607843 0.0
newmtl m814
Kd 0.043137254901960784 0.11372549019607843 0.0
newmtl m815
Kd 0.043137254901960784 0.11372549019607843 0.0
newmtl m816
Kd 0.043137254901960784 0.11372549019607843 0.0
newmtl m817
Kd 0.043137254901960784 0.11372549019607843 0.0
newmtl m818
Kd 0.043137254901960784 0.11372549019607843 0.0
newmtl m819
Kd 0.043137254901960784 0.11372549019607843 0.0
newmtl m820
Kd 0.043137254901960784 0.11372549019607843 0.0
newmtl m821
Kd 0.043137254901960784 0.11372549019607843 0.0
newmtl m822
Kd 0.043137254901960784 0.11372549019607843 0.0
newmtl m823
Kd 0.043137254901960784 0.11372549019607843 0.0
newmtl m824
Kd 0.043137254901960784 0.11372549019607843 0.0
newmtl m825
Kd 0.043137254901960784 0.11372549019607843 0.0
newmtl m826
Kd 0.043137254901960784 0.11372549019607843 0.0
newmtl m827
Kd 0.043137254901960784 0.11372549019607843 0.0
newmtl m828
Kd 0.043137254901960784 0.11372549019607843 0.0
newmtl m829
Kd 0.043137254901960784 0.11372549019607843 0.0
newmtl m830
Kd 0.043137254901960784 0.11372549019607843 0.0
newmtl m831
Kd 0.043137254901960784 0.11372549019607843 0.0
newmtl m832
Kd 0.043137254901960784 0.11372549019607843 0.0
newmtl m833
Kd 0.043137254901960784 0.11372549019607843 0.0
newmtl m834
Kd 0.043137254901960784 0.11372549019607843 0.0
newmtl m835
Kd 0.043137254901960784 0.11372549019607843 0.0
newmtl m836
Kd 0.043137254901960784 0.11372549019607843 0.0
newmtl m837
Kd 0.043137254901960784 0.11372549019607843 0.0
newmtl m838
Kd 0.043137254901960784 0.11372549019607843 0.0
newmtl m839
Kd 0.043137254901960784 0.11372549019607843 0.0
newmtl m840
Kd 0.043137254901960784 0.11372549019607843 0.0
newmtl m841
Kd 0.043137254901960784 0.11372549019607843 0.0
newmtl m842
Kd 0.043137254901960784 0.11372549019607843 0.0
newmtl m843
Kd 0.043137254901960784 0.11372549019607843 0.0
newmtl m844
Kd 0.043137254901960784 0.11372549019607843 0.0
newmtl m845
Kd 0.043137254901960784 0.11372549019607843 0.0
newmtl m846
Kd 0.043137254901960784 0.11372549019607843 0.0
newmtl m847
Kd 0.043137254901960784 0.11372549019607843 0.0
newmtl m848
Kd 0.043137254901960784 0.11372549019607843 0.0
newmtl m849
Kd 0.043137254901960784 0.11372549019607843 0.0
newmtl m850
Kd 0.043137254901960784 0.11372549019607843 0.0
newmtl m851
Kd 0.043137254901960784 0.11372549019607843 0.0
newmtl m852
Kd 0.043137254901960784 0.11372549019607843 0.0
newmtl m853
Kd 0.043137254901960784 0.11372549019607843 0.0
newmtl m854
Kd 0.043137254901960784 0.11372549019607843 0.0
newmtl m855
Kd 0.043137254901960784 0.11372549019607843 0.0
newmtl m856
Kd 0.043137254901960784 0.11372549019607843 0.0
newmtl m857
Kd 0.043137254901960784 0.11372549019607843 0.0
newmtl m858
Kd 0.043137254901960784 0.11372549019607843 0.0
newmtl m859
Kd 0.043137254901960784 0.11372549019607843 0.0
newmtl m860
Kd 0.043137254901960784 0.11372549019607843 0.0
newmtl m861
Kd 0.043137254901960784 0.11372549019607843 0.0
newmtl m862
Kd 0.043137254901960784 0.11372549019607843 0.0
newmtl m863
Kd 0.043137254901960784 0.11372549019607843 0.0
newmtl m864
Kd 0.043137254901960784 0.11372549019607843 0.0
newmtl m865
Kd 0.043137254901960784 0.11372549019607843 0.0
newmtl m866
Kd 0.043137254901960784 0.11372549019607843 0.0
newmtl m867
Kd 0.043137254901960784 0.11372549019607843 0.0
newmtl m868
Kd 0.043137254901960784 0.11372549019607843 0.0
newmtl m869
Kd 0.043137254901960784 0.11372549019607843 0.0
newmtl m870
Kd 0.043137254901960784 0.11372549019607843 0.0
newmtl m871
Kd 0.043137254901960784 0.11372549019607843 0.0
newmtl m872
Kd 0.043137254901960784 0.11372549019607843 0.0
newmtl m873
Kd 0.043137254901960784 0.11372549019607843 0.0
newmtl m874
Kd 0.043137254901960784 0.11372549019607843 0.0
newmtl m875
Kd 0.043137254901960784 0.11372549019607843 0.0
newmtl m876
Kd 0.043137254901960784 0.11372549019607843 0.0
newmtl m877
Kd 0.043137254901960784 0.11372549019607843 0.0
newmtl m878
Kd 0.043137254901960784 0.11372549019607843 0.0
newmtl m879
Kd 0.043137254901960784 0.11372549019607843 0.0
newmtl m880
Kd 0.043137254901960784 0.11372549019607843 0.0
newmtl m881
Kd 0.043137254901960784 0.11372549019607843 0.0
newmtl m882
Kd 0.043137254901960784 0.11372549019607843 0.0
newmtl m883
Kd 0.043137254901960784 0.11372549019607843 0.0
newmtl m884
Kd 0.043137254901960784 0.11372549019607843 0.0
newmtl m885
Kd 0.043137254901960784 0.11372549019607843 0.0
newmtl m886
Kd 0.043137254901960784 0.11372549019607843 0.0
newmtl m887
Kd 0.043137254901960784 0.11372549019607843 0.0
newmtl m888
Kd 0.043137254901960784 0.11372549019607843 0.0
newmtl m889
Kd 0.043137254901960784 0.11372549019607843 0.0
newmtl m890
Kd 0.043137254901960784 0.11372549019607843 0.0
newmtl m891
Kd 0.043137254901960784 0.11372549019607843 0.0
newmtl m892
Kd 0.043137254901960784 0.11372549019607843 0.0
newmtl m893
Kd 0.043137254901960784 0.11372549019607843 0.0
newmtl m894
Kd 0.043137254901960784 0.11372549019607843 0.0
newmtl m895
Kd 0.043137254901960784 0.11372549019607843 0.0
newmtl m896
Kd 0.043137254901960784 0.11372549019607843 0.0
newmtl m897
Kd 0.043137254901960784 0.11372549019607843 0.0
newmtl m898
Kd 0.043137254901960784 0.11372549019607843 0.0
newmtl m899
Kd 0.043137254901960784 0.11372549019607843 0.0
newmtl m900
Kd 0.043137254901960784 0.11372549019607843 0.0
newmtl m901
Kd 0.043137254901960784 0.11372549019607843 0.0
newmtl m902
Kd 0.043137254901960784 0.11372549019607843 0.0
newmtl m903
Kd 0.043137254901960784 0.11372549019607843 0.0
newmtl m904
Kd 0.043137254901960784 0.11372549019607843 0.0
newmtl m905
Kd 0.043137254901960784 0.11372549019607843 0.0
newmtl m906
Kd 0.043137254901960784 0.11372549019607843 0.0
newmtl m907
Kd 0.043137254901960784 0.11372549019607843 0.0
newmtl m908
Kd 0.043137254901960784 0.11372549019607843 0.0
newmtl m909
Kd 0.043137254901960784 0.11372549019607843 0.0
newmtl m910
Kd 0.043137254901960784 0.11372549019607843 0.0
newmtl m911
Kd 0.043137254901960784 0.11372549019607843 0.0
newmtl m912
Kd 0.043137254901960784 0.11372549019607843 0.0
newmtl m913
Kd 0.043137254901960784 0.11372549019607843 0.0
newmtl m914
Kd 0.043137254901960784 0.11372549019607843 0.0
newmtl m915
Kd 0.043137254901960784 0.11372549019607843 0.0
newmtl m916
Kd 0.043137254901960784 0.11372549019607843 0.0
newmtl m917
Kd 0.043137254901960784 0.11372549019607843 0.0
newmtl m918
Kd 0.043137254901960784 0.11372549019607843 0.0
newmtl m919
Kd 0.043137254901960784 0.11372549019607843 0.0
newmtl m920
Kd 0.043137254901960784 0.11372549019607843 0.0
newmtl m921
Kd 0.043137254901960784 0.11372549019607843 0.0
newmtl m922
Kd 0.043137254901960784 0.11372549019607843 0.0
newmtl m923
Kd 0.043137254901960784 0.11372549019607843 0.0
newmtl m924
Kd 0.043137254901960784 0.11372549019607843 0.0
newmtl m925
Kd 0.043137254901960784 0.11372549019607843 0.0
newmtl m926
Kd 0.043137254901960784 0.11372549019607843 0.0
newmtl m927
Kd 0.043137254901960784 0.11372549019607843 0.0
newmtl m928
Kd 0.043137254901960784 0.11372549019607843 0.0
newmtl m929
Kd 0.043137254901960784 0.11372549019607843 0.0
newmtl m930
Kd 0.043137254901960784 0.11372549019607843 0.0
newmtl m931
Kd 0.043137254901960784 0.11372549019607843 0.0
newmtl m932
Kd 0.043137254901960784 0.11372549019607843 0.0
newmtl m933
Kd 0.043137254901960784 0.11372549019607843 0.0
newmtl m934
Kd 0.043137254901960784 0.11372549019607843 0.0
newmtl m935
Kd 0.043137254901960784 0.11372549019607843 0.0
newmtl m936
Kd 0.043137254901960784 0.11372549019607843 0.0
newmtl m937
Kd 0.043137254901960784 0.11372549019607843 0.0
newmtl m938
Kd 0.043137254901960784 0.11372549019607843 0.0
newmtl m939
Kd 0.043137254901960784 0.11372549019607843 0.0
newmtl m940
Kd 0.043137254901960784 0.11372549019607843 0.0
newmtl m941
Kd 0.043137254901960784 0.11372549019607843 0.0
newmtl m942
Kd 0.043137254901960784 0.11372549019607843 0.0
newmtl m943
Kd 0.043137254901960784 0.11372549019607843 0.0
newmtl m944
Kd 0.043137254901960784 0.11372549019607843 0.0
newmtl m945
Kd 0.043137254901960784 0.11372549019607843 0.0
newmtl m946
Kd 0.043137254901960784 0.11372549019607843 0.0
newmtl m947
Kd 0.043137254901960784 0.11372549019607843 0.0
newmtl m948
Kd 0.043137254901960784 0.11372549019607843 0.0
newmtl m949
Kd 0.043137254901960784 0.11372549019607843 0.0
newmtl m950
Kd 0.043137254901960784 0.11372549019607843 0.0
newmtl m951
Kd 0.043137254901960784 0.11372549019607843 0.0
newmtl m952
Kd 0.043137254901960784 0.11372549019607843 0.0
newmtl m953
Kd 0.043137254901960784 0.11372549019607843 0.0
newmtl m954
Kd 0.043137254901960784 0.11372549019607843 0.0
newmtl m955
Kd 0.043137254901960784 0.11372549019607843 0.0
newmtl m956
Kd 0.043137254901960784 0.11372549019607843 0.0
newmtl m957
Kd 0.043137254901960784 0.11372549019607843 0.0
newmtl m958
Kd 0.043137254901960784 0.11372549019607843 0.0
newmtl m959
Kd 0.043137254901960784 0.11372549019607843 0.0
newmtl m960
Kd 0.043137254901960784 0.11372549019607843 0.0
newmtl m961
Kd 0.043137254901960784 0.11372549019607843 0.0
newmtl m962
Kd 0.043137254901960784 0.11372549019607843 0.0
newmtl m963
Kd 0.043137254901960784 0.11372549019607843 0.0
newmtl m964
Kd 0.043137254901960784 0.11372549019607843 0.0
newmtl m965
Kd 0.043137254901960784 0.11372549019607843 0.0
newmtl m966
Kd 0.043137254901960784 0.11372549019607843 0.0
newmtl m967
Kd 0.043137254901960784 0.11372549019607843 0.0
newmtl m968
Kd 0.043137254901960784 0.11372549019607843 0.0
newmtl m969
Kd 0.043137254901960784 0.11372549019607843 0.0
newmtl m970
Kd 0.043137254901960784 0.11372549019607843 0.0
newmtl m971
Kd 0.043137254901960784 0.11372549019607843 0.0
newmtl m972
Kd 0.043137254901960784 0.11372549019607843 0.0
newmtl m973
Kd 0.043137254901960784 0.11372549019607843 0.0
newmtl m974
Kd 0.043137254901960784 0.11372549019607843 0.0
newmtl m975
Kd 0.043137254901960784 0.11372549019607843 0.0
newmtl m976
Kd 0.043137254901960784 0.11372549019607843 0.0
newmtl m977
Kd 0.043137254901960784 0.11372549019607843 0.0
newmtl m978
Kd 0.043137254901960784 0.11372549019607843 0.0
newmtl m979
Kd 0.043137254901960784 0.11372549019607843 0.0
newmtl m980
Kd 0.043137254901960784 0.11372549019607843 0.0
newmtl m981
Kd 0.043137254901960784 0.11372549019607843 0.0
newmtl m982
Kd 0.043137254901960784 0.11372549019607843 0.0
newmtl m983
Kd 0.043137254901960784 0.11372549019607843 0.0
newmtl m984
Kd 0.043137254901960784 0.11372549019607843 0.0
newmtl m985
Kd 0.043137254901960784 0.11372549019607843 0.0
newmtl m986
Kd 0.043137254901960784 0.11372549019607843 0.0
newmtl m987
Kd 0.043137254901960784 0.11372549019607843 0.0
newmtl m988
Kd 0.043137254901960784 0.11372549019607843 0.0
newmtl m989
Kd 0.043137254901960784 0.11372549019607843 0.0
newmtl m990
Kd 0.043137254901960784 0.11372549019607843 0.0
newmtl m991
Kd 0.043137254901960784 0.11372549019607843 0.0
newmtl m992
Kd 0.043137254901960784 0.11372549019607843 0.0
newmtl m993
Kd 0.043137254901960784 0.11372549019607843 0.0
newmtl m994
Kd 0.043137254901960784 0.11372549019607843 0.0
newmtl m995
Kd 0.043137254901960784 0.11372549019607843 0.0
newmtl m996
Kd 0.043137254901960784 0.11372549019607843 0.0
newmtl m997
Kd 0.043137254901960784 0.11372549019607843 0.0
newmtl m998
Kd 0.043137254901960784 0.11372549019607843 0.0
newmtl m999
Kd 0.043137254901960784 0.11372549019607843 0.0
newmtl m1000
Kd 0.043137254901960784 0.11372549019607843 0.0
newmtl m1001
Kd 0.043137254901960784 0.11372549019607843 0.0
newmtl m1002
Kd 0.043137254901960784 0.11372549019607843 0.0
newmtl m1003
Kd 0.043137254901960784 0.11372549019607843 0.0
newmtl m1004
Kd 0.043137254901960784 0.11372549019607843 0.0
newmtl m1005
Kd 0.043137254901960784 0.11372549019607843 0.0
newmtl m1006
Kd 0.043137254901960784 0.11372549019607843 0.0
newmtl m1007
Kd 0.043137254901960784 0.11372549019607843 0.0
newmtl m1008
Kd 0.043137254901960784 0.11372549019607843 0.0
newmtl m1009
Kd 0.043137254901960784 0.11372549019607843 0.0
newmtl m1010
Kd 0.043137254901960784 0.11372549019607843 0.0
newmtl m1011
Kd 0.043137254901960784 0.11372549019607843 0.0
newmtl m1012
Kd 0.043137254901960784 0.11372549019607843 0.0
newmtl m1013
Kd 0.043137254901960784 0.11372549019607843 0.0
newmtl m1014
Kd 0.043137254901960784 0.11372549019607843 0.0
newmtl m1015
Kd 0.043137254901960784 0.11372549019607843 0.0
newmtl m1016
Kd 0.043137254901960784 0.11372549019607843 0.0
newmtl m1017
Kd 0.043137254901960784 0.11372549019607843 0.0
newmtl m1018
Kd 0.043137254901960784 0.11372549019607843 0.0
newmtl m1019
Kd 0.043137254901960784 0.11372549019607843 0.0
newmtl m1020
Kd 0.043137254901960784 0.11372549019607843 0.0
newmtl m1021
Kd 0.043137254901960784 0.11372549019607843 0.0
newmtl m1022
Kd 0.043137254901960784 0.11372549019607843 0.0
newmtl m1023
Kd 0.043137254901960784 0.11372549019607843 0.0
newmtl m1024
Kd 0.043137254901960784 0.11372549019607843 0.0
newmtl m1025
Kd 0.043137254901960784 0.11372549019607843 0.0
newmtl m1026
Kd 0.043137254901960784 0.11372549019607843 0.0
newmtl m1027
Kd 0.043137254901960784 0.11372549019607843 0.0
newmtl m1028
Kd 0.043137254901960784 0.11372549019607843 0.0
newmtl m1029
Kd 0.043137254901960784 0.11372549019607843 0.0
newmtl m1030
Kd 0.043137254901960784 0.11372549019607843 0.0
newmtl m1031
Kd 0.043137254901960784 0.11372549019607843 0.0
newmtl m1032
Kd 0.043137254901960784 0.11372549019607843 0.0
newmtl m1033
Kd 0.043137254901960784 0.11372549019607843 0.0
newmtl m1034
Kd 0.043137254901960784 0.11372549019607843 0.0
newmtl m1035
Kd 0.043137254901960784 0.11372549019607843 0.0
newmtl m1036
Kd 0.043137254901960784 0.11372549019607843 0.0
newmtl m1037
Kd 0.043137254901960784 0.11372549019607843 0.0
newmtl m1038
Kd 0.043137254901960784 0.11372549019607843 0.0
newmtl m1039
Kd 0.043137254901960784 0.11372549019607843 0.0
newmtl m1040
Kd 0.043137254901960784 0.11372549019607843 0.0
newmtl m1041
Kd 0.043137254901960784 0.11372549019607843 0.0
newmtl m1042
Kd 0.043137254901960784 0.11372549019607843 0.0
newmtl m1043
Kd 0.043137254901960784 0.11372549019607843 0.0
newmtl m1044
Kd 0.043137254901960784 0.11372549019607843 0.0
newmtl m1045
Kd 0.043137254901960784 0.11372549019607843 0.0
newmtl m1046
Kd 0.043137254901960784 0.11372549019607843 0.0
newmtl m1047
Kd 0.043137254901960784 0.11372549019607843 0.0
newmtl m1048
Kd 0.043137254901960784 0.11372549019607843 0.0
newmtl m1049
Kd 0.043137254901960784 0.11372549019607843 0.0
newmtl m1050
Kd 0.043137254901960784 0.11372549019607843 0.0
newmtl m1051
Kd 0.043137254901960784 0.11372549019607843 0.0
newmtl m1052
Kd 0.043137254901960784 0.11372549019607843 0.0
newmtl m1053
Kd 0.043137254901960784 0.11372549019607843 0.0
newmtl m1054
Kd 0.043137254901960784 0.11372549019607843 0.0
newmtl m1055
Kd 0.043137254901960784 0.11372549019607843 0.0
newmtl m1056
Kd 0.043137254901960784 0.11372549019607843 0.0
newmtl m1057
Kd 0.043137254901960784 0.11372549019607843 0.0
newmtl m1058
Kd 0.043137254901960784 0.11372549019607843 0.0
newmtl m1059
Kd 0.043137254901960784 0.11372549019607843 0.0
newmtl m1060
Kd 0.043137254901960784 0.11372549019607843 0.0
newmtl m1061
Kd 0.043137254901960784 0.11372549019607843 0.0
newmtl m1062
Kd 0.043137254901960784 0.11372549019607843 0.0
newmtl m1063
Kd 0.043137254901960784 0.11372549019607843 0.0
newmtl m1064
Kd 0.043137254901960784 0.11372549019607843 0.0
newmtl m1065
Kd 0.043137254901960784 0.11372549019607843 0.0
newmtl m1066
Kd 0.043137254901960784 0.11372549019607843 0.0
newmtl m1067
Kd 0.043137254901960784 0.11372549019607843 0.0
newmtl m1068
Kd 0.043137254901960784 0.11372549019607843 0.0
newmtl m1069
Kd 0.043137254901960784 0.11372549019607843 0.0
newmtl m1070
Kd 0.043137254901960784 0.11372549019607843 0.0
newmtl m1071
Kd 0.043137254901960784 0.11372549019607843 0.0
newmtl m1072
Kd 0.043137254901960784 0.11372549019607843 0.0
newmtl m1073
Kd 0.043137254901960784 0.11372549019607843 0.0
newmtl m1074
Kd 0.043137254901960784 0.11372549019607843 0.0
newmtl m1075
Kd 0.043137254901960784 0.11372549019607843 0.0
newmtl m1076
Kd 0.043137254901960784 0.11372549019607843 0.0
newmtl m1077
Kd 0.043137254901960784 0.11372549019607843 0.0
newmtl m1078
Kd 0.043137254901960784 0.11372549019607843 0.0
newmtl m1079
Kd 0.043137254901960784 0.11372549019607843 0.0
newmtl m1080
Kd 0.043137254901960784 0.11372549019607843 0.0
newmtl m1081
Kd 0.043137254901960784 0.11372549019607843 0.0
newmtl m1082
Kd 0.043137254901960784 0.11372549019607843 0.0
newmtl m1083
Kd 0.043137254901960784 0.11372549019607843 0.0
newmtl m1084
Kd 0.043137254901960784 0.11372549019607843 0.0
newmtl m1085
Kd 0.043137254901960784 0.11372549019607843 0.0
newmtl m1086
Kd 0.043137254901960784 0.11372549019607843 0.0
newmtl m1087
Kd 0.043137254901960784 0.11372549019607843 0.0
newmtl m1088
Kd 0.043137254901960784 0.11372549019607843 0.0
newmtl m1089
Kd 0.043137254901960784 0.11372549019607843 0.0
newmtl m1090
Kd 0.043137254901960784 0.11372549019607843 0.0
newmtl m1091
Kd 0.043137254901960784 0.11372549019607843 0.0
newmtl m1092
Kd 0.21568627450980393 0.18823529411764706 0.15294117647058825
newmtl m1093
Kd 0.21568627450980393 0.18823529411764706 0.15294117647058825
newmtl m1094
Kd 0.21568627450980393 0.18823529411764706 0.15294117647058825
newmtl m1095
Kd 0.21568627450980393 0.18823529411764706 0.15294117647058825
newmtl m1096
Kd 0.21568627450980393 0.18823529411764706 0.15294117647058825
newmtl m1097
Kd 0.21568627450980393 0.18823529411764706 0.15294117647058825
newmtl m1098
Kd 0.21568627450980393 0.18823529411764706 0.15294117647058825
newmtl m1099
Kd 0.21568627450980393 0.18823529411764706 0.15294117647058825
newmtl m1100
Kd 0.21568627450980393 0.18823529411764706 0.15294117647058825
newmtl m1101
Kd 0.21568627450980393 0.18823529411764706 0.15294117647058825
newmtl m1102
Kd 0.21568627450980393 0.18823529411764706 0.15294117647058825
newmtl m1103
Kd 0.21568627450980393 0.18823529411764706 0.15294117647058825
newmtl m1104
Kd 0.21568627450980393 0.18823529411764706 0.15294117647058825
newmtl m1105
Kd 0.21568627450980393 0.18823529411764706 0.15294117647058825
newmtl m1106
Kd 0.21568627450980393 0.18823529411764706 0.15294117647058825
newmtl m1107
Kd 0.21568627450980393 0.18823529411764706 0.15294117647058825
newmtl m1108
Kd 0.21568627450980393 0.18823529411764706 0.15294117647058825
newmtl m1109
Kd 0.21568627450980393 0.18823529411764706 0.15294117647058825
newmtl m1110
Kd 0.21568627450980393 0.18823529411764706 0.15294117647058825
newmtl m1111
Kd 0.21568627450980393 0.18823529411764706 0.15294117647058825
newmtl m1112
Kd 0.21568627450980393 0.18823529411764706 0.15294117647058825
newmtl m1113
Kd 0.21568627450980393 0.18823529411764706 0.15294117647058825
newmtl m1114
Kd 0.21568627450980393 0.18823529411764706 0.15294117647058825
newmtl m1115
Kd 0.21568627450980393 0.18823529411764706 0.15294117647058825
newmtl m1116
Kd 0.21568627450980393 0.18823529411764706 0.15294117647058825
newmtl m1117
Kd 0.21568627450980393 0.18823529411764706 0.15294117647058825
newmtl m1118
Kd 0.21568627450980393 0.18823529411764706 0.15294117647058825
newmtl m1119
Kd 0.21568627450980393 0.18823529411764706 0.15294117647058825
newmtl m1120
Kd 0.21568627450980393 0.18823529411764706 0.15294117647058825
newmtl m1121
Kd 0.21568627450980393 0.18823529411764706 0.15294117647058825
newmtl m1122
Kd 0.21568627450980393 0.18823529411764706 0.15294117647058825
newmtl m1123
Kd 0.21568627450980393 0.18823529411764706 0.15294117647058825
newmtl m1124
Kd 0.21568627450980393 0.18823529411764706 0.15294117647058825
newmtl m1125
Kd 0.21568627450980393 0.18823529411764706 0.15294117647058825
newmtl m1126
Kd 0.21568627450980393 0.18823529411764706 0.15294117647058825
newmtl m1127
Kd 0.21568627450980393 0.18823529411764706 0.15294117647058825
newmtl m1128
Kd 0.21568627450980393 0.18823529411764706 0.15294117647058825
newmtl m1129
Kd 0.21568627450980393 0.18823529411764706 0.15294117647058825
newmtl m1130
Kd 0.21568627450980393 0.18823529411764706 0.15294117647058825
newmtl m1131
Kd 0.21568627450980393 0.18823529411764706 0.15294117647058825
newmtl m1132
Kd 0.21568627450980393 0.18823529411764706 0.15294117647058825
newmtl m1133
Kd 0.21568627450980393 0.18823529411764706 0.15294117647058825
newmtl m1134
Kd 0.21568627450980393 0.18823529411764706 0.15294117647058825
newmtl m1135
Kd 0.21568627450980393 0.18823529411764706 0.15294117647058825
newmtl m1136
Kd 0.21568627450980393 0.18823529411764706 0.15294117647058825
newmtl m1137
Kd 0.21568627450980393 0.18823529411764706 0.15294117647058825
newmtl m1138
Kd 0.21568627450980393 0.18823529411764706 0.15294117647058825
newmtl m1139
Kd 0.21568627450980393 0.18823529411764706 0.15294117647058825
newmtl m1140
Kd 0.21568627450980393 0.18823529411764706 0.15294117647058825
newmtl m1141
Kd 0.21568627450980393 0.18823529411764706 0.15294117647058825
newmtl m1142
Kd 0.21568627450980393 0.18823529411764706 0.15294117647058825
newmtl m1143
Kd 0.21568627450980393 0.18823529411764706 0.15294117647058825
newmtl m1144
Kd 0.14901960784313725 0.11764705882352941 0.08235294117647059
newmtl m1145
Kd 0.14901960784313725 0.11764705882352941 0.08235294117647059
newmtl m1146
Kd 0.14901960784313725 0.11764705882352941 0.08235294117647059
newmtl m1147
Kd 0.14901960784313725 0.11764705882352941 0.08235294117647059
newmtl m1148
Kd 0.14901960784313725 0.11764705882352941 0.08235294117647059
newmtl m1149
Kd 0.14901960784313725 0.11764705882352941 0.08235294117647059
newmtl m1150
Kd 0.14901960784313725 0.11764705882352941 0.08235294117647059
newmtl m1151
Kd 0.14901960784313725 0.11764705882352941 0.08235294117647059
newmtl m1152
Kd 0.14901960784313725 0.11764705882352941 0.08235294117647059
newmtl m1153
Kd 0.14901960784313725 0.11764705882352941 0.08235294117647059
newmtl m1154
Kd 0.14901960784313725 0.11764705882352941 0.08235294117647059
newmtl m1155
Kd 0.14901960784313725 0.11764705882352941 0.08235294117647059
newmtl m1156
Kd 0.14901960784313725 0.11764705882352941 0.08235294117647059
newmtl m1157
Kd 0.14901960784313725 0.11764705882352941 0.08235294117647059
newmtl m1158
Kd 0.14901960784313725 0.11764705882352941 0.08235294117647059
newmtl m1159
Kd 0.14901960784313725 0.11764705882352941 0.08235294117647059
newmtl m1160
Kd 0.14901960784313725 0.11764705882352941 0.08235294117647059
newmtl m1161
Kd 0.14901960784313725 0.11764705882352941 0.08235294117647059
newmtl m1162
Kd 0.14901960784313725 0.11764705882352941 0.08235294117647059
newmtl m1163
Kd 0.14901960784313725 0.11764705882352941 0.08235294117647059
newmtl m1164
Kd 0.14901960784313725 0.11764705882352941 0.08235294117647059
newmtl m1165
Kd 0.14901960784313725 0.11764705882352941 0.08235294117647059
newmtl m1166
Kd 0.14901960784313725 0.11764705882352941 0.08235294117647059
newmtl m1167
Kd 0.14901960784313725 0.11764705882352941 0.08235294117647059
newmtl m1168
Kd 0.14901960784313725 0.11764705882352941 0.08235294117647059
newmtl m1169
Kd 0.14901960784313725 0.11764705882352941 0.08235294117647059
newmtl m1170
Kd 0.14901960784313725 0.11764705882352941 0.08235294117647059
newmtl m1171
Kd 0.14901960784313725 0.11764705882352941 0.08235294117647059
newmtl m1172
Kd 0.14901960784313725 0.11764705882352941 0.08235294117647059
newmtl m1173
Kd 0.14901960784313725 0.11764705882352941 0.08235294117647059
newmtl m1174
Kd 0.14901960784313725 0.11764705882352941 0.08235294117647059
newmtl m1175
Kd 0.14901960784313725 0.11764705882352941 0.08235294117647059
newmtl m1176
Kd 0.14901960784313725 0.11764705882352941 0.08235294117647059
newmtl m1177
Kd 0.14901960784313725 0.11764705882352941 0.08235294117647059
newmtl m1178
Kd 0.14901960784313725 0.11764705882352941 0.08235294117647059
newmtl m1179
Kd 0.14901960784313725 0.11764705882352941 0.08235294117647059
newmtl m1180
Kd 0.14901960784313725 0.11764705882352941 0.08235294117647059
newmtl m1181
Kd 0.14901960784313725 0.11764705882352941 0.08235294117647059
newmtl m1182
Kd 0.14901960784313725 0.11764705882352941 0.08235294117647059
newmtl m1183
Kd 0.14901960784313725 0.11764705882352941 0.08235294117647059
newmtl m1184
Kd 0.14901960784313725 0.11764705882352941 0.08235294117647059
newmtl m1185
Kd 0.14901960784313725 0.11764705882352941 0.08235294117647059
newmtl m1186
Kd 0.14901960784313725 0.11764705882352941 0.08235294117647059
newmtl m1187
Kd 0.14901960784313725 0.11764705882352941 0.08235294117647059
newmtl m1188
Kd 0.14901960784313725 0.11764705882352941 0.08235294117647059
newmtl m1189
Kd 0.14901960784313725 0.11764705882352941 0.08235294117647059
newmtl m1190
Kd 0.14901960784313725 0.11764705882352941 0.08235294117647059
newmtl m1191
Kd 0.14901960784313725 0.11764705882352941 0.08235294117647059
newmtl m1192
Kd 0.14901960784313725 0.11764705882352941 0.08235294117647059
newmtl m1193
Kd 0.14901960784313725 0.11764705882352941 0.08235294117647059
newmtl m1194
Kd 0.14901960784313725 0.11764705882352941 0.08235294117647059
newmtl m1195
Kd 0.14901960784313725 0.11764705882352941 0.08235294117647059
