mtllib 39488.mtl
o runescapemodel
v -104 608 0
v 0 608 0
v 0 608 -104
v -104 608 -104
v -104 480 -104
v -104 480 104
v -104 608 104
v 0 608 104
v 104 608 0
v 104 608 -104
v 104 480 -104
v -104 128 -104
v 104 128 -104
v 104 0 -104
v -104 0 -104
v -104 128 104
v -80 128 0
v -60 128 -59
v 0 128 -80
v 60 128 -59
v 80 128 0
v 104 128 104
v 104 0 104
v -104 0 104
v 0 128 80
v -60 128 59
v -60 304 59
v -80 304 0
v -60 304 -59
v 0 304 -80
v 60 304 -59
v 80 304 0
v 60 128 59
v 60 304 59
v 0 304 80
v 0 480 80
v -60 480 59
v -80 480 0
v -60 480 -59
v 0 480 -80
v 60 480 -59
v 80 480 0
v 104 480 104
v 104 608 104
v 60 480 59
vn 0 0 0
vn 0 0 0
vn 0 0 0
vn 0 0 0
vn 0 0 0
vn 0 0 0
vn 0 0 0
vn 0 0 0
vn 0 0 0
vn 0 0 0
vn 0 0 0
vn 0 0 0
vn 0 0 0
vn 0 0 0
vn 0 0 0
vn 0 0 0
vn 0 0 0
vn 0 0 0
vn 0 0 0
vn 0 0 0
vn 0 0 0
vn 0 0 0
vn 0 0 0
vn 0 0 0
vn 0 0 0
vn 0 0 0
vn 0 0 0
vn 0 0 0
vn 0 0 0
vn 0 0 0
vn 0 0 0
vn 0 0 0
vn 0 0 0
vn 0 0 0
vn 0 0 0
vn 0 0 0
vn 0 0 0
vn 0 0 0
vn 0 0 0
vn 0 0 0
vn 0 0 0
vn 0 0 0
vn 0 0 0
vn 0 0 0
vn 0 0 0
usemtl m0
f 1 2 3

usemtl m1
f 1 3 4

usemtl m2
f 1 4 5

usemtl m3
f 1 5 6

usemtl m4
f 1 6 7

usemtl m5
f 1 7 2

usemtl m6
f 2 7 8

usemtl m7
f 2 8 9

usemtl m8
f 2 9 10

usemtl m9
f 2 10 3

usemtl m10
f 3 10 11

usemtl m11
f 3 11 5

usemtl m12
f 3 5 4

usemtl m13
f 12 13 14

usemtl m14
f 12 14 15

usemtl m15
f 12 15 16

usemtl m16
f 12 16 17

usemtl m17
f 12 17 18

usemtl m18
f 12 18 19

usemtl m19
f 12 19 13

usemtl m20
f 13 19 20

usemtl m21
f 13 20 21

usemtl m22
f 13 21 22

usemtl m23
f 13 22 23

usemtl m24
f 13 23 14

usemtl m25
f 16 15 24

usemtl m26
f 16 24 22

usemtl m27
f 16 22 25

usemtl m28
f 16 25 26

usemtl m29
f 16 26 17

usemtl m30
f 17 26 27

usemtl m31
f 17 27 28

usemtl m32
f 17 28 18

usemtl m33
f 18 28 29

usemtl m34
f 18 29 19

usemtl m35
f 19 29 30

usemtl m36
f 19 30 20

usemtl m37
f 20 30 31

usemtl m38
f 20 31 21

usemtl m39
f 21 31 32

usemtl m40
f 21 32 33

usemtl m41
f 21 33 22

usemtl m42
f 22 33 25

usemtl m43
f 25 33 34

usemtl m44
f 25 34 35

usemtl m45
f 25 35 26

usemtl m46
f 26 35 27

usemtl m47
f 27 35 36

usemtl m48
f 27 36 37

usemtl m49
f 27 37 28

usemtl m50
f 28 37 38

usemtl m51
f 28 38 29

usemtl m52
f 29 38 39

usemtl m53
f 29 39 30

usemtl m54
f 30 39 40

usemtl m55
f 30 40 31

usemtl m56
f 31 40 41

usemtl m57
f 31 41 32

usemtl m58
f 32 41 42

usemtl m59
f 32 42 34

usemtl m60
f 32 34 33

usemtl m61
f 22 24 23

usemtl m62
f 11 10 9

usemtl m63
f 11 9 43

usemtl m64
f 11 43 42

usemtl m65
f 11 42 41

usemtl m66
f 11 41 40

usemtl m67
f 11 40 5

usemtl m68
f 5 40 39

usemtl m69
f 5 39 38

usemtl m70
f 5 38 6

usemtl m71
f 6 38 37

usemtl m72
f 6 37 36

usemtl m73
f 6 36 43

usemtl m74
f 6 43 8

usemtl m75
f 6 8 7

usemtl m76
f 43 44 8

usemtl m77
f 8 44 9

usemtl m78
f 9 44 43

usemtl m79
f 42 43 45

usemtl m80
f 42 45 34

usemtl m81
f 34 45 35

usemtl m82
f 35 45 36

usemtl m83
f 36 45 43

