mtllib 39669.mtl
o runescapemodel
v 13 0 -13
v 0 8 -13
v 0 0 13
v -13 0 -13
v 0 0 -30
v 27 0 33
v 32 5 23
v 18 0 16
v 42 0 18
v 47 0 30
v -30 0 22
v -27 6 10
v -49 0 5
v -23 0 0
v -11 0 15
v 10 0 50
v 0 8 40
v -23 0 56
v -8 0 27
v 16 0 27
v 20 0 -3
v 33 10 -8
v 27 0 -37
v 47 0 -11
v 37 0 13
v -35 0 -27
v -30 5 -37
v -44 0 -44
v -20 0 -42
v -15 0 -30
vn 0 0 0
vn 0 0 0
vn 0 0 0
vn 0 0 0
vn 0 0 0
vn 0 0 0
vn 0 0 0
vn 0 0 0
vn 0 0 0
vn 0 0 0
vn 0 0 0
vn 0 0 0
vn 0 0 0
vn 0 0 0
vn 0 0 0
vn 0 0 0
vn 0 0 0
vn 0 0 0
vn 0 0 0
vn 0 0 0
vn 0 0 0
vn 0 0 0
vn 0 0 0
vn 0 0 0
vn 0 0 0
vn 0 0 0
vn 0 0 0
vn 0 0 0
vn 0 0 0
vn 0 0 0
usemtl m0
f 1 2 3

usemtl m1
f 3 2 4

usemtl m2
f 4 2 5

usemtl m3
f 5 2 1

usemtl m4
f 6 7 8

usemtl m5
f 8 7 9

usemtl m6
f 9 7 10

usemtl m7
f 10 7 6

usemtl m8
f 11 12 13

usemtl m9
f 13 12 14

usemtl m10
f 14 12 15

usemtl m11
f 15 12 11

usemtl m12
f 16 17 18

usemtl m13
f 18 17 19

usemtl m14
f 19 17 20

usemtl m15
f 20 17 16

usemtl m16
f 21 22 23

usemtl m17
f 23 22 24

usemtl m18
f 24 22 25

usemtl m19
f 25 22 21

usemtl m20
f 26 27 28

usemtl m21
f 28 27 29

usemtl m22
f 29 27 30

usemtl m23
f 30 27 26

