mtllib 39811.mtl
o runescapemodel
v -64 240 64
v 64 300 64
v 64 300 -64
v -64 240 -64
v -64 240 64
v -64 240 64
v -64 240 64
v -64 240 64
v -64 240 64
v -64 240 64
v -64 240 64
v -64 240 64
vn -216 -462 0
vn -108 -231 0
vn -216 -462 0
vn -108 -231 0
vn 0 0 0
vn 0 0 0
vn 0 0 0
vn 0 0 0
vn 0 0 0
vn 0 0 0
vn 0 0 0
vn 0 0 0
usemtl m0
f 1 2 3

usemtl m1
f 1 3 4

