mtllib 39955.mtl
o runescapemodel
v 64 0 -64
v -64 0 -64
v 64 0 64
v -64 0 64
v -11 0 -55
v -8 0 -52
v -6 3 -58
v -10 0 -62
v -7 0 -64
v -1 0 -63
v -1 0 -58
v -4 0 -53
v 57 1 -57
v 57 0 -60
v 53 3 -58
v 53 0 -52
v 50 0 -53
v 49 0 -61
v 53 0 -62
v 16 0 -32
v 8 0 -38
v 5 3 -30
v 13 0 -25
v 2 0 -28
v 3 3 -32
v -2 0 -36
v 3 0 -41
v 64 0 64
v 64 0 -64
v 32 0 -64
v 39 0 0
v 32 0 64
v 16 0 -64
v 23 0 0
v 16 0 64
v 0 0 -64
v 7 0 0
v 0 0 64
v 30 1 2
v 28 1 -1
v 27 4 2
v 30 1 8
v 21 4 6
v 26 1 10
v 19 1 8
v 19 1 4
v 21 4 3
v 23 1 -1
v 32 0 -18
v 36 0 -9
v 41 4 -18
v 32 0 -31
v 39 7 -27
v 41 0 -36
v 54 0 -22
v 44 7 -13
v 45 0 -9
v -2 0 41
v 0 0 44
v 2 4 39
v -2 0 30
v 8 4 33
v 2 0 26
v 11 0 29
v 11 0 35
v 9 4 36
v 6 0 42
v 22 0 -49
v 25 0 -51
v 23 3 -52
v 16 0 -52
v 18 0 -58
v 23 3 -54
v 25 0 -57
v 26 0 -54
v -27 0 -6
v -30 0 -9
v -32 3 -7
v -30 0 0
v -36 0 0
v -32 3 -6
v -36 0 -7
v -33 0 -9
v 40 0 42
v 43 0 46
v 44 4 42
v 40 0 33
v 52 4 36
v 46 0 30
v 55 0 33
v 55 0 39
v 52 4 40
v 49 0 46
v -7 0 -13
v -11 0 -10
v -7 4 -9
v 2 0 -12
v -1 4 -7
v 4 0 -4
v -7 0 2
v -10 4 -6
v -13 0 -4
v 21 1 49
v 18 1 51
v 22 3 53
v 27 1 49
v 25 2 55
v 29 1 53
v 27 1 58
v 23 1 58
v 23 3 55
v 19 1 54
v -45 0 16
v -49 0 18
v -45 2 19
v -40 0 16
v -42 2 23
v -38 0 20
v -39 0 25
v -44 0 25
v -44 2 23
v -48 0 21
v -29 0 -39
v -28 2 -42
v -32 0 -43
v -28 0 -46
v -25 0 -41
v -49 2 -31
v -53 1 -29
v -47 1 -25
v -46 1 -33
v -52 1 -35
v -26 1 51
v -24 1 55
v -23 3 50
v -26 1 45
v -20 2 49
v -23 1 43
v -18 1 46
v -18 1 50
v -20 3 50
v -21 1 55
vn 0 0 0
vn 0 0 0
vn 0 0 0
vn 0 0 0
vn 0 0 0
vn 0 0 0
vn 0 0 0
vn 0 0 0
vn 0 0 0
vn 0 0 0
vn 0 0 0
vn 0 0 0
vn 0 0 0
vn 0 0 0
vn 0 0 0
vn 0 0 0
vn 0 0 0
vn 0 0 0
vn 0 0 0
vn 0 0 0
vn 0 0 0
vn 0 0 0
vn 0 0 0
vn 0 0 0
vn 0 0 0
vn 0 0 0
vn 0 0 0
vn 0 0 0
vn 0 0 0
vn 0 0 0
vn 0 0 0
vn 0 0 0
vn 0 0 0
vn 0 0 0
vn 0 0 0
vn 0 0 0
vn 0 0 0
vn 0 0 0
vn 0 0 0
vn 0 0 0
vn 0 0 0
vn 0 0 0
vn 0 0 0
vn 0 0 0
vn 0 0 0
vn 0 0 0
vn 0 0 0
vn 0 0 0
vn 0 0 0
vn 0 0 0
vn 0 0 0
vn 0 0 0
vn 0 0 0
vn 0 0 0
vn 0 0 0
vn 0 0 0
vn 0 0 0
vn 0 0 0
vn 0 0 0
vn 0 0 0
vn 0 0 0
vn 0 0 0
vn 0 0 0
vn 0 0 0
vn 0 0 0
vn 0 0 0
vn 0 0 0
vn 0 0 0
vn 0 0 0
vn 0 0 0
vn 0 0 0
vn 0 0 0
vn 0 0 0
vn 0 0 0
vn 0 0 0
vn 0 0 0
vn 0 0 0
vn 0 0 0
vn 0 0 0
vn 0 0 0
vn 0 0 0
vn 0 0 0
vn 0 0 0
vn 0 0 0
vn 0 0 0
vn 0 0 0
vn 0 0 0
vn 0 0 0
vn 0 0 0
vn 0 0 0
vn 0 0 0
vn 0 0 0
vn 0 0 0
vn 0 0 0
vn 0 0 0
vn 0 0 0
vn 0 0 0
vn 0 0 0
vn 0 0 0
vn 0 0 0
vn 0 0 0
vn 0 0 0
vn 0 0 0
vn 0 0 0
vn 0 0 0
vn 0 0 0
vn 0 0 0
vn 0 0 0
vn 0 0 0
vn 0 0 0
vn 0 0 0
vn 0 0 0
vn 0 0 0
vn 0 0 0
vn 0 0 0
vn 0 0 0
vn 0 0 0
vn 0 0 0
vn 0 0 0
vn 0 0 0
vn 0 0 0
vn 0 0 0
vn 0 0 0
vn 0 0 0
vn 0 0 0
vn 0 0 0
vn 0 0 0
vn 0 0 0
vn 0 0 0
vn 0 0 0
vn 0 0 0
vn 0 0 0
vn 0 0 0
vn 0 0 0
vn 0 0 0
vn 0 0 0
vn 0 0 0
vn 0 0 0
vn 0 0 0
vn 0 0 0
vn 0 0 0
vn 0 0 0
usemtl m0
f 1 2 3

usemtl m1
f 3 2 4

usemtl m2
f 5 6 7

usemtl m3
f 5 7 8

usemtl m4
f 8 7 9

usemtl m5
f 9 7 10

usemtl m6
f 10 7 11

usemtl m7
f 11 7 12

usemtl m8
f 12 7 6

usemtl m9
f 13 14 15

usemtl m10
f 13 15 16

usemtl m11
f 16 15 17

usemtl m12
f 17 15 18

usemtl m13
f 18 15 19

usemtl m14
f 19 15 14

usemtl m15
f 20 21 22

usemtl m16
f 20 22 23

usemtl m17
f 23 22 24

usemtl m18
f 24 22 25

usemtl m19
f 24 25 26

usemtl m20
f 26 25 27

usemtl m21
f 27 25 21

usemtl m22
f 21 25 22

usemtl m23
f 28 29 30

usemtl m24
f 28 30 31

usemtl m25
f 28 31 32

usemtl m26
f 32 31 33

usemtl m27
f 32 33 34

usemtl m28
f 32 34 35

usemtl m29
f 35 34 36

usemtl m30
f 35 36 37

usemtl m31
f 35 37 38

usemtl m32
f 31 30 33

usemtl m33
f 34 33 36

usemtl m34
f 39 40 41

usemtl m35
f 39 41 42

usemtl m36
f 42 41 43

usemtl m37
f 42 43 44

usemtl m38
f 44 43 45

usemtl m39
f 45 43 46

usemtl m40
f 46 43 47

usemtl m41
f 46 47 48

usemtl m42
f 48 47 40

usemtl m43
f 40 47 41

usemtl m44
f 41 47 43

usemtl m45
f 49 50 51

usemtl m46
f 49 51 52

usemtl m47
f 52 51 53

usemtl m48
f 52 53 54

usemtl m49
f 54 53 55

usemtl m50
f 55 53 56

usemtl m51
f 55 56 57

usemtl m52
f 57 56 50

usemtl m53
f 50 56 51

usemtl m54
f 51 56 53

usemtl m55
f 58 59 60

usemtl m56
f 58 60 61

usemtl m57
f 61 60 62

usemtl m58
f 61 62 63

usemtl m59
f 63 62 64

usemtl m60
f 64 62 65

usemtl m61
f 65 62 66

usemtl m62
f 65 66 67

usemtl m63
f 67 66 59

usemtl m64
f 59 66 60

usemtl m65
f 60 66 62

usemtl m66
f 68 69 70

usemtl m67
f 68 70 71

usemtl m68
f 71 70 72

usemtl m69
f 72 70 73

usemtl m70
f 72 73 74

usemtl m71
f 74 73 75

usemtl m72
f 75 73 69

usemtl m73
f 69 73 70

usemtl m74
f 76 77 78

usemtl m75
f 76 78 79

usemtl m76
f 79 78 80

usemtl m77
f 80 78 81

usemtl m78
f 80 81 82

usemtl m79
f 82 81 83

usemtl m80
f 83 81 77

usemtl m81
f 77 81 78

usemtl m82
f 84 85 86

usemtl m83
f 84 86 87

usemtl m84
f 87 86 88

usemtl m85
f 87 88 89

usemtl m86
f 89 88 90

usemtl m87
f 90 88 91

usemtl m88
f 91 88 92

usemtl m89
f 91 92 93

usemtl m90
f 93 92 85

usemtl m91
f 85 92 86

usemtl m92
f 86 92 88

usemtl m93
f 94 95 96

usemtl m94
f 94 96 97

usemtl m95
f 97 96 98

usemtl m96
f 97 98 99

usemtl m97
f 99 98 100

usemtl m98
f 100 98 101

usemtl m99
f 100 101 102

usemtl m100
f 102 101 95

usemtl m101
f 95 101 96

usemtl m102
f 96 101 98

usemtl m103
f 103 104 105

usemtl m104
f 103 105 106

usemtl m105
f 106 105 107

usemtl m106
f 106 107 108

usemtl m107
f 108 107 109

usemtl m108
f 109 107 110

usemtl m109
f 110 107 111

usemtl m110
f 110 111 112

usemtl m111
f 112 111 104

usemtl m112
f 104 111 105

usemtl m113
f 105 111 107

usemtl m114
f 113 114 115

usemtl m115
f 113 115 116

usemtl m116
f 116 115 117

usemtl m117
f 116 117 118

usemtl m118
f 118 117 119

usemtl m119
f 119 117 120

usemtl m120
f 120 117 121

usemtl m121
f 120 121 122

usemtl m122
f 122 121 114

usemtl m123
f 114 121 115

usemtl m124
f 115 121 117

usemtl m125
f 123 124 125

usemtl m126
f 125 124 126

usemtl m127
f 126 124 127

usemtl m128
f 127 124 123

usemtl m129
f 128 129 130

usemtl m130
f 128 130 131

usemtl m131
f 128 131 132

usemtl m132
f 128 132 129

usemtl m133
f 133 134 135

usemtl m134
f 133 135 136

usemtl m135
f 136 135 137

usemtl m136
f 136 137 138

usemtl m137
f 138 137 139

usemtl m138
f 139 137 140

usemtl m139
f 140 137 141

usemtl m140
f 140 141 142

usemtl m141
f 142 141 134

usemtl m142
f 134 141 135

usemtl m143
f 135 141 137

