mtllib 40025.mtl
o runescapemodel
v -80 203 -35
v -80 201 -9
v -80 193 -15
v -80 188 -17
v -80 200 -36
v -80 218 -60
v -80 210 -33
v -80 214 -32
v -80 206 -8
v -80 189 18
v -80 182 11
v -80 178 9
v -80 176 34
v -80 171 33
v -80 180 35
v -80 168 61
v -80 193 20
v -80 184 37
vn 0 0 0
vn 0 0 0
vn 0 0 0
vn 0 0 0
vn 0 0 0
vn 0 0 0
vn 0 0 0
vn 0 0 0
vn 0 0 0
vn 0 0 0
vn 0 0 0
vn 0 0 0
vn 0 0 0
vn 0 0 0
vn 0 0 0
vn 0 0 0
vn 0 0 0
vn 0 0 0
usemtl m0
f 1 2 3

usemtl m1
f 1 3 4

usemtl m2
f 1 4 5

usemtl m3
f 1 5 6

usemtl m4
f 1 6 7

usemtl m5
f 1 7 2

usemtl m6
f 2 7 8

usemtl m7
f 2 8 9

usemtl m8
f 2 9 10

usemtl m9
f 2 10 11

usemtl m10
f 2 11 3

usemtl m11
f 3 11 12

usemtl m12
f 3 12 4

usemtl m13
f 11 10 13

usemtl m14
f 11 13 14

usemtl m15
f 11 14 12

usemtl m16
f 10 15 13

usemtl m17
f 13 15 16

usemtl m18
f 13 16 14

usemtl m19
f 17 15 10

usemtl m20
f 17 10 9

usemtl m21
f 8 7 6

usemtl m22
f 18 15 17

usemtl m23
f 15 18 16

