mtllib 40544.mtl
o runescapemodel
v 4 3 -4
v -4 3 -4
v -4 3 4
v 4 3 4
v 1 3 17
v 7 3 15
v 13 3 23
v 16 3 20
v 31 3 22
v 7 3 -12
v 2 3 -15
v 7 3 -18
v 5 3 -30
v 0 3 -27
v -9 3 -35
v -14 3 -32
v -11 3 -48
v -16 3 -45
v -27 3 -50
v -18 3 0
v -16 3 6
v -21 3 -2
v -24 3 3
v -25 3 9
v -21 3 9
v -21 3 20
v -18 3 19
v -24 3 33
v -21 3 34
v -33 3 38
v -30 3 -14
v -33 3 -9
v -44 3 -13
v -41 3 -8
v -52 3 1
v -2 3 14
v -6 3 21
v -3 3 24
v -7 3 33
v -2 3 33
v 2 3 43
v 4 3 39
v 19 3 43
v 14 3 -5
v 17 3 -10
v 26 3 -2
v 26 3 -7
v 39 3 -8
v 38 3 -10
v 49 3 -6
v 4 21 40
v 0 19 42
v 0 17 42
v 6 20 40
v 6 24 38
v -4 20 44
v -6 19 44
v -5 24 46
v -9 24 46
v -4 29 48
v -7 32 48
v 3 31 50
v 3 35 50
v 10 29 52
v 13 32 52
v 12 22 54
v 17 22 54
v 9 14 56
v 13 10 56
v 3 7 58
v -1 11 58
v -9 3 60
v 5 3 60
v 35 34 39
v 37 32 32
v 37 28 32
v 32 33 41
v 34 40 43
v 41 33 25
v 44 32 23
v 40 40 21
v 46 40 17
v 36 49 19
v 41 54 15
v 26 52 24
v 26 60 24
v 14 49 29
v 9 54 32
v 8 36 28
v 1 36 33
v 11 23 22
v 5 15 27
v 16 10 13
v 22 17 8
v 27 3 0
v 12 3 12
v 12 32 9
v 15 34 16
v 18 33 18
v 12 28 9
v 8 33 3
v 4 32 1
v 16 40 20
v 8 40 -2
v 3 40 -6
v 12 49 -4
v 7 54 -7
v 23 52 1
v 23 60 1
v 36 49 4
v 41 54 8
v 41 36 3
v 49 36 8
v 38 23 -3
v 44 15 2
v 32 10 -11
v 26 17 -15
v 20 3 -23
v 36 3 -12
v -3 21 -38
v 1 19 -40
v 1 17 -40
v -5 20 -38
v -5 24 -36
v 5 20 -42
v 7 19 -42
v 6 24 -44
v 10 24 -44
v 5 29 -46
v 8 32 -46
v -2 31 -48
v -2 35 -48
v -9 29 -50
v -12 32 -50
v -11 22 -52
v -16 22 -52
v -8 14 -54
v -12 10 -54
v -2 7 -56
v 2 11 -56
v 10 3 -58
v -4 3 -58
v 14 68 -47
v 18 63 -45
v 21 63 -45
v 17 69 -47
v 16 76 -50
v 16 57 -43
v 18 55 -43
v 10 52 -40
v 13 51 -40
v 10 41 -38
v 14 43 -38
v 18 36 -36
v 19 40 -36
v 27 33 -34
v 30 36 -34
v 29 25 -31
v 35 25 -31
v 26 16 -29
v 30 11 -29
v 19 7 -27
v 14 12 -27
v 5 3 -24
v 23 3 -24
v 23 3 -27
v -20 21 -20
v -16 19 -22
v -16 17 -22
v -22 20 -20
v -22 24 -18
v -12 20 -24
v -10 19 -24
v -11 24 -26
v -7 24 -26
v -12 29 -28
v -9 32 -28
v -19 31 -30
v -19 35 -30
v -26 29 -32
v -29 32 -32
v -28 22 -34
v -33 22 -34
v -25 14 -36
v -29 10 -36
v -19 7 -38
v -15 11 -38
v -7 3 -40
v -21 3 -40
v -40 34 -38
v -43 32 -31
v -43 28 -31
v -37 33 -40
v -39 40 -43
v -47 33 -25
v -50 32 -22
v -46 40 -20
v -52 40 -16
v -42 49 -18
v -47 54 -15
v -31 52 -24
v -31 60 -24
v -19 49 -27
v -14 54 -31
v -14 36 -26
v -6 36 -31
v -17 23 -20
v -10 15 -25
v -23 10 -11
v -29 17 -7
v -34 3 0
v -19 3 -11
v -17 32 -7
v -20 34 -14
v -23 33 -17
v -17 28 -7
v -14 33 -1
v -11 32 2
v -21 40 -19
v -15 40 4
v -9 40 8
v -19 49 6
v -14 54 9
v -29 52 0
v -29 60 0
v -41 49 -4
v -46 54 -8
v -47 36 -4
v -54 36 -9
v -44 23 2
v -50 15 -2
v -38 10 12
v -33 17 16
v -28 3 24
v -43 3 12
v 5 21 26
v 1 19 28
v 1 17 28
v 7 20 26
v 7 24 24
v -3 20 30
v -5 19 30
v -4 24 32
v -8 24 32
v -3 29 34
v -6 32 34
v 4 31 36
v 4 35 36
v 11 29 38
v 14 32 38
v 13 22 40
v 18 22 40
v 10 14 42
v 14 10 42
v 4 7 44
v 0 11 44
v -8 3 46
v 6 3 46
v -19 68 47
v -23 63 45
v -26 63 45
v -22 69 47
v -21 76 50
v -21 57 43
v -23 55 43
v -15 52 40
v -18 51 40
v -15 41 38
v -19 43 38
v -23 36 36
v -24 40 36
v -32 33 34
v -35 36 34
v -34 25 31
v -40 25 31
v -31 16 29
v -35 11 29
v -24 7 27
v -19 12 27
v -10 3 24
v -28 3 27
v 15 64 28
v 19 65 27
v 13 80 24
v 10 80 24
v 16 63 25
v 20 47 27
v 20 47 29
v 23 47 27
v 12 77 22
v 10 93 18
v 12 94 20
v 9 94 21
v 25 30 23
v 22 31 21
v 22 29 24
v 19 15 16
v 22 16 14
v 18 19 14
v 10 13 7
v 11 8 9
v 13 9 6
v -2 10 3
v -2 4 4
v 2 5 3
v 7 12 -3
v 1 5 -3
v 1 14 -11
v -2 4 0
v -2 8 -9
v -5 13 -8
v -5 5 0
v -16 14 0
v -8 7 3
v -12 15 9
v -8 10 9
v -12 10 6
v 7 7 0
v 13 15 -7
v 15 13 -9
v 5 7 -4
v 16 13 -5
v 19 26 -7
v 22 25 -9
v 22 24 -6
v -10 62 29
v -12 63 28
v -19 47 28
v -16 47 30
v -16 47 27
v -11 62 27
v -2 77 24
v -4 79 24
v -22 32 25
v -18 31 27
v -19 33 24
v -20 19 17
v -16 18 19
v -17 22 17
v 16 48 -19
v 15 48 -18
v 18 62 -12
v 19 62 -13
v 15 47 -17
v 11 31 -19
v 10 31 -21
v 9 31 -21
v 19 61 -11
v 17 77 -7
v 16 76 -9
v 18 76 -9
v 25 38 -3
v 25 39 -6
v 22 57 0
v 22 56 3
v 19 55 0
v 22 39 -4
v 13 71 3
v 13 70 6
v 10 68 3
v 8 84 6
v 7 83 9
v 5 83 6
v 3 99 6
v 6 98 6
v 5 99 9
v 8 110 6
v 7 110 5
v 9 108 4
v 14 114 3
v 15 115 3
v 13 117 3
v 19 114 0
v 19 112 0
v 19 113 3
v 22 105 -1
v 19 105 -2
v 20 106 0
v 18 99 0
v 19 97 -1
v 17 99 -2
v 13 98 0
v 14 98 2
v 13 96 0
v 10 101 1
v 11 101 0
v 12 101 3
v 12 106 1
v 10 107 0
v 11 106 0
v 13 108 -3
v 14 108 0
v 13 110 -3
v 17 107 -4
v 15 107 -4
v 16 107 -3
v 17 104 -4
v 15 104 -5
v 16 104 -3
v 15 102 -3
v 15 101 -3
v 15 102 -4
v 12 102 -3
v -29 50 6
v -29 48 7
v -26 62 13
v -24 62 11
v -26 46 6
v -27 32 3
v -28 32 2
v -29 31 3
v -23 62 13
v -19 73 13
v -21 74 13
v -20 74 12
v -17 63 -24
v -20 63 -22
v -20 74 -18
v -17 74 -19
v -17 62 -21
v -14 48 -22
v -14 48 -25
v -17 48 -24
v -17 73 -15
v -16 82 -3
v -17 85 -4
v -14 86 -5
v -14 31 -21
v -11 32 -21
v -12 31 -23
v -8 18 -19
v -12 18 -18
v -9 20 -18
v -6 9 -7
v 4 20 -19
v 6 20 -18
v 6 18 -20
v 2 10 -11
v -1 13 -11
v -26 20 1
v -24 20 2
v -24 20 0
v -16 13 0
v -17 12 2
v 12 110 20
v 12 110 18
v 14 109 20
v 15 117 21
v 16 119 20
v 17 116 21
v 19 120 27
v 21 122 26
v 21 120 26
v 22 118 30
v 24 119 31
v 25 117 30
v 23 113 31
v 25 112 33
v 26 112 31
v 23 108 30
v 25 105 31
v 25 107 30
v 22 106 27
v 22 103 27
v 25 105 27
v 22 108 24
v 22 107 23
v 24 107 24
v 23 112 24
v 25 112 22
v 25 112 24
v 26 115 25
v 26 116 24
v 27 113 24
v 26 113 27
v 28 115 28
v 28 113 27
v 27 111 28
v 28 110 30
v 28 110 28
v 26 108 27
v 27 107 27
v 28 108 27
v 26 108 25
v 1 104 17
v 3 104 19
v 1 89 20
v -2 89 18
v 1 104 18
v -1 114 21
v 0 116 20
v 1 115 21
v -2 89 20
v -3 77 22
v -2 119 27
v -2 119 26
v -2 122 25
v -5 120 31
v -2 119 31
v -5 118 30
v -8 112 32
v -5 112 31
v -8 112 30
v -8 106 27
v -8 104 28
v -6 105 29
v -5 104 25
v -6 105 24
v -5 103 24
v -4 107 21
v -3 108 24
v -5 108 21
v -5 113 22
v -5 113 21
v -4 112 24
v -6 115 25
v -8 115 24
v -7 117 24
v -10 115 27
v -8 113 27
v -10 114 26
v -11 110 27
v -8 111 27
v -11 112 26
v -10 109 24
v -10 108 25
v -8 108 26
v -8 108 24
v -15 99 0
v -16 98 3
v -18 98 0
v -17 110 -3
v -19 113 0
v -21 110 -2
v -20 116 -7
v -23 120 -6
v -24 116 -7
v -23 118 -14
v -26 122 -14
v -27 117 -13
v -26 113 -20
v -29 116 -21
v -30 113 -19
v -26 106 -23
v -29 107 -25
v -30 105 -22
v -26 97 -22
v -29 97 -25
v -29 97 -22
v -25 92 -18
v -26 89 -19
v -29 92 -18
v -24 92 -12
v -26 89 -12
v -27 92 -12
v -23 97 -7
v -25 95 -5
v -26 97 -6
v -26 104 -7
v -26 106 -6
v -29 104 -6
v -29 107 -12
v -30 109 -11
v -31 107 -11
v -30 104 -15
v -32 104 -15
v -33 104 -14
v -30 99 -14
v -32 98 -15
v -33 98 -14
v -30 97 -12
v -31 95 -12
v -32 97 -11
v -31 98 -9
v 16 83 -9
v 15 83 -7
v 15 82 -9
v 13 89 -13
v 12 90 -11
v 12 87 -12
v 10 89 -18
v 8 91 -17
v 8 88 -17
v 9 86 -21
v 7 86 -21
v 8 86 -19
v 10 81 -23
v 8 80 -24
v 8 80 -21
v 12 77 -24
v 10 75 -24
v 11 77 -22
v 16 74 -23
v 15 71 -23
v 15 73 -21
v 19 74 -21
v 19 72 -20
v 19 74 -19
v 22 80 -19
v 22 79 -18
v 21 79 -18
v 21 83 -20
v 22 83 -18
v 19 83 -18
v 18 85 -22
v 17 86 -21
v 17 84 -21
v 16 83 -25
v 15 83 -25
v 15 83 -24
v 17 80 -27
v 15 80 -27
v 16 80 -25
v 19 78 -27
v 19 77 -27
v 18 77 -25
v 21 79 -25
v 22 77 -25
v 20 78 -25
v 22 82 -24
v -20 83 11
v -18 83 12
v -22 89 7
v -20 87 6
v -19 82 10
v -20 90 6
v -26 89 3
v -23 88 3
v -23 91 3
v -27 86 3
v -26 86 3
v -26 86 0
v -30 81 3
v -28 80 2
v -29 80 0
v -32 77 3
v -30 77 3
v -31 75 3
v -33 74 6
v -30 73 5
v -32 71 4
v -32 74 9
v -30 74 9
v -32 72 10
v -32 80 12
v -30 79 12
v -31 79 13
v -32 83 10
v -30 83 10
v -30 84 12
v -34 84 6
v -32 83 6
v -32 86 6
v -35 83 3
v -33 82 3
v -34 83 3
v -37 80 3
v -35 80 3
v -36 80 3
v -38 78 6
v -36 77 6
v -37 77 6
v -38 79 8
v -36 78 8
v -37 77 9
v -37 82 9
v 21 1 -21
v 21 1 21
v 64 1 -21
v 64 1 -64
v 21 1 -64
v -21 1 -21
v -21 1 21
v -21 1 64
v 21 1 64
v 64 1 21
v -21 1 -64
v -64 1 -64
v -64 1 -21
v -64 1 21
v -64 1 64
v 4 6 -47
v 10 0 -56
v -6 0 -45
v 7 0 -39
v 64 1 64
v -64 2 -47
v -45 2 -22
v -59 6 -46
v -42 6 -50
v -40 2 -57
v -25 6 -43
v -20 2 -39
v -45 6 -28
v 41 8 34
v 34 6 42
v 31 5 48
v 42 8 53
v 49 10 46
v 53 2 49
v 41 2 29
v 29 2 38
v 27 2 51
v 43 2 59
v -58 2 25
v -62 2 56
v -55 6 29
v -40 6 38
v -34 2 35
v -33 6 55
v -32 2 61
v -58 6 52
v 59 2 -28
v 62 2 -59
v 56 6 -32
v 41 6 -40
v 35 2 -37
v 33 6 -57
v 32 2 -63
v 58 6 -55
vn 0 -768 0
vn 0 -1024 0
vn 0 -1536 0
vn 0 -768 0
vn 0 -1536 0
vn 0 -768 0
vn 0 -768 0
vn 0 -512 0
vn 0 -256 0
vn 0 -1024 0
vn 0 -1024 0
vn 0 -1024 0
vn 0 -768 0
vn 0 -768 0
vn 0 -768 0
vn 0 -768 0
vn 0 -768 0
vn 0 -512 0
vn 0 -256 0
vn 0 -768 0
vn 0 -1280 0
vn 0 -768 0
vn 0 -1024 0
vn 0 -768 0
vn 0 -768 0
vn 0 -768 0
vn 0 -768 0
vn 0 -768 0
vn 0 -512 0
vn 0 -256 0
vn 0 -768 0
vn 0 -768 0
vn 0 -768 0
vn 0 -512 0
vn 0 -256 0
vn 0 -512 0
vn 0 -768 0
vn 0 -768 0
vn 0 -768 0
vn 0 -768 0
vn 0 -768 0
vn 0 -512 0
vn 0 -256 0
vn 0 -768 0
vn 0 -768 0
vn 0 -768 0
vn 0 -768 0
vn 0 -768 0
vn 0 -512 0
vn 0 -256 0
vn 114 28 -285
vn 17 259 8
vn -9 -187 0
vn -99 28 227
vn 0 0 0
vn -118 140 27
vn 95 -77 -2
vn -131 -32 -22
vn 88 19 -19
vn -86 -81 -9
vn 35 80 -5
vn 0 -108 0
vn 0 78 0
vn 73 -68 -1
vn -48 54 0
vn 99 9 -3
vn -68 -4 1
vn -25 87 506
vn 51 -93 -501
vn -38 38 251
vn 38 -38 -251
vn 0 0 0
vn 0 0 0
vn -265 71 133
vn -4 402 -15
vn 0 -254 -36
vn 206 71 -61
vn 0 0 0
vn 116 182 6
vn -59 -55 -87
vn 62 -41 57
vn -50 18 -36
vn 19 -103 29
vn -1 77 -21
vn 26 -83 18
vn -19 51 -10
vn -53 -68 -39
vn 27 65 26
vn -106 24 -66
vn 73 -13 48
vn 322 86 -380
vn -349 -91 362
vn 190 38 -166
vn -192 -41 166
vn 0 0 0
vn 0 0 0
vn 46 -407 12
vn -250 -72 -155
vn 202 -72 89
vn -11 248 28
vn 99 -222 60
vn -24 37 80
vn 0 0 0
vn 51 107 -68
vn -40 -41 42
vn 66 79 -52
vn -15 -84 35
vn 8 128 14
vn -38 -84 2
vn -46 92 45
vn 67 -32 -25
vn -77 -55 46
vn 49 12 -35
vn 289 -89 408
vn -322 90 -386
vn 175 -15 185
vn -184 26 -178
vn 0 0 0
vn 0 0 0
vn -114 28 285
vn -17 259 -8
vn 9 -187 0
vn 99 28 -227
vn 0 0 0
vn 118 140 -27
vn -95 -77 2
vn 131 -32 22
vn -88 19 19
vn 86 -81 9
vn -35 80 5
vn 0 -108 0
vn 0 78 0
vn -73 -68 1
vn 48 54 0
vn -99 9 3
vn 68 -4 -1
vn 25 87 -506
vn -51 -93 501
vn 38 38 -251
vn -38 -38 251
vn 0 0 0
vn 0 0 0
vn 2 -89 -253
vn 89 22 3
vn -69 -13 16
vn 2 92 243
vn 0 0 0
vn 65 -47 25
vn -8 25 -25
vn -89 21 -16
vn 109 -21 2
vn -81 11 -3
vn 96 -67 -14
vn 25 24 -18
vn 30 -44 1
vn 69 -60 6
vn -25 74 -18
vn 121 29 -8
vn -78 -27 5
vn -15 73 504
vn 49 -82 -507
vn 117 -277 300
vn 35 -28 -252
vn -42 145 48
vn 192 -89 -204
vn 150 106 252
vn -114 28 285
vn -17 259 -8
vn 9 -187 0
vn 99 28 -227
vn 0 0 0
vn 118 140 -27
vn -95 -77 2
vn 131 -32 22
vn -88 19 19
vn 86 -81 9
vn -35 80 5
vn 0 -108 0
vn 0 78 0
vn -73 -68 1
vn 48 54 0
vn -99 9 3
vn 68 -4 -1
vn 25 87 -506
vn -51 -93 501
vn 38 38 -251
vn -38 -38 251
vn 0 0 0
vn 0 0 0
vn 250 72 -155
vn 61 320 -7
vn -31 -174 32
vn -202 72 89
vn 0 0 0
vn -92 169 -33
vn 84 -88 33
vn -120 -49 -95
vn 93 20 78
vn -34 -74 -28
vn -14 92 18
vn -13 -107 14
vn 46 69 11
vn 42 -93 42
vn -62 31 -24
vn 64 42 37
vn -42 -7 -28
vn -296 94 403
vn 319 -99 -383
vn -178 40 182
vn 176 -42 -180
vn 0 0 0
vn 0 0 0
vn -17 -325 -19
vn 251 -71 139
vn -209 -71 -96
vn -3 169 -7
vn -130 -180 36
vn 73 77 -75
vn 0 0 0
vn -120 49 95
vn 93 -20 -78
vn -29 71 23
vn -25 -95 -15
vn -10 83 -10
vn 38 -53 -11
vn 43 86 -41
vn -56 -33 28
vn 58 -20 -38
vn -39 7 29
vn -322 -84 -383
vn 345 90 364
vn -185 -55 -168
vn 181 48 173
vn -192 -89 204
vn 0 0 0
vn 114 28 -285
vn 17 259 8
vn -9 -187 0
vn -99 28 227
vn 0 0 0
vn -118 140 27
vn 95 -77 -2
vn -131 -32 -22
vn 88 19 -19
vn -86 -81 -9
vn 35 80 -5
vn 0 -108 0
vn 0 78 0
vn 73 -68 -1
vn -48 54 0
vn 99 9 -3
vn -68 -4 1
vn -25 87 506
vn 51 -93 -501
vn -38 38 251
vn 38 -38 -251
vn 0 0 0
vn 0 0 0
vn -2 -89 253
vn -89 22 -3
vn 69 -13 -16
vn -2 92 -243
vn 0 0 0
vn -65 -47 -25
vn 8 25 25
vn 89 21 16
vn -109 -21 -2
vn 81 11 3
vn -96 -67 14
vn -25 24 18
vn -30 -44 -1
vn -69 -60 -6
vn 25 74 18
vn -121 29 8
vn 78 -27 -5
vn 15 73 -504
vn -49 -82 507
vn -117 -277 -300
vn -35 -28 252
vn 42 145 -48
vn -150 106 -252
vn -628 68 -636
vn 707 -196 -107
vn 735 -264 -532
vn -672 100 -217
vn -430 246 893
vn -591 56 750
vn -424 111 -657
vn 504 1 65
vn -112 136 797
vn 296 98 804
vn 535 -13 -388
vn -795 -110 -436
vn 661 74 37
vn -372 -283 573
vn -395 191 -767
vn -226 414 -879
vn 736 249 360
vn -409 -437 321
vn -319 -364 -139
vn -31 524 -710
vn 585 317 842
vn 440 -1212 -242
vn -125 1590 -663
vn 544 734 -200
vn -277 -699 154
vn 242 742 621
vn 466 -512 -571
vn -313 1176 281
vn 445 351 397
vn 6 -635 -273
vn -822 670 417
vn 182 -438 113
vn -582 379 47
vn 205 -872 546
vn 259 315 -706
vn -499 400 100
vn 448 261 -496
vn -449 -550 -7
vn 122 260 720
vn 86 494 552
vn 285 286 -525
vn -636 -295 -73
vn 359 16 716
vn 456 317 -611
vn 405 50 -712
vn -477 -232 -61
vn -683 -251 40
vn 340 136 -554
vn 456 63 820
vn 19 168 1113
vn 742 151 -425
vn -799 -348 -255
vn -792 60 -131
vn 495 52 -261
vn 431 -288 759
vn -780 105 397
vn 333 177 -533
vn 492 -443 383
vn 179 -82 466
vn -1039 -330 309
vn -1132 -161 329
vn 390 -22 294
vn 37 64 -436
vn 215 44 -436
vn 503 134 837
vn -699 -233 326
vn 79 81 -455
vn -204 100 -758
vn -432 41 504
vn 546 -176 483
vn 679 220 -639
vn 118 -183 634
vn 745 -475 606
vn 67 170 -613
vn -484 168 172
vn -600 -41 -37
vn 361 -330 687
vn 452 -105 -738
vn -481 216 187
vn 896 -318 730
vn 61 34 -460
vn -769 210 -96
vn -594 -125 317
vn 349 45 577
vn 319 -28 -806
vn 88 -68 -858
vn -472 -322 184
vn 354 177 313
vn 133 445 183
vn 112 255 -1043
vn -93 -209 137
vn 27 -243 618
vn -412 246 435
vn -107 113 -807
vn 630 51 18
vn -441 4 505
vn -483 70 -813
vn 35 -447 -856
vn 471 482 90
vn -565 -240 505
vn -288 -530 763
vn 452 -176 -441
vn -442 593 212
vn -909 176 62
vn 300 -148 903
vn 192 108 -205
vn 138 270 -297
vn -486 -248 59
vn 212 438 990
vn -120 455 780
vn 100 184 -462
vn -113 -425 256
vn 281 -409 423
vn -243 247 452
vn 215 -10 -967
vn 900 158 -116
vn -230 73 -10
vn -406 -107 -618
vn 42 -299 -682
vn 429 338 -101
vn -320 -256 64
vn -64 -64 -64
vn -338 -312 781
vn -660 206 -597
vn -768 -206 -297
vn 212 -207 797
vn 460 100 -139
vn 363 -16 -130
vn -16 -196 739
vn -395 130 -168
vn 617 318 -296
vn 222 2 -597
vn -541 -87 36
vn 240 83 1151
vn 407 -266 630
vn -745 146 60
vn -968 -316 345
vn 635 -253 398
vn 422 155 -666
vn 475 -133 -697
vn 439 -76 820
vn -714 166 6
vn 278 457 -531
vn -404 432 -622
vn -707 -250 418
vn 689 -272 270
vn -568 148 -134
vn 656 -193 -514
vn 270 92 769
vn 418 19 528
vn -365 202 -159
vn 353 -510 -498
vn -823 334 -74
vn -754 -170 56
vn 398 -223 -515
vn 392 210 356
vn -12 268 264
vn -653 -142 75
vn -554 458 -104
vn 447 -314 -193
vn 23 -142 639
vn -376 497 1027
vn -127 174 -305
vn -428 -120 -757
vn -476 -203 700
vn 500 148 -217
vn -977 -293 -771
vn 120 -247 479
vn 474 500 30
vn -493 200 -569
vn 141 -645 129
vn 527 680 598
vn -616 390 -160
vn 84 -505 -640
vn 759 75 625
vn -576 147 193
vn 432 -61 -925
vn 486 -43 536
vn -478 -180 199
vn 105 376 -558
vn 932 -378 439
vn -534 -610 75
vn -351 633 67
vn 767 -241 48
vn -483 -583 -209
vn -298 223 511
vn 428 151 -62
vn -325 -147 -443
vn -270 -44 591
vn 527 605 -536
vn -984 -212 -586
vn 208 -362 216
vn 349 558 113
vn -868 353 -54
vn -62 -380 -336
vn 913 333 699
vn -597 326 314
vn 284 232 -508
vn 491 -107 768
vn -256 -128 256
vn -214 710 -327
vn 618 -22 298
vn -86 170 170
vn -217 -5 737
vn 346 -96 -200
vn 679 148 203
vn -730 -17 522
vn -959 24 -694
vn -823 265 -142
vn -86 -320 742
vn 672 52 -494
vn -546 -332 -966
vn 111 267 671
vn 366 -169 -382
vn -853 325 342
vn -32 -254 200
vn -147 -489 -161
vn 354 46 -258
vn -629 157 878
vn -798 -67 -591
vn 318 219 28
vn -139 -212 639
vn -235 -457 262
vn -638 563 -306
vn 641 7 -8
vn 949 -305 -323
vn -723 -224 46
vn 52 681 274
vn 402 243 563
vn 243 -195 -280
vn -886 84 268
vn -897 652 -10
vn 144 -17 392
vn 60 -117 -241
vn 256 184 -496
vn -554 740 521
vn 13 -747 260
vn -254 -445 -508
vn 278 325 -191
vn -678 -111 820
vn -882 134 -693
vn 250 203 68
vn -65 -228 505
vn -283 -125 423
vn -394 733 -184
vn 307 -142 127
vn 43 170 170
vn 602 -207 455
vn 86 74 -765
vn -726 174 365
vn 369 82 580
vn 302 -450 -735
vn -708 376 160
vn 790 -21 489
vn -252 -413 -371
vn -594 588 -98
vn 652 327 382
vn -147 -653 44
vn -532 521 -496
vn 642 257 60
vn -268 -459 649
vn -558 220 -618
vn 483 101 -306
vn -118 -142 944
vn -595 32 -499
vn 777 -59 -27
vn -339 214 463
vn -748 -295 -564
vn 692 -569 -263
vn 50 605 332
vn -610 -81 -154
vn 638 -27 45
vn -37 590 -247
vn -697 -550 184
vn 443 -340 473
vn 82 389 -756
vn -933 120 417
vn 441 9 960
vn 285 -466 -486
vn -564 414 34
vn 278 198 515
vn -57 -726 309
vn -462 249 -596
vn 358 206 106
vn -457 -501 1183
vn -456 -145 -368
vn 564 62 -149
vn -220 543 951
vn -476 -192 -73
vn 396 -467 -144
vn 219 631 73
vn -488 10 -32
vn 15 6 -160
vn 973 -315 409
vn -306 15 -413
vn -589 460 496
vn 798 -177 671
vn -112 -413 -499
vn -401 708 129
vn 604 23 569
vn -378 -526 80
vn -202 596 -453
vn 641 13 76
vn -622 -439 639
vn -37 269 -648
vn 715 -285 487
vn -481 149 293
vn -116 130 -580
vn 545 -405 407
vn -398 275 254
vn -56 -176 -666
vn 573 -462 354
vn -81 537 173
vn -337 -248 -769
vn 243 -372 336
vn 569 504 -116
vn -540 -93 -485
vn -100 -142 322
vn 973 94 -555
vn -364 279 -181
vn 461 -95 646
vn 426 -391 -235
vn -397 338 -459
vn 380 -61 615
vn -318 -993 -175
vn -120 651 -215
vn 681 -134 274
vn -695 -657 499
vn -488 171 -389
vn 426 -316 518
vn -372 -39 546
vn -37 210 -641
vn 556 -602 444
vn -176 810 584
vn -45 55 -407
vn -2 -483 433
vn 315 119 316
vn -127 383 -473
vn -51 -128 256
vn -808 80 -319
vn 425 -201 -247
vn -601 55 -542
vn 83 450 569
vn 134 233 723
vn 505 -547 -77
vn -265 -164 -576
vn 310 658 -35
vn 265 -325 735
vn -324 -193 -355
vn 619 446 -650
vn -49 -48 434
vn -422 -287 -465
vn 907 420 -661
vn 95 167 638
vn -441 -218 -216
vn 724 170 -556
vn 75 496 646
vn -465 -453 103
vn 711 -83 -278
vn -186 471 369
vn -683 -385 392
vn 613 -278 -89
vn -182 498 -405
vn -551 13 256
vn 623 -35 331
vn 40 2 -1115
vn -606 287 -329
vn 692 413 615
vn 131 -473 -536
vn -900 204 -459
vn 421 539 290
vn 360 -656 401
vn -301 -165 -173
vn -26 246 166
vn 422 -384 1241
vn 96 -128 74
vn 0 192 -64
vn -153 601 1334
vn 29 -125 385
vn 480 -22 -117
vn -579 1091 503
vn -444 -31 117
vn 730 -415 245
vn 0 554 -449
vn 36 -73 -108
vn 0 -1536 0
vn 0 -1536 0
vn 0 -768 0
vn 0 -512 0
vn 0 -768 0
vn 0 -1792 0
vn 0 -1280 0
vn 0 -1024 0
vn 0 -768 0
vn 0 -768 0
vn 0 -512 0
vn 0 -512 0
vn 0 -512 0
vn 0 -1024 0
vn 0 -256 0
vn 9 -474 -26
vn 85 -293 139
vn -196 -323 10
vn 129 -332 -201
vn 0 -256 0
vn -263 -494 238
vn -214 -538 -366
vn -355 -969 -13
vn -60 -810 471
vn 161 -458 440
vn 300 -975 193
vn 343 -438 -55
vn 25 -844 -359
vn 28 -1012 382
vn -469 -800 268
vn -534 -1136 -45
vn -219 -1053 -428
vn 397 -603 -167
vn 560 -283 113
vn -68 -430 368
vn -392 -627 171
vn -355 -581 -241
vn 170 -471 -487
vn -13 -479 369
vn -412 -529 -117
vn -266 -957 248
vn 300 -786 395
vn 434 -455 215
vn 357 -977 -74
vn 209 -438 -290
vn -237 -827 -284
vn 32 -485 -371
vn 406 -529 134
vn 277 -971 -236
vn -282 -796 -409
vn -431 -438 -236
vn -364 -963 58
vn -223 -422 282
vn 222 -832 295
usemtl m0
f 1 2 3

usemtl m1
f 1 3 4

usemtl m2
f 4 3 5

usemtl m3
f 4 5 6

usemtl m4
f 6 5 7

usemtl m5
f 6 7 8

usemtl m6
f 8 7 9

usemtl m7
f 2 1 10

usemtl m8
f 2 10 11

usemtl m9
f 11 10 12

usemtl m10
f 11 12 13

usemtl m11
f 11 13 14

usemtl m12
f 14 13 15

usemtl m13
f 14 15 16

usemtl m14
f 16 15 17

usemtl m15
f 16 17 18

usemtl m16
f 18 17 19

usemtl m17
f 3 2 20

usemtl m18
f 3 20 21

usemtl m19
f 21 20 22

usemtl m20
f 21 22 23

usemtl m21
f 21 23 24

usemtl m22
f 21 24 25

usemtl m23
f 25 24 26

usemtl m24
f 25 26 27

usemtl m25
f 27 26 28

usemtl m26
f 27 28 29

usemtl m27
f 29 28 30

usemtl m28
f 23 22 31

usemtl m29
f 23 31 32

usemtl m30
f 32 31 33

usemtl m31
f 32 33 34

usemtl m32
f 34 33 35

usemtl m33
f 5 3 36

usemtl m34
f 5 36 37

usemtl m35
f 5 37 38

usemtl m36
f 38 37 39

usemtl m37
f 38 39 40

usemtl m38
f 40 39 41

usemtl m39
f 40 41 42

usemtl m40
f 42 41 43

usemtl m41
f 12 10 44

usemtl m42
f 12 44 45

usemtl m43
f 45 44 46

usemtl m44
f 45 46 47

usemtl m45
f 47 46 48

usemtl m46
f 47 48 49

usemtl m47
f 49 48 50

usemtl m48
f 51 52 53

usemtl m49
f 51 53 54

usemtl m50
f 51 54 55

usemtl m51
f 51 55 54

usemtl m52
f 51 54 52

usemtl m53
f 52 54 53

usemtl m54
f 52 53 56

usemtl m55
f 52 56 57

usemtl m56
f 52 57 53

usemtl m57
f 53 57 56

usemtl m58
f 56 57 58

usemtl m59
f 56 58 59

usemtl m60
f 56 59 57

usemtl m61
f 57 59 58

usemtl m62
f 58 59 60

usemtl m63
f 58 60 61

usemtl m64
f 58 61 59

usemtl m65
f 59 61 60

usemtl m66
f 60 61 62

usemtl m67
f 60 62 63

usemtl m68
f 60 63 61

usemtl m69
f 61 63 62

usemtl m70
f 62 63 64

usemtl m71
f 62 64 65

usemtl m72
f 62 65 63

usemtl m73
f 63 65 64

usemtl m74
f 64 65 66

usemtl m75
f 64 66 67

usemtl m76
f 64 67 65

usemtl m77
f 65 67 66

usemtl m78
f 66 67 68

usemtl m79
f 66 68 69

usemtl m80
f 66 69 67

usemtl m81
f 67 69 68

usemtl m82
f 68 69 70

usemtl m83
f 68 70 71

usemtl m84
f 68 71 69

usemtl m85
f 69 71 70

usemtl m86
f 70 71 72

usemtl m87
f 70 72 73

usemtl m88
f 70 73 72

usemtl m89
f 70 72 71

usemtl m90
f 74 75 76

usemtl m91
f 74 76 77

usemtl m92
f 74 77 78

usemtl m93
f 74 78 77

usemtl m94
f 74 77 75

usemtl m95
f 75 77 76

usemtl m96
f 75 76 79

usemtl m97
f 75 79 80

usemtl m98
f 75 80 76

usemtl m99
f 76 80 79

usemtl m100
f 79 80 81

usemtl m101
f 79 81 82

usemtl m102
f 79 82 80

usemtl m103
f 80 82 81

usemtl m104
f 81 82 83

usemtl m105
f 81 83 84

usemtl m106
f 81 84 82

usemtl m107
f 82 84 83

usemtl m108
f 83 84 85

usemtl m109
f 83 85 86

usemtl m110
f 83 86 84

usemtl m111
f 84 86 85

usemtl m112
f 85 86 87

usemtl m113
f 85 87 88

usemtl m114
f 85 88 86

usemtl m115
f 86 88 87

usemtl m116
f 87 88 89

usemtl m117
f 87 89 90

usemtl m118
f 87 90 88

usemtl m119
f 88 90 89

usemtl m120
f 89 90 91

usemtl m121
f 89 91 92

usemtl m122
f 89 92 90

usemtl m123
f 90 92 91

usemtl m124
f 91 92 93

usemtl m125
f 91 93 94

usemtl m126
f 91 94 92

usemtl m127
f 92 94 93

usemtl m128
f 93 94 95

usemtl m129
f 93 95 96

usemtl m130
f 93 96 95

usemtl m131
f 93 95 94

usemtl m132
f 97 98 99

usemtl m133
f 97 99 100

usemtl m134
f 97 100 101

usemtl m135
f 97 101 102

usemtl m136
f 97 102 100

usemtl m137
f 97 100 98

usemtl m138
f 98 100 99

usemtl m139
f 98 99 103

usemtl m140
f 98 103 99

usemtl m141
f 101 100 102

usemtl m142
f 101 102 104

usemtl m143
f 101 104 105

usemtl m144
f 101 105 102

usemtl m145
f 102 105 104

usemtl m146
f 104 105 106

usemtl m147
f 104 106 107

usemtl m148
f 104 107 105

usemtl m149
f 105 107 106

usemtl m150
f 106 107 108

usemtl m151
f 106 108 109

usemtl m152
f 106 109 107

usemtl m153
f 107 109 108

usemtl m154
f 108 109 110

usemtl m155
f 108 110 111

usemtl m156
f 108 111 109

usemtl m157
f 109 111 110

usemtl m158
f 110 111 112

usemtl m159
f 110 112 113

usemtl m160
f 110 113 111

usemtl m161
f 111 113 112

usemtl m162
f 112 113 114

usemtl m163
f 112 114 115

usemtl m164
f 112 115 113

usemtl m165
f 113 115 114

usemtl m166
f 114 115 116

usemtl m167
f 114 116 117

usemtl m168
f 114 117 115

usemtl m169
f 115 117 116

usemtl m170
f 116 117 118

usemtl m171
f 116 118 117

usemtl m172
f 118 116 119

usemtl m173
f 118 119 116

usemtl m174
f 120 121 122

usemtl m175
f 120 122 123

usemtl m176
f 120 123 124

usemtl m177
f 120 124 123

usemtl m178
f 120 123 121

usemtl m179
f 121 123 122

usemtl m180
f 121 122 125

usemtl m181
f 121 125 126

usemtl m182
f 121 126 122

usemtl m183
f 122 126 125

usemtl m184
f 125 126 127

usemtl m185
f 125 127 128

usemtl m186
f 125 128 126

usemtl m187
f 126 128 127

usemtl m188
f 127 128 129

usemtl m189
f 127 129 130

usemtl m190
f 127 130 128

usemtl m191
f 128 130 129

usemtl m192
f 129 130 131

usemtl m193
f 129 131 132

usemtl m194
f 129 132 130

usemtl m195
f 130 132 131

usemtl m196
f 131 132 133

usemtl m197
f 131 133 134

usemtl m198
f 131 134 132

usemtl m199
f 132 134 133

usemtl m200
f 133 134 135

usemtl m201
f 133 135 136

usemtl m202
f 133 136 134

usemtl m203
f 134 136 135

usemtl m204
f 135 136 137

usemtl m205
f 135 137 138

usemtl m206
f 135 138 136

usemtl m207
f 136 138 137

usemtl m208
f 137 138 139

usemtl m209
f 137 139 140

usemtl m210
f 137 140 138

usemtl m211
f 138 140 139

usemtl m212
f 139 140 141

usemtl m213
f 139 141 142

usemtl m214
f 139 142 141

usemtl m215
f 139 141 140

usemtl m216
f 143 144 145

usemtl m217
f 143 145 146

usemtl m218
f 143 146 147

usemtl m219
f 143 147 146

usemtl m220
f 143 146 144

usemtl m221
f 144 146 145

usemtl m222
f 144 145 148

usemtl m223
f 144 148 149

usemtl m224
f 144 149 145

usemtl m225
f 145 149 148

usemtl m226
f 148 149 150

usemtl m227
f 148 150 151

usemtl m228
f 148 151 149

usemtl m229
f 149 151 150

usemtl m230
f 150 151 152

usemtl m231
f 150 152 153

usemtl m232
f 150 153 151

usemtl m233
f 151 153 152

usemtl m234
f 152 153 154

usemtl m235
f 152 154 155

usemtl m236
f 152 155 153

usemtl m237
f 153 155 154

usemtl m238
f 154 155 156

usemtl m239
f 154 156 157

usemtl m240
f 154 157 155

usemtl m241
f 155 157 156

usemtl m242
f 156 157 158

usemtl m243
f 156 158 159

usemtl m244
f 156 159 157

usemtl m245
f 157 159 158

usemtl m246
f 158 159 160

usemtl m247
f 158 160 161

usemtl m248
f 158 161 159

usemtl m249
f 159 161 160

usemtl m250
f 160 161 162

usemtl m251
f 160 162 163

usemtl m252
f 160 163 161

usemtl m253
f 161 163 162

usemtl m254
f 162 163 164

usemtl m255
f 162 164 165

usemtl m256
f 162 165 166

usemtl m257
f 162 166 164

usemtl m258
f 162 164 163

usemtl m259
f 166 165 164

usemtl m260
f 167 168 169

usemtl m261
f 167 169 170

usemtl m262
f 167 170 171

usemtl m263
f 167 171 170

usemtl m264
f 167 170 168

usemtl m265
f 168 170 169

usemtl m266
f 168 169 172

usemtl m267
f 168 172 173

usemtl m268
f 168 173 169

usemtl m269
f 169 173 172

usemtl m270
f 172 173 174

usemtl m271
f 172 174 175

usemtl m272
f 172 175 173

usemtl m273
f 173 175 174

usemtl m274
f 174 175 176

usemtl m275
f 174 176 177

usemtl m276
f 174 177 175

usemtl m277
f 175 177 176

usemtl m278
f 176 177 178

usemtl m279
f 176 178 179

usemtl m280
f 176 179 177

usemtl m281
f 177 179 178

usemtl m282
f 178 179 180

usemtl m283
f 178 180 181

usemtl m284
f 178 181 179

usemtl m285
f 179 181 180

usemtl m286
f 180 181 182

usemtl m287
f 180 182 183

usemtl m288
f 180 183 181

usemtl m289
f 181 183 182

usemtl m290
f 182 183 184

usemtl m291
f 182 184 185

usemtl m292
f 182 185 183

usemtl m293
f 183 185 184

usemtl m294
f 184 185 186

usemtl m295
f 184 186 187

usemtl m296
f 184 187 185

usemtl m297
f 185 187 186

usemtl m298
f 186 187 188

usemtl m299
f 186 188 189

usemtl m300
f 186 189 188

usemtl m301
f 186 188 187

usemtl m302
f 190 191 192

usemtl m303
f 190 192 193

usemtl m304
f 190 193 194

usemtl m305
f 190 194 193

usemtl m306
f 190 193 191

usemtl m307
f 191 193 192

usemtl m308
f 191 192 195

usemtl m309
f 191 195 196

usemtl m310
f 191 196 192

usemtl m311
f 192 196 195

usemtl m312
f 195 196 197

usemtl m313
f 195 197 198

usemtl m314
f 195 198 196

usemtl m315
f 196 198 197

usemtl m316
f 197 198 199

usemtl m317
f 197 199 200

usemtl m318
f 197 200 198

usemtl m319
f 198 200 199

usemtl m320
f 199 200 201

usemtl m321
f 199 201 202

usemtl m322
f 199 202 200

usemtl m323
f 200 202 201

usemtl m324
f 201 202 203

usemtl m325
f 201 203 204

usemtl m326
f 201 204 202

usemtl m327
f 202 204 203

usemtl m328
f 203 204 205

usemtl m329
f 203 205 206

usemtl m330
f 203 206 204

usemtl m331
f 204 206 205

usemtl m332
f 205 206 207

usemtl m333
f 205 207 208

usemtl m334
f 205 208 206

usemtl m335
f 206 208 207

usemtl m336
f 207 208 209

usemtl m337
f 207 209 210

usemtl m338
f 207 210 208

usemtl m339
f 208 210 209

usemtl m340
f 209 210 211

usemtl m341
f 209 211 212

usemtl m342
f 209 212 211

usemtl m343
f 209 211 210

usemtl m344
f 213 214 215

usemtl m345
f 213 215 216

usemtl m346
f 213 216 217

usemtl m347
f 213 217 218

usemtl m348
f 213 218 216

usemtl m349
f 213 216 214

usemtl m350
f 214 216 215

usemtl m351
f 214 215 219

usemtl m352
f 214 219 215

usemtl m353
f 217 216 218

usemtl m354
f 217 218 220

usemtl m355
f 217 220 221

usemtl m356
f 217 221 218

usemtl m357
f 218 221 220

usemtl m358
f 220 221 222

usemtl m359
f 220 222 223

usemtl m360
f 220 223 221

usemtl m361
f 221 223 222

usemtl m362
f 222 223 224

usemtl m363
f 222 224 225

usemtl m364
f 222 225 223

usemtl m365
f 223 225 224

usemtl m366
f 224 225 226

usemtl m367
f 224 226 227

usemtl m368
f 224 227 225

usemtl m369
f 225 227 226

usemtl m370
f 226 227 228

usemtl m371
f 226 228 229

usemtl m372
f 226 229 227

usemtl m373
f 227 229 228

usemtl m374
f 228 229 230

usemtl m375
f 228 230 231

usemtl m376
f 228 231 229

usemtl m377
f 229 231 230

usemtl m378
f 230 231 232

usemtl m379
f 230 232 233

usemtl m380
f 230 233 231

usemtl m381
f 231 233 232

usemtl m382
f 232 233 234

usemtl m383
f 232 234 233

usemtl m384
f 234 232 235

usemtl m385
f 234 235 232

usemtl m386
f 236 237 238

usemtl m387
f 236 238 239

usemtl m388
f 236 239 240

usemtl m389
f 236 240 239

usemtl m390
f 236 239 237

usemtl m391
f 237 239 238

usemtl m392
f 237 238 241

usemtl m393
f 237 241 242

usemtl m394
f 237 242 238

usemtl m395
f 238 242 241

usemtl m396
f 241 242 243

usemtl m397
f 241 243 244

usemtl m398
f 241 244 242

usemtl m399
f 242 244 243

usemtl m400
f 243 244 245

usemtl m401
f 243 245 246

usemtl m402
f 243 246 244

usemtl m403
f 244 246 245

usemtl m404
f 245 246 247

usemtl m405
f 245 247 248

usemtl m406
f 245 248 246

usemtl m407
f 246 248 247

usemtl m408
f 247 248 249

usemtl m409
f 247 249 250

usemtl m410
f 247 250 248

usemtl m411
f 248 250 249

usemtl m412
f 249 250 251

usemtl m413
f 249 251 252

usemtl m414
f 249 252 250

usemtl m415
f 250 252 251

usemtl m416
f 251 252 253

usemtl m417
f 251 253 254

usemtl m418
f 251 254 252

usemtl m419
f 252 254 253

usemtl m420
f 253 254 255

usemtl m421
f 253 255 256

usemtl m422
f 253 256 254

usemtl m423
f 254 256 255

usemtl m424
f 255 256 257

usemtl m425
f 255 257 258

usemtl m426
f 255 258 257

usemtl m427
f 255 257 256

usemtl m428
f 259 260 261

usemtl m429
f 259 261 262

usemtl m430
f 259 262 263

usemtl m431
f 259 263 262

usemtl m432
f 259 262 260

usemtl m433
f 260 262 261

usemtl m434
f 260 261 264

usemtl m435
f 260 264 265

usemtl m436
f 260 265 261

usemtl m437
f 261 265 264

usemtl m438
f 264 265 266

usemtl m439
f 264 266 267

usemtl m440
f 264 267 265

usemtl m441
f 265 267 266

usemtl m442
f 266 267 268

usemtl m443
f 266 268 269

usemtl m444
f 266 269 267

usemtl m445
f 267 269 268

usemtl m446
f 268 269 270

usemtl m447
f 268 270 271

usemtl m448
f 268 271 269

usemtl m449
f 269 271 270

usemtl m450
f 270 271 272

usemtl m451
f 270 272 273

usemtl m452
f 270 273 271

usemtl m453
f 271 273 272

usemtl m454
f 272 273 274

usemtl m455
f 272 274 275

usemtl m456
f 272 275 273

usemtl m457
f 273 275 274

usemtl m458
f 274 275 276

usemtl m459
f 274 276 277

usemtl m460
f 274 277 275

usemtl m461
f 275 277 276

usemtl m462
f 276 277 278

usemtl m463
f 276 278 279

usemtl m464
f 276 279 277

usemtl m465
f 277 279 278

usemtl m466
f 278 279 280

usemtl m467
f 278 280 234

usemtl m468
f 278 234 281

usemtl m469
f 278 281 280

usemtl m470
f 278 280 279

usemtl m471
f 281 234 280

usemtl m472
f 282 283 284

usemtl m473
f 282 284 285

usemtl m474
f 282 285 286

usemtl m475
f 282 286 287

usemtl m476
f 282 287 288

usemtl m477
f 282 288 283

usemtl m478
f 283 288 289

usemtl m479
f 283 289 286

usemtl m480
f 283 286 290

usemtl m481
f 283 290 284

usemtl m482
f 284 290 291

usemtl m483
f 284 291 292

usemtl m484
f 284 292 293

usemtl m485
f 284 293 285

usemtl m486
f 285 293 290

usemtl m487
f 285 290 286

usemtl m488
f 289 287 286

usemtl m489
f 287 289 294

usemtl m490
f 287 294 295

usemtl m491
f 287 295 288

usemtl m492
f 288 295 296

usemtl m493
f 288 296 289

usemtl m494
f 289 296 294

usemtl m495
f 294 296 297

usemtl m496
f 294 297 298

usemtl m497
f 294 298 295

usemtl m498
f 295 298 299

usemtl m499
f 295 299 296

usemtl m500
f 296 299 297

usemtl m501
f 297 299 300

usemtl m502
f 297 300 301

usemtl m503
f 297 301 298

usemtl m504
f 298 301 302

usemtl m505
f 298 302 299

usemtl m506
f 299 302 300

usemtl m507
f 300 302 303

usemtl m508
f 300 303 301

usemtl m509
f 301 303 304

usemtl m510
f 301 304 302

usemtl m511
f 302 304 305

usemtl m512
f 302 305 303

usemtl m513
f 303 305 306

usemtl m514
f 303 306 307

usemtl m515
f 303 307 308

usemtl m516
f 303 308 309

usemtl m517
f 303 309 310

usemtl m518
f 303 310 311

usemtl m519
f 303 311 312

usemtl m520
f 303 312 313

usemtl m521
f 303 313 314

usemtl m522
f 303 314 315

usemtl m523
f 303 315 316

usemtl m524
f 303 316 304

usemtl m525
f 304 316 317

usemtl m526
f 304 317 314

usemtl m527
f 304 314 312

usemtl m528
f 304 312 309

usemtl m529
f 304 309 305

usemtl m530
f 305 309 307

usemtl m531
f 305 307 318

usemtl m532
f 305 318 306

usemtl m533
f 306 318 319

usemtl m534
f 306 319 320

usemtl m535
f 306 320 321

usemtl m536
f 306 321 307

usemtl m537
f 307 321 318

usemtl m538
f 318 321 322

usemtl m539
f 318 322 319

usemtl m540
f 319 322 323

usemtl m541
f 319 323 324

usemtl m542
f 319 324 320

usemtl m543
f 320 324 325

usemtl m544
f 320 325 322

usemtl m545
f 320 322 321

usemtl m546
f 326 327 328

usemtl m547
f 326 328 329

usemtl m548
f 326 329 330

usemtl m549
f 326 330 331

usemtl m550
f 326 331 332

usemtl m551
f 326 332 333

usemtl m552
f 326 333 327

usemtl m553
f 327 333 331

usemtl m554
f 327 331 328

usemtl m555
f 328 331 330

usemtl m556
f 328 330 334

usemtl m557
f 328 334 329

usemtl m558
f 329 334 335

usemtl m559
f 329 335 336

usemtl m560
f 329 336 330

usemtl m561
f 330 336 334

usemtl m562
f 334 336 337

usemtl m563
f 334 337 338

usemtl m564
f 334 338 335

usemtl m565
f 335 338 339

usemtl m566
f 335 339 336

usemtl m567
f 336 339 337

usemtl m568
f 337 339 315

usemtl m569
f 337 315 317

usemtl m570
f 337 317 316

usemtl m571
f 337 316 338

usemtl m572
f 338 316 315

usemtl m573
f 338 315 339

usemtl m574
f 340 341 342

usemtl m575
f 340 342 343

usemtl m576
f 340 343 344

usemtl m577
f 340 344 345

usemtl m578
f 340 345 346

usemtl m579
f 340 346 341

usemtl m580
f 341 346 347

usemtl m581
f 341 347 344

usemtl m582
f 341 344 348

usemtl m583
f 341 348 342

usemtl m584
f 342 348 349

usemtl m585
f 342 349 350

usemtl m586
f 342 350 351

usemtl m587
f 342 351 343

usemtl m588
f 343 351 348

usemtl m589
f 343 348 344

usemtl m590
f 352 353 354

usemtl m591
f 352 354 355

usemtl m592
f 352 355 356

usemtl m593
f 352 356 357

usemtl m594
f 352 357 325

usemtl m595
f 352 325 324

usemtl m596
f 352 324 353

usemtl m597
f 353 324 323

usemtl m598
f 353 323 357

usemtl m599
f 353 357 354

usemtl m600
f 354 357 356

usemtl m601
f 354 356 358

usemtl m602
f 354 358 359

usemtl m603
f 354 359 355

usemtl m604
f 355 359 360

usemtl m605
f 355 360 356

usemtl m606
f 356 360 358

usemtl m607
f 358 360 361

usemtl m608
f 358 361 359

usemtl m609
f 359 361 362

usemtl m610
f 359 362 363

usemtl m611
f 359 363 360

usemtl m612
f 360 363 361

usemtl m613
f 361 363 364

usemtl m614
f 361 364 365

usemtl m615
f 361 365 366

usemtl m616
f 361 366 362

usemtl m617
f 362 366 363

usemtl m618
f 363 366 364

usemtl m619
f 364 366 367

usemtl m620
f 364 367 368

usemtl m621
f 364 368 365

usemtl m622
f 365 368 369

usemtl m623
f 365 369 366

usemtl m624
f 366 369 367

usemtl m625
f 367 369 370

usemtl m626
f 367 370 371

usemtl m627
f 367 371 368

usemtl m628
f 368 371 372

usemtl m629
f 368 372 369

usemtl m630
f 369 372 370

usemtl m631
f 370 372 373

usemtl m632
f 370 373 374

usemtl m633
f 370 374 371

usemtl m634
f 371 374 375

usemtl m635
f 371 375 372

usemtl m636
f 372 375 373

usemtl m637
f 373 375 376

usemtl m638
f 373 376 374

usemtl m639
f 374 376 377

usemtl m640
f 374 377 375

usemtl m641
f 375 377 378

usemtl m642
f 375 378 376

usemtl m643
f 376 378 379

usemtl m644
f 376 379 380

usemtl m645
f 376 380 377

usemtl m646
f 377 380 381

usemtl m647
f 377 381 378

usemtl m648
f 378 381 379

usemtl m649
f 379 381 382

usemtl m650
f 379 382 383

usemtl m651
f 379 383 380

usemtl m652
f 380 383 384

usemtl m653
f 380 384 381

usemtl m654
f 381 384 382

usemtl m655
f 382 384 385

usemtl m656
f 382 385 386

usemtl m657
f 382 386 383

usemtl m658
f 383 386 387

usemtl m659
f 383 387 384

usemtl m660
f 384 387 385

usemtl m661
f 385 387 388

usemtl m662
f 385 388 389

usemtl m663
f 385 389 386

usemtl m664
f 386 389 390

usemtl m665
f 386 390 387

usemtl m666
f 387 390 388

usemtl m667
f 388 390 391

usemtl m668
f 388 391 392

usemtl m669
f 388 392 389

usemtl m670
f 389 392 393

usemtl m671
f 389 393 390

usemtl m672
f 390 393 391

usemtl m673
f 391 393 394

usemtl m674
f 391 394 395

usemtl m675
f 391 395 392

usemtl m676
f 392 395 396

usemtl m677
f 392 396 393

usemtl m678
f 393 396 394

usemtl m679
f 394 396 397

usemtl m680
f 394 397 395

usemtl m681
f 395 397 398

usemtl m682
f 395 398 396

usemtl m683
f 396 398 399

usemtl m684
f 396 399 397

usemtl m685
f 397 399 400

usemtl m686
f 397 400 401

usemtl m687
f 397 401 398

usemtl m688
f 398 401 402

usemtl m689
f 398 402 399

usemtl m690
f 399 402 400

usemtl m691
f 400 402 403

usemtl m692
f 400 403 401

usemtl m693
f 401 403 402

usemtl m694
f 404 405 406

usemtl m695
f 404 406 407

usemtl m696
f 404 407 408

usemtl m697
f 404 408 409

usemtl m698
f 404 409 410

usemtl m699
f 404 410 405

usemtl m700
f 405 410 411

usemtl m701
f 405 411 408

usemtl m702
f 405 408 412

usemtl m703
f 405 412 406

usemtl m704
f 406 412 413

usemtl m705
f 406 413 414

usemtl m706
f 406 414 415

usemtl m707
f 406 415 407

usemtl m708
f 407 415 412

usemtl m709
f 407 412 408

usemtl m710
f 416 417 418

usemtl m711
f 416 418 419

usemtl m712
f 416 419 420

usemtl m713
f 416 420 421

usemtl m714
f 416 421 422

usemtl m715
f 416 422 417

usemtl m716
f 417 422 423

usemtl m717
f 417 423 420

usemtl m718
f 417 420 424

usemtl m719
f 417 424 418

usemtl m720
f 418 424 425

usemtl m721
f 418 425 426

usemtl m722
f 418 426 427

usemtl m723
f 418 427 419

usemtl m724
f 419 427 424

usemtl m725
f 419 424 420

usemtl m726
f 423 421 420

usemtl m727
f 421 423 428

usemtl m728
f 421 428 429

usemtl m729
f 421 429 422

usemtl m730
f 422 429 430

usemtl m731
f 422 430 423

usemtl m732
f 423 430 428

usemtl m733
f 428 430 431

usemtl m734
f 428 431 432

usemtl m735
f 428 432 429

usemtl m736
f 429 432 433

usemtl m737
f 429 433 430

usemtl m738
f 430 433 431

usemtl m739
f 431 433 311

usemtl m740
f 431 311 310

usemtl m741
f 431 310 432

usemtl m742
f 432 310 434

usemtl m743
f 432 434 433

usemtl m744
f 433 434 311

usemtl m745
f 311 434 312

usemtl m746
f 312 434 309

usemtl m747
f 309 434 310

usemtl m748
f 314 317 315

usemtl m749
f 347 345 344

usemtl m750
f 345 347 435

usemtl m751
f 345 435 436

usemtl m752
f 345 436 346

usemtl m753
f 346 436 437

usemtl m754
f 346 437 347

usemtl m755
f 347 437 435

usemtl m756
f 435 437 438

usemtl m757
f 435 438 439

usemtl m758
f 435 439 436

usemtl m759
f 436 439 308

usemtl m760
f 436 308 437

usemtl m761
f 437 308 438

usemtl m762
f 438 308 307

usemtl m763
f 438 307 439

usemtl m764
f 439 307 309

usemtl m765
f 439 309 308

usemtl m766
f 325 357 323

usemtl m767
f 325 323 322

usemtl m768
f 411 409 408

usemtl m769
f 409 411 440

usemtl m770
f 409 440 441

usemtl m771
f 409 441 410

usemtl m772
f 410 441 442

usemtl m773
f 410 442 411

usemtl m774
f 411 442 440

usemtl m775
f 440 442 443

usemtl m776
f 440 443 444

usemtl m777
f 440 444 441

usemtl m778
f 441 444 313

usemtl m779
f 441 313 443

usemtl m780
f 441 443 442

usemtl m781
f 443 312 314

usemtl m782
f 443 314 444

usemtl m783
f 444 314 313

usemtl m784
f 313 312 443

usemtl m785
f 293 445 446

usemtl m786
f 293 446 291

usemtl m787
f 293 291 290

usemtl m788
f 292 447 445

usemtl m789
f 292 445 293

usemtl m790
f 291 446 447

usemtl m791
f 291 447 292

usemtl m792
f 446 445 448

usemtl m793
f 446 448 449

usemtl m794
f 446 449 450

usemtl m795
f 446 450 447

usemtl m796
f 447 450 448

usemtl m797
f 447 448 445

usemtl m798
f 448 451 452

usemtl m799
f 448 452 449

usemtl m800
f 449 452 453

usemtl m801
f 449 453 450

usemtl m802
f 450 453 451

usemtl m803
f 450 451 448

usemtl m804
f 451 454 455

usemtl m805
f 451 455 452

usemtl m806
f 452 455 456

usemtl m807
f 452 456 453

usemtl m808
f 453 456 454

usemtl m809
f 453 454 451

usemtl m810
f 454 457 458

usemtl m811
f 454 458 455

usemtl m812
f 455 458 456

usemtl m813
f 456 458 459

usemtl m814
f 456 459 457

usemtl m815
f 456 457 454

usemtl m816
f 457 460 461

usemtl m817
f 457 461 458

usemtl m818
f 458 461 462

usemtl m819
f 458 462 459

usemtl m820
f 459 462 460

usemtl m821
f 459 460 457

usemtl m822
f 460 463 464

usemtl m823
f 460 464 461

usemtl m824
f 461 464 465

usemtl m825
f 461 465 462

usemtl m826
f 462 465 463

usemtl m827
f 462 463 460

usemtl m828
f 463 466 467

usemtl m829
f 463 467 464

usemtl m830
f 464 467 468

usemtl m831
f 464 468 465

usemtl m832
f 465 468 466

usemtl m833
f 465 466 463

usemtl m834
f 466 469 470

usemtl m835
f 466 470 467

usemtl m836
f 467 470 471

usemtl m837
f 467 471 468

usemtl m838
f 468 471 469

usemtl m839
f 468 469 466

usemtl m840
f 470 469 472

usemtl m841
f 470 472 473

usemtl m842
f 470 473 474

usemtl m843
f 470 474 471

usemtl m844
f 471 474 472

usemtl m845
f 471 472 469

usemtl m846
f 472 475 476

usemtl m847
f 472 476 473

usemtl m848
f 473 476 477

usemtl m849
f 473 477 474

usemtl m850
f 474 477 475

usemtl m851
f 474 475 472

usemtl m852
f 475 478 479

usemtl m853
f 475 479 476

usemtl m854
f 476 479 477

usemtl m855
f 477 479 480

usemtl m856
f 477 480 478

usemtl m857
f 477 478 475

usemtl m858
f 478 481 482

usemtl m859
f 478 482 479

usemtl m860
f 479 482 483

usemtl m861
f 479 483 480

usemtl m862
f 480 483 481

usemtl m863
f 480 481 478

usemtl m864
f 482 481 484

usemtl m865
f 482 484 483

usemtl m866
f 483 484 481

usemtl m867
f 485 486 487

usemtl m868
f 485 487 488

usemtl m869
f 485 488 489

usemtl m870
f 485 489 490

usemtl m871
f 485 490 491

usemtl m872
f 485 491 486

usemtl m873
f 486 491 492

usemtl m874
f 486 492 489

usemtl m875
f 486 489 493

usemtl m876
f 486 493 487

usemtl m877
f 487 493 332

usemtl m878
f 487 332 494

usemtl m879
f 487 494 488

usemtl m880
f 488 494 333

usemtl m881
f 488 333 493

usemtl m882
f 488 493 489

usemtl m883
f 492 490 489

usemtl m884
f 490 492 495

usemtl m885
f 490 495 496

usemtl m886
f 490 496 491

usemtl m887
f 491 496 497

usemtl m888
f 491 497 492

usemtl m889
f 492 497 495

usemtl m890
f 495 497 498

usemtl m891
f 495 498 499

usemtl m892
f 495 499 496

usemtl m893
f 496 499 500

usemtl m894
f 496 500 497

usemtl m895
f 497 500 498

usemtl m896
f 498 500 501

usemtl m897
f 498 501 499

usemtl m898
f 499 501 502

usemtl m899
f 499 502 500

usemtl m900
f 500 502 503

usemtl m901
f 500 503 501

usemtl m902
f 501 503 504

usemtl m903
f 501 504 505

usemtl m904
f 501 505 502

usemtl m905
f 502 505 506

usemtl m906
f 502 506 503

usemtl m907
f 503 506 504

usemtl m908
f 504 506 507

usemtl m909
f 504 507 508

usemtl m910
f 504 508 505

usemtl m911
f 505 508 509

usemtl m912
f 505 509 506

usemtl m913
f 506 509 507

usemtl m914
f 507 509 510

usemtl m915
f 507 510 511

usemtl m916
f 507 511 508

usemtl m917
f 508 511 512

usemtl m918
f 508 512 509

usemtl m919
f 509 512 510

usemtl m920
f 510 512 513

usemtl m921
f 510 513 514

usemtl m922
f 510 514 511

usemtl m923
f 511 514 515

usemtl m924
f 511 515 512

usemtl m925
f 512 515 513

usemtl m926
f 513 515 516

usemtl m927
f 513 516 517

usemtl m928
f 513 517 514

usemtl m929
f 514 517 518

usemtl m930
f 514 518 515

usemtl m931
f 515 518 516

usemtl m932
f 516 518 519

usemtl m933
f 516 519 520

usemtl m934
f 516 520 517

usemtl m935
f 517 520 521

usemtl m936
f 517 521 518

usemtl m937
f 518 521 519

usemtl m938
f 519 521 522

usemtl m939
f 519 522 520

usemtl m940
f 520 522 523

usemtl m941
f 520 523 521

usemtl m942
f 521 523 524

usemtl m943
f 521 524 522

usemtl m944
f 522 524 525

usemtl m945
f 522 525 526

usemtl m946
f 522 526 523

usemtl m947
f 523 526 527

usemtl m948
f 523 527 524

usemtl m949
f 524 527 525

usemtl m950
f 525 527 528

usemtl m951
f 525 528 526

usemtl m952
f 526 528 527

usemtl m953
f 332 331 494

usemtl m954
f 494 331 333

usemtl m955
f 332 493 333

usemtl m956
f 427 529 530

usemtl m957
f 427 530 425

usemtl m958
f 427 425 424

usemtl m959
f 426 531 529

usemtl m960
f 426 529 427

usemtl m961
f 425 530 531

usemtl m962
f 425 531 426

usemtl m963
f 529 532 533

usemtl m964
f 529 533 530

usemtl m965
f 530 533 534

usemtl m966
f 530 534 531

usemtl m967
f 531 534 532

usemtl m968
f 531 532 529

usemtl m969
f 533 532 535

usemtl m970
f 533 535 536

usemtl m971
f 533 536 537

usemtl m972
f 533 537 534

usemtl m973
f 534 537 535

usemtl m974
f 534 535 532

usemtl m975
f 535 538 539

usemtl m976
f 535 539 536

usemtl m977
f 536 539 540

usemtl m978
f 536 540 537

usemtl m979
f 537 540 538

usemtl m980
f 537 538 535

usemtl m981
f 538 541 542

usemtl m982
f 538 542 539

usemtl m983
f 539 542 543

usemtl m984
f 539 543 540

usemtl m985
f 540 543 541

usemtl m986
f 540 541 538

usemtl m987
f 541 544 545

usemtl m988
f 541 545 542

usemtl m989
f 542 545 546

usemtl m990
f 542 546 543

usemtl m991
f 543 546 544

usemtl m992
f 543 544 541

usemtl m993
f 545 544 547

usemtl m994
f 545 547 548

usemtl m995
f 545 548 549

usemtl m996
f 545 549 546

usemtl m997
f 546 549 547

usemtl m998
f 546 547 544

usemtl m999
f 547 550 551

usemtl m1000
f 547 551 548

usemtl m1001
f 548 551 552

usemtl m1002
f 548 552 549

usemtl m1003
f 549 552 550

usemtl m1004
f 549 550 547

usemtl m1005
f 550 553 554

usemtl m1006
f 550 554 551

usemtl m1007
f 551 554 555

usemtl m1008
f 551 555 552

usemtl m1009
f 552 555 550

usemtl m1010
f 550 555 553

usemtl m1011
f 553 555 556

usemtl m1012
f 553 556 557

usemtl m1013
f 553 557 554

usemtl m1014
f 554 557 558

usemtl m1015
f 554 558 555

usemtl m1016
f 555 558 556

usemtl m1017
f 556 558 559

usemtl m1018
f 556 559 560

usemtl m1019
f 556 560 557

usemtl m1020
f 557 560 561

usemtl m1021
f 557 561 558

usemtl m1022
f 558 561 559

usemtl m1023
f 559 561 562

usemtl m1024
f 559 562 563

usemtl m1025
f 559 563 560

usemtl m1026
f 560 563 564

usemtl m1027
f 560 564 561

usemtl m1028
f 561 564 562

usemtl m1029
f 562 564 565

usemtl m1030
f 562 565 566

usemtl m1031
f 562 566 563

usemtl m1032
f 563 566 567

usemtl m1033
f 563 567 564

usemtl m1034
f 564 567 565

usemtl m1035
f 565 567 568

usemtl m1036
f 565 568 569

usemtl m1037
f 565 569 566

usemtl m1038
f 566 569 570

usemtl m1039
f 566 570 567

usemtl m1040
f 567 570 568

usemtl m1041
f 568 570 571

usemtl m1042
f 568 571 572

usemtl m1043
f 568 572 569

usemtl m1044
f 569 572 573

usemtl m1045
f 569 573 570

usemtl m1046
f 570 573 571

usemtl m1047
f 571 573 574

usemtl m1048
f 571 574 572

usemtl m1049
f 572 574 573

usemtl m1050
f 349 351 575

usemtl m1051
f 349 575 576

usemtl m1052
f 349 576 577

usemtl m1053
f 349 577 350

usemtl m1054
f 350 577 575

usemtl m1055
f 350 575 351

usemtl m1056
f 575 578 579

usemtl m1057
f 575 579 576

usemtl m1058
f 576 579 580

usemtl m1059
f 576 580 577

usemtl m1060
f 577 580 578

usemtl m1061
f 577 578 575

usemtl m1062
f 578 581 582

usemtl m1063
f 578 582 579

usemtl m1064
f 579 582 583

usemtl m1065
f 579 583 580

usemtl m1066
f 580 583 581

usemtl m1067
f 580 581 578

usemtl m1068
f 581 584 585

usemtl m1069
f 581 585 582

usemtl m1070
f 582 585 586

usemtl m1071
f 582 586 583

usemtl m1072
f 583 586 584

usemtl m1073
f 583 584 581

usemtl m1074
f 585 584 587

usemtl m1075
f 585 587 588

usemtl m1076
f 585 588 589

usemtl m1077
f 585 589 586

usemtl m1078
f 586 589 587

usemtl m1079
f 586 587 584

usemtl m1080
f 587 590 591

usemtl m1081
f 587 591 588

usemtl m1082
f 588 591 592

usemtl m1083
f 588 592 589

usemtl m1084
f 589 592 590

usemtl m1085
f 589 590 587

usemtl m1086
f 590 593 594

usemtl m1087
f 590 594 591

usemtl m1088
f 591 594 595

usemtl m1089
f 591 595 592

usemtl m1090
f 592 595 593

usemtl m1091
f 592 593 590

usemtl m1092
f 593 596 597

usemtl m1093
f 593 597 594

usemtl m1094
f 594 597 598

usemtl m1095
f 594 598 595

usemtl m1096
f 595 598 596

usemtl m1097
f 595 596 593

usemtl m1098
f 596 599 600

usemtl m1099
f 596 600 597

usemtl m1100
f 597 600 601

usemtl m1101
f 597 601 598

usemtl m1102
f 598 601 599

usemtl m1103
f 598 599 596

usemtl m1104
f 600 599 602

usemtl m1105
f 600 602 603

usemtl m1106
f 600 603 604

usemtl m1107
f 600 604 601

usemtl m1108
f 601 604 602

usemtl m1109
f 601 602 599

usemtl m1110
f 602 605 606

usemtl m1111
f 602 606 603

usemtl m1112
f 603 606 604

usemtl m1113
f 604 606 607

usemtl m1114
f 604 607 605

usemtl m1115
f 604 605 602

usemtl m1116
f 605 608 609

usemtl m1117
f 605 609 606

usemtl m1118
f 606 609 610

usemtl m1119
f 606 610 607

usemtl m1120
f 607 610 608

usemtl m1121
f 607 608 605

usemtl m1122
f 608 611 612

usemtl m1123
f 608 612 609

usemtl m1124
f 609 612 613

usemtl m1125
f 609 613 610

usemtl m1126
f 610 613 608

usemtl m1127
f 608 613 611

usemtl m1128
f 611 613 614

usemtl m1129
f 611 614 615

usemtl m1130
f 611 615 612

usemtl m1131
f 612 615 613

usemtl m1132
f 613 615 616

usemtl m1133
f 613 616 614

usemtl m1134
f 614 616 617

usemtl m1135
f 614 617 618

usemtl m1136
f 614 618 615

usemtl m1137
f 615 618 619

usemtl m1138
f 615 619 616

usemtl m1139
f 616 619 617

usemtl m1140
f 617 619 620

usemtl m1141
f 617 620 618

usemtl m1142
f 618 620 619

usemtl m1143
f 348 351 349

usemtl m1144
f 621 414 413

usemtl m1145
f 621 413 622

usemtl m1146
f 621 622 623

usemtl m1147
f 621 623 624

usemtl m1148
f 621 624 625

usemtl m1149
f 621 625 414

usemtl m1150
f 414 625 415

usemtl m1151
f 415 625 622

usemtl m1152
f 415 622 413

usemtl m1153
f 415 413 412

usemtl m1154
f 623 622 626

usemtl m1155
f 623 626 627

usemtl m1156
f 623 627 628

usemtl m1157
f 623 628 624

usemtl m1158
f 624 628 629

usemtl m1159
f 624 629 626

usemtl m1160
f 624 626 625

usemtl m1161
f 625 626 622

usemtl m1162
f 627 626 629

usemtl m1163
f 627 629 630

usemtl m1164
f 627 630 631

usemtl m1165
f 627 631 628

usemtl m1166
f 628 631 632

usemtl m1167
f 628 632 629

usemtl m1168
f 629 632 630

usemtl m1169
f 630 632 633

usemtl m1170
f 630 633 634

usemtl m1171
f 630 634 631

usemtl m1172
f 631 634 635

usemtl m1173
f 631 635 632

usemtl m1174
f 632 635 633

usemtl m1175
f 633 635 636

usemtl m1176
f 633 636 637

usemtl m1177
f 633 637 634

usemtl m1178
f 634 637 638

usemtl m1179
f 634 638 635

usemtl m1180
f 635 638 636

usemtl m1181
f 636 638 639

usemtl m1182
f 636 639 640

usemtl m1183
f 636 640 637

usemtl m1184
f 637 640 641

usemtl m1185
f 637 641 638

usemtl m1186
f 638 641 639

usemtl m1187
f 639 641 642

usemtl m1188
f 639 642 643

usemtl m1189
f 639 643 640

usemtl m1190
f 640 643 644

usemtl m1191
f 640 644 641

usemtl m1192
f 641 644 642

usemtl m1193
f 642 644 645

usemtl m1194
f 642 645 646

usemtl m1195
f 642 646 643

usemtl m1196
f 643 646 647

usemtl m1197
f 643 647 644

usemtl m1198
f 644 647 645

usemtl m1199
f 645 647 648

usemtl m1200
f 645 648 649

usemtl m1201
f 645 649 646

usemtl m1202
f 646 649 650

usemtl m1203
f 646 650 647

usemtl m1204
f 647 650 648

usemtl m1205
f 648 650 651

usemtl m1206
f 648 651 652

usemtl m1207
f 648 652 649

usemtl m1208
f 649 652 653

usemtl m1209
f 649 653 650

usemtl m1210
f 650 653 651

usemtl m1211
f 651 653 654

usemtl m1212
f 651 654 655

usemtl m1213
f 651 655 652

usemtl m1214
f 652 655 656

usemtl m1215
f 652 656 653

usemtl m1216
f 653 656 654

usemtl m1217
f 654 656 657

usemtl m1218
f 654 657 658

usemtl m1219
f 654 658 655

usemtl m1220
f 655 658 659

usemtl m1221
f 655 659 656

usemtl m1222
f 656 659 657

usemtl m1223
f 657 659 660

usemtl m1224
f 657 660 661

usemtl m1225
f 657 661 658

usemtl m1226
f 658 661 662

usemtl m1227
f 658 662 659

usemtl m1228
f 659 662 660

usemtl m1229
f 660 662 663

usemtl m1230
f 660 663 664

usemtl m1231
f 660 664 661

usemtl m1232
f 661 664 665

usemtl m1233
f 661 665 662

usemtl m1234
f 662 665 663

usemtl m1235
f 663 665 666

usemtl m1236
f 663 666 664

usemtl m1237
f 664 666 665

usemtl m1238
f 667 668 669

usemtl m1239
f 667 669 670

usemtl m1240
f 667 670 671

usemtl m1241
f 667 671 672

usemtl m1242
f 667 672 673

usemtl m1243
f 667 673 668

usemtl m1244
f 668 673 674

usemtl m1245
f 668 674 675

usemtl m1246
f 668 675 676

usemtl m1247
f 668 676 669

usemtl m1248
f 677 678 672

usemtl m1249
f 677 672 671

usemtl m1250
f 672 678 679

usemtl m1251
f 672 679 680

usemtl m1252
f 672 680 673

usemtl m1253
f 673 680 674

usemtl m1254
f 674 680 681

usemtl m1255
f 682 683 684

usemtl m1256
f 682 684 685

usemtl m1257
f 682 685 683

usemtl m1258
f 686 676 675

usemtl m1259
f 687 688 689

usemtl m1260
f 687 689 690

usemtl m1261
f 687 690 691

usemtl m1262
f 691 690 692

usemtl m1263
f 691 692 693

usemtl m1264
f 693 692 694

usemtl m1265
f 693 694 688

usemtl m1266
f 688 694 689

usemtl m1267
f 689 694 692

usemtl m1268
f 689 692 690

usemtl m1269
f 695 696 697

usemtl m1270
f 695 697 698

usemtl m1271
f 695 698 699

usemtl m1272
f 695 699 700

usemtl m1273
f 695 700 701

usemtl m1274
f 695 701 696

usemtl m1275
f 696 701 702

usemtl m1276
f 696 702 697

usemtl m1277
f 697 702 703

usemtl m1278
f 697 703 698

usemtl m1279
f 698 703 704

usemtl m1280
f 698 704 699

usemtl m1281
f 699 704 700

usemtl m1282
f 705 706 707

usemtl m1283
f 705 707 708

usemtl m1284
f 705 708 709

usemtl m1285
f 709 708 710

usemtl m1286
f 709 710 711

usemtl m1287
f 711 710 712

usemtl m1288
f 711 712 706

usemtl m1289
f 706 712 707

usemtl m1290
f 707 712 710

usemtl m1291
f 707 710 708

usemtl m1292
f 713 714 715

usemtl m1293
f 713 715 716

usemtl m1294
f 713 716 717

usemtl m1295
f 717 716 718

usemtl m1296
f 717 718 719

usemtl m1297
f 719 718 720

usemtl m1298
f 719 720 714

usemtl m1299
f 714 720 715

usemtl m1300
f 715 720 718

usemtl m1301
f 715 718 716

