mtllib 40636.mtl
o runescapemodel
v 26 293 -27
v 22 281 -22
v 49 281 -27
v 1 288 -23
v 1 297 -27
v -24 293 -27
v 39 268 -20
v 54 254 -20
v 67 263 -27
v 63 236 -20
v 78 241 -27
v 66 216 -20
v 82 216 -27
v 63 196 -20
v 78 191 -27
v 58 174 -22
v 67 168 -27
v 46 154 -25
v 49 150 -27
v 26 138 -27
v -21 161 -26
v -4 165 -24
v -4 159 -26
v -18 169 -24
v -35 167 -26
v -30 177 -22
v -104 190 -32
v -77 167 -26
v -91 158 -32
v -83 195 -24
v -86 222 -24
v -107 223 -32
v -80 248 -24
v -100 256 -32
v -66 271 -24
v -82 285 -32
v -45 289 -24
v -57 308 -32
v -22 307 -27
v -25 321 -32
v 8 318 -30
v 8 324 -32
v 41 316 -32
v -38 249 -25
v -51 239 -26
v -40 251 -26
v -45 236 -24
v -57 223 -26
v -47 221 -22
v -58 207 -26
v -48 208 -22
v -55 193 -26
v -46 196 -22
v -47 178 -26
v -39 185 -22
v 127 231 -32
v 107 229 -26
v 126 191 -32
v 104 264 -28
v 116 269 -32
v 94 302 -32
v 101 196 -24
v 90 166 -24
v 112 154 -32
v 70 141 -24
v 88 123 -32
v 44 124 -24
v 55 100 -32
v 13 115 -24
v 16 90 -32
v -20 107 -27
v -23 91 -32
v -57 111 -30
v -61 105 -32
v -92 129 -32
v -62 141 -28
v -69 133 -32
v 12 163 -26
v -40 115 -32
v -26 260 -26
v 67 194 -35
v 71 216 -35
v 45 201 -31
v 94 216 -38
v 89 187 -38
v 57 175 -35
v 38 188 -31
v 89 244 -38
v 67 237 -35
v 111 252 -43
v 95 284 -43
v 76 270 -38
v 89 244 -49
v 94 216 -49
v 117 216 -43
v 76 270 -49
v 67 237 -52
v 71 216 -52
v 57 257 -52
v 55 291 -49
v 69 310 -43
v 45 230 -55
v 47 216 -55
v 38 243 -55
v 23 223 -58
v 20 229 -58
v 1 216 -60
v 24 216 -58
v 15 234 -58
v 8 238 -58
v 15 260 -55
v 1 262 -55
v 1 239 -58
v 1 285 -52
v 22 282 -52
v 28 253 -55
v -21 282 -52
v -14 260 -55
v -28 304 -49
v -54 291 -49
v -67 310 -43
v -93 284 -43
v -54 291 -38
v -74 270 -38
v -110 252 -43
v -74 270 -49
v -40 272 -35
v -21 282 -35
v -28 304 -38
v -56 257 -35
v -88 244 -38
v -26 253 -31
v -14 260 -31
v -37 243 -31
v -13 234 -29
v -18 229 -29
v -43 230 -31
v 1 216 -27
v -6 238 -29
v -21 223 -29
v -22 216 -29
v -46 216 -31
v -43 201 -31
v -65 194 -35
v -69 216 -35
v -56 175 -35
v -37 188 -31
v -21 209 -29
v -74 161 -38
v -54 141 -38
v -67 122 -43
v -93 147 -43
v -88 187 -38
v -35 105 -43
v -54 141 -49
v -74 161 -49
v -28 127 -49
v -40 159 -52
v -56 175 -52
v -21 149 -52
v -26 178 -55
v -37 188 -55
v -14 171 -55
v -13 197 -58
v -6 194 -58
v 1 169 -55
v 1 146 -52
v -18 202 -58
v 1 193 -58
v 8 194 -58
v 15 171 -55
v 28 178 -55
v 42 159 -52
v 22 149 -52
v 57 175 -52
v 38 188 -55
v 76 161 -49
v 89 187 -49
v 67 194 -52
v 111 180 -43
v 95 147 -43
v 55 141 -49
v 76 161 -38
v 47 216 -31
v 23 209 -29
v 45 230 -31
v 57 257 -35
v 38 243 -31
v 23 223 -29
v 42 272 -35
v 28 253 -31
v 22 282 -35
v 30 304 -38
v 55 291 -38
v 15 260 -31
v 15 234 -29
v 20 229 -29
v 1 285 -35
v 1 309 -38
v 1 262 -31
v 8 238 -29
v 1 239 -29
v -18 202 -29
v -13 197 -29
v -26 178 -31
v -14 171 -31
v -21 149 -35
v 1 146 -35
v 1 123 -38
v -28 127 -38
v -40 159 -35
v 30 127 -38
v 22 149 -35
v 1 169 -31
v 37 105 -43
v 69 122 -43
v 30 127 -49
v 55 141 -38
v 1 123 -49
v -65 237 -35
v -92 216 -38
v -110 180 -43
v -88 187 -49
v -92 216 -49
v -115 216 -43
v -65 194 -52
v -69 216 -52
v -43 201 -55
v -46 216 -55
v -21 209 -58
v -22 216 -58
v -21 223 -58
v -43 230 -55
v -18 229 -58
v -13 234 -58
v -6 238 -58
v -37 243 -55
v -26 253 -55
v -56 257 -52
v -40 272 -52
v -88 244 -49
v -65 237 -52
v 30 304 -49
v 42 272 -52
v 37 326 -43
v 1 332 -43
v 1 309 -49
v 0 27 83
v 0 23 87
v 121 27 83
v 109 33 52
v 0 33 52
v -107 33 52
v -121 27 83
v -125 23 87
v -125 13 87
v 0 13 87
v 125 23 87
v 109 19 52
v 99 33 24
v 109 47 52
v 0 47 52
v -107 47 52
v -99 33 24
v -99 19 24
v -107 19 52
v -107 0 52
v -125 0 87
v 0 0 87
v 125 0 87
v 125 13 87
v 109 0 52
v 99 19 24
v 98 19 0
v 98 33 -15
v 98 55 -15
v 99 55 24
v 106 51 47
v 0 51 47
v -106 51 47
v -99 55 24
v -97 33 -15
v -97 19 0
v -97 0 0
v -99 0 24
v 0 0 52
v 102 374 -128
v 102 374 0
v 128 305 -128
v -100 374 -128
v 58 431 -128
v 58 431 0
v 70 364 0
v 98 300 0
v 128 305 0
v 8 194 -29
v 1 193 -29
v 15 197 -29
v 28 178 -31
v 15 171 -31
v 20 202 -29
v 42 159 -35
v 98 78 -15
v 128 33 -15
v 128 234 -15
v 98 234 -15
v 98 78 -33
v 0 78 -33
v 0 78 -15
v 0 74 19
v 99 74 19
v 99 70 24
v 0 70 24
v 0 55 24
v 128 19 0
v 128 0 0
v 98 0 0
v 99 0 24
v 0 0 24
v 0 0 0
v 15 197 -58
v 20 202 -58
v 23 209 -58
v 45 201 -55
v -35 326 -43
v -6 194 -29
v -3 212 -44
v 5 212 -44
v 5 220 -44
v -3 220 -44
v -97 78 -33
v -97 234 -33
v -97 78 -15
v 0 78 -50
v -97 78 -50
v -97 234 -50
v -97 263 -45
v -97 263 -23
v -97 234 -15
v -128 234 -15
v -128 33 -15
v -97 55 -15
v -99 74 19
v -128 19 0
v -128 0 0
v -99 70 24
v -97 263 0
v -128 263 0
v 98 234 -68
v 98 234 -50
v 98 263 -68
v 0 263 -68
v 0 234 -68
v 0 78 -68
v 98 78 -68
v 98 78 -50
v 98 234 -33
v 98 263 -45
v 98 300 -68
v 70 364 -68
v 0 364 -68
v -70 364 -68
v -97 263 -68
v -97 234 -68
v -97 78 -68
v 24 216 -29
v 1 100 -43
v 28 416 0
v 0 436 0
v 28 416 -23
v 70 364 -23
v 0 476 0
v -57 431 0
v -28 416 0
v 0 436 -23
v 28 416 -45
v 70 364 -45
v 98 300 -45
v 98 300 -23
v 98 263 -23
v 98 263 0
v 128 263 0
v -97 300 -68
v -97 300 -45
v -97 300 -23
v -97 300 0
v -128 305 0
v -100 374 0
v -128 305 -128
v -70 364 0
v -57 431 -128
v 0 476 -128
v -28 416 -23
v 0 436 -45
v 28 416 -68
v -70 364 -45
v -28 416 -68
v -28 416 -45
v -70 364 -23
v 0 436 -68
v -1 214 -44
v 3 214 -44
v 3 218 -44
v -1 218 -44
v -4 211 -44
v 6 211 -44
v 6 221 -44
v -4 221 -44
vn 0 0 0
vn 0 0 0
vn 0 0 0
vn 0 0 0
vn 0 0 0
vn 0 0 0
vn 0 0 0
vn 0 0 0
vn 0 0 0
vn 0 0 0
vn 0 0 0
vn 0 0 0
vn 0 0 0
vn 0 0 0
vn 0 0 0
vn 0 0 0
vn 0 0 0
vn 0 0 0
vn 0 0 0
vn 0 0 0
vn 0 0 0
vn 0 0 0
vn 0 0 0
vn 0 0 0
vn 0 0 0
vn 0 0 0
vn 0 0 0
vn 0 0 0
vn 0 0 0
vn 0 0 0
vn 0 0 0
vn 0 0 0
vn 0 0 0
vn 0 0 0
vn 0 0 0
vn 0 0 0
vn 0 0 0
vn 0 0 0
vn 0 0 0
vn 0 0 0
vn 0 0 0
vn 0 0 0
vn 0 0 0
vn 0 0 0
vn 0 0 0
vn 0 0 0
vn 0 0 0
vn 0 0 0
vn 0 0 0
vn 0 0 0
vn 0 0 0
vn 0 0 0
vn 0 0 0
vn 0 0 0
vn 0 0 0
vn 0 0 0
vn 0 0 0
vn 0 0 0
vn 0 0 0
vn 0 0 0
vn 0 0 0
vn 0 0 0
vn 0 0 0
vn 0 0 0
vn 0 0 0
vn 0 0 0
vn 0 0 0
vn 0 0 0
vn 0 0 0
vn 0 0 0
vn 0 0 0
vn 0 0 0
vn 0 0 0
vn 0 0 0
vn 0 0 0
vn 0 0 0
vn 0 0 0
vn 0 0 0
vn 0 0 0
vn 0 0 0
vn 0 0 0
vn 0 0 0
vn 0 0 0
vn 0 0 0
vn 0 0 0
vn 0 0 0
vn 0 0 0
vn 0 0 0
vn 0 0 0
vn 0 0 0
vn 0 0 0
vn 0 0 0
vn 0 0 0
vn 0 0 0
vn 0 0 0
vn 0 0 0
vn 0 0 0
vn 0 0 0
vn 0 0 0
vn 0 0 0
vn 0 0 0
vn 0 0 0
vn 0 0 0
vn 0 0 0
vn 0 0 0
vn 0 0 0
vn 0 0 0
vn 0 0 0
vn 0 0 0
vn 0 0 0
vn 0 0 0
vn 0 0 0
vn 0 0 0
vn 0 0 0
vn 0 0 0
vn 0 0 0
vn 0 0 0
vn 0 0 0
vn 0 0 0
vn 0 0 0
vn 0 0 0
vn 0 0 0
vn 0 0 0
vn 0 0 0
vn 0 0 0
vn 0 0 0
vn 0 0 0
vn 0 0 0
vn 0 0 0
vn 0 0 0
vn 0 0 0
vn 0 0 0
vn 0 0 0
vn 0 0 0
vn 0 0 0
vn 0 0 0
vn 0 0 0
vn 0 0 0
vn 0 0 0
vn 0 0 0
vn 0 0 0
vn 0 0 0
vn 0 0 0
vn 0 0 0
vn 0 0 0
vn 0 0 0
vn 0 0 0
vn 0 0 0
vn 0 0 0
vn 0 0 0
vn 0 0 0
vn 0 0 0
vn 0 0 0
vn 0 0 0
vn 0 0 0
vn 0 0 0
vn 0 0 0
vn 0 0 0
vn 0 0 0
vn 0 0 0
vn 0 0 0
vn 0 0 0
vn 0 0 0
vn 0 0 0
vn 0 0 0
vn 0 0 0
vn 0 0 0
vn 0 0 0
vn 0 0 0
vn 0 0 0
vn 0 0 0
vn 0 0 0
vn 0 0 0
vn 0 0 0
vn 0 0 0
vn 0 0 0
vn 0 0 0
vn 0 0 0
vn 0 0 0
vn 0 0 0
vn 0 0 0
vn 0 0 0
vn 0 0 0
vn 0 0 0
vn 0 0 0
vn 0 0 0
vn 0 0 0
vn 0 0 0
vn 0 0 0
vn 0 0 0
vn 0 0 0
vn 0 0 0
vn 0 0 0
vn 0 0 0
vn 0 0 0
vn 0 0 0
vn 0 0 0
vn 0 0 0
vn 0 0 0
vn 0 0 0
vn 0 0 0
vn 0 0 0
vn 0 0 0
vn 0 0 0
vn 0 0 0
vn 0 0 0
vn 0 0 0
vn 0 0 0
vn 0 0 0
vn 0 0 0
vn 0 0 0
vn 0 0 0
vn 0 0 0
vn 0 0 0
vn 0 0 0
vn 0 0 0
vn 0 0 0
vn 0 0 0
vn 0 0 0
vn 0 0 0
vn 0 0 0
vn 0 0 0
vn 0 0 0
vn 0 0 0
vn 0 0 0
vn 0 0 0
vn 0 0 0
vn 0 0 0
vn 0 0 0
vn 0 0 0
vn 0 0 0
vn 0 0 0
vn 0 0 0
vn 0 0 0
vn 0 0 0
vn 0 0 0
vn 0 0 0
vn 0 0 0
vn 0 0 0
vn 0 0 0
vn 0 0 0
vn 0 0 0
vn 0 0 0
vn 0 0 0
vn 0 0 0
vn 0 0 0
vn 0 0 0
vn 0 -1366 -554
vn 0 -724 -1492
vn 447 -714 -211
vn 720 -502 -344
vn 0 -502 -864
vn -971 -502 -37
vn -442 -704 -188
vn -436 -272 -203
vn -681 0 -673
vn 0 0 -1536
vn 442 -282 -480
vn 1635 -101 669
vn 2222 -36 463
vn 471 -243 -227
vn 0 -799 -1407
vn -493 -183 -539
vn -1749 30 323
vn -1503 0 273
vn -1634 -91 666
vn -700 768 304
vn -227 256 -139
vn 0 1024 -768
vn 232 256 -406
vn 697 0 -194
vn 946 768 384
vn 1235 0 278
vn 1024 -367 -824
vn 512 -180 -418
vn 1280 5 -483
vn 757 -504 -512
vn 475 -695 -186
vn 0 -1408 -492
vn -492 -635 -226
vn -1011 -504 -229
vn -765 -173 -391
vn -765 -360 -805
vn -510 512 -214
vn -747 768 161
vn 0 1536 0
vn 643 -402 512
vn 680 -336 -768
vn 478 -180 512
vn -441 -250 1024
vn 514 -560 768
vn 560 -514 -1024
vn -667 364 -768
vn -746 102 -1024
vn 239 -90 -512
vn 0 0 0
vn 0 0 0
vn 0 0 0
vn 0 0 0
vn 0 0 0
vn 0 0 0
vn 0 0 0
vn 0 -1020 -819
vn 0 -374 -1116
vn 0 234 -966
vn -1024 117 -483
vn -768 -512 0
vn 0 -1536 0
vn 0 -1276 -58
vn 0 -1416 -436
vn 512 -649 -338
vn 512 -195 -406
vn 0 -800 -1408
vn 0 -504 -854
vn 0 -187 -430
vn 0 0 -512
vn 256 512 -246
vn 753 768 106
vn 0 1536 0
vn 0 512 0
vn 0 0 0
vn 0 0 0
vn 0 0 0
vn 0 0 0
vn 0 0 0
vn 0 0 0
vn 0 0 -512
vn 0 0 -256
vn 0 0 -512
vn 0 0 -256
vn 768 -1024 0
vn 1536 0 0
vn 257 -764 -811
vn 0 -1536 0
vn 512 -512 0
vn 1792 0 0
vn 1536 0 0
vn 1536 0 0
vn 768 234 -710
vn 0 117 -739
vn 0 -374 -1116
vn -1022 11 -463
vn -511 -643 -326
vn 0 -187 -430
vn 0 0 -512
vn -512 -189 -651
vn 768 117 -483
vn 0 234 -966
vn -512 0 -1024
vn -1536 0 0
vn -768 0 -768
vn 0 0 -1792
vn 0 0 -1536
vn 0 -768 -768
vn -512 -256 -256
vn -768 -1024 0
vn -1536 0 0
vn -1792 0 0
vn -980 204 -256
vn -632 422 -1024
vn 0 0 -1536
vn 669 358 -1024
vn 768 0 -1024
vn 512 0 -512
vn 512 -512 -512
vn 0 0 0
vn 0 0 0
vn -546 528 -512
vn -148 624 -1024
vn -1041 1104 0
vn -1299 786 0
vn 154 -604 -512
vn -520 -554 -1024
vn 495 576 -512
vn 0 1248 0
vn -1041 1104 0
vn -1299 786 0
vn -1214 306 0
vn -1470 306 0
vn -1536 0 0
vn -512 234 -710
vn 0 117 -739
vn 747 99 -256
vn 1473 297 0
vn 1473 297 0
vn 726 198 -1024
vn -237 -96 -512
vn -882 -500 -768
vn -474 -192 256
vn 633 419 -768
vn -566 -508 512
vn -160 -602 256
vn 1041 1104 0
vn 0 1248 0
vn -495 576 -512
vn 1302 777 0
vn 546 528 -512
vn 1041 1104 0
vn 1302 777 0
vn 148 624 -512
vn 0 0 -512
vn 0 0 -256
vn 0 0 -512
vn 0 0 -256
vn 0 0 -512
vn 0 0 -256
vn 0 0 -512
vn 0 0 -256
usemtl m0
f 1 2 3

usemtl m1
f 1 3 2

usemtl m2
f 1 2 4

usemtl m3
f 1 4 2

usemtl m4
f 4 1 5

usemtl m5
f 4 5 6

usemtl m6
f 4 6 5

usemtl m7
f 4 5 1

usemtl m8
f 3 2 7

usemtl m9
f 3 7 2

usemtl m10
f 7 3 8

usemtl m11
f 7 8 3

usemtl m12
f 3 8 9

usemtl m13
f 3 9 8

usemtl m14
f 8 9 10

usemtl m15
f 8 10 9

usemtl m16
f 9 10 11

usemtl m17
f 9 11 10

usemtl m18
f 10 11 12

usemtl m19
f 10 12 11

usemtl m20
f 11 12 13

usemtl m21
f 11 13 12

usemtl m22
f 12 13 14

usemtl m23
f 12 14 13

usemtl m24
f 13 14 15

usemtl m25
f 13 15 14

usemtl m26
f 14 15 16

usemtl m27
f 14 16 15

usemtl m28
f 15 16 17

usemtl m29
f 15 17 16

usemtl m30
f 16 17 18

usemtl m31
f 16 18 17

usemtl m32
f 17 18 19

usemtl m33
f 17 19 18

usemtl m34
f 18 19 20

usemtl m35
f 18 20 19

usemtl m36
f 21 22 23

usemtl m37
f 21 23 22

usemtl m38
f 21 22 24

usemtl m39
f 21 24 22

usemtl m40
f 24 21 25

usemtl m41
f 24 25 26

usemtl m42
f 24 26 25

usemtl m43
f 24 25 21

usemtl m44
f 27 28 29

usemtl m45
f 27 29 28

usemtl m46
f 27 28 30

usemtl m47
f 27 30 28

usemtl m48
f 30 27 31

usemtl m49
f 30 31 27

usemtl m50
f 27 31 32

usemtl m51
f 27 32 31

usemtl m52
f 31 32 33

usemtl m53
f 31 33 32

usemtl m54
f 32 33 34

usemtl m55
f 32 34 33

usemtl m56
f 33 34 35

usemtl m57
f 33 35 34

usemtl m58
f 34 35 36

usemtl m59
f 34 36 35

usemtl m60
f 35 36 37

usemtl m61
f 35 37 36

usemtl m62
f 36 37 38

usemtl m63
f 36 38 37

usemtl m64
f 37 38 39

usemtl m65
f 37 39 38

usemtl m66
f 38 39 40

usemtl m67
f 38 40 39

usemtl m68
f 39 40 41

usemtl m69
f 39 41 40

usemtl m70
f 40 41 42

usemtl m71
f 40 42 41

usemtl m72
f 41 42 43

usemtl m73
f 41 43 42

usemtl m74
f 44 45 46

usemtl m75
f 44 46 45

usemtl m76
f 44 45 47

usemtl m77
f 44 47 45

usemtl m78
f 45 47 48

usemtl m79
f 45 48 47

usemtl m80
f 47 48 49

usemtl m81
f 47 49 48

usemtl m82
f 48 49 50

usemtl m83
f 48 50 49

usemtl m84
f 49 50 51

usemtl m85
f 49 51 50

usemtl m86
f 50 51 52

usemtl m87
f 50 52 51

usemtl m88
f 51 52 53

usemtl m89
f 51 53 52

usemtl m90
f 52 53 54

usemtl m91
f 52 54 53

usemtl m92
f 53 54 55

usemtl m93
f 53 55 54

usemtl m94
f 54 55 25

usemtl m95
f 54 25 55

usemtl m96
f 55 25 26

usemtl m97
f 55 26 25

usemtl m98
f 56 57 58

usemtl m99
f 56 58 57

usemtl m100
f 56 57 59

usemtl m101
f 56 59 57

usemtl m102
f 59 56 60

usemtl m103
f 59 60 56

usemtl m104
f 60 59 61

usemtl m105
f 60 61 59

usemtl m106
f 58 57 62

usemtl m107
f 58 62 57

usemtl m108
f 62 58 63

usemtl m109
f 62 63 58

usemtl m110
f 58 63 64

usemtl m111
f 58 64 63

usemtl m112
f 63 64 65

usemtl m113
f 63 65 64

usemtl m114
f 64 65 66

usemtl m115
f 64 66 65

usemtl m116
f 65 66 67

usemtl m117
f 65 67 66

usemtl m118
f 66 67 68

usemtl m119
f 66 68 67

usemtl m120
f 67 68 69

usemtl m121
f 67 69 68

usemtl m122
f 68 69 70

usemtl m123
f 68 70 69

usemtl m124
f 69 70 71

usemtl m125
f 69 71 70

usemtl m126
f 70 71 72

usemtl m127
f 70 72 71

usemtl m128
f 71 72 73

usemtl m129
f 71 73 72

usemtl m130
f 72 73 74

usemtl m131
f 72 74 73

usemtl m132
f 73 74 75

usemtl m133
f 73 75 74

usemtl m134
f 29 76 77

usemtl m135
f 29 77 76

usemtl m136
f 29 76 28

usemtl m137
f 29 28 76

usemtl m138
f 22 78 23

usemtl m139
f 22 23 78

usemtl m140
f 77 79 76

usemtl m141
f 77 76 79

usemtl m142
f 80 46 44

usemtl m143
f 80 44 46

usemtl m144
f 81 82 83

usemtl m145
f 81 83 82

usemtl m146
f 81 82 84

usemtl m147
f 81 84 85

usemtl m148
f 81 85 86

usemtl m149
f 81 86 87

usemtl m150
f 81 87 83

usemtl m151
f 81 83 87

usemtl m152
f 81 87 86

usemtl m153
f 81 86 85

usemtl m154
f 81 85 84

usemtl m155
f 81 84 82

usemtl m156
f 82 84 88

usemtl m157
f 82 88 89

usemtl m158
f 82 89 88

usemtl m159
f 82 88 84

usemtl m160
f 84 88 90

usemtl m161
f 84 90 88

usemtl m162
f 88 90 91

usemtl m163
f 88 91 92

usemtl m164
f 88 92 89

usemtl m165
f 88 89 92

usemtl m166
f 88 92 91

usemtl m167
f 88 91 90

usemtl m168
f 90 91 93

usemtl m169
f 90 93 94

usemtl m170
f 90 94 95

usemtl m171
f 90 95 84

usemtl m172
f 90 84 95

usemtl m173
f 90 95 94

usemtl m174
f 90 94 93

usemtl m175
f 90 93 91

usemtl m176
f 91 93 96

usemtl m177
f 91 96 93

usemtl m178
f 93 96 97

usemtl m179
f 93 97 98

usemtl m180
f 93 98 94

usemtl m181
f 93 94 98

usemtl m182
f 93 98 97

usemtl m183
f 93 97 96

usemtl m184
f 96 97 99

usemtl m185
f 96 99 100

usemtl m186
f 96 100 101

usemtl m187
f 96 101 100

usemtl m188
f 96 100 99

usemtl m189
f 96 99 97

usemtl m190
f 97 99 102

usemtl m191
f 97 102 103

usemtl m192
f 97 103 98

usemtl m193
f 97 98 103

usemtl m194
f 97 103 102

usemtl m195
f 97 102 99

usemtl m196
f 99 102 104

usemtl m197
f 99 104 102

usemtl m198
f 102 104 105

usemtl m199
f 102 105 104

usemtl m200
f 104 105 106

usemtl m201
f 104 106 105

usemtl m202
f 105 106 107

usemtl m203
f 105 107 108

usemtl m204
f 105 108 107

usemtl m205
f 105 107 106

usemtl m206
f 106 107 109

usemtl m207
f 106 109 107

usemtl m208
f 107 109 110

usemtl m209
f 107 110 109

usemtl m210
f 109 110 111

usemtl m211
f 109 111 110

usemtl m212
f 110 111 112

usemtl m213
f 110 112 113

usemtl m214
f 110 113 112

usemtl m215
f 110 112 111

usemtl m216
f 111 112 114

usemtl m217
f 111 114 115

usemtl m218
f 111 115 116

usemtl m219
f 111 116 109

usemtl m220
f 111 109 116

usemtl m221
f 111 116 115

usemtl m222
f 111 115 114

usemtl m223
f 111 114 112

usemtl m224
f 112 114 117

usemtl m225
f 112 117 118

usemtl m226
f 112 118 113

usemtl m227
f 112 113 118

usemtl m228
f 112 118 117

usemtl m229
f 112 117 114

usemtl m230
f 114 117 119

usemtl m231
f 114 119 117

usemtl m232
f 117 119 120

usemtl m233
f 117 120 119

usemtl m234
f 119 120 121

usemtl m235
f 119 121 120

usemtl m236
f 120 121 122

usemtl m237
f 120 122 121

usemtl m238
f 121 122 123

usemtl m239
f 121 123 122

usemtl m240
f 122 123 124

usemtl m241
f 122 124 125

usemtl m242
f 122 125 126

usemtl m243
f 122 126 125

usemtl m244
f 122 125 124

usemtl m245
f 122 124 123

usemtl m246
f 123 124 127

usemtl m247
f 123 127 128

usemtl m248
f 123 128 129

usemtl m249
f 123 129 128

usemtl m250
f 123 128 127

usemtl m251
f 123 127 124

usemtl m252
f 124 127 130

usemtl m253
f 124 130 131

usemtl m254
f 124 131 125

usemtl m255
f 124 125 131

usemtl m256
f 124 131 130

usemtl m257
f 124 130 127

usemtl m258
f 127 130 132

usemtl m259
f 127 132 133

usemtl m260
f 127 133 128

usemtl m261
f 127 128 133

usemtl m262
f 127 133 132

usemtl m263
f 127 132 130

usemtl m264
f 130 132 134

usemtl m265
f 130 134 132

usemtl m266
f 132 134 135

usemtl m267
f 132 135 134

usemtl m268
f 134 135 136

usemtl m269
f 134 136 137

usemtl m270
f 134 137 136

usemtl m271
f 134 136 135

usemtl m272
f 135 136 138

usemtl m273
f 135 138 139

usemtl m274
f 135 139 138

usemtl m275
f 135 138 136

usemtl m276
f 136 138 140

usemtl m277
f 136 140 138

usemtl m278
f 138 140 141

usemtl m279
f 138 141 140

usemtl m280
f 140 141 142

usemtl m281
f 140 142 137

usemtl m282
f 140 137 142

usemtl m283
f 140 142 141

usemtl m284
f 141 142 143

usemtl m285
f 141 143 142

usemtl m286
f 142 143 144

usemtl m287
f 142 144 145

usemtl m288
f 142 145 137

usemtl m289
f 142 137 145

usemtl m290
f 142 145 144

usemtl m291
f 142 144 143

usemtl m292
f 143 144 146

usemtl m293
f 143 146 147

usemtl m294
f 143 147 148

usemtl m295
f 143 148 147

usemtl m296
f 143 147 146

usemtl m297
f 143 146 144

usemtl m298
f 144 146 149

usemtl m299
f 144 149 146

usemtl m300
f 146 149 150

usemtl m301
f 146 150 149

usemtl m302
f 149 150 151

usemtl m303
f 149 151 152

usemtl m304
f 149 152 153

usemtl m305
f 149 153 144

usemtl m306
f 149 144 153

usemtl m307
f 149 153 152

usemtl m308
f 149 152 151

usemtl m309
f 149 151 150

usemtl m310
f 150 151 154

usemtl m311
f 150 154 151

usemtl m312
f 151 154 155

usemtl m313
f 151 155 156

usemtl m314
f 151 156 152

usemtl m315
f 151 152 156

usemtl m316
f 151 156 155

usemtl m317
f 151 155 154

usemtl m318
f 154 155 157

usemtl m319
f 154 157 155

usemtl m320
f 155 157 158

usemtl m321
f 155 158 159

usemtl m322
f 155 159 156

usemtl m323
f 155 156 159

usemtl m324
f 155 159 158

usemtl m325
f 155 158 157

usemtl m326
f 157 158 160

usemtl m327
f 157 160 158

usemtl m328
f 158 160 161

usemtl m329
f 158 161 162

usemtl m330
f 158 162 161

usemtl m331
f 158 161 160

usemtl m332
f 160 161 163

usemtl m333
f 160 163 161

usemtl m334
f 161 163 164

usemtl m335
f 161 164 163

usemtl m336
f 163 164 165

usemtl m337
f 163 165 166

usemtl m338
f 163 166 167

usemtl m339
f 163 167 166

usemtl m340
f 163 166 165

usemtl m341
f 163 165 164

usemtl m342
f 164 165 107

usemtl m343
f 164 107 168

usemtl m344
f 164 168 107

usemtl m345
f 164 107 165

usemtl m346
f 165 107 169

usemtl m347
f 165 169 107

usemtl m348
f 107 169 170

usemtl m349
f 107 170 169

usemtl m350
f 169 170 171

usemtl m351
f 169 171 170

usemtl m352
f 170 171 172

usemtl m353
f 170 172 171

usemtl m354
f 171 172 173

usemtl m355
f 171 173 174

usemtl m356
f 171 174 173

usemtl m357
f 171 173 172

usemtl m358
f 172 173 175

usemtl m359
f 172 175 176

usemtl m360
f 172 176 175

usemtl m361
f 172 175 173

usemtl m362
f 173 175 177

usemtl m363
f 173 177 175

usemtl m364
f 175 177 178

usemtl m365
f 175 178 179

usemtl m366
f 175 179 178

usemtl m367
f 175 178 177

usemtl m368
f 177 178 180

usemtl m369
f 177 180 181

usemtl m370
f 177 181 182

usemtl m371
f 177 182 181

usemtl m372
f 177 181 180

usemtl m373
f 177 180 178

usemtl m374
f 178 180 95

usemtl m375
f 178 95 94

usemtl m376
f 178 94 95

usemtl m377
f 178 95 180

usemtl m378
f 180 95 85

usemtl m379
f 180 85 183

usemtl m380
f 180 183 181

usemtl m381
f 180 181 183

usemtl m382
f 180 183 85

usemtl m383
f 180 85 95

usemtl m384
f 95 85 84

usemtl m385
f 95 84 85

usemtl m386
f 83 82 184

usemtl m387
f 83 184 185

usemtl m388
f 83 185 184

usemtl m389
f 83 184 82

usemtl m390
f 82 184 89

usemtl m391
f 82 89 184

usemtl m392
f 184 89 186

usemtl m393
f 184 186 89

usemtl m394
f 89 186 187

usemtl m395
f 89 187 92

usemtl m396
f 89 92 187

usemtl m397
f 89 187 186

usemtl m398
f 186 187 188

usemtl m399
f 186 188 189

usemtl m400
f 186 189 188

usemtl m401
f 186 188 187

usemtl m402
f 187 188 190

usemtl m403
f 187 190 188

usemtl m404
f 188 190 191

usemtl m405
f 188 191 190

usemtl m406
f 190 191 192

usemtl m407
f 190 192 193

usemtl m408
f 190 193 194

usemtl m409
f 190 194 187

usemtl m410
f 190 187 194

usemtl m411
f 190 194 193

usemtl m412
f 190 193 192

usemtl m413
f 190 192 191

usemtl m414
f 191 192 195

usemtl m415
f 191 195 196

usemtl m416
f 191 196 197

usemtl m417
f 191 197 188

usemtl m418
f 191 188 197

usemtl m419
f 191 197 196

usemtl m420
f 191 196 195

usemtl m421
f 191 195 192

usemtl m422
f 192 195 198

usemtl m423
f 192 198 199

usemtl m424
f 192 199 193

usemtl m425
f 192 193 199

usemtl m426
f 192 199 198

usemtl m427
f 192 198 195

usemtl m428
f 195 198 200

usemtl m429
f 195 200 201

usemtl m430
f 195 201 200

usemtl m431
f 195 200 198

usemtl m432
f 198 200 128

usemtl m433
f 198 128 200

usemtl m434
f 200 128 133

usemtl m435
f 200 133 202

usemtl m436
f 200 202 133

usemtl m437
f 200 133 128

usemtl m438
f 203 204 138

usemtl m439
f 203 138 148

usemtl m440
f 203 148 138

usemtl m441
f 203 138 204

usemtl m442
f 203 204 205

usemtl m443
f 203 205 204

usemtl m444
f 204 205 206

usemtl m445
f 204 206 205

usemtl m446
f 205 206 207

usemtl m447
f 205 207 206

usemtl m448
f 206 207 208

usemtl m449
f 206 208 207

usemtl m450
f 207 208 209

usemtl m451
f 207 209 210

usemtl m452
f 207 210 211

usemtl m453
f 207 211 205

usemtl m454
f 207 205 211

usemtl m455
f 207 211 210

usemtl m456
f 207 210 209

usemtl m457
f 207 209 208

usemtl m458
f 208 209 212

usemtl m459
f 208 212 213

usemtl m460
f 208 213 214

usemtl m461
f 208 214 213

usemtl m462
f 208 213 212

usemtl m463
f 208 212 209

usemtl m464
f 209 212 215

usemtl m465
f 209 215 212

usemtl m466
f 212 215 216

usemtl m467
f 212 216 215

usemtl m468
f 215 216 217

usemtl m469
f 215 217 216

usemtl m470
f 216 217 182

usemtl m471
f 216 182 181

usemtl m472
f 216 181 218

usemtl m473
f 216 218 212

usemtl m474
f 216 212 218

usemtl m475
f 216 218 181

usemtl m476
f 216 181 182

usemtl m477
f 216 182 217

usemtl m478
f 217 182 174

usemtl m479
f 217 174 167

usemtl m480
f 217 167 219

usemtl m481
f 217 219 215

usemtl m482
f 217 215 219

usemtl m483
f 217 219 167

usemtl m484
f 217 167 174

usemtl m485
f 217 174 182

usemtl m486
f 182 174 173

usemtl m487
f 182 173 174

usemtl m488
f 173 182 177

usemtl m489
f 173 177 182

usemtl m490
f 220 145 137

usemtl m491
f 220 137 134

usemtl m492
f 220 134 130

usemtl m493
f 220 130 131

usemtl m494
f 220 131 130

usemtl m495
f 220 130 134

usemtl m496
f 220 134 137

usemtl m497
f 220 137 145

usemtl m498
f 220 145 221

usemtl m499
f 220 221 131

usemtl m500
f 220 131 221

usemtl m501
f 220 221 145

usemtl m502
f 145 221 153

usemtl m503
f 145 153 221

usemtl m504
f 221 153 222

usemtl m505
f 221 222 153

usemtl m506
f 153 222 152

usemtl m507
f 153 152 222

usemtl m508
f 222 152 223

usemtl m509
f 222 223 224

usemtl m510
f 222 224 225

usemtl m511
f 222 225 221

usemtl m512
f 222 221 225

usemtl m513
f 222 225 224

usemtl m514
f 222 224 223

usemtl m515
f 222 223 152

usemtl m516
f 152 223 156

usemtl m517
f 152 156 223

usemtl m518
f 223 156 226

usemtl m519
f 223 226 227

usemtl m520
f 223 227 226

usemtl m521
f 223 226 156

usemtl m522
f 156 226 159

usemtl m523
f 156 159 226

usemtl m524
f 226 159 228

usemtl m525
f 226 228 229

usemtl m526
f 226 229 227

usemtl m527
f 226 227 229

usemtl m528
f 226 229 228

usemtl m529
f 226 228 159

usemtl m530
f 159 228 162

usemtl m531
f 159 162 158

usemtl m532
f 159 158 162

usemtl m533
f 159 162 228

usemtl m534
f 228 162 230

usemtl m535
f 228 230 162

usemtl m536
f 162 230 168

usemtl m537
f 162 168 230

usemtl m538
f 230 168 107

usemtl m539
f 230 107 168

usemtl m540
f 107 230 231

usemtl m541
f 107 231 230

usemtl m542
f 230 231 228

usemtl m543
f 230 228 231

usemtl m544
f 231 228 229

usemtl m545
f 231 229 228

usemtl m546
f 229 231 232

usemtl m547
f 229 232 233

usemtl m548
f 229 233 232

usemtl m549
f 229 232 231

usemtl m550
f 231 232 107

usemtl m551
f 231 107 232

usemtl m552
f 232 107 234

usemtl m553
f 232 234 107

usemtl m554
f 107 234 235

usemtl m555
f 107 235 236

usemtl m556
f 107 236 235

usemtl m557
f 107 235 234

usemtl m558
f 234 235 237

usemtl m559
f 234 237 235

usemtl m560
f 235 237 238

usemtl m561
f 235 238 236

usemtl m562
f 235 236 238

usemtl m563
f 235 238 237

usemtl m564
f 237 238 239

usemtl m565
f 237 239 238

usemtl m566
f 238 239 240

usemtl m567
f 238 240 118

usemtl m568
f 238 118 240

usemtl m569
f 238 240 239

usemtl m570
f 239 240 126

usemtl m571
f 239 126 241

usemtl m572
f 239 241 242

usemtl m573
f 239 242 241

usemtl m574
f 239 241 126

usemtl m575
f 239 126 240

usemtl m576
f 240 126 120

usemtl m577
f 240 120 126

usemtl m578
f 126 120 122

usemtl m579
f 126 122 120

usemtl m580
f 243 244 100

usemtl m581
f 243 100 245

usemtl m582
f 243 245 246

usemtl m583
f 243 246 247

usemtl m584
f 243 247 115

usemtl m585
f 243 115 244

usemtl m586
f 243 244 115

usemtl m587
f 243 115 247

usemtl m588
f 243 247 246

usemtl m589
f 243 246 245

usemtl m590
f 243 245 100

usemtl m591
f 243 100 244

usemtl m592
f 244 100 99

usemtl m593
f 244 99 104

usemtl m594
f 244 104 99

usemtl m595
f 244 99 100

usemtl m596
f 248 249 250

usemtl m597
f 248 250 251

usemtl m598
f 248 251 252

usemtl m599
f 248 252 253

usemtl m600
f 248 253 254

usemtl m601
f 248 254 249

usemtl m602
f 249 254 255

usemtl m603
f 249 255 256

usemtl m604
f 249 256 257

usemtl m605
f 249 257 258

usemtl m606
f 249 258 250

usemtl m607
f 250 258 259

usemtl m608
f 250 259 251

usemtl m609
f 251 259 260

usemtl m610
f 251 260 261

usemtl m611
f 251 261 262

usemtl m612
f 251 262 252

usemtl m613
f 252 262 263

usemtl m614
f 252 263 253

usemtl m615
f 253 263 264

usemtl m616
f 253 264 265

usemtl m617
f 253 265 266

usemtl m618
f 253 266 254

usemtl m619
f 254 266 255

usemtl m620
f 255 266 256

usemtl m621
f 256 266 267

usemtl m622
f 256 267 268

usemtl m623
f 256 268 269

usemtl m624
f 256 269 257

usemtl m625
f 257 269 270

usemtl m626
f 257 270 271

usemtl m627
f 257 271 258

usemtl m628
f 258 271 259

usemtl m629
f 259 271 272

usemtl m630
f 259 272 273

usemtl m631
f 259 273 260

usemtl m632
f 260 273 274

usemtl m633
f 260 274 275

usemtl m634
f 260 275 276

usemtl m635
f 260 276 277

usemtl m636
f 260 277 278

usemtl m637
f 260 278 261

usemtl m638
f 261 278 262

usemtl m639
f 262 278 279

usemtl m640
f 262 279 280

usemtl m641
f 262 280 263

usemtl m642
f 263 280 264

usemtl m643
f 264 280 281

usemtl m644
f 264 281 282

usemtl m645
f 264 282 283

usemtl m646
f 264 283 265

usemtl m647
f 265 283 284

usemtl m648
f 265 284 285

usemtl m649
f 265 285 266

usemtl m650
f 266 285 267

usemtl m651
f 267 285 286

usemtl m652
f 267 286 269

usemtl m653
f 267 269 268

usemtl m654
f 240 118 117

usemtl m655
f 240 117 118

usemtl m656
f 117 240 120

usemtl m657
f 117 120 240

usemtl m658
f 287 288 289

usemtl m659
f 287 289 290

usemtl m660
f 287 290 291

usemtl m661
f 287 291 292

usemtl m662
f 287 292 288

usemtl m663
f 288 292 293

usemtl m664
f 288 293 294

usemtl m665
f 288 294 295

usemtl m666
f 288 295 289

usemtl m667
f 138 296 297

usemtl m668
f 138 297 296

usemtl m669
f 138 296 298

usemtl m670
f 138 298 296

usemtl m671
f 296 298 299

usemtl m672
f 296 299 300

usemtl m673
f 296 300 299

usemtl m674
f 296 299 298

usemtl m675
f 298 299 87

usemtl m676
f 298 87 301

usemtl m677
f 298 301 138

usemtl m678
f 298 138 301

usemtl m679
f 298 301 87

usemtl m680
f 298 87 299

usemtl m681
f 299 87 86

usemtl m682
f 299 86 302

usemtl m683
f 299 302 300

usemtl m684
f 299 300 302

usemtl m685
f 299 302 86

usemtl m686
f 299 86 87

usemtl m687
f 148 143 141

usemtl m688
f 148 141 138

usemtl m689
f 148 138 141

usemtl m690
f 148 141 143

usemtl m691
f 241 242 224

usemtl m692
f 241 224 225

usemtl m693
f 241 225 125

usemtl m694
f 241 125 126

usemtl m695
f 241 126 125

usemtl m696
f 241 125 225

usemtl m697
f 241 225 224

usemtl m698
f 241 224 242

usemtl m699
f 242 224 227

usemtl m700
f 242 227 224

usemtl m701
f 224 227 223

usemtl m702
f 224 223 227

usemtl m703
f 303 276 304

usemtl m704
f 303 304 305

usemtl m705
f 303 305 306

usemtl m706
f 303 306 307

usemtl m707
f 303 307 308

usemtl m708
f 303 308 309

usemtl m709
f 303 309 310

usemtl m710
f 303 310 311

usemtl m711
f 303 311 276

usemtl m712
f 276 311 312

usemtl m713
f 276 312 277

usemtl m714
f 277 312 313

usemtl m715
f 277 313 314

usemtl m716
f 277 314 279

usemtl m717
f 277 279 278

usemtl m718
f 275 304 276

usemtl m719
f 304 275 274

usemtl m720
f 304 274 315

usemtl m721
f 315 274 316

usemtl m722
f 316 274 317

usemtl m723
f 317 274 318

usemtl m724
f 317 318 319

usemtl m725
f 317 319 320

usemtl m726
f 320 319 284

usemtl m727
f 284 319 285

usemtl m728
f 285 319 286

usemtl m729
f 286 319 318

usemtl m730
f 286 318 272

usemtl m731
f 286 272 269

usemtl m732
f 269 272 270

usemtl m733
f 270 272 271

usemtl m734
f 172 170 321

usemtl m735
f 172 321 170

usemtl m736
f 170 321 107

usemtl m737
f 170 107 321

usemtl m738
f 321 107 322

usemtl m739
f 321 322 107

usemtl m740
f 107 322 323

usemtl m741
f 107 323 322

usemtl m742
f 322 323 324

usemtl m743
f 322 324 176

usemtl m744
f 322 176 324

usemtl m745
f 322 324 323

usemtl m746
f 323 324 103

usemtl m747
f 323 103 108

usemtl m748
f 323 108 103

usemtl m749
f 323 103 324

usemtl m750
f 324 103 98

usemtl m751
f 324 98 179

usemtl m752
f 324 179 176

usemtl m753
f 324 176 179

usemtl m754
f 324 179 98

usemtl m755
f 324 98 103

usemtl m756
f 91 101 92

usemtl m757
f 91 92 101

usemtl m758
f 91 101 96

usemtl m759
f 91 96 101

usemtl m760
f 92 101 194

usemtl m761
f 92 194 101

usemtl m762
f 101 194 245

usemtl m763
f 101 245 100

usemtl m764
f 101 100 245

usemtl m765
f 101 245 194

usemtl m766
f 194 245 193

usemtl m767
f 194 193 245

usemtl m768
f 245 193 246

usemtl m769
f 245 246 193

usemtl m770
f 193 246 199

usemtl m771
f 193 199 246

usemtl m772
f 246 199 325

usemtl m773
f 246 325 199

usemtl m774
f 199 325 129

usemtl m775
f 199 129 325

usemtl m776
f 325 129 121

usemtl m777
f 325 121 129

usemtl m778
f 129 121 123

usemtl m779
f 129 123 121

usemtl m780
f 202 200 201

usemtl m781
f 202 201 138

usemtl m782
f 202 138 201

usemtl m783
f 202 201 200

usemtl m784
f 214 208 206

usemtl m785
f 214 206 326

usemtl m786
f 214 326 297

usemtl m787
f 214 297 326

usemtl m788
f 214 326 206

usemtl m789
f 214 206 208

usemtl m790
f 327 328 329

usemtl m791
f 327 329 330

usemtl m792
f 331 332 333

usemtl m793
f 331 333 309

usemtl m794
f 331 309 308

usemtl m795
f 331 308 334

usemtl m796
f 331 334 335

usemtl m797
f 331 335 336

usemtl m798
f 331 336 332

usemtl m799
f 332 336 337

usemtl m800
f 332 337 338

usemtl m801
f 332 338 339

usemtl m802
f 332 339 333

usemtl m803
f 333 339 340

usemtl m804
f 333 340 341

usemtl m805
f 333 341 342

usemtl m806
f 333 342 343

usemtl m807
f 333 343 310

usemtl m808
f 333 310 309

usemtl m809
f 110 107 113

usemtl m810
f 110 113 107

usemtl m811
f 107 113 236

usemtl m812
f 107 236 113

usemtl m813
f 113 236 118

usemtl m814
f 113 118 236

usemtl m815
f 236 118 238

usemtl m816
f 236 238 118

usemtl m817
f 326 206 204

usemtl m818
f 326 204 138

usemtl m819
f 326 138 204

usemtl m820
f 326 204 206

usemtl m821
f 344 345 283

usemtl m822
f 344 283 341

usemtl m823
f 341 283 282

usemtl m824
f 341 282 342

usemtl m825
f 342 282 281

usemtl m826
f 342 281 346

usemtl m827
f 342 346 343

usemtl m828
f 343 346 313

usemtl m829
f 343 313 310

usemtl m830
f 310 313 311

usemtl m831
f 311 313 312

usemtl m832
f 283 345 284

usemtl m833
f 339 338 347

usemtl m834
f 339 347 348

usemtl m835
f 339 348 340

usemtl m836
f 300 302 213

usemtl m837
f 300 213 214

usemtl m838
f 300 214 297

usemtl m839
f 300 297 214

usemtl m840
f 300 214 213

usemtl m841
f 300 213 302

usemtl m842
f 302 213 218

usemtl m843
f 302 218 183

usemtl m844
f 302 183 86

usemtl m845
f 302 86 183

usemtl m846
f 302 183 218

usemtl m847
f 302 218 213

usemtl m848
f 213 218 212

usemtl m849
f 213 212 218

usemtl m850
f 349 350 351

usemtl m851
f 349 351 352

usemtl m852
f 349 352 353

usemtl m853
f 349 353 354

usemtl m854
f 349 354 355

usemtl m855
f 349 355 350

usemtl m856
f 350 355 356

usemtl m857
f 350 356 357

usemtl m858
f 350 357 358

usemtl m859
f 350 358 351

usemtl m860
f 351 358 359

usemtl m861
f 351 359 360

usemtl m862
f 351 360 352

usemtl m863
f 352 360 361

usemtl m864
f 352 361 362

usemtl m865
f 352 362 363

usemtl m866
f 352 363 353

usemtl m867
f 353 363 364

usemtl m868
f 353 364 365

usemtl m869
f 353 365 354

usemtl m870
f 354 365 334

usemtl m871
f 354 334 356

usemtl m872
f 354 356 355

usemtl m873
f 301 83 87

usemtl m874
f 301 87 83

usemtl m875
f 301 83 185

usemtl m876
f 301 185 83

usemtl m877
f 185 301 138

usemtl m878
f 185 138 366

usemtl m879
f 185 366 184

usemtl m880
f 185 184 366

usemtl m881
f 185 366 138

usemtl m882
f 185 138 301

usemtl m883
f 367 219 215

usemtl m884
f 367 215 209

usemtl m885
f 367 209 215

usemtl m886
f 367 215 219

usemtl m887
f 367 219 157

usemtl m888
f 367 157 219

usemtl m889
f 219 157 160

usemtl m890
f 219 160 167

usemtl m891
f 219 167 160

usemtl m892
f 219 160 157

usemtl m893
f 187 194 92

usemtl m894
f 187 92 194

usemtl m895
f 368 369 370

usemtl m896
f 368 370 371

usemtl m897
f 368 371 293

usemtl m898
f 368 293 292

usemtl m899
f 368 292 369

usemtl m900
f 369 292 372

usemtl m901
f 369 372 373

usemtl m902
f 369 373 374

usemtl m903
f 369 374 375

usemtl m904
f 369 375 370

usemtl m905
f 370 375 376

usemtl m906
f 370 376 377

usemtl m907
f 370 377 371

usemtl m908
f 371 377 378

usemtl m909
f 371 378 379

usemtl m910
f 371 379 293

usemtl m911
f 293 379 294

usemtl m912
f 294 379 380

usemtl m913
f 294 380 381

usemtl m914
f 294 381 382

usemtl m915
f 294 382 295

usemtl m916
f 337 336 363

usemtl m917
f 337 363 383

usemtl m918
f 337 383 384

usemtl m919
f 337 384 338

usemtl m920
f 338 384 385

usemtl m921
f 338 385 347

usemtl m922
f 347 385 386

usemtl m923
f 347 386 348

usemtl m924
f 348 386 387

usemtl m925
f 387 386 388

usemtl m926
f 387 388 389

usemtl m927
f 389 388 290

usemtl m928
f 389 290 289

usemtl m929
f 363 336 364

usemtl m930
f 364 336 365

usemtl m931
f 365 336 335

usemtl m932
f 365 335 334

usemtl m933
f 388 390 373

usemtl m934
f 388 373 391

usemtl m935
f 388 391 290

usemtl m936
f 290 391 291

usemtl m937
f 291 391 392

usemtl m938
f 291 392 372

usemtl m939
f 291 372 292

usemtl m940
f 373 390 374

usemtl m941
f 374 390 393

usemtl m942
f 374 393 375

usemtl m943
f 375 393 394

usemtl m944
f 375 394 376

usemtl m945
f 376 394 395

usemtl m946
f 376 395 360

usemtl m947
f 376 360 377

usemtl m948
f 377 360 359

usemtl m949
f 377 359 378

usemtl m950
f 378 359 358

usemtl m951
f 378 358 379

usemtl m952
f 379 358 380

usemtl m953
f 380 358 357

usemtl m954
f 380 357 306

usemtl m955
f 380 306 381

usemtl m956
f 381 306 305

usemtl m957
f 381 305 382

usemtl m958
f 196 195 201

usemtl m959
f 196 201 195

usemtl m960
f 201 196 138

usemtl m961
f 201 138 196

usemtl m962
f 196 138 197

usemtl m963
f 196 197 138

usemtl m964
f 138 197 189

usemtl m965
f 138 189 197

usemtl m966
f 197 189 188

usemtl m967
f 197 188 189

usemtl m968
f 210 154 150

usemtl m969
f 210 150 211

usemtl m970
f 210 211 150

usemtl m971
f 210 150 154

usemtl m972
f 210 154 367

usemtl m973
f 210 367 209

usemtl m974
f 210 209 367

usemtl m975
f 210 367 154

usemtl m976
f 154 367 157

usemtl m977
f 154 157 367

usemtl m978
f 247 115 114

usemtl m979
f 247 114 119

usemtl m980
f 247 119 114

usemtl m981
f 247 114 115

usemtl m982
f 144 153 145

usemtl m983
f 144 145 153

usemtl m984
f 237 234 233

usemtl m985
f 237 233 242

usemtl m986
f 237 242 233

usemtl m987
f 237 233 234

usemtl m988
f 234 233 232

usemtl m989
f 234 232 233

usemtl m990
f 318 274 273

usemtl m991
f 318 273 272

usemtl m992
f 167 163 160

usemtl m993
f 167 160 163

usemtl m994
f 133 132 139

usemtl m995
f 133 139 132

usemtl m996
f 132 139 135

usemtl m997
f 132 135 139

usemtl m998
f 166 165 169

usemtl m999
f 166 169 165

usemtl m1000
f 169 166 171

usemtl m1001
f 169 171 166

usemtl m1002
f 166 171 174

usemtl m1003
f 166 174 167

usemtl m1004
f 166 167 174

usemtl m1005
f 166 174 171

usemtl m1006
f 86 85 183

usemtl m1007
f 86 183 85

usemtl m1008
f 211 150 146

usemtl m1009
f 211 146 150

usemtl m1010
f 146 211 147

usemtl m1011
f 146 147 211

usemtl m1012
f 211 147 205

usemtl m1013
f 211 205 147

usemtl m1014
f 147 205 203

usemtl m1015
f 147 203 148

usemtl m1016
f 147 148 203

usemtl m1017
f 147 203 205

usemtl m1018
f 139 133 202

usemtl m1019
f 139 202 138

usemtl m1020
f 139 138 202

usemtl m1021
f 139 202 133

usemtl m1022
f 396 384 362

usemtl m1023
f 396 362 397

usemtl m1024
f 396 397 398

usemtl m1025
f 396 398 399

usemtl m1026
f 396 399 385

usemtl m1027
f 396 385 384

usemtl m1028
f 362 384 383

usemtl m1029
f 362 383 363

usemtl m1030
f 136 137 140

usemtl m1031
f 136 140 137

usemtl m1032
f 116 106 104

usemtl m1033
f 116 104 244

usemtl m1034
f 116 244 104

usemtl m1035
f 116 104 106

usemtl m1036
f 116 106 109

usemtl m1037
f 116 109 106

usemtl m1038
f 388 386 390

usemtl m1039
f 390 386 399

usemtl m1040
f 390 399 393

usemtl m1041
f 393 399 398

usemtl m1042
f 393 398 394

usemtl m1043
f 394 398 400

usemtl m1044
f 394 400 395

usemtl m1045
f 395 400 361

usemtl m1046
f 395 361 360

usemtl m1047
f 362 361 397

usemtl m1048
f 397 361 400

usemtl m1049
f 397 400 398

usemtl m1050
f 399 386 385

usemtl m1051
f 313 346 314

usemtl m1052
f 314 346 281

usemtl m1053
f 314 281 279

usemtl m1054
f 279 281 280

usemtl m1055
f 297 300 296

usemtl m1056
f 297 296 300

usemtl m1057
f 307 306 357

usemtl m1058
f 307 357 356

usemtl m1059
f 307 356 308

usemtl m1060
f 308 356 334

usemtl m1061
f 102 108 103

usemtl m1062
f 102 103 108

usemtl m1063
f 102 108 105

usemtl m1064
f 102 105 108

usemtl m1065
f 179 176 175

usemtl m1066
f 179 175 176

usemtl m1067
f 401 402 403

usemtl m1068
f 401 403 404

usemtl m1069
f 242 237 239

usemtl m1070
f 242 239 237

usemtl m1071
f 218 181 183

usemtl m1072
f 218 183 181

usemtl m1073
f 244 116 115

usemtl m1074
f 244 115 116

usemtl m1075
f 161 168 162

usemtl m1076
f 161 162 168

usemtl m1077
f 161 168 164

usemtl m1078
f 161 164 168

usemtl m1079
f 323 107 108

usemtl m1080
f 323 108 107

usemtl m1081
f 131 225 125

usemtl m1082
f 131 125 225

usemtl m1083
f 131 225 221

usemtl m1084
f 131 221 225

usemtl m1085
f 138 189 366

usemtl m1086
f 138 366 189

usemtl m1087
f 189 366 186

usemtl m1088
f 189 186 366

usemtl m1089
f 366 186 184

usemtl m1090
f 366 184 186

usemtl m1091
f 178 179 94

usemtl m1092
f 178 94 179

usemtl m1093
f 179 94 98

usemtl m1094
f 179 98 94

usemtl m1095
f 326 297 138

usemtl m1096
f 326 138 297

usemtl m1097
f 199 129 198

usemtl m1098
f 199 198 129

usemtl m1099
f 129 198 128

usemtl m1100
f 129 128 198

usemtl m1101
f 246 247 325

usemtl m1102
f 246 325 247

usemtl m1103
f 247 325 119

usemtl m1104
f 247 119 325

usemtl m1105
f 325 119 121

usemtl m1106
f 325 121 119

usemtl m1107
f 176 321 172

usemtl m1108
f 176 172 321

usemtl m1109
f 176 321 322

usemtl m1110
f 176 322 321

usemtl m1111
f 405 406 407

usemtl m1112
f 405 407 408

usemtl m1113
f 227 233 242

usemtl m1114
f 227 242 233

usemtl m1115
f 227 233 229

usemtl m1116
f 227 229 233

usemtl m1117
f 391 373 392

usemtl m1118
f 392 373 372

