mtllib 40793.mtl
o runescapemodel
v -96 128 56
v -96 128 40
v -96 96 40
v -96 36 40
v -96 36 56
v -80 96 56
v -80 128 56
v 80 96 56
v 80 128 56
v 96 128 56
v 80 36 56
v 96 36 56
v 96 96 40
v 96 128 40
v 96 96 -24
v 96 128 -24
v 96 128 -40
v 96 36 -24
v 96 36 -40
v 80 96 -40
v 80 128 -40
v -80 96 -40
v -80 128 -40
v -96 128 -40
v -80 36 -40
v -96 36 -40
v -96 96 -24
v -96 128 -24
v -80 36 56
v -80 96 40
v -80 36 40
v -84 0 44
v -92 0 44
v -92 0 52
v -84 0 52
v -96 36 -24
v -80 96 -24
v -80 36 -24
v -84 0 -28
v -84 0 -36
v -92 0 -36
v -92 0 -28
v 96 36 40
v 80 96 40
v 80 36 40
v 84 0 44
v 84 0 52
v 92 0 52
v 92 0 44
v 80 36 -40
v 80 96 -24
v 80 36 -24
v 84 0 -28
v 92 0 -28
v 92 0 -36
v 84 0 -36
v -104 128 -48
v -104 128 64
v -104 136 64
v -104 136 -48
v 104 128 -48
v 104 136 -48
v 104 128 64
v 104 136 64
v -64 108 56
v -64 116 56
v -72 112 56
v -24 108 56
v -24 116 56
v -16 112 56
v 24 108 56
v 24 116 56
v 16 112 56
v 64 108 56
v 64 116 56
v 72 112 56
v 8 110 56
v 0 106 56
v 0 102 56
v 12 108 56
v 8 122 56
v 4 122 56
v -12 108 56
v -8 110 56
v -4 122 56
v -8 122 56
v -76 124 56
v -76 100 56
v 76 100 56
v 76 124 56
v -44 136 -28
v -44 136 -20
v -48 216 -16
v -48 216 -32
v -36 136 -28
v -32 216 -32
v -36 136 -20
v -32 216 -16
v 36 136 -28
v 36 136 -20
v 32 216 -16
v 32 216 -32
v 44 136 -28
v 48 216 -32
v 44 136 -20
v 48 216 -16
v -24 212 -29
v -24 151 -10
v 24 151 -10
v 24 212 -29
v 28 216 -30
v -28 216 -30
v -28 147 -9
v 28 147 -9
v 28 145 -17
v 28 214 -38
v -28 214 -38
v -28 145 -17
v 28 180 -24
v 28 176 -24
v 36 176 -24
v 36 180 -24
v 28 180 -28
v 28 176 -28
v 36 176 -28
v 36 180 -28
v -36 180 -24
v -36 176 -24
v -28 176 -24
v -28 180 -24
v -36 180 -28
v -36 176 -28
v -28 176 -28
v -28 180 -28
vn -768 0 -512
vn -512 0 0
vn -1024 0 512
vn -766 84 765
vn -765 84 -766
vn 256 0 -1024
vn 0 0 -768
vn -512 0 -1024
vn 0 0 -512
vn 512 0 -768
vn -765 84 -766
vn 766 84 -765
vn 1024 0 256
vn 768 0 0
vn 1024 0 -512
vn 512 0 0
vn 768 0 512
vn 766 84 -765
vn 765 84 766
vn -256 0 1024
vn 0 0 768
vn 512 0 1024
vn 0 0 512
vn -512 0 768
vn 765 84 766
vn -766 84 765
vn -1024 0 -256
vn -768 0 0
vn 766 84 -765
vn 512 0 256
vn 765 84 766
vn 255 84 509
vn -509 84 255
vn -255 84 -509
vn 509 84 -255
vn -765 84 -766
vn 256 0 -512
vn 766 84 -765
vn 509 84 -255
vn 255 84 509
vn -509 84 255
vn -255 84 -509
vn 765 84 766
vn -256 0 512
vn -766 84 765
vn -509 84 255
vn -255 84 -509
vn 509 84 -255
vn 255 84 509
vn -766 84 765
vn -512 0 -256
vn -765 84 -766
vn -255 84 -509
vn 509 84 -255
vn 255 84 509
vn -509 84 255
vn -512 0 256
vn -256 0 -512
vn -512 -256 -256
vn -256 -512 512
vn 256 0 512
vn 512 -256 256
vn 512 0 -256
vn 256 -512 -512
vn 0 0 -512
vn 0 0 -768
vn 0 0 -256
vn 0 0 -768
vn 0 0 -512
vn 0 0 -256
vn 0 0 -512
vn 0 0 -768
vn 0 0 -256
vn 0 0 -768
vn 0 0 -512
vn 0 0 -256
vn 0 0 -1024
vn 0 0 -768
vn 0 0 -768
vn 0 0 -512
vn 0 0 -512
vn 0 0 -256
vn 0 0 -1024
vn 0 0 -512
vn 0 0 -512
vn 0 0 -256
vn 0 0 -512
vn 0 0 -256
vn 0 0 -512
vn 0 0 -256
vn -511 36 256
vn -256 36 -511
vn -511 -220 -255
vn -255 -476 511
vn 256 36 511
vn 511 -220 255
vn 511 36 -256
vn 255 -476 -511
vn -511 36 256
vn -256 36 -511
vn -511 -220 -255
vn -255 -476 511
vn 256 36 511
vn 511 -220 255
vn 511 36 -256
vn 255 -476 -511
vn 15 -352 -1230
vn 2 -350 -1231
vn 15 -290 -981
vn 2 -288 -982
vn 499 -446 -681
vn -254 -708 -614
vn -525 112 -556
vn 258 222 -1111
vn 512 322 182
vn 256 -348 612
vn -512 -174 306
vn -256 644 364
vn -256 -256 -512
vn -512 512 -256
vn 256 256 -512
vn 512 -512 -256
vn -512 -512 256
vn -256 256 512
vn 512 512 256
vn 256 -256 512
vn -256 -256 -512
vn -512 512 -256
vn 256 256 -512
vn 512 -512 -256
vn -512 -512 256
vn -256 256 512
vn 512 512 256
vn 256 -256 512
usemtl m0
f 1 2 3

usemtl m1
f 1 3 4

usemtl m2
f 1 4 5

usemtl m3
f 1 5 6

usemtl m4
f 1 6 7

usemtl m5
f 7 6 8

usemtl m6
f 7 8 9

usemtl m7
f 9 8 10

usemtl m8
f 10 8 11

usemtl m9
f 10 11 12

usemtl m10
f 10 12 13

usemtl m11
f 10 13 14

usemtl m12
f 14 13 15

usemtl m13
f 14 15 16

usemtl m14
f 16 15 17

usemtl m15
f 17 15 18

usemtl m16
f 17 18 19

usemtl m17
f 17 19 20

usemtl m18
f 17 20 21

usemtl m19
f 21 20 22

usemtl m20
f 21 22 23

usemtl m21
f 23 22 24

usemtl m22
f 24 22 25

usemtl m23
f 24 25 26

usemtl m24
f 24 26 27

usemtl m25
f 24 27 28

usemtl m26
f 28 27 3

usemtl m27
f 28 3 2

usemtl m28
f 5 29 6

usemtl m29
f 6 29 30

usemtl m30
f 30 29 31

usemtl m31
f 30 31 3

usemtl m32
f 3 31 4

usemtl m33
f 4 31 32

usemtl m34
f 4 32 33

usemtl m35
f 4 33 5

usemtl m36
f 5 33 34

usemtl m37
f 5 34 29

usemtl m38
f 29 34 35

usemtl m39
f 29 35 31

usemtl m40
f 31 35 32

usemtl m41
f 27 26 36

usemtl m42
f 27 36 37

usemtl m43
f 37 36 38

usemtl m44
f 37 38 22

usemtl m45
f 22 38 25

usemtl m46
f 25 38 39

usemtl m47
f 25 39 40

usemtl m48
f 25 40 26

usemtl m49
f 26 40 41

usemtl m50
f 26 41 36

usemtl m51
f 36 41 42

usemtl m52
f 36 42 38

usemtl m53
f 38 42 39

usemtl m54
f 13 12 43

usemtl m55
f 13 43 44

usemtl m56
f 44 43 45

usemtl m57
f 44 45 8

usemtl m58
f 8 45 11

usemtl m59
f 11 45 46

usemtl m60
f 11 46 47

usemtl m61
f 11 47 12

usemtl m62
f 12 47 48

usemtl m63
f 12 48 43

usemtl m64
f 43 48 49

usemtl m65
f 43 49 45

usemtl m66
f 45 49 46

usemtl m67
f 19 50 20

usemtl m68
f 20 50 51

usemtl m69
f 51 50 52

usemtl m70
f 51 52 15

usemtl m71
f 15 52 18

usemtl m72
f 18 52 53

usemtl m73
f 18 53 54

usemtl m74
f 18 54 19

usemtl m75
f 19 54 55

usemtl m76
f 19 55 50

usemtl m77
f 50 55 56

usemtl m78
f 50 56 52

usemtl m79
f 52 56 53

usemtl m80
f 57 58 59

usemtl m81
f 57 59 60

usemtl m82
f 57 60 61

usemtl m83
f 61 60 62

usemtl m84
f 61 62 63

usemtl m85
f 63 62 64

usemtl m86
f 63 64 58

usemtl m87
f 58 64 59

usemtl m88
f 59 64 60

usemtl m89
f 60 64 62

usemtl m90
f 65 66 67

usemtl m91
f 66 65 68

usemtl m92
f 66 68 69

usemtl m93
f 69 68 70

usemtl m94
f 71 72 73

usemtl m95
f 72 71 74

usemtl m96
f 72 74 75

usemtl m97
f 75 74 76

usemtl m98
f 77 78 79

usemtl m99
f 77 79 80

usemtl m100
f 77 80 81

usemtl m101
f 77 81 82

usemtl m102
f 83 79 78

usemtl m103
f 83 78 84

usemtl m104
f 83 84 85

usemtl m105
f 83 85 86

usemtl m106
f 87 88 89

usemtl m107
f 87 89 90

usemtl m108
f 91 92 93

usemtl m109
f 91 93 94

usemtl m110
f 91 94 95

usemtl m111
f 95 94 96

usemtl m112
f 95 96 97

usemtl m113
f 97 96 98

usemtl m114
f 97 98 92

usemtl m115
f 92 98 93

usemtl m116
f 93 98 94

usemtl m117
f 94 98 96

usemtl m118
f 99 100 101

usemtl m119
f 99 101 102

usemtl m120
f 99 102 103

usemtl m121
f 103 102 104

usemtl m122
f 103 104 105

usemtl m123
f 105 104 106

usemtl m124
f 105 106 100

usemtl m125
f 100 106 101

usemtl m126
f 101 106 102

usemtl m127
f 102 106 104

usemtl m128
f 107 108 109

usemtl m129
f 107 109 110

usemtl m130
f 107 110 111

usemtl m131
f 107 111 112

usemtl m132
f 107 112 108

usemtl m133
f 108 112 113

usemtl m134
f 108 113 114

usemtl m135
f 108 114 109

usemtl m136
f 109 114 110

usemtl m137
f 110 114 111

usemtl m138
f 111 114 115

usemtl m139
f 111 115 116

usemtl m140
f 111 116 112

usemtl m141
f 112 116 117

usemtl m142
f 112 117 113

usemtl m143
f 113 117 118

usemtl m144
f 113 118 114

usemtl m145
f 114 118 115

usemtl m146
f 115 118 116

usemtl m147
f 116 118 117

usemtl m148
f 119 120 121

usemtl m149
f 119 121 122

usemtl m150
f 119 122 123

usemtl m151
f 119 123 120

usemtl m152
f 120 123 124

usemtl m153
f 120 124 125

usemtl m154
f 120 125 121

usemtl m155
f 121 125 122

usemtl m156
f 122 125 126

usemtl m157
f 122 126 123

usemtl m158
f 123 126 124

usemtl m159
f 124 126 125

usemtl m160
f 127 128 129

usemtl m161
f 127 129 130

usemtl m162
f 127 130 131

usemtl m163
f 127 131 128

usemtl m164
f 128 131 132

usemtl m165
f 128 132 133

usemtl m166
f 128 133 129

usemtl m167
f 129 133 130

usemtl m168
f 130 133 134

usemtl m169
f 130 134 131

usemtl m170
f 131 134 132

usemtl m171
f 132 134 133

