newmtl m0
Kd 0.592156862745098 0.058823529411764705 0.023529411764705882
newmtl m1
Kd 0.592156862745098 0.058823529411764705 0.023529411764705882
newmtl m2
Kd 0.592156862745098 0.058823529411764705 0.023529411764705882
newmtl m3
Kd 0.592156862745098 0.058823529411764705 0.023529411764705882
newmtl m4
Kd 0.592156862745098 0.058823529411764705 0.023529411764705882
newmtl m5
Kd 0.592156862745098 0.058823529411764705 0.023529411764705882
newmtl m6
Kd 0.592156862745098 0.058823529411764705 0.023529411764705882
newmtl m7
Kd 0.592156862745098 0.058823529411764705 0.023529411764705882
newmtl m8
Kd 0.592156862745098 0.058823529411764705 0.023529411764705882
newmtl m9
Kd 0.592156862745098 0.058823529411764705 0.023529411764705882
newmtl m10
Kd 0.592156862745098 0.058823529411764705 0.023529411764705882
newmtl m11
Kd 0.592156862745098 0.058823529411764705 0.023529411764705882
newmtl m12
Kd 0.592156862745098 0.058823529411764705 0.023529411764705882
newmtl m13
Kd 0.592156862745098 0.058823529411764705 0.023529411764705882
newmtl m14
Kd 0.592156862745098 0.058823529411764705 0.023529411764705882
newmtl m15
Kd 0.592156862745098 0.058823529411764705 0.023529411764705882
newmtl m16
Kd 0.592156862745098 0.058823529411764705 0.023529411764705882
newmtl m17
Kd 0.592156862745098 0.058823529411764705 0.023529411764705882
newmtl m18
Kd 0.592156862745098 0.058823529411764705 0.023529411764705882
newmtl m19
Kd 0.592156862745098 0.058823529411764705 0.023529411764705882
newmtl m20
Kd 0.592156862745098 0.058823529411764705 0.023529411764705882
newmtl m21
Kd 0.592156862745098 0.058823529411764705 0.023529411764705882
newmtl m22
Kd 0.592156862745098 0.058823529411764705 0.023529411764705882
newmtl m23
Kd 0.592156862745098 0.058823529411764705 0.023529411764705882
newmtl m24
Kd 0.592156862745098 0.058823529411764705 0.023529411764705882
newmtl m25
Kd 0.592156862745098 0.058823529411764705 0.023529411764705882
newmtl m26
Kd 0.592156862745098 0.058823529411764705 0.023529411764705882
newmtl m27
Kd 0.592156862745098 0.058823529411764705 0.023529411764705882
newmtl m28
Kd 0.592156862745098 0.058823529411764705 0.023529411764705882
newmtl m29
Kd 0.592156862745098 0.058823529411764705 0.023529411764705882
newmtl m30
Kd 0.592156862745098 0.058823529411764705 0.023529411764705882
newmtl m31
Kd 0.592156862745098 0.058823529411764705 0.023529411764705882
newmtl m32
Kd 0.592156862745098 0.058823529411764705 0.023529411764705882
newmtl m33
Kd 0.592156862745098 0.058823529411764705 0.023529411764705882
newmtl m34
Kd 0.592156862745098 0.058823529411764705 0.023529411764705882
newmtl m35
Kd 0.592156862745098 0.058823529411764705 0.023529411764705882
newmtl m36
Kd 0.592156862745098 0.058823529411764705 0.023529411764705882
newmtl m37
Kd 0.592156862745098 0.058823529411764705 0.023529411764705882
newmtl m38
Kd 0.592156862745098 0.058823529411764705 0.023529411764705882
newmtl m39
Kd 0.592156862745098 0.058823529411764705 0.023529411764705882
newmtl m40
Kd 0.592156862745098 0.058823529411764705 0.023529411764705882
newmtl m41
Kd 0.592156862745098 0.058823529411764705 0.023529411764705882
newmtl m42
Kd 0.8901960784313725 0.8901960784313725 0.8705882352941177
newmtl m43
Kd 0.8901960784313725 0.8901960784313725 0.8705882352941177
newmtl m44
Kd 0.8901960784313725 0.8901960784313725 0.8705882352941177
newmtl m45
Kd 0.8901960784313725 0.8901960784313725 0.8705882352941177
newmtl m46
Kd 0.8901960784313725 0.8901960784313725 0.8705882352941177
newmtl m47
Kd 0.8901960784313725 0.8901960784313725 0.8705882352941177
newmtl m48
Kd 0.8901960784313725 0.8901960784313725 0.8705882352941177
newmtl m49
Kd 0.8901960784313725 0.8901960784313725 0.8705882352941177
newmtl m50
Kd 0.8901960784313725 0.8901960784313725 0.8705882352941177
newmtl m51
Kd 0.8901960784313725 0.8901960784313725 0.8705882352941177
newmtl m52
Kd 0.8901960784313725 0.8901960784313725 0.8705882352941177
newmtl m53
Kd 0.8901960784313725 0.8901960784313725 0.8705882352941177
newmtl m54
Kd 0.8901960784313725 0.8901960784313725 0.8705882352941177
newmtl m55
Kd 0.8901960784313725 0.8901960784313725 0.8705882352941177
newmtl m56
Kd 0.8901960784313725 0.8901960784313725 0.8705882352941177
newmtl m57
Kd 0.8901960784313725 0.8901960784313725 0.8705882352941177
newmtl m58
Kd 0.8901960784313725 0.8901960784313725 0.8705882352941177
newmtl m59
Kd 0.8901960784313725 0.8901960784313725 0.8705882352941177
newmtl m60
Kd 0.8901960784313725 0.8901960784313725 0.8705882352941177
newmtl m61
Kd 0.8901960784313725 0.8901960784313725 0.8705882352941177
newmtl m62
Kd 0.8901960784313725 0.8901960784313725 0.8705882352941177
newmtl m63
Kd 0.8901960784313725 0.8901960784313725 0.8705882352941177
newmtl m64
Kd 0.8901960784313725 0.8901960784313725 0.8705882352941177
newmtl m65
Kd 0.8901960784313725 0.8901960784313725 0.8705882352941177
newmtl m66
Kd 0.8901960784313725 0.8901960784313725 0.8705882352941177
newmtl m67
Kd 0.8901960784313725 0.8901960784313725 0.8705882352941177
newmtl m68
Kd 0.8901960784313725 0.8901960784313725 0.8705882352941177
newmtl m69
Kd 0.8901960784313725 0.8901960784313725 0.8705882352941177
newmtl m70
Kd 0.8901960784313725 0.8901960784313725 0.8705882352941177
newmtl m71
Kd 0.8901960784313725 0.8901960784313725 0.8705882352941177
newmtl m72
Kd 0.8901960784313725 0.8901960784313725 0.8705882352941177
newmtl m73
Kd 0.8901960784313725 0.8901960784313725 0.8705882352941177
newmtl m74
Kd 0.8901960784313725 0.8901960784313725 0.8705882352941177
newmtl m75
Kd 0.8901960784313725 0.8901960784313725 0.8705882352941177
newmtl m76
Kd 0.8901960784313725 0.8901960784313725 0.8705882352941177
newmtl m77
Kd 0.8901960784313725 0.8901960784313725 0.8705882352941177
