mtllib 4196.mtl
o runescapemodel
v -31 0 64
v 28 0 -48
v 13 0 -58
v -64 0 -52
v -64 0 -23
v -64 0 64
v -64 -12 64
v 64 -12 64
v 64 -12 -64
v -3 -12 -64
v -20 -12 -64
v -32 -12 -64
v -64 -12 -64
v 32 0 -32
v 54 0 -40
v 46 0 -52
v 24 0 -64
v 64 0 -64
v 40 0 -23
v 54 0 -31
v 64 0 -40
v -64 0 -68
v -64 0 -68
v -64 0 -68
v -64 0 -68
v -64 0 -68
v -64 0 -68
v -64 0 -68
v -64 0 -68
v -64 0 -68
v -64 0 -68
v -64 0 -68
v -64 0 -68
v -64 0 -68
v -64 0 -68
v -64 0 -68
v -64 0 -68
v -64 0 -68
v -64 0 -68
v -64 0 -68
v -64 0 -68
v -64 0 -68
v -64 0 -68
v -64 0 -68
v -64 0 -68
v -64 0 -68
v -64 0 -68
v -64 0 -68
v -64 0 -68
v -64 0 -68
v -64 0 -68
vn 0 -1280 0
vn 0 -1536 0
vn 0 -768 0
vn 0 -512 0
vn 0 -512 0
vn 0 -256 0
vn 0 -1280 0
vn 0 -256 0
vn 0 -512 0
vn 0 -512 0
vn 0 -512 0
vn 0 -512 0
vn 0 -256 0
vn 0 -1024 0
vn 0 -1280 0
vn 0 -1024 0
vn 0 -768 0
vn 0 -768 0
vn 0 -256 0
vn 0 -512 0
vn 0 -256 0
vn 0 0 0
vn 0 0 0
vn 0 0 0
vn 0 0 0
vn 0 0 0
vn 0 0 0
vn 0 0 0
vn 0 0 0
vn 0 0 0
vn 0 0 0
vn 0 0 0
vn 0 0 0
vn 0 0 0
vn 0 0 0
vn 0 0 0
vn 0 0 0
vn 0 0 0
vn 0 0 0
vn 0 0 0
vn 0 0 0
vn 0 0 0
vn 0 0 0
vn 0 0 0
vn 0 0 0
vn 0 0 0
vn 0 0 0
vn 0 0 0
vn 0 0 0
vn 0 0 0
vn 0 0 0
usemtl m0
f 1 2 3

usemtl m1
f 1 3 4

usemtl m2
f 1 4 5

usemtl m3
f 1 5 6

usemtl m4
f 7 8 9

usemtl m5
f 7 9 10

usemtl m6
f 7 10 11

usemtl m7
f 7 11 12

usemtl m8
f 7 12 13

usemtl m9
f 1 14 2

usemtl m10
f 2 14 15

usemtl m11
f 2 15 16

usemtl m12
f 2 16 17

usemtl m13
f 2 17 3

usemtl m14
f 16 15 18

usemtl m15
f 16 18 17

usemtl m16
f 14 19 20

usemtl m17
f 14 20 15

usemtl m18
f 15 21 18

