mtllib 42089.mtl
o runescapemodel
v -64 269 -64
v -64 269 -56
v -56 269 -56
v -56 269 -64
v -48 269 -48
v -48 269 -64
v -39 269 -39
v -39 269 -64
v -31 269 -31
v -31 269 -64
v -23 269 -23
v -23 269 -64
v 64 269 64
v 64 269 -64
v -64 269 -23
v -64 269 64
v -64 269 -31
v -64 269 -39
v -64 269 -48
v -47 16 -64
v -47 0 -64
v -64 0 -47
v -64 16 -47
v -47 32 -64
v -64 32 -47
v -47 53 -64
v -64 53 -47
v -47 75 -64
v -64 75 -47
v -47 94 -64
v -64 94 -47
v -64 244 -47
v -64 32 -47
v -64 46 -32
v -64 244 -32
v -64 260 -64
v -47 244 -64
v -47 32 -64
v -64 11 -47
v -47 11 -64
v -47 7 -64
v -64 7 -47
v -47 0 -64
v -64 0 -47
v -32 268 -32
v -64 268 -32
v -64 268 64
v 64 268 64
v 64 268 -64
v -32 268 -64
v -64 268 -64
v -32 244 -64
v -32 46 -64
vn 0 0 0
vn 0 0 0
vn 0 0 0
vn 0 0 0
vn 0 0 0
vn 0 0 0
vn 0 0 0
vn 0 0 0
vn 0 0 0
vn 0 0 0
vn 0 0 0
vn 0 0 0
vn 0 0 0
vn 0 0 0
vn 0 0 0
vn 0 0 0
vn 0 0 0
vn 0 0 0
vn 0 0 0
vn 0 0 0
vn 0 0 0
vn 0 0 0
vn 0 0 0
vn 0 0 0
vn 0 0 0
vn 0 0 0
vn 0 0 0
vn 0 0 0
vn 0 0 0
vn 0 0 0
vn 0 0 0
vn 0 0 0
vn 0 0 0
vn 0 0 0
vn 0 0 0
vn 0 0 0
vn 0 0 0
vn 0 0 0
vn 0 0 0
vn 0 0 0
vn 0 0 0
vn 0 0 0
vn 0 0 0
vn 0 0 0
vn 0 -1024 0
vn 0 -256 0
vn 0 -512 0
vn 0 -512 0
vn 0 -512 0
vn 0 -256 0
vn 0 0 0
vn 0 0 0
vn 0 0 0
usemtl m0
f 1 2 3

usemtl m1
f 1 3 4

usemtl m2
f 4 3 5

usemtl m3
f 4 5 6

usemtl m4
f 6 5 7

usemtl m5
f 6 7 8

usemtl m6
f 8 7 9

usemtl m7
f 8 9 10

usemtl m8
f 10 9 11

usemtl m9
f 10 11 12

usemtl m10
f 12 11 13

usemtl m11
f 12 13 14

usemtl m12
f 15 16 11

usemtl m13
f 15 11 9

usemtl m14
f 15 9 17

usemtl m15
f 17 9 7

usemtl m16
f 17 7 18

usemtl m17
f 18 7 5

usemtl m18
f 18 5 19

usemtl m19
f 19 5 3

usemtl m20
f 19 3 2

usemtl m21
f 11 16 13

usemtl m22
f 20 21 22

usemtl m23
f 20 22 23

usemtl m24
f 20 23 24

usemtl m25
f 24 23 25

usemtl m26
f 24 25 26

usemtl m27
f 26 25 27

usemtl m28
f 26 27 28

usemtl m29
f 28 27 29

usemtl m30
f 28 29 30

usemtl m31
f 30 29 31

usemtl m32
f 32 33 34

usemtl m33
f 32 34 35

usemtl m34
f 36 37 32

usemtl m35
f 32 37 33

usemtl m36
f 33 37 38

usemtl m37
f 33 38 39

usemtl m38
f 39 38 40

usemtl m39
f 39 40 41

usemtl m40
f 39 41 42

usemtl m41
f 42 41 43

usemtl m42
f 42 43 44

usemtl m43
f 45 46 47

usemtl m44
f 45 47 48

usemtl m45
f 45 48 49

usemtl m46
f 45 49 50

usemtl m47
f 45 50 46

usemtl m48
f 46 50 51

usemtl m49
f 38 37 52

usemtl m50
f 38 52 53

