mtllib 42126.mtl
o runescapemodel
v 48 -1 17
v 26 -1 35
v 31 -1 45
v 57 -1 24
v 60 -1 -8
v 49 -1 -10
v 40 -1 11
v 22 -1 25
v 0 -1 42
v 0 -1 52
v 0 -1 30
v -22 -1 25
v -26 -1 35
v 0 -1 -20
v -40 -1 11
v -48 -1 17
v -57 -1 24
v -31 -1 44
v 22 -1 -65
v 0 -1 -71
v 40 -1 -51
v 49 -1 -58
v 26 -1 -75
v 0 -1 -82
v -22 -1 -65
v -40 -1 -51
v -49 -1 -32
v -49 -1 -10
v -60 -1 -8
v -71 -1 -6
v -60 -1 -34
v -71 -1 -37
v -48 -1 -58
v -57 -1 -64
v 49 -1 -32
v 60 -1 -34
v 71 -1 -37
v 57 -1 -64
v 31 -1 -85
v 0 -1 -93
v -26 -1 -75
v 71 -1 -6
v -32 -1 -85
v 33 161 -30
v 28 166 -54
v 19 144 -78
v 33 134 -8
v 79 134 -49
v 48 172 -54
v 29 172 -54
v 4 154 -3
v 7 129 -5
v 11 129 -49
v 16 118 -80
v 31 96 -35
v 47 87 12
v 79 110 -8
v 78 86 -37
v 55 104 -80
v 55 144 -80
v 2 127 -55
v -4 171 -68
v -23 166 -55
v -4 154 -3
v -6 130 -5
v -6 130 -43
v -22 171 -50
v 29 176 -47
v 0 163 0
v -19 123 -7
v -9 120 -64
v -14 137 -62
v -21 158 -28
v -22 171 -1
v -39 180 -54
v 37 182 -53
v 0 161 -19
v 29 176 -1
v 0 170 9
v 0 176 23
v -39 180 4
v -54 194 -47
v 1 194 -48
v 51 194 -45
v 35 182 9
v 43 34 -13
v 66 36 -18
v 52 46 -12
v 33 55 -12
v 35 22 -19
v 45 27 -16
v 50 22 -19
v 60 22 -19
v 67 27 -25
v 66 39 -55
v 76 44 -18
v 74 63 -50
v 38 75 -45
v 21 51 -21
v 28 20 -25
v 31 10 -25
v 36 10 -19
v -117 55 -33
v -112 49 -30
v -114 68 -23
v -119 67 -37
v -78 63 -33
v -83 55 -23
v -109 56 -21
v -102 72 -16
v -112 86 -21
v -109 96 -38
v -95 73 -43
v -81 68 -37
v -74 79 -21
v -85 61 -18
v -80 77 -16
v -102 80 -19
v -83 96 -18
v -83 103 -13
v -107 94 -21
v -102 110 -42
v -85 104 -38
v -80 77 -42
v 15 258 64
v 3 245 64
v 12 245 64
v 15 239 64
v 22 258 52
v 16 264 57
v -16 264 57
v -15 258 64
v -2 247 64
v 3 241 64
v 12 241 64
v 6 235 64
v 10 232 64
v 15 227 64
v 22 232 52
v 22 235 52
v 22 242 52
v 22 239 33
v 22 258 29
v 16 264 26
v -16 264 26
v -22 258 52
v -15 241 64
v -13 250 64
v -4 241 64
v -6 235 64
v -6 206 76
v -6 219 76
v -17 219 72
v -17 212 72
v -17 210 61
v -6 204 65
v 6 204 65
v 6 206 76
v 6 219 76
v -5 224 64
v -12 227 72
v -15 226 64
v -31 227 47
v -31 219 50
v -29 215 50
v 29 215 50
v 17 210 61
v 100 92 -13
v 100 101 -18
v 83 89 -18
v 91 80 -13
v 109 80 -13
v 117 92 -18
v 100 108 -37
v 83 94 -42
v 81 63 -31
v 81 63 -19
v 86 68 -14
v 112 67 -16
v 121 75 -18
v 121 75 -31
v 117 99 -42
v 114 111 -23
v 100 99 -7
v 84 106 -21
v 100 113 -40
v 110 132 -25
v 105 142 -13
v 86 123 -28
v 100 127 -37
v 100 147 -43
v 119 168 -28
v 112 191 -12
v 84 195 0
v 90 142 -13
v 86 123 -13
v 74 151 -33
v -56 214 4
v -54 190 9
v -22 206 28
v -25 242 20
v -56 238 0
v -56 233 -48
v -20 185 33
v 20 187 33
v 22 206 28
v 18 214 26
v -15 214 26
v -15 218 25
v -15 235 21
v 15 235 21
v 25 242 20
v 37 269 13
v -30 266 10
v -42 250 -52
v -13 233 -55
v 51 235 -45
v 51 194 14
v -22 234 50
v -22 238 33
v -29 231 47
v -22 231 50
v -22 235 52
v -22 239 33
v -15 235 24
v -25 232 29
v -29 234 35
v -15 227 64
v -22 232 52
v -15 239 64
v -22 242 52
v -22 258 29
v -15 258 19
v 16 235 24
v 15 219 28
v -15 219 28
v -25 222 31
v -31 220 36
v -29 216 36
v 29 216 36
v 31 220 36
v 31 219 50
v 17 212 72
v 90 73 -42
v 114 58 -31
v 114 58 -25
v -78 198 -30
v -69 184 -40
v -86 191 -28
v -80 184 -3
v -69 200 -23
v -76 208 -33
v -69 191 -33
v -59 176 -33
v -74 189 -55
v -62 166 -35
v -76 177 -61
v -95 193 -55
v -114 196 -18
v -97 191 -1
v -85 166 -7
v -90 142 -13
v -62 146 -38
v -100 156 -61
v -117 174 -21
v -119 163 -23
v -121 147 -26
v -109 125 -19
v -105 103 -7
v -80 129 -31
v -95 125 -42
v -100 146 -61
v 102 198 -49
v 76 183 -61
v 71 198 -49
v 98 165 -61
v 57 177 -35
v 71 201 -40
v 76 203 -31
v 71 212 -25
v 72 174 -5
v 64 203 -31
v 55 238 -33
v 64 250 -45
v 66 244 -21
v 51 216 11
v 37 255 -47
v 76 250 -33
v -18 8 -25
v -23 8 -19
v -19 0 -10
v -19 0 -25
v -19 0 -43
v -16 15 -47
v -14 15 -25
v -21 22 -19
v -43 8 -19
v -26 5 -12
v -47 5 -12
v -56 0 -10
v -56 0 -25
v -56 0 -43
v -50 8 -47
v -52 20 -50
v -13 20 -50
v -13 68 -59
v -21 58 -12
v -43 43 -12
v -57 32 -13
v -47 22 -19
v -50 8 -25
v -10 232 64
v -10 231 64
v -5 225 64
v 15 252 -76
v 8 232 -76
v 11 250 -58
v 35 276 -52
v 46 285 -64
v 35 242 -77
v 39 202 -67
v 29 197 -53
v 1 228 -57
v 42 220 -50
v 56 261 -47
v 66 269 -64
v 51 216 -67
v 22 234 50
v 22 231 50
v 29 231 47
v 22 238 33
v 12 227 72
v 5 224 64
v 17 219 72
v 15 226 64
v 10 231 64
v 5 225 64
v 16 258 19
v 25 232 29
v 25 222 31
v 15 218 25
v -68 60 -16
v -37 60 -10
v -37 63 -10
v -71 68 -16
v -59 80 -50
v -62 63 -50
v -69 49 -12
v -37 56 -10
v -28 77 -42
v -26 86 -42
v -23 94 -42
v -40 75 5
v -64 79 5
v -56 92 -49
v -25 153 -16
v -42 156 -16
v -71 111 0
v 76 72 -43
v 72 53 -14
v 35 82 -40
v 71 68 -13
v 36 60 -12
v 74 51 -62
v 21 51 -62
v 41 72 -13
v 71 84 12
v -52 20 -25
v -57 32 -57
v -66 37 -19
v -69 207 -40
v -70 244 -40
v -62 208 -33
v -61 198 -30
v -78 239 -31
v -70 244 -23
v -60 238 -35
v -69 210 -26
v -45 137 -62
v -35 159 -28
v 29 234 35
v 31 227 47
v -78 115 -42
v -44 233 -69
v -68 214 -60
v -80 250 -52
v -42 266 -64
v -23 250 -71
v -10 201 -67
v -47 201 -62
v -59 216 -52
v -70 245 -43
v -44 255 -52
v -30 244 -59
v -17 206 -59
v -41 206 -55
v -116 106 -28
v 26 36 -54
v 67 25 -52
v 31 10 -47
v 67 10 -25
v 67 6 -47
v 31 0 -43
v 41 5 -12
v 52 10 -19
v 60 10 -19
v 31 0 -25
v 31 0 -10
v 57 5 -12
v 67 0 -10
v 67 0 -25
v 67 0 -43
v 51 238 5
v 59 68 -28
v 55 65 -28
v 62 65 -28
v -69 189 -28
v -71 188 -28
v -68 188 -28
v -97 101 -28
v -99 98 -28
v -95 98 -28
v 0 231 -18
v -2 227 -18
v 4 227 -18
v 0 166 -35
v -2 163 -35
v 4 163 -35
v -40 68 -28
v -43 65 -28
v -37 65 -28
v 71 189 -28
v 69 188 -28
v 72 188 -28
v -28 147 -28
v -31 144 -28
v -25 144 -28
v 50 12 -35
v 47 8 -35
v 54 8 -35
v 0 244 -12
v -2 241 -12
v 3 241 -12
v 0 184 -31
v -2 181 -31
v 4 181 -31
v 0 215 -23
v -2 212 -23
v 4 212 -23
v 100 101 -28
v 98 98 -28
v 102 98 -28
v 66 241 -31
v 64 239 -31
v 67 239 -31
v 0 156 -35
v -2 153 -35
v 4 153 -35
v -33 12 -35
v -37 8 -35
v -30 8 -35
v -69 241 -31
v -71 239 -31
v -68 239 -31
v 41 147 -35
v 38 144 -35
v 45 144 -35
v 0 229 23
v -2 226 23
v 3 226 23
v 0 229 26
v -2 226 26
v 3 226 26
v 25 274 -47
v 19 282 3
vn 0 -1536 0
vn 0 -1536 0
vn 0 -768 0
vn 0 -768 0
vn 0 -1536 0
vn 0 -1280 0
vn 0 -1280 0
vn 0 -1280 0
vn 0 -1536 0
vn 0 -768 0
vn 0 -1280 0
vn 0 -1280 0
vn 0 -1536 0
vn 0 -3584 0
vn 0 -1280 0
vn 0 -1536 0
vn 0 -768 0
vn 0 -768 0
vn 0 -1280 0
vn 0 -1280 0
vn 0 -1280 0
vn 0 -1536 0
vn 0 -1536 0
vn 0 -1536 0
vn 0 -1280 0
vn 0 -1280 0
vn 0 -1280 0
vn 0 -1280 0
vn 0 -1536 0
vn 0 -768 0
vn 0 -1536 0
vn 0 -768 0
vn 0 -1536 0
vn 0 -768 0
vn 0 -1280 0
vn 0 -1536 0
vn 0 -768 0
vn 0 -768 0
vn 0 -768 0
vn 0 -768 0
vn 0 -1536 0
vn 0 -768 0
vn 0 -768 0
vn 176 -949 -922
vn -471 -550 336
vn -1303 -629 492
vn -709 -119 -1021
vn 1258 -571 -45
vn 195 -883 225
vn 1087 -831 331
vn 862 -323 -1198
vn 707 710 -1055
vn -184 758 387
vn -914 416 457
vn -1136 641 567
vn -460 235 -850
vn 686 -409 -574
vn 1102 714 672
vn 283 503 698
vn 366 -333 954
vn -133 1087 715
vn -168 -754 673
vn -1293 -576 154
vn -1007 -901 -1806
vn -248 929 -643
vn 191 385 235
vn -900 762 443
vn 775 463 196
vn -116 1045 -837
vn 1429 11 -1843
vn 1081 450 630
vn 716 -435 457
vn 146 -1172 -111
vn -535 1327 -364
vn -411 525 702
vn 539 647 840
vn 119 912 50
vn 794 1488 -363
vn 36 835 -491
vn 42 1531 -757
vn -684 1278 -287
vn -623 354 748
vn 20 -255 1187
vn 640 307 719
vn 758 1235 -308
vn 0 321 -1199
vn 833 581 -1340
vn 402 -404 -1882
vn -498 -398 -1226
vn -754 465 -1711
vn 99 404 -925
vn 58 233 -1735
vn 525 110 -1048
vn 1125 48 -342
vn 872 610 745
vn 1008 188 -582
vn 938 -1087 511
vn -586 -1089 50
vn -886 -174 -501
vn -1285 384 -347
vn -1509 -41 -481
vn -397 -552 -1115
vn -391 266 235
vn -302 655 -73
vn -1132 163 -897
vn -762 323 684
vn 572 600 886
vn 499 744 -436
vn -341 515 -947
vn -274 -52 -1423
vn -1005 -468 -1392
vn -888 -754 444
vn -21 219 1138
vn 521 499 773
vn 1666 56 -352
vn 349 420 -1040
vn 280 -46 -1121
vn -79 -225 -984
vn 440 -512 -1124
vn 1091 594 -844
vn -669 597 -165
vn -740 379 1352
vn 897 -170 974
vn 534 94 606
vn 423 -492 -1347
vn 0 0 -1536
vn 0 0 -1024
vn 1109 0 -1927
vn 1337 -285 -376
vn 564 -916 -284
vn -383 -1185 -450
vn -423 -298 -1437
vn 0 0 -1536
vn 0 0 -1536
vn 0 0 -1280
vn 0 0 -1792
vn 0 0 -1280
vn 458 0 -1034
vn 1413 128 -461
vn 1213 0 -260
vn 954 0 -258
vn 1727 27 285
vn 1242 -439 376
vn 370 -1019 279
vn -549 -1127 464
vn -1745 -466 -508
vn -448 0 -1541
vn 0 0 -768
vn 0 0 -1024
vn 0 0 -1792
vn -439 936 -907
vn -3 -459 -1172
vn -1026 -417 -1183
vn -593 416 -455
vn -602 1472 369
vn -132 610 130
vn 132 1004 298
vn 351 684 -875
vn 91 -695 -1257
vn 358 -776 -1163
vn -119 -668 -543
vn -878 -677 -994
vn -1295 -612 -629
vn -1253 355 -456
vn -643 1063 2
vn 643 1041 90
vn 602 1097 49
vn 0 -21 -1544
vn -46 -652 -580
vn -1639 -493 -1180
vn -192 -66 -977
vn 278 31 -1473
vn 1377 -623 -1045
vn -56 -679 671
vn -602 -252 634
vn -653 479 576
vn -505 844 -536
vn -273 224 -1090
vn 262 580 -1010
vn 1063 274 -633
vn 883 286 603
vn 452 -272 639
vn 1231 187 173
vn 34 677 -1418
vn -1124 394 252
vn 144 603 1232
vn 1240 39 453
vn 962 67 -1230
vn -1256 132 680
vn 124 29 743
vn 290 523 1029
vn 1268 111 191
vn 589 -297 -365
vn 198 -673 -907
vn -725 216 -1224
vn -759 -38 -416
vn -1077 845 389
vn -1567 151 -648
vn -1041 386 -501
vn -425 -227 -1126
vn -434 -285 -1111
vn -1127 -696 -587
vn -1470 -127 671
vn -303 527 -824
vn 321 436 -1102
vn 361 -178 -912
vn 0 0 0
vn 0 0 0
vn -512 245 -81
vn -256 -256 0
vn 496 -477 80
vn 376 -160 -903
vn 696 -748 -848
vn -519 -942 -553
vn -745 -1058 1040
vn 19 53 1759
vn 1483 157 833
vn 1023 329 -555
vn -989 -222 -296
vn -955 -775 351
vn -659 -608 -611
vn -1285 -101 -788
vn -1469 0 -260
vn -1696 31 309
vn -1450 -333 1818
vn -725 -262 875
vn -935 -554 227
vn -668 132 -826
vn -910 132 -326
vn -1115 0 -1418
vn -954 0 -258
vn -1039 -240 424
vn -395 -176 944
vn 1240 -53 1849
vn 681 818 1028
vn -440 1200 710
vn -585 328 1081
vn -1479 290 589
vn -474 793 530
vn 474 1288 638
vn 1479 290 589
vn 1253 355 -456
vn 680 416 -695
vn -19 350 803
vn 397 700 256
vn 354 658 -343
vn -665 -504 87
vn 668 -1236 384
vn 166 -1448 -5
vn 846 -926 -1169
vn -114 -129 -1118
vn -1184 9 211
vn 186 225 808
vn 1131 -462 167
vn 811 -1033 442
vn 1387 269 -263
vn 533 -81 916
vn -416 -501 708
vn -259 -798 -89
vn -139 -320 -695
vn 52 380 -1222
vn 382 115 -1749
vn 1033 552 486
vn -689 -93 1162
vn -1064 -29 -262
vn -751 -24 -455
vn -1148 170 110
vn -856 -140 -428
vn -471 198 -796
vn 870 94 -15
vn 48 264 1070
vn -161 279 640
vn 557 -864 568
vn -430 -15 901
vn -517 -1094 350
vn 272 316 831
vn -1371 -207 189
vn -520 -99 674
vn 1114 11 49
vn -105 -74 -1195
vn -1401 -146 -1000
vn -963 295 -428
vn -282 457 6
vn 241 -457 580
vn 248 -736 -665
vn 1488 136 -678
vn 802 -941 944
vn 511 -247 -207
vn 1297 153 -248
vn 571 -497 -951
vn 492 -289 -713
vn 510 831 0
vn 519 773 468
vn 713 574 745
vn 966 231 -356
vn 905 91 -1576
vn -223 -664 -973
vn 104 -764 -568
vn -165 -886 -718
vn -310 43 -312
vn -408 462 0
vn -408 64 229
vn -683 173 723
vn -476 460 688
vn 683 274 606
vn 606 -377 475
vn 491 -275 -741
vn 83 210 -1253
vn -606 838 -1014
vn -453 395 -979
vn -1384 -800 -502
vn 0 0 -1536
vn 9 -313 -926
vn 0 0 -1536
vn -590 -508 594
vn -752 209 853
vn -808 -387 -621
vn -354 -514 -384
vn 89 -630 180
vn 248 0 1463
vn 325 555 415
vn -134 468 -106
vn -477 44 -344
vn 434 328 -1101
vn 508 -174 -1060
vn 513 -135 222
vn 776 366 120
vn 1245 -222 -296
vn 802 -105 -667
vn 659 -608 -611
vn 986 -775 334
vn 119 -668 -543
vn -358 -540 -809
vn 939 -417 -943
vn 1095 -549 -820
vn -9 -313 -1182
vn 0 0 -1536
vn 407 -438 827
vn 745 -263 865
vn 596 332 1077
vn 256 490 -162
vn -859 -40 -551
vn 628 -35 -936
vn 808 1062 -708
vn -1034 457 -76
vn -524 -8 951
vn -1198 -674 656
vn -797 -124 -1124
vn 87 -568 -1144
vn 631 -716 228
vn 904 171 607
vn 865 638 496
vn 199 215 -505
vn -289 348 -881
vn -555 519 1469
vn 98 -897 -828
vn -326 -691 -473
vn -891 -275 -382
vn 786 -248 604
vn 820 31 -825
vn -655 -345 585
vn 681 713 -736
vn -646 -181 -1104
vn 457 92 445
vn -672 -66 879
vn -801 584 -244
vn 489 164 -408
vn -1266 498 -313
vn -867 574 772
vn -788 406 -35
vn 149 192 899
vn -177 -472 931
vn 832 -15 246
vn 1218 45 -205
vn -677 -172 -200
vn -431 -770 -471
vn -33 124 274
vn 198 -121 -1234
vn -661 -732 959
vn -105 -859 15
vn 935 -554 227
vn 1295 -612 -629
vn 723 509 868
vn -341 22 1462
vn -573 414 -10
vn -412 -167 165
vn -32 -602 10
vn 672 -394 -88
vn 186 216 216
vn -205 874 -122
vn -66 520 -1238
vn -276 -151 -893
vn 505 -362 -944
vn 546 -172 -1043
vn 486 278 -821
vn 47 361 -816
vn -718 121 75
vn -488 388 770
vn 753 167 744
vn -774 351 740
vn 1468 -193 -518
vn 751 302 697
vn -522 749 450
vn -57 -695 -707
vn 0 -628 -960
vn 339 -591 -1146
vn -512 768 0
vn -455 -293 -765
vn 62 -797 -936
vn 428 36 -527
vn 768 768 0
vn 256 398 213
vn 1197 -593 -605
vn 0 0 -256
vn 0 0 -256
vn 0 0 -256
vn 0 0 -256
vn 0 0 -256
vn 0 0 -256
vn 0 0 -256
vn 0 0 -256
vn 0 0 -256
vn 0 0 -256
vn 0 0 -256
vn 0 0 -256
vn 0 0 -256
vn 0 0 -256
vn 0 0 -256
vn 0 0 -256
vn 0 0 -256
vn 0 0 -256
vn 0 0 -256
vn 0 0 -256
vn 0 0 -256
vn 0 0 -256
vn 0 0 -256
vn 0 0 -256
vn 0 0 -256
vn 0 0 -256
vn 0 0 -256
vn 0 0 -256
vn 0 0 -256
vn 0 0 -256
vn 0 0 -256
vn 0 0 -256
vn 0 0 -256
vn 0 0 -256
vn 0 0 -256
vn 0 0 -256
vn 0 0 -256
vn 0 0 -256
vn 0 0 -256
vn 0 0 -256
vn 0 0 -256
vn 0 0 -256
vn 0 0 -256
vn 0 0 -256
vn 0 0 -256
vn 0 0 -256
vn 0 0 -256
vn 0 0 -256
vn 0 0 -256
vn 0 0 -256
vn 0 0 -256
vn 0 0 -256
vn 0 0 -256
vn 0 0 -256
vn 0 0 -256
vn 0 0 -256
vn 0 0 -256
vn 0 0 -256
vn 0 0 -256
vn 0 0 -256
vn 218 -822 392
vn 55 -581 -151
usemtl m0
f 1 2 3

usemtl m1
f 1 3 4

usemtl m2
f 1 4 5

usemtl m3
f 1 5 6

usemtl m4
f 1 6 7

usemtl m5
f 1 7 2

usemtl m6
f 2 7 8

usemtl m7
f 2 8 9

usemtl m8
f 2 9 10

usemtl m9
f 2 10 3

usemtl m10
f 11 12 13

usemtl m11
f 11 13 9

usemtl m12
f 11 9 8

usemtl m13
f 11 8 14

usemtl m14
f 11 14 12

usemtl m15
f 12 14 15

usemtl m16
f 12 15 16

usemtl m17
f 12 16 13

usemtl m18
f 13 16 17

usemtl m19
f 13 17 18

usemtl m20
f 13 18 9

usemtl m21
f 9 18 10

usemtl m22
f 19 20 14

usemtl m23
f 19 14 21

usemtl m24
f 19 21 22

usemtl m25
f 19 22 23

usemtl m26
f 19 23 20

usemtl m27
f 20 23 24

usemtl m28
f 20 24 25

usemtl m29
f 20 25 14

usemtl m30
f 14 25 26

usemtl m31
f 14 26 27

usemtl m32
f 14 27 28

usemtl m33
f 14 28 15

usemtl m34
f 15 28 29

usemtl m35
f 15 29 16

usemtl m36
f 16 29 30

usemtl m37
f 16 30 17

usemtl m38
f 28 27 31

usemtl m39
f 28 31 29

usemtl m40
f 29 31 32

usemtl m41
f 29 32 30

usemtl m42
f 31 33 34

usemtl m43
f 31 34 32

usemtl m44
f 6 35 14

usemtl m45
f 6 14 7

usemtl m46
f 7 14 8

usemtl m47
f 21 35 36

usemtl m48
f 21 36 22

usemtl m49
f 22 36 37

usemtl m50
f 22 37 38

usemtl m51
f 22 38 23

usemtl m52
f 23 38 39

usemtl m53
f 23 39 24

usemtl m54
f 24 39 40

usemtl m55
f 24 40 41

usemtl m56
f 24 41 25

usemtl m57
f 25 41 26

usemtl m58
f 26 41 33

usemtl m59
f 26 33 27

usemtl m60
f 27 33 31

usemtl m61
f 36 5 42

usemtl m62
f 36 42 37

usemtl m63
f 35 21 14

usemtl m64
f 41 40 43

usemtl m65
f 41 43 33

usemtl m66
f 33 43 34

usemtl m67
f 35 6 5

usemtl m68
f 35 5 36

usemtl m69
f 5 4 42

usemtl m70
f 44 45 46

usemtl m71
f 44 46 47

usemtl m72
f 44 47 48

usemtl m73
f 44 48 49

usemtl m74
f 44 49 45

usemtl m75
f 44 45 50

usemtl m76
f 44 50 51

usemtl m77
f 44 51 52

usemtl m78
f 44 52 47

usemtl m79
f 47 52 53

usemtl m80
f 47 53 54

usemtl m81
f 47 54 55

usemtl m82
f 47 55 56

usemtl m83
f 47 56 57

usemtl m84
f 47 57 48

usemtl m85
f 48 57 58

usemtl m86
f 48 58 59

usemtl m87
f 48 59 60

usemtl m88
f 48 60 49

usemtl m89
f 49 60 46

usemtl m90
f 49 46 45

usemtl m91
f 45 46 53

usemtl m92
f 45 53 50

usemtl m93
f 50 53 61

usemtl m94
f 50 61 62

usemtl m95
f 50 62 63

usemtl m96
f 50 63 64

usemtl m97
f 50 64 51

usemtl m98
f 50 51 52

usemtl m99
f 50 52 53

usemtl m100
f 53 52 61

usemtl m101
f 61 52 65

usemtl m102
f 61 65 66

usemtl m103
f 61 66 63

usemtl m104
f 61 63 62

usemtl m105
f 62 63 67

usemtl m106
f 62 67 68

usemtl m107
f 62 68 50

usemtl m108
f 50 68 51

usemtl m109
f 51 68 69

usemtl m110
f 51 69 64

usemtl m111
f 51 64 52

usemtl m112
f 52 64 65

usemtl m113
f 65 64 70

usemtl m114
f 65 70 71

usemtl m115
f 65 71 66

usemtl m116
f 66 71 72

usemtl m117
f 66 72 63

usemtl m118
f 63 72 73

usemtl m119
f 63 73 64

usemtl m120
f 63 64 67

usemtl m121
f 67 64 69

usemtl m122
f 67 69 74

usemtl m123
f 67 74 75

usemtl m124
f 67 75 76

usemtl m125
f 67 76 68

usemtl m126
f 67 68 77

usemtl m127
f 67 77 69

usemtl m128
f 69 77 78

usemtl m129
f 69 78 79

usemtl m130
f 69 79 74

usemtl m131
f 74 79 80

usemtl m132
f 74 80 81

usemtl m133
f 74 81 75

usemtl m134
f 75 81 82

usemtl m135
f 75 82 83

usemtl m136
f 75 83 76

usemtl m137
f 76 83 84

usemtl m138
f 76 84 85

usemtl m139
f 76 85 78

usemtl m140
f 76 78 68

usemtl m141
f 68 78 77

usemtl m142
f 68 77 69

usemtl m143
f 68 69 77

usemtl m144
f 86 87 88

usemtl m145
f 86 88 89

usemtl m146
f 86 89 90

usemtl m147
f 86 90 91

usemtl m148
f 86 91 87

usemtl m149
f 87 91 92

usemtl m150
f 87 92 93

usemtl m151
f 87 93 94

usemtl m152
f 87 94 95

usemtl m153
f 87 95 96

usemtl m154
f 87 96 88

usemtl m155
f 88 96 97

usemtl m156
f 88 97 98

usemtl m157
f 88 98 89

usemtl m158
f 89 98 99

usemtl m159
f 89 99 90

usemtl m160
f 90 99 100

usemtl m161
f 90 100 101

usemtl m162
f 90 101 102

usemtl m163
f 90 102 92

usemtl m164
f 90 92 91

usemtl m165
f 103 104 105

usemtl m166
f 103 105 106

usemtl m167
f 103 106 107

usemtl m168
f 103 107 104

usemtl m169
f 104 107 108

usemtl m170
f 104 108 109

usemtl m171
f 104 109 105

usemtl m172
f 105 109 110

usemtl m173
f 105 110 111

usemtl m174
f 105 111 106

usemtl m175
f 106 111 112

usemtl m176
f 106 112 113

usemtl m177
f 106 113 114

usemtl m178
f 106 114 107

usemtl m179
f 107 114 115

usemtl m180
f 107 115 108

usemtl m181
f 108 115 116

usemtl m182
f 108 116 109

usemtl m183
f 109 116 110

usemtl m184
f 110 116 117

usemtl m185
f 110 117 118

usemtl m186
f 110 118 111

usemtl m187
f 111 118 119

usemtl m188
f 111 119 120

usemtl m189
f 111 120 121

usemtl m190
f 111 121 112

usemtl m191
f 112 121 122

usemtl m192
f 112 122 123

usemtl m193
f 112 123 113

usemtl m194
f 113 123 124

usemtl m195
f 113 124 114

usemtl m196
f 114 124 115

usemtl m197
f 115 124 123

usemtl m198
f 115 123 119

usemtl m199
f 115 119 117

usemtl m200
f 115 117 116

usemtl m201
f 125 126 127

usemtl m202
f 125 127 128

usemtl m203
f 125 128 129

usemtl m204
f 125 129 130

usemtl m205
f 125 130 131

usemtl m206
f 125 131 132

usemtl m207
f 125 132 126

usemtl m208
f 126 132 133

usemtl m209
f 126 133 134

usemtl m210
f 126 134 135

usemtl m211
f 126 135 127

usemtl m212
f 127 135 128

usemtl m213
f 128 135 136

usemtl m214
f 128 136 137

usemtl m215
f 128 137 138

usemtl m216
f 128 138 139

usemtl m217
f 128 139 140

usemtl m218
f 128 140 141

usemtl m219
f 128 141 129

usemtl m220
f 129 141 142

usemtl m221
f 129 142 143

usemtl m222
f 129 143 130

usemtl m223
f 130 143 144

usemtl m224
f 130 144 131

usemtl m225
f 131 144 145

usemtl m226
f 131 145 146

usemtl m227
f 131 146 132

usemtl m228
f 132 146 147

usemtl m229
f 132 147 148

usemtl m230
f 132 148 133

usemtl m231
f 133 148 147

usemtl m232
f 133 147 149

usemtl m233
f 133 149 134

usemtl m234
f 134 149 150

usemtl m235
f 134 150 136

usemtl m236
f 134 136 135

usemtl m237
f 151 152 153

usemtl m238
f 151 153 154

usemtl m239
f 151 154 155

usemtl m240
f 151 155 156

usemtl m241
f 151 156 157

usemtl m242
f 151 157 158

usemtl m243
f 151 158 152

usemtl m244
f 152 158 159

usemtl m245
f 152 159 160

usemtl m246
f 152 160 161

usemtl m247
f 152 161 153

usemtl m248
f 153 161 162

usemtl m249
f 153 162 163

usemtl m250
f 153 163 164

usemtl m251
f 153 164 154

usemtl m252
f 154 164 155

usemtl m253
f 155 164 165

usemtl m254
f 155 165 166

usemtl m255
f 155 166 167

usemtl m256
f 155 167 157

usemtl m257
f 155 157 156

usemtl m258
f 168 169 170

usemtl m259
f 168 170 171

usemtl m260
f 168 171 172

usemtl m261
f 168 172 173

usemtl m262
f 168 173 169

usemtl m263
f 169 173 174

usemtl m264
f 169 174 170

usemtl m265
f 170 174 175

usemtl m266
f 170 175 176

usemtl m267
f 170 176 177

usemtl m268
f 170 177 178

usemtl m269
f 170 178 171

usemtl m270
f 171 178 172

usemtl m271
f 172 178 179

usemtl m272
f 172 179 180

usemtl m273
f 172 180 173

usemtl m274
f 173 180 181

usemtl m275
f 173 181 182

usemtl m276
f 173 182 174

usemtl m277
f 173 174 183

usemtl m278
f 173 183 184

usemtl m279
f 173 184 168

usemtl m280
f 168 184 170

usemtl m281
f 170 184 185

usemtl m282
f 170 185 174

usemtl m283
f 174 185 186

usemtl m284
f 174 186 183

usemtl m285
f 183 186 187

usemtl m286
f 183 187 188

usemtl m287
f 183 188 184

usemtl m288
f 183 184 186

usemtl m289
f 186 184 185

usemtl m290
f 186 185 189

usemtl m291
f 186 189 190

usemtl m292
f 186 190 187

usemtl m293
f 187 190 191

usemtl m294
f 187 191 192

usemtl m295
f 187 192 188

usemtl m296
f 188 192 193

usemtl m297
f 188 193 194

usemtl m298
f 188 194 195

usemtl m299
f 188 195 184

usemtl m300
f 184 195 196

usemtl m301
f 184 196 185

usemtl m302
f 185 196 189

usemtl m303
f 189 196 195

usemtl m304
f 189 195 197

usemtl m305
f 189 197 191

usemtl m306
f 189 191 190

usemtl m307
f 198 199 200

usemtl m308
f 198 200 201

usemtl m309
f 198 201 202

usemtl m310
f 198 202 203

usemtl m311
f 198 203 199

usemtl m312
f 199 203 82

usemtl m313
f 199 82 81

usemtl m314
f 199 81 204

usemtl m315
f 199 204 200

usemtl m316
f 200 204 205

usemtl m317
f 200 205 206

usemtl m318
f 200 206 207

usemtl m319
f 200 207 208

usemtl m320
f 200 208 201

usemtl m321
f 201 208 209

usemtl m322
f 201 209 210

usemtl m323
f 201 210 211

usemtl m324
f 201 211 212

usemtl m325
f 201 212 213

usemtl m326
f 201 213 214

usemtl m327
f 201 214 202

usemtl m328
f 202 214 215

usemtl m329
f 202 215 203

usemtl m330
f 203 215 216

usemtl m331
f 203 216 82

usemtl m332
f 82 216 83

usemtl m333
f 83 216 84

usemtl m334
f 84 216 217

usemtl m335
f 84 217 218

usemtl m336
f 84 218 85

usemtl m337
f 85 218 205

usemtl m338
f 85 205 80

usemtl m339
f 85 80 78

usemtl m340
f 78 80 79

usemtl m341
f 219 220 221

usemtl m342
f 219 221 222

usemtl m343
f 219 222 223

usemtl m344
f 219 223 224

usemtl m345
f 219 224 220

usemtl m346
f 220 224 225

usemtl m347
f 220 225 226

usemtl m348
f 220 226 227

usemtl m349
f 220 227 221

usemtl m350
f 221 227 163

usemtl m351
f 221 163 222

usemtl m352
f 222 163 162

usemtl m353
f 222 162 228

usemtl m354
f 222 228 229

usemtl m355
f 222 229 223

usemtl m356
f 223 229 230

usemtl m357
f 223 230 231

usemtl m358
f 223 231 224

usemtl m359
f 224 231 146

usemtl m360
f 224 146 232

usemtl m361
f 224 232 225

usemtl m362
f 225 232 233

usemtl m363
f 225 233 234

usemtl m364
f 225 234 235

usemtl m365
f 225 235 236

usemtl m366
f 225 236 237

usemtl m367
f 225 237 226

usemtl m368
f 226 237 238

usemtl m369
f 226 238 227

usemtl m370
f 227 238 163

usemtl m371
f 163 238 164

usemtl m372
f 164 238 165

usemtl m373
f 165 238 239

usemtl m374
f 165 239 240

usemtl m375
f 165 240 166

usemtl m376
f 166 240 241

usemtl m377
f 166 241 242

usemtl m378
f 166 242 167

usemtl m379
f 167 242 243

usemtl m380
f 167 243 158

usemtl m381
f 167 158 157

usemtl m382
f 81 80 204

usemtl m383
f 204 80 205

usemtl m384
f 175 174 182

usemtl m385
f 175 182 244

usemtl m386
f 175 244 176

usemtl m387
f 176 244 181

usemtl m388
f 176 181 245

usemtl m389
f 176 245 177

usemtl m390
f 177 245 246

usemtl m391
f 177 246 179

usemtl m392
f 177 179 178

usemtl m393
f 247 248 249

usemtl m394
f 247 249 250

usemtl m395
f 247 250 251

usemtl m396
f 247 251 252

usemtl m397
f 247 252 253

usemtl m398
f 247 253 248

usemtl m399
f 248 253 254

usemtl m400
f 248 254 255

usemtl m401
f 248 255 249

usemtl m402
f 248 249 250

usemtl m403
f 248 250 254

usemtl m404
f 254 250 256

usemtl m405
f 254 256 255

usemtl m406
f 255 256 257

usemtl m407
f 255 257 258

usemtl m408
f 255 258 259

usemtl m409
f 255 259 249

usemtl m410
f 249 259 260

usemtl m411
f 249 260 250

usemtl m412
f 250 260 261

usemtl m413
f 250 261 256

usemtl m414
f 256 261 262

usemtl m415
f 256 262 263

usemtl m416
f 256 263 257

usemtl m417
f 257 263 264

usemtl m418
f 257 264 258

usemtl m419
f 258 264 265

usemtl m420
f 258 265 259

usemtl m421
f 259 265 260

usemtl m422
f 260 265 261

usemtl m423
f 261 265 266

usemtl m424
f 261 266 262

usemtl m425
f 262 266 267

usemtl m426
f 262 267 268

usemtl m427
f 262 268 269

usemtl m428
f 262 269 120

usemtl m429
f 262 120 270

usemtl m430
f 262 270 263

usemtl m431
f 263 270 271

usemtl m432
f 263 271 272

usemtl m433
f 263 272 264

usemtl m434
f 264 272 267

usemtl m435
f 264 267 266

usemtl m436
f 264 266 265

usemtl m437
f 273 274 275

usemtl m438
f 273 275 194

usemtl m439
f 273 194 193

usemtl m440
f 273 193 192

usemtl m441
f 273 192 276

usemtl m442
f 273 276 274

usemtl m443
f 274 276 197

usemtl m444
f 274 197 277

usemtl m445
f 274 277 275

usemtl m446
f 275 277 278

usemtl m447
f 275 278 279

usemtl m448
f 275 279 194

usemtl m449
f 194 279 280

usemtl m450
f 194 280 281

usemtl m451
f 194 281 195

usemtl m452
f 195 281 197

usemtl m453
f 197 281 277

usemtl m454
f 277 281 282

usemtl m455
f 277 282 278

usemtl m456
f 278 282 283

usemtl m457
f 278 283 284

usemtl m458
f 278 284 279

usemtl m459
f 278 279 282

usemtl m460
f 282 279 280

usemtl m461
f 282 280 283

usemtl m462
f 283 280 285

usemtl m463
f 283 285 286

usemtl m464
f 283 286 217

usemtl m465
f 283 217 284

usemtl m466
f 284 217 287

usemtl m467
f 284 287 285

usemtl m468
f 284 285 288

usemtl m469
f 284 288 279

usemtl m470
f 279 288 280

usemtl m471
f 280 288 285

usemtl m472
f 289 290 291

usemtl m473
f 289 291 292

usemtl m474
f 289 292 293

usemtl m475
f 289 293 294

usemtl m476
f 289 294 295

usemtl m477
f 289 295 290

usemtl m478
f 290 295 296

usemtl m479
f 290 296 297

usemtl m480
f 290 297 298

usemtl m481
f 290 298 291

usemtl m482
f 291 298 299

usemtl m483
f 291 299 300

usemtl m484
f 291 300 292

usemtl m485
f 292 300 301

usemtl m486
f 292 301 293

usemtl m487
f 293 301 302

usemtl m488
f 293 302 303

usemtl m489
f 293 303 294

usemtl m490
f 294 303 304

usemtl m491
f 294 304 305

usemtl m492
f 294 305 295

usemtl m493
f 295 305 296

usemtl m494
f 296 305 306

usemtl m495
f 296 306 307

usemtl m496
f 296 307 308

usemtl m497
f 296 308 309

usemtl m498
f 296 309 310

usemtl m499
f 296 310 297

usemtl m500
f 297 310 311

usemtl m501
f 297 311 299

usemtl m502
f 297 299 298

usemtl m503
f 312 228 162

usemtl m504
f 312 162 313

usemtl m505
f 312 313 314

usemtl m506
f 312 314 150

usemtl m507
f 312 150 230

usemtl m508
f 312 230 228

usemtl m509
f 228 230 229

usemtl m510
f 217 286 218

usemtl m511
f 218 286 206

usemtl m512
f 218 206 205

usemtl m513
f 315 316 317

usemtl m514
f 315 317 318

usemtl m515
f 315 318 319

usemtl m516
f 315 319 320

usemtl m517
f 315 320 316

usemtl m518
f 316 320 321

usemtl m519
f 316 321 322

usemtl m520
f 316 322 323

usemtl m521
f 316 323 317

usemtl m522
f 317 323 324

usemtl m523
f 317 324 325

usemtl m524
f 317 325 318

usemtl m525
f 318 325 319

usemtl m526
f 319 325 326

usemtl m527
f 319 326 320

usemtl m528
f 320 326 327

usemtl m529
f 320 327 321

usemtl m530
f 321 327 324

usemtl m531
f 321 324 322

usemtl m532
f 322 324 323

usemtl m533
f 328 140 139

usemtl m534
f 328 139 329

usemtl m535
f 328 329 330

usemtl m536
f 328 330 331

usemtl m537
f 328 331 142

usemtl m538
f 328 142 140

usemtl m539
f 140 142 141

usemtl m540
f 161 160 313

usemtl m541
f 161 313 162

usemtl m542
f 182 181 244

usemtl m543
f 332 333 159

usemtl m544
f 332 159 334

usemtl m545
f 332 334 335

usemtl m546
f 332 335 336

usemtl m547
f 332 336 333

usemtl m548
f 333 336 337

usemtl m549
f 333 337 160

usemtl m550
f 333 160 159

usemtl m551
f 234 233 338

usemtl m552
f 234 338 143

usemtl m553
f 234 143 142

usemtl m554
f 234 142 331

usemtl m555
f 234 331 339

usemtl m556
f 234 339 340

usemtl m557
f 234 340 235

usemtl m558
f 234 235 211

usemtl m559
f 234 211 225

usemtl m560
f 225 211 210

usemtl m561
f 225 210 209

usemtl m562
f 225 209 236

usemtl m563
f 236 209 341

usemtl m564
f 236 341 235

usemtl m565
f 236 235 240

usemtl m566
f 236 240 239

usemtl m567
f 236 239 237

usemtl m568
f 237 239 238

usemtl m569
f 342 343 344

usemtl m570
f 342 344 345

usemtl m571
f 342 345 346

usemtl m572
f 342 346 347

usemtl m573
f 342 347 348

usemtl m574
f 342 348 343

usemtl m575
f 343 348 349

usemtl m576
f 343 349 350

usemtl m577
f 343 350 351

usemtl m578
f 343 351 344

usemtl m579
f 344 351 352

usemtl m580
f 344 352 70

usemtl m581
f 344 70 353

usemtl m582
f 344 353 354

usemtl m583
f 344 354 345

usemtl m584
f 344 345 355

usemtl m585
f 344 355 352

usemtl m586
f 352 355 71

usemtl m587
f 352 71 70

usemtl m588
f 70 71 72

usemtl m589
f 70 72 73

usemtl m590
f 70 73 356

usemtl m591
f 70 356 357

usemtl m592
f 70 357 358

usemtl m593
f 70 358 354

usemtl m594
f 70 354 353

usemtl m595
f 359 360 97

usemtl m596
f 359 97 361

usemtl m597
f 359 361 55

usemtl m598
f 359 55 58

usemtl m599
f 359 58 362

usemtl m600
f 359 362 360

usemtl m601
f 360 362 363

usemtl m602
f 360 363 88

usemtl m603
f 360 88 96

usemtl m604
f 360 96 97

usemtl m605
f 97 96 364

usemtl m606
f 97 364 365

usemtl m607
f 97 365 98

usemtl m608
f 97 98 361

usemtl m609
f 361 98 363

usemtl m610
f 361 363 366

usemtl m611
f 361 366 55

usemtl m612
f 55 366 56

usemtl m613
f 56 366 362

usemtl m614
f 56 362 367

usemtl m615
f 56 367 57

usemtl m616
f 57 367 58

usemtl m617
f 58 367 362

usemtl m618
f 58 362 366

usemtl m619
f 58 366 55

usemtl m620
f 58 55 59

usemtl m621
f 59 55 54

usemtl m622
f 59 54 60

usemtl m623
f 60 54 46

usemtl m624
f 46 54 47

usemtl m625
f 300 311 301

usemtl m626
f 301 311 302

usemtl m627
f 302 311 303

usemtl m628
f 303 311 368

usemtl m629
f 303 368 304

usemtl m630
f 304 368 369

usemtl m631
f 304 369 305

usemtl m632
f 305 369 306

usemtl m633
f 306 369 347

usemtl m634
f 306 347 350

usemtl m635
f 306 350 307

usemtl m636
f 307 350 349

usemtl m637
f 307 349 308

usemtl m638
f 308 349 348

usemtl m639
f 308 348 309

usemtl m640
f 309 348 370

usemtl m641
f 309 370 369

usemtl m642
f 309 369 368

usemtl m643
f 309 368 310

usemtl m644
f 310 368 311

usemtl m645
f 371 372 373

usemtl m646
f 371 373 374

usemtl m647
f 371 374 253

usemtl m648
f 371 253 252

usemtl m649
f 371 252 372

usemtl m650
f 372 252 375

usemtl m651
f 372 375 376

usemtl m652
f 372 376 377

usemtl m653
f 372 377 373

usemtl m654
f 373 377 378

usemtl m655
f 373 378 374

usemtl m656
f 374 378 251

usemtl m657
f 374 251 250

usemtl m658
f 374 250 254

usemtl m659
f 374 254 253

usemtl m660
f 72 71 379

usemtl m661
f 72 379 73

usemtl m662
f 73 379 380

usemtl m663
f 73 380 356

usemtl m664
f 73 356 64

usemtl m665
f 64 356 70

usemtl m666
f 381 241 339

usemtl m667
f 381 339 331

usemtl m668
f 381 331 330

usemtl m669
f 381 330 382

usemtl m670
f 381 382 241

usemtl m671
f 241 382 242

usemtl m672
f 242 382 334

usemtl m673
f 242 334 243

usemtl m674
f 243 334 159

usemtl m675
f 243 159 158

usemtl m676
f 123 383 120

usemtl m677
f 123 120 119

usemtl m678
f 313 160 314

usemtl m679
f 314 160 337

usemtl m680
f 314 337 136

usemtl m681
f 314 136 150

usemtl m682
f 138 137 336

usemtl m683
f 138 336 335

usemtl m684
f 138 335 139

usemtl m685
f 139 335 329

usemtl m686
f 329 335 382

usemtl m687
f 329 382 330

usemtl m688
f 281 194 275

usemtl m689
f 281 275 277

usemtl m690
f 339 241 340

usemtl m691
f 340 241 240

usemtl m692
f 340 240 235

usemtl m693
f 345 355 346

usemtl m694
f 346 355 351

usemtl m695
f 346 351 350

usemtl m696
f 346 350 347

usemtl m697
f 384 385 386

usemtl m698
f 384 386 387

usemtl m699
f 384 387 388

usemtl m700
f 384 388 389

usemtl m701
f 384 389 390

usemtl m702
f 384 390 385

usemtl m703
f 385 390 391

usemtl m704
f 385 391 392

usemtl m705
f 385 392 386

usemtl m706
f 386 392 387

usemtl m707
f 387 392 393

usemtl m708
f 387 393 388

usemtl m709
f 388 393 394

usemtl m710
f 388 394 395

usemtl m711
f 388 395 389

usemtl m712
f 389 395 390

usemtl m713
f 390 395 396

usemtl m714
f 390 396 391

usemtl m715
f 391 396 394

usemtl m716
f 391 394 393

usemtl m717
f 391 393 392

usemtl m718
f 379 357 380

usemtl m719
f 380 357 356

usemtl m720
f 122 383 121

usemtl m721
f 122 121 397

usemtl m722
f 122 397 268

usemtl m723
f 122 268 267

usemtl m724
f 122 267 271

usemtl m725
f 122 271 383

usemtl m726
f 122 383 123

usemtl m727
f 350 347 349

usemtl m728
f 349 347 348

usemtl m729
f 348 347 370

usemtl m730
f 370 347 369

usemtl m731
f 378 377 376

usemtl m732
f 378 376 375

usemtl m733
f 378 375 252

usemtl m734
f 378 252 251

usemtl m735
f 383 120 121

usemtl m736
f 121 120 269

usemtl m737
f 121 269 397

usemtl m738
f 397 269 268

usemtl m739
f 398 399 400

usemtl m740
f 398 400 100

usemtl m741
f 398 100 365

usemtl m742
f 398 365 95

usemtl m743
f 398 95 399

usemtl m744
f 399 95 94

usemtl m745
f 399 94 401

usemtl m746
f 399 401 402

usemtl m747
f 399 402 400

usemtl m748
f 400 402 403

usemtl m749
f 400 403 101

usemtl m750
f 400 101 100

usemtl m751
f 180 179 246

usemtl m752
f 180 246 245

usemtl m753
f 180 245 181

usemtl m754
f 102 404 405

usemtl m755
f 102 405 92

usemtl m756
f 92 405 406

usemtl m757
f 92 406 93

usemtl m758
f 93 406 401

usemtl m759
f 93 401 94

usemtl m760
f 365 100 99

usemtl m761
f 365 99 98

usemtl m762
f 382 335 334

usemtl m763
f 379 355 358

usemtl m764
f 379 358 357

usemtl m765
f 101 403 407

usemtl m766
f 101 407 408

usemtl m767
f 101 408 102

usemtl m768
f 102 408 404

usemtl m769
f 404 408 409

usemtl m770
f 404 409 405

usemtl m771
f 405 409 406

usemtl m772
f 406 409 410

usemtl m773
f 406 410 401

usemtl m774
f 401 410 411

usemtl m775
f 401 411 402

usemtl m776
f 402 411 412

usemtl m777
f 402 412 403

usemtl m778
f 403 412 411

usemtl m779
f 403 411 407

usemtl m780
f 407 411 410

usemtl m781
f 407 410 408

usemtl m782
f 408 410 409

usemtl m783
f 355 345 358

usemtl m784
f 358 345 354

usemtl m785
f 145 232 146

usemtl m786
f 232 145 233

usemtl m787
f 233 145 338

usemtl m788
f 338 145 144

usemtl m789
f 338 144 143

usemtl m790
f 285 284 283

usemtl m791
f 136 337 137

usemtl m792
f 137 337 336

usemtl m793
f 216 215 287

usemtl m794
f 216 287 217

usemtl m795
f 217 287 413

usemtl m796
f 217 413 286

usemtl m797
f 286 413 212

usemtl m798
f 286 212 206

usemtl m799
f 206 212 207

usemtl m800
f 207 212 341

usemtl m801
f 207 341 208

usemtl m802
f 208 341 209

usemtl m803
f 209 341 211

usemtl m804
f 209 211 210

usemtl m805
f 362 366 363

usemtl m806
f 394 396 395

usemtl m807
f 123 112 119

usemtl m808
f 119 112 111

usemtl m809
f 150 147 230

usemtl m810
f 230 147 146

usemtl m811
f 230 146 231

usemtl m812
f 251 247 253

usemtl m813
f 251 253 374

usemtl m814
f 299 311 300

usemtl m815
f 198 376 377

usemtl m816
f 198 377 203

usemtl m817
f 203 377 215

usemtl m818
f 215 377 372

usemtl m819
f 215 372 376

usemtl m820
f 215 376 202

usemtl m821
f 202 376 198

usemtl m822
f 98 89 363

usemtl m823
f 363 89 88

usemtl m824
f 118 117 119

usemtl m825
f 63 66 65

usemtl m826
f 63 65 64

usemtl m827
f 267 272 271

usemtl m828
f 96 95 364

usemtl m829
f 364 95 365

usemtl m830
f 282 281 280

usemtl m831
f 53 46 54

usemtl m832
f 192 191 276

usemtl m833
f 276 191 197

usemtl m834
f 383 270 120

usemtl m835
f 270 383 271

usemtl m836
f 355 352 351

usemtl m837
f 212 211 341

usemtl m838
f 341 211 235

usemtl m839
f 150 149 147

usemtl m840
f 379 71 355

usemtl m841
f 326 325 327

usemtl m842
f 327 325 324

usemtl m843
f 414 415 416

usemtl m844
f 417 418 419

usemtl m845
f 420 421 422

usemtl m846
f 423 424 425

usemtl m847
f 426 427 428

usemtl m848
f 429 430 431

usemtl m849
f 432 433 434

usemtl m850
f 435 436 437

usemtl m851
f 438 439 440

usemtl m852
f 441 442 443

usemtl m853
f 444 445 446

usemtl m854
f 447 448 449

usemtl m855
f 450 451 452

usemtl m856
f 453 454 455

usemtl m857
f 456 457 458

usemtl m858
f 459 460 461

usemtl m859
f 462 463 464

usemtl m860
f 465 466 467

usemtl m861
f 468 469 470

usemtl m862
f 471 472 473

usemtl m863
f 474 215 214

usemtl m864
f 474 214 475

usemtl m865
f 474 475 213

usemtl m866
f 474 213 287

usemtl m867
f 474 287 215

usemtl m868
f 287 213 413

usemtl m869
f 287 413 285

usemtl m870
f 285 413 286

usemtl m871
f 475 214 213

usemtl m872
f 213 212 413

