newmtl m0
Kd 0.5254901960784314 0.47058823529411764 0.4666666666666667
newmtl m1
Kd 0.5254901960784314 0.47058823529411764 0.4666666666666667
newmtl m2
Kd 0.5254901960784314 0.47058823529411764 0.4666666666666667
newmtl m3
Kd 0.5254901960784314 0.47058823529411764 0.4666666666666667
newmtl m4
Kd 0.5254901960784314 0.47058823529411764 0.4666666666666667
newmtl m5
Kd 0.6980392156862745 0.5450980392156862 0.14901960784313725
newmtl m6
Kd 0.6980392156862745 0.5450980392156862 0.14901960784313725
newmtl m7
Kd 0.5254901960784314 0.47058823529411764 0.4666666666666667
newmtl m8
Kd 0.5254901960784314 0.47058823529411764 0.4666666666666667
newmtl m9
Kd 0.5254901960784314 0.47058823529411764 0.4666666666666667
newmtl m10
Kd 0.5254901960784314 0.47058823529411764 0.4666666666666667
newmtl m11
Kd 0.5254901960784314 0.47058823529411764 0.4666666666666667
newmtl m12
Kd 0.5254901960784314 0.47058823529411764 0.4666666666666667
newmtl m13
Kd 0.5254901960784314 0.47058823529411764 0.4666666666666667
newmtl m14
Kd 0.5254901960784314 0.47058823529411764 0.4666666666666667
newmtl m15
Kd 0.5254901960784314 0.47058823529411764 0.4666666666666667
newmtl m16
Kd 0.5254901960784314 0.47058823529411764 0.4666666666666667
newmtl m17
Kd 0.5254901960784314 0.47058823529411764 0.4666666666666667
newmtl m18
Kd 0.5254901960784314 0.47058823529411764 0.4666666666666667
newmtl m19
Kd 0.5254901960784314 0.47058823529411764 0.4666666666666667
newmtl m20
Kd 0.3764705882352941 0.33725490196078434 0.3333333333333333
newmtl m21
Kd 0.3764705882352941 0.33725490196078434 0.3333333333333333
newmtl m22
Kd 0.3764705882352941 0.33725490196078434 0.3333333333333333
newmtl m23
Kd 0.6980392156862745 0.5450980392156862 0.14901960784313725
newmtl m24
Kd 0.6980392156862745 0.5450980392156862 0.14901960784313725
newmtl m25
Kd 0.3764705882352941 0.33725490196078434 0.3333333333333333
newmtl m26
Kd 0.3764705882352941 0.33725490196078434 0.3333333333333333
newmtl m27
Kd 0.3764705882352941 0.33725490196078434 0.3333333333333333
newmtl m28
Kd 0.3764705882352941 0.33725490196078434 0.3333333333333333
newmtl m29
Kd 0.3764705882352941 0.33725490196078434 0.3333333333333333
newmtl m30
Kd 0.3764705882352941 0.33725490196078434 0.3333333333333333
newmtl m31
Kd 0.3764705882352941 0.33725490196078434 0.3333333333333333
newmtl m32
Kd 0.3764705882352941 0.33725490196078434 0.3333333333333333
newmtl m33
Kd 0.3764705882352941 0.33725490196078434 0.3333333333333333
newmtl m34
Kd 0.5254901960784314 0.47058823529411764 0.4666666666666667
newmtl m35
Kd 0.5254901960784314 0.47058823529411764 0.4666666666666667
newmtl m36
Kd 0.5254901960784314 0.47058823529411764 0.4666666666666667
newmtl m37
Kd 0.34901960784313724 0.2901960784313726 0.14901960784313725
newmtl m38
Kd 0.34901960784313724 0.2901960784313726 0.14901960784313725
newmtl m39
Kd 0.34901960784313724 0.2901960784313726 0.14901960784313725
newmtl m40
Kd 0.34901960784313724 0.2901960784313726 0.14901960784313725
newmtl m41
Kd 0.5254901960784314 0.47058823529411764 0.4666666666666667
newmtl m42
Kd 0.5254901960784314 0.47058823529411764 0.4666666666666667
newmtl m43
Kd 0.0 0.0 0.00392156862745098
newmtl m44
Kd 0.0 0.0 0.00392156862745098
newmtl m45
Kd 0.5254901960784314 0.47058823529411764 0.4666666666666667
newmtl m46
Kd 0.5254901960784314 0.47058823529411764 0.4666666666666667
newmtl m47
Kd 0.5254901960784314 0.47058823529411764 0.4666666666666667
newmtl m48
Kd 0.34901960784313724 0.2901960784313726 0.14901960784313725
newmtl m49
Kd 0.34901960784313724 0.2901960784313726 0.14901960784313725
newmtl m50
Kd 0.5254901960784314 0.47058823529411764 0.4666666666666667
newmtl m51
Kd 0.5254901960784314 0.47058823529411764 0.4666666666666667
newmtl m52
Kd 0.5254901960784314 0.47058823529411764 0.4666666666666667
newmtl m53
Kd 0.5254901960784314 0.47058823529411764 0.4666666666666667
newmtl m54
Kd 0.5254901960784314 0.47058823529411764 0.4666666666666667
newmtl m55
Kd 0.5254901960784314 0.47058823529411764 0.4666666666666667
newmtl m56
Kd 0.5254901960784314 0.47058823529411764 0.4666666666666667
newmtl m57
Kd 0.34901960784313724 0.2901960784313726 0.14901960784313725
newmtl m58
Kd 0.34901960784313724 0.2901960784313726 0.14901960784313725
newmtl m59
Kd 0.5254901960784314 0.47058823529411764 0.4666666666666667
newmtl m60
Kd 0.5254901960784314 0.47058823529411764 0.4666666666666667
newmtl m61
Kd 0.5803921568627451 0.4666666666666667 0.1843137254901961
newmtl m62
Kd 0.5803921568627451 0.4666666666666667 0.1843137254901961
newmtl m63
Kd 0.5803921568627451 0.4666666666666667 0.1843137254901961
newmtl m64
Kd 0.5803921568627451 0.4666666666666667 0.1843137254901961
newmtl m65
Kd 0.5803921568627451 0.4666666666666667 0.1843137254901961
newmtl m66
Kd 0.5803921568627451 0.4666666666666667 0.1843137254901961
newmtl m67
Kd 0.5803921568627451 0.4666666666666667 0.1843137254901961
newmtl m68
Kd 0.5803921568627451 0.4666666666666667 0.1843137254901961
newmtl m69
Kd 0.34901960784313724 0.2901960784313726 0.14901960784313725
newmtl m70
Kd 0.34901960784313724 0.2901960784313726 0.14901960784313725
newmtl m71
Kd 0.34901960784313724 0.2901960784313726 0.14901960784313725
newmtl m72
Kd 0.34901960784313724 0.2901960784313726 0.14901960784313725
newmtl m73
Kd 0.34901960784313724 0.2901960784313726 0.14901960784313725
newmtl m74
Kd 0.34901960784313724 0.2901960784313726 0.14901960784313725
newmtl m75
Kd 0.34901960784313724 0.2901960784313726 0.14901960784313725
newmtl m76
Kd 0.34901960784313724 0.2901960784313726 0.14901960784313725
newmtl m77
Kd 0.5803921568627451 0.4666666666666667 0.1843137254901961
newmtl m78
Kd 0.5803921568627451 0.4666666666666667 0.1843137254901961
newmtl m79
Kd 0.5803921568627451 0.4666666666666667 0.1843137254901961
newmtl m80
Kd 0.5803921568627451 0.4666666666666667 0.1843137254901961
newmtl m81
Kd 0.5803921568627451 0.4666666666666667 0.1843137254901961
newmtl m82
Kd 0.5803921568627451 0.4666666666666667 0.1843137254901961
newmtl m83
Kd 0.5803921568627451 0.4666666666666667 0.1843137254901961
newmtl m84
Kd 0.5803921568627451 0.4666666666666667 0.1843137254901961
newmtl m85
Kd 0.34901960784313724 0.2901960784313726 0.14901960784313725
newmtl m86
Kd 0.34901960784313724 0.2901960784313726 0.14901960784313725
newmtl m87
Kd 0.34901960784313724 0.2901960784313726 0.14901960784313725
newmtl m88
Kd 0.34901960784313724 0.2901960784313726 0.14901960784313725
newmtl m89
Kd 0.34901960784313724 0.2901960784313726 0.14901960784313725
newmtl m90
Kd 0.34901960784313724 0.2901960784313726 0.14901960784313725
newmtl m91
Kd 0.34901960784313724 0.2901960784313726 0.14901960784313725
newmtl m92
Kd 0.34901960784313724 0.2901960784313726 0.14901960784313725
newmtl m93
Kd 0.5803921568627451 0.4666666666666667 0.1843137254901961
newmtl m94
Kd 0.5803921568627451 0.4666666666666667 0.1843137254901961
newmtl m95
Kd 0.5803921568627451 0.4666666666666667 0.1843137254901961
newmtl m96
Kd 0.5803921568627451 0.4666666666666667 0.1843137254901961
newmtl m97
Kd 0.5803921568627451 0.4666666666666667 0.1843137254901961
newmtl m98
Kd 0.5803921568627451 0.4666666666666667 0.1843137254901961
newmtl m99
Kd 0.5803921568627451 0.4666666666666667 0.1843137254901961
newmtl m100
Kd 0.5803921568627451 0.4666666666666667 0.1843137254901961
newmtl m101
Kd 0.6980392156862745 0.5450980392156862 0.14901960784313725
newmtl m102
Kd 0.6980392156862745 0.5450980392156862 0.14901960784313725
newmtl m103
Kd 0.6980392156862745 0.5450980392156862 0.14901960784313725
newmtl m104
Kd 0.6980392156862745 0.5450980392156862 0.14901960784313725
newmtl m105
Kd 0.6980392156862745 0.5450980392156862 0.14901960784313725
newmtl m106
Kd 0.6980392156862745 0.5450980392156862 0.14901960784313725
newmtl m107
Kd 0.6980392156862745 0.5450980392156862 0.14901960784313725
newmtl m108
Kd 0.6980392156862745 0.5450980392156862 0.14901960784313725
newmtl m109
Kd 0.6980392156862745 0.5450980392156862 0.14901960784313725
newmtl m110
Kd 0.6980392156862745 0.5450980392156862 0.14901960784313725
newmtl m111
Kd 0.6980392156862745 0.5450980392156862 0.14901960784313725
newmtl m112
Kd 0.6980392156862745 0.5450980392156862 0.14901960784313725
newmtl m113
Kd 0.6980392156862745 0.5450980392156862 0.14901960784313725
newmtl m114
Kd 0.6980392156862745 0.5450980392156862 0.14901960784313725
newmtl m115
Kd 0.6980392156862745 0.5450980392156862 0.14901960784313725
newmtl m116
Kd 0.6980392156862745 0.5450980392156862 0.14901960784313725
newmtl m117
Kd 0.6980392156862745 0.5450980392156862 0.14901960784313725
newmtl m118
Kd 0.6980392156862745 0.5450980392156862 0.14901960784313725
newmtl m119
Kd 0.6980392156862745 0.5450980392156862 0.14901960784313725
newmtl m120
Kd 0.6980392156862745 0.5450980392156862 0.14901960784313725
newmtl m121
Kd 0.6980392156862745 0.5450980392156862 0.14901960784313725
newmtl m122
Kd 0.6980392156862745 0.5450980392156862 0.14901960784313725
newmtl m123
Kd 0.6980392156862745 0.5450980392156862 0.14901960784313725
newmtl m124
Kd 0.6980392156862745 0.5450980392156862 0.14901960784313725
newmtl m125
Kd 0.6980392156862745 0.5450980392156862 0.14901960784313725
newmtl m126
Kd 0.6980392156862745 0.5450980392156862 0.14901960784313725
newmtl m127
Kd 0.6980392156862745 0.5450980392156862 0.14901960784313725
newmtl m128
Kd 0.6980392156862745 0.5450980392156862 0.14901960784313725
newmtl m129
Kd 0.6980392156862745 0.5450980392156862 0.14901960784313725
newmtl m130
Kd 0.6980392156862745 0.5450980392156862 0.14901960784313725
newmtl m131
Kd 0.6980392156862745 0.5450980392156862 0.14901960784313725
newmtl m132
Kd 0.6980392156862745 0.5450980392156862 0.14901960784313725
newmtl m133
Kd 0.6980392156862745 0.5450980392156862 0.14901960784313725
newmtl m134
Kd 0.6980392156862745 0.5450980392156862 0.14901960784313725
newmtl m135
Kd 0.6980392156862745 0.5450980392156862 0.14901960784313725
newmtl m136
Kd 0.6980392156862745 0.5450980392156862 0.14901960784313725
newmtl m137
Kd 0.6980392156862745 0.5450980392156862 0.14901960784313725
newmtl m138
Kd 0.6980392156862745 0.5450980392156862 0.14901960784313725
newmtl m139
Kd 0.6980392156862745 0.5450980392156862 0.14901960784313725
newmtl m140
Kd 0.6980392156862745 0.5450980392156862 0.14901960784313725
newmtl m141
Kd 0.6980392156862745 0.5450980392156862 0.14901960784313725
newmtl m142
Kd 0.6980392156862745 0.5450980392156862 0.14901960784313725
newmtl m143
Kd 0.6980392156862745 0.5450980392156862 0.14901960784313725
newmtl m144
Kd 0.6980392156862745 0.5450980392156862 0.14901960784313725
newmtl m145
Kd 0.6980392156862745 0.5450980392156862 0.14901960784313725
newmtl m146
Kd 0.6980392156862745 0.5450980392156862 0.14901960784313725
newmtl m147
Kd 0.6980392156862745 0.5450980392156862 0.14901960784313725
newmtl m148
Kd 0.6980392156862745 0.5450980392156862 0.14901960784313725
newmtl m149
Kd 0.6980392156862745 0.5450980392156862 0.14901960784313725
newmtl m150
Kd 0.6980392156862745 0.5450980392156862 0.14901960784313725
newmtl m151
Kd 0.6980392156862745 0.5450980392156862 0.14901960784313725
newmtl m152
Kd 0.6980392156862745 0.5450980392156862 0.14901960784313725
newmtl m153
Kd 0.6980392156862745 0.5450980392156862 0.14901960784313725
newmtl m154
Kd 0.6980392156862745 0.5450980392156862 0.14901960784313725
newmtl m155
Kd 0.6980392156862745 0.5450980392156862 0.14901960784313725
newmtl m156
Kd 0.6980392156862745 0.5450980392156862 0.14901960784313725
newmtl m157
Kd 0.6980392156862745 0.5450980392156862 0.14901960784313725
newmtl m158
Kd 0.6980392156862745 0.5450980392156862 0.14901960784313725
newmtl m159
Kd 0.6980392156862745 0.5450980392156862 0.14901960784313725
newmtl m160
Kd 0.6980392156862745 0.5450980392156862 0.14901960784313725
newmtl m161
Kd 0.6980392156862745 0.5450980392156862 0.14901960784313725
newmtl m162
Kd 0.6980392156862745 0.5450980392156862 0.14901960784313725
newmtl m163
Kd 0.6980392156862745 0.5450980392156862 0.14901960784313725
newmtl m164
Kd 0.6980392156862745 0.5450980392156862 0.14901960784313725
newmtl m165
Kd 0.6980392156862745 0.5450980392156862 0.14901960784313725
newmtl m166
Kd 0.6980392156862745 0.5450980392156862 0.14901960784313725
newmtl m167
Kd 0.6980392156862745 0.5450980392156862 0.14901960784313725
newmtl m168
Kd 0.6980392156862745 0.5450980392156862 0.14901960784313725
newmtl m169
Kd 0.6980392156862745 0.5450980392156862 0.14901960784313725
newmtl m170
Kd 0.6980392156862745 0.5450980392156862 0.14901960784313725
newmtl m171
Kd 0.6980392156862745 0.5450980392156862 0.14901960784313725
newmtl m172
Kd 0.6980392156862745 0.5450980392156862 0.14901960784313725
newmtl m173
Kd 0.6980392156862745 0.5450980392156862 0.14901960784313725
newmtl m174
Kd 0.6980392156862745 0.5450980392156862 0.14901960784313725
newmtl m175
Kd 0.6980392156862745 0.5450980392156862 0.14901960784313725
newmtl m176
Kd 0.6980392156862745 0.5450980392156862 0.14901960784313725
newmtl m177
Kd 0.6980392156862745 0.5450980392156862 0.14901960784313725
newmtl m178
Kd 0.6980392156862745 0.5450980392156862 0.14901960784313725
newmtl m179
Kd 0.6980392156862745 0.5450980392156862 0.14901960784313725
newmtl m180
Kd 0.6980392156862745 0.5450980392156862 0.14901960784313725
newmtl m181
Kd 0.6980392156862745 0.5450980392156862 0.14901960784313725
newmtl m182
Kd 0.6980392156862745 0.5450980392156862 0.14901960784313725
newmtl m183
Kd 0.6980392156862745 0.5450980392156862 0.14901960784313725
newmtl m184
Kd 0.6980392156862745 0.5450980392156862 0.14901960784313725
newmtl m185
Kd 0.6980392156862745 0.5450980392156862 0.14901960784313725
newmtl m186
Kd 0.6980392156862745 0.5450980392156862 0.14901960784313725
newmtl m187
Kd 0.6980392156862745 0.5450980392156862 0.14901960784313725
newmtl m188
Kd 0.6980392156862745 0.5450980392156862 0.14901960784313725
newmtl m189
Kd 0.6980392156862745 0.5450980392156862 0.14901960784313725
newmtl m190
Kd 0.6980392156862745 0.5450980392156862 0.14901960784313725
newmtl m191
Kd 0.5254901960784314 0.47058823529411764 0.4666666666666667
newmtl m192
Kd 0.5254901960784314 0.47058823529411764 0.4666666666666667
newmtl m193
Kd 0.5254901960784314 0.47058823529411764 0.4666666666666667
newmtl m194
Kd 0.5254901960784314 0.47058823529411764 0.4666666666666667
newmtl m195
Kd 0.5254901960784314 0.47058823529411764 0.4666666666666667
newmtl m196
Kd 0.5254901960784314 0.47058823529411764 0.4666666666666667
newmtl m197
Kd 0.5254901960784314 0.47058823529411764 0.4666666666666667
newmtl m198
Kd 0.5254901960784314 0.47058823529411764 0.4666666666666667
newmtl m199
Kd 0.6980392156862745 0.5450980392156862 0.14901960784313725
newmtl m200
Kd 0.6980392156862745 0.5450980392156862 0.14901960784313725
newmtl m201
Kd 0.6980392156862745 0.5450980392156862 0.14901960784313725
newmtl m202
Kd 0.6980392156862745 0.5450980392156862 0.14901960784313725
newmtl m203
Kd 0.6980392156862745 0.5450980392156862 0.14901960784313725
newmtl m204
Kd 0.6980392156862745 0.5450980392156862 0.14901960784313725
newmtl m205
Kd 0.6980392156862745 0.5450980392156862 0.14901960784313725
newmtl m206
Kd 0.6980392156862745 0.5450980392156862 0.14901960784313725
newmtl m207
Kd 0.6980392156862745 0.5450980392156862 0.14901960784313725
newmtl m208
Kd 0.6980392156862745 0.5450980392156862 0.14901960784313725
newmtl m209
Kd 0.6980392156862745 0.5450980392156862 0.14901960784313725
newmtl m210
Kd 0.6980392156862745 0.5450980392156862 0.14901960784313725
newmtl m211
Kd 0.6980392156862745 0.5450980392156862 0.14901960784313725
newmtl m212
Kd 0.6980392156862745 0.5450980392156862 0.14901960784313725
newmtl m213
Kd 0.6980392156862745 0.5450980392156862 0.14901960784313725
newmtl m214
Kd 0.6980392156862745 0.5450980392156862 0.14901960784313725
newmtl m215
Kd 0.6980392156862745 0.5450980392156862 0.14901960784313725
newmtl m216
Kd 0.6980392156862745 0.5450980392156862 0.14901960784313725
newmtl m217
Kd 0.6980392156862745 0.5450980392156862 0.14901960784313725
newmtl m218
Kd 0.6980392156862745 0.5450980392156862 0.14901960784313725
newmtl m219
Kd 0.6980392156862745 0.5450980392156862 0.14901960784313725
newmtl m220
Kd 0.6980392156862745 0.5450980392156862 0.14901960784313725
newmtl m221
Kd 0.6980392156862745 0.5450980392156862 0.14901960784313725
newmtl m222
Kd 0.6980392156862745 0.5450980392156862 0.14901960784313725
newmtl m223
Kd 0.6980392156862745 0.5450980392156862 0.14901960784313725
newmtl m224
Kd 0.6980392156862745 0.5450980392156862 0.14901960784313725
newmtl m225
Kd 0.6980392156862745 0.5450980392156862 0.14901960784313725
newmtl m226
Kd 0.6980392156862745 0.5450980392156862 0.14901960784313725
newmtl m227
Kd 0.6980392156862745 0.5450980392156862 0.14901960784313725
newmtl m228
Kd 0.6980392156862745 0.5450980392156862 0.14901960784313725
newmtl m229
Kd 0.6980392156862745 0.5450980392156862 0.14901960784313725
newmtl m230
Kd 0.6980392156862745 0.5450980392156862 0.14901960784313725
newmtl m231
Kd 0.6980392156862745 0.5450980392156862 0.14901960784313725
newmtl m232
Kd 0.6980392156862745 0.5450980392156862 0.14901960784313725
newmtl m233
Kd 0.5254901960784314 0.47058823529411764 0.4666666666666667
newmtl m234
Kd 0.5254901960784314 0.47058823529411764 0.4666666666666667
newmtl m235
Kd 0.5254901960784314 0.47058823529411764 0.4666666666666667
newmtl m236
Kd 0.5254901960784314 0.47058823529411764 0.4666666666666667
newmtl m237
Kd 0.5254901960784314 0.47058823529411764 0.4666666666666667
newmtl m238
Kd 0.5254901960784314 0.47058823529411764 0.4666666666666667
newmtl m239
Kd 0.5254901960784314 0.47058823529411764 0.4666666666666667
newmtl m240
Kd 0.5254901960784314 0.47058823529411764 0.4666666666666667
newmtl m241
Kd 0.5254901960784314 0.47058823529411764 0.4666666666666667
newmtl m242
Kd 0.5254901960784314 0.47058823529411764 0.4666666666666667
newmtl m243
Kd 0.5254901960784314 0.47058823529411764 0.4666666666666667
newmtl m244
Kd 0.5254901960784314 0.47058823529411764 0.4666666666666667
newmtl m245
Kd 0.5254901960784314 0.47058823529411764 0.4666666666666667
newmtl m246
Kd 0.5254901960784314 0.47058823529411764 0.4666666666666667
newmtl m247
Kd 0.5254901960784314 0.47058823529411764 0.4666666666666667
newmtl m248
Kd 0.5254901960784314 0.47058823529411764 0.4666666666666667
newmtl m249
Kd 0.5254901960784314 0.47058823529411764 0.4666666666666667
newmtl m250
Kd 0.5254901960784314 0.47058823529411764 0.4666666666666667
newmtl m251
Kd 0.5254901960784314 0.47058823529411764 0.4666666666666667
newmtl m252
Kd 0.5254901960784314 0.47058823529411764 0.4666666666666667
newmtl m253
Kd 0.5254901960784314 0.47058823529411764 0.4666666666666667
newmtl m254
Kd 0.5254901960784314 0.47058823529411764 0.4666666666666667
newmtl m255
Kd 0.5254901960784314 0.47058823529411764 0.4666666666666667
newmtl m256
Kd 0.34901960784313724 0.2901960784313726 0.14901960784313725
newmtl m257
Kd 0.34901960784313724 0.2901960784313726 0.14901960784313725
newmtl m258
Kd 0.34901960784313724 0.2901960784313726 0.14901960784313725
newmtl m259
Kd 0.5254901960784314 0.47058823529411764 0.4666666666666667
newmtl m260
Kd 0.5254901960784314 0.47058823529411764 0.4666666666666667
newmtl m261
Kd 0.0 0.0 0.00392156862745098
newmtl m262
Kd 0.0 0.0 0.00392156862745098
newmtl m263
Kd 0.5254901960784314 0.47058823529411764 0.4666666666666667
newmtl m264
Kd 0.5254901960784314 0.47058823529411764 0.4666666666666667
newmtl m265
Kd 0.5254901960784314 0.47058823529411764 0.4666666666666667
newmtl m266
Kd 0.5254901960784314 0.47058823529411764 0.4666666666666667
newmtl m267
Kd 0.5254901960784314 0.47058823529411764 0.4666666666666667
newmtl m268
Kd 0.6980392156862745 0.5450980392156862 0.14901960784313725
newmtl m269
Kd 0.5254901960784314 0.47058823529411764 0.4666666666666667
newmtl m270
Kd 0.34901960784313724 0.2901960784313726 0.14901960784313725
newmtl m271
Kd 0.34901960784313724 0.2901960784313726 0.14901960784313725
newmtl m272
Kd 0.34901960784313724 0.2901960784313726 0.14901960784313725
newmtl m273
Kd 0.34901960784313724 0.2901960784313726 0.14901960784313725
newmtl m274
Kd 0.34901960784313724 0.2901960784313726 0.14901960784313725
newmtl m275
Kd 0.6980392156862745 0.5450980392156862 0.14901960784313725
newmtl m276
Kd 0.6980392156862745 0.5450980392156862 0.14901960784313725
newmtl m277
Kd 0.6980392156862745 0.5450980392156862 0.14901960784313725
newmtl m278
Kd 0.6980392156862745 0.5450980392156862 0.14901960784313725
newmtl m279
Kd 0.6980392156862745 0.5450980392156862 0.14901960784313725
newmtl m280
Kd 0.6980392156862745 0.5450980392156862 0.14901960784313725
newmtl m281
Kd 0.6980392156862745 0.5450980392156862 0.14901960784313725
newmtl m282
Kd 0.6980392156862745 0.5450980392156862 0.14901960784313725
newmtl m283
Kd 0.6980392156862745 0.5450980392156862 0.14901960784313725
newmtl m284
Kd 0.6980392156862745 0.5450980392156862 0.14901960784313725
newmtl m285
Kd 0.6980392156862745 0.5450980392156862 0.14901960784313725
newmtl m286
Kd 0.0 0.0 0.00392156862745098
newmtl m287
Kd 0.0 0.0 0.00392156862745098
newmtl m288
Kd 0.5254901960784314 0.47058823529411764 0.4666666666666667
newmtl m289
Kd 0.5254901960784314 0.47058823529411764 0.4666666666666667
newmtl m290
Kd 0.5254901960784314 0.47058823529411764 0.4666666666666667
newmtl m291
Kd 0.5254901960784314 0.47058823529411764 0.4666666666666667
newmtl m292
Kd 0.5254901960784314 0.47058823529411764 0.4666666666666667
newmtl m293
Kd 0.5254901960784314 0.47058823529411764 0.4666666666666667
newmtl m294
Kd 0.5254901960784314 0.47058823529411764 0.4666666666666667
newmtl m295
Kd 0.5254901960784314 0.47058823529411764 0.4666666666666667
newmtl m296
Kd 0.5254901960784314 0.47058823529411764 0.4666666666666667
newmtl m297
Kd 0.5254901960784314 0.47058823529411764 0.4666666666666667
newmtl m298
Kd 0.5254901960784314 0.47058823529411764 0.4666666666666667
newmtl m299
Kd 0.5254901960784314 0.47058823529411764 0.4666666666666667
newmtl m300
Kd 0.5254901960784314 0.47058823529411764 0.4666666666666667
newmtl m301
Kd 0.0 0.0 0.00392156862745098
newmtl m302
Kd 0.0 0.0 0.00392156862745098
newmtl m303
Kd 0.5254901960784314 0.47058823529411764 0.4666666666666667
newmtl m304
Kd 0.5254901960784314 0.47058823529411764 0.4666666666666667
newmtl m305
Kd 0.5254901960784314 0.47058823529411764 0.4666666666666667
newmtl m306
Kd 0.5254901960784314 0.47058823529411764 0.4666666666666667
newmtl m307
Kd 0.5254901960784314 0.47058823529411764 0.4666666666666667
newmtl m308
Kd 0.5254901960784314 0.47058823529411764 0.4666666666666667
newmtl m309
Kd 0.5254901960784314 0.47058823529411764 0.4666666666666667
newmtl m310
Kd 0.5254901960784314 0.47058823529411764 0.4666666666666667
newmtl m311
Kd 0.5254901960784314 0.47058823529411764 0.4666666666666667
newmtl m312
Kd 0.6666666666666666 0.5568627450980392 0.28627450980392155
newmtl m313
Kd 0.4235294117647059 0.3803921568627451 0.3803921568627451
newmtl m314
Kd 0.4235294117647059 0.3803921568627451 0.3803921568627451
newmtl m315
Kd 0.3411764705882353 0.3058823529411765 0.3058823529411765
newmtl m316
Kd 0.3411764705882353 0.3058823529411765 0.3058823529411765
newmtl m317
Kd 0.4235294117647059 0.3803921568627451 0.3803921568627451
newmtl m318
Kd 0.4235294117647059 0.3803921568627451 0.3803921568627451
newmtl m319
Kd 0.6666666666666666 0.5568627450980392 0.28627450980392155
newmtl m320
Kd 0.6666666666666666 0.5568627450980392 0.28627450980392155
newmtl m321
Kd 0.6666666666666666 0.5568627450980392 0.28627450980392155
newmtl m322
Kd 0.6666666666666666 0.5568627450980392 0.28627450980392155
newmtl m323
Kd 0.6666666666666666 0.5568627450980392 0.28627450980392155
newmtl m324
Kd 0.403921568627451 0.33725490196078434 0.17254901960784313
newmtl m325
Kd 0.403921568627451 0.33725490196078434 0.17254901960784313
newmtl m326
Kd 0.6666666666666666 0.5568627450980392 0.28627450980392155
newmtl m327
Kd 0.6666666666666666 0.5568627450980392 0.28627450980392155
newmtl m328
Kd 0.403921568627451 0.33725490196078434 0.17254901960784313
newmtl m329
Kd 0.3411764705882353 0.3058823529411765 0.3058823529411765
newmtl m330
Kd 0.3411764705882353 0.3058823529411765 0.3058823529411765
newmtl m331
Kd 0.3411764705882353 0.3058823529411765 0.3058823529411765
newmtl m332
Kd 0.3411764705882353 0.3058823529411765 0.3058823529411765
newmtl m333
Kd 0.403921568627451 0.33725490196078434 0.17254901960784313
newmtl m334
Kd 0.403921568627451 0.33725490196078434 0.17254901960784313
newmtl m335
Kd 0.403921568627451 0.33725490196078434 0.17254901960784313
newmtl m336
Kd 0.403921568627451 0.33725490196078434 0.17254901960784313
newmtl m337
Kd 0.6666666666666666 0.5568627450980392 0.28627450980392155
newmtl m338
Kd 0.6666666666666666 0.5568627450980392 0.28627450980392155
newmtl m339
Kd 0.403921568627451 0.33725490196078434 0.17254901960784313
newmtl m340
Kd 0.6666666666666666 0.5568627450980392 0.28627450980392155
newmtl m341
Kd 0.4235294117647059 0.3803921568627451 0.3803921568627451
newmtl m342
Kd 0.4235294117647059 0.3803921568627451 0.3803921568627451
newmtl m343
Kd 0.6666666666666666 0.5568627450980392 0.28627450980392155
newmtl m344
Kd 0.4235294117647059 0.3803921568627451 0.3803921568627451
newmtl m345
Kd 0.4235294117647059 0.3803921568627451 0.3803921568627451
newmtl m346
Kd 0.6666666666666666 0.5568627450980392 0.28627450980392155
newmtl m347
Kd 0.6666666666666666 0.5568627450980392 0.28627450980392155
newmtl m348
Kd 0.3411764705882353 0.3058823529411765 0.3058823529411765
newmtl m349
Kd 0.3411764705882353 0.3058823529411765 0.3058823529411765
newmtl m350
Kd 0.4235294117647059 0.3803921568627451 0.3803921568627451
newmtl m351
Kd 0.4235294117647059 0.3803921568627451 0.3803921568627451
newmtl m352
Kd 0.6666666666666666 0.5568627450980392 0.28627450980392155
newmtl m353
Kd 0.6666666666666666 0.5568627450980392 0.28627450980392155
newmtl m354
Kd 0.4235294117647059 0.3803921568627451 0.3803921568627451
newmtl m355
Kd 0.4235294117647059 0.3803921568627451 0.3803921568627451
newmtl m356
Kd 0.4235294117647059 0.3803921568627451 0.3803921568627451
newmtl m357
Kd 0.4235294117647059 0.3803921568627451 0.3803921568627451
newmtl m358
Kd 0.3411764705882353 0.3058823529411765 0.3058823529411765
newmtl m359
Kd 0.3411764705882353 0.3058823529411765 0.3058823529411765
newmtl m360
Kd 0.3411764705882353 0.3058823529411765 0.3058823529411765
newmtl m361
Kd 0.3411764705882353 0.3058823529411765 0.3058823529411765
newmtl m362
Kd 0.4235294117647059 0.3803921568627451 0.3803921568627451
newmtl m363
Kd 0.4235294117647059 0.3803921568627451 0.3803921568627451
newmtl m364
Kd 0.4235294117647059 0.3803921568627451 0.3803921568627451
newmtl m365
Kd 0.4235294117647059 0.3803921568627451 0.3803921568627451
newmtl m366
Kd 0.4235294117647059 0.3803921568627451 0.3803921568627451
newmtl m367
Kd 0.4235294117647059 0.3803921568627451 0.3803921568627451
newmtl m368
Kd 0.4235294117647059 0.3803921568627451 0.3803921568627451
newmtl m369
Kd 0.4235294117647059 0.3803921568627451 0.3803921568627451
newmtl m370
Kd 0.4235294117647059 0.3803921568627451 0.3803921568627451
newmtl m371
Kd 0.4235294117647059 0.3803921568627451 0.3803921568627451
newmtl m372
Kd 0.4235294117647059 0.3803921568627451 0.3803921568627451
newmtl m373
Kd 0.4235294117647059 0.3803921568627451 0.3803921568627451
newmtl m374
Kd 0.4235294117647059 0.3803921568627451 0.3803921568627451
newmtl m375
Kd 0.4235294117647059 0.3803921568627451 0.3803921568627451
newmtl m376
Kd 0.4235294117647059 0.3803921568627451 0.3803921568627451
newmtl m377
Kd 0.4235294117647059 0.3803921568627451 0.3803921568627451
newmtl m378
Kd 0.4235294117647059 0.3803921568627451 0.3803921568627451
newmtl m379
Kd 0.4235294117647059 0.3803921568627451 0.3803921568627451
newmtl m380
Kd 0.4235294117647059 0.3803921568627451 0.3803921568627451
newmtl m381
Kd 0.4235294117647059 0.3803921568627451 0.3803921568627451
newmtl m382
Kd 0.4235294117647059 0.3803921568627451 0.3803921568627451
newmtl m383
Kd 0.4235294117647059 0.3803921568627451 0.3803921568627451
newmtl m384
Kd 0.4235294117647059 0.3803921568627451 0.3803921568627451
newmtl m385
Kd 0.4235294117647059 0.3803921568627451 0.3803921568627451
newmtl m386
Kd 0.4235294117647059 0.3803921568627451 0.3803921568627451
newmtl m387
Kd 0.4235294117647059 0.3803921568627451 0.3803921568627451
newmtl m388
Kd 0.4235294117647059 0.3803921568627451 0.3803921568627451
newmtl m389
Kd 0.4235294117647059 0.3803921568627451 0.3803921568627451
newmtl m390
Kd 0.4235294117647059 0.3803921568627451 0.3803921568627451
newmtl m391
Kd 0.4235294117647059 0.3803921568627451 0.3803921568627451
newmtl m392
Kd 0.4235294117647059 0.3803921568627451 0.3803921568627451
newmtl m393
Kd 0.4235294117647059 0.3803921568627451 0.3803921568627451
newmtl m394
Kd 0.4235294117647059 0.3803921568627451 0.3803921568627451
newmtl m395
Kd 0.4235294117647059 0.3803921568627451 0.3803921568627451
newmtl m396
Kd 0.4235294117647059 0.3803921568627451 0.3803921568627451
newmtl m397
Kd 0.4235294117647059 0.3803921568627451 0.3803921568627451
newmtl m398
Kd 0.3411764705882353 0.3058823529411765 0.3058823529411765
newmtl m399
Kd 0.3411764705882353 0.3058823529411765 0.3058823529411765
newmtl m400
Kd 0.3411764705882353 0.3058823529411765 0.3058823529411765
newmtl m401
Kd 0.3411764705882353 0.3058823529411765 0.3058823529411765
newmtl m402
Kd 0.3411764705882353 0.3058823529411765 0.3058823529411765
newmtl m403
Kd 0.3411764705882353 0.3058823529411765 0.3058823529411765
newmtl m404
Kd 0.6666666666666666 0.5568627450980392 0.28627450980392155
newmtl m405
Kd 0.6666666666666666 0.5568627450980392 0.28627450980392155
newmtl m406
Kd 0.403921568627451 0.33725490196078434 0.17254901960784313
newmtl m407
Kd 0.3411764705882353 0.3058823529411765 0.3058823529411765
newmtl m408
Kd 0.403921568627451 0.33725490196078434 0.17254901960784313
newmtl m409
Kd 0.403921568627451 0.33725490196078434 0.17254901960784313
newmtl m410
Kd 0.6666666666666666 0.5568627450980392 0.28627450980392155
newmtl m411
Kd 0.6666666666666666 0.5568627450980392 0.28627450980392155
newmtl m412
Kd 0.3411764705882353 0.3058823529411765 0.3058823529411765
newmtl m413
Kd 0.3411764705882353 0.3058823529411765 0.3058823529411765
newmtl m414
Kd 0.3411764705882353 0.3058823529411765 0.3058823529411765
newmtl m415
Kd 0.3411764705882353 0.3058823529411765 0.3058823529411765
newmtl m416
Kd 0.3411764705882353 0.3058823529411765 0.3058823529411765
newmtl m417
Kd 0.3411764705882353 0.3058823529411765 0.3058823529411765
newmtl m418
Kd 0.3411764705882353 0.3058823529411765 0.3058823529411765
newmtl m419
Kd 0.3411764705882353 0.3058823529411765 0.3058823529411765
newmtl m420
Kd 0.3411764705882353 0.3058823529411765 0.3058823529411765
newmtl m421
Kd 0.3411764705882353 0.3058823529411765 0.3058823529411765
newmtl m422
Kd 0.3411764705882353 0.3058823529411765 0.3058823529411765
newmtl m423
Kd 0.3411764705882353 0.3058823529411765 0.3058823529411765
newmtl m424
Kd 0.3411764705882353 0.3058823529411765 0.3058823529411765
newmtl m425
Kd 0.3411764705882353 0.3058823529411765 0.3058823529411765
newmtl m426
Kd 0.6666666666666666 0.5568627450980392 0.28627450980392155
newmtl m427
Kd 0.6666666666666666 0.5568627450980392 0.28627450980392155
newmtl m428
Kd 0.6666666666666666 0.5568627450980392 0.28627450980392155
newmtl m429
Kd 0.6666666666666666 0.5568627450980392 0.28627450980392155
newmtl m430
Kd 0.6666666666666666 0.5568627450980392 0.28627450980392155
newmtl m431
Kd 0.403921568627451 0.33725490196078434 0.17254901960784313
newmtl m432
Kd 0.403921568627451 0.33725490196078434 0.17254901960784313
newmtl m433
Kd 0.403921568627451 0.33725490196078434 0.17254901960784313
newmtl m434
Kd 0.6980392156862745 0.5450980392156862 0.14901960784313725
newmtl m435
Kd 0.6980392156862745 0.5450980392156862 0.14901960784313725
newmtl m436
Kd 0.6980392156862745 0.5450980392156862 0.14901960784313725
newmtl m437
Kd 0.6980392156862745 0.5450980392156862 0.14901960784313725
newmtl m438
Kd 0.6980392156862745 0.5450980392156862 0.14901960784313725
newmtl m439
Kd 0.6980392156862745 0.5450980392156862 0.14901960784313725
newmtl m440
Kd 0.6980392156862745 0.5450980392156862 0.14901960784313725
newmtl m441
Kd 0.6980392156862745 0.5450980392156862 0.14901960784313725
newmtl m442
Kd 0.6980392156862745 0.5450980392156862 0.14901960784313725
newmtl m443
Kd 0.6980392156862745 0.5450980392156862 0.14901960784313725
newmtl m444
Kd 0.6980392156862745 0.5450980392156862 0.14901960784313725
newmtl m445
Kd 0.6980392156862745 0.5450980392156862 0.14901960784313725
newmtl m446
Kd 0.6980392156862745 0.5450980392156862 0.14901960784313725
newmtl m447
Kd 0.6980392156862745 0.5450980392156862 0.14901960784313725
newmtl m448
Kd 0.6980392156862745 0.5450980392156862 0.14901960784313725
newmtl m449
Kd 0.6980392156862745 0.5450980392156862 0.14901960784313725
newmtl m450
Kd 0.6980392156862745 0.5450980392156862 0.14901960784313725
newmtl m451
Kd 0.6980392156862745 0.5450980392156862 0.14901960784313725
newmtl m452
Kd 0.6980392156862745 0.5450980392156862 0.14901960784313725
newmtl m453
Kd 0.6980392156862745 0.5450980392156862 0.14901960784313725
newmtl m454
Kd 0.6980392156862745 0.5450980392156862 0.14901960784313725
newmtl m455
Kd 0.6980392156862745 0.5450980392156862 0.14901960784313725
newmtl m456
Kd 0.6980392156862745 0.5450980392156862 0.14901960784313725
newmtl m457
Kd 0.6980392156862745 0.5450980392156862 0.14901960784313725
newmtl m458
Kd 0.6980392156862745 0.5450980392156862 0.14901960784313725
newmtl m459
Kd 0.6980392156862745 0.5450980392156862 0.14901960784313725
newmtl m460
Kd 0.6980392156862745 0.5450980392156862 0.14901960784313725
newmtl m461
Kd 0.6980392156862745 0.5450980392156862 0.14901960784313725
newmtl m462
Kd 0.6980392156862745 0.5450980392156862 0.14901960784313725
newmtl m463
Kd 0.6980392156862745 0.5450980392156862 0.14901960784313725
newmtl m464
Kd 0.6980392156862745 0.5450980392156862 0.14901960784313725
newmtl m465
Kd 0.6980392156862745 0.5450980392156862 0.14901960784313725
newmtl m466
Kd 0.6980392156862745 0.5450980392156862 0.14901960784313725
newmtl m467
Kd 0.6980392156862745 0.5450980392156862 0.14901960784313725
newmtl m468
Kd 0.6980392156862745 0.5450980392156862 0.14901960784313725
newmtl m469
Kd 0.6980392156862745 0.5450980392156862 0.14901960784313725
newmtl m470
Kd 0.6980392156862745 0.5450980392156862 0.14901960784313725
newmtl m471
Kd 0.6980392156862745 0.5450980392156862 0.14901960784313725
newmtl m472
Kd 0.6980392156862745 0.5450980392156862 0.14901960784313725
newmtl m473
Kd 0.6980392156862745 0.5450980392156862 0.14901960784313725
newmtl m474
Kd 0.6980392156862745 0.5450980392156862 0.14901960784313725
newmtl m475
Kd 0.6980392156862745 0.5450980392156862 0.14901960784313725
newmtl m476
Kd 0.6980392156862745 0.5450980392156862 0.14901960784313725
newmtl m477
Kd 0.6980392156862745 0.5450980392156862 0.14901960784313725
newmtl m478
Kd 0.6980392156862745 0.5450980392156862 0.14901960784313725
newmtl m479
Kd 0.6980392156862745 0.5450980392156862 0.14901960784313725
newmtl m480
Kd 0.6980392156862745 0.5450980392156862 0.14901960784313725
newmtl m481
Kd 0.6980392156862745 0.5450980392156862 0.14901960784313725
newmtl m482
Kd 0.6980392156862745 0.5450980392156862 0.14901960784313725
newmtl m483
Kd 0.6980392156862745 0.5450980392156862 0.14901960784313725
newmtl m484
Kd 0.6980392156862745 0.5450980392156862 0.14901960784313725
newmtl m485
Kd 0.6980392156862745 0.5450980392156862 0.14901960784313725
newmtl m486
Kd 0.6980392156862745 0.5450980392156862 0.14901960784313725
newmtl m487
Kd 0.6980392156862745 0.5450980392156862 0.14901960784313725
newmtl m488
Kd 0.6980392156862745 0.5450980392156862 0.14901960784313725
newmtl m489
Kd 0.6980392156862745 0.5450980392156862 0.14901960784313725
newmtl m490
Kd 0.6980392156862745 0.5450980392156862 0.14901960784313725
newmtl m491
Kd 0.6980392156862745 0.5450980392156862 0.14901960784313725
newmtl m492
Kd 0.6980392156862745 0.5450980392156862 0.14901960784313725
newmtl m493
Kd 0.6980392156862745 0.5450980392156862 0.14901960784313725
newmtl m494
Kd 0.6980392156862745 0.5450980392156862 0.14901960784313725
newmtl m495
Kd 0.6980392156862745 0.5450980392156862 0.14901960784313725
newmtl m496
Kd 0.6980392156862745 0.5450980392156862 0.14901960784313725
newmtl m497
Kd 0.6980392156862745 0.5450980392156862 0.14901960784313725
newmtl m498
Kd 0.6980392156862745 0.5450980392156862 0.14901960784313725
newmtl m499
Kd 0.6980392156862745 0.5450980392156862 0.14901960784313725
newmtl m500
Kd 0.6980392156862745 0.5450980392156862 0.14901960784313725
newmtl m501
Kd 0.6980392156862745 0.5450980392156862 0.14901960784313725
newmtl m502
Kd 0.6980392156862745 0.5450980392156862 0.14901960784313725
newmtl m503
Kd 0.6980392156862745 0.5450980392156862 0.14901960784313725
newmtl m504
Kd 0.6980392156862745 0.5450980392156862 0.14901960784313725
newmtl m505
Kd 0.6980392156862745 0.5450980392156862 0.14901960784313725
newmtl m506
Kd 0.6980392156862745 0.5450980392156862 0.14901960784313725
newmtl m507
Kd 0.6980392156862745 0.5450980392156862 0.14901960784313725
newmtl m508
Kd 0.6980392156862745 0.5450980392156862 0.14901960784313725
newmtl m509
Kd 0.3411764705882353 0.3058823529411765 0.3058823529411765
newmtl m510
Kd 0.3411764705882353 0.3058823529411765 0.3058823529411765
newmtl m511
Kd 0.3411764705882353 0.3058823529411765 0.3058823529411765
newmtl m512
Kd 0.3411764705882353 0.3058823529411765 0.3058823529411765
newmtl m513
Kd 0.3411764705882353 0.3058823529411765 0.3058823529411765
newmtl m514
Kd 0.3411764705882353 0.3058823529411765 0.3058823529411765
newmtl m515
Kd 0.3411764705882353 0.3058823529411765 0.3058823529411765
newmtl m516
Kd 0.3411764705882353 0.3058823529411765 0.3058823529411765
newmtl m517
Kd 0.3411764705882353 0.3058823529411765 0.3058823529411765
newmtl m518
Kd 0.3411764705882353 0.3058823529411765 0.3058823529411765
newmtl m519
Kd 0.3411764705882353 0.3058823529411765 0.3058823529411765
newmtl m520
Kd 0.3411764705882353 0.3058823529411765 0.3058823529411765
newmtl m521
Kd 0.3411764705882353 0.3058823529411765 0.3058823529411765
newmtl m522
Kd 0.3411764705882353 0.3058823529411765 0.3058823529411765
newmtl m523
Kd 0.3411764705882353 0.3058823529411765 0.3058823529411765
newmtl m524
Kd 0.3411764705882353 0.3058823529411765 0.3058823529411765
newmtl m525
Kd 0.3411764705882353 0.3058823529411765 0.3058823529411765
newmtl m526
Kd 0.3411764705882353 0.3058823529411765 0.3058823529411765
newmtl m527
Kd 0.3411764705882353 0.3058823529411765 0.3058823529411765
newmtl m528
Kd 0.3411764705882353 0.3058823529411765 0.3058823529411765
newmtl m529
Kd 0.3411764705882353 0.3058823529411765 0.3058823529411765
newmtl m530
Kd 0.3411764705882353 0.3058823529411765 0.3058823529411765
newmtl m531
Kd 0.3411764705882353 0.3058823529411765 0.3058823529411765
newmtl m532
Kd 0.3411764705882353 0.3058823529411765 0.3058823529411765
newmtl m533
Kd 0.3411764705882353 0.3058823529411765 0.3058823529411765
newmtl m534
Kd 0.3411764705882353 0.3058823529411765 0.3058823529411765
newmtl m535
Kd 0.3411764705882353 0.3058823529411765 0.3058823529411765
newmtl m536
Kd 0.3411764705882353 0.3058823529411765 0.3058823529411765
newmtl m537
Kd 0.3411764705882353 0.3058823529411765 0.3058823529411765
newmtl m538
Kd 0.3411764705882353 0.3058823529411765 0.3058823529411765
newmtl m539
Kd 0.4235294117647059 0.3803921568627451 0.3803921568627451
newmtl m540
Kd 0.4235294117647059 0.3803921568627451 0.3803921568627451
newmtl m541
Kd 0.4235294117647059 0.3803921568627451 0.3803921568627451
newmtl m542
Kd 0.4235294117647059 0.3803921568627451 0.3803921568627451
newmtl m543
Kd 0.6980392156862745 0.5450980392156862 0.14901960784313725
newmtl m544
Kd 0.6980392156862745 0.5450980392156862 0.14901960784313725
newmtl m545
Kd 0.6980392156862745 0.5450980392156862 0.14901960784313725
newmtl m546
Kd 0.6980392156862745 0.5450980392156862 0.14901960784313725
newmtl m547
Kd 0.6980392156862745 0.5450980392156862 0.14901960784313725
newmtl m548
Kd 0.6980392156862745 0.5450980392156862 0.14901960784313725
newmtl m549
Kd 0.6980392156862745 0.5450980392156862 0.14901960784313725
newmtl m550
Kd 0.6980392156862745 0.5450980392156862 0.14901960784313725
newmtl m551
Kd 0.6980392156862745 0.5450980392156862 0.14901960784313725
newmtl m552
Kd 0.6980392156862745 0.5450980392156862 0.14901960784313725
newmtl m553
Kd 0.6980392156862745 0.5450980392156862 0.14901960784313725
newmtl m554
Kd 0.6980392156862745 0.5450980392156862 0.14901960784313725
newmtl m555
Kd 0.6980392156862745 0.5450980392156862 0.14901960784313725
newmtl m556
Kd 0.6980392156862745 0.5450980392156862 0.14901960784313725
newmtl m557
Kd 0.6980392156862745 0.5450980392156862 0.14901960784313725
newmtl m558
Kd 0.6980392156862745 0.5450980392156862 0.14901960784313725
newmtl m559
Kd 0.6980392156862745 0.5450980392156862 0.14901960784313725
newmtl m560
Kd 0.6980392156862745 0.5450980392156862 0.14901960784313725
newmtl m561
Kd 0.6980392156862745 0.5450980392156862 0.14901960784313725
newmtl m562
Kd 0.6980392156862745 0.5450980392156862 0.14901960784313725
newmtl m563
Kd 0.34901960784313724 0.2901960784313726 0.14901960784313725
newmtl m564
Kd 0.4745098039215686 0.39215686274509803 0.2
newmtl m565
Kd 0.4745098039215686 0.39215686274509803 0.2
newmtl m566
Kd 0.4745098039215686 0.39215686274509803 0.2
newmtl m567
Kd 0.4745098039215686 0.39215686274509803 0.2
newmtl m568
Kd 0.4745098039215686 0.39215686274509803 0.2
newmtl m569
Kd 0.4745098039215686 0.39215686274509803 0.2
newmtl m570
Kd 0.34901960784313724 0.2901960784313726 0.14901960784313725
newmtl m571
Kd 0.34901960784313724 0.2901960784313726 0.14901960784313725
newmtl m572
Kd 0.4745098039215686 0.39215686274509803 0.2
newmtl m573
Kd 0.4745098039215686 0.39215686274509803 0.2
newmtl m574
Kd 0.34901960784313724 0.2901960784313726 0.14901960784313725
newmtl m575
Kd 0.34901960784313724 0.2901960784313726 0.14901960784313725
newmtl m576
Kd 0.34901960784313724 0.2901960784313726 0.14901960784313725
newmtl m577
Kd 0.34901960784313724 0.2901960784313726 0.14901960784313725
newmtl m578
Kd 0.34901960784313724 0.2901960784313726 0.14901960784313725
newmtl m579
Kd 0.4745098039215686 0.39215686274509803 0.2
newmtl m580
Kd 0.4745098039215686 0.39215686274509803 0.2
newmtl m581
Kd 0.34901960784313724 0.2901960784313726 0.14901960784313725
newmtl m582
Kd 0.34901960784313724 0.2901960784313726 0.14901960784313725
newmtl m583
Kd 0.34901960784313724 0.2901960784313726 0.14901960784313725
newmtl m584
Kd 0.4745098039215686 0.39215686274509803 0.2
newmtl m585
Kd 0.6980392156862745 0.5450980392156862 0.14901960784313725
newmtl m586
Kd 0.6980392156862745 0.5450980392156862 0.14901960784313725
newmtl m587
Kd 0.6980392156862745 0.5450980392156862 0.14901960784313725
newmtl m588
Kd 0.6980392156862745 0.5450980392156862 0.14901960784313725
newmtl m589
Kd 0.6980392156862745 0.5450980392156862 0.14901960784313725
newmtl m590
Kd 0.6980392156862745 0.5450980392156862 0.14901960784313725
newmtl m591
Kd 0.6980392156862745 0.5450980392156862 0.14901960784313725
newmtl m592
Kd 0.6980392156862745 0.5450980392156862 0.14901960784313725
newmtl m593
Kd 0.6980392156862745 0.5450980392156862 0.14901960784313725
newmtl m594
Kd 0.6980392156862745 0.5450980392156862 0.14901960784313725
newmtl m595
Kd 0.6980392156862745 0.5450980392156862 0.14901960784313725
newmtl m596
Kd 0.6980392156862745 0.5450980392156862 0.14901960784313725
newmtl m597
Kd 0.6980392156862745 0.5450980392156862 0.14901960784313725
newmtl m598
Kd 0.6980392156862745 0.5450980392156862 0.14901960784313725
newmtl m599
Kd 0.6980392156862745 0.5450980392156862 0.14901960784313725
newmtl m600
Kd 0.6980392156862745 0.5450980392156862 0.14901960784313725
newmtl m601
Kd 0.6980392156862745 0.5450980392156862 0.14901960784313725
newmtl m602
Kd 0.6980392156862745 0.5450980392156862 0.14901960784313725
newmtl m603
Kd 0.6980392156862745 0.5450980392156862 0.14901960784313725
newmtl m604
Kd 0.6980392156862745 0.5450980392156862 0.14901960784313725
newmtl m605
Kd 0.6980392156862745 0.5450980392156862 0.14901960784313725
newmtl m606
Kd 0.6980392156862745 0.5450980392156862 0.14901960784313725
newmtl m607
Kd 0.6980392156862745 0.5450980392156862 0.14901960784313725
newmtl m608
Kd 0.6980392156862745 0.5450980392156862 0.14901960784313725
newmtl m609
Kd 0.6980392156862745 0.5450980392156862 0.14901960784313725
newmtl m610
map_Kd sprite/460-0.png
newmtl m611
map_Kd sprite/460-0.png
newmtl m612
Kd 0.6980392156862745 0.5450980392156862 0.14901960784313725
newmtl m613
Kd 0.6980392156862745 0.5450980392156862 0.14901960784313725
newmtl m614
Kd 0.6980392156862745 0.5450980392156862 0.14901960784313725
newmtl m615
Kd 0.6980392156862745 0.5450980392156862 0.14901960784313725
newmtl m616
Kd 0.6980392156862745 0.5450980392156862 0.14901960784313725
newmtl m617
Kd 0.6980392156862745 0.5450980392156862 0.14901960784313725
newmtl m618
Kd 0.6980392156862745 0.5450980392156862 0.14901960784313725
newmtl m619
Kd 0.6980392156862745 0.5450980392156862 0.14901960784313725
newmtl m620
Kd 0.6980392156862745 0.5450980392156862 0.14901960784313725
newmtl m621
Kd 0.6980392156862745 0.5450980392156862 0.14901960784313725
newmtl m622
Kd 0.6980392156862745 0.5450980392156862 0.14901960784313725
newmtl m623
Kd 0.3411764705882353 0.3058823529411765 0.3058823529411765
newmtl m624
Kd 0.3411764705882353 0.3058823529411765 0.3058823529411765
newmtl m625
Kd 0.3411764705882353 0.3058823529411765 0.3058823529411765
newmtl m626
Kd 0.3411764705882353 0.3058823529411765 0.3058823529411765
newmtl m627
Kd 0.3411764705882353 0.3058823529411765 0.3058823529411765
newmtl m628
Kd 0.3411764705882353 0.3058823529411765 0.3058823529411765
newmtl m629
Kd 0.3411764705882353 0.3058823529411765 0.3058823529411765
newmtl m630
Kd 0.3411764705882353 0.3058823529411765 0.3058823529411765
newmtl m631
Kd 0.3411764705882353 0.3058823529411765 0.3058823529411765
newmtl m632
Kd 0.3411764705882353 0.3058823529411765 0.3058823529411765
newmtl m633
Kd 0.3411764705882353 0.3058823529411765 0.3058823529411765
newmtl m634
Kd 0.4235294117647059 0.3803921568627451 0.3803921568627451
newmtl m635
Kd 0.4235294117647059 0.3803921568627451 0.3803921568627451
newmtl m636
Kd 0.4235294117647059 0.3803921568627451 0.3803921568627451
newmtl m637
Kd 0.4235294117647059 0.3803921568627451 0.3803921568627451
newmtl m638
Kd 0.4235294117647059 0.3803921568627451 0.3803921568627451
newmtl m639
Kd 0.4235294117647059 0.3803921568627451 0.3803921568627451
newmtl m640
Kd 0.4235294117647059 0.3803921568627451 0.3803921568627451
newmtl m641
Kd 0.4235294117647059 0.3803921568627451 0.3803921568627451
newmtl m642
Kd 0.4235294117647059 0.3803921568627451 0.3803921568627451
newmtl m643
Kd 0.4235294117647059 0.3803921568627451 0.3803921568627451
newmtl m644
Kd 0.4235294117647059 0.3803921568627451 0.3803921568627451
newmtl m645
Kd 0.4235294117647059 0.3803921568627451 0.3803921568627451
newmtl m646
Kd 0.4235294117647059 0.3803921568627451 0.3803921568627451
newmtl m647
Kd 0.4235294117647059 0.3803921568627451 0.3803921568627451
newmtl m648
Kd 0.4235294117647059 0.3803921568627451 0.3803921568627451
newmtl m649
Kd 0.4235294117647059 0.3803921568627451 0.3803921568627451
newmtl m650
Kd 0.4235294117647059 0.3803921568627451 0.3803921568627451
newmtl m651
Kd 0.4235294117647059 0.3803921568627451 0.3803921568627451
newmtl m652
Kd 0.4235294117647059 0.3803921568627451 0.3803921568627451
newmtl m653
Kd 0.4235294117647059 0.3803921568627451 0.3803921568627451
newmtl m654
Kd 0.4235294117647059 0.3803921568627451 0.3803921568627451
newmtl m655
Kd 0.3411764705882353 0.3058823529411765 0.3058823529411765
newmtl m656
Kd 0.3411764705882353 0.3058823529411765 0.3058823529411765
newmtl m657
Kd 0.3411764705882353 0.3058823529411765 0.3058823529411765
newmtl m658
Kd 0.3411764705882353 0.3058823529411765 0.3058823529411765
newmtl m659
Kd 0.3411764705882353 0.3058823529411765 0.3058823529411765
newmtl m660
Kd 0.3411764705882353 0.3058823529411765 0.3058823529411765
newmtl m661
Kd 0.3411764705882353 0.3058823529411765 0.3058823529411765
newmtl m662
Kd 0.3411764705882353 0.3058823529411765 0.3058823529411765
newmtl m663
Kd 0.4235294117647059 0.3803921568627451 0.3803921568627451
newmtl m664
Kd 0.4235294117647059 0.3803921568627451 0.3803921568627451
newmtl m665
Kd 0.4235294117647059 0.3803921568627451 0.3803921568627451
newmtl m666
Kd 0.4235294117647059 0.3803921568627451 0.3803921568627451
newmtl m667
Kd 0.4235294117647059 0.3803921568627451 0.3803921568627451
newmtl m668
Kd 0.4235294117647059 0.3803921568627451 0.3803921568627451
newmtl m669
Kd 0.4235294117647059 0.3803921568627451 0.3803921568627451
newmtl m670
Kd 0.4235294117647059 0.3803921568627451 0.3803921568627451
newmtl m671
Kd 0.4235294117647059 0.3803921568627451 0.3803921568627451
newmtl m672
Kd 0.4235294117647059 0.3803921568627451 0.3803921568627451
newmtl m673
Kd 0.4235294117647059 0.3803921568627451 0.3803921568627451
newmtl m674
Kd 0.4235294117647059 0.3803921568627451 0.3803921568627451
newmtl m675
Kd 0.4235294117647059 0.3803921568627451 0.3803921568627451
newmtl m676
Kd 0.4235294117647059 0.3803921568627451 0.3803921568627451
newmtl m677
Kd 0.4235294117647059 0.3803921568627451 0.3803921568627451
newmtl m678
Kd 0.4235294117647059 0.3803921568627451 0.3803921568627451
newmtl m679
Kd 0.4235294117647059 0.3803921568627451 0.3803921568627451
newmtl m680
Kd 0.34901960784313724 0.2901960784313726 0.14901960784313725
newmtl m681
Kd 0.4745098039215686 0.39215686274509803 0.2
newmtl m682
Kd 0.4745098039215686 0.39215686274509803 0.2
newmtl m683
Kd 0.4745098039215686 0.39215686274509803 0.2
newmtl m684
Kd 0.6980392156862745 0.5450980392156862 0.14901960784313725
newmtl m685
Kd 0.6980392156862745 0.5450980392156862 0.14901960784313725
newmtl m686
Kd 0.6980392156862745 0.5450980392156862 0.14901960784313725
newmtl m687
Kd 0.6980392156862745 0.5450980392156862 0.14901960784313725
newmtl m688
Kd 0.34901960784313724 0.2901960784313726 0.14901960784313725
newmtl m689
Kd 0.4745098039215686 0.39215686274509803 0.2
newmtl m690
Kd 0.4745098039215686 0.39215686274509803 0.2
newmtl m691
Kd 0.4745098039215686 0.39215686274509803 0.2
newmtl m692
Kd 0.4745098039215686 0.39215686274509803 0.2
newmtl m693
Kd 0.34901960784313724 0.2901960784313726 0.14901960784313725
newmtl m694
Kd 0.34901960784313724 0.2901960784313726 0.14901960784313725
newmtl m695
Kd 0.34901960784313724 0.2901960784313726 0.14901960784313725
newmtl m696
Kd 0.6980392156862745 0.5450980392156862 0.14901960784313725
newmtl m697
Kd 0.6980392156862745 0.5450980392156862 0.14901960784313725
newmtl m698
Kd 0.6980392156862745 0.5450980392156862 0.14901960784313725
newmtl m699
Kd 0.6980392156862745 0.5450980392156862 0.14901960784313725
newmtl m700
Kd 0.6980392156862745 0.5450980392156862 0.14901960784313725
newmtl m701
Kd 0.6980392156862745 0.5450980392156862 0.14901960784313725
newmtl m702
Kd 0.6980392156862745 0.5450980392156862 0.14901960784313725
newmtl m703
Kd 0.6980392156862745 0.5450980392156862 0.14901960784313725
newmtl m704
Kd 0.6980392156862745 0.5450980392156862 0.14901960784313725
newmtl m705
Kd 0.6980392156862745 0.5450980392156862 0.14901960784313725
newmtl m706
Kd 0.6980392156862745 0.5450980392156862 0.14901960784313725
newmtl m707
Kd 0.6980392156862745 0.5450980392156862 0.14901960784313725
newmtl m708
Kd 0.6980392156862745 0.5450980392156862 0.14901960784313725
newmtl m709
Kd 0.6980392156862745 0.5450980392156862 0.14901960784313725
newmtl m710
Kd 0.6980392156862745 0.5450980392156862 0.14901960784313725
newmtl m711
Kd 0.6980392156862745 0.5450980392156862 0.14901960784313725
newmtl m712
Kd 0.6980392156862745 0.5450980392156862 0.14901960784313725
newmtl m713
Kd 0.6980392156862745 0.5450980392156862 0.14901960784313725
newmtl m714
Kd 0.6980392156862745 0.5450980392156862 0.14901960784313725
newmtl m715
Kd 0.6980392156862745 0.5450980392156862 0.14901960784313725
newmtl m716
Kd 0.6980392156862745 0.5450980392156862 0.14901960784313725
newmtl m717
Kd 0.6980392156862745 0.5450980392156862 0.14901960784313725
newmtl m718
Kd 0.6980392156862745 0.5450980392156862 0.14901960784313725
newmtl m719
Kd 0.6980392156862745 0.5450980392156862 0.14901960784313725
newmtl m720
Kd 0.6980392156862745 0.5450980392156862 0.14901960784313725
newmtl m721
Kd 0.6980392156862745 0.5450980392156862 0.14901960784313725
newmtl m722
Kd 0.6980392156862745 0.5450980392156862 0.14901960784313725
newmtl m723
Kd 0.34901960784313724 0.2901960784313726 0.14901960784313725
newmtl m724
Kd 0.4745098039215686 0.39215686274509803 0.2
newmtl m725
Kd 0.4745098039215686 0.39215686274509803 0.2
newmtl m726
Kd 0.4745098039215686 0.39215686274509803 0.2
newmtl m727
Kd 0.4745098039215686 0.39215686274509803 0.2
newmtl m728
Kd 0.4745098039215686 0.39215686274509803 0.2
newmtl m729
Kd 0.4745098039215686 0.39215686274509803 0.2
newmtl m730
Kd 0.34901960784313724 0.2901960784313726 0.14901960784313725
newmtl m731
Kd 0.34901960784313724 0.2901960784313726 0.14901960784313725
newmtl m732
Kd 0.4745098039215686 0.39215686274509803 0.2
newmtl m733
Kd 0.4745098039215686 0.39215686274509803 0.2
newmtl m734
Kd 0.34901960784313724 0.2901960784313726 0.14901960784313725
newmtl m735
Kd 0.34901960784313724 0.2901960784313726 0.14901960784313725
newmtl m736
Kd 0.34901960784313724 0.2901960784313726 0.14901960784313725
newmtl m737
Kd 0.34901960784313724 0.2901960784313726 0.14901960784313725
newmtl m738
Kd 0.34901960784313724 0.2901960784313726 0.14901960784313725
newmtl m739
Kd 0.6666666666666666 0.5568627450980392 0.28627450980392155
newmtl m740
Kd 0.6666666666666666 0.5568627450980392 0.28627450980392155
newmtl m741
Kd 0.6666666666666666 0.5568627450980392 0.28627450980392155
newmtl m742
Kd 0.6666666666666666 0.5568627450980392 0.28627450980392155
newmtl m743
Kd 0.6980392156862745 0.5450980392156862 0.14901960784313725
newmtl m744
Kd 0.3411764705882353 0.3058823529411765 0.3058823529411765
newmtl m745
Kd 0.3411764705882353 0.3058823529411765 0.3058823529411765
newmtl m746
Kd 0.3411764705882353 0.3058823529411765 0.3058823529411765
newmtl m747
Kd 0.3411764705882353 0.3058823529411765 0.3058823529411765
newmtl m748
Kd 0.3411764705882353 0.3058823529411765 0.3058823529411765
newmtl m749
Kd 0.3411764705882353 0.3058823529411765 0.3058823529411765
newmtl m750
Kd 0.3411764705882353 0.3058823529411765 0.3058823529411765
newmtl m751
Kd 0.6666666666666666 0.5568627450980392 0.28627450980392155
newmtl m752
Kd 0.6666666666666666 0.5568627450980392 0.28627450980392155
newmtl m753
Kd 0.3254901960784314 0.29411764705882354 0.2901960784313726
newmtl m754
Kd 0.6666666666666666 0.5568627450980392 0.28627450980392155
newmtl m755
Kd 0.6666666666666666 0.5568627450980392 0.28627450980392155
newmtl m756
Kd 0.403921568627451 0.33725490196078434 0.17254901960784313
newmtl m757
Kd 0.403921568627451 0.33725490196078434 0.17254901960784313
newmtl m758
Kd 0.3411764705882353 0.3058823529411765 0.3058823529411765
newmtl m759
Kd 0.3411764705882353 0.3058823529411765 0.3058823529411765
newmtl m760
Kd 0.3411764705882353 0.3058823529411765 0.3058823529411765
newmtl m761
Kd 0.4745098039215686 0.39215686274509803 0.2
newmtl m762
Kd 0.4745098039215686 0.39215686274509803 0.2
newmtl m763
map_Kd sprite/459-0.png
newmtl m764
map_Kd sprite/459-0.png
newmtl m765
Kd 0.6980392156862745 0.5450980392156862 0.14901960784313725
newmtl m766
Kd 0.6980392156862745 0.5450980392156862 0.14901960784313725
newmtl m767
Kd 0.6980392156862745 0.5450980392156862 0.14901960784313725
newmtl m768
Kd 0.6980392156862745 0.5450980392156862 0.14901960784313725
newmtl m769
Kd 0.6980392156862745 0.5450980392156862 0.14901960784313725
newmtl m770
Kd 0.6980392156862745 0.5450980392156862 0.14901960784313725
newmtl m771
Kd 0.6980392156862745 0.5450980392156862 0.14901960784313725
newmtl m772
Kd 0.6980392156862745 0.5450980392156862 0.14901960784313725
newmtl m773
Kd 0.6980392156862745 0.5450980392156862 0.14901960784313725
newmtl m774
Kd 0.6980392156862745 0.5450980392156862 0.14901960784313725
newmtl m775
Kd 0.6980392156862745 0.5450980392156862 0.14901960784313725
newmtl m776
Kd 0.6980392156862745 0.5450980392156862 0.14901960784313725
newmtl m777
Kd 0.6980392156862745 0.5450980392156862 0.14901960784313725
newmtl m778
Kd 0.6980392156862745 0.5450980392156862 0.14901960784313725
newmtl m779
Kd 0.6980392156862745 0.5450980392156862 0.14901960784313725
newmtl m780
Kd 0.6980392156862745 0.5450980392156862 0.14901960784313725
newmtl m781
Kd 0.6980392156862745 0.5450980392156862 0.14901960784313725
newmtl m782
Kd 0.6980392156862745 0.5450980392156862 0.14901960784313725
newmtl m783
Kd 0.6980392156862745 0.5450980392156862 0.14901960784313725
newmtl m784
Kd 0.6980392156862745 0.5450980392156862 0.14901960784313725
newmtl m785
Kd 0.3411764705882353 0.3058823529411765 0.3058823529411765
newmtl m786
Kd 0.3411764705882353 0.3058823529411765 0.3058823529411765
newmtl m787
Kd 0.3411764705882353 0.3058823529411765 0.3058823529411765
newmtl m788
Kd 0.3411764705882353 0.3058823529411765 0.3058823529411765
newmtl m789
Kd 0.3411764705882353 0.3058823529411765 0.3058823529411765
newmtl m790
Kd 0.3411764705882353 0.3058823529411765 0.3058823529411765
newmtl m791
Kd 0.3411764705882353 0.3058823529411765 0.3058823529411765
newmtl m792
Kd 0.3411764705882353 0.3058823529411765 0.3058823529411765
newmtl m793
Kd 0.3411764705882353 0.3058823529411765 0.3058823529411765
newmtl m794
Kd 0.6980392156862745 0.5450980392156862 0.14901960784313725
newmtl m795
Kd 0.6980392156862745 0.5450980392156862 0.14901960784313725
newmtl m796
Kd 0.6980392156862745 0.5450980392156862 0.14901960784313725
newmtl m797
Kd 0.6980392156862745 0.5450980392156862 0.14901960784313725
newmtl m798
Kd 0.6980392156862745 0.5450980392156862 0.14901960784313725
newmtl m799
Kd 0.6980392156862745 0.5450980392156862 0.14901960784313725
newmtl m800
Kd 0.6980392156862745 0.5450980392156862 0.14901960784313725
newmtl m801
Kd 0.6980392156862745 0.5450980392156862 0.14901960784313725
newmtl m802
Kd 0.6980392156862745 0.5450980392156862 0.14901960784313725
newmtl m803
Kd 0.6980392156862745 0.5450980392156862 0.14901960784313725
newmtl m804
Kd 0.6980392156862745 0.5450980392156862 0.14901960784313725
newmtl m805
Kd 0.6980392156862745 0.5450980392156862 0.14901960784313725
newmtl m806
Kd 0.3411764705882353 0.3058823529411765 0.3058823529411765
newmtl m807
Kd 0.3411764705882353 0.3058823529411765 0.3058823529411765
newmtl m808
Kd 0.6980392156862745 0.5450980392156862 0.14901960784313725
newmtl m809
Kd 0.6980392156862745 0.5450980392156862 0.14901960784313725
newmtl m810
Kd 0.6980392156862745 0.5450980392156862 0.14901960784313725
newmtl m811
Kd 0.3411764705882353 0.3058823529411765 0.3058823529411765
newmtl m812
Kd 0.3411764705882353 0.3058823529411765 0.3058823529411765
newmtl m813
Kd 0.3411764705882353 0.3058823529411765 0.3058823529411765
newmtl m814
Kd 0.6980392156862745 0.5450980392156862 0.14901960784313725
newmtl m815
Kd 0.6980392156862745 0.5450980392156862 0.14901960784313725
newmtl m816
Kd 0.3411764705882353 0.3058823529411765 0.3058823529411765
newmtl m817
Kd 0.3411764705882353 0.3058823529411765 0.3058823529411765
newmtl m818
Kd 0.996078431372549 0.9921568627450981 0.9921568627450981
