newmtl m0
Kd 0.6039215686274509 0.40784313725490196 0.19215686274509805
newmtl m1
Kd 0.6039215686274509 0.40784313725490196 0.19215686274509805
newmtl m2
Kd 0.6039215686274509 0.40784313725490196 0.19215686274509805
newmtl m3
Kd 0.6039215686274509 0.40784313725490196 0.19215686274509805
newmtl m4
Kd 0.6039215686274509 0.40784313725490196 0.19215686274509805
newmtl m5
Kd 0.6039215686274509 0.40784313725490196 0.19215686274509805
newmtl m6
Kd 0.6039215686274509 0.40784313725490196 0.19215686274509805
newmtl m7
Kd 0.6039215686274509 0.40784313725490196 0.19215686274509805
newmtl m8
Kd 0.6039215686274509 0.40784313725490196 0.19215686274509805
newmtl m9
Kd 0.6039215686274509 0.40784313725490196 0.19215686274509805
newmtl m10
Kd 0.6039215686274509 0.40784313725490196 0.19215686274509805
newmtl m11
Kd 0.6039215686274509 0.40784313725490196 0.19215686274509805
newmtl m12
Kd 0.6039215686274509 0.40784313725490196 0.19215686274509805
newmtl m13
Kd 0.6039215686274509 0.40784313725490196 0.19215686274509805
newmtl m14
Kd 0.6039215686274509 0.40784313725490196 0.19215686274509805
newmtl m15
Kd 0.6039215686274509 0.40784313725490196 0.19215686274509805
newmtl m16
Kd 0.6039215686274509 0.40784313725490196 0.19215686274509805
newmtl m17
Kd 0.6039215686274509 0.40784313725490196 0.19215686274509805
newmtl m18
Kd 0.6039215686274509 0.40784313725490196 0.19215686274509805
newmtl m19
Kd 0.6039215686274509 0.40784313725490196 0.19215686274509805
newmtl m20
Kd 0.6039215686274509 0.40784313725490196 0.19215686274509805
newmtl m21
Kd 0.6039215686274509 0.40784313725490196 0.19215686274509805
newmtl m22
Kd 0.6039215686274509 0.40784313725490196 0.19215686274509805
newmtl m23
Kd 0.6039215686274509 0.40784313725490196 0.19215686274509805
newmtl m24
Kd 0.6039215686274509 0.40784313725490196 0.19215686274509805
newmtl m25
Kd 0.6039215686274509 0.40784313725490196 0.19215686274509805
newmtl m26
Kd 0.6039215686274509 0.40784313725490196 0.19215686274509805
newmtl m27
Kd 0.6039215686274509 0.40784313725490196 0.19215686274509805
newmtl m28
Kd 0.6039215686274509 0.40784313725490196 0.19215686274509805
newmtl m29
Kd 0.6039215686274509 0.40784313725490196 0.19215686274509805
newmtl m30
Kd 0.6039215686274509 0.40784313725490196 0.19215686274509805
newmtl m31
Kd 0.6039215686274509 0.40784313725490196 0.19215686274509805
newmtl m32
Kd 0.6509803921568628 0.4392156862745098 0.20392156862745098
newmtl m33
Kd 0.6509803921568628 0.4392156862745098 0.20392156862745098
newmtl m34
Kd 0.6470588235294118 0.47058823529411764 0.27450980392156865
newmtl m35
Kd 0.6509803921568628 0.4392156862745098 0.20392156862745098
newmtl m36
Kd 0.6509803921568628 0.4392156862745098 0.20392156862745098
newmtl m37
Kd 0.6509803921568628 0.4392156862745098 0.20392156862745098
newmtl m38
Kd 0.6509803921568628 0.4392156862745098 0.20392156862745098
newmtl m39
Kd 0.6509803921568628 0.4392156862745098 0.20392156862745098
newmtl m40
Kd 0.6509803921568628 0.4392156862745098 0.20392156862745098
newmtl m41
Kd 0.6470588235294118 0.47058823529411764 0.27450980392156865
newmtl m42
Kd 0.6509803921568628 0.4392156862745098 0.20392156862745098
newmtl m43
Kd 0.6509803921568628 0.4392156862745098 0.20392156862745098
newmtl m44
Kd 0.6509803921568628 0.4392156862745098 0.20392156862745098
newmtl m45
Kd 0.6509803921568628 0.4392156862745098 0.20392156862745098
newmtl m46
Kd 0.6509803921568628 0.4392156862745098 0.20392156862745098
newmtl m47
Kd 0.6509803921568628 0.4392156862745098 0.20392156862745098
newmtl m48
Kd 0.6509803921568628 0.4392156862745098 0.20392156862745098
newmtl m49
Kd 0.6509803921568628 0.4392156862745098 0.20392156862745098
newmtl m50
Kd 0.6901960784313725 0.5019607843137255 0.29411764705882354
newmtl m51
Kd 0.6901960784313725 0.5019607843137255 0.29411764705882354
newmtl m52
Kd 0.6509803921568628 0.4392156862745098 0.20392156862745098
newmtl m53
Kd 0.6509803921568628 0.4392156862745098 0.20392156862745098
newmtl m54
Kd 0.6509803921568628 0.4392156862745098 0.20392156862745098
newmtl m55
Kd 0.6901960784313725 0.5019607843137255 0.29411764705882354
newmtl m56
Kd 0.6901960784313725 0.5019607843137255 0.29411764705882354
newmtl m57
Kd 0.6509803921568628 0.4392156862745098 0.20392156862745098
newmtl m58
Kd 0.6509803921568628 0.4392156862745098 0.20392156862745098
newmtl m59
Kd 0.6509803921568628 0.4392156862745098 0.20392156862745098
newmtl m60
Kd 0.6509803921568628 0.4392156862745098 0.20392156862745098
newmtl m61
Kd 0.6509803921568628 0.4392156862745098 0.20392156862745098
newmtl m62
Kd 0.6509803921568628 0.4392156862745098 0.20392156862745098
newmtl m63
Kd 0.6509803921568628 0.4392156862745098 0.20392156862745098
newmtl m64
Kd 0.6509803921568628 0.4392156862745098 0.20392156862745098
newmtl m65
Kd 0.6509803921568628 0.4392156862745098 0.20392156862745098
newmtl m66
Kd 0.6509803921568628 0.4392156862745098 0.20392156862745098
newmtl m67
Kd 0.6509803921568628 0.4392156862745098 0.20392156862745098
