mtllib 42527.mtl
o runescapemodel
v -15 23 -116
v -55 0 -119
v -48 15 -111
v -46 35 -91
v -21 35 -84
v -4 0 -80
v -15 0 -116
v -56 57 -47
v -67 56 -74
v -86 40 -69
v -76 7 -50
v -49 8 -26
v -38 40 -48
v -43 60 -70
v -64 40 -97
v -68 19 -107
v -92 19 -81
v -123 0 -68
v -115 11 -69
v -92 20 -52
v -100 23 -36
v -66 19 -30
v -55 0 -22
v -9 23 -28
v -30 21 -56
v -27 43 -64
v -100 0 -36
v -9 0 -28
v -90 23 -97
v -90 0 -97
v -45 40 74
v -64 19 25
v -90 -2 32
v -76 -2 70
v -61 -2 98
v -32 2 96
v -21 36 61
v -45 45 20
v -47 -2 -6
v -25 54 0
v 7 45 53
v 5 -2 -23
v -29 -2 -11
v -45 -2 113
v -26 -2 124
v -5 -2 116
v -2 33 85
v 28 58 76
v 36 55 53
v 59 43 28
v 35 -2 -17
v 84 15 18
v 87 22 -13
v 66 -2 -28
v 92 -2 -49
v 103 -2 -42
v 116 -2 -21
v 109 -2 30
v 73 15 40
v 115 -2 63
v 86 17 60
v 91 -2 81
v 71 -2 91
v 57 39 68
v 40 -2 96
v 107 3 82
v 113 20 98
v 124 3 96
v 119 3 84
v 97 3 82
v 99 23 95
v 100 8 107
v 110 3 111
v 86 8 102
v 90 13 91
v 75 3 99
v 81 3 121
v 92 3 86
v 100 3 119
v -116 3 85
v -100 20 79
v -102 3 68
v -114 3 73
v -116 3 95
v -103 23 93
v -91 8 92
v -87 3 82
v -96 8 106
v -107 13 102
v -99 3 117
v -77 3 111
v -112 3 100
v -79 3 92
v 76 2 -116
v 95 25 -103
v 106 2 -114
v 91 2 -124
v 65 2 -108
v 77 29 -95
v 87 8 -83
v 114 2 -80
v 68 8 -78
v 63 15 -93
v 52 2 -72
v 77 2 -51
v 62 2 -100
v 109 2 -63
v 45 3 -45
v 29 20 -39
v 31 3 -28
v 43 3 -33
v 45 3 -55
v 32 23 -53
v 20 8 -52
v 16 3 -42
v 23 8 -82
v 34 13 -78
v 26 3 -93
v 6 3 -71
v 43 3 -73
v 8 3 -52
vn 0 0 0
vn 0 0 0
vn 0 0 0
vn 0 0 0
vn 0 0 0
vn 0 0 0
vn 0 0 0
vn 0 0 0
vn 0 0 0
vn 0 0 0
vn 0 0 0
vn 0 0 0
vn 0 0 0
vn 0 0 0
vn 0 0 0
vn 0 0 0
vn 0 0 0
vn 0 0 0
vn 0 0 0
vn 0 0 0
vn 0 0 0
vn 0 0 0
vn 0 0 0
vn 0 0 0
vn 0 0 0
vn 0 0 0
vn 0 0 0
vn 0 0 0
vn 0 0 0
vn 0 0 0
vn 0 0 0
vn 0 0 0
vn 0 0 0
vn 0 0 0
vn 0 0 0
vn 0 0 0
vn 0 0 0
vn 0 0 0
vn 0 0 0
vn 0 0 0
vn 0 0 0
vn 0 0 0
vn 0 0 0
vn 0 0 0
vn 0 0 0
vn 0 0 0
vn 0 0 0
vn 0 0 0
vn 0 0 0
vn 0 0 0
vn 0 0 0
vn 0 0 0
vn 0 0 0
vn 0 0 0
vn 0 0 0
vn 0 0 0
vn 0 0 0
vn 0 0 0
vn 0 0 0
vn 0 0 0
vn 0 0 0
vn 0 0 0
vn 0 0 0
vn 0 0 0
vn 0 0 0
vn 0 0 0
vn 0 0 0
vn 0 0 0
vn 0 0 0
vn 0 0 0
vn 0 0 0
vn 0 0 0
vn 0 0 0
vn 0 0 0
vn 0 0 0
vn 0 0 0
vn 0 0 0
vn 0 0 0
vn 0 0 0
vn 0 0 0
vn 0 0 0
vn 0 0 0
vn 0 0 0
vn 0 0 0
vn 0 0 0
vn 0 0 0
vn 0 0 0
vn 0 0 0
vn 0 0 0
vn 0 0 0
vn 0 0 0
vn 0 0 0
vn 0 0 0
vn 0 0 0
vn 0 0 0
vn 0 0 0
vn 0 0 0
vn 0 0 0
vn 0 0 0
vn 0 0 0
vn 0 0 0
vn 0 0 0
vn 0 0 0
vn 0 0 0
vn 0 0 0
vn 0 0 0
vn 0 0 0
vn 0 0 0
vn 0 0 0
vn 0 0 0
vn 0 0 0
vn 0 0 0
vn 0 0 0
vn 0 0 0
vn 0 0 0
vn 0 0 0
vn 0 0 0
vn 0 0 0
vn 0 0 0
vn 0 0 0
vn 0 0 0
usemtl m0
f 1 2 3

usemtl m1
f 1 3 4

usemtl m2
f 1 4 5

usemtl m3
f 1 5 6

usemtl m4
f 1 6 7

usemtl m5
f 1 7 2

usemtl m6
f 8 9 10

usemtl m7
f 8 10 11

usemtl m8
f 8 11 12

usemtl m9
f 8 12 13

usemtl m10
f 8 13 14

usemtl m11
f 8 14 9

usemtl m12
f 9 14 4

usemtl m13
f 9 4 15

usemtl m14
f 9 15 10

usemtl m15
f 10 15 16

usemtl m16
f 10 16 17

usemtl m17
f 10 17 18

usemtl m18
f 10 18 19

usemtl m19
f 10 19 20

usemtl m20
f 10 20 11

usemtl m21
f 11 20 21

usemtl m22
f 11 21 22

usemtl m23
f 11 22 12

usemtl m24
f 12 22 23

usemtl m25
f 12 23 24

usemtl m26
f 12 24 13

usemtl m27
f 13 24 25

usemtl m28
f 13 25 26

usemtl m29
f 13 26 14

usemtl m30
f 14 26 5

usemtl m31
f 14 5 4

usemtl m32
f 21 23 22

usemtl m33
f 23 21 27

usemtl m34
f 27 21 18

usemtl m35
f 18 21 19

usemtl m36
f 19 21 20

usemtl m37
f 5 26 6

usemtl m38
f 6 26 25

usemtl m39
f 6 25 24

usemtl m40
f 6 24 28

usemtl m41
f 28 24 23

usemtl m42
f 15 4 3

usemtl m43
f 15 3 2

usemtl m44
f 15 2 16

usemtl m45
f 16 2 29

usemtl m46
f 16 29 17

usemtl m47
f 17 29 18

usemtl m48
f 18 29 30

usemtl m49
f 30 29 2

usemtl m50
f 31 32 33

usemtl m51
f 31 33 34

usemtl m52
f 31 34 35

usemtl m53
f 31 35 36

usemtl m54
f 31 36 37

usemtl m55
f 31 37 38

usemtl m56
f 31 38 32

usemtl m57
f 32 38 39

usemtl m58
f 32 39 33

usemtl m59
f 40 37 41

usemtl m60
f 40 41 42

usemtl m61
f 40 42 43

usemtl m62
f 40 43 38

usemtl m63
f 40 38 37

usemtl m64
f 36 44 45

usemtl m65
f 36 45 46

usemtl m66
f 36 46 47

usemtl m67
f 36 47 37

usemtl m68
f 37 47 41

usemtl m69
f 41 47 48

usemtl m70
f 41 48 49

usemtl m71
f 41 49 42

usemtl m72
f 42 49 50

usemtl m73
f 42 50 51

usemtl m74
f 51 50 52

usemtl m75
f 51 52 53

usemtl m76
f 51 53 54

usemtl m77
f 54 53 55

usemtl m78
f 55 53 56

usemtl m79
f 56 53 57

usemtl m80
f 57 53 52

usemtl m81
f 57 52 58

usemtl m82
f 58 52 59

usemtl m83
f 58 59 60

usemtl m84
f 60 59 61

usemtl m85
f 60 61 62

usemtl m86
f 62 61 63

usemtl m87
f 63 61 64

usemtl m88
f 63 64 65

usemtl m89
f 65 64 48

usemtl m90
f 65 48 46

usemtl m91
f 46 48 47

usemtl m92
f 59 52 50

usemtl m93
f 59 50 64

usemtl m94
f 59 64 61

usemtl m95
f 64 50 49

usemtl m96
f 64 49 48

usemtl m97
f 35 44 36

usemtl m98
f 38 43 39

usemtl m99
f 66 67 68

usemtl m100
f 66 68 69

usemtl m101
f 66 70 71

usemtl m102
f 66 71 67

usemtl m103
f 67 71 72

usemtl m104
f 67 72 73

usemtl m105
f 67 73 68

usemtl m106
f 74 75 76

usemtl m107
f 74 76 77

usemtl m108
f 74 77 72

usemtl m109
f 74 72 71

usemtl m110
f 74 71 75

usemtl m111
f 75 71 70

usemtl m112
f 75 70 78

usemtl m113
f 75 78 76

usemtl m114
f 73 72 79

usemtl m115
f 79 72 77

usemtl m116
f 80 81 82

usemtl m117
f 80 82 83

usemtl m118
f 80 84 85

usemtl m119
f 80 85 81

usemtl m120
f 81 85 86

usemtl m121
f 81 86 87

usemtl m122
f 81 87 82

usemtl m123
f 88 89 90

usemtl m124
f 88 90 91

usemtl m125
f 88 91 86

usemtl m126
f 88 86 85

usemtl m127
f 88 85 89

usemtl m128
f 89 85 84

usemtl m129
f 89 84 92

usemtl m130
f 89 92 90

usemtl m131
f 87 86 93

usemtl m132
f 93 86 91

usemtl m133
f 94 95 96

usemtl m134
f 94 96 97

usemtl m135
f 94 98 99

usemtl m136
f 94 99 95

usemtl m137
f 95 99 100

usemtl m138
f 95 100 101

usemtl m139
f 95 101 96

usemtl m140
f 102 103 104

usemtl m141
f 102 104 105

usemtl m142
f 102 105 100

usemtl m143
f 102 100 99

usemtl m144
f 102 99 103

usemtl m145
f 103 99 98

usemtl m146
f 103 98 106

usemtl m147
f 103 106 104

usemtl m148
f 101 100 107

usemtl m149
f 107 100 105

usemtl m150
f 108 109 110

usemtl m151
f 108 110 111

usemtl m152
f 108 112 113

usemtl m153
f 108 113 109

usemtl m154
f 109 113 114

usemtl m155
f 109 114 115

usemtl m156
f 109 115 110

usemtl m157
f 116 117 118

usemtl m158
f 116 118 119

usemtl m159
f 116 119 114

usemtl m160
f 116 114 113

usemtl m161
f 116 113 117

usemtl m162
f 117 113 112

usemtl m163
f 117 112 120

usemtl m164
f 117 120 118

usemtl m165
f 115 114 121

usemtl m166
f 121 114 119

