newmtl m0
Kd 0.33725490196078434 0.25098039215686274 0.011764705882352941
newmtl m1
Kd 0.33725490196078434 0.25098039215686274 0.011764705882352941
newmtl m2
Kd 0.5098039215686274 0.40784313725490196 0.1607843137254902
newmtl m3
Kd 0.5098039215686274 0.40784313725490196 0.1607843137254902
newmtl m4
Kd 0.5098039215686274 0.40784313725490196 0.1607843137254902
newmtl m5
Kd 0.5098039215686274 0.40784313725490196 0.1607843137254902
newmtl m6
Kd 0.5098039215686274 0.40784313725490196 0.1607843137254902
newmtl m7
Kd 0.5098039215686274 0.40784313725490196 0.1607843137254902
newmtl m8
Kd 0.33725490196078434 0.25098039215686274 0.011764705882352941
newmtl m9
Kd 0.33725490196078434 0.25098039215686274 0.011764705882352941
newmtl m10
Kd 0.5098039215686274 0.40784313725490196 0.1607843137254902
newmtl m11
Kd 0.5098039215686274 0.40784313725490196 0.1607843137254902
newmtl m12
Kd 0.5098039215686274 0.40784313725490196 0.1607843137254902
newmtl m13
Kd 0.5098039215686274 0.40784313725490196 0.1607843137254902
newmtl m14
Kd 0.5098039215686274 0.40784313725490196 0.1607843137254902
newmtl m15
Kd 0.5098039215686274 0.40784313725490196 0.1607843137254902
newmtl m16
Kd 0.33725490196078434 0.25098039215686274 0.011764705882352941
