mtllib 441.mtl
o runescapemodel
v 19 95 -6
v 17 83 -5
v 17 83 -9
v 19 95 -10
v 20 104 -11
v 20 104 -9
v 21 111 -12
v 21 111 -10
v 20 107 -4
v 21 114 -5
v 19 95 9
v 17 83 7
v 17 83 1
v 19 95 1
v 17 83 -1
v 19 95 -1
v 20 104 -1
v 20 104 1
v 21 111 -1
v 21 111 1
v 20 107 5
v 21 114 5
v 19 95 12
v 17 83 11
v 20 104 9
v 20 104 12
v 21 111 11
v 21 111 13
v 20 107 17
v 21 114 18
v 1 92 13
v 3 86 13
v 21 114 -4
v 21 114 6
v 20 107 -15
v 21 114 -17
v 15 71 -4
v 15 71 0
v 14 64 0
v 15 71 5
v 16 76 1
v 16 76 -1
v 14 64 5
v 15 71 6
v 15 71 11
v 16 76 9
v 16 76 6
v 15 71 1
v 15 71 -10
v 15 71 -5
v 14 64 -4
v 15 71 -1
v 16 76 -4
v 16 76 -6
v 18 95 -1
v 18 95 1
v 19 104 1
v 19 104 -1
v 20 111 1
v 20 111 -1
v 19 107 -4
v 20 114 -4
v 19 104 12
v 19 104 9
v 18 95 9
v 18 95 12
v 18 95 -10
v 18 95 -6
v 19 104 -9
v 19 104 -11
v 20 111 -10
v 20 111 -12
v 19 107 -15
v 20 114 -17
v 19 107 5
v 20 114 5
v 19 107 17
v 20 114 18
v 20 111 13
v 20 111 11
v 20 114 6
v 20 114 -5
v 3 86 -11
v 1 92 -11
v 14 45 -8
v 7 18 -3
v 8 45 -8
v 12 60 -3
v 14 47 8
v 12 17 3
v 12 18 -3
v 8 47 8
v 7 17 3
v 3 47 8
v 3 45 -8
v 8 60 -3
v 18 95 -11
v 12 57 8
v 8 57 8
v 4 57 8
v 4 60 -3
v 0 100 -10
v 16 107 -13
v 16 107 6
v 0 100 11
v -3 60 -3
v -8 60 -3
v -18 95 -11
v -15 107 -13
v -13 117 -9
v 12 117 -9
v 9 117 10
v -10 117 10
v -16 107 6
v -11 57 8
v -8 57 8
v -3 57 8
v -2 45 -8
v -8 45 -8
v -10 58 -1
v -10 121 8
v -13 121 -5
v 12 121 -5
v 9 121 8
v -6 18 -3
v -13 45 -8
v -13 47 8
v -8 47 8
v -2 47 8
v -11 18 -3
v -11 17 3
v -6 17 3
v -17 95 0
v -16 95 4
v -15 99 2
v -14 84 -3
v -14 84 1
v -15 88 -1
v -14 78 0
v -14 78 4
v -15 82 2
v -12 70 -4
v -12 70 0
v -13 74 -2
v -11 64 0
v -11 64 4
v -12 69 2
v -13 72 3
v -13 72 7
v -14 76 5
v -15 87 2
v -15 87 6
v -16 91 4
v -7 66 -5
v -11 66 -5
v -9 70 -5
v -8 73 -6
v -12 73 -6
v -10 77 -6
v -5 79 -7
v -9 79 -7
v -7 83 -7
v -9 85 -7
v -13 85 -7
v -11 89 -8
v -2 86 -7
v -6 86 -7
v -4 90 -8
v -5 93 -9
v -9 93 -9
v -7 97 -10
v -9 70 9
v -11 66 9
v -7 66 9
v -10 77 9
v -12 73 9
v -8 73 9
v -7 83 9
v -9 79 9
v -5 79 9
v -11 89 9
v -13 85 9
v -9 85 9
v -4 90 9
v -6 86 9
v -2 86 9
v -7 97 9
v -9 93 9
v -5 93 9
v 8 68 9
v 11 68 9
v 10 72 9
v 8 75 9
v 12 75 9
v 10 79 9
v 5 95 9
v 9 95 9
v 7 99 9
v 7 99 -10
v 9 95 -9
v 5 95 -9
v 10 79 -6
v 12 75 -6
v 8 75 -6
v 10 72 -5
v 11 68 -5
v 8 68 -5
v 17 101 2
v 16 97 4
v 17 97 0
v 13 40 0
v 12 36 2
v 12 36 -2
v 13 45 -4
v 13 41 -2
v 13 41 -6
v 13 46 3
v 13 42 5
v 13 42 1
v 9 43 6
v 12 42 6
v 11 45 6
v 9 35 5
v 12 34 5
v 11 38 5
v -9 45 7
v -10 41 7
v -8 41 7
v -8 39 6
v -11 37 6
v -8 35 6
v -10 36 -2
v -10 36 2
v -11 40 0
v -11 41 -6
v -11 41 -2
v -11 45 -4
v -11 42 1
v -11 42 5
v -12 46 3
vn 1280 182 0
vn 1024 162 0
vn 1080 168 506
vn 530 94 254
vn 1280 178 58
vn 1024 133 -20
vn 768 112 24
vn 768 102 -40
vn 768 102 -4
vn 256 33 -20
vn 1021 154 0
vn 1280 198 0
vn 1021 162 0
vn 1277 182 0
vn 1280 198 0
vn 1024 154 0
vn 1280 164 72
vn 1024 136 -27
vn 768 108 36
vn 768 108 -54
vn 768 105 -30
vn 256 36 -27
vn 1042 164 -254
vn 568 90 -506
vn 1280 156 42
vn 1024 140 -24
vn 768 103 18
vn 768 116 -48
vn 512 80 -48
vn 256 40 -24
vn 56 12 -506
vn 38 -12 -252
vn 512 72 72
vn 512 64 42
vn 256 46 34
vn 512 86 58
vn 512 87 0
vn 1280 225 0
vn 512 72 0
vn 512 87 0
vn 1024 174 0
vn 768 138 0
vn 512 72 0
vn 1280 225 0
vn 512 87 0
vn 1024 174 0
vn 768 138 0
vn 512 87 0
vn 512 87 0
vn 1280 225 0
vn 512 72 0
vn 512 87 0
vn 1024 174 0
vn 768 138 0
vn -512 -56 0
vn -256 -28 0
vn -1280 -164 54
vn -1024 -136 -36
vn -768 -108 27
vn -768 -108 -72
vn -768 -105 -52
vn -256 -36 -36
vn -1280 -172 48
vn -1024 -130 -22
vn -512 -56 0
vn -256 -28 0
vn -512 -56 0
vn -256 -28 0
vn -1280 -158 40
vn -1024 -140 -30
vn -768 -105 20
vn -768 -120 -56
vn -512 -84 -56
vn -256 -44 -26
vn -768 -99 -15
vn -512 -72 54
vn -256 -40 24
vn -512 -80 48
vn -768 -112 24
vn -768 -99 -42
vn -256 -33 -20
vn -512 -66 40
vn 38 -12 252
vn 56 12 506
vn 764 12 754
vn -507 207 757
vn 0 -151 1235
vn 755 -144 741
vn 759 -26 -776
vn 511 120 -504
vn 256 65 255
vn 0 126 -1269
vn -254 117 -499
vn -763 86 -760
vn -765 -120 733
vn -27 -93 1480
vn 701 174 720
vn 827 28 -799
vn 0 34 -1536
vn -766 0 -507
vn -764 -4 497
vn 2 424 1739
vn 676 -314 923
vn 876 -141 -524
vn -1 204 -2232
vn 766 -16 495
vn -302 -37 1351
vn -816 205 711
vn -690 -176 709
vn -748 -549 703
vn 738 -320 285
vn 791 -344 -802
vn -811 -394 -1021
vn -883 -135 -501
vn -821 50 -745
vn 0 34 -1536
vn 767 -6 -509
vn 765 -120 735
vn -204 -162 1129
vn -1074 -139 652
vn -498 -334 -326
vn -246 -637 125
vn 246 -562 306
vn 498 -705 -557
vn 507 207 757
vn -760 -55 739
vn -754 -52 -737
vn 0 126 -1269
vn 763 86 -761
vn -256 65 255
vn -511 120 -503
vn 254 117 -500
vn -240 -90 -60
vn -240 -90 -60
vn -240 -90 -60
vn -256 64 0
vn -256 64 0
vn -256 64 0
vn -256 64 0
vn -256 64 0
vn -256 64 0
vn -256 64 0
vn -256 64 0
vn -256 64 0
vn -256 51 0
vn -256 51 0
vn -256 51 0
vn -256 64 0
vn -256 64 0
vn -256 64 0
vn -256 64 0
vn -256 64 0
vn -256 64 0
vn 0 0 256
vn 0 0 256
vn 0 0 256
vn 0 0 256
vn 0 0 256
vn 0 0 256
vn 0 0 256
vn 0 0 256
vn 0 0 256
vn 0 64 256
vn 0 64 256
vn 0 64 256
vn 0 64 256
vn 0 64 256
vn 0 64 256
vn 0 64 256
vn 0 64 256
vn 0 64 256
vn 0 0 -256
vn 0 0 -256
vn 0 0 -256
vn 0 0 -256
vn 0 0 -256
vn 0 0 -256
vn 0 0 -256
vn 0 0 -256
vn 0 0 -256
vn 0 0 -256
vn 0 0 -256
vn 0 0 -256
vn 0 0 -256
vn 0 0 -256
vn 0 0 -256
vn 0 0 -256
vn 0 0 -256
vn 0 0 -256
vn 0 0 -256
vn 0 0 -256
vn 0 0 -256
vn 0 0 -256
vn 0 0 -256
vn 0 0 -256
vn 0 0 -256
vn 0 0 -256
vn 0 0 -256
vn 0 64 256
vn 0 64 256
vn 0 64 256
vn 0 0 256
vn 0 0 256
vn 0 0 256
vn 0 0 256
vn 0 0 256
vn 0 0 256
vn 256 32 -64
vn 256 32 -64
vn 256 32 -64
vn 256 64 0
vn 256 64 0
vn 256 64 0
vn 256 0 0
vn 256 0 0
vn 256 0 0
vn 256 0 0
vn 256 0 0
vn 256 0 0
vn 0 0 -256
vn 0 0 -256
vn 0 0 -256
vn 0 0 -256
vn 0 0 -256
vn 0 0 -256
vn 0 0 -256
vn 0 0 -256
vn 0 0 -256
vn 0 0 -256
vn 0 0 -256
vn 0 0 -256
vn -256 64 0
vn -256 64 0
vn -256 64 0
vn -256 0 0
vn -256 0 0
vn -256 0 0
vn -256 64 0
vn -256 64 0
vn -256 64 0
usemtl m0
f 1 2 3

usemtl m1
f 1 3 4

usemtl m2
f 1 4 5

usemtl m3
f 1 5 6

usemtl m4
f 6 5 7

usemtl m5
f 6 7 8

usemtl m6
f 6 8 9

usemtl m7
f 9 8 10

usemtl m8
f 11 12 13

usemtl m9
f 11 13 14

usemtl m10
f 14 13 15

usemtl m11
f 14 15 16

usemtl m12
f 14 16 17

usemtl m13
f 14 17 18

usemtl m14
f 18 17 19

usemtl m15
f 18 19 20

usemtl m16
f 18 20 21

usemtl m17
f 21 20 22

usemtl m18
f 16 15 2

usemtl m19
f 16 2 1

usemtl m20
f 23 24 12

usemtl m21
f 23 12 11

usemtl m22
f 23 11 25

usemtl m23
f 23 25 26

usemtl m24
f 26 25 27

usemtl m25
f 26 27 28

usemtl m26
f 26 28 29

usemtl m27
f 29 28 30

usemtl m28
f 31 32 24

usemtl m29
f 31 24 23

usemtl m30
f 17 9 33

usemtl m31
f 17 33 19

usemtl m32
f 25 21 34

usemtl m33
f 25 34 27

usemtl m34
f 5 35 36

usemtl m35
f 5 36 7

usemtl m36
f 37 38 39

usemtl m37
f 39 38 40

usemtl m38
f 40 38 41

usemtl m39
f 41 38 42

usemtl m40
f 41 42 15

usemtl m41
f 41 15 13

usemtl m42
f 43 44 45

usemtl m43
f 45 44 46

usemtl m44
f 46 44 47

usemtl m45
f 46 47 12

usemtl m46
f 46 12 24

usemtl m47
f 48 44 43

usemtl m48
f 44 48 47

usemtl m49
f 49 50 51

usemtl m50
f 51 50 52

usemtl m51
f 52 50 53

usemtl m52
f 53 50 54

usemtl m53
f 53 54 3

usemtl m54
f 53 3 2

usemtl m55
f 50 49 54

usemtl m56
f 38 37 42

usemtl m57
f 55 56 57

usemtl m58
f 55 57 58

usemtl m59
f 58 57 59

usemtl m60
f 58 59 60

usemtl m61
f 58 60 61

usemtl m62
f 61 60 62

usemtl m63
f 63 64 65

usemtl m64
f 63 65 66

usemtl m65
f 67 68 69

usemtl m66
f 67 69 70

usemtl m67
f 70 69 71

usemtl m68
f 70 71 72

usemtl m69
f 70 72 73

usemtl m70
f 73 72 74

usemtl m71
f 57 75 76

usemtl m72
f 57 76 59

usemtl m73
f 63 77 78

usemtl m74
f 63 78 79

usemtl m75
f 63 79 64

usemtl m76
f 64 79 80

usemtl m77
f 64 80 75

usemtl m78
f 75 80 81

usemtl m79
f 69 61 82

usemtl m80
f 69 82 71

usemtl m81
f 3 83 84

usemtl m82
f 3 84 4

usemtl m83
f 85 86 87

usemtl m84
f 85 87 88

usemtl m85
f 85 88 89

usemtl m86
f 85 89 90

usemtl m87
f 85 90 91

usemtl m88
f 85 91 86

usemtl m89
f 90 89 92

usemtl m90
f 90 92 93

usemtl m91
f 93 92 94

usemtl m92
f 93 94 86

usemtl m93
f 86 94 95

usemtl m94
f 86 95 87

usemtl m95
f 87 95 96

usemtl m96
f 87 96 88

usemtl m97
f 88 96 97

usemtl m98
f 88 97 98

usemtl m99
f 88 98 89

usemtl m100
f 89 98 99

usemtl m101
f 89 99 92

usemtl m102
f 92 99 94

usemtl m103
f 94 99 100

usemtl m104
f 94 100 95

usemtl m105
f 95 100 101

usemtl m106
f 95 101 96

usemtl m107
f 96 101 102

usemtl m108
f 96 102 97

usemtl m109
f 97 102 103

usemtl m110
f 97 103 104

usemtl m111
f 97 104 98

usemtl m112
f 98 104 105

usemtl m113
f 98 105 99

usemtl m114
f 99 105 100

usemtl m115
f 100 105 101

usemtl m116
f 101 105 102

usemtl m117
f 102 105 106

usemtl m118
f 102 106 107

usemtl m119
f 102 107 108

usemtl m120
f 102 108 109

usemtl m121
f 102 109 103

usemtl m122
f 103 109 110

usemtl m123
f 103 110 111

usemtl m124
f 103 111 112

usemtl m125
f 103 112 104

usemtl m126
f 104 112 105

usemtl m127
f 105 112 113

usemtl m128
f 105 113 114

usemtl m129
f 105 114 115

usemtl m130
f 105 115 116

usemtl m131
f 105 116 117

usemtl m132
f 105 117 106

usemtl m133
f 106 117 118

usemtl m134
f 106 118 107

usemtl m135
f 107 118 119

usemtl m136
f 107 119 120

usemtl m137
f 107 120 108

usemtl m138
f 108 120 115

usemtl m139
f 108 115 114

usemtl m140
f 108 114 109

usemtl m141
f 109 114 113

usemtl m142
f 109 113 110

usemtl m143
f 110 113 121

usemtl m144
f 110 121 122

usemtl m145
f 110 122 123

usemtl m146
f 110 123 111

usemtl m147
f 111 123 124

usemtl m148
f 111 124 112

usemtl m149
f 112 124 113

usemtl m150
f 113 124 121

usemtl m151
f 121 124 122

usemtl m152
f 122 124 123

usemtl m153
f 119 125 126

usemtl m154
f 119 126 120

usemtl m155
f 120 126 127

usemtl m156
f 120 127 115

usemtl m157
f 115 127 116

usemtl m158
f 116 127 128

usemtl m159
f 116 128 129

usemtl m160
f 116 129 117

usemtl m161
f 117 129 118

usemtl m162
f 118 129 125

usemtl m163
f 118 125 119

usemtl m164
f 125 130 126

usemtl m165
f 126 130 131

usemtl m166
f 126 131 127

usemtl m167
f 127 131 128

usemtl m168
f 128 131 132

usemtl m169
f 128 132 129

usemtl m170
f 129 132 125

usemtl m171
f 133 134 135

usemtl m172
f 136 137 138

usemtl m173
f 139 140 141

usemtl m174
f 142 143 144

usemtl m175
f 145 146 147

usemtl m176
f 148 149 150

usemtl m177
f 151 152 153

usemtl m178
f 154 155 156

usemtl m179
f 157 158 159

usemtl m180
f 160 161 162

usemtl m181
f 163 164 165

usemtl m182
f 166 167 168

usemtl m183
f 169 170 171

usemtl m184
f 172 173 174

usemtl m185
f 175 176 177

usemtl m186
f 178 179 180

usemtl m187
f 181 182 183

usemtl m188
f 184 185 186

usemtl m189
f 187 188 189

usemtl m190
f 190 191 192

usemtl m191
f 193 194 195

usemtl m192
f 196 197 198

usemtl m193
f 199 200 201

usemtl m194
f 202 203 204

usemtl m195
f 205 206 207

usemtl m196
f 208 209 210

usemtl m197
f 211 212 213

usemtl m198
f 214 215 216

usemtl m199
f 217 218 219

usemtl m200
f 220 221 222

usemtl m201
f 223 224 225

usemtl m202
f 226 227 228

usemtl m203
f 229 230 231

usemtl m204
f 232 233 234

usemtl m205
f 235 236 237

usemtl m206
f 238 239 240

