mtllib 4535.mtl
o runescapemodel
v -48 240 -64
v -64 240 -64
v -64 240 64
v -48 240 48
v -48 0 -64
v -64 0 -64
v -64 0 64
v -48 0 48
v -48 240 -64
v -48 240 -64
v -48 240 -64
v -48 240 -64
v -48 240 -64
v -48 240 -64
vn 256 -512 512
vn -512 -256 256
vn -256 -512 0
vn 512 -256 0
vn 512 0 256
vn -256 0 512
vn -512 0 0
vn 256 0 0
vn 0 0 0
vn 0 0 0
vn 0 0 0
vn 0 0 0
vn 0 0 0
vn 0 0 0
usemtl m0
f 1 2 3

usemtl m1
f 1 3 4

usemtl m2
f 1 4 5

usemtl m3
f 1 5 6

usemtl m4
f 1 6 2

usemtl m5
f 2 6 7

usemtl m6
f 2 7 3

usemtl m7
f 5 4 8

