mtllib 5066.mtl
o runescapemodel
v 9 11 -71
v 0 13 -79
v 0 20 -55
v 9 15 -59
v 9 0 -61
v 9 0 -71
v 4 6 -95
v 0 0 -127
v -5 6 -95
v -10 11 -71
v -10 15 -59
v 0 27 -23
v 14 20 -31
v 20 12 -43
v 17 0 -48
v 15 0 -36
v 0 0 -23
v 0 0 -55
v 0 0 -79
v 6 0 -99
v -7 0 -99
v -10 0 -71
v -10 0 -61
v -21 12 -43
v -15 20 -31
v -20 16 -5
v 0 30 16
v 19 16 -5
v 19 0 -7
v 23 0 -27
v 25 6 -27
v 31 8 -39
v 34 6 -53
v 29 6 -55
v 25 6 -55
v 20 6 -53
v 19 0 -63
v 24 0 -60
v 33 0 -35
v 0 20 92
v 0 13 124
v 4 13 124
v 14 15 100
v 10 18 92
v 14 15 86
v 0 20 80
v -15 15 86
v -11 18 92
v -15 15 100
v -5 13 124
v -6 10 124
v 0 10 124
v 5 10 124
v 14 10 96
v 5 10 120
v 5 8 118
v 5 10 116
v 7 8 114
v 7 10 112
v 9 8 110
v 9 10 108
v 10 8 106
v 10 10 104
v 12 8 102
v 12 10 100
v 14 8 98
v -15 10 96
v -15 8 98
v -13 10 100
v -13 8 102
v -11 10 104
v -11 8 106
v -10 10 108
v -10 8 110
v -8 10 112
v -8 8 114
v -6 10 116
v -6 8 118
v -6 10 120
v -13 5 100
v -15 6 98
v -15 5 96
v -11 5 104
v -13 6 102
v -10 5 108
v -11 6 106
v -8 5 112
v -10 6 110
v -6 5 116
v -8 6 114
v -6 5 120
v -6 6 118
v 5 5 116
v 5 6 118
v 5 5 120
v 7 5 112
v 7 6 114
v 9 5 108
v 9 6 110
v 10 5 104
v 10 6 106
v 12 5 100
v 12 6 102
v 14 5 96
v 14 6 98
v 14 16 90
v 14 17 92
v 14 16 95
v -15 16 95
v -15 17 92
v -15 16 90
v -5 9 106
v -5 7 106
v -2 7 113
v -2 9 111
v 1 9 111
v 3 9 106
v -3 11 90
v -3 8 86
v 1 8 86
v 3 7 106
v 1 7 113
v 1 11 90
v -5 9 52
v -5 5 55
v 2 5 55
v 2 9 52
v 26 13 48
v 34 8 44
v 28 6 32
v 19 16 36
v 7 11 70
v 12 0 66
v 26 3 48
v 24 6 58
v 28 6 60
v 32 6 60
v 37 6 58
v 36 0 40
v 26 0 32
v 19 0 40
v 22 16 15
v 0 27 56
v 14 6 80
v 14 0 84
v 0 0 56
v 26 0 48
v 22 0 72
v 27 0 65
v 31 0 74
v 33 0 65
v 37 0 72
v 37 0 58
v 27 0 -65
v 30 0 -60
v 34 0 -53
v 33 0 -63
v -27 13 48
v -8 11 70
v -20 16 36
v -29 6 32
v -35 8 44
v -38 6 58
v -33 6 60
v -29 6 60
v -25 6 58
v -27 3 48
v -13 0 66
v -15 6 80
v -23 16 15
v -20 0 40
v -27 0 32
v -37 0 40
v -38 0 72
v -34 0 65
v -32 0 74
v -28 0 65
v -23 0 72
v -27 0 48
v -15 0 84
v -15 0 96
v -6 3 122
v -6 5 122
v 0 3 123
v 0 5 123
v 5 5 122
v 5 3 122
v 14 0 96
v -38 0 58
v -20 0 -63
v -21 6 -53
v -18 0 -48
v -25 0 -60
v -26 6 -55
v -16 0 -36
v -24 0 -27
v -34 0 -35
v -31 0 -60
v -28 0 -65
v -30 6 -55
v -35 6 -53
v -32 8 -39
v -26 6 -27
v -20 0 -7
v -32 0 -9
v -32 6 -9
v -31 13 10
v -34 0 -63
v -35 0 -53
v 30 13 10
v 31 6 -9
v 31 0 -9
v 30 3 10
v 22 0 15
v -23 0 15
v 36 0 2
v 43 0 -5
v 46 0 6
v 44 0 17
v 39 0 20
v 34 0 27
v 35 6 15
v 38 6 16
v 43 6 14
v 46 6 6
v 42 8 -4
v 50 0 17
v 45 0 26
v -31 3 10
v -37 0 2
v -44 0 -5
v -43 8 -4
v -47 6 6
v -44 6 14
v -39 6 16
v -36 6 15
v -35 0 27
v -40 0 20
v -45 0 17
v -47 0 6
v -51 0 17
v -46 0 26
v 0 0 88
vn 1072 -669 261
vn 41 -1324 382
vn 26 -1366 381
vn 893 -907 385
vn 942 1005 276
vn 743 673 77
vn 962 -631 250
vn 24 -136 219
vn -927 -653 259
vn -1044 -683 261
vn -872 -917 386
vn 23 -1816 220
vn 802 -814 -222
vn 674 -1618 670
vn -259 1107 213
vn 64 1054 -133
vn 0 3072 0
vn 0 1536 0
vn 0 1536 0
vn 463 309 73
vn -460 305 81
vn -743 673 77
vn -942 1005 276
vn -674 -1618 670
vn -793 -819 -225
vn -737 -1142 642
vn 18 -1726 1
vn 751 -1134 645
vn 551 950 302
vn -94 594 -611
vn 558 -474 -628
vn 594 -666 -214
vn 673 -728 199
vn 117 -1142 752
vn -182 -1152 805
vn -579 -606 334
vn -175 -191 343
vn -80 759 302
vn 850 929 -354
vn 16 -2434 -157
vn 0 -501 -1132
vn 285 -568 -454
vn 979 -704 -287
vn 248 -683 19
vn 1131 -961 302
vn 19 -1166 124
vn -1116 -969 304
vn -240 -685 21
vn -972 -706 -288
vn -282 -570 -453
vn -461 -13 -687
vn 0 0 -512
vn 461 -13 -687
vn 976 -52 -189
vn 256 0 0
vn 256 0 0
vn 483 -113 -113
vn 227 -113 -113
vn 454 -226 -226
vn 227 -113 -113
vn 483 -177 -177
vn 256 -64 -64
vn 483 -177 -177
vn 227 -113 -113
vn 454 -226 -226
vn 227 -113 -113
vn -976 -52 -189
vn -227 -113 -113
vn -454 -226 -226
vn -227 -113 -113
vn -483 -177 -177
vn -256 -64 -64
vn -483 -177 -177
vn -227 -113 -113
vn -454 -226 -226
vn -227 -113 -113
vn -483 -113 -113
vn -256 0 0
vn -256 0 0
vn -340 340 -170
vn -170 170 -85
vn -1166 170 -252
vn -426 298 -149
vn -170 170 -85
vn -426 298 -149
vn -256 128 -64
vn -340 340 -170
vn -170 170 -85
vn -426 170 -85
vn -170 170 -85
vn -256 0 0
vn -256 0 0
vn 426 170 -85
vn 256 0 0
vn 256 0 0
vn 340 340 -170
vn 170 170 -85
vn 426 298 -149
vn 170 170 -85
vn 426 298 -149
vn 256 128 -64
vn 340 340 -170
vn 170 170 -85
vn 1166 170 -252
vn 170 170 -85
vn 256 0 0
vn 256 0 0
vn 256 0 0
vn -256 0 0
vn -256 0 0
vn -256 0 0
vn -690 -886 -220
vn -750 736 -22
vn -434 10 -604
vn -196 -566 -310
vn 232 -989 -477
vn 744 -861 -198
vn -1024 -784 -25
vn -512 759 -30
vn 512 748 15
vn 768 736 -5
vn 488 -29 -358
vn 1024 -792 35
vn -256 -521 14
vn -512 270 -54
vn 512 518 -63
vn 256 -260 7
vn 551 -1552 -552
vn 673 -628 242
vn 550 -484 697
vn 645 -1007 260
vn 1159 -964 -38
vn 936 110 -234
vn -685 508 -88
vn -619 -425 -132
vn -126 -1104 -694
vn 106 -1069 -615
vn 715 -738 -162
vn 854 393 362
vn -315 570 558
vn 448 1289 33
vn 999 -682 -271
vn 19 -1017 -283
vn 1193 -182 225
vn 687 773 8
vn 0 1024 0
vn -512 1280 42
vn -357 -46 -150
vn -13 569 -236
vn 26 -179 -248
vn 23 875 -174
vn 80 -24 -213
vn 0 768 0
vn 0 -222 363
vn 28 787 279
vn 0 512 0
vn 141 -26 298
vn -551 -1552 -552
vn -1139 -989 -43
vn -630 -1019 261
vn -550 -484 697
vn -673 -628 242
vn -715 -738 -162
vn -106 -1069 -615
vn 126 -1104 -694
vn 619 -425 -132
vn 685 508 -88
vn -936 366 -234
vn -1193 -182 225
vn -991 -686 -272
vn -448 1289 33
vn 315 570 558
vn -854 393 362
vn -80 -24 -213
vn -23 875 -174
vn -26 -179 -248
vn 13 569 -236
vn 357 -46 -150
vn 512 1280 42
vn -730 270 8
vn -473 -2 -89
vn -536 -255 -407
vn -326 0 -595
vn 17 -512 -982
vn 9 0 -512
vn 344 0 -595
vn 502 497 -427
vn 431 -266 -60
vn 0 768 0
vn 175 -191 343
vn 579 -606 334
vn 259 1107 213
vn 80 759 302
vn 182 -1152 805
vn -64 1054 -133
vn 94 594 -611
vn -850 929 -354
vn -28 787 279
vn 0 -222 363
vn -117 -1142 752
vn -673 -728 199
vn -594 -666 -214
vn -558 -474 -628
vn -551 950 302
vn 110 720 666
vn -241 -481 879
vn -515 -1449 -872
vn -141 -26 298
vn 0 512 0
vn 515 -1449 -872
vn 241 -481 879
vn -110 720 666
vn -333 788 -524
vn 609 754 -454
vn -609 754 -454
vn -200 1746 -24
vn 662 411 644
vn 0 768 0
vn 256 881 -202
vn 15 564 -302
vn -153 -43 -306
vn -469 -510 -590
vn 7 -970 -897
vn 618 -1002 -558
vn 845 -724 62
vn 438 -555 405
vn 393 -81 -209
vn 129 -87 -250
vn 333 788 -524
vn 200 1746 -24
vn -662 411 644
vn -438 -555 405
vn -845 -724 62
vn -618 -1002 -558
vn -7 -970 -897
vn 469 -510 -590
vn 153 -43 -306
vn -15 564 -302
vn -256 881 -202
vn 0 768 0
vn -393 -81 -209
vn -129 -87 -250
vn 0 -2556 90
usemtl m0
f 1 2 3

usemtl m1
f 1 3 4

usemtl m2
f 1 4 5

usemtl m3
f 1 5 6

usemtl m4
f 1 6 7

usemtl m5
f 1 7 2

usemtl m6
f 2 7 8

usemtl m7
f 2 8 9

usemtl m8
f 2 9 10

usemtl m9
f 2 10 3

usemtl m10
f 3 10 11

usemtl m11
f 3 11 12

usemtl m12
f 3 12 4

usemtl m13
f 4 12 13

usemtl m14
f 4 13 14

usemtl m15
f 4 14 5

usemtl m16
f 5 14 15

usemtl m17
f 5 15 16

usemtl m18
f 5 16 17

usemtl m19
f 5 17 18

usemtl m20
f 5 18 6

usemtl m21
f 6 18 19

usemtl m22
f 6 19 20

usemtl m23
f 6 20 7

usemtl m24
f 7 20 8

usemtl m25
f 8 20 19

usemtl m26
f 8 19 21

usemtl m27
f 8 21 9

usemtl m28
f 9 21 22

usemtl m29
f 9 22 10

usemtl m30
f 10 22 23

usemtl m31
f 10 23 11

usemtl m32
f 11 23 24

usemtl m33
f 11 24 25

usemtl m34
f 11 25 12

usemtl m35
f 12 25 26

usemtl m36
f 12 26 27

usemtl m37
f 12 27 28

usemtl m38
f 12 28 13

usemtl m39
f 13 28 29

usemtl m40
f 13 29 16

usemtl m41
f 13 16 30

usemtl m42
f 13 30 31

usemtl m43
f 13 31 14

usemtl m44
f 14 31 32

usemtl m45
f 14 32 33

usemtl m46
f 14 33 34

usemtl m47
f 14 34 35

usemtl m48
f 14 35 36

usemtl m49
f 14 36 15

usemtl m50
f 15 36 37

usemtl m51
f 15 37 38

usemtl m52
f 15 38 39

usemtl m53
f 15 39 30

usemtl m54
f 15 30 16

usemtl m55
f 16 30 30

usemtl m56
f 40 41 42

usemtl m57
f 40 42 43

usemtl m58
f 40 43 44

usemtl m59
f 40 44 45

usemtl m60
f 40 45 46

usemtl m61
f 40 46 47

usemtl m62
f 40 47 48

usemtl m63
f 40 48 49

usemtl m64
f 40 49 50

usemtl m65
f 40 50 41

usemtl m66
f 41 50 51

usemtl m67
f 41 51 52

usemtl m68
f 41 52 53

usemtl m69
f 41 53 42

usemtl m70
f 42 53 43

usemtl m71
f 43 53 54

usemtl m72
f 43 54 45

usemtl m73
f 43 45 44

usemtl m74
f 55 56 57

usemtl m75
f 57 58 59

usemtl m76
f 59 60 61

usemtl m77
f 61 62 63

usemtl m78
f 63 64 65

usemtl m79
f 65 66 54

usemtl m80
f 67 68 69

usemtl m81
f 69 70 71

usemtl m82
f 71 72 73

usemtl m83
f 73 74 75

usemtl m84
f 75 76 77

usemtl m85
f 77 78 79

usemtl m86
f 80 81 82

usemtl m87
f 83 84 80

usemtl m88
f 85 86 83

usemtl m89
f 87 88 85

usemtl m90
f 89 90 87

usemtl m91
f 91 92 89

usemtl m92
f 93 94 95

usemtl m93
f 96 97 93

usemtl m94
f 98 99 96

usemtl m95
f 100 101 98

usemtl m96
f 102 103 100

usemtl m97
f 104 105 102

usemtl m98
f 106 107 108

usemtl m99
f 109 110 111

usemtl m100
f 112 113 114

usemtl m101
f 112 114 115

usemtl m102
f 112 115 116

usemtl m103
f 112 116 117

usemtl m104
f 112 117 118

usemtl m105
f 112 118 113

usemtl m106
f 113 118 119

usemtl m107
f 113 119 120

usemtl m108
f 113 120 121

usemtl m109
f 113 121 114

usemtl m110
f 114 121 122

usemtl m111
f 114 122 116

usemtl m112
f 114 116 115

usemtl m113
f 122 121 117

usemtl m114
f 122 117 116

usemtl m115
f 121 120 123

usemtl m116
f 121 123 117

usemtl m117
f 117 123 118

usemtl m118
f 118 123 124

usemtl m119
f 118 124 125

usemtl m120
f 118 125 119

usemtl m121
f 119 125 126

usemtl m122
f 119 126 120

usemtl m123
f 120 126 123

usemtl m124
f 123 126 127

usemtl m125
f 123 127 124

usemtl m126
f 128 129 130

usemtl m127
f 128 130 131

usemtl m128
f 128 131 132

usemtl m129
f 128 132 133

usemtl m130
f 128 133 134

usemtl m131
f 128 134 135

usemtl m132
f 128 135 136

usemtl m133
f 128 136 137

usemtl m134
f 128 137 138

usemtl m135
f 128 138 129

usemtl m136
f 129 138 139

usemtl m137
f 129 139 130

usemtl m138
f 130 139 140

usemtl m139
f 130 140 131

usemtl m140
f 131 140 141

usemtl m141
f 131 141 142

usemtl m142
f 131 142 27

usemtl m143
f 131 27 143

usemtl m144
f 131 143 132

usemtl m145
f 132 143 46

usemtl m146
f 132 46 45

usemtl m147
f 132 45 144

usemtl m148
f 132 144 133

usemtl m149
f 133 144 145

usemtl m150
f 133 145 146

usemtl m151
f 133 146 141

usemtl m152
f 133 141 134

usemtl m153
f 134 141 140

usemtl m154
f 134 140 147

usemtl m155
f 134 147 148

usemtl m156
f 134 148 135

usemtl m157
f 135 148 136

usemtl m158
f 136 148 149

usemtl m159
f 136 149 150

usemtl m160
f 136 150 137

usemtl m161
f 137 150 151

usemtl m162
f 137 151 152

usemtl m163
f 137 152 138

usemtl m164
f 138 152 139

usemtl m165
f 147 139 153

usemtl m166
f 147 153 151

usemtl m167
f 147 151 149

usemtl m168
f 147 149 148

usemtl m169
f 147 140 139

usemtl m170
f 152 151 153

usemtl m171
f 151 150 149

usemtl m172
f 140 141 140

usemtl m173
f 37 36 35

usemtl m174
f 37 35 38

usemtl m175
f 38 35 154

usemtl m176
f 38 154 155

usemtl m177
f 38 155 39

usemtl m178
f 39 155 156

usemtl m179
f 156 155 157

usemtl m180
f 157 155 34

usemtl m181
f 157 34 33

usemtl m182
f 157 33 39

usemtl m183
f 39 33 32

usemtl m184
f 39 32 31

usemtl m185
f 39 31 30

usemtl m186
f 34 154 35

usemtl m187
f 154 34 155

usemtl m188
f 158 159 160

usemtl m189
f 158 160 161

usemtl m190
f 158 161 162

usemtl m191
f 158 162 163

usemtl m192
f 158 163 164

usemtl m193
f 158 164 165

usemtl m194
f 158 165 166

usemtl m195
f 158 166 167

usemtl m196
f 158 167 168

usemtl m197
f 158 168 159

usemtl m198
f 159 168 169

usemtl m199
f 159 169 47

usemtl m200
f 159 47 46

usemtl m201
f 159 46 143

usemtl m202
f 159 143 160

usemtl m203
f 160 143 27

usemtl m204
f 160 27 170

usemtl m205
f 160 170 171

usemtl m206
f 160 171 172

usemtl m207
f 160 172 161

usemtl m208
f 161 172 173

usemtl m209
f 161 173 162

usemtl m210
f 162 173 163

usemtl m211
f 163 173 174

usemtl m212
f 163 174 164

usemtl m213
f 164 174 175

usemtl m214
f 164 175 176

usemtl m215
f 164 176 165

usemtl m216
f 165 176 177

usemtl m217
f 165 177 178

usemtl m218
f 165 178 166

usemtl m219
f 166 178 167

usemtl m220
f 167 178 179

usemtl m221
f 167 179 172

usemtl m222
f 167 172 171

usemtl m223
f 167 171 168

usemtl m224
f 168 171 146

usemtl m225
f 168 146 145

usemtl m226
f 168 145 180

usemtl m227
f 168 180 169

usemtl m228
f 169 180 82

usemtl m229
f 82 180 181

usemtl m230
f 82 181 182

usemtl m231
f 82 182 183

usemtl m232
f 183 182 184

usemtl m233
f 183 184 185

usemtl m234
f 185 184 186

usemtl m235
f 186 184 187

usemtl m236
f 186 187 104

usemtl m237
f 104 187 188

usemtl m238
f 104 188 145

usemtl m239
f 104 145 144

usemtl m240
f 172 171 172

usemtl m241
f 189 173 179

usemtl m242
f 189 179 175

usemtl m243
f 189 175 174

usemtl m244
f 173 172 179

usemtl m245
f 177 176 175

usemtl m246
f 177 175 179

usemtl m247
f 177 179 178

usemtl m248
f 190 191 192

usemtl m249
f 190 192 193

usemtl m250
f 190 193 194

usemtl m251
f 190 194 191

usemtl m252
f 191 194 24

usemtl m253
f 191 24 192

usemtl m254
f 192 24 23

usemtl m255
f 192 23 195

usemtl m256
f 192 195 196

usemtl m257
f 192 196 197

usemtl m258
f 192 197 193

usemtl m259
f 193 197 198

usemtl m260
f 193 198 199

usemtl m261
f 193 199 194

usemtl m262
f 194 199 200

usemtl m263
f 194 200 24

usemtl m264
f 24 200 201

usemtl m265
f 24 201 202

usemtl m266
f 24 202 203

usemtl m267
f 24 203 25

usemtl m268
f 25 203 196

usemtl m269
f 25 196 195

usemtl m270
f 25 195 204

usemtl m271
f 25 204 26

usemtl m272
f 26 204 205

usemtl m273
f 26 205 206

usemtl m274
f 26 206 207

usemtl m275
f 26 207 170

usemtl m276
f 26 170 27

usemtl m277
f 200 199 198

usemtl m278
f 200 198 208

usemtl m279
f 200 208 201

usemtl m280
f 201 208 197

usemtl m281
f 201 197 202

usemtl m282
f 202 197 203

usemtl m283
f 203 197 196

usemtl m284
f 198 209 208

usemtl m285
f 209 198 197

usemtl m286
f 196 195 196

usemtl m287
f 28 142 210

usemtl m288
f 28 210 211

usemtl m289
f 28 211 212

usemtl m290
f 28 212 29

usemtl m291
f 29 212 212

usemtl m292
f 29 212 213

usemtl m293
f 29 213 214

usemtl m294
f 29 214 17

usemtl m295
f 29 17 16

usemtl m296
f 214 213 210

usemtl m297
f 214 210 142

usemtl m298
f 214 142 141

usemtl m299
f 214 141 17

usemtl m300
f 17 141 146

usemtl m301
f 17 146 171

usemtl m302
f 17 171 215

usemtl m303
f 17 215 204

usemtl m304
f 17 204 195

usemtl m305
f 17 195 23

usemtl m306
f 17 23 18

usemtl m307
f 18 23 22

usemtl m308
f 18 22 19

usemtl m309
f 19 22 21

usemtl m310
f 216 213 212

usemtl m311
f 216 212 217

usemtl m312
f 216 217 218

usemtl m313
f 216 218 219

usemtl m314
f 216 219 220

usemtl m315
f 216 220 221

usemtl m316
f 216 221 213

usemtl m317
f 213 221 222

usemtl m318
f 213 222 210

usemtl m319
f 210 222 223

usemtl m320
f 210 223 224

usemtl m321
f 210 224 225

usemtl m322
f 210 225 226

usemtl m323
f 210 226 211

usemtl m324
f 211 226 217

usemtl m325
f 211 217 212

usemtl m326
f 225 217 226

usemtl m327
f 217 225 227

usemtl m328
f 227 225 224

usemtl m329
f 227 224 219

usemtl m330
f 227 219 218

usemtl m331
f 223 228 224

usemtl m332
f 224 228 219

usemtl m333
f 219 228 220

usemtl m334
f 220 228 223

usemtl m335
f 220 223 221

usemtl m336
f 221 223 222

usemtl m337
f 215 229 204

usemtl m338
f 204 229 205

usemtl m339
f 204 205 205

usemtl m340
f 207 229 215

usemtl m341
f 207 215 170

usemtl m342
f 170 215 171

usemtl m343
f 205 229 230

usemtl m344
f 205 230 231

usemtl m345
f 205 231 206

usemtl m346
f 206 231 232

usemtl m347
f 206 232 207

usemtl m348
f 207 232 233

usemtl m349
f 207 233 234

usemtl m350
f 207 234 235

usemtl m351
f 207 235 236

usemtl m352
f 207 236 229

usemtl m353
f 229 236 237

usemtl m354
f 229 237 230

usemtl m355
f 230 237 238

usemtl m356
f 230 238 239

usemtl m357
f 230 239 240

usemtl m358
f 230 240 231

usemtl m359
f 232 231 233

usemtl m360
f 233 231 241

usemtl m361
f 233 241 234

usemtl m362
f 234 241 239

usemtl m363
f 234 239 242

usemtl m364
f 234 242 235

usemtl m365
f 235 242 238

usemtl m366
f 235 238 237

usemtl m367
f 235 237 236

usemtl m368
f 240 239 241

usemtl m369
f 238 242 239

usemtl m370
f 28 27 142

usemtl m371
f 67 49 47

usemtl m372
f 67 47 169

usemtl m373
f 45 54 144

usemtl m374
f 51 50 49

usemtl m375
f 51 49 67

usemtl m376
f 187 182 181

usemtl m377
f 187 181 180

usemtl m378
f 187 180 145

usemtl m379
f 187 145 188

usemtl m380
f 187 188 243

usemtl m381
f 187 243 184

usemtl m382
f 184 243 182

usemtl m383
f 182 243 181

usemtl m384
f 181 243 180

usemtl m385
f 180 243 168

usemtl m386
f 168 243 146

usemtl m387
f 146 243 133

usemtl m388
f 133 243 145

usemtl m389
f 145 243 188

usemtl m390
f 47 49 48

