mtllib 5375.mtl
o runescapemodel
v -56 240 -20
v -56 240 -64
v -56 198 -64
v -56 198 -26
v -48 200 -20
v -48 236 -20
v 0 240 -20
v 0 240 -64
v -56 240 64
v -56 240 52
v -56 200 52
v -56 198 64
v -52 240 48
v -52 240 -16
v -52 200 -12
v -52 196 44
v -48 196 44
v -48 236 48
v -4 240 48
v -4 240 -16
v -48 236 -16
v -48 196 -16
v -60 188 20
v -60 136 16
v -60 132 60
v -60 192 60
v -48 190 18
v -48 136 16
v -60 188 -56
v -60 136 -60
v -60 132 4
v -60 188 4
v -48 192 -60
v -48 132 -64
v -56 128 -64
v -56 68 -64
v -56 70 16
v -56 120 12
v -48 128 -64
v -48 124 16
v -48 70 16
v -56 124 32
v -56 70 22
v -56 68 64
v -56 128 64
v -48 126 24
v -48 70 20
v -56 64 64
v -56 62 36
v -56 18 38
v -56 16 64
v -60 66 28
v -60 64 -28
v -60 16 -32
v -60 18 32
v -48 18 32
v -48 64 26
v -48 64 -28
v -48 16 -32
v -56 62 -36
v -56 64 -64
v -56 16 -64
v -56 18 -40
v -48 18 -40
v -48 62 -36
v -48 64 -64
v -48 0 64
v -48 236 64
v -48 236 -64
v -48 0 -64
v 64 236 64
v 64 236 -64
v 64 0 64
v 64 0 -64
v 0 240 64
v 0 240 52
v -48 236 52
v -48 200 52
v 4 240 -64
v 4 240 4
v 36 240 4
v 36 240 -64
v 36 240 8
v 4 240 8
v 4 240 60
v 36 240 60
v 64 240 -60
v 40 240 -60
v 40 240 -16
v 64 240 -16
v 64 240 -12
v 40 240 -12
v 40 240 24
v 64 240 24
v 64 240 28
v 40 240 28
v 40 240 64
v 64 240 64
v -48 62 36
v -48 64 64
v -48 18 38
v -48 128 64
v -48 190 8
v -48 132 4
v -48 132 60
v -48 192 60
vn 0 0 0
vn 0 0 0
vn 0 0 0
vn 0 0 0
vn 0 0 0
vn 0 0 0
vn 0 0 0
vn 0 0 0
vn 0 0 0
vn 0 0 0
vn 0 0 0
vn 0 0 0
vn 0 0 0
vn 0 0 0
vn 0 0 0
vn 0 0 0
vn 0 0 0
vn 0 0 0
vn 0 0 0
vn 0 0 0
vn 0 0 0
vn 0 0 0
vn 0 0 0
vn 0 0 0
vn 0 0 0
vn 0 0 0
vn 0 0 0
vn 0 0 0
vn 0 0 0
vn 0 0 0
vn 0 0 0
vn 0 0 0
vn 0 0 0
vn 0 0 0
vn 0 0 0
vn 0 0 0
vn 0 0 0
vn 0 0 0
vn 0 0 0
vn 0 0 0
vn 0 0 0
vn 0 0 0
vn 0 0 0
vn 0 0 0
vn 0 0 0
vn 0 0 0
vn 0 0 0
vn 0 0 0
vn 0 0 0
vn 0 0 0
vn 0 0 0
vn 0 0 0
vn 0 0 0
vn 0 0 0
vn 0 0 0
vn 0 0 0
vn 0 0 0
vn 0 0 0
vn 0 0 0
vn 0 0 0
vn 0 0 0
vn 0 0 0
vn 0 0 0
vn 0 0 0
vn 0 0 0
vn 0 0 0
vn 0 0 0
vn 0 0 0
vn 0 0 0
vn 0 0 0
vn 0 0 0
vn 0 0 0
vn 0 0 0
vn 0 0 0
vn 0 0 0
vn 0 0 0
vn 0 0 0
vn 0 0 0
vn 0 0 0
vn 0 0 0
vn 0 0 0
vn 0 0 0
vn 0 0 0
vn 0 0 0
vn 0 0 0
vn 0 0 0
vn 0 0 0
vn 0 0 0
vn 0 0 0
vn 0 0 0
vn 0 0 0
vn 0 0 0
vn 0 0 0
vn 0 0 0
vn 0 0 0
vn 0 0 0
vn 0 0 0
vn 0 0 0
vn 0 0 0
vn 0 0 0
vn 0 0 0
vn 0 0 0
vn 0 0 0
vn 0 0 0
vn 0 0 0
vn 0 0 0
usemtl m0
f 1 2 3

usemtl m1
f 1 3 4

usemtl m2
f 1 4 5

usemtl m3
f 1 5 6

usemtl m4
f 1 6 7

usemtl m5
f 1 7 8

usemtl m6
f 1 8 2

usemtl m7
f 9 10 11

usemtl m8
f 9 11 12

usemtl m9
f 13 14 15

usemtl m10
f 13 15 16

usemtl m11
f 13 16 17

usemtl m12
f 13 17 18

usemtl m13
f 13 18 19

usemtl m14
f 13 19 20

usemtl m15
f 13 20 14

usemtl m16
f 14 20 21

usemtl m17
f 14 21 15

usemtl m18
f 15 21 22

usemtl m19
f 23 24 25

usemtl m20
f 23 25 26

usemtl m21
f 23 26 27

usemtl m22
f 23 27 24

usemtl m23
f 24 27 28

usemtl m24
f 29 30 31

usemtl m25
f 29 31 32

usemtl m26
f 29 32 33

usemtl m27
f 29 33 34

usemtl m28
f 29 34 30

usemtl m29
f 35 36 37

usemtl m30
f 35 37 38

usemtl m31
f 35 38 39

usemtl m32
f 39 38 40

usemtl m33
f 40 38 41

usemtl m34
f 41 38 37

usemtl m35
f 42 43 44

usemtl m36
f 42 44 45

usemtl m37
f 42 45 46

usemtl m38
f 42 46 43

usemtl m39
f 43 46 47

usemtl m40
f 48 49 50

usemtl m41
f 48 50 51

usemtl m42
f 52 53 54

usemtl m43
f 52 54 55

usemtl m44
f 52 55 56

usemtl m45
f 52 56 57

usemtl m46
f 52 57 58

usemtl m47
f 52 58 53

usemtl m48
f 53 58 54

usemtl m49
f 54 58 59

usemtl m50
f 60 61 62

usemtl m51
f 60 62 63

usemtl m52
f 60 63 64

usemtl m53
f 60 64 65

usemtl m54
f 60 65 66

usemtl m55
f 60 66 61

usemtl m56
f 67 68 69

usemtl m57
f 67 69 70

usemtl m58
f 68 71 72

usemtl m59
f 68 72 69

usemtl m60
f 73 74 72

usemtl m61
f 73 72 71

usemtl m62
f 9 75 76

usemtl m63
f 9 76 10

usemtl m64
f 10 76 77

usemtl m65
f 10 77 11

usemtl m66
f 11 77 78

usemtl m67
f 79 80 81

usemtl m68
f 79 81 82

usemtl m69
f 83 84 85

usemtl m70
f 83 85 86

usemtl m71
f 87 88 89

usemtl m72
f 87 89 90

usemtl m73
f 91 92 93

usemtl m74
f 91 93 94

usemtl m75
f 95 96 97

usemtl m76
f 95 97 98

usemtl m77
f 99 49 48

usemtl m78
f 99 48 100

usemtl m79
f 99 101 50

usemtl m80
f 99 50 49

usemtl m81
f 46 45 102

usemtl m82
f 33 32 103

usemtl m83
f 103 32 104

usemtl m84
f 104 32 31

usemtl m85
f 26 25 105

usemtl m86
f 26 105 106

usemtl m87
f 26 106 27

