mtllib 5428.mtl
o runescapemodel
v -10 -14 42
v -9 -15 41
v 0 -16 41
v -3 -13 44
v -3 -11 44
v -8 -2 44
v -28 -12 32
v -13 -14 41
v -9 -16 42
v 0 -17 43
v 9 -16 42
v 9 -15 41
v 10 -14 42
v 3 -13 44
v 3 -11 44
v 4 -2 44
v -4 -2 44
v -7 -2 47
v -9 2 47
v -9 2 44
v -16 14 44
v -32 6 36
v -40 10 16
v -40 2 12
v -16 -34 12
v -12 -36 36
v 13 -14 41
v 28 -12 32
v 8 -2 44
v 32 30 44
v 26 22 41
v 40 26 24
v 28 56 40
v 26 37 48
v 26 35 48
v 16 35 52
v 13 30 44
v 21 23 44
v 22 21 44
v 32 6 36
v 40 10 16
v 40 2 12
v 40 10 8
v 44 14 -8
v 44 18 8
v 40 18 8
v 40 22 -4
v 44 22 -4
v 40 14 -8
v 40 -2 4
v 32 -14 -16
v 16 -34 12
v 20 -19 -28
v 26 -51 -31
v 6 -50 -40
v -6 -50 -40
v -20 -19 -28
v -26 -51 -31
v -32 -14 -16
v -40 -2 4
v -40 14 -8
v -44 14 -8
v -44 22 -4
v -40 22 -4
v -44 18 8
v -40 18 8
v -40 10 8
v -40 26 24
v -27 22 41
v -32 30 44
v -28 56 40
v -26 37 48
v -16 38 52
v 0 52 48
v -5 41 52
v -4 38 52
v 0 34 48
v 4 38 52
v 5 41 52
v 16 38 52
v 7 35 52
v 7 24 44
v 14 26 46
v 15 19 46
v 16 14 44
v -22 21 44
v -21 23 44
v -13 30 44
v -16 35 52
v -26 35 48
v -7 35 52
v 8 -36 36
v -3 -54 14
v 3 -54 14
v 22 -54 -2
v -7 24 44
v -4 22 44
v 0 20 49
v 4 22 44
v 6 22 44
v -15 19 46
v -14 26 46
v -6 22 44
v -6 5 44
v -6 5 47
v 0 12 53
v 6 5 47
v 6 5 44
v -21 -54 -2
v -12 22 48
v 12 22 48
v 1 -2 49
v -1 -2 49
v 1 -2 52
v -1 -2 52
v 3 0 55
v -3 0 55
v -8 -2 50
v -9 2 50
v -1 5 55
v 8 -2 47
v 9 2 44
v 9 2 47
v 8 -2 50
v 9 2 50
v 1 5 55
v 12 23 46
v 12 21 46
v 13 20 46
v 15 20 46
v 16 21 46
v 16 23 46
v 15 24 46
v 13 24 46
v 1 -66 -72
v 25 -6 -92
v 56 -56 -52
v 48 -16 -16
v 56 -56 4
v 36 -36 62
v 41 -62 24
v 25 -34 62
v 48 -16 -11
v 56 -56 7
v -56 -60 -52
v -23 -6 -92
v -7 -78 -97
v 9 -78 -97
v 17 28 76
v 28 4 64
v 40 8 64
v 25 62 56
v -15 28 76
v -23 62 56
v 44 36 -4
v 44 36 -1
v -32 8 52
v -44 16 52
v -44 -44 62
v -24 -40 61
v -47 42 -4
v -48 -16 -16
v -48 -16 -11
v -47 42 -1
v 25 82 -4
v -23 82 -4
v -23 58 -44
v -56 -60 4
v -39 -62 24
v -56 -60 7
v 25 58 -44
v -13 24 46
v -15 24 46
v -16 23 46
v -16 21 46
v -15 20 46
v -13 20 46
v -12 21 46
v -12 23 46
v -13 25 46
v -15 25 46
v -17 23 46
v -17 21 46
v -13 19 46
v -11 21 46
v -11 23 46
v 11 23 46
v 11 21 46
v 13 19 46
v 17 21 46
v 17 23 46
v 15 25 46
v 13 25 46
v 25 78 -1
v -23 78 -1
vn -387 400 -1338
vn 0 0 -719
vn 0 108 -1478
vn -94 376 -1122
vn -130 32 -1529
vn -849 595 -1515
vn -1394 454 -1180
vn -159 -78 -640
vn -194 -354 -1139
vn 1 -230 -957
vn 197 -325 -1130
vn 0 0 -719
vn 387 400 -1338
vn 94 376 -866
vn 130 32 -1529
vn 0 512 -768
vn 0 768 -512
vn -438 730 0
vn -1400 -257 -103
vn -640 -320 -512
vn -178 293 -1940
vn -1079 311 -1230
vn -955 162 -266
vn -1397 337 -289
vn -1639 1013 -566
vn -372 850 -685
vn 159 -78 -640
vn 1378 494 -1202
vn 630 486 -1442
vn 910 491 -1392
vn 746 219 -875
vn 836 137 -435
vn 558 -303 -702
vn 519 -137 -858
vn 430 73 -930
vn 187 509 -1252
vn 45 502 -1313
vn 624 -218 -1577
vn 720 -24 -1615
vn 1092 283 -1226
vn 955 162 -266
vn 1397 337 -289
vn 728 78 -354
vn 979 159 318
vn 483 -377 -446
vn 0 -245 -337
vn 0 -607 72
vn 256 -479 387
vn 242 -31 738
vn 903 536 172
vn 592 404 119
vn 1615 1239 -827
vn 499 -65 727
vn 602 -130 150
vn 105 -133 468
vn -105 -225 706
vn -499 27 488
vn -604 -113 143
vn -592 404 119
vn -903 536 172
vn -242 -31 738
vn -979 159 318
vn -256 -479 387
vn 0 -607 72
vn -483 -377 -446
vn 0 -245 -337
vn -728 78 -354
vn -854 132 -429
vn -726 228 -918
vn -914 467 -1406
vn -558 -303 -702
vn -615 -137 -1098
vn -265 -297 -1687
vn 0 -500 -1752
vn 83 -133 -728
vn 396 69 -1142
vn 0 888 -2318
vn -396 69 -886
vn -83 -133 -1240
vn 362 -297 -1418
vn -139 551 -976
vn -347 -199 -1887
vn 113 -475 -1604
vn -44 154 -1720
vn 178 293 -1940
vn -592 24 -1401
vn -651 -220 -1859
vn -45 502 -1313
vn -284 509 -1239
vn -334 73 -690
vn 139 551 -976
vn 357 641 -725
vn -160 36 -690
vn 156 57 -441
vn 404 35 -224
vn 316 -226 -1636
vn -871 -109 -1490
vn 0 -192 -664
vn 871 -109 -1490
vn -277 7 -1206
vn -84 144 -1714
vn 49 -473 -1598
vn 372 -3 -1457
vn -448 -222 -512
vn -1220 -696 -380
vn 0 -475 -1150
vn 1182 -738 -357
vn 640 -414 -512
vn -410 56 -226
vn 51 -332 -871
vn -51 -332 -871
vn 0 768 0
vn 0 768 0
vn 36 1215 -274
vn -36 1178 -420
vn 354 649 -1065
vn -354 430 -1175
vn -681 699 -242
vn -666 -198 -389
vn -616 -610 -948
vn 768 704 0
vn 704 -64 -512
vn 1344 -384 0
vn 718 654 -315
vn 894 -353 -469
vn 486 -407 -1181
vn 0 0 -1536
vn 0 0 -256
vn 0 0 -512
vn 0 0 -512
vn 0 0 -512
vn 0 0 -512
vn 0 0 -512
vn 0 0 -256
vn 10 479 -127
vn 795 -385 653
vn 576 -39 266
vn 1702 -301 103
vn 684 -2 -165
vn 177 26 132
vn -210 223 103
vn 4 11 -256
vn -911 91 268
vn -153 108 173
vn -566 -32 278
vn -782 -250 721
vn -228 271 45
vn 228 254 300
vn 0 129 220
vn 2 -12 256
vn -1 13 -251
vn 4 129 -163
vn 0 -129 -220
vn -6 -99 128
vn 1195 -317 50
vn -725 192 97
vn -4 -36 -254
vn -11 52 254
vn -92 49 -372
vn -35 47 249
vn -1131 -383 82
vn -1698 -283 195
vn 920 48 194
vn 693 239 115
vn 464 -894 -4
vn -425 -934 214
vn -671 -732 807
vn -619 104 -116
vn 288 254 83
vn 160 99 172
vn 708 -775 679
vn 0 0 -1536
vn 0 0 -256
vn 0 0 -512
vn 0 0 -512
vn 0 0 -512
vn 0 0 -512
vn 0 0 -512
vn 0 0 -256
vn 0 0 -1536
vn 0 0 -256
vn 0 0 -512
vn 0 0 -512
vn 0 0 -512
vn 0 0 -512
vn 0 0 -256
vn 0 0 -1536
vn 0 0 -256
vn 0 0 -512
vn 0 0 -512
vn 0 0 -512
vn 0 0 -512
vn 0 0 -256
vn -231 350 98
vn 210 632 177
usemtl m0
f 1 2 3

usemtl m1
f 1 3 4

usemtl m2
f 1 4 5

usemtl m3
f 1 5 6

usemtl m4
f 1 6 7

usemtl m5
f 1 7 8

usemtl m6
f 1 8 2

usemtl m7
f 2 8 9

usemtl m8
f 2 9 3

usemtl m9
f 3 9 10

usemtl m10
f 3 10 11

usemtl m11
f 3 11 12

usemtl m12
f 3 12 13

usemtl m13
f 3 13 14

usemtl m14
f 3 14 4

usemtl m15
f 4 14 15

usemtl m16
f 4 15 5

usemtl m17
f 5 15 16

usemtl m18
f 5 16 17

usemtl m19
f 5 17 6

usemtl m20
f 6 17 18

usemtl m21
f 6 18 19

usemtl m22
f 6 19 20

usemtl m23
f 6 20 21

usemtl m24
f 6 21 22

usemtl m25
f 6 22 7

usemtl m26
f 7 22 23

usemtl m27
f 7 23 24

usemtl m28
f 7 24 25

usemtl m29
f 7 25 26

usemtl m30
f 7 26 9

usemtl m31
f 7 9 8

usemtl m32
f 27 13 12

usemtl m33
f 27 12 11

usemtl m34
f 27 11 28

usemtl m35
f 27 28 13

usemtl m36
f 13 28 29

usemtl m37
f 13 29 15

usemtl m38
f 13 15 14

usemtl m39
f 30 31 32

usemtl m40
f 30 32 33

usemtl m41
f 30 33 34

usemtl m42
f 30 34 35

usemtl m43
f 30 35 36

usemtl m44
f 30 36 37

usemtl m45
f 30 37 38

usemtl m46
f 30 38 31

usemtl m47
f 31 38 39

usemtl m48
f 31 39 40

usemtl m49
f 31 40 32

usemtl m50
f 32 40 41

usemtl m51
f 41 40 28

usemtl m52
f 41 28 42

usemtl m53
f 41 42 43

usemtl m54
f 43 42 44

usemtl m55
f 43 44 45

usemtl m56
f 43 45 46

usemtl m57
f 46 45 47

usemtl m58
f 47 45 48

usemtl m59
f 47 48 49

usemtl m60
f 49 48 44

usemtl m61
f 49 44 50

usemtl m62
f 49 50 51

usemtl m63
f 51 50 52

usemtl m64
f 51 52 53

usemtl m65
f 53 52 54

usemtl m66
f 53 54 55

usemtl m67
f 53 55 56

usemtl m68
f 53 56 57

usemtl m69
f 57 56 58

usemtl m70
f 57 58 25

usemtl m71
f 57 25 59

usemtl m72
f 59 25 60

usemtl m73
f 59 60 61

usemtl m74
f 61 60 62

usemtl m75
f 61 62 63

usemtl m76
f 61 63 64

usemtl m77
f 64 63 65

usemtl m78
f 64 65 66

usemtl m79
f 66 65 67

usemtl m80
f 67 65 62

usemtl m81
f 67 62 24

usemtl m82
f 67 24 23

usemtl m83
f 68 69 70

usemtl m84
f 68 70 71

usemtl m85
f 71 70 72

usemtl m86
f 71 72 73

usemtl m87
f 71 73 74

usemtl m88
f 74 73 75

usemtl m89
f 74 75 76

usemtl m90
f 74 76 77

usemtl m91
f 74 77 78

usemtl m92
f 74 78 79

usemtl m93
f 74 79 80

usemtl m94
f 74 80 33

usemtl m95
f 33 80 34

usemtl m96
f 34 80 35

usemtl m97
f 35 80 36

usemtl m98
f 36 80 79

usemtl m99
f 36 79 81

usemtl m100
f 36 81 37

usemtl m101
f 37 81 77

usemtl m102
f 37 77 82

usemtl m103
f 37 82 83

usemtl m104
f 37 83 38

usemtl m105
f 38 83 39

usemtl m106
f 39 83 84

usemtl m107
f 39 84 85

usemtl m108
f 39 85 40

usemtl m109
f 40 85 29

usemtl m110
f 40 29 28

usemtl m111
f 69 68 22

usemtl m112
f 69 22 86

usemtl m113
f 69 86 87

usemtl m114
f 69 87 70

usemtl m115
f 70 87 88

usemtl m116
f 70 88 89

usemtl m117
f 70 89 90

usemtl m118
f 70 90 72

usemtl m119
f 72 90 89

usemtl m120
f 72 89 73

usemtl m121
f 73 89 91

usemtl m122
f 73 91 76

usemtl m123
f 73 76 75

usemtl m124
f 23 22 68

usemtl m125
f 45 44 48

usemtl m126
f 42 50 44

usemtl m127
f 50 42 52

usemtl m128
f 52 42 28

usemtl m129
f 52 28 92

usemtl m130
f 52 92 26

usemtl m131
f 52 26 25

usemtl m132
f 52 25 93

usemtl m133
f 52 93 94

usemtl m134
f 52 94 95

usemtl m135
f 52 95 54

usemtl m136
f 63 62 65

usemtl m137
f 62 60 24

usemtl m138
f 24 60 25

usemtl m139
f 77 76 91

usemtl m140
f 77 91 88

usemtl m141
f 77 88 96

usemtl m142
f 77 96 97

usemtl m143
f 77 97 98

usemtl m144
f 77 98 99

usemtl m145
f 77 99 82

usemtl m146
f 82 99 100

usemtl m147
f 82 100 84

usemtl m148
f 82 84 83

usemtl m149
f 77 81 78

usemtl m150
f 78 81 79

usemtl m151
f 87 86 101

usemtl m152
f 87 101 102

usemtl m153
f 87 102 88

usemtl m154
f 88 102 96

usemtl m155
f 96 102 103

usemtl m156
f 96 103 97

usemtl m157
f 97 103 21

usemtl m158
f 97 21 104

usemtl m159
f 97 104 105

usemtl m160
f 97 105 106

usemtl m161
f 97 106 98

usemtl m162
f 98 106 99

usemtl m163
f 99 106 107

usemtl m164
f 99 107 108

usemtl m165
f 99 108 85

usemtl m166
f 99 85 100

usemtl m167
f 100 85 84

usemtl m168
f 102 101 103

usemtl m169
f 103 101 21

usemtl m170
f 21 101 86

usemtl m171
f 21 86 22

usemtl m172
f 25 58 109

usemtl m173
f 25 109 93

usemtl m174
f 102 87 110

usemtl m175
f 102 110 96

usemtl m176
f 96 110 103

usemtl m177
f 87 86 110

usemtl m178
f 111 38 83

usemtl m179
f 111 83 82

usemtl m180
f 111 82 100

usemtl m181
f 111 39 38

usemtl m182
f 17 16 112

usemtl m183
f 17 112 113

usemtl m184
f 113 112 114

usemtl m185
f 113 114 115

usemtl m186
f 115 114 116

usemtl m187
f 115 116 117

usemtl m188
f 115 117 118

usemtl m189
f 115 118 18

usemtl m190
f 18 118 19

usemtl m191
f 19 118 119

usemtl m192
f 19 119 120

usemtl m193
f 19 120 105

usemtl m194
f 19 105 20

usemtl m195
f 20 105 104

usemtl m196
f 20 104 21

usemtl m197
f 16 29 121

usemtl m198
f 121 29 122

usemtl m199
f 121 122 123

usemtl m200
f 121 123 124

usemtl m201
f 121 124 114

usemtl m202
f 114 124 116

usemtl m203
f 116 124 125

usemtl m204
f 116 125 126

usemtl m205
f 116 126 117

usemtl m206
f 117 126 120

usemtl m207
f 117 120 119

usemtl m208
f 117 119 118

usemtl m209
f 122 29 85

usemtl m210
f 122 85 108

usemtl m211
f 122 108 123

usemtl m212
f 123 108 107

usemtl m213
f 123 107 125

usemtl m214
f 123 125 124

usemtl m215
f 107 126 125

usemtl m216
f 126 107 106

usemtl m217
f 126 106 120

usemtl m218
f 120 106 105

usemtl m219
f 91 89 88

usemtl m220
f 29 16 15

usemtl m221
f 26 10 9

usemtl m222
f 10 26 92

usemtl m223
f 10 92 11

usemtl m224
f 11 92 28

usemtl m225
f 127 128 129

usemtl m226
f 127 129 130

usemtl m227
f 127 130 131

usemtl m228
f 127 131 132

usemtl m229
f 127 132 133

usemtl m230
f 127 133 134

usemtl m231
f 135 136 137

usemtl m232
f 137 136 138

usemtl m233
f 137 138 139

usemtl m234
f 139 138 140

usemtl m235
f 139 140 141

usemtl m236
f 141 140 142

usemtl m237
f 141 142 140

usemtl m238
f 141 140 143

usemtl m239
f 141 143 144

usemtl m240
f 145 146 135

usemtl m241
f 135 146 147

usemtl m242
f 135 147 148

usemtl m243
f 135 148 136

usemtl m244
f 135 136 146

usemtl m245
f 146 136 148

usemtl m246
f 146 148 147

usemtl m247
f 149 150 151

usemtl m248
f 149 151 152

usemtl m249
f 149 152 153

usemtl m250
f 149 153 154

usemtl m251
f 149 154 152

usemtl m252
f 149 152 151

usemtl m253
f 149 151 150

usemtl m254
f 150 151 140

usemtl m255
f 150 140 142

usemtl m256
f 150 142 151

usemtl m257
f 151 142 140

usemtl m258
f 151 140 138

usemtl m259
f 151 138 155

usemtl m260
f 151 155 152

usemtl m261
f 151 152 156

usemtl m262
f 151 156 143

usemtl m263
f 151 143 140

usemtl m264
f 157 158 159

usemtl m265
f 157 159 160

usemtl m266
f 157 160 158

usemtl m267
f 157 158 153

usemtl m268
f 157 153 158

usemtl m269
f 158 153 154

usemtl m270
f 158 154 161

usemtl m271
f 158 161 162

usemtl m272
f 158 162 159

usemtl m273
f 158 159 163

usemtl m274
f 158 163 164

usemtl m275
f 158 164 154

usemtl m276
f 158 154 153

usemtl m277
f 153 152 154

usemtl m278
f 154 152 165

usemtl m279
f 154 165 166

usemtl m280
f 154 166 161

usemtl m281
f 161 166 167

usemtl m282
f 161 167 162

usemtl m283
f 162 167 146

usemtl m284
f 162 146 145

usemtl m285
f 162 145 168

usemtl m286
f 162 168 159

usemtl m287
f 159 168 169

usemtl m288
f 159 169 160

usemtl m289
f 159 160 169

usemtl m290
f 159 169 163

usemtl m291
f 163 169 170

usemtl m292
f 152 155 165

usemtl m293
f 165 155 171

usemtl m294
f 165 171 166

usemtl m295
f 166 171 167

usemtl m296
f 167 171 136

usemtl m297
f 167 136 146

usemtl m298
f 138 171 155

usemtl m299
f 171 138 136

usemtl m300
f 172 173 174

usemtl m301
f 172 174 175

usemtl m302
f 172 175 176

usemtl m303
f 172 176 177

usemtl m304
f 172 177 178

usemtl m305
f 172 178 179

usemtl m306
f 180 181 182

usemtl m307
f 180 182 183

usemtl m308
f 180 183 101

usemtl m309
f 180 101 184

usemtl m310
f 180 184 185

usemtl m311
f 180 185 186

usemtl m312
f 187 188 189

usemtl m313
f 187 189 84

usemtl m314
f 187 84 190

usemtl m315
f 187 190 191

usemtl m316
f 187 191 192

usemtl m317
f 187 192 193

usemtl m318
f 194 156 152

usemtl m319
f 194 152 195

usemtl m320
f 195 152 154

usemtl m321
f 195 154 164

usemtl m322
f 160 159 158

