newmtl m0
Kd 0.48627450980392156 0.4196078431372549 0.15294117647058825
newmtl m1
Kd 0.48627450980392156 0.4196078431372549 0.15294117647058825
newmtl m2
Kd 0.48627450980392156 0.4196078431372549 0.15294117647058825
newmtl m3
Kd 0.48627450980392156 0.4196078431372549 0.15294117647058825
newmtl m4
Kd 0.48627450980392156 0.4196078431372549 0.15294117647058825
newmtl m5
Kd 0.48627450980392156 0.4196078431372549 0.15294117647058825
newmtl m6
Kd 0.48627450980392156 0.4196078431372549 0.15294117647058825
newmtl m7
Kd 0.48627450980392156 0.4196078431372549 0.15294117647058825
newmtl m8
Kd 0.48627450980392156 0.4196078431372549 0.15294117647058825
newmtl m9
Kd 0.48627450980392156 0.4196078431372549 0.15294117647058825
newmtl m10
Kd 0.48627450980392156 0.4196078431372549 0.15294117647058825
newmtl m11
Kd 0.48627450980392156 0.4196078431372549 0.15294117647058825
newmtl m12
Kd 0.48627450980392156 0.4196078431372549 0.15294117647058825
newmtl m13
Kd 0.48627450980392156 0.4196078431372549 0.15294117647058825
newmtl m14
Kd 0.48627450980392156 0.4196078431372549 0.15294117647058825
newmtl m15
Kd 0.48627450980392156 0.4196078431372549 0.15294117647058825
newmtl m16
Kd 0.48627450980392156 0.4196078431372549 0.15294117647058825
newmtl m17
Kd 0.48627450980392156 0.4196078431372549 0.15294117647058825
newmtl m18
Kd 0.48627450980392156 0.4196078431372549 0.15294117647058825
newmtl m19
Kd 0.48627450980392156 0.4196078431372549 0.15294117647058825
newmtl m20
Kd 0.48627450980392156 0.4196078431372549 0.15294117647058825
newmtl m21
Kd 0.48627450980392156 0.4196078431372549 0.15294117647058825
newmtl m22
Kd 0.48627450980392156 0.4196078431372549 0.15294117647058825
newmtl m23
Kd 0.48627450980392156 0.4196078431372549 0.15294117647058825
newmtl m24
Kd 0.48627450980392156 0.4196078431372549 0.15294117647058825
newmtl m25
Kd 0.48627450980392156 0.4196078431372549 0.15294117647058825
newmtl m26
Kd 0.48627450980392156 0.4196078431372549 0.15294117647058825
newmtl m27
Kd 0.48627450980392156 0.4196078431372549 0.15294117647058825
newmtl m28
Kd 0.48627450980392156 0.4196078431372549 0.15294117647058825
newmtl m29
Kd 0.48627450980392156 0.4196078431372549 0.15294117647058825
newmtl m30
Kd 0.48627450980392156 0.4196078431372549 0.15294117647058825
newmtl m31
Kd 0.48627450980392156 0.4196078431372549 0.15294117647058825
newmtl m32
Kd 0.48627450980392156 0.4196078431372549 0.15294117647058825
newmtl m33
Kd 0.48627450980392156 0.4196078431372549 0.15294117647058825
newmtl m34
Kd 0.48627450980392156 0.4196078431372549 0.15294117647058825
newmtl m35
Kd 0.48627450980392156 0.4196078431372549 0.15294117647058825
newmtl m36
Kd 0.48627450980392156 0.4196078431372549 0.15294117647058825
newmtl m37
Kd 0.48627450980392156 0.4196078431372549 0.15294117647058825
newmtl m38
Kd 0.48627450980392156 0.4196078431372549 0.15294117647058825
newmtl m39
Kd 0.48627450980392156 0.4196078431372549 0.15294117647058825
newmtl m40
Kd 0.48627450980392156 0.4196078431372549 0.15294117647058825
newmtl m41
Kd 0.48627450980392156 0.4196078431372549 0.15294117647058825
newmtl m42
Kd 0.48627450980392156 0.4196078431372549 0.15294117647058825
newmtl m43
Kd 0.48627450980392156 0.4196078431372549 0.15294117647058825
newmtl m44
Kd 0.48627450980392156 0.4196078431372549 0.15294117647058825
newmtl m45
Kd 0.48627450980392156 0.4196078431372549 0.15294117647058825
newmtl m46
Kd 0.48627450980392156 0.4196078431372549 0.15294117647058825
newmtl m47
Kd 0.48627450980392156 0.4196078431372549 0.15294117647058825
newmtl m48
Kd 0.48627450980392156 0.4196078431372549 0.15294117647058825
newmtl m49
Kd 0.48627450980392156 0.4196078431372549 0.15294117647058825
newmtl m50
Kd 0.48627450980392156 0.4196078431372549 0.15294117647058825
newmtl m51
Kd 0.48627450980392156 0.4196078431372549 0.15294117647058825
newmtl m52
Kd 0.48627450980392156 0.4196078431372549 0.15294117647058825
newmtl m53
Kd 0.48627450980392156 0.4196078431372549 0.15294117647058825
newmtl m54
Kd 0.48627450980392156 0.4196078431372549 0.15294117647058825
newmtl m55
Kd 0.48627450980392156 0.4196078431372549 0.15294117647058825
newmtl m56
Kd 0.48627450980392156 0.4196078431372549 0.15294117647058825
newmtl m57
Kd 0.48627450980392156 0.4196078431372549 0.15294117647058825
newmtl m58
Kd 0.48627450980392156 0.4196078431372549 0.15294117647058825
newmtl m59
Kd 0.48627450980392156 0.4196078431372549 0.15294117647058825
newmtl m60
Kd 0.48627450980392156 0.4196078431372549 0.15294117647058825
newmtl m61
Kd 0.48627450980392156 0.4196078431372549 0.15294117647058825
newmtl m62
Kd 0.48627450980392156 0.4196078431372549 0.15294117647058825
newmtl m63
Kd 0.48627450980392156 0.4196078431372549 0.15294117647058825
newmtl m64
Kd 0.48627450980392156 0.4196078431372549 0.15294117647058825
newmtl m65
Kd 0.48627450980392156 0.4196078431372549 0.15294117647058825
newmtl m66
Kd 0.48627450980392156 0.4196078431372549 0.15294117647058825
newmtl m67
Kd 0.48627450980392156 0.4196078431372549 0.15294117647058825
newmtl m68
Kd 0.48627450980392156 0.4196078431372549 0.15294117647058825
newmtl m69
Kd 0.48627450980392156 0.4196078431372549 0.15294117647058825
newmtl m70
Kd 0.48627450980392156 0.4196078431372549 0.15294117647058825
newmtl m71
Kd 0.48627450980392156 0.4196078431372549 0.15294117647058825
newmtl m72
Kd 0.48627450980392156 0.4196078431372549 0.15294117647058825
newmtl m73
Kd 0.4 0.07450980392156863 0.01568627450980392
newmtl m74
Kd 0.4 0.07450980392156863 0.01568627450980392
newmtl m75
Kd 0.7647058823529411 0.5529411764705883 0.3843137254901961
newmtl m76
Kd 0.7647058823529411 0.5529411764705883 0.3843137254901961
newmtl m77
Kd 0.7647058823529411 0.5529411764705883 0.3843137254901961
newmtl m78
Kd 0.7647058823529411 0.5529411764705883 0.3843137254901961
newmtl m79
Kd 0.4 0.07450980392156863 0.01568627450980392
newmtl m80
Kd 0.6745098039215687 0.4117647058823529 0.21176470588235294
newmtl m81
Kd 0.6745098039215687 0.4117647058823529 0.21176470588235294
newmtl m82
Kd 0.6745098039215687 0.4117647058823529 0.21176470588235294
newmtl m83
Kd 0.6745098039215687 0.4117647058823529 0.21176470588235294
newmtl m84
Kd 0.6745098039215687 0.4117647058823529 0.21176470588235294
newmtl m85
Kd 0.4 0.07450980392156863 0.01568627450980392
newmtl m86
Kd 0.4 0.07450980392156863 0.01568627450980392
newmtl m87
Kd 0.4 0.07450980392156863 0.01568627450980392
newmtl m88
Kd 0.7647058823529411 0.5529411764705883 0.3843137254901961
newmtl m89
Kd 0.7647058823529411 0.5529411764705883 0.3843137254901961
newmtl m90
Kd 0.7647058823529411 0.5529411764705883 0.3843137254901961
newmtl m91
Kd 0.7647058823529411 0.5529411764705883 0.3843137254901961
newmtl m92
Kd 0.7647058823529411 0.5529411764705883 0.3843137254901961
newmtl m93
Kd 0.7647058823529411 0.5529411764705883 0.3843137254901961
newmtl m94
Kd 0.7647058823529411 0.5529411764705883 0.3843137254901961
newmtl m95
Kd 0.7647058823529411 0.5529411764705883 0.3843137254901961
newmtl m96
Kd 0.7647058823529411 0.5529411764705883 0.3843137254901961
newmtl m97
Kd 0.7647058823529411 0.5529411764705883 0.3843137254901961
newmtl m98
Kd 0.7647058823529411 0.5529411764705883 0.3843137254901961
newmtl m99
Kd 0.7647058823529411 0.5529411764705883 0.3843137254901961
newmtl m100
Kd 0.7647058823529411 0.5529411764705883 0.3843137254901961
newmtl m101
Kd 0.7647058823529411 0.5529411764705883 0.3843137254901961
newmtl m102
Kd 0.7647058823529411 0.5529411764705883 0.3843137254901961
newmtl m103
Kd 0.7647058823529411 0.5529411764705883 0.3843137254901961
newmtl m104
Kd 0.7647058823529411 0.5529411764705883 0.3843137254901961
newmtl m105
Kd 0.4 0.07450980392156863 0.01568627450980392
newmtl m106
Kd 0.6745098039215687 0.4117647058823529 0.21176470588235294
newmtl m107
Kd 0.7647058823529411 0.5529411764705883 0.3843137254901961
newmtl m108
Kd 0.7647058823529411 0.5529411764705883 0.3843137254901961
newmtl m109
Kd 0.7647058823529411 0.5529411764705883 0.3843137254901961
newmtl m110
Kd 0.7647058823529411 0.5529411764705883 0.3843137254901961
newmtl m111
Kd 0.7647058823529411 0.5529411764705883 0.3843137254901961
newmtl m112
Kd 0.7647058823529411 0.5529411764705883 0.3843137254901961
newmtl m113
Kd 0.7647058823529411 0.5529411764705883 0.3843137254901961
newmtl m114
Kd 0.7647058823529411 0.5529411764705883 0.3843137254901961
newmtl m115
Kd 0.7647058823529411 0.5529411764705883 0.3843137254901961
newmtl m116
Kd 0.7647058823529411 0.5529411764705883 0.3843137254901961
newmtl m117
Kd 0.7647058823529411 0.5529411764705883 0.3843137254901961
newmtl m118
Kd 0.7647058823529411 0.5529411764705883 0.3843137254901961
newmtl m119
Kd 0.7647058823529411 0.5529411764705883 0.3843137254901961
newmtl m120
Kd 0.7647058823529411 0.5529411764705883 0.3843137254901961
newmtl m121
Kd 0.7647058823529411 0.5529411764705883 0.3843137254901961
newmtl m122
Kd 0.7647058823529411 0.5529411764705883 0.3843137254901961
newmtl m123
Kd 0.7647058823529411 0.5529411764705883 0.3843137254901961
newmtl m124
Kd 0.7647058823529411 0.5529411764705883 0.3843137254901961
newmtl m125
Kd 0.7647058823529411 0.5529411764705883 0.3843137254901961
newmtl m126
Kd 0.7647058823529411 0.5529411764705883 0.3843137254901961
newmtl m127
Kd 0.7647058823529411 0.5529411764705883 0.3843137254901961
newmtl m128
Kd 0.7647058823529411 0.5529411764705883 0.3843137254901961
newmtl m129
Kd 0.7647058823529411 0.5529411764705883 0.3843137254901961
newmtl m130
Kd 0.7647058823529411 0.5529411764705883 0.3843137254901961
newmtl m131
Kd 0.7647058823529411 0.5529411764705883 0.3843137254901961
newmtl m132
Kd 0.21568627450980393 0.15294117647058825 0.043137254901960784
newmtl m133
Kd 0.21568627450980393 0.15294117647058825 0.043137254901960784
newmtl m134
Kd 0.21568627450980393 0.15294117647058825 0.043137254901960784
newmtl m135
Kd 0.21568627450980393 0.15294117647058825 0.043137254901960784
newmtl m136
Kd 0.7647058823529411 0.5529411764705883 0.3843137254901961
newmtl m137
Kd 0.7647058823529411 0.5529411764705883 0.3843137254901961
newmtl m138
Kd 0.7647058823529411 0.5529411764705883 0.3843137254901961
newmtl m139
Kd 0.7647058823529411 0.5529411764705883 0.3843137254901961
newmtl m140
Kd 0.7647058823529411 0.5529411764705883 0.3843137254901961
newmtl m141
Kd 0.996078431372549 0.9921568627450981 0.9921568627450981
newmtl m142
Kd 0.996078431372549 0.9921568627450981 0.9921568627450981
newmtl m143
Kd 0.7647058823529411 0.5529411764705883 0.3843137254901961
newmtl m144
Kd 0.7647058823529411 0.5529411764705883 0.3843137254901961
newmtl m145
Kd 0.7647058823529411 0.5529411764705883 0.3843137254901961
newmtl m146
Kd 0.7647058823529411 0.5529411764705883 0.3843137254901961
newmtl m147
Kd 0.7647058823529411 0.5529411764705883 0.3843137254901961
newmtl m148
Kd 0.7647058823529411 0.5529411764705883 0.3843137254901961
newmtl m149
Kd 0.7647058823529411 0.5529411764705883 0.3843137254901961
newmtl m150
Kd 0.7647058823529411 0.5529411764705883 0.3843137254901961
newmtl m151
Kd 0.7647058823529411 0.5529411764705883 0.3843137254901961
newmtl m152
Kd 0.7647058823529411 0.5529411764705883 0.3843137254901961
newmtl m153
Kd 0.7647058823529411 0.5529411764705883 0.3843137254901961
newmtl m154
Kd 0.7647058823529411 0.5529411764705883 0.3843137254901961
newmtl m155
Kd 0.7647058823529411 0.5529411764705883 0.3843137254901961
newmtl m156
Kd 0.7647058823529411 0.5529411764705883 0.3843137254901961
newmtl m157
Kd 0.7647058823529411 0.5529411764705883 0.3843137254901961
newmtl m158
Kd 0.7647058823529411 0.5529411764705883 0.3843137254901961
newmtl m159
Kd 0.7647058823529411 0.5529411764705883 0.3843137254901961
newmtl m160
Kd 0.7647058823529411 0.5529411764705883 0.3843137254901961
newmtl m161
Kd 0.7647058823529411 0.5529411764705883 0.3843137254901961
newmtl m162
Kd 0.7647058823529411 0.5529411764705883 0.3843137254901961
newmtl m163
Kd 0.7647058823529411 0.5529411764705883 0.3843137254901961
newmtl m164
Kd 0.7647058823529411 0.5529411764705883 0.3843137254901961
newmtl m165
Kd 0.7647058823529411 0.5529411764705883 0.3843137254901961
newmtl m166
Kd 0.7647058823529411 0.5529411764705883 0.3843137254901961
newmtl m167
Kd 0.7647058823529411 0.5529411764705883 0.3843137254901961
newmtl m168
Kd 0.7647058823529411 0.5529411764705883 0.3843137254901961
newmtl m169
Kd 0.7647058823529411 0.5529411764705883 0.3843137254901961
newmtl m170
Kd 0.7647058823529411 0.5529411764705883 0.3843137254901961
newmtl m171
Kd 0.7647058823529411 0.5529411764705883 0.3843137254901961
newmtl m172
Kd 0.7647058823529411 0.5529411764705883 0.3843137254901961
newmtl m173
Kd 0.7647058823529411 0.5529411764705883 0.3843137254901961
newmtl m174
Kd 0.7647058823529411 0.5529411764705883 0.3843137254901961
newmtl m175
Kd 0.7647058823529411 0.5529411764705883 0.3843137254901961
newmtl m176
Kd 0.7647058823529411 0.5529411764705883 0.3843137254901961
newmtl m177
Kd 0.7647058823529411 0.5529411764705883 0.3843137254901961
newmtl m178
Kd 0.7647058823529411 0.5529411764705883 0.3843137254901961
newmtl m179
Kd 0.7647058823529411 0.5529411764705883 0.3843137254901961
newmtl m180
Kd 0.7647058823529411 0.5529411764705883 0.3843137254901961
newmtl m181
Kd 0.7647058823529411 0.5529411764705883 0.3843137254901961
newmtl m182
Kd 0.7647058823529411 0.5529411764705883 0.3843137254901961
newmtl m183
Kd 0.7647058823529411 0.5529411764705883 0.3843137254901961
newmtl m184
Kd 0.7647058823529411 0.5529411764705883 0.3843137254901961
newmtl m185
Kd 0.21568627450980393 0.15294117647058825 0.043137254901960784
newmtl m186
Kd 0.21568627450980393 0.15294117647058825 0.043137254901960784
newmtl m187
Kd 0.21568627450980393 0.15294117647058825 0.043137254901960784
newmtl m188
Kd 0.21568627450980393 0.15294117647058825 0.043137254901960784
newmtl m189
Kd 0.7647058823529411 0.5529411764705883 0.3843137254901961
newmtl m190
Kd 0.7647058823529411 0.5529411764705883 0.3843137254901961
newmtl m191
Kd 0.7647058823529411 0.5529411764705883 0.3843137254901961
newmtl m192
Kd 0.7647058823529411 0.5529411764705883 0.3843137254901961
newmtl m193
Kd 0.7647058823529411 0.5529411764705883 0.3843137254901961
newmtl m194
Kd 0.7647058823529411 0.5529411764705883 0.3843137254901961
newmtl m195
Kd 0.7647058823529411 0.5529411764705883 0.3843137254901961
newmtl m196
Kd 0.7647058823529411 0.5529411764705883 0.3843137254901961
newmtl m197
Kd 0.7647058823529411 0.5529411764705883 0.3843137254901961
newmtl m198
Kd 0.7647058823529411 0.5529411764705883 0.3843137254901961
newmtl m199
Kd 0.7647058823529411 0.5529411764705883 0.3843137254901961
newmtl m200
Kd 0.7647058823529411 0.5529411764705883 0.3843137254901961
newmtl m201
Kd 0.7647058823529411 0.5529411764705883 0.3843137254901961
newmtl m202
Kd 0.7647058823529411 0.5529411764705883 0.3843137254901961
newmtl m203
Kd 0.7647058823529411 0.5529411764705883 0.3843137254901961
newmtl m204
Kd 0.7647058823529411 0.5529411764705883 0.3843137254901961
newmtl m205
Kd 0.7647058823529411 0.5529411764705883 0.3843137254901961
newmtl m206
Kd 0.7647058823529411 0.5529411764705883 0.3843137254901961
newmtl m207
Kd 0.7647058823529411 0.5529411764705883 0.3843137254901961
newmtl m208
Kd 0.7647058823529411 0.5529411764705883 0.3843137254901961
newmtl m209
Kd 0.7647058823529411 0.5529411764705883 0.3843137254901961
newmtl m210
Kd 0.7647058823529411 0.5529411764705883 0.3843137254901961
newmtl m211
Kd 0.7647058823529411 0.5529411764705883 0.3843137254901961
newmtl m212
Kd 0.7647058823529411 0.5529411764705883 0.3843137254901961
newmtl m213
Kd 0.7647058823529411 0.5529411764705883 0.3843137254901961
newmtl m214
Kd 0.7647058823529411 0.5529411764705883 0.3843137254901961
newmtl m215
Kd 0.7647058823529411 0.5529411764705883 0.3843137254901961
newmtl m216
Kd 0.7647058823529411 0.5529411764705883 0.3843137254901961
newmtl m217
Kd 0.7647058823529411 0.5529411764705883 0.3843137254901961
newmtl m218
Kd 0.7647058823529411 0.5529411764705883 0.3843137254901961
newmtl m219
Kd 0.7647058823529411 0.5529411764705883 0.3843137254901961
newmtl m220
Kd 0.7647058823529411 0.5529411764705883 0.3843137254901961
newmtl m221
Kd 0.7647058823529411 0.5529411764705883 0.3843137254901961
newmtl m222
Kd 0.7647058823529411 0.5529411764705883 0.3843137254901961
newmtl m223
Kd 0.7647058823529411 0.5529411764705883 0.3843137254901961
newmtl m224
Kd 0.7647058823529411 0.5529411764705883 0.3843137254901961
newmtl m225
Kd 0.7647058823529411 0.5529411764705883 0.3843137254901961
newmtl m226
Kd 0.7647058823529411 0.5529411764705883 0.3843137254901961
newmtl m227
Kd 0.7647058823529411 0.5529411764705883 0.3843137254901961
newmtl m228
Kd 0.7647058823529411 0.5529411764705883 0.3843137254901961
newmtl m229
Kd 0.7647058823529411 0.5529411764705883 0.3843137254901961
newmtl m230
Kd 0.7647058823529411 0.5529411764705883 0.3843137254901961
newmtl m231
Kd 0.7647058823529411 0.5529411764705883 0.3843137254901961
newmtl m232
Kd 0.7647058823529411 0.5529411764705883 0.3843137254901961
newmtl m233
Kd 0.7647058823529411 0.5529411764705883 0.3843137254901961
newmtl m234
Kd 0.7647058823529411 0.5529411764705883 0.3843137254901961
newmtl m235
Kd 0.7647058823529411 0.5529411764705883 0.3843137254901961
newmtl m236
Kd 0.7647058823529411 0.5529411764705883 0.3843137254901961
newmtl m237
Kd 0.7647058823529411 0.5529411764705883 0.3843137254901961
newmtl m238
Kd 0.7647058823529411 0.5529411764705883 0.3843137254901961
newmtl m239
Kd 0.7647058823529411 0.5529411764705883 0.3843137254901961
newmtl m240
Kd 0.7647058823529411 0.5529411764705883 0.3843137254901961
newmtl m241
Kd 0.7647058823529411 0.5529411764705883 0.3843137254901961
newmtl m242
Kd 0.7647058823529411 0.5529411764705883 0.3843137254901961
newmtl m243
Kd 0.7647058823529411 0.5529411764705883 0.3843137254901961
newmtl m244
Kd 0.7647058823529411 0.5529411764705883 0.3843137254901961
newmtl m245
Kd 0.7647058823529411 0.5529411764705883 0.3843137254901961
newmtl m246
Kd 0.21568627450980393 0.15294117647058825 0.043137254901960784
newmtl m247
Kd 0.7647058823529411 0.5529411764705883 0.3843137254901961
newmtl m248
Kd 0.21568627450980393 0.15294117647058825 0.043137254901960784
newmtl m249
Kd 0.7647058823529411 0.5529411764705883 0.3843137254901961
newmtl m250
Kd 0.7647058823529411 0.5529411764705883 0.3843137254901961
newmtl m251
Kd 0.7647058823529411 0.5529411764705883 0.3843137254901961
newmtl m252
Kd 0.7647058823529411 0.5529411764705883 0.3843137254901961
newmtl m253
Kd 0.7647058823529411 0.5529411764705883 0.3843137254901961
newmtl m254
Kd 0.7647058823529411 0.5529411764705883 0.3843137254901961
newmtl m255
Kd 0.7647058823529411 0.5529411764705883 0.3843137254901961
newmtl m256
Kd 0.7647058823529411 0.5529411764705883 0.3843137254901961
newmtl m257
Kd 0.996078431372549 0.9921568627450981 0.9921568627450981
newmtl m258
Kd 0.996078431372549 0.9921568627450981 0.9921568627450981
newmtl m259
Kd 0.996078431372549 0.9921568627450981 0.9921568627450981
newmtl m260
Kd 0.996078431372549 0.9921568627450981 0.9921568627450981
newmtl m261
Kd 0.7647058823529411 0.5529411764705883 0.3843137254901961
newmtl m262
Kd 0.7647058823529411 0.5529411764705883 0.3843137254901961
newmtl m263
Kd 0.996078431372549 0.9921568627450981 0.9921568627450981
newmtl m264
Kd 0.7647058823529411 0.5529411764705883 0.3843137254901961
newmtl m265
Kd 0.7647058823529411 0.5529411764705883 0.3843137254901961
newmtl m266
Kd 0.7647058823529411 0.5529411764705883 0.3843137254901961
newmtl m267
Kd 0.7647058823529411 0.5529411764705883 0.3843137254901961
newmtl m268
Kd 0.7647058823529411 0.5529411764705883 0.3843137254901961
newmtl m269
Kd 0.7647058823529411 0.5529411764705883 0.3843137254901961
newmtl m270
Kd 0.7647058823529411 0.5529411764705883 0.3843137254901961
newmtl m271
Kd 0.7647058823529411 0.5529411764705883 0.3843137254901961
newmtl m272
Kd 0.7647058823529411 0.5529411764705883 0.3843137254901961
newmtl m273
Kd 0.7647058823529411 0.5529411764705883 0.3843137254901961
newmtl m274
Kd 0.7647058823529411 0.5529411764705883 0.3843137254901961
newmtl m275
Kd 0.7647058823529411 0.5529411764705883 0.3843137254901961
newmtl m276
Kd 0.996078431372549 0.9921568627450981 0.9921568627450981
newmtl m277
Kd 0.7647058823529411 0.5529411764705883 0.3843137254901961
newmtl m278
Kd 0.7647058823529411 0.5529411764705883 0.3843137254901961
newmtl m279
Kd 0.7647058823529411 0.5529411764705883 0.3843137254901961
newmtl m280
Kd 0.7647058823529411 0.5529411764705883 0.3843137254901961
newmtl m281
Kd 0.7647058823529411 0.5529411764705883 0.3843137254901961
newmtl m282
Kd 0.7647058823529411 0.5529411764705883 0.3843137254901961
newmtl m283
Kd 0.7647058823529411 0.5529411764705883 0.3843137254901961
newmtl m284
Kd 0.7647058823529411 0.5529411764705883 0.3843137254901961
newmtl m285
Kd 0.7647058823529411 0.5529411764705883 0.3843137254901961
newmtl m286
Kd 0.7647058823529411 0.5529411764705883 0.3843137254901961
newmtl m287
Kd 0.7647058823529411 0.5529411764705883 0.3843137254901961
newmtl m288
Kd 0.7647058823529411 0.5529411764705883 0.3843137254901961
newmtl m289
Kd 0.7647058823529411 0.5529411764705883 0.3843137254901961
newmtl m290
Kd 0.7647058823529411 0.5529411764705883 0.3843137254901961
newmtl m291
Kd 0.7647058823529411 0.5529411764705883 0.3843137254901961
newmtl m292
Kd 0.7647058823529411 0.5529411764705883 0.3843137254901961
newmtl m293
Kd 0.7647058823529411 0.5529411764705883 0.3843137254901961
newmtl m294
Kd 0.7647058823529411 0.5529411764705883 0.3843137254901961
newmtl m295
Kd 0.7647058823529411 0.5529411764705883 0.3843137254901961
newmtl m296
Kd 0.7647058823529411 0.5529411764705883 0.3843137254901961
newmtl m297
Kd 0.7647058823529411 0.5529411764705883 0.3843137254901961
newmtl m298
Kd 0.7647058823529411 0.5529411764705883 0.3843137254901961
newmtl m299
Kd 0.7647058823529411 0.5529411764705883 0.3843137254901961
newmtl m300
Kd 0.7647058823529411 0.5529411764705883 0.3843137254901961
newmtl m301
Kd 0.7647058823529411 0.5529411764705883 0.3843137254901961
newmtl m302
Kd 0.7647058823529411 0.5529411764705883 0.3843137254901961
newmtl m303
Kd 0.7647058823529411 0.5529411764705883 0.3843137254901961
newmtl m304
Kd 0.7647058823529411 0.5529411764705883 0.3843137254901961
newmtl m305
Kd 0.7647058823529411 0.5529411764705883 0.3843137254901961
newmtl m306
Kd 0.7647058823529411 0.5529411764705883 0.3843137254901961
newmtl m307
Kd 0.7647058823529411 0.5529411764705883 0.3843137254901961
newmtl m308
Kd 0.7647058823529411 0.5529411764705883 0.3843137254901961
newmtl m309
Kd 0.7647058823529411 0.5529411764705883 0.3843137254901961
newmtl m310
Kd 0.7647058823529411 0.5529411764705883 0.3843137254901961
newmtl m311
Kd 0.7647058823529411 0.5529411764705883 0.3843137254901961
newmtl m312
Kd 0.7647058823529411 0.5529411764705883 0.3843137254901961
newmtl m313
Kd 0.7647058823529411 0.5529411764705883 0.3843137254901961
newmtl m314
Kd 0.7647058823529411 0.5529411764705883 0.3843137254901961
newmtl m315
Kd 0.7647058823529411 0.5529411764705883 0.3843137254901961
newmtl m316
Kd 0.7647058823529411 0.5529411764705883 0.3843137254901961
newmtl m317
Kd 0.7647058823529411 0.5529411764705883 0.3843137254901961
newmtl m318
Kd 0.7647058823529411 0.5529411764705883 0.3843137254901961
newmtl m319
Kd 0.7647058823529411 0.5529411764705883 0.3843137254901961
newmtl m320
Kd 0.7647058823529411 0.5529411764705883 0.3843137254901961
newmtl m321
Kd 0.7647058823529411 0.5529411764705883 0.3843137254901961
newmtl m322
Kd 0.7647058823529411 0.5529411764705883 0.3843137254901961
newmtl m323
Kd 0.7647058823529411 0.5529411764705883 0.3843137254901961
newmtl m324
Kd 0.7647058823529411 0.5529411764705883 0.3843137254901961
newmtl m325
Kd 0.7647058823529411 0.5529411764705883 0.3843137254901961
newmtl m326
Kd 0.7647058823529411 0.5529411764705883 0.3843137254901961
newmtl m327
Kd 0.7647058823529411 0.5529411764705883 0.3843137254901961
newmtl m328
Kd 0.7647058823529411 0.5529411764705883 0.3843137254901961
newmtl m329
Kd 0.7647058823529411 0.5529411764705883 0.3843137254901961
newmtl m330
Kd 0.7647058823529411 0.5529411764705883 0.3843137254901961
newmtl m331
Kd 0.7647058823529411 0.5529411764705883 0.3843137254901961
newmtl m332
Kd 0.7647058823529411 0.5529411764705883 0.3843137254901961
newmtl m333
Kd 0.7647058823529411 0.5529411764705883 0.3843137254901961
newmtl m334
Kd 0.7647058823529411 0.5529411764705883 0.3843137254901961
newmtl m335
Kd 0.0 0.0 0.00392156862745098
newmtl m336
Kd 0.0 0.0 0.00392156862745098
newmtl m337
Kd 0.0 0.0 0.00392156862745098
newmtl m338
Kd 0.0 0.0 0.00392156862745098
newmtl m339
Kd 0.0 0.0 0.00392156862745098
newmtl m340
Kd 0.0 0.0 0.00392156862745098
newmtl m341
Kd 0.24313725490196078 0.24705882352941178 0.43529411764705883
newmtl m342
Kd 0.24313725490196078 0.24705882352941178 0.43529411764705883
newmtl m343
Kd 0.24313725490196078 0.24705882352941178 0.43529411764705883
newmtl m344
Kd 0.24313725490196078 0.24705882352941178 0.43529411764705883
newmtl m345
Kd 0.24313725490196078 0.24705882352941178 0.43529411764705883
newmtl m346
Kd 0.24313725490196078 0.24705882352941178 0.43529411764705883
newmtl m347
Kd 0.24313725490196078 0.24705882352941178 0.43529411764705883
newmtl m348
Kd 0.24313725490196078 0.24705882352941178 0.43529411764705883
newmtl m349
Kd 0.24313725490196078 0.24705882352941178 0.43529411764705883
newmtl m350
Kd 0.24313725490196078 0.24705882352941178 0.43529411764705883
newmtl m351
Kd 0.24313725490196078 0.24705882352941178 0.43529411764705883
newmtl m352
Kd 0.24313725490196078 0.24705882352941178 0.43529411764705883
newmtl m353
Kd 0.0 0.0 0.00392156862745098
newmtl m354
Kd 0.0 0.0 0.00392156862745098
newmtl m355
Kd 0.0 0.0 0.00392156862745098
newmtl m356
Kd 0.0 0.0 0.00392156862745098
newmtl m357
Kd 0.0 0.0 0.00392156862745098
newmtl m358
Kd 0.0 0.0 0.00392156862745098
