mtllib 5504.mtl
o runescapemodel
v -33 -8 24
v -37 -8 8
v -46 -8 6
v -70 0 24
v -59 0 39
v -45 0 53
v -28 -8 36
v -20 -12 28
v -24 -8 15
v -26 -8 -1
v -39 -12 -5
v -51 -8 -10
v -73 0 1
v -82 12 10
v -78 7 16
v -86 0 24
v -82 13 30
v -73 15 30
v -68 15 39
v -75 0 58
v -66 12 57
v -60 14 50
v -51 13 55
v -56 0 65
v -56 14 60
v -17 -8 0
v -31 -8 -15
v -41 -8 -19
v -60 0 -39
v -69 0 -22
v -68 6 -15
v -76 8 -2
v -96 0 2
v -93 6 -2
v -104 0 -13
v -93 8 -13
v -88 0 -29
v -87 6 -20
v -73 14 -31
v -81 12 -33
v -73 0 -49
v -74 14 -42
v -56 21 -46
v -68 19 -51
v -73 0 -64
v -68 16 -63
v -56 0 -67
v -58 16 -66
v -46 0 -53
v -38 13 -53
v -50 12 -68
v -45 0 -87
v -43 10 -81
v -27 0 -83
v -29 10 -77
v -26 0 -61
v -20 13 -79
v -10 16 -91
v -15 0 -96
v 1 16 -87
v 7 0 -86
v -1 13 -67
v 5 0 -65
v 12 10 -74
v 13 12 -82
v 23 0 -79
v 21 14 -78
v 23 0 -61
v 20 11 -72
v -1 -8 -51
v 27 -8 -39
v 43 0 -48
v 42 10 -60
v 29 10 -67
v 31 0 -84
v 36 9 -83
v 53 0 -86
v 45 8 -79
v 58 0 -65
v 50 12 -72
v 53 16 -49
v 61 13 -60
v 76 0 -63
v 77 15 -57
v 78 0 -38
v 78 15 -43
v 63 0 -30
v 62 13 -36
v 34 -8 -30
v 48 -8 -13
v 51 -8 -4
v 69 0 4
v 71 10 -10
v 69 9 -20
v 78 0 -28
v 76 9 -22
v 86 0 -9
v 79 11 -12
v -12 -8 19
v -10 -8 1
v -11 -12 -8
v -21 -8 -11
v -12 -8 -18
v -10 -8 -26
v -23 -8 -35
v 4 -8 9
v 3 -8 0
v 16 -8 -10
v 0 -8 -6
v -5 -8 -15
v 4 -8 -31
v -6 -12 -39
v -16 -8 -47
v -52 21 -50
v 1 -8 30
v 10 -8 23
v 16 -8 16
v 16 -12 2
v 28 -8 -4
v 22 -8 -18
v 15 -8 -28
v -9 -8 31
v -17 -8 39
v 5 -8 41
v -18 0 64
v 12 0 64
v 12 -8 42
v 11 -12 33
v 17 -8 26
v 22 -8 35
v 28 -8 7
v 37 -8 -3
v 38 -8 -10
v 31 -8 -23
v 24 -12 -29
v 16 -8 -35
v 8 -8 -41
v 41 -8 7
v 44 -12 -4
v -17 16 -67
v 43 0 55
v 59 0 36
v 51 -8 4
v -65 0 -75
v -54 0 -87
v -60 13 -85
v -65 14 -80
v -82 0 -81
v -75 12 -83
v -70 0 -98
v -69 14 -90
v 51 0 70
v 59 13 62
v 52 16 54
v 60 13 43
v 79 0 44
v 85 25 35
v 72 25 31
v 76 26 12
v 98 0 7
v 90 25 13
v 102 0 39
v 94 25 30
v 76 0 61
v 70 15 57
v 69 15 47
v -12 0 81
v 6 0 79
v 5 13 85
v -7 14 84
v -11 12 67
v 11 0 64
v 4 14 68
v -4 0 97
v -13 0 91
v -14 13 97
v -9 16 100
v -8 0 110
v -10 13 107
v -19 0 111
v -15 15 107
v -22 0 102
v -18 15 102
v -90 0 7
v -92 14 11
v -92 12 19
v -40 16 61
v -40 9 83
v -26 9 83
v -24 13 68
v -45 13 73
v -53 0 71
v -44 0 90
v -23 0 89
v 42 0 88
v 42 18 71
v 38 15 81
v 20 0 86
v 26 13 80
v 25 22 69
v 37 16 64
v -30 15 -57
v 0 144 -64
v 64 144 -16
v 64 72 -16
v 0 72 -64
v -64 144 -16
v 64 144 32
v 64 72 32
v 64 0 32
v 64 0 -16
v 0 0 -64
v -64 72 -16
v -64 144 32
v 0 144 64
v 0 72 64
v 0 0 64
v -64 72 32
v -64 0 32
v -64 0 -16
v 84 0 -78
v 80 13 -87
v 80 15 -82
v 75 0 -75
v 75 15 -79
v 64 0 -84
v 70 13 -83
v 70 0 -93
v 73 16 -88
v 83 0 -89
v -86 16 43
v -91 0 47
v -76 13 48
v -68 16 -39
vn 516 -2458 114
vn -74 -1742 288
vn 419 -1957 282
vn 571 -1592 401
vn 455 -1158 626
vn 313 -1569 815
vn 322 -1435 377
vn -44 -2878 66
vn 60 -1994 -280
vn -274 -1734 74
vn -6 -2906 16
vn 587 -1928 -153
vn 815 -1226 91
vn 285 -738 -65
vn 263 -966 -718
vn -599 -505 -50
vn -287 -547 634
vn 329 -801 568
vn 565 -857 -274
vn -143 -653 -802
vn -509 -546 34
vn 64 -822 490
vn 526 -463 -119
vn 282 -199 -566
vn -7 -730 -635
vn 238 -2210 284
vn -224 -2506 -206
vn 194 -1968 -424
vn 838 -1128 -385
vn 800 -1137 -249
vn 491 -471 53
vn 203 -1111 -521
vn -188 -396 -545
vn -376 -758 -388
vn -460 -538 -3
vn -360 -1091 223
vn -518 -890 124
vn 52 -1105 518
vn -143 -863 -576
vn -547 -492 76
vn -755 -434 62
vn -110 -704 550
vn -99 -423 -567
vn -669 -942 -52
vn -536 -171 269
vn -379 -359 575
vn -490 -382 482
vn 309 -612 625
vn 761 -875 -677
vn -298 -392 -507
vn -634 -1062 168
vn -356 -329 457
vn -80 -624 584
vn -224 -670 706
vn 562 -760 318
vn 320 -1106 -741
vn -734 -614 118
vn -375 -771 545
vn 19 -175 628
vn 473 -667 391
vn 227 -498 428
vn 520 -490 -352
vn -27 -1384 -1215
vn -648 -902 -295
vn -103 -410 417
vn 463 -94 466
vn 399 -688 -28
vn -159 -1478 -845
vn 18 -744 -556
vn -105 -1894 -635
vn -335 -2378 -656
vn -455 -1260 -754
vn -63 -756 -487
vn -571 -877 -2
vn -452 -251 427
vn -81 -789 678
vn 221 -435 425
vn 532 -605 500
vn 173 -687 624
vn 533 -1050 73
vn -535 -1066 182
vn -134 -522 711
vn 313 -170 497
vn 538 -577 353
vn 626 -58 -179
vn 459 -678 -477
vn -806 -1831 -745
vn -259 -544 -607
vn -500 -1671 -153
vn -342 -1883 -400
vn -918 -1823 -133
vn -945 -1619 10
vn -492 -929 -163
vn -271 -681 384
vn 176 -419 484
vn 320 -854 452
vn 560 -351 2
vn 317 -701 -201
vn -240 -2496 -212
vn -102 -2204 398
vn -34 -2784 0
vn 340 -1440 -98
vn 48 -1700 -368
vn 28 -1996 290
vn 391 -2208 -132
vn 232 -2002 154
vn 272 -1474 -140
vn 40 -1976 -316
vn -320 -1946 84
vn -272 -1956 -300
vn -206 -1738 224
vn -64 -2912 -16
vn 329 -1633 -567
vn 523 -630 -158
vn 340 -1696 -98
vn 48 -1956 -368
vn -22 -1994 276
vn 8 -2898 -24
vn -242 -1990 -160
vn 84 -2202 320
vn 398 -2204 102
vn -322 -1720 90
vn -24 -1933 563
vn 257 -2167 532
vn 15 -1263 745
vn -497 -1042 310
vn -154 -1649 628
vn -34 -2784 0
vn -272 -1444 -300
vn -416 -2438 178
vn -264 -1736 138
vn 500 -1914 60
vn 328 -1922 -268
vn -300 -1700 272
vn 0 -2784 34
vn 284 -1442 -238
vn -270 -1998 -52
vn 64 -1917 417
vn 4 -2704 -70
vn -240 -980 -527
vn -589 -1671 663
vn -822 -1313 273
vn -640 -1871 276
vn 286 -199 -567
vn 441 -248 231
vn 526 -463 -119
vn -3 -734 -633
vn -360 -259 -317
vn -530 -521 29
vn -256 -285 471
vn 43 -789 530
vn 578 -669 -387
vn -245 -589 -584
vn -523 -1030 122
vn -32 -546 674
vn 463 -587 -266
vn -34 -743 -690
vn -537 -519 -127
vn -172 -980 520
vn 287 -218 521
vn 523 -463 337
vn 533 -240 -143
vn 438 -717 -397
vn 534 -316 -237
vn 420 -762 -515
vn 528 -819 291
vn -232 85 -565
vn 505 -11 -294
vn 275 -131 -483
vn -492 -649 -362
vn -249 -508 478
vn 232 -226 419
vn 474 -698 193
vn 463 -233 353
vn -243 -216 526
vn -8 -457 726
vn 587 -877 108
vn 506 -171 -379
vn 379 -389 -661
vn -184 -201 -574
vn -359 -672 -575
vn -639 -189 -46
vn -667 -648 315
vn -568 71 190
vn -176 -622 250
vn -302 -234 -306
vn 31 -1032 272
vn -342 -893 -580
vn 248 -905 -617
vn 580 -566 29
vn -578 -580 -58
vn -580 -386 -136
vn -177 -453 -501
vn 465 -351 -317
vn 393 -309 -451
vn 703 -763 -40
vn 144 -760 -819
vn -266 -354 -531
vn -501 -545 -562
vn -249 -957 213
vn 401 -565 595
vn 412 -452 -402
vn 153 -512 612
vn 665 -256 204
vn 1227 0 612
vn 0 0 1224
vn -562 -512 408
vn 484 -1024 -458
vn 1110 0 -687
vn 626 0 -229
vn 562 0 408
vn -153 0 612
vn -1227 0 612
vn -626 -512 -229
vn -114 -256 -687
vn 0 0 -1374
vn 114 0 -687
vn -1110 0 -687
vn -484 0 -458
vn -665 0 204
vn 574 -201 -184
vn 661 -389 379
vn 575 -672 -359
vn 46 -189 -639
vn -315 -648 -667
vn -526 -216 -243
vn -726 -457 -8
vn -353 -233 463
vn -108 -877 587
vn 379 -171 506
vn -553 -992 -85
vn -453 -276 -355
vn -34 -589 -648
vn 388 -532 -23
usemtl m0
f 1 2 3

usemtl m1
f 1 3 4

usemtl m2
f 1 4 5

usemtl m3
f 1 5 6

usemtl m4
f 1 6 7

usemtl m5
f 1 7 8

usemtl m6
f 1 8 9

usemtl m7
f 1 9 2

usemtl m8
f 2 9 10

usemtl m9
f 2 10 11

usemtl m10
f 2 11 3

usemtl m11
f 3 11 12

usemtl m12
f 3 12 13

usemtl m13
f 3 13 4

usemtl m14
f 4 13 14

usemtl m15
f 4 14 15

usemtl m16
f 4 15 16

usemtl m17
f 4 16 17

usemtl m18
f 4 17 18

usemtl m19
f 4 18 5

usemtl m20
f 5 18 19

usemtl m21
f 5 19 20

usemtl m22
f 5 20 21

usemtl m23
f 5 21 22

usemtl m24
f 5 22 6

usemtl m25
f 6 22 23

usemtl m26
f 6 23 24

usemtl m27
f 24 23 25

usemtl m28
f 24 25 20

usemtl m29
f 20 25 21

usemtl m30
f 21 25 22

usemtl m31
f 22 25 23

usemtl m32
f 10 9 26

usemtl m33
f 10 26 27

usemtl m34
f 10 27 11

usemtl m35
f 10 11 2

usemtl m36
f 2 11 3

usemtl m37
f 3 11 12

usemtl m38
f 12 11 28

usemtl m39
f 12 28 29

usemtl m40
f 12 29 30

usemtl m41
f 12 30 13

usemtl m42
f 13 30 31

usemtl m43
f 13 31 32

usemtl m44
f 13 32 33

usemtl m45
f 33 32 34

usemtl m46
f 33 34 35

usemtl m47
f 35 34 36

usemtl m48
f 35 36 37

usemtl m49
f 37 36 38

usemtl m50
f 37 38 30

usemtl m51
f 37 30 39

usemtl m52
f 37 39 40

usemtl m53
f 37 40 41

usemtl m54
f 41 40 42

usemtl m55
f 41 42 29

usemtl m56
f 41 29 43

usemtl m57
f 41 43 44

usemtl m58
f 41 44 45

usemtl m59
f 45 44 46

usemtl m60
f 45 46 47

usemtl m61
f 47 46 48

usemtl m62
f 47 48 49

usemtl m63
f 47 49 50

usemtl m64
f 47 50 51

usemtl m65
f 47 51 52

usemtl m66
f 52 51 53

usemtl m67
f 52 53 54

usemtl m68
f 54 53 55

usemtl m69
f 54 55 56

usemtl m70
f 54 56 57

usemtl m71
f 54 57 58

usemtl m72
f 54 58 59

usemtl m73
f 59 58 60

usemtl m74
f 59 60 61

usemtl m75
f 61 60 62

usemtl m76
f 61 62 63

usemtl m77
f 61 63 64

usemtl m78
f 61 64 65

usemtl m79
f 61 65 66

usemtl m80
f 66 65 67

usemtl m81
f 66 67 68

usemtl m82
f 68 67 69

usemtl m83
f 68 69 63

usemtl m84
f 68 63 70

usemtl m85
f 68 70 71

usemtl m86
f 68 71 72

usemtl m87
f 68 72 73

usemtl m88
f 68 73 74

usemtl m89
f 68 74 75

usemtl m90
f 75 74 76

usemtl m91
f 75 76 77

usemtl m92
f 77 76 78

usemtl m93
f 77 78 79

usemtl m94
f 79 78 80

usemtl m95
f 79 80 72

usemtl m96
f 79 72 81

usemtl m97
f 79 81 82

usemtl m98
f 79 82 83

usemtl m99
f 83 82 84

usemtl m100
f 83 84 85

usemtl m101
f 85 84 86

usemtl m102
f 85 86 87

usemtl m103
f 87 86 88

usemtl m104
f 87 88 72

usemtl m105
f 87 72 71

usemtl m106
f 87 71 89

usemtl m107
f 87 89 90

usemtl m108
f 87 90 91

usemtl m109
f 87 91 92

usemtl m110
f 87 92 93

usemtl m111
f 87 93 94

usemtl m112
f 87 94 95

usemtl m113
f 95 94 96

usemtl m114
f 95 96 97

usemtl m115
f 97 96 98

usemtl m116
f 97 98 92

usemtl m117
f 92 98 93

usemtl m118
f 93 98 96

usemtl m119
f 93 96 94

usemtl m120
f 26 9 99

usemtl m121
f 26 99 100

usemtl m122
f 26 100 101

usemtl m123
f 26 101 102

usemtl m124
f 26 102 27

usemtl m125
f 27 102 103

usemtl m126
f 27 103 104

usemtl m127
f 27 104 105

usemtl m128
f 27 105 28

usemtl m129
f 27 28 11

usemtl m130
f 27 11 10

usemtl m131
f 11 27 28

usemtl m132
f 11 28 12

usemtl m133
f 100 99 106

usemtl m134
f 100 106 107

usemtl m135
f 100 107 108

usemtl m136
f 100 108 109

usemtl m137
f 100 109 101

usemtl m138
f 100 101 26

usemtl m139
f 26 101 102

usemtl m140
f 102 101 103

usemtl m141
f 103 101 110

usemtl m142
f 103 110 104

usemtl m143
f 104 110 111

usemtl m144
f 104 111 112

usemtl m145
f 104 112 105

usemtl m146
f 105 112 113

usemtl m147
f 105 113 56

usemtl m148
f 105 56 49

usemtl m149
f 105 49 28

usemtl m150
f 28 49 29

usemtl m151
f 29 49 114

usemtl m152
f 29 114 43

usemtl m153
f 43 114 44

usemtl m154
f 44 114 48

usemtl m155
f 44 48 46

usemtl m156
f 99 115 116

usemtl m157
f 99 116 106

usemtl m158
f 106 116 117

usemtl m159
f 106 117 118

usemtl m160
f 106 118 107

usemtl m161
f 107 118 108

usemtl m162
f 108 118 119

usemtl m163
f 108 119 120

usemtl m164
f 108 120 109

usemtl m165
f 109 120 121

usemtl m166
f 109 121 110

usemtl m167
f 109 110 101

usemtl m168
f 109 101 100

usemtl m169
f 101 109 110

usemtl m170
f 101 110 103

usemtl m171
f 101 103 102

usemtl m172
f 122 123 124

usemtl m173
f 122 124 115

usemtl m174
f 122 115 99

usemtl m175
f 122 99 8

usemtl m176
f 122 8 123

usemtl m177
f 123 8 7

usemtl m178
f 123 7 6

usemtl m179
f 123 6 125

usemtl m180
f 123 125 124

usemtl m181
f 124 125 126

usemtl m182
f 124 126 127

usemtl m183
f 124 127 128

usemtl m184
f 124 128 115

usemtl m185
f 115 128 116

usemtl m186
f 116 128 129

usemtl m187
f 116 129 117

usemtl m188
f 117 129 130

usemtl m189
f 117 130 131

usemtl m190
f 117 131 118

usemtl m191
f 117 118 106

usemtl m192
f 106 118 107

usemtl m193
f 107 118 108

usemtl m194
f 108 118 119

usemtl m195
f 119 118 131

usemtl m196
f 119 131 132

usemtl m197
f 119 132 133

usemtl m198
f 119 133 120

usemtl m199
f 120 133 134

usemtl m200
f 120 134 135

usemtl m201
f 120 135 121

usemtl m202
f 121 135 136

usemtl m203
f 121 136 137

usemtl m204
f 121 137 111

usemtl m205
f 121 111 110

usemtl m206
f 132 131 130

usemtl m207
f 132 130 138

usemtl m208
f 132 138 139

usemtl m209
f 132 139 133

usemtl m210
f 133 139 90

usemtl m211
f 133 90 134

usemtl m212
f 134 90 89

usemtl m213
f 134 89 135

usemtl m214
f 134 135 120

usemtl m215
f 120 135 121

usemtl m216
f 121 135 136

usemtl m217
f 136 135 71

usemtl m218
f 136 71 137

usemtl m219
f 137 71 70

usemtl m220
f 137 70 112

usemtl m221
f 137 112 111

usemtl m222
f 111 112 104

usemtl m223
f 104 112 105

usemtl m224
f 105 112 113

usemtl m225
f 113 112 70

usemtl m226
f 113 70 63

usemtl m227
f 113 63 56

usemtl m228
f 56 63 140

usemtl m229
f 56 140 57

usemtl m230
f 57 140 58

usemtl m231
f 58 140 60

usemtl m232
f 60 140 62

usemtl m233
f 62 140 63

usemtl m234
f 127 126 141

usemtl m235
f 127 141 130

usemtl m236
f 127 130 128

usemtl m237
f 127 128 124

usemtl m238
f 124 128 115

usemtl m239
f 115 128 116

usemtl m240
f 116 128 129

usemtl m241
f 129 128 130

usemtl m242
f 130 128 127

usemtl m243
f 128 130 129

usemtl m244
f 141 142 138

usemtl m245
f 141 138 130

usemtl m246
f 142 92 143

usemtl m247
f 142 143 138

usemtl m248
f 138 143 139

usemtl m249
f 138 139 132

usemtl m250
f 132 139 133

usemtl m251
f 133 139 90

usemtl m252
f 90 139 91

usemtl m253
f 91 139 143

usemtl m254
f 91 143 92

usemtl m255
f 143 91 139

usemtl m256
f 143 139 138

usemtl m257
f 92 91 143

usemtl m258
f 99 9 8

usemtl m259
f 99 8 122

usemtl m260
f 122 8 123

usemtl m261
f 123 8 7

usemtl m262
f 7 8 1

usemtl m263
f 1 8 9

usemtl m264
f 9 8 99

usemtl m265
f 89 71 135

usemtl m266
f 89 135 134

usemtl m267
f 135 89 71

usemtl m268
f 135 71 136

usemtl m269
f 131 119 118

usemtl m270
f 131 118 117

usemtl m271
f 91 90 139

usemtl m272
f 137 70 112

usemtl m273
f 137 112 111

usemtl m274
f 70 113 112

usemtl m275
f 49 48 114

usemtl m276
f 144 145 146

usemtl m277
f 144 146 147

usemtl m278
f 144 147 148

usemtl m279
f 148 147 149

usemtl m280
f 148 149 150

usemtl m281
f 150 149 151

usemtl m282
f 150 151 145

usemtl m283
f 145 151 146

usemtl m284
f 146 151 147

usemtl m285
f 147 151 149

usemtl m286
f 63 69 64

usemtl m287
f 64 69 67

usemtl m288
f 64 67 65

usemtl m289
f 141 152 153

usemtl m290
f 141 153 154

usemtl m291
f 141 154 142

usemtl m292
f 142 154 155

usemtl m293
f 142 155 156

usemtl m294
f 142 156 157

usemtl m295
f 142 157 158

usemtl m296
f 142 158 92

usemtl m297
f 92 158 159

usemtl m298
f 92 159 160

usemtl m299
f 160 159 161

usemtl m300
f 160 161 162

usemtl m301
f 162 161 163

usemtl m302
f 162 163 156

usemtl m303
f 156 163 157

usemtl m304
f 157 163 159

usemtl m305
f 157 159 158

usemtl m306
f 152 164 165

usemtl m307
f 152 165 153

usemtl m308
f 153 165 154

usemtl m309
f 154 165 166

usemtl m310
f 154 166 155

usemtl m311
f 155 166 156

usemtl m312
f 156 166 164

usemtl m313
f 164 166 165

usemtl m314
f 167 168 169

usemtl m315
f 167 169 170

usemtl m316
f 167 170 125

usemtl m317
f 125 170 171

usemtl m318
f 125 171 172

usemtl m319
f 172 171 173

usemtl m320
f 172 173 168

usemtl m321
f 168 173 169

usemtl m322
f 169 173 170

usemtl m323
f 170 173 171

usemtl m324
f 174 175 176

usemtl m325
f 174 176 177

usemtl m326
f 174 177 178

usemtl m327
f 178 177 179

usemtl m328
f 178 179 180

usemtl m329
f 180 179 181

usemtl m330
f 180 181 182

usemtl m331
f 182 181 183

usemtl m332
f 182 183 175

usemtl m333
f 175 183 176

usemtl m334
f 176 183 177

usemtl m335
f 177 183 181

usemtl m336
f 177 181 179

usemtl m337
f 13 184 185

usemtl m338
f 13 185 14

usemtl m339
f 14 185 15

usemtl m340
f 15 185 186

usemtl m341
f 15 186 16

usemtl m342
f 16 186 184

usemtl m343
f 184 186 185

usemtl m344
f 187 188 189

usemtl m345
f 187 189 190

usemtl m346
f 187 190 125

usemtl m347
f 187 125 6

usemtl m348
f 187 6 191

usemtl m349
f 187 191 188

usemtl m350
f 188 191 192

usemtl m351
f 188 192 193

usemtl m352
f 188 193 189

usemtl m353
f 189 193 194

usemtl m354
f 189 194 190

usemtl m355
f 190 194 125

usemtl m356
f 6 192 191

usemtl m357
f 195 196 197

usemtl m358
f 195 197 198

usemtl m359
f 198 197 199

usemtl m360
f 198 199 126

usemtl m361
f 126 199 200

usemtl m362
f 126 200 141

usemtl m363
f 141 200 201

usemtl m364
f 141 201 152

usemtl m365
f 152 201 196

usemtl m366
f 152 196 195

usemtl m367
f 200 199 197

usemtl m368
f 200 197 196

usemtl m369
f 200 196 201

usemtl m370
f 80 78 76

usemtl m371
f 80 76 74

usemtl m372
f 80 74 73

usemtl m373
f 80 73 72

usemtl m374
f 51 50 202

usemtl m375
f 51 202 55

usemtl m376
f 51 55 53

usemtl m377
f 203 204 205

usemtl m378
f 203 205 206

usemtl m379
f 203 206 207

usemtl m380
f 203 207 208

usemtl m381
f 203 208 204

usemtl m382
f 204 208 209

usemtl m383
f 204 209 205

usemtl m384
f 205 209 210

usemtl m385
f 205 210 211

usemtl m386
f 205 211 206

usemtl m387
f 206 211 212

usemtl m388
f 206 212 213

usemtl m389
f 206 213 207

usemtl m390
f 207 213 214

usemtl m391
f 207 214 208

usemtl m392
f 208 214 215

usemtl m393
f 208 215 216

usemtl m394
f 208 216 209

usemtl m395
f 209 216 217

usemtl m396
f 209 217 210

usemtl m397
f 214 213 218

usemtl m398
f 214 218 215

usemtl m399
f 215 218 216

usemtl m400
f 216 218 219

usemtl m401
f 216 219 217

usemtl m402
f 213 212 220

usemtl m403
f 213 220 218

usemtl m404
f 218 220 219

usemtl m405
f 56 55 202

usemtl m406
f 56 202 49

usemtl m407
f 49 202 50

usemtl m408
f 81 86 84

usemtl m409
f 81 84 82

usemtl m410
f 81 88 86

usemtl m411
f 88 81 72

usemtl m412
f 221 222 223

usemtl m413
f 221 223 224

usemtl m414
f 224 223 225

usemtl m415
f 224 225 226

usemtl m416
f 226 225 227

usemtl m417
f 226 227 228

usemtl m418
f 228 227 229

usemtl m419
f 228 229 230

usemtl m420
f 230 229 222

usemtl m421
f 230 222 221

usemtl m422
f 229 225 223

usemtl m423
f 229 223 222

usemtl m424
f 229 227 225

usemtl m425
f 231 18 17

usemtl m426
f 231 17 16

usemtl m427
f 231 16 232

usemtl m428
f 231 232 233

usemtl m429
f 231 233 19

usemtl m430
f 231 19 18

usemtl m431
f 232 20 233

usemtl m432
f 233 20 19

usemtl m433
f 30 234 39

usemtl m434
f 39 234 42

usemtl m435
f 39 42 40

usemtl m436
f 29 42 234

usemtl m437
f 29 234 30

usemtl m438
f 159 163 161

usemtl m439
f 32 38 36

usemtl m440
f 32 36 34

usemtl m441
f 30 38 31

usemtl m442
f 31 38 32

