mtllib 5533.mtl
o runescapemodel
v -64 224 8
v -64 214 8
v -44 216 8
v -44 228 12
v -64 224 0
v -44 228 -4
v -64 214 0
v -44 216 0
v -64 128 4
v -64 128 0
v -45 159 -5
v -46 161 -3
v -47 154 3
v -45 152 1
v -45 154 -9
v -46 154 -11
v -47 161 -11
v -50 163 -10
v -51 163 -2
v -52 155 5
v -51 146 3
v -48 146 1
v -46 148 -5
v -46 149 -5
v -47 149 -10
v -49 151 -14
v -53 156 -17
v -56 158 -16
v -54 164 -7
v -58 161 -1
v -58 156 2
v -54 150 5
v -60 145 -2
v -56 142 -3
v -54 142 -5
v -50 145 -9
v -56 151 -17
v -59 151 -16
v -50 150 -14
v -51 146 -11
v -57 143 -11
v -60 144 -10
v -62 154 -13
v -60 159 -13
v -59 161 -3
v -64 158 0
v -59 154 2
v -62 152 -1
v -44 151 -10
v -47 145 -10
v -47 149 -14
v -63 146 -7
v -63 157 -7
v -62 158 -7
v -63 152 -3
v -59 143 5
v -54 146 7
v -51 143 3
v -58 142 4
v -64 138 3
v -62 142 10
v -60 146 13
v -50 148 11
v -46 143 6
v -46 134 5
v -52 134 2
v -57 136 4
v -58 135 5
v -54 130 5
v -50 127 8
v -56 126 15
v -60 129 11
v -63 132 15
v -61 131 20
v -61 141 21
v -63 141 16
v -63 135 9
v -63 141 10
v -57 147 18
v -49 146 13
v -45 142 10
v -45 134 8
v -48 129 11
v -49 175 15
v -50 178 14
v -57 174 20
v -54 171 20
v -46 169 15
v -45 169 14
v -45 173 10
v -46 176 7
v -54 178 10
v -60 175 15
v -61 167 20
v -57 166 20
v -52 166 19
v -51 167 19
v -48 165 15
v -46 164 10
v -45 167 5
v -46 168 2
v -51 177 5
v -59 176 6
v -62 173 10
v -63 169 15
v -63 162 10
v -61 159 14
v -57 159 15
v -51 161 15
v -48 161 5
v -50 161 2
v -46 163 10
v -50 160 14
v -54 158 10
v -56 157 7
v -54 165 0
v -52 170 0
v -58 176 5
v -64 173 2
v -63 172 10
v -63 167 6
v -45 167 17
v -48 161 17
v -45 163 14
v -57 171 2
v -58 169 2
v -62 167 5
v -60 161 5
v -44 191 -9
v -45 193 -5
v -43 184 1
v -41 183 -3
v -44 185 -13
v -46 186 -16
v -49 192 -15
v -52 195 -13
v -51 193 -3
v -48 185 2
v -46 175 1
v -44 175 -3
v -43 177 -10
v -42 181 -10
v -45 180 -15
v -50 183 -19
v -55 187 -20
v -59 189 -19
v -56 194 -9
v -57 189 -1
v -55 185 2
v -50 177 2
v -57 172 -3
v -53 168 -5
v -50 170 -9
v -47 174 -13
v -57 179 -20
v -62 180 -19
v -51 179 -19
v -49 175 -16
v -55 171 -15
v -60 170 -13
v -64 181 -15
v -61 189 -15
v -59 190 -4
v -64 185 1
v -56 181 2
v -61 178 -1
v -62 173 -9
v -62 179 -4
v -64 183 -8
v -41 183 -15
v -44 175 -15
v -46 180 -20
v -63 187 -8
v -46 206 19
v -49 209 18
v -55 203 25
v -51 201 25
v -43 200 19
v -42 200 16
v -42 205 12
v -44 208 9
v -54 209 15
v -59 203 21
v -58 193 25
v -53 193 25
v -47 193 23
v -46 197 23
v -43 194 18
v -41 195 12
v -41 198 6
v -43 199 2
v -50 208 8
v -58 205 11
v -61 202 14
v -61 195 21
v -60 188 15
v -57 185 18
v -52 185 19
v -46 189 19
v -44 190 6
v -46 190 2
v -42 192 12
v -45 188 16
v -49 184 12
v -52 183 9
v -51 192 1
v -49 200 1
v -56 204 7
v -64 200 5
v -62 198 14
v -61 193 11
v -40 197 21
v -43 190 21
v -39 193 16
v -55 200 4
v -56 196 4
v -60 193 7
v -56 186 8
v -54 145 19
v -46 141 16
v -45 140 15
v -46 134 14
v -46 133 14
v -50 132 19
v -54 129 17
v -57 132 21
v -57 140 22
v -52 140 21
v -51 141 20
v -48 137 18
v -51 134 20
v -45 140 19
v -48 135 22
v -45 135 18
v -58 128 4
v -59 126 4
v -54 122 7
v -52 127 7
v -51 134 -1
v -58 132 0
v -64 129 1
v -45 130 -4
v -46 132 -2
v -47 126 5
v -45 124 3
v -45 125 -7
v -46 124 -9
v -47 131 -10
v -50 133 -9
v -51 118 6
v -48 118 4
v -46 119 -2
v -46 120 -3
v -47 120 -8
v -49 121 -12
v -53 126 -15
v -56 128 -14
v -54 135 -6
v -59 132 -2
v -62 129 -5
v -63 128 -5
v -62 124 -11
v -60 129 -12
v -59 121 -14
v -60 115 -7
v -63 117 -4
v -56 121 -15
v -50 120 -12
v -51 116 -8
v -57 113 -8
v -56 113 0
v -54 113 -2
v -60 116 1
v -50 116 -6
v -44 122 -8
v -47 116 -7
v -47 119 -12
vn -82 -171 -497
vn 256 0 -256
vn 480 80 -497
vn 124 -422 -241
vn -150 -502 252
vn 420 -171 494
vn 470 80 494
vn 264 80 242
vn 512 0 0
vn 256 0 0
vn 1419 -405 13
vn 912 -932 -425
vn 931 -100 -1047
vn 1345 144 -309
vn 1207 120 290
vn 1085 -13 632
vn 1000 -612 689
vn 358 -1259 514
vn 136 -1174 -694
vn 217 -425 -1265
vn 230 708 -1148
vn 807 925 -618
vn 1242 686 143
vn 999 144 151
vn 1196 637 638
vn 803 278 948
vn 397 -251 1315
vn -325 -730 1166
vn -329 -1361 153
vn -302 -977 -629
vn -383 -564 -1355
vn -512 227 -1275
vn -599 834 -608
vn -203 1347 -336
vn 501 1338 186
vn 532 735 348
vn 39 452 1317
vn -755 217 1177
vn 578 630 998
vn 590 1053 904
vn -109 1164 721
vn -879 991 424
vn -1213 -159 695
vn -878 -831 658
vn -672 -1085 -14
vn -941 -681 -605
vn -479 47 -889
vn -464 207 -585
vn 65 -114 -151
vn -45 105 -151
vn -191 -114 105
vn -835 310 158
vn -1117 -323 238
vn -895 -843 290
vn -512 26 32
vn -446 -906 681
vn -240 -1255 672
vn 182 -635 1197
vn -219 -323 1162
vn -646 -346 733
vn -1025 -1083 293
vn -851 -1113 79
vn 449 -1212 48
vn 958 -640 642
vn 1001 394 841
vn -26 373 1326
vn -324 371 1106
vn -137 263 401
vn -363 799 829
vn 492 1060 349
vn -289 1167 -146
vn -232 420 84
vn -1069 406 -237
vn -479 620 -978
vn -944 -404 -815
vn -1362 -468 -154
vn -768 6 -39
vn -883 -365 12
vn -41 -1070 -763
vn 948 -1031 -564
vn 1368 -444 -76
vn 1446 275 108
vn 1008 1027 -203
vn 947 -598 -1015
vn 444 -1081 -505
vn -24 -560 -1140
vn 487 -174 -1381
vn 798 -43 -920
vn 994 38 -529
vn 1377 -347 -269
vn 913 -854 300
vn -272 -1419 40
vn -879 -1010 -418
vn -911 54 -868
vn 3 477 -1384
vn 476 626 -1286
vn 496 211 -816
vn 1151 617 -1017
vn 1223 179 -263
vn 1449 164 178
vn 935 -36 947
vn 173 -1155 729
vn -447 -1173 95
vn -1016 -1116 -266
vn -1361 -342 -349
vn -737 110 -151
vn -333 859 -605
vn 126 1096 -939
vn 381 515 -812
vn 986 995 318
vn 505 805 879
vn 1103 416 -245
vn 704 1022 -640
vn 368 1434 -128
vn 26 785 332
vn -352 312 1332
vn 87 -356 1346
vn -167 -918 764
vn -898 -487 818
vn -880 -345 -184
vn -938 165 141
vn 64 -138 -99
vn -106 117 -99
vn 98 49 275
vn -198 -332 1185
vn -457 176 1141
vn -396 319 591
vn -344 244 621
vn 1234 -654 294
vn 674 -1030 -319
vn 1002 -185 -786
vn 1405 -21 -66
vn 1145 -220 515
vn 877 -285 818
vn 704 -861 926
vn 89 -1244 447
vn -53 -1140 -841
vn 239 -401 -1383
vn 400 610 -1104
vn 1150 835 -300
vn 1260 683 348
vn 945 32 333
vn 1071 220 970
vn 557 -117 1107
vn 199 -402 1383
vn -546 -688 954
vn -632 -1266 -174
vn -309 -919 -785
vn -77 -431 -1404
vn -114 400 -1413
vn -306 574 -745
vn 332 1042 -135
vn 770 1219 405
vn 636 608 479
vn -49 391 1401
vn -824 211 988
vn 412 274 1134
vn 615 860 1046
vn 102 1095 918
vn -497 574 421
vn -1415 10 303
vn -1151 -819 310
vn -684 -986 -304
vn -1104 -313 -890
vn -175 197 -963
vn -867 640 -888
vn -1148 405 -213
vn -963 318 -191
vn -1240 78 -70
vn 43 -131 -134
vn -60 124 -155
vn -213 -80 71
vn -1073 -608 38
vn 911 -762 -831
vn 245 -1190 -547
vn -121 -567 -1178
vn 543 -285 -1316
vn 982 -244 -675
vn 1182 -196 -376
vn 1292 -599 -229
vn 672 -1037 335
vn -547 -1291 -10
vn -973 -755 -664
vn -786 294 -990
vn 109 489 -1354
vn 734 479 -1166
vn 653 -1 -728
vn 1416 325 -612
vn 1244 124 -151
vn 1400 38 354
vn 785 -258 962
vn -207 -1154 812
vn -680 -1015 287
vn -1276 -738 -230
vn -1393 46 -405
vn -673 269 -204
vn -238 941 -588
vn 382 1117 -810
vn 648 550 -537
vn 1202 773 383
vn 569 664 965
vn 1146 509 -37
vn 1088 949 -345
vn 617 1285 -16
vn 60 777 393
vn -448 356 1274
vn -143 -458 1318
vn -401 -861 810
vn -1093 -319 712
vn -985 7 -177
vn -962 307 -5
vn -35 -201 -71
vn -130 138 -51
vn 52 30 237
vn -379 -342 1123
vn -490 235 1104
vn -391 332 491
vn -340 321 592
vn 522 -885 -1104
vn 830 -483 -757
vn 1059 -209 -436
vn 1230 109 -343
vn 1119 344 -445
vn 760 714 -982
vn 447 1152 -834
vn 174 562 -1317
vn -42 -279 -1422
vn 565 -192 -1364
vn 565 -321 -797
vn 1216 87 -1169
vn 435 150 -911
vn 50 -182 23
vn -120 73 -131
vn 102 183 205
vn -455 -705 -1236
vn -211 -105 -475
vn -246 48 -938
vn 189 -543 -1217
vn 170 -1268 -557
vn -353 -1075 -549
vn -623 -867 -356
vn 1369 -420 90
vn 881 -1004 -292
vn 947 -230 -985
vn 1360 113 -328
vn 1198 139 279
vn 1098 62 618
vn 969 -559 755
vn 380 -1216 651
vn 205 576 -1222
vn 849 841 -697
vn 1234 759 59
vn 999 215 128
vn 1208 696 503
vn 814 332 898
vn 362 -213 1346
vn -267 -667 1266
vn -264 -1308 258
vn -677 -1082 35
vn -908 -849 369
vn -362 -362 206
vn -986 -78 652
vn -855 -752 751
vn -782 301 1132
vn -702 570 377
vn -199 102 130
vn 35 503 1269
vn 576 666 906
vn 700 1144 671
vn -161 1175 558
vn -40 1077 -417
vn 630 1351 4
vn -160 277 -400
vn 628 780 203
vn 28 -163 -130
vn -82 56 -184
vn -186 -99 126
usemtl m0
f 1 2 3

usemtl m1
f 1 3 4

usemtl m2
f 1 4 5

usemtl m3
f 5 4 6

usemtl m4
f 5 6 7

usemtl m5
f 7 6 8

usemtl m6
f 8 6 3

usemtl m7
f 3 6 4

usemtl m8
f 9 10 7

usemtl m9
f 9 7 2

usemtl m10
f 11 12 13

usemtl m11
f 11 13 14

usemtl m12
f 11 14 15

usemtl m13
f 11 15 16

usemtl m14
f 11 16 17

usemtl m15
f 11 17 12

usemtl m16
f 12 17 18

usemtl m17
f 12 18 19

usemtl m18
f 12 19 20

usemtl m19
f 12 20 13

usemtl m20
f 13 20 21

usemtl m21
f 13 21 22

usemtl m22
f 13 22 14

usemtl m23
f 14 22 23

usemtl m24
f 14 23 24

usemtl m25
f 14 24 15

usemtl m26
f 15 24 25

usemtl m27
f 15 25 16

usemtl m28
f 16 25 26

usemtl m29
f 16 26 17

usemtl m30
f 17 26 27

usemtl m31
f 17 27 18

usemtl m32
f 18 27 28

usemtl m33
f 18 28 29

usemtl m34
f 18 29 19

usemtl m35
f 19 29 30

usemtl m36
f 19 30 31

usemtl m37
f 19 31 20

usemtl m38
f 20 31 32

usemtl m39
f 20 32 21

usemtl m40
f 21 32 33

usemtl m41
f 21 33 34

usemtl m42
f 21 34 22

usemtl m43
f 22 34 35

usemtl m44
f 22 35 23

usemtl m45
f 23 35 36

usemtl m46
f 23 36 25

usemtl m47
f 23 25 24

usemtl m48
f 37 38 28

usemtl m49
f 37 28 27

usemtl m50
f 37 27 39

usemtl m51
f 37 39 40

usemtl m52
f 37 40 41

usemtl m53
f 37 41 38

usemtl m54
f 38 41 42

usemtl m55
f 38 42 43

usemtl m56
f 38 43 44

usemtl m57
f 38 44 28

usemtl m58
f 28 44 29

usemtl m59
f 29 44 45

usemtl m60
f 29 45 30

usemtl m61
f 30 45 46

usemtl m62
f 30 46 31

usemtl m63
f 31 46 47

usemtl m64
f 31 47 32

usemtl m65
f 32 47 48

usemtl m66
f 32 48 33

usemtl m67
f 34 42 41

usemtl m68
f 34 41 35

usemtl m69
f 35 41 40

usemtl m70
f 35 40 36

usemtl m71
f 36 40 25

usemtl m72
f 25 40 39

usemtl m73
f 25 39 26

usemtl m74
f 26 39 27

usemtl m75
f 49 50 51

usemtl m76
f 49 51 25

usemtl m77
f 49 25 50

usemtl m78
f 50 25 51

usemtl m79
f 43 42 52

usemtl m80
f 43 52 53

usemtl m81
f 43 53 54

usemtl m82
f 43 54 44

usemtl m83
f 44 54 45

usemtl m84
f 45 54 46

usemtl m85
f 46 54 53

usemtl m86
f 46 53 55

usemtl m87
f 55 53 52

usemtl m88
f 33 52 42

usemtl m89
f 33 42 34

usemtl m90
f 46 48 47

usemtl m91
f 56 57 58

usemtl m92
f 56 58 59

usemtl m93
f 56 59 60

usemtl m94
f 56 60 61

usemtl m95
f 56 61 57

usemtl m96
f 57 61 62

usemtl m97
f 57 62 63

usemtl m98
f 57 63 64

usemtl m99
f 57 64 58

usemtl m100
f 58 64 65

usemtl m101
f 58 65 66

usemtl m102
f 58 66 59

usemtl m103
f 59 66 67

usemtl m104
f 59 67 60

usemtl m105
f 60 67 68

usemtl m106
f 68 67 69

usemtl m107
f 69 67 66

usemtl m108
f 69 66 70

usemtl m109
f 69 70 71

usemtl m110
f 69 71 72

usemtl m111
f 72 71 73

usemtl m112
f 73 71 74

usemtl m113
f 73 74 75

usemtl m114
f 73 75 76

usemtl m115
f 73 76 77

usemtl m116
f 77 76 78

usemtl m117
f 77 78 60

usemtl m118
f 60 78 61

usemtl m119
f 61 78 76

usemtl m120
f 61 76 62

usemtl m121
f 62 76 75

usemtl m122
f 62 75 79

usemtl m123
f 62 79 63

usemtl m124
f 63 79 80

usemtl m125
f 63 80 81

usemtl m126
f 63 81 64

usemtl m127
f 64 81 82

usemtl m128
f 64 82 65

usemtl m129
f 65 82 83

usemtl m130
f 65 83 70

usemtl m131
f 65 70 66

usemtl m132
f 84 85 86

usemtl m133
f 84 86 87

usemtl m134
f 84 87 88

usemtl m135
f 84 88 89

usemtl m136
f 84 89 90

usemtl m137
f 84 90 85

usemtl m138
f 85 90 91

usemtl m139
f 85 91 92

usemtl m140
f 85 92 93

usemtl m141
f 85 93 86

usemtl m142
f 86 93 94

usemtl m143
f 86 94 95

usemtl m144
f 86 95 87

usemtl m145
f 87 95 96

usemtl m146
f 87 96 97

usemtl m147
f 87 97 88

usemtl m148
f 88 97 98

usemtl m149
f 88 98 89

usemtl m150
f 89 98 99

usemtl m151
f 89 99 90

usemtl m152
f 90 99 100

usemtl m153
f 90 100 91

usemtl m154
f 91 100 101

usemtl m155
f 91 101 102

usemtl m156
f 91 102 92

usemtl m157
f 92 102 103

usemtl m158
f 92 103 104

usemtl m159
f 92 104 93

usemtl m160
f 93 104 105

usemtl m161
f 93 105 94

usemtl m162
f 94 105 106

usemtl m163
f 94 106 107

usemtl m164
f 94 107 95

usemtl m165
f 95 107 108

usemtl m166
f 95 108 96

usemtl m167
f 96 108 109

usemtl m168
f 96 109 98

usemtl m169
f 96 98 97

usemtl m170
f 110 111 101

usemtl m171
f 110 101 100

usemtl m172
f 110 100 112

usemtl m173
f 110 112 113

usemtl m174
f 110 113 114

usemtl m175
f 110 114 111

usemtl m176
f 111 114 115

usemtl m177
f 111 115 116

usemtl m178
f 111 116 117

usemtl m179
f 111 117 101

usemtl m180
f 101 117 102

usemtl m181
f 102 117 118

usemtl m182
f 102 118 103

usemtl m183
f 103 118 119

usemtl m184
f 103 119 104

usemtl m185
f 104 119 120

usemtl m186
f 104 120 105

usemtl m187
f 105 120 121

usemtl m188
f 105 121 106

usemtl m189
f 107 115 114

usemtl m190
f 107 114 108

usemtl m191
f 108 114 113

usemtl m192
f 108 113 109

usemtl m193
f 109 113 98

usemtl m194
f 98 113 112

usemtl m195
f 98 112 99

usemtl m196
f 99 112 100

usemtl m197
f 122 123 124

usemtl m198
f 122 124 98

usemtl m199
f 122 98 123

usemtl m200
f 123 98 124

usemtl m201
f 119 118 125

usemtl m202
f 119 125 126

usemtl m203
f 119 126 127

usemtl m204
f 119 127 121

usemtl m205
f 119 121 120

usemtl m206
f 116 115 128

usemtl m207
f 116 128 126

usemtl m208
f 116 126 125

usemtl m209
f 116 125 117

usemtl m210
f 117 125 118

usemtl m211
f 126 128 127

usemtl m212
f 129 130 131

usemtl m213
f 129 131 132

usemtl m214
f 129 132 133

usemtl m215
f 129 133 134

usemtl m216
f 129 134 135

usemtl m217
f 129 135 130

usemtl m218
f 130 135 136

usemtl m219
f 130 136 137

usemtl m220
f 130 137 138

usemtl m221
f 130 138 131

usemtl m222
f 131 138 139

usemtl m223
f 131 139 140

usemtl m224
f 131 140 132

usemtl m225
f 132 140 141

usemtl m226
f 132 141 142

usemtl m227
f 132 142 133

usemtl m228
f 133 142 143

usemtl m229
f 133 143 134

usemtl m230
f 134 143 144

usemtl m231
f 134 144 135

usemtl m232
f 135 144 145

usemtl m233
f 135 145 136

usemtl m234
f 136 145 146

usemtl m235
f 136 146 147

usemtl m236
f 136 147 137

usemtl m237
f 137 147 148

usemtl m238
f 137 148 149

usemtl m239
f 137 149 138

usemtl m240
f 138 149 150

usemtl m241
f 138 150 139

usemtl m242
f 139 150 151

usemtl m243
f 139 151 152

usemtl m244
f 139 152 140

usemtl m245
f 140 152 153

usemtl m246
f 140 153 141

usemtl m247
f 141 153 154

usemtl m248
f 141 154 143

usemtl m249
f 141 143 142

usemtl m250
f 155 156 146

usemtl m251
f 155 146 145

usemtl m252
f 155 145 157

usemtl m253
f 155 157 158

usemtl m254
f 155 158 159

usemtl m255
f 155 159 156

usemtl m256
f 156 159 160

usemtl m257
f 156 160 161

usemtl m258
f 156 161 162

usemtl m259
f 156 162 146

usemtl m260
f 146 162 147

usemtl m261
f 147 162 163

usemtl m262
f 147 163 148

usemtl m263
f 148 163 164

usemtl m264
f 148 164 149

usemtl m265
f 149 164 165

usemtl m266
f 149 165 150

usemtl m267
f 150 165 166

usemtl m268
f 150 166 151

usemtl m269
f 151 166 167

usemtl m270
f 167 166 168

usemtl m271
f 167 168 169

usemtl m272
f 167 169 161

usemtl m273
f 167 161 160

usemtl m274
f 152 160 159

usemtl m275
f 152 159 153

usemtl m276
f 153 159 158

usemtl m277
f 153 158 154

usemtl m278
f 154 158 143

usemtl m279
f 143 158 157

usemtl m280
f 143 157 144

usemtl m281
f 144 157 145

usemtl m282
f 170 171 172

usemtl m283
f 170 172 143

usemtl m284
f 170 143 171

usemtl m285
f 171 143 172

usemtl m286
f 163 162 173

usemtl m287
f 163 173 164

usemtl m288
f 164 173 169

usemtl m289
f 164 169 168

usemtl m290
f 164 168 166

usemtl m291
f 164 166 165

usemtl m292
f 173 162 161

usemtl m293
f 173 161 169

usemtl m294
f 174 175 176

usemtl m295
f 174 176 177

usemtl m296
f 174 177 178

usemtl m297
f 174 178 179

usemtl m298
f 174 179 180

usemtl m299
f 174 180 175

usemtl m300
f 175 180 181

usemtl m301
f 175 181 182

usemtl m302
f 175 182 183

usemtl m303
f 175 183 176

usemtl m304
f 176 183 184

usemtl m305
f 176 184 185

usemtl m306
f 176 185 177

usemtl m307
f 177 185 186

usemtl m308
f 177 186 187

usemtl m309
f 177 187 178

usemtl m310
f 178 187 188

usemtl m311
f 178 188 179

usemtl m312
f 179 188 189

usemtl m313
f 179 189 180

usemtl m314
f 180 189 190

usemtl m315
f 180 190 181

usemtl m316
f 181 190 191

usemtl m317
f 181 191 192

usemtl m318
f 181 192 182

usemtl m319
f 182 192 193

usemtl m320
f 182 193 194

usemtl m321
f 182 194 183

usemtl m322
f 183 194 195

usemtl m323
f 183 195 184

usemtl m324
f 184 195 196

usemtl m325
f 184 196 197

usemtl m326
f 184 197 185

usemtl m327
f 185 197 198

usemtl m328
f 185 198 186

usemtl m329
f 186 198 199

usemtl m330
f 186 199 188

usemtl m331
f 186 188 187

usemtl m332
f 200 201 191

usemtl m333
f 200 191 190

usemtl m334
f 200 190 202

usemtl m335
f 200 202 203

usemtl m336
f 200 203 204

usemtl m337
f 200 204 201

usemtl m338
f 201 204 205

usemtl m339
f 201 205 206

usemtl m340
f 201 206 207

usemtl m341
f 201 207 191

usemtl m342
f 191 207 192

usemtl m343
f 192 207 208

usemtl m344
f 192 208 193

usemtl m345
f 193 208 209

usemtl m346
f 193 209 194

usemtl m347
f 194 209 210

usemtl m348
f 194 210 195

usemtl m349
f 195 210 211

usemtl m350
f 195 211 196

usemtl m351
f 197 205 204

usemtl m352
f 197 204 198

usemtl m353
f 198 204 203

usemtl m354
f 198 203 199

usemtl m355
f 199 203 188

usemtl m356
f 188 203 202

usemtl m357
f 188 202 189

usemtl m358
f 189 202 190

usemtl m359
f 212 213 214

usemtl m360
f 212 214 188

usemtl m361
f 212 188 213

usemtl m362
f 213 188 214

usemtl m363
f 209 208 215

usemtl m364
f 209 215 216

usemtl m365
f 209 216 217

usemtl m366
f 209 217 211

usemtl m367
f 209 211 210

usemtl m368
f 206 205 218

usemtl m369
f 206 218 216

usemtl m370
f 206 216 215

usemtl m371
f 206 215 207

usemtl m372
f 207 215 208

usemtl m373
f 216 218 217

usemtl m374
f 80 79 219

usemtl m375
f 80 219 220

usemtl m376
f 80 220 221

usemtl m377
f 80 221 81

usemtl m378
f 81 221 222

usemtl m379
f 81 222 82

usemtl m380
f 82 222 223

usemtl m381
f 82 223 83

usemtl m382
f 83 223 224

usemtl m383
f 83 224 225

usemtl m384
f 83 225 70

usemtl m385
f 70 225 71

usemtl m386
f 71 225 74

usemtl m387
f 74 225 226

usemtl m388
f 74 226 227

usemtl m389
f 74 227 75

usemtl m390
f 75 227 79

usemtl m391
f 79 227 219

usemtl m392
f 219 227 228

usemtl m393
f 219 228 229

usemtl m394
f 219 229 220

usemtl m395
f 220 229 230

usemtl m396
f 220 230 221

usemtl m397
f 221 230 222

usemtl m398
f 222 230 223

usemtl m399
f 223 230 224

usemtl m400
f 224 230 231

usemtl m401
f 224 231 226

usemtl m402
f 224 226 225

usemtl m403
f 229 228 230

usemtl m404
f 230 228 231

usemtl m405
f 231 228 226

usemtl m406
f 226 228 227

usemtl m407
f 232 233 234

usemtl m408
f 232 234 230

usemtl m409
f 232 230 233

usemtl m410
f 233 230 234

usemtl m411
f 235 236 237

usemtl m412
f 235 237 238

usemtl m413
f 235 238 239

usemtl m414
f 235 239 240

usemtl m415
f 235 240 241

usemtl m416
f 235 241 236

usemtl m417
f 242 243 244

usemtl m418
f 242 244 245

usemtl m419
f 242 245 246

usemtl m420
f 242 246 247

usemtl m421
f 242 247 248

usemtl m422
f 242 248 243

usemtl m423
f 243 248 249

usemtl m424
f 243 249 239

usemtl m425
f 243 239 238

usemtl m426
f 243 238 244

usemtl m427
f 244 238 250

usemtl m428
f 244 250 251

usemtl m429
f 244 251 245

usemtl m430
f 245 251 252

usemtl m431
f 245 252 253

usemtl m432
f 245 253 246

usemtl m433
f 246 253 254

usemtl m434
f 246 254 247

usemtl m435
f 247 254 255

usemtl m436
f 247 255 248

usemtl m437
f 248 255 256

usemtl m438
f 248 256 249

usemtl m439
f 249 256 257

usemtl m440
f 249 257 258

usemtl m441
f 249 258 239

usemtl m442
f 239 258 240

usemtl m443
f 240 258 259

usemtl m444
f 240 259 241

usemtl m445
f 241 259 260

usemtl m446
f 241 260 261

usemtl m447
f 261 260 262

usemtl m448
f 262 260 263

usemtl m449
f 262 263 264

usemtl m450
f 262 264 265

usemtl m451
f 262 265 266

usemtl m452
f 267 264 257

usemtl m453
f 267 257 256

usemtl m454
f 267 256 268

usemtl m455
f 267 268 269

usemtl m456
f 267 269 270

usemtl m457
f 267 270 264

usemtl m458
f 264 270 265

usemtl m459
f 265 270 271

usemtl m460
f 271 270 272

usemtl m461
f 271 272 251

usemtl m462
f 271 251 250

usemtl m463
f 271 250 273

usemtl m464
f 273 250 237

usemtl m465
f 237 250 238

usemtl m466
f 268 256 255

usemtl m467
f 268 255 254

usemtl m468
f 268 254 269

usemtl m469
f 269 254 274

usemtl m470
f 269 274 272

usemtl m471
f 269 272 270

usemtl m472
f 272 274 252

usemtl m473
f 272 252 251

usemtl m474
f 253 252 254

usemtl m475
f 254 252 274

usemtl m476
f 275 276 277

usemtl m477
f 275 277 254

usemtl m478
f 275 254 276

usemtl m479
f 276 254 277

usemtl m480
f 258 257 263

usemtl m481
f 258 263 259

usemtl m482
f 259 263 260

usemtl m483
f 263 257 264

