newmtl m0
Kd 0.8392156862745098 0.7098039215686275 0.4
newmtl m1
Kd 0.8392156862745098 0.7098039215686275 0.4
newmtl m2
Kd 0.8392156862745098 0.7098039215686275 0.4
newmtl m3
Kd 0.8392156862745098 0.7098039215686275 0.4
newmtl m4
Kd 0.8392156862745098 0.7098039215686275 0.4
newmtl m5
Kd 0.8392156862745098 0.7098039215686275 0.4
newmtl m6
Kd 0.8392156862745098 0.7098039215686275 0.4
newmtl m7
Kd 0.8392156862745098 0.7098039215686275 0.4
newmtl m8
Kd 0.8392156862745098 0.7098039215686275 0.4
newmtl m9
Kd 0.8392156862745098 0.7098039215686275 0.4
newmtl m10
Kd 0.8392156862745098 0.7098039215686275 0.4
newmtl m11
Kd 0.5215686274509804 0.403921568627451 0.11372549019607843
newmtl m12
Kd 0.5215686274509804 0.403921568627451 0.11372549019607843
newmtl m13
Kd 0.8392156862745098 0.7098039215686275 0.4
newmtl m14
Kd 0.8392156862745098 0.7098039215686275 0.4
newmtl m15
Kd 0.8392156862745098 0.7098039215686275 0.4
newmtl m16
Kd 0.8392156862745098 0.7098039215686275 0.4
newmtl m17
Kd 0.8392156862745098 0.7098039215686275 0.4
newmtl m18
Kd 0.8392156862745098 0.7098039215686275 0.4
newmtl m19
Kd 0.8392156862745098 0.7098039215686275 0.4
newmtl m20
Kd 0.8392156862745098 0.7098039215686275 0.4
newmtl m21
Kd 0.8392156862745098 0.7098039215686275 0.4
newmtl m22
Kd 0.8392156862745098 0.7098039215686275 0.4
newmtl m23
Kd 0.5215686274509804 0.403921568627451 0.11372549019607843
newmtl m24
Kd 0.5215686274509804 0.403921568627451 0.11372549019607843
newmtl m25
Kd 0.8392156862745098 0.7098039215686275 0.4
newmtl m26
Kd 0.8392156862745098 0.7098039215686275 0.4
newmtl m27
Kd 0.8392156862745098 0.7098039215686275 0.4
newmtl m28
Kd 0.8392156862745098 0.7098039215686275 0.4
newmtl m29
Kd 0.8392156862745098 0.7098039215686275 0.4
newmtl m30
Kd 0.8392156862745098 0.7098039215686275 0.4
newmtl m31
Kd 0.5215686274509804 0.403921568627451 0.11372549019607843
newmtl m32
Kd 0.5215686274509804 0.403921568627451 0.11372549019607843
newmtl m33
Kd 0.8392156862745098 0.7098039215686275 0.4
newmtl m34
Kd 0.8392156862745098 0.7098039215686275 0.4
newmtl m35
Kd 0.8392156862745098 0.7098039215686275 0.4
newmtl m36
Kd 0.8392156862745098 0.7098039215686275 0.4
newmtl m37
Kd 0.5215686274509804 0.403921568627451 0.11372549019607843
newmtl m38
Kd 0.5215686274509804 0.403921568627451 0.11372549019607843
newmtl m39
Kd 0.8392156862745098 0.7098039215686275 0.4
newmtl m40
Kd 0.5215686274509804 0.403921568627451 0.11372549019607843
newmtl m41
Kd 0.5215686274509804 0.403921568627451 0.11372549019607843
newmtl m42
Kd 0.5215686274509804 0.403921568627451 0.11372549019607843
newmtl m43
Kd 0.5215686274509804 0.403921568627451 0.11372549019607843
newmtl m44
Kd 0.8392156862745098 0.7098039215686275 0.4
newmtl m45
Kd 0.8392156862745098 0.7098039215686275 0.4
newmtl m46
Kd 0.8392156862745098 0.7098039215686275 0.4
newmtl m47
Kd 0.8392156862745098 0.7098039215686275 0.4
newmtl m48
Kd 0.5215686274509804 0.403921568627451 0.11372549019607843
newmtl m49
Kd 0.5215686274509804 0.403921568627451 0.11372549019607843
newmtl m50
Kd 0.5215686274509804 0.403921568627451 0.11372549019607843
newmtl m51
Kd 0.5215686274509804 0.403921568627451 0.11372549019607843
newmtl m52
Kd 0.8392156862745098 0.7098039215686275 0.4
newmtl m53
Kd 0.8392156862745098 0.7098039215686275 0.4
newmtl m54
Kd 0.8392156862745098 0.7098039215686275 0.4
newmtl m55
Kd 0.8392156862745098 0.7098039215686275 0.4
newmtl m56
Kd 0.5215686274509804 0.403921568627451 0.11372549019607843
newmtl m57
Kd 0.5215686274509804 0.403921568627451 0.11372549019607843
newmtl m58
Kd 0.5215686274509804 0.403921568627451 0.11372549019607843
newmtl m59
Kd 0.5215686274509804 0.403921568627451 0.11372549019607843
newmtl m60
Kd 0.8392156862745098 0.7098039215686275 0.4
newmtl m61
Kd 0.8392156862745098 0.7098039215686275 0.4
newmtl m62
Kd 0.8392156862745098 0.7098039215686275 0.4
newmtl m63
Kd 0.8392156862745098 0.7098039215686275 0.4
newmtl m64
Kd 0.8392156862745098 0.7098039215686275 0.4
newmtl m65
Kd 0.8392156862745098 0.7098039215686275 0.4
newmtl m66
Kd 0.8392156862745098 0.7098039215686275 0.4
newmtl m67
Kd 0.8392156862745098 0.7098039215686275 0.4
newmtl m68
Kd 0.8392156862745098 0.7098039215686275 0.4
newmtl m69
Kd 0.8392156862745098 0.7098039215686275 0.4
newmtl m70
Kd 0.8392156862745098 0.7098039215686275 0.4
newmtl m71
Kd 0.8392156862745098 0.7098039215686275 0.4
newmtl m72
Kd 0.5215686274509804 0.403921568627451 0.11372549019607843
newmtl m73
Kd 0.8392156862745098 0.7098039215686275 0.4
newmtl m74
Kd 0.8392156862745098 0.7098039215686275 0.4
newmtl m75
Kd 0.8392156862745098 0.7098039215686275 0.4
newmtl m76
Kd 0.8392156862745098 0.7098039215686275 0.4
newmtl m77
Kd 0.5215686274509804 0.403921568627451 0.11372549019607843
newmtl m78
Kd 0.5215686274509804 0.403921568627451 0.11372549019607843
newmtl m79
Kd 0.5215686274509804 0.403921568627451 0.11372549019607843
newmtl m80
Kd 0.8392156862745098 0.7098039215686275 0.4
newmtl m81
Kd 0.8392156862745098 0.7098039215686275 0.4
newmtl m82
Kd 0.8392156862745098 0.7098039215686275 0.4
newmtl m83
Kd 0.8392156862745098 0.7098039215686275 0.4
newmtl m84
Kd 0.4745098039215686 0.39215686274509803 0.2
newmtl m85
Kd 0.4745098039215686 0.39215686274509803 0.2
newmtl m86
Kd 0.4745098039215686 0.39215686274509803 0.2
newmtl m87
Kd 0.4745098039215686 0.39215686274509803 0.2
newmtl m88
Kd 0.4745098039215686 0.39215686274509803 0.2
newmtl m89
Kd 0.4745098039215686 0.39215686274509803 0.2
newmtl m90
Kd 0.4745098039215686 0.39215686274509803 0.2
newmtl m91
Kd 0.4745098039215686 0.39215686274509803 0.2
newmtl m92
Kd 0.4745098039215686 0.39215686274509803 0.2
newmtl m93
Kd 0.4745098039215686 0.39215686274509803 0.2
newmtl m94
Kd 0.4745098039215686 0.39215686274509803 0.2
newmtl m95
Kd 0.4745098039215686 0.39215686274509803 0.2
