mtllib 5661.mtl
o runescapemodel
v 0 -5 -80
v 2 -5 -80
v 3 -6 -56
v -1 -6 -56
v 0 -2 -80
v 2 -2 -80
v 3 -1 -57
v 3 -1 -53
v 3 -6 -52
v -1 -6 -52
v -1 -1 -57
v -1 2 -57
v 3 2 -57
v 24 -1 -58
v 24 -1 -55
v 24 2 -55
v 3 2 -53
v -1 -1 -53
v 3 0 56
v 3 -3 56
v -1 -3 56
v -1 0 56
v -22 -1 -55
v -22 -1 -58
v -22 2 -58
v -1 2 -53
v 24 2 -58
v 47 -1 -55
v 46 0 -52
v 46 3 -52
v 47 2 -55
v -22 2 -55
v -44 0 -52
v -45 -1 -55
v -45 2 -55
v -1 3 56
v 3 3 56
v 24 0 55
v 3 0 60
v 3 -3 60
v -1 -3 60
v -1 0 60
v -22 0 58
v -22 0 55
v -22 3 55
v -1 3 60
v 3 3 60
v 24 3 58
v 24 3 55
v 47 0 58
v 24 0 58
v 4 0 214
v 4 -4 214
v -2 -4 214
v -2 0 214
v 5 -3 274
v 5 -9 274
v 4 -6 214
v -2 -6 214
v -3 -9 274
v -3 -3 274
v -22 3 58
v -44 0 61
v -45 0 58
v -45 3 58
v -44 3 -52
v -44 3 61
v 46 0 61
v 46 3 61
v 47 3 58
v -19 2 -34
v -22 2 -49
v -43 1 -54
v -40 2 -38
v -18 9 -9
v 0 8 -15
v 1 2 -33
v 0 2 -48
v -38 9 1
v 23 2 -38
v 22 2 -50
v 22 9 -16
v 38 8 -16
v 41 2 -40
v 43 1 -53
v 0 9 21
v 21 9 18
v 37 9 21
v 1 4 51
v 23 4 52
v 43 4 59
v -18 7 28
v -37 4 44
v -17 4 53
v -41 4 60
v 1 10 29
v 7 9 5
v 1 9 -2
v -6 9 5
v -26 9 -2
v -6 9 -11
v 1 8 -35
v 7 9 -11
v 27 9 -2
vn -256 512 286
vn 512 258 543
vn 768 1026 30
vn -768 514 31
vn -512 -254 544
vn 256 -512 289
vn 756 2 800
vn 1072 256 -766
vn 512 512 -7
vn -1024 1024 -14
vn -744 2 801
vn 12 -768 768
vn -24 -768 768
vn 9 768 768
vn -44 757 -849
vn 3 -768 -768
vn 24 -768 -768
vn -536 -256 -764
vn 500 -256 772
vn 1024 768 -14
vn -512 768 -7
vn -1000 256 770
vn -25 768 -768
vn -55 757 690
vn -9 -768 768
vn -48 -768 -768
vn 53 -757 846
vn 322 501 346
vn 478 245 -507
vn 187 -501 -519
vn 555 -245 164
vn 44 -757 -687
vn 67 501 -590
vn -23 245 178
vn -66 -501 593
vn 12 -768 768
vn -24 -768 768
vn 9 768 768
vn 1072 256 -766
vn 512 768 2
vn -1024 768 4
vn -536 -256 -767
vn -14 768 -768
vn -54 768 768
vn -9 -768 768
vn -48 -768 -768
vn 24 -768 -768
vn 14 -768 -768
vn 54 -768 768
vn 66 512 512
vn -44 768 -768
vn 768 -768 -3
vn 512 512 4
vn -256 256 2
vn -768 -768 -18
vn 256 -512 -532
vn 512 512 -224
vn 256 256 16
vn -512 512 32
vn -256 256 -496
vn -512 -256 -260
vn 44 -768 -768
vn 68 512 -512
vn -33 256 256
vn -66 -512 512
vn 34 -245 -175
vn 34 -256 -256
vn -34 256 -256
vn -68 -512 -512
vn 33 -256 256
vn 21 6 50
vn -4 0 -16
vn -1 -256 0
vn -5 10 69
vn 17 -14 -1
vn 48 -8 2
vn 1 2 8
vn 0 0 0
vn -18 -11 -82
vn 22 -6 -41
vn -3 0 17
vn -9 5 19
vn -7 12 79
vn -2 -12 -78
vn -1 256 -3
vn 29 -1 -20
vn -39 -1 9
vn 27 -2 38
vn -17 -1 5
vn 11 2 -6
vn -7 -252 -36
vn 47 -1 -90
vn 37 -5 -30
vn -6 -4 41
vn 42 248 18
vn 1 -512 16
vn 9 -768 8
vn -1 -1792 30
vn -8 -512 8
vn 0 -512 0
vn 9 -512 7
vn -2 -512 14
vn -11 -768 7
vn 0 -256 0
usemtl m0
f 1 2 3

usemtl m1
f 1 3 4

usemtl m2
f 1 4 5

usemtl m3
f 1 5 2

usemtl m4
f 2 5 6

usemtl m5
f 2 6 7

usemtl m6
f 2 7 3

usemtl m7
f 3 7 8

usemtl m8
f 3 8 9

usemtl m9
f 3 9 10

usemtl m10
f 3 10 4

usemtl m11
f 4 10 11

usemtl m12
f 4 11 5

usemtl m13
f 5 11 6

usemtl m14
f 6 11 7

usemtl m15
f 7 11 12

usemtl m16
f 7 12 13

usemtl m17
f 7 13 14

usemtl m18
f 7 14 8

usemtl m19
f 8 14 15

usemtl m20
f 8 15 16

usemtl m21
f 8 16 17

usemtl m22
f 8 17 18

usemtl m23
f 8 18 19

usemtl m24
f 8 19 20

usemtl m25
f 8 20 9

usemtl m26
f 9 20 10

usemtl m27
f 10 20 21

usemtl m28
f 10 21 22

usemtl m29
f 10 22 18

usemtl m30
f 10 18 11

usemtl m31
f 11 18 23

usemtl m32
f 11 23 24

usemtl m33
f 11 24 25

usemtl m34
f 11 25 12

usemtl m35
f 12 25 26

usemtl m36
f 12 26 17

usemtl m37
f 12 17 13

usemtl m38
f 13 17 16

usemtl m39
f 13 16 27

usemtl m40
f 13 27 14

usemtl m41
f 14 27 28

usemtl m42
f 14 28 15

usemtl m43
f 15 28 29

usemtl m44
f 15 29 30

usemtl m45
f 15 30 16

usemtl m46
f 16 30 27

usemtl m47
f 27 30 31

usemtl m48
f 27 31 28

usemtl m49
f 28 31 29

usemtl m50
f 29 31 30

usemtl m51
f 18 17 26

usemtl m52
f 18 26 23

usemtl m53
f 23 26 32

usemtl m54
f 23 32 33

usemtl m55
f 23 33 24

usemtl m56
f 24 33 34

usemtl m57
f 24 34 35

usemtl m58
f 24 35 25

usemtl m59
f 25 35 32

usemtl m60
f 25 32 26

usemtl m61
f 22 19 18

usemtl m62
f 19 22 36

usemtl m63
f 19 36 37

usemtl m64
f 19 37 38

usemtl m65
f 19 38 39

usemtl m66
f 19 39 20

usemtl m67
f 20 39 40

usemtl m68
f 20 40 21

usemtl m69
f 21 40 41

usemtl m70
f 21 41 22

usemtl m71
f 22 41 42

usemtl m72
f 22 42 43

usemtl m73
f 22 43 44

usemtl m74
f 22 44 45

usemtl m75
f 22 45 36

usemtl m76
f 36 45 46

usemtl m77
f 36 46 47

usemtl m78
f 36 47 37

usemtl m79
f 37 47 48

usemtl m80
f 37 48 49

usemtl m81
f 37 49 38

usemtl m82
f 38 49 50

usemtl m83
f 38 50 51

usemtl m84
f 38 51 39

usemtl m85
f 39 51 48

usemtl m86
f 39 48 47

usemtl m87
f 39 47 42

usemtl m88
f 39 42 52

usemtl m89
f 39 52 53

usemtl m90
f 39 53 40

usemtl m91
f 40 53 41

usemtl m92
f 41 53 54

usemtl m93
f 41 54 55

usemtl m94
f 41 55 42

usemtl m95
f 42 55 52

usemtl m96
f 52 55 56

usemtl m97
f 52 56 57

usemtl m98
f 52 57 58

usemtl m99
f 58 57 59

usemtl m100
f 59 57 60

usemtl m101
f 59 60 61

usemtl m102
f 59 61 55

usemtl m103
f 55 61 56

usemtl m104
f 56 61 60

usemtl m105
f 56 60 57

usemtl m106
f 42 47 46

usemtl m107
f 42 46 43

usemtl m108
f 43 46 62

usemtl m109
f 43 62 63

usemtl m110
f 43 63 44

usemtl m111
f 44 63 64

usemtl m112
f 44 64 65

usemtl m113
f 44 65 45

usemtl m114
f 45 65 62

usemtl m115
f 45 62 46

usemtl m116
f 32 66 33

usemtl m117
f 66 32 35

usemtl m118
f 62 67 63

usemtl m119
f 67 62 65

usemtl m120
f 51 68 69

usemtl m121
f 51 69 48

usemtl m122
f 48 69 49

usemtl m123
f 49 69 70

usemtl m124
f 49 70 50

usemtl m125
f 50 68 51

usemtl m126
f 71 72 73

usemtl m127
f 71 73 74

usemtl m128
f 71 74 75

usemtl m129
f 71 75 76

usemtl m130
f 71 76 77

usemtl m131
f 71 77 72

usemtl m132
f 71 72 78

usemtl m133
f 71 78 77

usemtl m134
f 71 77 75

usemtl m135
f 71 75 79

usemtl m136
f 71 79 74

usemtl m137
f 71 74 72

usemtl m138
f 72 74 73

usemtl m139
f 77 78 72

usemtl m140
f 78 77 80

usemtl m141
f 78 80 81

usemtl m142
f 78 81 77

usemtl m143
f 77 81 80

usemtl m144
f 77 80 76

usemtl m145
f 77 76 82

usemtl m146
f 77 82 80

usemtl m147
f 80 82 83

usemtl m148
f 80 83 84

usemtl m149
f 80 84 81

usemtl m150
f 80 81 85

usemtl m151
f 80 85 84

usemtl m152
f 80 84 82

usemtl m153
f 80 82 76

usemtl m154
f 76 82 86

usemtl m155
f 76 86 87

usemtl m156
f 76 87 82

usemtl m157
f 82 87 88

usemtl m158
f 82 88 83

usemtl m159
f 82 83 87

usemtl m160
f 82 87 86

usemtl m161
f 86 87 89

usemtl m162
f 86 89 90

usemtl m163
f 86 90 87

usemtl m164
f 87 90 91

usemtl m165
f 87 91 88

usemtl m166
f 87 88 90

usemtl m167
f 87 90 89

usemtl m168
f 81 84 85

usemtl m169
f 75 74 79

usemtl m170
f 75 79 92

usemtl m171
f 75 92 86

usemtl m172
f 75 86 76

usemtl m173
f 75 76 92

usemtl m174
f 75 92 93

usemtl m175
f 75 93 79

usemtl m176
f 79 93 92

usemtl m177
f 92 93 94

usemtl m178
f 92 94 89

usemtl m179
f 92 89 86

usemtl m180
f 92 86 94

usemtl m181
f 92 94 95

usemtl m182
f 92 95 93

usemtl m183
f 93 95 94

usemtl m184
f 75 77 76

usemtl m185
f 84 83 82

usemtl m186
f 92 76 86

usemtl m187
f 83 88 87

usemtl m188
f 94 86 89

usemtl m189
f 88 91 90

usemtl m190
f 96 97 98

usemtl m191
f 96 98 99

usemtl m192
f 99 98 100

usemtl m193
f 100 98 101

usemtl m194
f 101 98 102

usemtl m195
f 102 98 103

usemtl m196
f 103 98 97

usemtl m197
f 103 97 104

