mtllib 5677.mtl
o runescapemodel
v -5 -6 15
v -13 -6 15
v -13 -6 -6
v -5 -6 -6
v -5 3 4
v -5 -1 17
v -13 -1 17
v -13 3 4
v -13 -1 -8
v -5 -1 -8
v -4 10 4
v -12 10 4
v -13 11 -6
v -2 15 7
v -14 15 7
v -14 16 -7
v -5 11 -6
v -2 16 -7
v -6 18 -3
v -6 17 3
v -11 17 3
v -11 18 -3
v -2 45 -8
v -2 47 8
v -13 47 8
v -13 45 -8
v -3 60 -3
v -3 57 8
v -11 57 8
v -11 60 -3
v 0 103 -13
v 0 102 11
v -15 107 6
v -18 95 -9
v -16 107 -13
v 16 107 -13
v 18 95 -9
v 4 60 -3
v 4 57 8
v 15 107 6
v 9 117 10
v -10 117 10
v 5 -6 3
v -5 -6 3
v 0 -6 -5
v 5 10 4
v 6 11 -6
v 5 -1 -8
v 6 3 4
v 14 3 4
v 13 10 4
v 3 15 7
v 3 16 -7
v 15 16 -7
v 14 11 -6
v 14 -1 -8
v 14 -6 -6
v 5 -6 -6
v 5 -6 15
v 5 -1 17
v 14 -1 17
v 14 -6 15
v 15 15 7
v 12 17 3
v 7 17 3
v 7 18 -3
v 12 18 -3
v 14 45 -8
v 14 47 8
v 3 47 8
v 3 45 -8
v -3 93 13
v 3 93 13
v 9 121 8
v -10 121 8
v -13 117 -9
v 12 117 -9
v 12 57 8
v 12 60 -3
v 7 98 -17
v -8 98 -17
v 12 121 -5
v -13 121 -5
vn 512 607 -238
vn -512 446 -476
vn -512 702 476
vn 512 351 238
vn 1024 -456 -418
vn 256 -56 -551
vn -256 -397 -388
vn -1024 -282 -575
vn -768 -21 731
vn 768 180 742
vn 967 392 -680
vn -1007 372 -727
vn -512 60 464
vn 448 -343 -609
vn -367 -463 -463
vn -793 -408 560
vn 472 149 1073
vn 583 -410 507
vn 463 -617 318
vn 588 -552 -773
vn -554 -590 -414
vn -681 -529 702
vn 763 66 751
vn 765 34 -772
vn -762 68 -754
vn -760 -179 734
vn 767 -127 737
vn 682 10 -754
vn -1002 -22 -819
vn -537 47 747
vn 252 375 1493
vn -257 147 -1203
vn -906 -93 -819
vn -800 150 430
vn -747 -231 674
vn 732 -367 912
vn 799 186 683
vn -735 46 745
vn -683 -20 -1005
vn 895 -125 -817
vn 805 -383 -1319
vn -822 -419 -1295
vn 0 256 0
vn 0 256 0
vn 0 256 0
vn -960 372 -704
vn -469 129 1070
vn -761 155 704
vn -1018 -497 -440
vn 1024 -282 -575
vn 1007 372 -727
vn -339 -341 -685
vn -696 -400 356
vn 652 -430 710
vn 512 60 464
vn 768 -20 733
vn 512 448 480
vn -510 573 222
vn -510 317 -223
vn -256 -60 -538
vn 256 -395 -390
vn 512 704 -480
vn 503 -455 -385
vn 618 -585 -774
vn -495 -603 -414
vn -648 -513 700
vn 520 -615 317
vn 764 12 752
vn 759 -26 -775
vn -763 128 -756
vn -765 -120 733
vn 0 -62 -508
vn 0 -31 -254
vn 498 -705 -557
vn -498 -334 -326
vn -744 -771 1176
vn 738 -419 521
vn 750 -3 -572
vn 755 -159 742
vn 0 -198 472
vn 0 -99 236
vn 246 -562 306
vn -246 -637 125
usemtl m0
f 1 2 3

usemtl m1
f 1 3 4

usemtl m2
f 1 4 5

usemtl m3
f 1 5 6

usemtl m4
f 1 6 2

usemtl m5
f 2 6 7

usemtl m6
f 2 7 8

usemtl m7
f 2 8 3

usemtl m8
f 3 8 9

usemtl m9
f 3 9 10

usemtl m10
f 3 10 4

usemtl m11
f 4 10 5

usemtl m12
f 5 10 11

usemtl m13
f 5 11 8

usemtl m14
f 5 8 7

usemtl m15
f 5 7 6

usemtl m16
f 12 13 9

usemtl m17
f 12 9 8

usemtl m18
f 12 8 11

usemtl m19
f 12 11 14

usemtl m20
f 12 14 15

usemtl m21
f 12 15 16

usemtl m22
f 12 16 13

usemtl m23
f 13 16 17

usemtl m24
f 13 17 9

usemtl m25
f 9 17 10

usemtl m26
f 10 17 11

usemtl m27
f 11 17 18

usemtl m28
f 11 18 14

usemtl m29
f 14 18 19

usemtl m30
f 14 19 20

usemtl m31
f 14 20 15

usemtl m32
f 15 20 21

usemtl m33
f 15 21 16

usemtl m34
f 16 21 22

usemtl m35
f 16 22 18

usemtl m36
f 16 18 17

usemtl m37
f 22 19 18

usemtl m38
f 19 22 23

usemtl m39
f 19 23 20

usemtl m40
f 20 23 24

usemtl m41
f 20 24 25

usemtl m42
f 20 25 21

usemtl m43
f 21 25 22

usemtl m44
f 22 25 26

usemtl m45
f 22 26 23

usemtl m46
f 23 26 27

usemtl m47
f 23 27 24

usemtl m48
f 24 27 28

usemtl m49
f 24 28 29

usemtl m50
f 24 29 25

usemtl m51
f 25 29 26

usemtl m52
f 26 29 30

usemtl m53
f 26 30 27

usemtl m54
f 27 30 31

usemtl m55
f 27 31 28

usemtl m56
f 28 31 32

usemtl m57
f 28 32 33

usemtl m58
f 28 33 29

usemtl m59
f 29 33 34

usemtl m60
f 29 34 30

usemtl m61
f 30 34 31

usemtl m62
f 31 34 35

usemtl m63
f 31 35 36

usemtl m64
f 31 36 37

usemtl m65
f 31 37 38

usemtl m66
f 31 38 32

usemtl m67
f 32 38 39

usemtl m68
f 32 39 40

usemtl m69
f 32 40 41

usemtl m70
f 32 41 42

usemtl m71
f 32 42 33

usemtl m72
f 33 42 35

usemtl m73
f 33 35 34

usemtl m74
f 43 44 45

usemtl m75
f 46 47 47

usemtl m76
f 46 47 46

usemtl m77
f 46 47 48

usemtl m78
f 46 48 49

usemtl m79
f 46 49 50

usemtl m80
f 46 50 51

usemtl m81
f 46 51 52

usemtl m82
f 46 52 53

usemtl m83
f 46 53 47

usemtl m84
f 47 53 54

usemtl m85
f 47 54 55

usemtl m86
f 47 55 56

usemtl m87
f 47 56 48

usemtl m88
f 48 56 57

usemtl m89
f 48 57 58

usemtl m90
f 48 58 49

usemtl m91
f 49 58 59

usemtl m92
f 49 59 60

usemtl m93
f 49 60 61

usemtl m94
f 49 61 50

usemtl m95
f 50 61 62

usemtl m96
f 50 62 57

usemtl m97
f 50 57 56

usemtl m98
f 50 56 51

usemtl m99
f 51 56 55

usemtl m100
f 51 55 55

usemtl m101
f 51 55 51

usemtl m102
f 51 55 54

usemtl m103
f 51 54 63

usemtl m104
f 51 63 52

usemtl m105
f 52 63 64

usemtl m106
f 52 64 65

usemtl m107
f 52 65 53

usemtl m108
f 53 65 66

usemtl m109
f 53 66 54

usemtl m110
f 54 66 67

usemtl m111
f 54 67 63

usemtl m112
f 63 67 64

usemtl m113
f 64 67 68

usemtl m114
f 64 68 69

usemtl m115
f 64 69 70

usemtl m116
f 64 70 65

usemtl m117
f 65 70 66

usemtl m118
f 66 70 71

usemtl m119
f 66 71 68

usemtl m120
f 66 68 67

usemtl m121
f 58 57 62

usemtl m122
f 58 62 59

usemtl m123
f 59 62 60

usemtl m124
f 60 62 61

usemtl m125
f 72 73 41

usemtl m126
f 72 41 42

usemtl m127
f 42 41 74

usemtl m128
f 42 74 75

usemtl m129
f 42 75 76

usemtl m130
f 42 76 35

usemtl m131
f 35 76 36

usemtl m132
f 36 76 77

usemtl m133
f 36 77 41

usemtl m134
f 36 41 40

usemtl m135
f 36 40 37

usemtl m136
f 37 40 78

usemtl m137
f 37 78 79

usemtl m138
f 37 79 38

usemtl m139
f 38 79 71

usemtl m140
f 38 71 39

usemtl m141
f 39 71 70

usemtl m142
f 39 70 69

usemtl m143
f 39 69 78

usemtl m144
f 39 78 40

usemtl m145
f 80 81 76

usemtl m146
f 80 76 77

usemtl m147
f 77 76 82

usemtl m148
f 77 82 74

usemtl m149
f 77 74 41

usemtl m150
f 74 82 83

usemtl m151
f 74 83 75

usemtl m152
f 75 83 76

usemtl m153
f 76 83 82

usemtl m154
f 79 68 71

usemtl m155
f 68 79 69

usemtl m156
f 69 79 78

