mtllib 6035.mtl
o runescapemodel
v -128 74 38
v -107 63 78
v -98 57 74
v -117 69 36
v -138 82 -4
v -82 47 113
v -74 41 105
v -78 43 58
v -44 22 132
v -35 14 110
v -58 30 85
v -4 -4 127
v -22 7 86
v -41 17 68
v 4 -11 102
v 12 -15 77
v -9 -2 65
v 33 -31 85
v 20 -21 54
v 4 -11 44
v 36 -32 59
v 56 -45 86
v 56 -45 63
v 31 -28 111
v 56 -45 116
v 51 -44 142
v 25 -25 138
v 20 -21 165
v 51 -44 169
v -15 1 154
v -93 52 26
v -71 39 14
v -82 45 -16
v -103 58 -11
v -128 74 -6
v -50 25 4
v -57 30 -20
v -36 15 -24
v -31 12 -7
v -38 18 27
v -23 6 14
v -11 -1 30
v -25 8 48
v -58 30 42
v -53 26 142
v -22 7 165
v 19 -21 175
v 51 -44 180
vn 0 0 0
vn 0 0 0
vn 0 0 0
vn 0 0 0
vn 0 0 0
vn 0 0 0
vn 0 0 0
vn 0 0 0
vn 0 0 0
vn 0 0 0
vn 0 0 0
vn 0 0 0
vn 0 0 0
vn 0 0 0
vn 0 0 0
vn 0 0 0
vn 0 0 0
vn 0 0 0
vn 0 0 0
vn 0 0 0
vn 0 0 0
vn 0 0 0
vn 0 0 0
vn 0 0 0
vn 0 0 0
vn 0 0 0
vn 0 0 0
vn 0 0 0
vn 0 0 0
vn 0 0 0
vn 0 0 0
vn 0 0 0
vn 0 0 0
vn 0 0 0
vn 0 0 0
vn 0 0 0
vn 0 0 0
vn 0 0 0
vn 0 0 0
vn 0 0 0
vn 0 0 0
vn 0 0 0
vn 0 0 0
vn 0 0 0
vn 0 0 0
vn 0 0 0
vn 0 0 0
vn 0 0 0
usemtl m0
f 1 2 3

usemtl m1
f 1 3 4

usemtl m2
f 1 4 5

usemtl m3
f 1 5 4

usemtl m4
f 1 4 3

usemtl m5
f 1 3 2

usemtl m6
f 2 3 6

usemtl m7
f 2 6 3

usemtl m8
f 3 6 7

usemtl m9
f 3 7 8

usemtl m10
f 3 8 4

usemtl m11
f 3 4 8

usemtl m12
f 3 8 7

usemtl m13
f 3 7 6

usemtl m14
f 6 7 9

usemtl m15
f 6 9 7

usemtl m16
f 7 9 10

usemtl m17
f 7 10 11

usemtl m18
f 7 11 8

usemtl m19
f 7 8 11

usemtl m20
f 7 11 10

usemtl m21
f 7 10 9

usemtl m22
f 9 10 12

usemtl m23
f 9 12 10

usemtl m24
f 10 12 13

usemtl m25
f 10 13 14

usemtl m26
f 10 14 11

usemtl m27
f 10 11 14

usemtl m28
f 10 14 13

usemtl m29
f 10 13 12

usemtl m30
f 12 13 15

usemtl m31
f 12 15 13

usemtl m32
f 13 15 16

usemtl m33
f 13 16 17

usemtl m34
f 13 17 14

usemtl m35
f 13 14 17

usemtl m36
f 13 17 16

usemtl m37
f 13 16 15

usemtl m38
f 15 16 18

usemtl m39
f 15 18 16

usemtl m40
f 16 18 19

usemtl m41
f 16 19 20

usemtl m42
f 16 20 17

usemtl m43
f 16 17 20

usemtl m44
f 16 20 19

usemtl m45
f 16 19 18

usemtl m46
f 18 19 21

usemtl m47
f 18 21 19

usemtl m48
f 21 18 22

usemtl m49
f 21 22 23

usemtl m50
f 21 23 22

usemtl m51
f 21 22 18

usemtl m52
f 18 22 24

usemtl m53
f 18 24 22

usemtl m54
f 22 24 25

usemtl m55
f 22 25 24

usemtl m56
f 24 25 26

usemtl m57
f 24 26 25

usemtl m58
f 26 24 27

usemtl m59
f 26 27 28

usemtl m60
f 26 28 29

usemtl m61
f 26 29 28

usemtl m62
f 26 28 27

usemtl m63
f 26 27 24

usemtl m64
f 24 27 15

usemtl m65
f 24 15 27

usemtl m66
f 27 15 12

usemtl m67
f 27 12 30

usemtl m68
f 27 30 28

usemtl m69
f 27 28 30

usemtl m70
f 27 30 12

usemtl m71
f 27 12 15

usemtl m72
f 8 31 4

usemtl m73
f 8 4 31

usemtl m74
f 8 31 32

usemtl m75
f 8 32 31

usemtl m76
f 31 32 33

usemtl m77
f 31 33 34

usemtl m78
f 31 34 35

usemtl m79
f 31 35 4

usemtl m80
f 31 4 35

usemtl m81
f 31 35 34

usemtl m82
f 31 34 33

usemtl m83
f 31 33 32

usemtl m84
f 32 33 36

usemtl m85
f 32 36 33

usemtl m86
f 33 36 37

usemtl m87
f 33 37 36

usemtl m88
f 36 37 38

usemtl m89
f 36 38 37

usemtl m90
f 38 36 39

usemtl m91
f 38 39 36

usemtl m92
f 36 39 40

usemtl m93
f 36 40 39

usemtl m94
f 39 40 41

usemtl m95
f 39 41 40

usemtl m96
f 40 41 42

usemtl m97
f 40 42 41

usemtl m98
f 42 40 43

usemtl m99
f 42 43 17

usemtl m100
f 42 17 20

usemtl m101
f 42 20 17

usemtl m102
f 42 17 43

usemtl m103
f 42 43 40

usemtl m104
f 40 43 14

usemtl m105
f 40 14 43

usemtl m106
f 43 14 17

usemtl m107
f 43 17 14

usemtl m108
f 8 44 32

usemtl m109
f 8 32 44

usemtl m110
f 8 44 14

usemtl m111
f 8 14 44

usemtl m112
f 44 14 40

usemtl m113
f 44 40 32

usemtl m114
f 44 32 40

usemtl m115
f 44 40 14

usemtl m116
f 40 36 32

usemtl m117
f 40 32 36

usemtl m118
f 4 35 5

usemtl m119
f 4 5 35

usemtl m120
f 8 11 14

usemtl m121
f 8 14 11

usemtl m122
f 6 45 9

usemtl m123
f 6 9 45

usemtl m124
f 45 9 30

usemtl m125
f 45 30 9

usemtl m126
f 9 30 12

usemtl m127
f 9 12 30

usemtl m128
f 45 46 30

usemtl m129
f 45 30 46

usemtl m130
f 46 30 28

usemtl m131
f 46 28 30

usemtl m132
f 28 46 47

usemtl m133
f 28 47 29

usemtl m134
f 28 29 47

usemtl m135
f 28 47 46

usemtl m136
f 15 24 18

usemtl m137
f 15 18 24

usemtl m138
f 47 48 29

usemtl m139
f 47 29 48

