newmtl m0
Kd 0.26666666666666666 0.23529411764705882 0.23529411764705882
newmtl m1
Kd 0.26666666666666666 0.23529411764705882 0.23529411764705882
newmtl m2
Kd 0.26666666666666666 0.23529411764705882 0.23529411764705882
newmtl m3
Kd 0.26666666666666666 0.23529411764705882 0.23529411764705882
newmtl m4
Kd 0.26666666666666666 0.23529411764705882 0.23529411764705882
newmtl m5
Kd 0.26666666666666666 0.23529411764705882 0.23529411764705882
newmtl m6
Kd 0.26666666666666666 0.23529411764705882 0.23529411764705882
newmtl m7
Kd 0.26666666666666666 0.23529411764705882 0.23529411764705882
newmtl m8
Kd 0.9803921568627451 0.9764705882352941 0.9764705882352941
newmtl m9
Kd 0.9803921568627451 0.9764705882352941 0.9764705882352941
newmtl m10
Kd 0.9803921568627451 0.9764705882352941 0.9764705882352941
newmtl m11
Kd 0.9803921568627451 0.9764705882352941 0.9764705882352941
newmtl m12
Kd 0.9803921568627451 0.9764705882352941 0.9764705882352941
newmtl m13
Kd 0.9803921568627451 0.9764705882352941 0.9764705882352941
newmtl m14
Kd 0.9803921568627451 0.9764705882352941 0.9764705882352941
newmtl m15
Kd 0.26666666666666666 0.23529411764705882 0.23529411764705882
newmtl m16
Kd 0.26666666666666666 0.23529411764705882 0.23529411764705882
newmtl m17
Kd 0.26666666666666666 0.23529411764705882 0.23529411764705882
newmtl m18
Kd 0.26666666666666666 0.23529411764705882 0.23529411764705882
newmtl m19
Kd 0.26666666666666666 0.23529411764705882 0.23529411764705882
newmtl m20
Kd 0.26666666666666666 0.23529411764705882 0.23529411764705882
newmtl m21
Kd 0.26666666666666666 0.23529411764705882 0.23529411764705882
newmtl m22
Kd 0.26666666666666666 0.23529411764705882 0.23529411764705882
newmtl m23
Kd 0.9803921568627451 0.9764705882352941 0.9764705882352941
newmtl m24
Kd 0.9803921568627451 0.9764705882352941 0.9764705882352941
newmtl m25
Kd 0.9803921568627451 0.9764705882352941 0.9764705882352941
newmtl m26
Kd 0.9803921568627451 0.9764705882352941 0.9764705882352941
newmtl m27
Kd 0.9803921568627451 0.9764705882352941 0.9764705882352941
newmtl m28
Kd 0.9803921568627451 0.9764705882352941 0.9764705882352941
newmtl m29
Kd 0.9803921568627451 0.9764705882352941 0.9764705882352941
newmtl m30
Kd 0.9803921568627451 0.9764705882352941 0.9764705882352941
