newmtl m0
Kd 0.0 0.0 0.00392156862745098
newmtl m1
Kd 0.0 0.0 0.00392156862745098
newmtl m2
Kd 0.4392156862745098 0.3254901960784314 0.13333333333333333
newmtl m3
Kd 0.4392156862745098 0.3254901960784314 0.13333333333333333
newmtl m4
Kd 0.4392156862745098 0.3254901960784314 0.13333333333333333
newmtl m5
Kd 0.4392156862745098 0.3254901960784314 0.13333333333333333
newmtl m6
Kd 0.4392156862745098 0.3254901960784314 0.13333333333333333
newmtl m7
Kd 0.4392156862745098 0.3254901960784314 0.13333333333333333
newmtl m8
Kd 0.4392156862745098 0.3254901960784314 0.13333333333333333
newmtl m9
Kd 0.4392156862745098 0.3254901960784314 0.13333333333333333
newmtl m10
Kd 0.4392156862745098 0.3254901960784314 0.13333333333333333
newmtl m11
Kd 0.4392156862745098 0.3254901960784314 0.13333333333333333
newmtl m12
Kd 0.4392156862745098 0.3254901960784314 0.13333333333333333
newmtl m13
map_Kd sprite/476-0.png
newmtl m14
map_Kd sprite/476-0.png
newmtl m15
Kd 0.4392156862745098 0.3254901960784314 0.13333333333333333
newmtl m16
Kd 0.4392156862745098 0.3254901960784314 0.13333333333333333
newmtl m17
Kd 0.4392156862745098 0.3254901960784314 0.13333333333333333
newmtl m18
Kd 0.4392156862745098 0.3254901960784314 0.13333333333333333
newmtl m19
Kd 0.4392156862745098 0.3254901960784314 0.13333333333333333
newmtl m20
Kd 0.4392156862745098 0.3254901960784314 0.13333333333333333
newmtl m21
Kd 0.4392156862745098 0.3254901960784314 0.13333333333333333
newmtl m22
Kd 0.4392156862745098 0.3254901960784314 0.13333333333333333
newmtl m23
Kd 0.4392156862745098 0.3254901960784314 0.13333333333333333
newmtl m24
Kd 0.4392156862745098 0.3254901960784314 0.13333333333333333
newmtl m25
Kd 0.4392156862745098 0.3254901960784314 0.13333333333333333
newmtl m26
Kd 0.4392156862745098 0.3254901960784314 0.13333333333333333
newmtl m27
Kd 0.4392156862745098 0.3254901960784314 0.13333333333333333
newmtl m28
Kd 0.4392156862745098 0.3254901960784314 0.13333333333333333
newmtl m29
Kd 0.4392156862745098 0.3254901960784314 0.13333333333333333
newmtl m30
Kd 0.4392156862745098 0.3254901960784314 0.13333333333333333
newmtl m31
Kd 0.4392156862745098 0.3254901960784314 0.13333333333333333
newmtl m32
Kd 0.4392156862745098 0.3254901960784314 0.13333333333333333
newmtl m33
Kd 0.4392156862745098 0.3254901960784314 0.13333333333333333
newmtl m34
Kd 0.4392156862745098 0.3254901960784314 0.13333333333333333
newmtl m35
Kd 0.4392156862745098 0.3254901960784314 0.13333333333333333
newmtl m36
Kd 0.4392156862745098 0.3254901960784314 0.13333333333333333
newmtl m37
map_Kd sprite/476-0.png
newmtl m38
map_Kd sprite/476-0.png
newmtl m39
Kd 0.4392156862745098 0.3254901960784314 0.13333333333333333
newmtl m40
Kd 0.4392156862745098 0.3254901960784314 0.13333333333333333
newmtl m41
map_Kd sprite/476-0.png
newmtl m42
map_Kd sprite/476-0.png
newmtl m43
map_Kd sprite/476-0.png
newmtl m44
map_Kd sprite/476-0.png
newmtl m45
map_Kd sprite/476-0.png
newmtl m46
map_Kd sprite/476-0.png
newmtl m47
Kd 0.4392156862745098 0.3254901960784314 0.13333333333333333
newmtl m48
Kd 0.4392156862745098 0.3254901960784314 0.13333333333333333
newmtl m49
Kd 0.4392156862745098 0.3254901960784314 0.13333333333333333
newmtl m50
Kd 0.4392156862745098 0.3254901960784314 0.13333333333333333
newmtl m51
Kd 0.4392156862745098 0.3254901960784314 0.13333333333333333
newmtl m52
Kd 0.4392156862745098 0.3254901960784314 0.13333333333333333
newmtl m53
Kd 0.4392156862745098 0.3254901960784314 0.13333333333333333
