mtllib 6321.mtl
o runescapemodel
v 60 0 -44
v 40 0 -60
v 48 0 -48
v 48 0 8
v 57 0 13
v 64 0 -64
v -60 0 -64
v -28 0 -52
v 8 0 -36
v 28 0 -20
v 44 -6 8
v 56 -6 44
v 60 0 44
v 64 0 64
v -64 -6 -64
v -36 -12 -44
v 4 -14 -32
v 24 -10 -16
v 32 -12 -4
v 40 -58 0
v 44 -16 -4
v -60 -48 -60
v -48 -10 -56
v -44 -50 -52
v -40 -12 -56
v -28 -46 -44
v -20 -12 -44
v -8 -50 -40
v -4 -14 -44
v 12 -42 -32
v 16 -14 -24
v 16 -54 -20
v 20 -14 -24
v 28 -44 -12
v 32 -12 -16
v 16 -14 -36
v -20 -12 -48
v -54 -10 -60
v 48 -45 20
v 48 -12 36
v 52 -58 40
v 60 -16 36
v 52 -12 16
v 64 -5 64
v 56 -56 56
v 60 -9 48
vn 0 -1280 0
vn 0 -1024 0
vn 0 -1792 0
vn -593 -1420 -267
vn 0 -1280 0
vn 0 -1024 0
vn -87 -826 -234
vn -318 -991 -815
vn -245 -697 -404
vn -666 -979 -607
vn -960 -549 -573
vn -1092 -528 -555
vn -415 -789 -110
vn -449 -652 -137
vn -274 15 -435
vn -216 209 -469
vn -699 21 -960
vn -822 -165 -585
vn -333 -19 -212
vn 70 59 53
vn 247 45 237
vn 119 25 221
vn -238 277 16
vn 54 59 154
vn 235 59 335
vn 188 72 -8
vn 132 350 -188
vn 92 78 166
vn 207 66 394
vn 33 99 32
vn -197 210 -319
vn 49 41 180
vn 233 58 356
vn 34 69 113
vn 247 61 254
vn 173 59 242
vn 188 72 248
vn 231 36 451
vn 157 82 113
vn -378 -104 -69
vn 24 49 -66
vn 205 49 115
vn 410 67 145
vn -228 8 -134
vn 170 54 155
vn 407 76 248
usemtl m0
f 1 2 3

usemtl m1
f 1 3 4

usemtl m2
f 1 4 5

usemtl m3
f 1 5 6

usemtl m4
f 1 6 2

usemtl m5
f 2 6 7

usemtl m6
f 2 7 3

usemtl m7
f 3 7 8

usemtl m8
f 3 8 9

usemtl m9
f 3 9 10

usemtl m10
f 3 10 4

usemtl m11
f 4 10 11

usemtl m12
f 4 11 12

usemtl m13
f 4 12 13

usemtl m14
f 4 13 5

usemtl m15
f 5 13 14

usemtl m16
f 5 14 6

usemtl m17
f 7 15 8

usemtl m18
f 8 15 16

usemtl m19
f 8 16 17

usemtl m20
f 8 17 9

usemtl m21
f 9 17 10

usemtl m22
f 10 17 18

usemtl m23
f 10 18 11

usemtl m24
f 11 18 19

usemtl m25
f 11 19 20

usemtl m26
f 11 20 21

usemtl m27
f 21 20 19

usemtl m28
f 15 22 23

usemtl m29
f 15 23 16

usemtl m30
f 16 23 24

usemtl m31
f 16 24 25

usemtl m32
f 25 24 23

usemtl m33
f 16 26 27

usemtl m34
f 16 27 17

usemtl m35
f 17 27 28

usemtl m36
f 17 28 29

usemtl m37
f 29 28 27

usemtl m38
f 17 30 31

usemtl m39
f 17 31 18

usemtl m40
f 18 31 32

usemtl m41
f 18 32 33

usemtl m42
f 33 32 31

usemtl m43
f 18 34 19

usemtl m44
f 19 34 35

usemtl m45
f 35 34 18

usemtl m46
f 30 17 36

usemtl m47
f 30 36 31

usemtl m48
f 26 16 37

usemtl m49
f 26 37 27

usemtl m50
f 22 15 38

usemtl m51
f 22 38 23

usemtl m52
f 11 39 40

usemtl m53
f 11 40 12

usemtl m54
f 12 40 41

usemtl m55
f 12 41 42

usemtl m56
f 42 41 40

usemtl m57
f 39 11 43

usemtl m58
f 39 43 40

usemtl m59
f 44 12 45

usemtl m60
f 44 45 46

usemtl m61
f 46 45 12

usemtl m62
f 44 14 12

usemtl m63
f 12 14 13

