mtllib 6502.mtl
o runescapemodel
v 3 7 -18
v 4 4 -20
v 4 7 -23
v 4 3 -26
v 4 7 -29
v 4 6 -36
v 4 3 -34
v 3 5 -43
v 12 5 4
v 14 2 6
v 14 2 1
v 12 5 1
v 12 14 5
v 9 5 4
v 7 2 6
v 9 5 1
v 7 2 1
v 12 8 15
v 14 4 16
v 14 4 11
v 12 8 11
v 12 16 11
v 9 8 15
v 7 4 16
v 9 8 11
v 7 4 11
v 15 19 -7
v 15 20 -15
v 15 32 -12
v 15 28 2
v 3 18 -5
v 7 17 3
v 15 7 -10
v 15 14 -20
v 3 21 -17
v 3 34 -14
v 10 43 -4
v 10 29 7
v 12 15 7
v 3 26 4
v -9 19 -7
v -6 14 5
v -1 17 3
v 3 7 -7
v 7 12 0
v 3 41 -7
v 3 44 -7
v 3 55 -8
v 7 53 -6
v 7 47 -2
v 3 29 7
v 7 24 9
v 7 20 6
v 3 15 -22
v -9 20 -15
v -9 32 -12
v -4 43 -4
v 3 40 -8
v -1 24 9
v -1 20 6
v -9 27 3
v -9 14 -20
v -9 7 -10
v -6 9 0
v -6 5 4
v -3 5 4
v -1 12 0
v 3 6 -8
v 12 9 0
v 7 54 -4
v 7 52 5
v 7 47 4
v 3 46 6
v 3 44 2
v -4 37 4
v -6 16 11
v -6 8 15
v -3 8 15
v -3 8 11
v -6 8 11
v -6 15 7
v 3 56 -3
v 3 53 6
v 2 7 -23
v 2 4 -20
v 2 7 -29
v 2 3 -26
v 2 3 -34
v 2 6 -36
v -6 5 1
v -8 2 1
v -8 2 6
v -3 5 1
v -1 2 1
v -1 2 6
v -8 4 11
v -8 4 16
v -1 4 11
v -1 4 16
v -1 47 -2
v -1 47 4
v -1 54 -4
v -1 53 -6
v -1 52 5
v 9 54 -3
v 9 52 0
v 9 51 -3
v -3 51 -3
v -3 52 0
v -3 54 -3
v 3 43 -9
v 3 48 -8
v 3 47 -10
v 3 52 -8
v 3 51 -10
vn 0 1028 676
vn 512 -51 -51
vn 768 -51 -51
vn 1024 0 0
vn 512 0 0
vn 768 22 33
vn 512 22 33
vn 0 44 66
vn 699 -563 -701
vn 213 -285 -215
vn 443 -295 256
vn 742 -89 768
vn 979 -93 -750
vn -580 -240 -728
vn -443 -591 -445
vn -962 -91 677
vn -213 -142 512
vn 728 -482 -748
vn 232 -180 -256
vn 472 -236 256
vn 752 8 736
vn 1031 -319 -892
vn -438 -365 -726
vn -472 -364 -512
vn -1043 56 672
vn -232 -116 512
vn 1132 -277 -384
vn 908 -278 684
vn 967 -504 297
vn 872 200 -345
vn -309 -38 -961
vn -745 -313 -589
vn 1126 800 -38
vn 465 -13 752
vn -6 -656 1318
vn 70 -693 1280
vn 1045 -547 763
vn 764 -743 -1136
vn 338 499 892
vn 84 1190 -146
vn -1332 214 -545
vn -538 -377 -331
vn 614 -47 -788
vn 186 147 -422
vn -805 352 -254
vn -71 -517 1042
vn -107 59 1197
vn 226 -603 898
vn 723 -278 206
vn 1588 51 -758
vn -250 -175 -1312
vn -620 -110 -893
vn -807 467 164
vn -45 -257 1036
vn -904 -383 633
vn -687 -540 834
vn -1339 -563 347
vn 0 0 0
vn 406 -24 -527
vn 837 541 779
vn -1090 131 2
vn -676 148 558
vn -517 903 -58
vn -837 347 131
vn -633 -301 -721
vn 948 -503 -761
vn 805 743 139
vn -109 1138 -321
vn 388 607 195
vn 893 -660 99
vn 765 -409 -383
vn 486 307 -487
vn 82 672 -894
vn -14 285 -824
vn -925 -587 -1059
vn -779 -267 -255
vn -839 -382 -713
vn 984 -391 -780
vn 496 20 748
vn -649 -17 705
vn -789 133 245
vn -37 -1355 5
vn -19 -641 -945
vn -512 -51 -51
vn -768 -51 -51
vn -1024 0 0
vn -512 0 0
vn -768 22 33
vn -512 22 33
vn -661 -195 768
vn -213 -142 512
vn -443 -591 -445
vn 486 -44 768
vn 443 -295 256
vn 213 -285 -215
vn -232 -116 512
vn -472 -364 -512
vn 472 -236 256
vn 232 -180 -256
vn -890 -104 -455
vn -894 463 -329
vn -1221 -798 -151
vn -667 -477 662
vn -516 -198 -531
vn 256 0 0
vn 256 0 0
vn 256 0 0
vn -256 0 0
vn -256 0 0
vn -256 0 0
vn 0 0 0
vn 0 0 0
vn 0 0 0
vn 0 0 0
vn 0 0 0
usemtl m0
f 1 2 3

usemtl m1
f 3 2 4

usemtl m2
f 3 4 5

usemtl m3
f 5 4 6

usemtl m4
f 6 4 7

usemtl m5
f 6 7 8

usemtl m6
f 9 10 11

usemtl m7
f 9 11 12

usemtl m8
f 9 12 13

usemtl m9
f 9 13 14

usemtl m10
f 9 14 15

usemtl m11
f 9 15 10

usemtl m12
f 15 14 16

usemtl m13
f 15 16 17

usemtl m14
f 17 16 12

usemtl m15
f 17 12 11

usemtl m16
f 18 19 20

usemtl m17
f 18 20 21

usemtl m18
f 18 21 22

usemtl m19
f 18 22 23

usemtl m20
f 18 23 24

usemtl m21
f 18 24 19

usemtl m22
f 24 23 25

usemtl m23
f 24 25 26

usemtl m24
f 26 25 21

usemtl m25
f 26 21 20

usemtl m26
f 27 28 29

usemtl m27
f 27 29 30

usemtl m28
f 27 30 31

usemtl m29
f 27 31 32

usemtl m30
f 27 32 13

usemtl m31
f 27 13 33

usemtl m32
f 27 33 28

usemtl m33
f 28 33 34

usemtl m34
f 28 34 35

usemtl m35
f 28 35 36

usemtl m36
f 28 36 29

usemtl m37
f 29 36 37

usemtl m38
f 29 37 38

usemtl m39
f 29 38 30

usemtl m40
f 30 38 22

usemtl m41
f 30 22 39

usemtl m42
f 30 39 40

usemtl m43
f 30 40 31

usemtl m44
f 31 40 41

usemtl m45
f 31 41 42

usemtl m46
f 31 42 43

usemtl m47
f 31 43 44

usemtl m48
f 31 44 45

usemtl m49
f 31 45 32

usemtl m50
f 32 45 16

usemtl m51
f 32 16 14

usemtl m52
f 32 14 13

usemtl m53
f 36 46 37

usemtl m54
f 37 46 47

usemtl m55
f 37 47 48

usemtl m56
f 37 48 49

usemtl m57
f 37 49 50

usemtl m58
f 37 50 38

usemtl m59
f 38 50 51

usemtl m60
f 38 51 52

usemtl m61
f 38 52 22

usemtl m62
f 22 52 23

usemtl m63
f 23 52 25

usemtl m64
f 25 52 53

usemtl m65
f 25 53 39

usemtl m66
f 25 39 21

usemtl m67
f 21 39 22

usemtl m68
f 35 34 54

usemtl m69
f 35 54 55

usemtl m70
f 35 55 56

usemtl m71
f 35 56 36

usemtl m72
f 36 56 46

usemtl m73
f 46 56 57

usemtl m74
f 46 57 47

usemtl m75
f 46 47 58

usemtl m76
f 46 58 47

usemtl m77
f 40 39 53

usemtl m78
f 40 53 51

usemtl m79
f 40 51 59

usemtl m80
f 40 59 60

usemtl m81
f 40 60 61

usemtl m82
f 40 61 41

usemtl m83
f 41 61 55

usemtl m84
f 41 55 62

usemtl m85
f 41 62 63

usemtl m86
f 41 63 64

usemtl m87
f 41 64 42

usemtl m88
f 42 64 65

usemtl m89
f 42 65 43

usemtl m90
f 43 65 66

usemtl m91
f 43 66 67

usemtl m92
f 43 67 44

usemtl m93
f 51 53 52

usemtl m94
f 68 33 69

usemtl m95
f 68 69 45

usemtl m96
f 45 69 16

usemtl m97
f 16 69 12

usemtl m98
f 12 69 13

usemtl m99
f 13 69 33

usemtl m100
f 34 33 1

usemtl m101
f 34 1 54

usemtl m102
f 54 1 62

usemtl m103
f 54 62 55

usemtl m104
f 1 33 68

usemtl m105
f 1 68 63

usemtl m106
f 1 63 62

usemtl m107
f 50 49 70

usemtl m108
f 50 70 71

usemtl m109
f 50 71 72

usemtl m110
f 50 72 73

usemtl m111
f 50 73 74

usemtl m112
f 50 74 51

usemtl m113
f 51 74 75

usemtl m114
f 51 75 76

usemtl m115
f 51 76 59

usemtl m116
f 59 76 77

usemtl m117
f 59 77 78

usemtl m118
f 59 78 60

usemtl m119
f 60 78 79

usemtl m120
f 60 79 80

usemtl m121
f 60 80 81

usemtl m122
f 60 81 61

usemtl m123
f 61 81 75

usemtl m124
f 61 75 57

usemtl m125
f 61 57 56

usemtl m126
f 61 56 55

usemtl m127
f 48 82 70

usemtl m128
f 48 70 49

usemtl m129
f 82 83 71

usemtl m130
f 82 71 70

usemtl m131
f 83 73 72

usemtl m132
f 83 72 71

usemtl m133
f 84 85 1

usemtl m134
f 85 84 86

usemtl m135
f 85 86 87

usemtl m136
f 87 86 88

usemtl m137
f 88 86 89

usemtl m138
f 88 89 8

usemtl m139
f 90 91 92

usemtl m140
f 90 92 65

usemtl m141
f 90 65 64

usemtl m142
f 90 64 67

usemtl m143
f 90 67 93

usemtl m144
f 90 93 91

usemtl m145
f 91 93 94

usemtl m146
f 94 93 66

usemtl m147
f 94 66 95

usemtl m148
f 95 66 92

usemtl m149
f 92 66 65

usemtl m150
f 80 96 97

usemtl m151
f 80 97 77

usemtl m152
f 80 77 81

usemtl m153
f 81 77 76

usemtl m154
f 81 76 75

usemtl m155
f 98 79 78

usemtl m156
f 98 78 99

usemtl m157
f 99 78 97

usemtl m158
f 97 78 77

usemtl m159
f 79 98 96

usemtl m160
f 79 96 80

usemtl m161
f 67 64 63

usemtl m162
f 67 63 68

usemtl m163
f 66 93 67

usemtl m164
f 100 57 75

usemtl m165
f 100 75 74

usemtl m166
f 100 74 101

usemtl m167
f 100 101 102

usemtl m168
f 100 102 57

usemtl m169
f 57 102 103

usemtl m170
f 57 103 47

usemtl m171
f 47 103 48

usemtl m172
f 48 103 82

usemtl m173
f 82 103 102

usemtl m174
f 82 102 83

usemtl m175
f 83 102 104

usemtl m176
f 83 104 73

usemtl m177
f 73 104 101

usemtl m178
f 73 101 74

usemtl m179
f 101 104 102

usemtl m180
f 105 106 107

usemtl m181
f 108 109 110

usemtl m182
f 111 47 112

usemtl m183
f 111 112 47

usemtl m184
f 113 112 114

usemtl m185
f 113 114 112

usemtl m186
f 115 114 48

usemtl m187
f 115 48 114

