newmtl m0
Kd 0.4588235294117647 0.4588235294117647 0.40784313725490196
newmtl m1
Kd 0.4588235294117647 0.4588235294117647 0.40784313725490196
newmtl m2
Kd 0.30980392156862746 0.2784313725490196 0.27450980392156865
newmtl m3
Kd 0.30980392156862746 0.2784313725490196 0.27450980392156865
newmtl m4
Kd 0.30980392156862746 0.2784313725490196 0.27450980392156865
newmtl m5
Kd 0.4235294117647059 0.4235294117647059 0.3803921568627451
newmtl m6
Kd 0.4235294117647059 0.4235294117647059 0.3803921568627451
newmtl m7
Kd 0.4588235294117647 0.4588235294117647 0.40784313725490196
newmtl m8
Kd 0.4588235294117647 0.4588235294117647 0.40784313725490196
newmtl m9
Kd 0.4235294117647059 0.4235294117647059 0.3803921568627451
newmtl m10
Kd 0.4235294117647059 0.4235294117647059 0.3803921568627451
newmtl m11
Kd 0.4588235294117647 0.4588235294117647 0.40784313725490196
newmtl m12
Kd 0.4588235294117647 0.4588235294117647 0.40784313725490196
newmtl m13
Kd 0.4235294117647059 0.4235294117647059 0.3803921568627451
newmtl m14
Kd 0.4235294117647059 0.4235294117647059 0.3803921568627451
newmtl m15
Kd 0.4588235294117647 0.4588235294117647 0.40784313725490196
newmtl m16
Kd 0.4588235294117647 0.4588235294117647 0.40784313725490196
newmtl m17
Kd 0.4588235294117647 0.4588235294117647 0.40784313725490196
newmtl m18
Kd 0.4588235294117647 0.4588235294117647 0.40784313725490196
newmtl m19
Kd 0.4235294117647059 0.4235294117647059 0.3803921568627451
newmtl m20
Kd 0.4235294117647059 0.4235294117647059 0.3803921568627451
newmtl m21
Kd 0.4588235294117647 0.4588235294117647 0.40784313725490196
newmtl m22
Kd 0.4588235294117647 0.4588235294117647 0.40784313725490196
newmtl m23
Kd 0.4235294117647059 0.4235294117647059 0.3803921568627451
newmtl m24
Kd 0.4235294117647059 0.4235294117647059 0.3803921568627451
newmtl m25
Kd 0.4588235294117647 0.4588235294117647 0.40784313725490196
newmtl m26
Kd 0.4588235294117647 0.4588235294117647 0.40784313725490196
newmtl m27
Kd 0.4235294117647059 0.4235294117647059 0.3803921568627451
newmtl m28
Kd 0.4235294117647059 0.4235294117647059 0.3803921568627451
newmtl m29
Kd 0.4588235294117647 0.4588235294117647 0.40784313725490196
newmtl m30
Kd 0.4588235294117647 0.4588235294117647 0.40784313725490196
newmtl m31
Kd 0.4235294117647059 0.4235294117647059 0.3803921568627451
newmtl m32
Kd 0.4235294117647059 0.4235294117647059 0.3803921568627451
newmtl m33
Kd 0.4235294117647059 0.4235294117647059 0.3803921568627451
newmtl m34
Kd 0.4235294117647059 0.4235294117647059 0.3803921568627451
newmtl m35
Kd 0.30980392156862746 0.2784313725490196 0.27450980392156865
newmtl m36
Kd 0.30980392156862746 0.2784313725490196 0.27450980392156865
newmtl m37
Kd 0.30980392156862746 0.2784313725490196 0.27450980392156865
newmtl m38
Kd 0.30980392156862746 0.2784313725490196 0.27450980392156865
newmtl m39
Kd 0.30980392156862746 0.2784313725490196 0.27450980392156865
newmtl m40
Kd 0.30980392156862746 0.2784313725490196 0.27450980392156865
newmtl m41
Kd 0.30980392156862746 0.2784313725490196 0.27450980392156865
newmtl m42
Kd 0.30980392156862746 0.2784313725490196 0.27450980392156865
newmtl m43
Kd 0.30980392156862746 0.2784313725490196 0.27450980392156865
newmtl m44
Kd 0.30980392156862746 0.2784313725490196 0.27450980392156865
newmtl m45
Kd 0.30980392156862746 0.2784313725490196 0.27450980392156865
newmtl m46
Kd 0.30980392156862746 0.2784313725490196 0.27450980392156865
newmtl m47
Kd 0.30980392156862746 0.2784313725490196 0.27450980392156865
newmtl m48
Kd 0.30980392156862746 0.2784313725490196 0.27450980392156865
newmtl m49
Kd 0.30980392156862746 0.2784313725490196 0.27450980392156865
newmtl m50
Kd 0.30980392156862746 0.2784313725490196 0.27450980392156865
newmtl m51
Kd 0.30980392156862746 0.2784313725490196 0.27450980392156865
newmtl m52
Kd 0.30980392156862746 0.2784313725490196 0.27450980392156865
newmtl m53
Kd 0.30980392156862746 0.2784313725490196 0.27450980392156865
newmtl m54
Kd 0.30980392156862746 0.2784313725490196 0.27450980392156865
newmtl m55
Kd 0.30980392156862746 0.2784313725490196 0.27450980392156865
newmtl m56
Kd 0.30980392156862746 0.2784313725490196 0.27450980392156865
newmtl m57
Kd 0.30980392156862746 0.2784313725490196 0.27450980392156865
newmtl m58
Kd 0.30980392156862746 0.2784313725490196 0.27450980392156865
newmtl m59
Kd 0.30980392156862746 0.2784313725490196 0.27450980392156865
newmtl m60
Kd 0.30980392156862746 0.2784313725490196 0.27450980392156865
newmtl m61
Kd 0.30980392156862746 0.2784313725490196 0.27450980392156865
newmtl m62
Kd 0.30980392156862746 0.2784313725490196 0.27450980392156865
newmtl m63
Kd 0.30980392156862746 0.2784313725490196 0.27450980392156865
