mtllib 6640.mtl
o runescapemodel
v 32 102 -3
v 35 96 -5
v 27 96 -5
v 28 102 -3
v 28 102 1
v 32 102 1
v 35 94 4
v 33 92 2
v 33 93 -3
v 30 92 -3
v 27 94 4
v 30 91 2
v -32 102 1
v -28 102 1
v -28 102 -3
v -32 102 -3
v -35 96 -5
v -35 94 4
v -27 94 4
v -27 96 -5
v -30 92 -3
v -33 93 -3
v -33 92 2
v -30 91 2
v -25 114 -4
v -25 114 2
v -28 103 1
v -28 103 -3
v -32 114 -4
v -34 121 -8
v -23 117 -8
v -23 117 5
v -32 114 2
v -32 103 1
v -32 103 -3
v -34 121 5
v -33 128 -8
v -21 128 -8
v -24 134 2
v -21 128 5
v 28 103 -3
v 32 103 -3
v 32 103 1
v 28 103 1
v 25 114 2
v 25 114 -4
v 32 114 -4
v 32 114 2
v 33 121 5
v 22 117 5
v 22 117 -8
v 33 121 -8
v 40 116 1
v 23 134 -4
v 20 128 -8
v 23 134 2
v 16 151 6
v 19 148 -4
v 16 151 -6
v 29 134 -4
v 32 128 -8
v 20 128 5
v 32 128 5
v 29 134 2
v 29 141 5
v 21 140 5
v 26 153 6
v 26 153 -4
v 26 153 -9
v 43 123 -3
v -24 134 -4
v -18 151 6
v -20 142 5
v -30 144 5
v -30 134 2
v -33 128 5
v -30 134 -4
v 15 153 -3
v -26 154 7
v -18 151 -6
v -18 151 -4
v -26 154 -4
v -26 154 -9
vn 472 -872 466
vn 697 422 722
vn -707 43 753
vn -256 -379 245
vn -512 -768 -487
vn 240 -436 -240
vn 673 -28 -654
vn 528 868 -306
vn 424 810 327
vn -256 865 551
vn -609 518 -599
vn 2 772 -106
vn -473 -907 -501
vn 256 -378 -240
vn 512 -745 482
vn -236 -455 245
vn -676 -73 723
vn -717 506 -557
vn 705 63 -670
vn 617 456 766
vn 8 742 369
vn -519 810 576
vn -437 869 -16
vn 240 939 -247
vn 651 613 649
vn 684 588 -697
vn 498 414 -256
vn 250 626 512
vn -753 315 736
vn -569 343 649
vn 860 498 585
vn 584 450 -465
vn -801 388 -670
vn -256 558 -512
vn -512 279 256
vn -1249 104 -612
vn -728 -515 916
vn 464 -215 374
vn 1275 -32 -651
vn 150 -88 -537
vn -498 670 256
vn 256 302 512
vn 512 535 -256
vn -250 370 -512
vn -629 591 -694
vn -613 682 665
vn 927 446 784
vn 373 503 -978
vn 969 113 -1009
vn -718 525 -253
vn -624 542 786
vn 465 402 703
vn 167 159 -72
vn -883 -154 548
vn -464 -215 374
vn -1316 126 -887
vn -697 294 -271
vn -611 283 -181
vn -426 315 262
vn 679 -236 708
vn 632 -718 1030
vn -150 -88 -537
vn 215 -260 -563
vn 1399 -382 -190
vn 221 169 -577
vn -203 259 -810
vn 465 -63 -363
vn 759 -120 0
vn 196 31 238
vn 210 13 114
vn 953 -114 684
vn 681 220 -67
vn 174 178 -562
vn -85 129 -499
vn -1249 -439 -105
vn -215 -260 -563
vn -672 -256 708
vn -195 165 -45
vn -301 -45 -266
vn 303 186 494
vn 482 170 0
vn -755 -150 0
vn -191 21 238
usemtl m0
f 1 2 3

usemtl m1
f 1 3 4

usemtl m2
f 1 4 5

usemtl m3
f 1 5 6

usemtl m4
f 1 6 7

usemtl m5
f 1 7 2

usemtl m6
f 2 7 8

usemtl m7
f 2 8 9

usemtl m8
f 2 9 10

usemtl m9
f 2 10 3

usemtl m10
f 3 10 11

usemtl m11
f 3 11 5

usemtl m12
f 3 5 4

usemtl m13
f 7 6 5

usemtl m14
f 7 5 11

usemtl m15
f 7 11 8

usemtl m16
f 8 11 12

usemtl m17
f 8 12 9

usemtl m18
f 9 12 10

usemtl m19
f 10 12 11

usemtl m20
f 13 14 15

usemtl m21
f 13 15 16

usemtl m22
f 13 16 17

usemtl m23
f 13 17 18

usemtl m24
f 13 18 19

usemtl m25
f 13 19 14

usemtl m26
f 14 19 15

usemtl m27
f 15 19 20

usemtl m28
f 15 20 17

usemtl m29
f 15 17 16

usemtl m30
f 20 21 22

usemtl m31
f 20 22 17

usemtl m32
f 17 22 18

usemtl m33
f 18 22 23

usemtl m34
f 18 23 24

usemtl m35
f 18 24 19

usemtl m36
f 19 24 20

usemtl m37
f 20 24 21

usemtl m38
f 21 24 23

usemtl m39
f 21 23 22

usemtl m40
f 25 26 27

usemtl m41
f 25 27 28

usemtl m42
f 25 28 29

usemtl m43
f 25 29 30

usemtl m44
f 25 30 31

usemtl m45
f 25 31 26

usemtl m46
f 26 31 32

usemtl m47
f 26 32 33

usemtl m48
f 26 33 34

usemtl m49
f 26 34 27

usemtl m50
f 27 34 28

usemtl m51
f 28 34 35

usemtl m52
f 28 35 29

usemtl m53
f 29 35 33

usemtl m54
f 29 33 36

usemtl m55
f 29 36 30

usemtl m56
f 30 36 37

usemtl m57
f 30 37 31

usemtl m58
f 31 37 38

usemtl m59
f 31 38 39

usemtl m60
f 31 39 32

usemtl m61
f 32 39 40

usemtl m62
f 32 40 36

usemtl m63
f 32 36 33

usemtl m64
f 33 35 34

usemtl m65
f 41 42 43

usemtl m66
f 41 43 44

usemtl m67
f 41 44 45

usemtl m68
f 41 45 46

usemtl m69
f 41 46 42

usemtl m70
f 42 46 47

usemtl m71
f 42 47 43

usemtl m72
f 43 47 48

usemtl m73
f 43 48 44

usemtl m74
f 44 48 45

usemtl m75
f 45 48 49

usemtl m76
f 45 49 50

usemtl m77
f 45 50 46

usemtl m78
f 46 50 51

usemtl m79
f 46 51 47

usemtl m80
f 47 51 52

usemtl m81
f 47 52 49

usemtl m82
f 47 49 53

usemtl m83
f 47 53 48

usemtl m84
f 48 53 49

usemtl m85
f 54 55 56

usemtl m86
f 54 56 57

usemtl m87
f 54 57 58

usemtl m88
f 54 58 59

usemtl m89
f 54 59 60

usemtl m90
f 54 60 61

usemtl m91
f 54 61 55

usemtl m92
f 55 61 51

usemtl m93
f 55 51 56

usemtl m94
f 56 51 50

usemtl m95
f 56 50 62

usemtl m96
f 56 62 63

usemtl m97
f 56 63 64

usemtl m98
f 56 64 65

usemtl m99
f 56 65 66

usemtl m100
f 56 66 57

usemtl m101
f 57 66 67

usemtl m102
f 67 66 65

usemtl m103
f 67 65 64

usemtl m104
f 67 64 68

usemtl m105
f 68 64 60

usemtl m106
f 68 60 69

usemtl m107
f 69 60 59

usemtl m108
f 61 52 51

usemtl m109
f 52 61 70

usemtl m110
f 52 70 49

usemtl m111
f 49 70 61

usemtl m112
f 49 61 64

usemtl m113
f 49 64 63

usemtl m114
f 49 63 62

usemtl m115
f 49 62 50

usemtl m116
f 64 61 60

usemtl m117
f 39 38 71

usemtl m118
f 39 71 72

usemtl m119
f 39 72 73

usemtl m120
f 39 73 74

usemtl m121
f 39 74 75

usemtl m122
f 39 75 76

usemtl m123
f 39 76 40

usemtl m124
f 40 76 36

usemtl m125
f 36 76 75

usemtl m126
f 36 75 37

usemtl m127
f 37 75 77

usemtl m128
f 37 77 71

usemtl m129
f 37 71 38

usemtl m130
f 78 59 58

usemtl m131
f 79 74 73

usemtl m132
f 79 73 72

usemtl m133
f 71 80 81

usemtl m134
f 71 81 72

usemtl m135
f 82 83 77

usemtl m136
f 82 77 75

usemtl m137
f 82 75 79

usemtl m138
f 79 75 74

usemtl m139
f 77 83 80

usemtl m140
f 77 80 71

