mtllib 6774.mtl
o runescapemodel
v 10 197 29
v 4 193 30
v 4 192 26
v 10 196 25
v 1 205 28
v -8 199 29
v -1 191 30
v 4 182 31
v 4 181 27
v 1 204 24
v -8 198 25
v -1 190 26
v -2 182 31
v 9 178 32
v 9 177 28
v -2 174 33
v -2 181 27
v -2 173 29
v 3 202 26
v 5 199 28
v 20 220 18
v 16 220 18
v 19 226 13
v 15 226 13
v 19 226 -10
v 16 226 -9
v -18 226 -10
v -14 226 -10
v -19 226 13
v -13 226 13
v -18 220 18
v -15 220 18
v -3 198 28
v -1 202 25
v 11 8 47
v 26 8 44
v 27 14 14
v 10 14 14
v 9 0 43
v 28 0 41
v 31 0 18
v 5 0 18
v 27 11 -11
v 27 0 -8
v 9 11 -11
v 12 25 -4
v 25 25 -4
v 25 25 10
v 12 25 10
v 9 0 -8
v 15 111 1
v 16 65 1
v 16 65 7
v 15 111 7
v 23 111 1
v 20 65 1
v 20 65 7
v 23 111 7
v 29 65 -8
v 8 65 -8
v 8 65 16
v 29 65 16
v 31 52 18
v 31 52 -13
v 4 52 -13
v 5 52 18
v 37 125 -14
v 37 125 28
v -1 125 28
v -1 125 -14
v -12 226 -6
v 13 226 -6
v 9 218 -15
v -11 218 -16
v -28 220 -13
v -11 226 10
v -27 217 8
v -18 218 16
v -6 218 16
v 0 215 13
v 11 226 10
v 4 218 16
v 16 218 16
v 30 217 8
v 30 220 -13
v 31 191 -17
v 15 191 -22
v -16 192 -23
v -33 190 -16
v -36 222 -11
v -35 217 7
v -40 193 8
v -33 190 11
v -23 191 24
v -5 191 24
v 0 192 16
v 3 191 24
v 22 191 24
v 31 188 11
v 39 189 8
v 36 219 7
v 35 221 -1
v 40 193 -15
v 29 182 9
v 29 182 -8
v 12 181 -17
v -15 182 -15
v -29 182 -9
v -39 193 -15
v -50 214 -5
v -47 212 7
v -55 196 8
v -45 183 13
v -40 183 -12
v -19 143 -30
v -36 144 -20
v 20 143 -29
v 15 103 -18
v -16 94 -18
v -34 110 -8
v -43 143 11
v -29 182 9
v -22 182 17
v -11 182 17
v 0 182 15
v 7 182 17
v 21 182 17
v 30 140 39
v 44 143 11
v 39 143 -18
v -30 140 34
v -14 139 43
v 1 138 45
v 15 138 43
v -40 110 16
v -25 92 38
v -19 73 36
v 0 62 35
v 8 96 39
v 40 109 30
v 41 110 16
v 39 108 -18
v -46 163 -7
v -45 148 -10
v -63 150 -10
v -62 165 -8
v -47 163 6
v -49 148 10
v -53 121 -4
v -62 119 -4
v -62 119 6
v -63 150 8
v -62 165 5
v -64 186 -12
v -58 198 -10
v -58 187 13
v -53 121 6
v -46 106 -8
v -64 104 -8
v -64 104 9
v -46 106 9
v -48 100 -7
v -58 99 -7
v -58 99 8
v -48 100 8
v 54 197 8
v 47 214 7
v 44 183 13
v 59 186 13
v 54 201 -10
v 49 217 -5
v 62 165 -8
v 45 163 -7
v 38 183 -12
v 62 185 -12
v 62 165 5
v 62 150 8
v 62 150 -10
v 44 148 -10
v 46 163 6
v 48 148 10
v 52 121 6
v 61 119 6
v 61 119 -4
v 52 121 -4
v 45 106 -8
v 45 106 9
v 63 104 9
v 63 104 -8
v 57 99 -7
v 47 100 -7
v 47 100 8
v 57 99 8
v -26 11 -11
v -24 25 -4
v -11 25 -4
v -8 11 -11
v -26 0 -8
v -30 0 18
v -26 14 14
v -24 25 10
v -31 52 -13
v -3 52 -13
v -4 52 18
v -11 25 10
v -9 14 14
v -8 0 -8
v -10 8 47
v -8 0 43
v -4 0 18
v -25 8 43
v -27 0 39
v -31 52 18
v -28 65 -8
v -7 65 -8
v -7 65 16
v -28 65 16
v -30 74 -7
v -4 75 -6
v -4 74 24
v -30 73 23
v -28 86 -5
v -7 86 -5
v -7 86 21
v -28 86 20
v -33 125 -6
v -34 125 21
v 10 197 29
v 10 197 29
v 10 197 29
vn 474 175 -307
vn 651 71 -1068
vn 546 408 -102
vn 489 -172 43
vn 211 -672 -359
vn -495 -317 -446
vn -666 231 -844
vn 581 -507 -670
vn 679 -196 49
vn -118 -606 151
vn -537 123 -30
vn -708 112 -29
vn -768 -208 -750
vn 167 -322 -457
vn 334 -392 98
vn -512 -62 -250
vn -768 -27 6
vn -256 0 0
vn -30 -231 -456
vn -30 -126 -220
vn -30 -396 -654
vn 0 -435 -632
vn 0 -586 -396
vn 0 -677 -198
vn 0 -768 0
vn 0 -256 0
vn 0 -256 0
vn 0 -256 0
vn 0 -678 -200
vn 0 -588 -400
vn 0 -438 -634
vn 60 -402 -648
vn 60 -236 -448
vn 60 -130 -214
vn -195 -433 -333
vn 571 -171 -567
vn 1005 -745 -101
vn -1233 -556 -64
vn -415 314 -516
vn 274 546 -273
vn 992 212 483
vn -477 413 246
vn 753 -257 755
vn 253 144 532
vn -757 -82 710
vn -744 -66 694
vn 755 20 719
vn 752 -37 -726
vn -749 21 -734
vn -498 -10 275
vn -849 513 604
vn -256 -507 512
vn -512 -502 -256
vn -425 112 -796
vn 438 -127 686
vn 512 -224 256
vn 256 -240 -512
vn 875 352 -398
vn 506 -1193 239
vn -245 -770 477
vn -494 -939 -261
vn 253 -884 -506
vn 756 83 -743
vn 753 -30 720
vn -740 8 709
vn -743 71 -766
vn 363 737 348
vn 181 607 -284
vn 117 710 -389
vn 23 488 671
vn -89 -829 484
vn 204 -847 293
vn 109 -760 1229
vn -9 -601 1055
vn -340 -1293 744
vn -196 -1050 -722
vn -538 -786 -862
vn -487 -556 -891
vn 283 -541 -1016
vn 161 -538 -944
vn 37 -813 -662
vn -574 -471 -782
vn 224 -563 -1054
vn 691 -1032 -1072
vn 83 -890 388
vn 982 565 1055
vn 259 221 1317
vn -201 259 1339
vn -650 574 1090
vn -317 -805 531
vn -61 -767 -931
vn 298 175 -1034
vn -1293 636 -704
vn -535 187 -1125
vn 519 334 -1074
vn -214 130 -846
vn -530 154 -1062
vn 502 264 -1141
vn 892 523 -653
vn -325 413 -944
vn -119 -675 -908
vn 224 -871 374
vn -102 -97 1223
vn 1268 -54 -430
vn 1003 121 619
vn 305 157 1284
vn -253 242 1257
vn -993 188 596
vn -194 324 1192
vn -486 -452 323
vn -656 -680 -509
vn -401 -468 -1071
vn 762 47 -814
vn 723 359 638
vn -311 -80 1376
vn -1147 -44 710
vn 258 -118 1403
vn 37 196 740
vn -276 192 641
vn -658 138 297
vn -1340 -180 -245
vn -1242 166 -399
vn -553 185 -1073
vn 148 7 -1186
vn -287 -208 -1161
vn -82 81 -1233
vn 531 25 -1110
vn 790 -291 -1093
vn 1420 -239 -163
vn 1103 -216 742
vn -869 -306 -1045
vn -242 -351 -1354
vn -52 -325 -1389
vn 97 -311 -1394
vn -684 42 -201
vn -340 32 -614
vn -40 84 -759
vn -49 75 -747
vn 74 85 -725
vn 562 24 -370
vn 759 49 42
vn 397 69 482
vn 784 61 665
vn 762 125 634
vn -749 -35 755
vn -747 70 751
vn 701 137 -817
vn 672 32 -846
vn 721 -80 695
vn -771 -18 746
vn -778 -97 -759
vn -833 -30 -757
vn -821 -51 -796
vn -793 -48 631
vn -991 -570 258
vn -721 -181 -866
vn 671 -177 -759
vn 710 -109 757
vn -599 275 747
vn -669 168 -760
vn 710 1 -756
vn 543 718 256
vn -131 540 509
vn -274 950 -256
vn 278 425 -509
vn 381 -460 -1008
vn 676 -633 -447
vn -774 96 -817
vn 731 -180 -793
vn 1024 -524 358
vn 331 -481 341
vn 747 81 753
vn -779 69 658
vn -699 342 639
vn 802 -69 688
vn 825 -55 -765
vn 833 5 -757
vn 750 -19 756
vn -762 125 634
vn -712 141 -815
vn -672 32 -846
vn -671 -177 -759
vn 778 -97 -759
vn 771 -18 746
vn -721 -80 695
vn -710 -109 757
vn -710 1 -756
vn 669 168 -760
vn 599 275 747
vn 131 540 509
vn -543 718 256
vn -278 425 -509
vn 274 950 -256
vn -753 -257 755
vn -753 29 719
vn 744 -66 694
vn 757 -82 710
vn -253 144 532
vn -993 218 479
vn -1008 -745 -104
vn -748 -19 -726
vn -745 -32 721
vn 740 7 710
vn 743 72 -766
vn 749 21 -734
vn 1233 -556 -64
vn 498 -10 275
vn 178 -431 -331
vn 378 335 -501
vn 477 413 246
vn -612 -144 -558
vn -298 571 -265
vn -746 56 -743
vn -740 -231 744
vn 733 -155 731
vn 737 248 -645
vn -747 150 -696
vn -735 -23 762
vn 756 -161 760
vn 714 144 -690
vn -765 259 -632
vn -822 -19 748
vn 761 -1 756
vn 673 -106 -753
vn -794 -79 -744
vn -569 84 257
vn -317 82 -493
vn 0 0 0
vn 0 0 0
vn 0 0 0
usemtl m0
f 1 2 3

usemtl m1
f 1 3 4

usemtl m2
f 1 4 5

usemtl m3
f 1 5 2

usemtl m4
f 2 5 6

usemtl m5
f 2 6 7

usemtl m6
f 2 7 8

usemtl m7
f 2 8 9

usemtl m8
f 2 9 3

usemtl m9
f 5 4 10

usemtl m10
f 5 10 6

usemtl m11
f 6 10 11

usemtl m12
f 6 11 7

usemtl m13
f 7 11 12

usemtl m14
f 7 12 13

usemtl m15
f 7 13 8

usemtl m16
f 8 13 14

usemtl m17
f 8 14 15

usemtl m18
f 8 15 9

usemtl m19
f 13 16 14

usemtl m20
f 16 13 17

usemtl m21
f 16 17 18

usemtl m22
f 12 17 13

usemtl m23
f 19 20 21

usemtl m24
f 19 21 22

usemtl m25
f 22 21 23

usemtl m26
f 22 23 24

usemtl m27
f 24 23 25

usemtl m28
f 24 25 26

usemtl m29
f 26 25 27

usemtl m30
f 26 27 28

usemtl m31
f 28 27 29

usemtl m32
f 28 29 30

usemtl m33
f 30 29 31

usemtl m34
f 30 31 32

usemtl m35
f 32 31 33

usemtl m36
f 32 33 34

usemtl m37
f 35 36 37

usemtl m38
f 35 37 38

usemtl m39
f 35 38 39

usemtl m40
f 35 39 36

usemtl m41
f 36 39 40

usemtl m42
f 36 40 41

usemtl m43
f 36 41 37

usemtl m44
f 37 41 38

usemtl m45
f 38 41 42

usemtl m46
f 38 42 39

usemtl m47
f 39 42 40

usemtl m48
f 40 42 41

usemtl m49
f 43 37 41

usemtl m50
f 43 41 44

usemtl m51
f 43 44 45

usemtl m52
f 43 45 46

usemtl m53
f 43 46 47

usemtl m54
f 43 47 37

usemtl m55
f 37 47 48

usemtl m56
f 37 48 38

usemtl m57
f 38 48 49

usemtl m58
f 38 49 45

usemtl m59
f 38 45 50

usemtl m60
f 38 50 42

usemtl m61
f 45 44 50

usemtl m62
f 51 52 53

usemtl m63
f 51 53 54

usemtl m64
f 51 54 55

usemtl m65
f 51 55 52

usemtl m66
f 52 55 56

usemtl m67
f 52 56 57

usemtl m68
f 52 57 53

usemtl m69
f 53 57 54

usemtl m70
f 54 57 58

usemtl m71
f 54 58 55

usemtl m72
f 55 58 56

usemtl m73
f 56 58 57

usemtl m74
f 56 57 59

usemtl m75
f 56 59 52

usemtl m76
f 52 59 60

usemtl m77
f 52 60 61

usemtl m78
f 52 61 53

usemtl m79
f 53 61 62

usemtl m80
f 53 62 57

usemtl m81
f 57 62 59

usemtl m82
f 59 62 63

usemtl m83
f 59 63 64

usemtl m84
f 59 64 60

usemtl m85
f 60 64 65

usemtl m86
f 60 65 61

usemtl m87
f 61 65 66

usemtl m88
f 61 66 62

usemtl m89
f 62 66 63

usemtl m90
f 63 66 49

usemtl m91
f 63 49 48

usemtl m92
f 63 48 64

usemtl m93
f 64 48 47

usemtl m94
f 64 47 65

usemtl m95
f 65 47 46

usemtl m96
f 65 46 66

usemtl m97
f 66 46 49

usemtl m98
f 49 46 45

usemtl m99
f 58 55 67

usemtl m100
f 58 67 68

usemtl m101
f 58 68 54

usemtl m102
f 54 68 69

usemtl m103
f 54 69 51

usemtl m104
f 51 69 70

usemtl m105
f 51 70 67

usemtl m106
f 51 67 55

usemtl m107
f 71 72 73

usemtl m108
f 71 73 74

usemtl m109
f 71 74 75

usemtl m110
f 71 75 76

usemtl m111
f 76 75 77

usemtl m112
f 76 77 78

usemtl m113
f 76 78 79

usemtl m114
f 76 79 80

usemtl m115
f 76 80 81

usemtl m116
f 81 80 82

usemtl m117
f 81 82 83

usemtl m118
f 81 83 84

usemtl m119
f 81 84 72

usemtl m120
f 72 84 85

usemtl m121
f 72 85 73

usemtl m122
f 73 85 86

usemtl m123
f 73 86 87

usemtl m124
f 73 87 74

usemtl m125
f 74 87 88

usemtl m126
f 74 88 75

usemtl m127
f 75 88 89

usemtl m128
f 75 89 90

usemtl m129
f 75 90 91

usemtl m130
f 75 91 77

usemtl m131
f 77 91 92

usemtl m132
f 77 92 93

usemtl m133
f 77 93 78

usemtl m134
f 78 93 94

usemtl m135
f 78 94 79

usemtl m136
f 79 94 95

usemtl m137
f 79 95 80

usemtl m138
f 80 95 96

usemtl m139
f 80 96 82

usemtl m140
f 82 96 97

usemtl m141
f 82 97 83

usemtl m142
f 83 97 98

usemtl m143
f 83 98 84

usemtl m144
f 84 98 99

usemtl m145
f 84 99 100

usemtl m146
f 84 100 101

usemtl m147
f 84 101 85

usemtl m148
f 85 101 102

usemtl m149
f 85 102 86

usemtl m150
f 86 102 103

usemtl m151
f 86 103 100

usemtl m152
f 86 100 99

usemtl m153
f 86 99 104

usemtl m154
f 86 104 105

usemtl m155
f 86 105 87

usemtl m156
f 87 105 106

usemtl m157
f 87 106 88

usemtl m158
f 88 106 107

usemtl m159
f 88 107 89

usemtl m160
f 89 107 108

usemtl m161
f 89 108 93

usemtl m162
f 89 93 109

usemtl m163
f 89 109 90

usemtl m164
f 90 109 110

usemtl m165
f 90 110 111

usemtl m166
f 90 111 91

usemtl m167
f 91 111 112

usemtl m168
f 91 112 92

usemtl m169
f 92 112 113

usemtl m170
f 92 113 114

usemtl m171
f 92 114 109

usemtl m172
f 92 109 93

usemtl m173
f 115 116 108

usemtl m174
f 115 108 107

usemtl m175
f 115 107 117

usemtl m176
f 115 117 118

usemtl m177
f 115 118 119

usemtl m178
f 115 119 116

usemtl m179
f 116 119 120

usemtl m180
f 116 120 121

usemtl m181
f 116 121 122

usemtl m182
f 116 122 108

usemtl m183
f 108 122 93

usemtl m184
f 93 122 94

usemtl m185
f 94 122 123

usemtl m186
f 94 123 95

usemtl m187
f 95 123 124

usemtl m188
f 95 124 96

usemtl m189
f 96 124 125

usemtl m190
f 96 125 97

usemtl m191
f 97 125 126

usemtl m192
f 97 126 98

usemtl m193
f 98 126 127

usemtl m194
f 98 127 99

usemtl m195
f 99 127 104

usemtl m196
f 104 127 128

usemtl m197
f 104 128 129

usemtl m198
f 104 129 105

usemtl m199
f 105 129 130

usemtl m200
f 105 130 106

usemtl m201
f 106 130 117

usemtl m202
f 106 117 107

usemtl m203
f 121 131 123

usemtl m204
f 121 123 122

usemtl m205
f 131 132 124

usemtl m206
f 131 124 123

usemtl m207
f 132 133 125

usemtl m208
f 132 125 124

usemtl m209
f 133 134 126

usemtl m210
f 133 126 125

usemtl m211
f 134 128 127

usemtl m212
f 134 127 126

usemtl m213
f 120 135 121

usemtl m214
f 121 135 131

usemtl m215
f 131 135 136

usemtl m216
f 131 136 132

usemtl m217
f 132 136 137

usemtl m218
f 132 137 133

usemtl m219
f 133 137 138

usemtl m220
f 133 138 134

usemtl m221
f 134 138 139

usemtl m222
f 134 139 128

usemtl m223
f 128 139 140

usemtl m224
f 128 140 129

usemtl m225
f 129 140 141

usemtl m226
f 129 141 130

usemtl m227
f 130 141 142

usemtl m228
f 130 142 117

usemtl m229
f 117 142 118

usemtl m230
f 143 144 145

usemtl m231
f 143 145 146

usemtl m232
f 143 146 114

usemtl m233
f 143 114 113

usemtl m234
f 143 113 147

usemtl m235
f 143 147 144

usemtl m236
f 144 147 148

usemtl m237
f 144 148 149

usemtl m238
f 144 149 150

usemtl m239
f 144 150 145

usemtl m240
f 145 150 151

usemtl m241
f 145 151 152

usemtl m242
f 145 152 146

usemtl m243
f 146 152 153

usemtl m244
f 146 153 154

usemtl m245
f 146 154 114

usemtl m246
f 114 154 109

usemtl m247
f 109 154 155

usemtl m248
f 109 155 110

usemtl m249
f 110 155 111

usemtl m250
f 111 155 112

usemtl m251
f 112 155 156

usemtl m252
f 112 156 113

usemtl m253
f 113 156 147

usemtl m254
f 147 156 153

usemtl m255
f 147 153 148

usemtl m256
f 148 153 152

usemtl m257
f 148 152 157

usemtl m258
f 148 157 149

usemtl m259
f 149 157 158

usemtl m260
f 149 158 159

usemtl m261
f 149 159 150

usemtl m262
f 150 159 160

usemtl m263
f 150 160 151

usemtl m264
f 151 160 161

usemtl m265
f 151 161 157

usemtl m266
f 151 157 152

usemtl m267
f 157 161 158

usemtl m268
f 158 161 162

usemtl m269
f 158 162 163

usemtl m270
f 158 163 159

usemtl m271
f 159 163 164

usemtl m272
f 159 164 160

usemtl m273
f 160 164 165

usemtl m274
f 160 165 161

usemtl m275
f 161 165 162

usemtl m276
f 162 165 164

usemtl m277
f 162 164 163

usemtl m278
f 156 154 153

usemtl m279
f 154 156 155

usemtl m280
f 166 167 101

usemtl m281
f 166 101 100

usemtl m282
f 166 100 168

usemtl m283
f 166 168 169

usemtl m284
f 166 169 170

usemtl m285
f 166 170 167

usemtl m286
f 167 170 171

usemtl m287
f 167 171 102

usemtl m288
f 167 102 101

usemtl m289
f 171 170 103

usemtl m290
f 171 103 102

usemtl m291
f 172 173 174

usemtl m292
f 172 174 175

usemtl m293
f 172 175 176

usemtl m294
f 172 176 177

usemtl m295
f 172 177 178

usemtl m296
f 172 178 173

usemtl m297
f 173 178 179

usemtl m298
f 173 179 180

usemtl m299
f 173 180 168

usemtl m300
f 173 168 174

usemtl m301
f 174 168 100

usemtl m302
f 174 100 103

usemtl m303
f 174 103 175

usemtl m304
f 175 103 170

usemtl m305
f 175 170 169

usemtl m306
f 175 169 176

usemtl m307
f 176 169 180

usemtl m308
f 176 180 181

usemtl m309
f 176 181 177

usemtl m310
f 177 181 182

usemtl m311
f 177 182 183

usemtl m312
f 177 183 178

usemtl m313
f 178 183 184

usemtl m314
f 178 184 179

usemtl m315
f 179 184 185

usemtl m316
f 179 185 181

usemtl m317
f 179 181 180

usemtl m318
f 180 169 168

usemtl m319
f 185 182 181

usemtl m320
f 182 185 186

usemtl m321
f 182 186 187

usemtl m322
f 182 187 183

usemtl m323
f 183 187 188

usemtl m324
f 183 188 184

usemtl m325
f 184 188 189

usemtl m326
f 184 189 185

usemtl m327
f 185 189 186

usemtl m328
f 186 189 190

usemtl m329
f 186 190 191

usemtl m330
f 186 191 187

usemtl m331
f 187 191 192

usemtl m332
f 187 192 188

usemtl m333
f 188 192 193

usemtl m334
f 188 193 189

usemtl m335
f 189 193 190

usemtl m336
f 190 193 191

usemtl m337
f 191 193 192

usemtl m338
f 194 195 196

usemtl m339
f 194 196 197

usemtl m340
f 194 197 198

usemtl m341
f 194 198 199

usemtl m342
f 194 199 200

usemtl m343
f 194 200 195

usemtl m344
f 195 200 201

usemtl m345
f 195 201 202

usemtl m346
f 195 202 203

usemtl m347
f 195 203 196

usemtl m348
f 196 203 204

usemtl m349
f 196 204 205

usemtl m350
f 196 205 197

usemtl m351
f 197 205 206

usemtl m352
f 197 206 207

usemtl m353
f 197 207 198

usemtl m354
f 206 205 201

usemtl m355
f 206 201 200

usemtl m356
f 206 200 208

usemtl m357
f 206 208 209

usemtl m358
f 206 209 210

usemtl m359
f 206 210 199

usemtl m360
f 206 199 200

usemtl m361
f 200 199 211

usemtl m362
f 200 211 208

usemtl m363
f 208 211 209

usemtl m364
f 209 211 212

usemtl m365
f 209 212 210

usemtl m366
f 210 212 199

usemtl m367
f 199 212 211

usemtl m368
f 201 213 202

usemtl m369
f 202 213 214

usemtl m370
f 202 214 215

usemtl m371
f 202 215 203

usemtl m372
f 203 215 216

usemtl m373
f 203 216 204

usemtl m374
f 204 216 217

usemtl m375
f 204 217 213

usemtl m376
f 204 213 205

usemtl m377
f 205 213 201

usemtl m378
f 213 217 214

usemtl m379
f 214 217 218

usemtl m380
f 214 218 219

usemtl m381
f 214 219 215

usemtl m382
f 215 219 220

usemtl m383
f 215 220 216

usemtl m384
f 216 220 221

usemtl m385
f 216 221 217

usemtl m386
f 217 221 218

usemtl m387
f 218 221 222

usemtl m388
f 218 222 223

usemtl m389
f 218 223 219

usemtl m390
f 219 223 224

usemtl m391
f 219 224 220

usemtl m392
f 220 224 225

usemtl m393
f 220 225 221

usemtl m394
f 221 225 222

usemtl m395
f 222 225 226

usemtl m396
f 222 226 70

usemtl m397
f 222 70 223

usemtl m398
f 223 70 69

usemtl m399
f 223 69 224

usemtl m400
f 224 69 227

usemtl m401
f 224 227 225

usemtl m402
f 225 227 226

usemtl m403
f 210 207 206

