mtllib 6903.mtl
o runescapemodel
v 26 115 1
v 26 113 8
v 64 87 4
v 64 87 -4
v 18 108 -1
v -24 115 3
v -19 127 5
v -21 126 15
v 17 107 6
v 64 78 4
v 64 78 -4
v -24 115 10
v -64 119 10
v -64 120 0
v -64 137 3
v -64 136 18
v -56 139 -3
v -56 138 -19
v -64 136 -18
v -64 137 -3
v -52 122 0
v -41 127 -3
v -36 142 9
v -47 153 0
v -47 154 -18
v -36 141 -27
v -45 127 -15
v -54 120 -10
v -64 119 -10
v -38 116 -24
v -33 114 -9
v -42 108 -16
v -36 125 -16
v -37 115 6
v -41 108 -3
v -64 121 0
v -31 134 -3
v -32 149 -8
v -33 131 -18
vn 357 -831 618
vn 300 -538 -906
vn 323 -409 -313
vn 146 -265 505
vn -248 568 839
vn -92 602 771
vn 228 -849 614
vn 186 -435 -793
vn -336 923 -629
vn -129 269 -505
vn -289 426 305
vn -135 1072 -655
vn -64 616 -206
vn 15 177 528
vn 132 -540 200
vn 41 -36 -481
vn -766 -770 -881
vn -473 32 1140
vn -127 -388 263
vn -75 -338 -488
vn -256 509 -1289
vn 766 69 -912
vn 235 8 -753
vn -166 -624 -343
vn -333 -766 319
vn 228 30 790
vn -100 187 1054
vn -686 850 693
vn 55 723 366
vn 109 8 717
vn 1190 320 -10
vn -23 647 248
vn 535 -541 220
vn 255 52 -484
vn -171 871 -297
vn 17 204 -302
vn 756 329 -219
vn 1061 -699 6
vn 729 598 288
usemtl m0
f 1 2 3

usemtl m1
f 1 3 4

usemtl m2
f 1 4 5

usemtl m3
f 1 5 6

usemtl m4
f 1 6 7

usemtl m5
f 1 7 2

usemtl m6
f 2 7 8

usemtl m7
f 2 8 9

usemtl m8
f 2 9 10

usemtl m9
f 2 10 3

usemtl m10
f 9 5 11

usemtl m11
f 9 11 10

usemtl m12
f 4 11 5

usemtl m13
f 8 12 9

usemtl m14
f 9 12 5

usemtl m15
f 5 12 6

usemtl m16
f 6 12 13

usemtl m17
f 6 13 14

usemtl m18
f 6 14 7

usemtl m19
f 7 14 15

usemtl m20
f 7 15 8

usemtl m21
f 8 15 16

usemtl m22
f 8 16 12

usemtl m23
f 12 16 13

usemtl m24
f 17 18 19

usemtl m25
f 17 19 20

usemtl m26
f 17 20 21

usemtl m27
f 17 21 22

usemtl m28
f 17 22 23

usemtl m29
f 17 23 24

usemtl m30
f 17 24 25

usemtl m31
f 17 25 18

usemtl m32
f 18 25 26

usemtl m33
f 18 26 27

usemtl m34
f 18 27 28

usemtl m35
f 18 28 29

usemtl m36
f 18 29 19

usemtl m37
f 30 31 32

usemtl m38
f 30 32 28

usemtl m39
f 30 28 27

usemtl m40
f 30 27 33

usemtl m41
f 30 33 31

usemtl m42
f 31 33 22

usemtl m43
f 31 22 34

usemtl m44
f 31 34 35

usemtl m45
f 31 35 32

usemtl m46
f 32 35 28

usemtl m47
f 28 35 21

usemtl m48
f 28 21 29

usemtl m49
f 29 21 36

usemtl m50
f 36 21 20

usemtl m51
f 22 37 23

usemtl m52
f 23 37 38

usemtl m53
f 23 38 24

usemtl m54
f 24 38 25

usemtl m55
f 25 38 26

usemtl m56
f 26 38 39

usemtl m57
f 26 39 27

usemtl m58
f 27 39 22

usemtl m59
f 27 22 33

usemtl m60
f 39 37 22

usemtl m61
f 37 39 38

usemtl m62
f 35 34 21

usemtl m63
f 21 34 22

