newmtl m0
Kd 0.25882352941176473 0.18823529411764706 0.10980392156862745
newmtl m1
Kd 0.25882352941176473 0.18823529411764706 0.10980392156862745
newmtl m2
Kd 0.35294117647058826 0.403921568627451 0.08627450980392157
newmtl m3
Kd 0.35294117647058826 0.403921568627451 0.08627450980392157
newmtl m4
Kd 0.35294117647058826 0.403921568627451 0.08627450980392157
newmtl m5
Kd 0.25882352941176473 0.18823529411764706 0.10980392156862745
newmtl m6
Kd 0.25882352941176473 0.18823529411764706 0.10980392156862745
newmtl m7
Kd 0.22745098039215686 0.15294117647058825 0.07058823529411765
newmtl m8
Kd 0.22745098039215686 0.15294117647058825 0.07058823529411765
newmtl m9
Kd 0.22745098039215686 0.15294117647058825 0.07058823529411765
newmtl m10
Kd 0.25882352941176473 0.18823529411764706 0.10980392156862745
newmtl m11
Kd 0.25882352941176473 0.18823529411764706 0.10980392156862745
newmtl m12
Kd 0.35294117647058826 0.403921568627451 0.08627450980392157
newmtl m13
Kd 0.35294117647058826 0.403921568627451 0.08627450980392157
newmtl m14
Kd 0.40784313725490196 0.47058823529411764 0.09803921568627451
newmtl m15
Kd 0.40784313725490196 0.47058823529411764 0.09803921568627451
newmtl m16
Kd 0.40784313725490196 0.47058823529411764 0.09803921568627451
newmtl m17
Kd 0.35294117647058826 0.403921568627451 0.08627450980392157
newmtl m18
Kd 0.35294117647058826 0.403921568627451 0.08627450980392157
newmtl m19
Kd 0.25882352941176473 0.18823529411764706 0.10980392156862745
newmtl m20
Kd 0.25882352941176473 0.18823529411764706 0.10980392156862745
newmtl m21
Kd 0.22745098039215686 0.15294117647058825 0.07058823529411765
newmtl m22
Kd 0.22745098039215686 0.15294117647058825 0.07058823529411765
newmtl m23
Kd 0.22745098039215686 0.15294117647058825 0.07058823529411765
newmtl m24
Kd 0.22745098039215686 0.15294117647058825 0.07058823529411765
newmtl m25
Kd 0.22745098039215686 0.15294117647058825 0.07058823529411765
newmtl m26
Kd 0.25882352941176473 0.18823529411764706 0.10980392156862745
newmtl m27
Kd 0.25882352941176473 0.18823529411764706 0.10980392156862745
newmtl m28
Kd 0.35294117647058826 0.403921568627451 0.08627450980392157
newmtl m29
Kd 0.35294117647058826 0.403921568627451 0.08627450980392157
newmtl m30
Kd 0.35294117647058826 0.403921568627451 0.08627450980392157
newmtl m31
Kd 0.40784313725490196 0.47058823529411764 0.09803921568627451
newmtl m32
Kd 0.25882352941176473 0.18823529411764706 0.10980392156862745
newmtl m33
Kd 0.25882352941176473 0.18823529411764706 0.10980392156862745
newmtl m34
Kd 0.35294117647058826 0.403921568627451 0.08627450980392157
newmtl m35
Kd 0.35294117647058826 0.403921568627451 0.08627450980392157
newmtl m36
Kd 0.25882352941176473 0.18823529411764706 0.10980392156862745
newmtl m37
Kd 0.25882352941176473 0.18823529411764706 0.10980392156862745
newmtl m38
Kd 0.25882352941176473 0.18823529411764706 0.10980392156862745
newmtl m39
Kd 0.25882352941176473 0.18823529411764706 0.10980392156862745
newmtl m40
Kd 0.25882352941176473 0.18823529411764706 0.10980392156862745
newmtl m41
Kd 0.25882352941176473 0.18823529411764706 0.10980392156862745
newmtl m42
Kd 0.35294117647058826 0.403921568627451 0.08627450980392157
newmtl m43
Kd 0.35294117647058826 0.403921568627451 0.08627450980392157
newmtl m44
Kd 0.35294117647058826 0.403921568627451 0.08627450980392157
newmtl m45
Kd 0.25882352941176473 0.18823529411764706 0.10980392156862745
newmtl m46
Kd 0.25882352941176473 0.18823529411764706 0.10980392156862745
newmtl m47
Kd 0.22745098039215686 0.15294117647058825 0.07058823529411765
newmtl m48
Kd 0.22745098039215686 0.15294117647058825 0.07058823529411765
newmtl m49
Kd 0.22745098039215686 0.15294117647058825 0.07058823529411765
newmtl m50
Kd 0.25882352941176473 0.18823529411764706 0.10980392156862745
newmtl m51
Kd 0.25882352941176473 0.18823529411764706 0.10980392156862745
newmtl m52
Kd 0.35294117647058826 0.403921568627451 0.08627450980392157
newmtl m53
Kd 0.35294117647058826 0.403921568627451 0.08627450980392157
newmtl m54
Kd 0.40784313725490196 0.47058823529411764 0.09803921568627451
newmtl m55
Kd 0.40784313725490196 0.47058823529411764 0.09803921568627451
newmtl m56
Kd 0.40784313725490196 0.47058823529411764 0.09803921568627451
newmtl m57
Kd 0.35294117647058826 0.403921568627451 0.08627450980392157
newmtl m58
Kd 0.35294117647058826 0.403921568627451 0.08627450980392157
newmtl m59
Kd 0.25882352941176473 0.18823529411764706 0.10980392156862745
newmtl m60
Kd 0.25882352941176473 0.18823529411764706 0.10980392156862745
newmtl m61
Kd 0.22745098039215686 0.15294117647058825 0.07058823529411765
newmtl m62
Kd 0.22745098039215686 0.15294117647058825 0.07058823529411765
newmtl m63
Kd 0.22745098039215686 0.15294117647058825 0.07058823529411765
newmtl m64
Kd 0.22745098039215686 0.15294117647058825 0.07058823529411765
newmtl m65
Kd 0.22745098039215686 0.15294117647058825 0.07058823529411765
newmtl m66
Kd 0.25882352941176473 0.18823529411764706 0.10980392156862745
newmtl m67
Kd 0.25882352941176473 0.18823529411764706 0.10980392156862745
newmtl m68
Kd 0.35294117647058826 0.403921568627451 0.08627450980392157
newmtl m69
Kd 0.35294117647058826 0.403921568627451 0.08627450980392157
newmtl m70
Kd 0.35294117647058826 0.403921568627451 0.08627450980392157
newmtl m71
Kd 0.40784313725490196 0.47058823529411764 0.09803921568627451
newmtl m72
Kd 0.25882352941176473 0.18823529411764706 0.10980392156862745
newmtl m73
Kd 0.25882352941176473 0.18823529411764706 0.10980392156862745
newmtl m74
Kd 0.35294117647058826 0.403921568627451 0.08627450980392157
newmtl m75
Kd 0.35294117647058826 0.403921568627451 0.08627450980392157
newmtl m76
Kd 0.25882352941176473 0.18823529411764706 0.10980392156862745
newmtl m77
Kd 0.25882352941176473 0.18823529411764706 0.10980392156862745
newmtl m78
Kd 0.25882352941176473 0.18823529411764706 0.10980392156862745
newmtl m79
Kd 0.25882352941176473 0.18823529411764706 0.10980392156862745
