mtllib 7142.mtl
o runescapemodel
v -7 15 1
v -9 12 -4
v -9 5 0
v -6 9 5
v -2 18 10
v 1 22 8
v 0 21 -1
v 0 18 -9
v 1 4 -11
v 0 0 3
v 0 5 9
v 2 13 13
v 2 19 13
v 7 18 10
v 5 20 -1
v 6 17 -9
v 14 11 -4
v 14 4 0
v 5 0 4
v 6 5 8
v 12 10 4
v 11 16 0
v 23 15 -13
v 18 12 -12
v 21 5 -11
v 27 9 -12
v 33 18 -14
v 32 22 -18
v 24 21 -20
v 16 18 -23
v 14 4 -24
v 27 0 -18
v 33 5 -16
v 37 13 -17
v 37 19 -17
v 36 18 -23
v 25 20 -25
v 18 17 -28
v 25 11 -34
v 29 4 -33
v 30 0 -23
v 34 5 -22
v 32 10 -29
v 28 16 -30
v -24 15 14
v -20 12 10
v -24 5 12
v -27 9 17
v -29 18 23
v -26 22 24
v -19 21 19
v -12 18 15
v -9 4 15
v -22 0 21
v -27 5 24
v -30 13 28
v -30 19 28
v -25 18 31
v -16 20 24
v -9 17 21
v -9 11 30
v -13 4 32
v -21 0 26
v -24 5 29
v -17 10 32
v -14 16 29
v 31 15 -1
v 35 12 -4
v 31 5 -3
v 27 9 1
v 23 18 7
v 26 22 9
v 34 21 6
v 42 18 4
v 44 4 4
v 30 0 7
v 25 5 8
v 21 13 11
v 21 19 11
v 25 18 15
v 36 20 11
v 44 17 10
v 41 11 19
v 37 4 20
v 31 0 12
v 27 5 14
v 32 10 19
v 36 16 17
v -12 15 -18
v -16 12 -15
v -12 5 -16
v -8 9 -20
v -4 18 -25
v -6 22 -27
v -15 21 -25
v -23 18 -23
v -25 4 -24
v -11 0 -26
v -5 5 -27
v -2 13 -29
v -2 19 -29
v -6 18 -34
v -16 20 -30
v -24 17 -29
v -21 11 -38
v -17 4 -39
v -11 0 -31
v -7 5 -32
v -12 10 -38
v -16 16 -36
vn -1232 -663 -300
vn -896 -347 414
vn -888 365 -136
vn -924 238 -724
vn -1055 -298 -875
vn -204 -1212 -265
vn -406 -1057 237
vn -204 -722 717
vn -50 853 1253
vn -426 940 -324
vn -482 705 -1078
vn 160 247 -1218
vn -56 -384 -667
vn 912 -684 -626
vn 564 -1365 238
vn 496 -637 700
vn 935 -175 345
vn 775 514 -144
vn 219 994 -366
vn 542 540 -951
vn 1207 -61 -780
vn 926 -761 -19
vn -140 -706 -1259
vn -640 -385 -716
vn -167 331 -897
vn 307 203 -1130
vn 455 -345 -1251
vn 164 -1235 -274
vn -351 -1069 -319
vn -733 -742 52
vn -1198 814 365
vn 141 938 -521
vn 860 682 -804
vn 1238 231 -245
vn 625 -399 -271
vn 909 -656 636
vn -43 -1357 611
vn -505 -637 727
vn -10 -189 988
vn 410 467 671
vn 423 990 85
vn 1098 499 199
vn 1165 -61 873
vn 333 -713 884
vn -866 -633 941
vn -67 -336 1010
vn -542 379 730
vn -1094 249 414
vn -1310 -271 505
vn -370 -1201 86
vn 2 -1046 497
vn 519 -733 528
vn 1050 835 631
vn -508 943 214
vn -1223 718 -56
vn -986 258 -675
vn -619 -384 -234
vn -88 -684 -1088
vn 481 -1355 -368
vn 862 -658 -107
vn 735 -194 -654
vn 245 511 -762
vn -240 997 -338
vn -582 528 -895
vn -73 -88 -1442
vn 450 -760 -833
vn -583 -690 1102
vn 203 -362 950
vn -352 362 823
vn -943 223 693
vn -1102 -307 841
vn -314 -1217 143
vn 146 -1074 456
vn 638 -732 404
vn 1200 878 391
vn -447 929 301
vn -1175 714 210
vn -1145 252 -385
vn -652 -388 -74
vn -417 -697 -1038
vn 343 -1358 -472
vn 786 -621 -284
vn 559 -162 -806
vn 61 535 -763
vn -308 994 -289
vn -795 577 -701
vn -481 -68 -1340
vn 182 -770 -906
vn 554 -657 -1134
vn -220 -345 -938
vn 332 367 -816
vn 904 231 -749
vn 1112 -262 -897
vn 353 -1179 -184
vn -163 -1071 -434
vn -657 -718 -327
vn -1222 872 -291
vn 403 946 -342
vn 1150 687 -256
vn 1214 225 342
vn 714 -363 35
vn 483 -704 971
vn -338 -1367 498
vn -794 -639 350
vn -552 -186 836
vn -19 525 777
vn 323 983 293
vn 858 537 706
vn 537 -53 1291
vn -181 -772 908
usemtl m0
f 1 2 3

usemtl m1
f 1 3 4

usemtl m2
f 1 4 5

usemtl m3
f 1 5 6

usemtl m4
f 1 6 7

usemtl m5
f 1 7 2

usemtl m6
f 2 7 8

usemtl m7
f 2 8 9

usemtl m8
f 2 9 3

usemtl m9
f 3 9 10

usemtl m10
f 3 10 4

usemtl m11
f 4 10 11

usemtl m12
f 4 11 5

usemtl m13
f 5 11 12

usemtl m14
f 5 12 13

usemtl m15
f 5 13 6

usemtl m16
f 6 13 14

usemtl m17
f 6 14 15

usemtl m18
f 6 15 7

usemtl m19
f 7 15 8

usemtl m20
f 8 15 16

usemtl m21
f 8 16 9

usemtl m22
f 9 16 17

usemtl m23
f 9 17 18

usemtl m24
f 9 18 19

usemtl m25
f 9 19 10

usemtl m26
f 10 19 11

usemtl m27
f 11 19 20

usemtl m28
f 11 20 12

usemtl m29
f 12 20 21

usemtl m30
f 12 21 14

usemtl m31
f 12 14 13

usemtl m32
f 22 17 16

usemtl m33
f 22 16 15

usemtl m34
f 22 15 14

usemtl m35
f 22 14 21

usemtl m36
f 22 21 17

usemtl m37
f 17 21 18

usemtl m38
f 18 21 20

usemtl m39
f 18 20 19

usemtl m40
f 23 24 25

usemtl m41
f 23 25 26

usemtl m42
f 23 26 27

usemtl m43
f 23 27 28

usemtl m44
f 23 28 29

usemtl m45
f 23 29 24

usemtl m46
f 24 29 30

usemtl m47
f 24 30 31

usemtl m48
f 24 31 25

usemtl m49
f 25 31 32

usemtl m50
f 25 32 26

usemtl m51
f 26 32 33

usemtl m52
f 26 33 27

usemtl m53
f 27 33 34

usemtl m54
f 27 34 35

usemtl m55
f 27 35 28

usemtl m56
f 28 35 36

usemtl m57
f 28 36 37

usemtl m58
f 28 37 29

usemtl m59
f 29 37 30

usemtl m60
f 30 37 38

usemtl m61
f 30 38 31

usemtl m62
f 31 38 39

usemtl m63
f 31 39 40

usemtl m64
f 31 40 41

usemtl m65
f 31 41 32

usemtl m66
f 32 41 33

usemtl m67
f 33 41 42

usemtl m68
f 33 42 34

usemtl m69
f 34 42 43

usemtl m70
f 34 43 36

usemtl m71
f 34 36 35

usemtl m72
f 44 39 38

usemtl m73
f 44 38 37

usemtl m74
f 44 37 36

usemtl m75
f 44 36 43

usemtl m76
f 44 43 39

usemtl m77
f 39 43 40

usemtl m78
f 40 43 42

usemtl m79
f 40 42 41

usemtl m80
f 45 46 47

usemtl m81
f 45 47 48

usemtl m82
f 45 48 49

usemtl m83
f 45 49 50

usemtl m84
f 45 50 51

usemtl m85
f 45 51 46

usemtl m86
f 46 51 52

usemtl m87
f 46 52 53

usemtl m88
f 46 53 47

usemtl m89
f 47 53 54

usemtl m90
f 47 54 48

usemtl m91
f 48 54 55

usemtl m92
f 48 55 49

usemtl m93
f 49 55 56

usemtl m94
f 49 56 57

usemtl m95
f 49 57 50

usemtl m96
f 50 57 58

usemtl m97
f 50 58 59

usemtl m98
f 50 59 51

usemtl m99
f 51 59 52

usemtl m100
f 52 59 60

usemtl m101
f 52 60 53

usemtl m102
f 53 60 61

usemtl m103
f 53 61 62

usemtl m104
f 53 62 63

usemtl m105
f 53 63 54

usemtl m106
f 54 63 55

usemtl m107
f 55 63 64

usemtl m108
f 55 64 56

usemtl m109
f 56 64 65

usemtl m110
f 56 65 58

usemtl m111
f 56 58 57

usemtl m112
f 66 61 60

usemtl m113
f 66 60 59

usemtl m114
f 66 59 58

usemtl m115
f 66 58 65

usemtl m116
f 66 65 61

usemtl m117
f 61 65 62

usemtl m118
f 62 65 64

usemtl m119
f 62 64 63

usemtl m120
f 67 68 69

usemtl m121
f 67 69 70

usemtl m122
f 67 70 71

usemtl m123
f 67 71 72

usemtl m124
f 67 72 73

usemtl m125
f 67 73 68

usemtl m126
f 68 73 74

usemtl m127
f 68 74 75

usemtl m128
f 68 75 69

usemtl m129
f 69 75 76

usemtl m130
f 69 76 70

usemtl m131
f 70 76 77

usemtl m132
f 70 77 71

usemtl m133
f 71 77 78

usemtl m134
f 71 78 79

usemtl m135
f 71 79 72

usemtl m136
f 72 79 80

usemtl m137
f 72 80 81

usemtl m138
f 72 81 73

usemtl m139
f 73 81 74

usemtl m140
f 74 81 82

usemtl m141
f 74 82 75

usemtl m142
f 75 82 83

usemtl m143
f 75 83 84

usemtl m144
f 75 84 85

usemtl m145
f 75 85 76

usemtl m146
f 76 85 77

usemtl m147
f 77 85 86

usemtl m148
f 77 86 78

usemtl m149
f 78 86 87

usemtl m150
f 78 87 80

usemtl m151
f 78 80 79

usemtl m152
f 88 83 82

usemtl m153
f 88 82 81

usemtl m154
f 88 81 80

usemtl m155
f 88 80 87

usemtl m156
f 88 87 83

usemtl m157
f 83 87 84

usemtl m158
f 84 87 86

usemtl m159
f 84 86 85

usemtl m160
f 89 90 91

usemtl m161
f 89 91 92

usemtl m162
f 89 92 93

usemtl m163
f 89 93 94

usemtl m164
f 89 94 95

usemtl m165
f 89 95 90

usemtl m166
f 90 95 96

usemtl m167
f 90 96 97

usemtl m168
f 90 97 91

usemtl m169
f 91 97 98

usemtl m170
f 91 98 92

usemtl m171
f 92 98 99

usemtl m172
f 92 99 93

usemtl m173
f 93 99 100

usemtl m174
f 93 100 101

usemtl m175
f 93 101 94

usemtl m176
f 94 101 102

usemtl m177
f 94 102 103

usemtl m178
f 94 103 95

usemtl m179
f 95 103 96

usemtl m180
f 96 103 104

usemtl m181
f 96 104 97

usemtl m182
f 97 104 105

usemtl m183
f 97 105 106

usemtl m184
f 97 106 107

usemtl m185
f 97 107 98

usemtl m186
f 98 107 99

usemtl m187
f 99 107 108

usemtl m188
f 99 108 100

usemtl m189
f 100 108 109

usemtl m190
f 100 109 102

usemtl m191
f 100 102 101

usemtl m192
f 110 105 104

usemtl m193
f 110 104 103

usemtl m194
f 110 103 102

usemtl m195
f 110 102 109

usemtl m196
f 110 109 105

usemtl m197
f 105 109 106

usemtl m198
f 106 109 108

usemtl m199
f 106 108 107

