mtllib 7177.mtl
o runescapemodel
v -12 5 -10
v 0 5 -15
v 0 0 -15
v -12 0 -10
v -16 5 0
v -18 10 0
v -14 10 -12
v 0 10 -17
v 13 5 -10
v 13 0 -10
v -16 0 0
v -12 5 11
v -14 10 13
v -11 10 12
v -15 15 12
v -18 22 0
v -12 10 -10
v 0 22 -18
v 12 10 -11
v 15 10 -12
v 17 5 0
v 17 0 0
v 0 5 16
v -12 0 11
v 0 0 16
v 13 5 11
v 15 10 13
v 0 10 18
v 0 22 19
v -12 15 13
v -13 22 14
v -15 26 14
v -21 26 1
v -13 22 -11
v -15 26 -13
v 0 26 -20
v 14 22 -13
v 12 15 -11
v 16 15 -12
v 19 10 0
v 13 0 11
v 13 10 11
v 12 15 13
v 15 22 13
v 16 26 14
v 0 26 21
v 16 35 -13
v 21 35 1
v 21 26 0
v 16 26 -13
v 17 35 -15
v 0 35 -20
v 4 41 -15
v 9 41 -13
v 10 35 -11
v 16 35 0
v 12 35 11
v 16 35 13
v 23 26 1
v 20 22 0
v 0 26 -19
v -15 35 -13
v -21 35 1
v -15 35 0
v -11 35 -10
v 2 35 -14
v 5 49 -7
v 2 49 -7
v 2 50 -9
v 6 50 -9
v 2 54 1
v -3 54 -1
v -6 50 10
v -2 50 11
v -2 50 9
v -7 49 8
v -9 41 13
v -3 41 16
v -1 35 15
v -9 35 12
v -15 35 14
v 0 35 20
v 14 35 15
v -1 29 15
v -10 29 11
v -17 35 15
v 0 26 19
v -19 26 0
v 16 15 11
v 19 15 0
v 2 29 -14
v 10 29 -10
v 16 29 0
v 11 29 10
v 0 37 0
v -11 29 -9
v -15 29 0
vn -967 325 940
vn 4 298 1378
vn -104 0 713
vn -580 0 428
vn -1395 299 44
vn -1326 -68 55
vn -387 -186 509
vn 63 -180 1116
vn 945 324 960
vn 425 0 578
vn -725 0 -80
vn -967 324 -927
vn -524 -185 -364
vn -464 -221 -805
vn -830 213 -737
vn -1549 385 20
vn -702 -438 681
vn -45 513 1742
vn 350 -334 815
vn 514 -186 379
vn 1394 300 -1
vn 724 0 104
vn -38 298 -1376
vn -438 0 -560
vn 86 0 -718
vn 953 322 -932
vn 376 -189 -508
vn 7 -114 -1341
vn 9 482 -1824
vn -331 219 -953
vn -818 321 -1089
vn -810 -102 -1169
vn -587 -80 93
vn -856 472 694
vn -969 -75 897
vn 79 -246 663
vn 883 379 1190
vn 85 140 953
vn 538 151 734
vn 1323 -58 -25
vn 576 0 -417
vn 671 -253 -622
vn 542 238 -1139
vn 944 404 -975
vn 1062 -321 -1106
vn -95 -243 -662
vn 966 -570 263
vn 720 -1034 -98
vn 723 -512 92
vn 1143 -143 883
vn 300 -196 123
vn -87 -860 843
vn -393 -123 -27
vn 214 -426 -349
vn -440 -466 -1055
vn -913 -586 -55
vn -300 -964 447
vn 121 -291 -328
vn 605 -144 -88
vn 1321 453 73
vn -114 -461 708
vn -438 -743 569
vn -716 -918 106
vn 704 -749 125
vn 548 -825 -443
vn -335 -262 -1267
vn 396 581 -731
vn -524 794 -368
vn -393 -310 636
vn 500 -576 207
vn 393 149 -365
vn -357 -84 239
vn -538 -858 -475
vn 262 -250 -522
vn 615 834 385
vn -197 254 403
vn -276 -462 194
vn 482 -192 27
vn 454 -457 993
vn 434 -338 1071
vn -247 -531 -645
vn 63 -394 -890
vn 385 -538 -373
vn 22 -332 953
vn 420 -922 293
vn -365 -134 -366
vn 81 -450 -726
vn -721 -345 -62
vn 928 272 -671
vn 1411 136 -21
vn -111 -293 -707
vn -412 -968 -311
vn -451 -256 -19
vn -401 -1028 285
vn 0 -807 9
vn 238 -969 -430
vn 708 -273 -94
usemtl m0
f 1 2 3

usemtl m1
f 1 3 4

usemtl m2
f 1 4 5

usemtl m3
f 1 5 6

usemtl m4
f 1 6 7

usemtl m5
f 1 7 2

usemtl m6
f 2 7 8

usemtl m7
f 2 8 9

usemtl m8
f 2 9 10

usemtl m9
f 2 10 3

usemtl m10
f 5 4 11

usemtl m11
f 5 11 12

usemtl m12
f 5 12 13

usemtl m13
f 5 13 6

usemtl m14
f 6 13 14

usemtl m15
f 6 14 15

usemtl m16
f 6 15 16

usemtl m17
f 6 16 17

usemtl m18
f 6 17 7

usemtl m19
f 7 17 8

usemtl m20
f 8 17 18

usemtl m21
f 8 18 19

usemtl m22
f 8 19 20

usemtl m23
f 8 20 9

usemtl m24
f 9 20 21

usemtl m25
f 9 21 22

usemtl m26
f 9 22 10

usemtl m27
f 23 12 24

usemtl m28
f 23 24 25

usemtl m29
f 23 25 26

usemtl m30
f 23 26 27

usemtl m31
f 23 27 28

usemtl m32
f 23 28 12

usemtl m33
f 12 28 13

usemtl m34
f 13 28 14

usemtl m35
f 14 28 29

usemtl m36
f 14 29 30

usemtl m37
f 14 30 15

usemtl m38
f 15 30 31

usemtl m39
f 15 31 16

usemtl m40
f 16 31 32

usemtl m41
f 16 32 33

usemtl m42
f 16 33 34

usemtl m43
f 16 34 17

usemtl m44
f 17 34 18

usemtl m45
f 18 34 35

usemtl m46
f 18 35 36

usemtl m47
f 18 36 37

usemtl m48
f 18 37 38

usemtl m49
f 18 38 19

usemtl m50
f 19 38 39

usemtl m51
f 19 39 40

usemtl m52
f 19 40 20

usemtl m53
f 20 40 21

usemtl m54
f 21 40 26

usemtl m55
f 21 26 41

usemtl m56
f 21 41 22

usemtl m57
f 12 11 24

usemtl m58
f 26 25 41

usemtl m59
f 40 27 26

usemtl m60
f 27 40 42

usemtl m61
f 27 42 28

usemtl m62
f 28 42 43

usemtl m63
f 28 43 29

usemtl m64
f 29 43 44

usemtl m65
f 29 44 45

usemtl m66
f 29 45 46

usemtl m67
f 29 46 31

usemtl m68
f 29 31 30

usemtl m69
f 47 48 49

usemtl m70
f 47 49 50

usemtl m71
f 47 50 51

usemtl m72
f 47 51 52

usemtl m73
f 47 52 53

usemtl m74
f 47 53 54

usemtl m75
f 47 54 55

usemtl m76
f 47 55 48

usemtl m77
f 48 55 56

usemtl m78
f 48 56 57

usemtl m79
f 48 57 58

usemtl m80
f 48 58 45

usemtl m81
f 48 45 49

usemtl m82
f 49 45 59

usemtl m83
f 49 59 50

usemtl m84
f 50 59 60

usemtl m85
f 50 60 37

usemtl m86
f 50 37 36

usemtl m87
f 50 36 61

usemtl m88
f 50 61 52

usemtl m89
f 50 52 51

usemtl m90
f 62 52 61

usemtl m91
f 62 61 35

usemtl m92
f 62 35 63

usemtl m93
f 62 63 64

usemtl m94
f 62 64 65

usemtl m95
f 62 65 52

usemtl m96
f 52 65 66

usemtl m97
f 52 66 53

usemtl m98
f 53 66 54

usemtl m99
f 53 54 67

usemtl m100
f 53 67 68

usemtl m101
f 53 68 69

usemtl m102
f 53 69 54

usemtl m103
f 54 69 70

usemtl m104
f 54 70 67

usemtl m105
f 67 70 71

usemtl m106
f 67 71 68

usemtl m107
f 68 71 72

usemtl m108
f 68 72 69

usemtl m109
f 69 72 70

usemtl m110
f 70 72 71

usemtl m111
f 71 72 73

usemtl m112
f 71 73 74

usemtl m113
f 71 74 75

usemtl m114
f 71 75 72

usemtl m115
f 72 75 76

usemtl m116
f 72 76 73

usemtl m117
f 73 76 77

usemtl m118
f 73 77 74

usemtl m119
f 74 77 78

usemtl m120
f 74 78 75

usemtl m121
f 75 78 76

usemtl m122
f 76 78 77

usemtl m123
f 77 78 79

usemtl m124
f 77 79 80

usemtl m125
f 77 80 81

usemtl m126
f 77 81 78

usemtl m127
f 78 81 82

usemtl m128
f 78 82 79

usemtl m129
f 79 82 83

usemtl m130
f 79 83 57

usemtl m131
f 79 57 84

usemtl m132
f 79 84 80

usemtl m133
f 80 84 85

usemtl m134
f 80 85 64

usemtl m135
f 80 64 63

usemtl m136
f 80 63 81

usemtl m137
f 81 63 86

usemtl m138
f 81 86 32

usemtl m139
f 81 32 82

usemtl m140
f 82 32 87

usemtl m141
f 82 87 83

usemtl m142
f 83 87 45

usemtl m143
f 83 45 57

usemtl m144
f 57 45 58

usemtl m145
f 63 35 88

usemtl m146
f 63 88 86

usemtl m147
f 86 88 32

usemtl m148
f 32 88 33

usemtl m149
f 33 88 35

usemtl m150
f 33 35 34

usemtl m151
f 46 32 31

usemtl m152
f 32 46 87

usemtl m153
f 87 46 45

usemtl m154
f 59 45 44

usemtl m155
f 59 44 60

usemtl m156
f 60 44 89

usemtl m157
f 60 89 90

usemtl m158
f 60 90 37

usemtl m159
f 37 90 39

usemtl m160
f 37 39 38

usemtl m161
f 36 35 61

usemtl m162
f 42 89 43

usemtl m163
f 43 89 44

usemtl m164
f 90 89 42

usemtl m165
f 90 42 40

usemtl m166
f 90 40 39

usemtl m167
f 47 55 66

usemtl m168
f 66 55 54

usemtl m169
f 55 66 91

usemtl m170
f 55 91 92

usemtl m171
f 55 92 56

usemtl m172
f 56 92 93

usemtl m173
f 56 93 94

usemtl m174
f 56 94 57

usemtl m175
f 57 94 84

usemtl m176
f 84 94 85

usemtl m177
f 85 94 95

usemtl m178
f 85 95 96

usemtl m179
f 85 96 97

usemtl m180
f 85 97 64

usemtl m181
f 64 97 65

usemtl m182
f 65 97 96

usemtl m183
f 65 96 66

usemtl m184
f 66 96 91

usemtl m185
f 91 96 92

usemtl m186
f 92 96 95

usemtl m187
f 92 95 94

usemtl m188
f 92 94 93

usemtl m189
f 81 80 79

