mtllib 7214.mtl
o runescapemodel
v 14 7 8
v 11 9 5
v 10 10 6
v 3 10 3
v 0 11 1
v 1 10 2
v 5 10 6
v -15 9 -5
v -15 10 -2
v -15 11 0
v -10 15 0
v -13 12 -3
v -17 9 -6
v -20 10 -2
v -22 14 4
v -16 12 10
v -12 11 7
v -9 13 6
v -7 15 -7
v -5 19 -15
v -10 13 -6
v -3 20 2
v 4 17 -2
v 0 14 -7
v 2 17 -13
v -11 15 -11
v -15 12 -6
v -10 15 -2
v 11 14 -9
v -11 12 13
v -10 9 0
v -10 9 -3
v -5 6 0
v -10 10 3
v -8 11 -2
v -7 9 -3
v -3 11 -2
v -1 11 0
v -3 7 2
v -6 10 5
v -6 14 0
v -1 11 5
v 5 10 2
v 4 8 0
v 7 5 0
v 9 10 4
v 6 13 0
v 3 11 1
v 4 10 -2
v 7 10 -5
v 11 9 -4
v 10 6 -1
v 12 9 2
v 8 14 0
v 12 11 0
v 15 9 -1
v 8 9 6
v 5 12 8
v 7 14 11
v 11 9 8
v 5 7 8
v 3 10 9
v 3 10 14
v 5 9 16
v 8 12 13
v 11 9 12
v 7 5 11
v 8 5 13
v 10 9 17
v 14 5 12
v 15 2 9
v 17 0 10
v 17 5 16
v 18 8 9
v 16 5 5
v 20 5 5
v 23 3 7
v 20 0 10
v 21 3 15
v 20 8 11
v 22 6 11
v 25 2 12
vn -403 -533 208
vn 246 -664 69
vn 246 -432 185
vn -64 -829 -223
vn -230 -475 -589
vn -230 -499 -473
vn -383 -344 668
vn -102 -115 -217
vn -492 -1291 384
vn -263 -1338 108
vn -502 -580 9
vn -369 -388 -39
vn -177 -452 25
vn 0 -469 206
vn 127 -688 275
vn 169 -749 81
vn -196 -942 24
vn -425 -622 -132
vn -158 -1295 3
vn -166 -664 -303
vn -532 -1328 -18
vn -224 -639 283
vn 27 -654 396
vn 61 -885 24
vn 83 -675 -362
vn -125 -460 -209
vn -93 -469 12
vn -139 -449 224
vn 0 -453 -2
vn -116 -467 58
vn -659 93 -20
vn -327 97 448
vn 134 1227 436
vn -736 106 -428
vn -561 -763 577
vn 135 -70 1095
vn 381 -74 701
vn 824 -26 387
vn 318 832 -388
vn -154 -21 -656
vn -45 -1236 290
vn 357 -138 -360
vn -504 39 -994
vn -836 607 -4
vn -274 941 -33
vn 17 -13 -1045
vn -460 -846 -322
vn -596 -173 -226
vn -784 -331 631
vn -226 -82 900
vn 290 129 770
vn 384 935 -112
vn 593 -96 -743
vn 99 -1037 -42
vn 585 -909 89
vn 479 23 0
vn 268 -199 840
vn -423 -870 490
vn 141 -1077 -63
vn 836 76 399
vn -334 800 588
vn -999 100 228
vn -968 -27 -321
vn -302 -230 -783
vn 566 -911 -436
vn 969 126 13
vn -150 1044 139
vn 27 848 -298
vn 335 -60 -435
vn -808 -89 -377
vn -737 634 398
vn -422 1037 193
vn -305 -49 -765
vn -120 -997 43
vn -74 -288 698
vn 280 -29 821
vn 503 278 609
vn 93 1039 -147
vn 402 -37 -743
vn 535 -1064 -39
vn 859 -792 -83
vn 523 146 -132
usemtl m0
f 1 2 3

usemtl m1
f 3 2 4

usemtl m2
f 4 2 5

usemtl m3
f 4 5 6

usemtl m4
f 4 6 7

usemtl m5
f 6 5 8

usemtl m6
f 9 10 11

usemtl m7
f 9 11 12

usemtl m8
f 9 12 13

usemtl m9
f 9 13 14

usemtl m10
f 9 14 15

usemtl m11
f 9 15 10

usemtl m12
f 10 15 16

usemtl m13
f 10 16 17

usemtl m14
f 10 17 18

usemtl m15
f 10 18 11

usemtl m16
f 19 20 21

usemtl m17
f 19 21 22

usemtl m18
f 19 22 23

usemtl m19
f 19 23 24

usemtl m20
f 19 24 25

usemtl m21
f 19 25 20

usemtl m22
f 20 26 21

usemtl m23
f 21 26 27

usemtl m24
f 21 27 28

usemtl m25
f 21 28 22

usemtl m26
f 29 25 24

usemtl m27
f 29 24 23

usemtl m28
f 30 17 16

usemtl m29
f 17 30 18

usemtl m30
f 31 32 33

usemtl m31
f 31 33 34

usemtl m32
f 31 34 35

usemtl m33
f 31 35 32

usemtl m34
f 32 35 36

usemtl m35
f 32 36 33

usemtl m36
f 33 36 37

usemtl m37
f 33 37 38

usemtl m38
f 33 38 39

usemtl m39
f 33 39 34

usemtl m40
f 34 39 40

usemtl m41
f 34 40 41

usemtl m42
f 34 41 35

usemtl m43
f 35 41 36

usemtl m44
f 36 41 37

usemtl m45
f 37 41 38

usemtl m46
f 38 41 42

usemtl m47
f 38 42 39

usemtl m48
f 39 42 40

usemtl m49
f 40 42 41

usemtl m50
f 43 44 45

usemtl m51
f 43 45 46

usemtl m52
f 43 46 47

usemtl m53
f 43 47 48

usemtl m54
f 43 48 44

usemtl m55
f 44 48 49

usemtl m56
f 44 49 50

usemtl m57
f 44 50 45

usemtl m58
f 45 50 51

usemtl m59
f 45 51 52

usemtl m60
f 45 52 46

usemtl m61
f 46 52 53

usemtl m62
f 46 53 54

usemtl m63
f 46 54 47

usemtl m64
f 47 54 49

usemtl m65
f 47 49 48

usemtl m66
f 53 55 54

usemtl m67
f 54 55 50

usemtl m68
f 54 50 49

usemtl m69
f 56 55 53

usemtl m70
f 56 53 52

usemtl m71
f 56 52 51

usemtl m72
f 56 51 55

usemtl m73
f 55 51 50

usemtl m74
f 57 58 59

usemtl m75
f 57 59 60

usemtl m76
f 57 60 61

usemtl m77
f 57 61 7

usemtl m78
f 57 7 58

usemtl m79
f 58 7 62

usemtl m80
f 58 62 63

usemtl m81
f 58 63 59

usemtl m82
f 59 63 64

usemtl m83
f 59 64 65

usemtl m84
f 59 65 60

usemtl m85
f 60 65 66

usemtl m86
f 60 66 67

usemtl m87
f 60 67 61

usemtl m88
f 61 67 62

usemtl m89
f 61 62 7

usemtl m90
f 66 68 67

usemtl m91
f 67 68 63

usemtl m92
f 67 63 62

usemtl m93
f 69 68 66

usemtl m94
f 69 66 65

usemtl m95
f 69 65 64

usemtl m96
f 69 64 68

usemtl m97
f 68 64 63

usemtl m98
f 70 71 72

usemtl m99
f 70 72 73

usemtl m100
f 70 73 74

usemtl m101
f 70 74 1

usemtl m102
f 70 1 71

usemtl m103
f 71 1 75

usemtl m104
f 71 75 76

usemtl m105
f 71 76 72

usemtl m106
f 72 76 77

usemtl m107
f 72 77 78

usemtl m108
f 72 78 73

usemtl m109
f 73 78 79

usemtl m110
f 73 79 80

usemtl m111
f 73 80 74

usemtl m112
f 74 80 75

usemtl m113
f 74 75 1

usemtl m114
f 79 81 80

usemtl m115
f 80 81 76

usemtl m116
f 80 76 75

usemtl m117
f 82 81 79

usemtl m118
f 82 79 78

usemtl m119
f 82 78 77

usemtl m120
f 82 77 81

usemtl m121
f 81 77 76

