newmtl m0
Kd 0.6980392156862745 0.6980392156862745 0.7333333333333333
newmtl m1
Kd 0.6980392156862745 0.6980392156862745 0.7333333333333333
newmtl m2
Kd 0.6980392156862745 0.6980392156862745 0.7333333333333333
newmtl m3
Kd 0.6980392156862745 0.6980392156862745 0.7333333333333333
newmtl m4
Kd 0.6980392156862745 0.6980392156862745 0.7333333333333333
newmtl m5
Kd 0.6980392156862745 0.6980392156862745 0.7333333333333333
newmtl m6
Kd 0.6980392156862745 0.6980392156862745 0.7333333333333333
newmtl m7
Kd 0.6980392156862745 0.6980392156862745 0.7333333333333333
newmtl m8
Kd 0.6980392156862745 0.6980392156862745 0.7333333333333333
newmtl m9
Kd 0.6980392156862745 0.6980392156862745 0.7333333333333333
newmtl m10
Kd 0.6980392156862745 0.6980392156862745 0.7333333333333333
newmtl m11
Kd 0.6980392156862745 0.6980392156862745 0.7333333333333333
newmtl m12
Kd 0.6980392156862745 0.6980392156862745 0.7333333333333333
newmtl m13
Kd 0.6980392156862745 0.6980392156862745 0.7333333333333333
newmtl m14
Kd 0.6980392156862745 0.6980392156862745 0.7333333333333333
newmtl m15
Kd 0.6980392156862745 0.6980392156862745 0.7333333333333333
newmtl m16
Kd 0.6980392156862745 0.6980392156862745 0.7333333333333333
newmtl m17
Kd 0.6980392156862745 0.6980392156862745 0.7333333333333333
newmtl m18
Kd 0.6980392156862745 0.6980392156862745 0.7333333333333333
newmtl m19
Kd 0.6980392156862745 0.6980392156862745 0.7333333333333333
newmtl m20
Kd 0.6980392156862745 0.6980392156862745 0.7333333333333333
newmtl m21
Kd 0.6980392156862745 0.6980392156862745 0.7333333333333333
newmtl m22
Kd 0.6980392156862745 0.6980392156862745 0.7333333333333333
newmtl m23
Kd 0.6980392156862745 0.6980392156862745 0.7333333333333333
newmtl m24
Kd 0.6980392156862745 0.6980392156862745 0.7333333333333333
newmtl m25
Kd 0.6980392156862745 0.6980392156862745 0.7333333333333333
newmtl m26
Kd 0.6980392156862745 0.6980392156862745 0.7333333333333333
newmtl m27
Kd 0.6980392156862745 0.6980392156862745 0.7333333333333333
newmtl m28
Kd 0.6980392156862745 0.6980392156862745 0.7333333333333333
newmtl m29
Kd 0.6980392156862745 0.6980392156862745 0.7333333333333333
newmtl m30
Kd 0.6980392156862745 0.6980392156862745 0.7333333333333333
newmtl m31
Kd 0.6980392156862745 0.6980392156862745 0.7333333333333333
newmtl m32
Kd 0.6980392156862745 0.6980392156862745 0.7333333333333333
newmtl m33
Kd 0.6980392156862745 0.6980392156862745 0.7333333333333333
newmtl m34
Kd 0.6980392156862745 0.6980392156862745 0.7333333333333333
newmtl m35
Kd 0.6980392156862745 0.6980392156862745 0.7333333333333333
newmtl m36
Kd 0.7803921568627451 0.7568627450980392 0.6745098039215687
newmtl m37
Kd 0.7803921568627451 0.7568627450980392 0.6745098039215687
newmtl m38
Kd 0.7803921568627451 0.7568627450980392 0.6745098039215687
newmtl m39
Kd 0.7803921568627451 0.7568627450980392 0.6745098039215687
