mtllib 756.mtl
o runescapemodel
v -64 954 -64
v -64 954 64
v 64 954 64
v 64 954 -64
v 58 952 14
v 64 922 64
v 58 922 14
v 60 954 -52
v -60 952 24
v -60 953 -16
v -60 922 -24
v -60 922 24
v -64 922 64
v 60 922 -52
v -64 922 -64
v 64 922 -64
v 58 922 -38
v 48 922 -32
v 50 858 -38
v 48 922 -44
v 58 922 -2
v 48 922 6
v 52 846 -2
v 48 922 -10
v 60 922 38
v 50 922 44
v 52 866 38
v 50 922 32
v -52 866 38
v -50 922 44
v -60 922 38
v -50 922 32
v -52 846 0
v -48 922 8
v -58 922 0
v -48 922 -8
v -52 858 -40
v -50 922 -34
v -60 922 -40
v -50 922 -46
v 28 954 -8
v 36 954 -16
v 32 961 -16
v 29 961 -13
v 22 954 -16
v 27 961 -16
v 31 954 -23
v 29 961 -18
v -14 365 17
v -4 349 26
v -4 437 13
v -12 459 8
v -18 373 -2
v -13 264 -4
v -13 254 13
v 9 258 22
v 27 260 17
v 11 342 21
v 5 425 10
v -3 525 20
v -16 525 11
v -12 460 0
v -10 350 -18
v 1 257 -14
v 2 185 -18
v -16 182 -2
v -12 180 18
v 10 174 29
v 23 189 23
v 41 186 -2
v 35 269 -4
v 16 345 -2
v 7 426 0
v 9 525 13
v -3 609 28
v -16 607 14
v -19 525 2
v -6 449 -7
v 2 337 -14
v 14 254 -17
v 15 184 -26
v 2 136 -23
v -15 135 -14
v -26 136 -2
v -25 134 6
v -3 134 28
v 17 134 10
v 27 138 -2
v 1 437 -9
v 12 525 2
v 22 611 17
v -16 688 35
v -44 673 17
v -22 605 0
v -7 525 -8
v -7 -9 8
v 8 -9 21
v 13 35 27
v -9 35 10
v -11 -9 -2
v -16 38 0
v 1 -9 -15
v 4 35 -14
v 14 -9 -22
v 16 40 -21
v 39 37 -2
v 35 -9 -2
v 23 40 13
v 24 -9 14
v 5 84 24
v -10 85 10
v -16 89 -2
v 0 85 -12
v 9 85 -16
v 35 81 -2
v 23 89 15
v -42 854 21
v -2 856 53
v -1 944 51
v -33 944 26
v -48 853 -4
v -39 777 -4
v -34 777 21
v -2 777 42
v 26 777 26
v 39 852 32
v 33 944 32
v 47 862 -4
v 40 944 -7
v 18 852 -36
v 13 944 -42
v -19 944 -37
v -19 852 -36
v -46 944 -7
v 32 777 -4
v 10 777 -32
v -16 777 -28
v -25 686 -22
v -46 680 -3
v 17 688 21
v 17 686 -3
v 6 693 -25
v 4 609 -18
v -10 609 -16
v 35 611 0
v 1 525 -11
vn -255 -767 -26
vn -509 -766 72
vn 254 -767 40
vn 484 -767 -167
vn 763 -765 68
vn 508 0 60
vn 766 0 16
vn 753 -766 -108
vn -767 -765 24
vn -767 -760 -57
vn -766 6 -25
vn -764 0 50
vn -254 0 25
vn 742 0 -169
vn -509 6 -46
vn 243 0 -81
vn 262 32 0
vn -125 24 -219
vn 6 40 0
vn -125 24 219
vn 318 24 0
vn -96 25 -199
vn 63 37 0
vn -96 25 199
vn 262 36 0
vn -125 27 -219
vn 6 45 0
vn -125 27 219
vn -6 45 0
vn 125 27 -219
vn -262 36 0
vn 125 27 219
vn -63 37 0
vn 96 25 -199
vn -318 24 0
vn 96 25 199
vn -6 40 0
vn 125 24 -219
vn -262 32 0
vn 125 24 219
vn 155 -315 -472
vn 481 -314 164
vn 473 -782 -130
vn -198 -607 -427
vn -510 -357 -74
vn -508 -822 241
vn -147 -318 490
vn 134 -550 511
vn -1156 -43 -738
vn -166 -37 -1354
vn -110 -94 -1353
vn -1148 -5 -705
vn -1363 1 310
vn -1226 -2 557
vn -1131 10 -709
vn -81 -45 -1434
vn 888 -78 -1085
vn 1019 -198 -918
vn 1054 -47 -848
vn -140 102 -1305
vn -1217 88 -752
vn -1345 -2 391
vn -485 -41 1111
vn -780 1 1206
vn -871 -107 1245
vn -1275 -146 438
vn -1068 -116 -839
vn 5 54 -1247
vn 917 139 -1123
vn 1149 136 162
vn 1111 -187 377
vn 1166 -194 457
vn 1328 -25 313
vn 1100 122 -855
vn -178 120 -1243
vn -1171 211 -857
vn -1252 68 279
vn -566 -35 1261
vn 683 -115 1250
vn 379 -130 1381
vn 146 -43 1279
vn 132 110 1231
vn -877 43 1199
vn -1248 -6 433
vn -1198 70 -736
vn -80 44 -1139
vn 1099 65 -1009
vn 1041 123 142
vn 403 -1 1180
vn 1282 166 189
vn 952 118 -1074
vn -132 138 -1312
vn -1100 197 -786
vn -1244 278 306
vn -782 71 1269
vn -560 38 -490
vn -66 50 -424
vn 27 31 -1134
vn -1145 79 -972
vn -637 55 -62
vn -1130 34 191
vn -454 -15 608
vn -808 -25 1300
vn 86 -5 826
vn 86 -72 1286
vn 1060 6 63
vn 560 23 -147
vn 1079 -24 -1052
vn 519 29 -526
vn -75 26 -1184
vn -1192 147 -903
vn -1130 150 411
vn -795 125 1279
vn 90 21 1325
vn 1028 -162 198
vn 999 -89 -1102
vn -1220 39 -766
vn -104 103 -1283
vn -77 -21 -850
vn -643 -33 -352
vn -1295 47 306
vn -1287 41 382
vn -1189 24 -757
vn -68 107 -1314
vn 1111 203 -767
vn 1094 99 -827
vn 622 -47 -327
vn 1325 59 347
vn 640 -32 284
vn 543 53 1257
vn 163 18 408
vn -229 21 679
vn -606 70 1274
vn -617 -6 249
vn 1361 223 294
vn 515 146 1236
vn -654 101 1280
vn -594 90 1318
vn -1268 139 458
vn 1029 24 -842
vn 1323 37 414
vn 569 127 1157
vn 391 81 1316
vn -712 204 1249
vn 1096 40 298
vn 300 128 1274
usemtl m0
f 1 2 3

usemtl m1
f 1 3 4

usemtl m2
f 5 3 6

usemtl m3
f 5 6 7

usemtl m4
f 5 7 8

usemtl m5
f 5 8 9

usemtl m6
f 5 9 2

usemtl m7
f 5 2 3

usemtl m8
f 8 10 9

usemtl m9
f 9 10 11

usemtl m10
f 9 11 12

usemtl m11
f 9 12 2

usemtl m12
f 2 12 13

usemtl m13
f 8 7 14

usemtl m14
f 8 14 4

usemtl m15
f 8 4 10

usemtl m16
f 10 4 1

usemtl m17
f 10 1 15

usemtl m18
f 10 15 11

usemtl m19
f 4 14 16

usemtl m20
f 17 18 19

usemtl m21
f 17 19 20

usemtl m22
f 20 19 18

usemtl m23
f 21 22 23

usemtl m24
f 21 23 24

usemtl m25
f 24 23 22

usemtl m26
f 25 26 27

usemtl m27
f 25 27 28

usemtl m28
f 28 27 26

usemtl m29
f 29 30 31

usemtl m30
f 29 31 32

usemtl m31
f 29 32 30

usemtl m32
f 33 34 35

usemtl m33
f 33 35 36

usemtl m34
f 33 36 34

usemtl m35
f 37 38 39

usemtl m36
f 37 39 40

usemtl m37
f 37 40 38

usemtl m38
f 41 42 43

usemtl m39
f 41 43 44

usemtl m40
f 41 44 45

usemtl m41
f 45 44 46

usemtl m42
f 45 46 47

usemtl m43
f 47 46 48

usemtl m44
f 47 48 42

usemtl m45
f 42 48 43

usemtl m46
f 43 48 46

usemtl m47
f 43 46 44

usemtl m48
f 49 50 51

usemtl m49
f 49 51 52

usemtl m50
f 49 52 53

usemtl m51
f 49 53 54

usemtl m52
f 49 54 55

usemtl m53
f 49 55 50

usemtl m54
f 50 55 56

usemtl m55
f 50 56 57

usemtl m56
f 50 57 58

usemtl m57
f 50 58 51

usemtl m58
f 51 58 59

usemtl m59
f 51 59 60

usemtl m60
f 51 60 52

usemtl m61
f 52 60 61

usemtl m62
f 52 61 62

usemtl m63
f 52 62 53

usemtl m64
f 53 62 63

usemtl m65
f 53 63 64

usemtl m66
f 53 64 54

usemtl m67
f 54 64 65

usemtl m68
f 54 65 66

usemtl m69
f 54 66 55

usemtl m70
f 55 66 67

usemtl m71
f 55 67 56

usemtl m72
f 56 67 68

usemtl m73
f 56 68 69

usemtl m74
f 56 69 57

usemtl m75
f 57 69 70

usemtl m76
f 57 70 71

usemtl m77
f 57 71 58

usemtl m78
f 58 71 72

usemtl m79
f 58 72 59

usemtl m80
f 59 72 73

usemtl m81
f 59 73 74

usemtl m82
f 59 74 60

usemtl m83
f 60 74 75

usemtl m84
f 60 75 61

usemtl m85
f 61 75 76

usemtl m86
f 61 76 77

usemtl m87
f 61 77 62

usemtl m88
f 62 77 78

usemtl m89
f 62 78 63

usemtl m90
f 63 78 79

usemtl m91
f 63 79 80

usemtl m92
f 63 80 64

usemtl m93
f 64 80 81

usemtl m94
f 64 81 65

usemtl m95
f 65 81 82

usemtl m96
f 65 82 83

usemtl m97
f 65 83 66

usemtl m98
f 66 83 84

usemtl m99
f 66 84 67

usemtl m100
f 67 84 85

usemtl m101
f 67 85 68

usemtl m102
f 68 85 86

usemtl m103
f 68 86 87

usemtl m104
f 68 87 69

usemtl m105
f 69 87 88

usemtl m106
f 69 88 70

usemtl m107
f 70 88 82

usemtl m108
f 70 82 81

usemtl m109
f 70 81 71

usemtl m110
f 71 81 80

usemtl m111
f 71 80 72

usemtl m112
f 72 80 79

usemtl m113
f 72 79 73

usemtl m114
f 73 79 89

usemtl m115
f 73 89 90

usemtl m116
f 73 90 74

usemtl m117
f 74 90 91

usemtl m118
f 74 91 75

usemtl m119
f 75 91 92

usemtl m120
f 75 92 76

usemtl m121
f 76 92 93

usemtl m122
f 76 93 94

usemtl m123
f 76 94 77

usemtl m124
f 77 94 95

usemtl m125
f 77 95 78

usemtl m126
f 78 95 89

usemtl m127
f 78 89 79

usemtl m128
f 96 97 98

usemtl m129
f 96 98 99

usemtl m130
f 96 99 100

usemtl m131
f 100 99 101

usemtl m132
f 100 101 102

usemtl m133
f 102 101 103

usemtl m134
f 102 103 104

usemtl m135
f 104 103 105

usemtl m136
f 104 105 106

usemtl m137
f 104 106 107

usemtl m138
f 107 106 108

usemtl m139
f 107 108 109

usemtl m140
f 109 108 98

usemtl m141
f 109 98 97

usemtl m142
f 99 98 110

usemtl m143
f 99 110 111

usemtl m144
f 99 111 101

usemtl m145
f 101 111 112

usemtl m146
f 101 112 103

usemtl m147
f 103 112 113

usemtl m148
f 103 113 105

usemtl m149
f 105 113 114

usemtl m150
f 105 114 115

usemtl m151
f 105 115 106

usemtl m152
f 106 115 116

usemtl m153
f 106 116 108

usemtl m154
f 108 116 110

usemtl m155
f 108 110 98

usemtl m156
f 111 110 86

usemtl m157
f 111 86 85

usemtl m158
f 111 85 112

usemtl m159
f 112 85 84

usemtl m160
f 112 84 113

usemtl m161
f 113 84 83

usemtl m162
f 113 83 114

usemtl m163
f 114 83 82

usemtl m164
f 114 82 88

usemtl m165
f 114 88 115

usemtl m166
f 115 88 87

usemtl m167
f 115 87 116

usemtl m168
f 116 87 86

usemtl m169
f 116 86 110

usemtl m170
f 117 118 119

usemtl m171
f 117 119 120

usemtl m172
f 117 120 121

usemtl m173
f 117 121 122

usemtl m174
f 117 122 123

usemtl m175
f 117 123 118

usemtl m176
f 118 123 124

usemtl m177
f 118 124 125

usemtl m178
f 118 125 126

usemtl m179
f 118 126 119

usemtl m180
f 119 126 127

usemtl m181
f 127 126 128

usemtl m182
f 127 128 129

usemtl m183
f 129 128 130

usemtl m184
f 129 130 131

usemtl m185
f 131 130 132

usemtl m186
f 132 130 133

usemtl m187
f 132 133 134

usemtl m188
f 134 133 121

usemtl m189
f 134 121 120

usemtl m190
f 126 125 135

usemtl m191
f 126 135 128

usemtl m192
f 128 135 136

usemtl m193
f 128 136 130

usemtl m194
f 130 136 133

usemtl m195
f 133 136 137

usemtl m196
f 133 137 121

usemtl m197
f 121 137 122

usemtl m198
f 122 137 138

usemtl m199
f 122 138 139

usemtl m200
f 122 139 123

usemtl m201
f 123 139 93

usemtl m202
f 123 93 124

usemtl m203
f 124 93 92

usemtl m204
f 124 92 140

usemtl m205
f 124 140 125

usemtl m206
f 125 140 141

usemtl m207
f 125 141 135

usemtl m208
f 135 141 142

usemtl m209
f 135 142 136

usemtl m210
f 136 142 137

usemtl m211
f 137 142 138

usemtl m212
f 138 142 143

usemtl m213
f 138 143 144

usemtl m214
f 138 144 139

usemtl m215
f 139 144 94

usemtl m216
f 139 94 93

usemtl m217
f 92 91 140

usemtl m218
f 140 91 145

usemtl m219
f 140 145 141

usemtl m220
f 141 145 143

usemtl m221
f 141 143 142

usemtl m222
f 91 90 145

usemtl m223
f 145 90 146

usemtl m224
f 145 146 143

usemtl m225
f 143 146 144

usemtl m226
f 144 146 95

usemtl m227
f 144 95 94

usemtl m228
f 90 89 146

usemtl m229
f 146 89 95

