mtllib 7562.mtl
o runescapemodel
v -64 139 -29
v -40 171 -29
v -40 171 29
v -64 139 29
v -40 176 64
v -64 139 64
v -64 173 64
v -49 195 64
v -64 168 29
v -49 190 29
v -64 168 -29
v -49 190 -29
v -64 173 -64
v -49 195 -64
v -64 139 -64
v -40 176 -64
v -13 195 29
v -13 195 -29
v -14 202 -64
v -21 181 -64
v -18 177 -29
v -18 177 29
v -21 181 64
v -14 202 64
vn 826 598 21
vn 408 306 21
vn 612 459 -21
vn 622 445 -21
vn 418 292 -789
vn 214 139 -256
vn -211 -143 -492
vn -471 -534 -693
vn -633 -430 40
vn -751 -1180 105
vn -633 -431 -20
vn -737 -1187 -75
vn -422 -286 216
vn -294 -640 663
vn 214 139 512
vn 418 292 789
vn 629 -538 -1
vn 620 -546 -65
vn 438 -98 511
vn 241 80 285
vn 733 216 49
vn 737 204 -28
vn 487 148 -563
vn 159 -416 -194
usemtl m0
f 1 2 3

usemtl m1
f 1 3 4

usemtl m2
f 4 3 5

usemtl m3
f 4 5 6

usemtl m4
f 6 5 7

usemtl m5
f 7 5 8

usemtl m6
f 7 8 9

usemtl m7
f 9 8 10

usemtl m8
f 9 10 11

usemtl m9
f 11 10 12

usemtl m10
f 11 12 13

usemtl m11
f 13 12 14

usemtl m12
f 13 14 15

usemtl m13
f 15 14 16

usemtl m14
f 15 16 1

usemtl m15
f 1 16 2

usemtl m16
f 12 10 17

usemtl m17
f 12 17 18

usemtl m18
f 12 18 14

usemtl m19
f 14 18 19

usemtl m20
f 14 19 16

usemtl m21
f 16 19 20

usemtl m22
f 20 19 21

usemtl m23
f 21 19 18

usemtl m24
f 21 18 22

usemtl m25
f 22 18 17

usemtl m26
f 22 17 23

usemtl m27
f 23 17 24

usemtl m28
f 23 24 8

usemtl m29
f 23 8 5

usemtl m30
f 10 8 24

usemtl m31
f 10 24 17

