mtllib 7568.mtl
o runescapemodel
v 0 180 22
v 37 167 23
v 37 167 31
v 0 179 30
v -64 212 19
v -64 221 19
v 8 185 22
v 42 173 23
v 64 159 24
v 64 158 32
v 64 167 32
v 42 173 31
v 8 185 30
v -64 212 27
v -64 221 27
v 64 167 25
v 64 204 -23
v 30 192 -22
v 36 186 -22
v 64 195 -23
v 64 204 -31
v 30 192 -30
v 0 176 -22
v 5 169 -22
v 5 169 -30
v 35 186 -30
v 64 195 -31
v 0 176 -30
v -64 128 -21
v -64 118 -21
v -64 118 -29
v -64 128 -29
v 2 170 11
v 41 188 -2
v 47 182 -2
v 8 164 10
v -64 132 37
v -64 131 45
v 3 171 19
v 42 189 6
v 64 195 -5
v 64 187 -5
v 64 187 3
v 48 183 5
v 9 165 18
v -64 122 38
v -64 124 45
v 64 195 2
v -1 126 2
v -64 168 -8
v -64 168 0
v -2 126 10
v 31 109 7
v 25 103 6
v -3 118 2
v -64 159 -8
v -64 159 0
v -4 117 10
v 30 109 15
v 64 94 15
v 64 94 7
v 64 86 6
v 24 103 14
v 6 172 -46
v 5 171 -54
v -64 173 -44
v -64 174 -36
v 6 164 -45
v 17 156 -45
v 21 163 -47
v 21 161 -54
v 5 163 -53
v -64 165 -43
v -64 166 -35
v 16 155 -53
v 23 141 -50
v 23 143 -43
v 30 141 -42
v 30 140 -50
v 48 158 45
v 52 151 43
v 47 142 41
v 39 144 42
v 48 156 53
v 60 164 53
v 60 166 46
v 61 158 44
v 53 150 51
v 47 141 49
v 16 0 31
v 8 0 31
v 8 0 39
v 39 142 50
v 61 156 52
v 64 156 52
v 64 165 53
v 64 165 45
v 64 157 44
v 0 0 -23
v 0 0 -16
v 7 0 -15
v 7 0 -23
v 16 0 38
v 64 1 -50
v 64 10 -50
v 16 30 -49
v 12 23 -49
v 64 1 -58
v 64 10 -58
v 16 30 -57
v -18 48 -48
v -23 42 -48
v -22 41 -56
v 13 22 -57
v -17 47 -56
v -64 87 -48
v -64 76 -48
v -64 76 -56
v -64 87 -56
v 64 86 14
v -64 23 -5
v -23 40 -5
v -25 48 -5
v -64 33 -5
v -64 23 -12
v -24 40 -12
v 12 52 -5
v 9 60 -5
v 9 60 -12
v -26 48 -12
v -64 33 -12
v 12 52 -12
v 64 61 -5
v 64 69 -5
v 64 69 -12
v 64 61 -12
v 64 8 -6
v 64 6 -12
v 64 15 -14
v 64 16 -8
v 50 10 4
v 46 9 -3
v 49 17 -6
v 52 18 1
v 24 18 16
v 20 17 9
v 22 24 7
v 26 25 14
v -64 51 57
v -64 48 50
v -64 58 48
v -64 60 55
vn -253 728 826
vn -221 746 798
vn -266 716 -738
vn -323 678 -710
vn -729 455 284
vn -125 -220 512
vn 327 -679 768
vn 280 -750 765
vn 223 219 539
vn 351 487 -226
vn 305 -254 -512
vn 200 -752 -768
vn 262 -726 -768
vn -390 218 -512
vn -294 -458 -256
vn 677 -525 253
vn 185 -246 -512
vn -285 -712 -768
vn 341 686 -744
vn 675 489 -247
vn 335 -482 256
vn -339 -686 768
vn -387 -655 -768
vn 429 634 -768
vn 396 653 783
vn 273 716 792
vn 318 250 512
vn -428 -632 768
vn -814 -408 -256
vn -98 204 -512
vn -211 410 256
vn -414 -203 512
vn -557 -560 727
vn -421 -615 797
vn 95 835 699
vn 135 760 690
vn -529 -167 456
vn -672 -442 -256
vn -124 -735 -688
vn -74 -778 -708
vn 335 -491 274
vn 261 280 506
vn 672 462 -280
vn 423 646 -807
vn 589 571 -816
vn -322 450 173
vn 46 176 -540
vn 257 -281 -506
vn 507 -638 729
vn -295 -205 505
vn -13 -426 -269
vn 266 -682 -803
vn 498 -951 467
vn -123 407 1041
vn -255 682 858
vn -497 422 295
vn -735 202 -505
vn -499 639 -674
vn 122 -404 -1040
vn 707 -436 -266
vn 388 -293 508
vn 323 439 266
vn -479 957 -439
vn 235 -833 -646
vn 169 -591 891
vn -289 -477 314
vn -438 -316 -471
vn -203 569 -875
vn -512 284 -866
vn 552 -667 -621
vn 572 -299 860
vn -227 800 654
vn -588 316 471
vn -224 477 -314
vn -549 643 628
vn -981 234 441
vn -531 -139 -1017
vn 935 -208 -468
vn 478 139 1011
vn -547 -734 601
vn 547 268 848
vn 421 8 1025
vn -974 -457 422
vn -517 -313 -868
vn -317 -574 -949
vn -224 -885 617
vn 180 484 905
vn 589 730 -604
vn 990 457 -435
vn 500 92 261
vn -275 -94 508
vn -469 -80 -265
vn -366 1 -1045
vn 115 818 -618
vn 519 316 -480
vn 266 -475 -326
vn 538 -344 504
vn 188 460 347
vn -258 54 502
vn -539 -131 -237
vn 196 -62 -497
vn 504 129 246
vn 309 106 -505
vn 165 238 -512
vn 713 -472 -256
vn 236 -453 -1024
vn -430 927 -553
vn 311 472 239
vn 345 -237 512
vn 422 -928 525
vn 406 -644 -752
vn -438 625 -784
vn -411 642 740
vn -238 454 995
vn 436 -623 784
vn 75 -390 -253
vn -675 197 -512
vn -583 393 252
vn -346 -195 512
vn 130 296 -508
vn -158 237 -512
vn 281 714 -743
vn -260 -722 -792
vn -698 -477 -269
vn -314 472 270
vn 264 720 793
vn 207 737 -757
vn -167 -745 -768
vn -209 -735 757
vn -269 -719 744
vn -350 -238 512
vn 167 747 768
vn 598 504 -256
vn 215 -252 -512
vn 430 -504 256
vn 299 252 512
vn 656 448 -322
vn 15 331 362
vn 410 -458 303
vn 573 -338 -359
vn 326 603 -784
vn -403 852 491
vn -271 -623 815
vn 455 -872 -511
vn 212 603 -897
vn -504 833 482
vn -192 -622 867
vn 493 -842 -494
vn -61 152 -545
vn -731 515 54
vn -437 -165 511
vn -271 -525 -84
usemtl m0
f 1 2 3

usemtl m1
f 1 3 4

usemtl m2
f 1 4 5

usemtl m3
f 1 5 6

usemtl m4
f 1 6 7

usemtl m5
f 1 7 2

usemtl m6
f 2 7 8

usemtl m7
f 2 8 9

usemtl m8
f 2 9 10

usemtl m9
f 2 10 3

usemtl m10
f 3 10 11

usemtl m11
f 3 11 12

usemtl m12
f 3 12 4

usemtl m13
f 4 12 13

usemtl m14
f 4 13 14

usemtl m15
f 4 14 5

usemtl m16
f 5 14 15

usemtl m17
f 5 15 6

usemtl m18
f 6 15 7

usemtl m19
f 7 15 13

usemtl m20
f 7 13 8

usemtl m21
f 8 13 12

usemtl m22
f 8 12 16

usemtl m23
f 8 16 9

usemtl m24
f 9 16 10

usemtl m25
f 10 16 11

usemtl m26
f 11 16 12

usemtl m27
f 17 18 19

usemtl m28
f 17 19 20

usemtl m29
f 17 20 21

usemtl m30
f 17 21 18

usemtl m31
f 18 21 22

usemtl m32
f 18 22 23

usemtl m33
f 18 23 24

usemtl m34
f 18 24 19

usemtl m35
f 19 24 25

usemtl m36
f 19 25 26

usemtl m37
f 19 26 20

usemtl m38
f 20 26 27

usemtl m39
f 20 27 21

usemtl m40
f 21 27 22

usemtl m41
f 22 27 26

usemtl m42
f 22 26 28

usemtl m43
f 22 28 23

usemtl m44
f 23 28 29

usemtl m45
f 23 29 30

usemtl m46
f 23 30 24

usemtl m47
f 24 30 31

usemtl m48
f 24 31 25

usemtl m49
f 25 31 32

usemtl m50
f 25 32 28

usemtl m51
f 25 28 26

usemtl m52
f 33 34 35

usemtl m53
f 33 35 36

usemtl m54
f 33 36 37

usemtl m55
f 33 37 38

usemtl m56
f 33 38 39

usemtl m57
f 33 39 34

usemtl m58
f 34 39 40

usemtl m59
f 34 40 41

usemtl m60
f 34 41 42

usemtl m61
f 34 42 35

usemtl m62
f 35 42 43

usemtl m63
f 35 43 44

usemtl m64
f 35 44 36

usemtl m65
f 36 44 45

usemtl m66
f 36 45 46

usemtl m67
f 36 46 37

usemtl m68
f 37 46 38

usemtl m69
f 38 46 47

usemtl m70
f 38 47 39

usemtl m71
f 39 47 45

usemtl m72
f 39 45 40

usemtl m73
f 40 45 44

usemtl m74
f 40 44 48

usemtl m75
f 40 48 41

usemtl m76
f 41 48 43

usemtl m77
f 41 43 42

usemtl m78
f 45 47 46

usemtl m79
f 49 50 51

usemtl m80
f 49 51 52

usemtl m81
f 49 52 53

usemtl m82
f 49 53 54

usemtl m83
f 49 54 55

usemtl m84
f 49 55 50

usemtl m85
f 50 55 56

usemtl m86
f 50 56 57

usemtl m87
f 50 57 51

usemtl m88
f 51 57 52

usemtl m89
f 52 57 58

usemtl m90
f 52 58 59

usemtl m91
f 52 59 53

usemtl m92
f 53 59 60

usemtl m93
f 53 60 61

usemtl m94
f 53 61 54

usemtl m95
f 54 61 62

usemtl m96
f 54 62 63

usemtl m97
f 54 63 55

usemtl m98
f 55 63 58

usemtl m99
f 55 58 56

usemtl m100
f 56 58 57

usemtl m101
f 28 32 29

usemtl m102
f 29 32 31

usemtl m103
f 29 31 30

usemtl m104
f 64 65 66

usemtl m105
f 64 66 67

usemtl m106
f 64 67 68

usemtl m107
f 64 68 69

usemtl m108
f 64 69 70

usemtl m109
f 64 70 65

usemtl m110
f 65 70 71

usemtl m111
f 65 71 72

usemtl m112
f 65 72 73

usemtl m113
f 65 73 66

usemtl m114
f 66 73 67

usemtl m115
f 67 73 74

usemtl m116
f 67 74 68

usemtl m117
f 68 74 72

usemtl m118
f 68 72 75

usemtl m119
f 68 75 69

usemtl m120
f 69 75 76

usemtl m121
f 69 76 77

usemtl m122
f 69 77 70

usemtl m123
f 70 77 78

usemtl m124
f 70 78 71

usemtl m125
f 71 78 79

usemtl m126
f 71 79 75

usemtl m127
f 71 75 72

usemtl m128
f 74 73 72

usemtl m129
f 44 43 48

usemtl m130
f 80 81 82

usemtl m131
f 80 82 83

usemtl m132
f 80 83 84

usemtl m133
f 80 84 85

usemtl m134
f 80 85 86

usemtl m135
f 80 86 81

usemtl m136
f 81 86 87

usemtl m137
f 81 87 88

usemtl m138
f 81 88 89

usemtl m139
f 81 89 82

usemtl m140
f 82 89 90

usemtl m141
f 82 90 91

usemtl m142
f 82 91 83

usemtl m143
f 83 91 92

usemtl m144
f 83 92 93

usemtl m145
f 83 93 84

usemtl m146
f 84 93 88

usemtl m147
f 84 88 94

usemtl m148
f 84 94 85

usemtl m149
f 85 94 95

usemtl m150
f 85 95 96

usemtl m151
f 85 96 86

usemtl m152
f 86 96 97

usemtl m153
f 86 97 87

usemtl m154
f 87 97 98

usemtl m155
f 87 98 94

usemtl m156
f 87 94 88

usemtl m157
f 13 15 14

usemtl m158
f 95 98 97

usemtl m159
f 95 97 96

usemtl m160
f 79 76 75

usemtl m161
f 76 79 99

usemtl m162
f 76 99 100

usemtl m163
f 76 100 77

usemtl m164
f 77 100 101

usemtl m165
f 77 101 78

usemtl m166
f 78 101 102

usemtl m167
f 78 102 79

usemtl m168
f 79 102 99

usemtl m169
f 98 95 94

usemtl m170
f 93 89 88

usemtl m171
f 89 93 103

usemtl m172
f 89 103 90

usemtl m173
f 104 105 106

usemtl m174
f 104 106 107

usemtl m175
f 104 107 108

usemtl m176
f 104 108 105

usemtl m177
f 105 108 109

usemtl m178
f 105 109 110

usemtl m179
f 105 110 106

usemtl m180
f 106 110 111

usemtl m181
f 106 111 112

usemtl m182
f 106 112 107

usemtl m183
f 107 112 113

usemtl m184
f 107 113 114

usemtl m185
f 107 114 108

usemtl m186
f 108 114 109

usemtl m187
f 109 114 110

usemtl m188
f 110 114 115

usemtl m189
f 110 115 111

usemtl m190
f 111 115 116

usemtl m191
f 111 116 117

usemtl m192
f 111 117 112

usemtl m193
f 112 117 118

usemtl m194
f 112 118 113

usemtl m195
f 113 118 119

usemtl m196
f 113 119 115

usemtl m197
f 113 115 114

usemtl m198
f 117 116 119

usemtl m199
f 117 119 118

usemtl m200
f 62 61 60

usemtl m201
f 62 60 120

usemtl m202
f 62 120 63

usemtl m203
f 63 120 59

usemtl m204
f 63 59 58

usemtl m205
f 120 60 59

usemtl m206
f 121 122 123

usemtl m207
f 121 123 124

usemtl m208
f 121 124 125

usemtl m209
f 121 125 122

usemtl m210
f 122 125 126

usemtl m211
f 122 126 127

usemtl m212
f 122 127 128

usemtl m213
f 122 128 123

usemtl m214
f 123 128 129

usemtl m215
f 123 129 130

usemtl m216
f 123 130 124

usemtl m217
f 124 130 131

usemtl m218
f 124 131 125

usemtl m219
f 125 131 126

usemtl m220
f 126 131 130

usemtl m221
f 126 130 132

usemtl m222
f 126 132 127

usemtl m223
f 127 132 133

usemtl m224
f 127 133 134

usemtl m225
f 127 134 128

usemtl m226
f 128 134 135

usemtl m227
f 128 135 129

usemtl m228
f 129 135 136

usemtl m229
f 129 136 132

usemtl m230
f 129 132 130

usemtl m231
f 133 136 135

usemtl m232
f 133 135 134

usemtl m233
f 93 92 103

usemtl m234
f 137 138 139

usemtl m235
f 137 139 140

usemtl m236
f 137 140 141

usemtl m237
f 137 141 142

usemtl m238
f 137 142 138

usemtl m239
f 138 142 143

usemtl m240
f 138 143 139

usemtl m241
f 139 143 144

usemtl m242
f 139 144 140

usemtl m243
f 140 144 141

usemtl m244
f 141 144 145

usemtl m245
f 141 145 146

usemtl m246
f 141 146 142

usemtl m247
f 142 146 147

usemtl m248
f 142 147 143

usemtl m249
f 143 147 148

usemtl m250
f 143 148 144

usemtl m251
f 144 148 145

usemtl m252
f 145 148 149

usemtl m253
f 145 149 150

usemtl m254
f 145 150 146

usemtl m255
f 146 150 151

usemtl m256
f 146 151 147

usemtl m257
f 147 151 152

usemtl m258
f 147 152 148

usemtl m259
f 148 152 149

usemtl m260
f 149 152 150

usemtl m261
f 150 152 151

usemtl m262
f 115 119 116

usemtl m263
f 132 136 133

