mtllib 8175.mtl
o runescapemodel
v 15 29 -6
v 13 27 -4
v 7 27 -6
v 6 29 -7
v 7 32 -6
v 13 32 -4
v 15 29 1
v 15 27 0
v 12 0 -7
v 5 0 -9
v 0 0 -2
v 4 27 -2
v 2 29 -2
v 4 32 -2
v 1 70 -2
v 4 70 -5
v 8 70 -4
v 15 32 0
v 7 30 5
v 7 27 4
v 14 0 -2
v 7 32 3
v 6 70 1
v 0 74 -2
v 3 75 -6
v 9 75 -5
v 10 74 0
v 9 70 -1
v 4 77 -5
v 8 77 -4
v 9 77 -1
v 5 74 3
v 1 77 -2
v 3 112 -2
v 6 112 -6
v 9 111 -5
v 9 111 -2
v 6 77 2
v 6 111 -1
v 2 116 -2
v 5 115 -7
v 10 115 -6
v 11 115 -2
v 6 115 1
v 6 117 -6
v 9 117 -5
v 23 128 -5
v 21 125 -12
v 33 133 -8
v 37 128 -15
v 44 131 -10
v 56 118 -14
v 40 128 -2
v 25 125 0
v 3 118 -2
v 2 154 -2
v 4 154 -4
v 7 154 -3
v 10 117 -2
v 7 117 0
v 5 154 1
v 1 155 -2
v 4 155 -4
v 7 155 -4
v 8 155 -1
v 7 154 -2
v 5 155 2
v 5 158 1
v 1 158 -2
v 4 158 -4
v 7 169 -13
v 1 165 -13
v 7 173 -20
v 1 170 -25
v 7 173 -28
v 7 163 -38
v 13 170 -24
v 12 165 -13
v 7 158 -3
v 8 158 -1
v 10 186 -2
v 7 185 -2
v 5 185 -2
v 7 185 -5
v 9 186 -4
v 10 189 -2
v 7 189 -1
v 4 188 -2
v 6 189 -6
v 9 189 -5
v 9 192 -4
v 9 192 -2
v 7 191 -2
v 5 191 -2
v -2 199 -8
v -8 197 -5
v -9 201 -11
v -17 197 -10
v -14 200 -14
v -21 191 -17
v -11 197 -18
v -2 197 -13
v 6 191 -5
v 2 214 -8
v 5 215 -8
v 6 215 -5
v 3 215 -4
v 1 214 -6
v 7 0 3
v 7 230 -7
v 7 230 -4
v 11 241 -6
v 11 241 -10
v 14 242 -8
v 30 203 -5
v 31 200 -2
v 39 195 -7
v 30 200 -10
v 23 203 -4
v 21 199 -2
v 16 200 -3
v 20 199 -8
v 20 170 21
v 13 167 21
v 27 159 29
v 23 167 16
v 15 171 16
v 7 164 11
v 11 167 9
v 16 165 6
v -17 135 21
v -19 132 13
v -25 123 32
v -7 131 21
v -9 135 14
v -9 127 2
v -3 131 6
v 3 126 11
v 9 100 -42
v 19 96 -36
v 8 87 -59
v 0 96 -37
v 8 99 -29
v 17 90 -17
v 7 94 -18
v -1 90 -19
v 22 53 16
v 10 48 21
v 31 60 28
v 32 48 11
v 45 57 30
v 39 63 41
v 49 45 57
v 23 58 39
v -35 54 -31
v -22 49 -35
v -54 36 -39
v -42 49 -22
v -22 55 -22
v -1 44 -22
v -9 49 -13
v -16 45 -4
v -29 50 -13
v -8 92 11
v -16 87 6
v -17 96 21
v 0 87 17
v -13 91 32
v -25 95 31
v -35 78 43
v -29 92 21
v 28 157 -35
v 25 163 -34
v 29 159 -30
v 29 150 -25
v 27 147 -32
v 23 158 -37
v 22 160 -33
v 24 161 -29
v 23 153 -23
v 21 135 -13
v 25 133 -16
v 24 130 -23
v 21 148 -34
v 18 152 -28
v 15 135 -20
v 18 125 -10
v 23 124 -11
v 23 121 -17
v 16 120 -20
v 18 131 -25
v 15 124 -15
v 0 230 -4
v 3 230 -2
v -2 241 -2
v 3 231 -2
v 1 215 -6
v 32 110 21
v 32 116 19
v 28 112 21
v 23 103 19
v 30 100 20
v 35 111 18
v 32 113 14
v 28 114 16
v 23 106 12
v 15 87 7
v 16 86 12
v 23 83 14
v 33 101 14
v 30 105 9
v 23 87 4
v 13 77 3
v 12 77 9
v 18 74 10
v 23 73 5
v 27 84 9
v 19 77 1
v 37 61 -19
v 34 66 -19
v 35 63 -14
v 32 54 -10
v 35 51 -16
v 32 62 -22
v 29 64 -19
v 31 65 -14
v 26 57 -11
v 19 38 -4
v 26 37 -4
v 28 34 -11
v 28 52 -20
v 23 55 -17
v 16 38 -11
v 15 29 -2
v 21 27 -2
v 23 25 -7
v 18 24 -11
v 22 35 -14
v 13 28 -8
vn 571 113 833
vn 846 288 868
vn -423 379 1065
vn -308 -207 833
vn -405 -342 1159
vn 885 -323 915
vn 965 -224 202
vn 1012 142 -339
vn 538 -27 455
vn -56 -75 634
vn -558 -82 93
vn -1081 432 3
vn -824 -302 -490
vn -1122 -336 -24
vn -1019 185 224
vn -110 160 1346
vn 1091 91 831
vn 977 -296 -325
vn -221 -444 -756
vn -232 326 -1007
vn 500 29 -341
vn -310 -462 -998
vn -357 221 -1166
vn -868 -355 -106
vn -789 -446 720
vn 678 -491 625
vn 1240 -103 -163
vn 1002 131 -719
vn -381 -400 1198
vn 930 -298 906
vn 1250 -159 -409
vn 573 -267 -921
vn -953 -310 -165
vn -972 169 100
vn -146 270 1301
vn 1113 289 641
vn 955 265 -857
vn -32 -207 -1184
vn -340 183 -1348
vn -675 -393 -234
vn -657 -114 1064
vn 339 -529 1084
vn 861 -395 -431
vn 553 -257 -990
vn -332 -409 1201
vn 921 -448 912
vn -680 -939 -258
vn -370 -580 250
vn -189 -1224 -66
vn 30 -532 511
vn 334 -695 94
vn 261 -261 64
vn 225 -533 -423
vn -207 -551 -469
vn -950 -276 -199
vn -1105 291 449
vn -214 158 1370
vn 1154 479 599
vn 1133 -257 -492
vn 176 -242 -1223
vn -216 461 -1001
vn -937 391 -285
vn -786 -157 1009
vn 763 -105 712
vn 1135 207 330
vn 1168 565 -592
vn -33 80 -730
vn -212 -189 -1267
vn -753 -54 10
vn -342 -106 1340
vn 22 -790 -825
vn -383 -525 -380
vn 14 -1207 -389
vn -421 -566 72
vn 13 -750 288
vn 13 -288 288
vn 432 -552 42
vn 403 -492 -400
vn 1030 -59 1053
vn 1192 -27 -258
vn 727 57 -740
vn -204 66 -1483
vn -778 119 107
vn 16 216 1222
vn 1241 157 888
vn 937 -282 -537
vn -46 -137 -1499
vn -409 -348 -1087
vn -393 -333 860
vn 497 -332 1201
vn 923 -185 835
vn 763 -337 -687
vn -108 -322 -1485
vn -912 -86 -432
vn 521 -887 -322
vn -25 -555 -493
vn 35 -1281 -20
vn -378 -583 -211
vn -365 -748 254
vn -302 -306 212
vn 9 -563 458
vn 378 -574 285
vn -505 -111 994
vn -212 -145 649
vn 375 -536 357
vn 224 -597 -339
vn -127 -311 -583
vn -987 -625 -57
vn -229 -10 -529
vn 0 0 0
vn 0 0 0
vn 0 0 0
vn 0 0 0
vn 0 0 0
vn 316 -760 -42
vn 183 -472 -518
vn 310 -349 3
vn 70 -605 402
vn -182 -1053 -220
vn -73 -288 -707
vn -541 -623 -271
vn -315 -528 434
vn 173 -706 -313
vn -327 -500 -408
vn 151 -276 -249
vn 418 -580 148
vn -212 -1226 143
vn -517 -520 76
vn -513 -899 601
vn 66 -597 434
vn -131 -746 -230
vn -326 -589 213
vn -155 -288 -202
vn 306 -559 -367
vn 245 -1272 172
vn -41 -550 492
vn 510 -817 589
vn 510 -534 15
vn -17 -812 222
vn 336 -621 29
vn 1 -335 256
vn -381 -614 52
vn -86 -1332 -368
vn 224 -583 -395
vn -132 -859 -804
vn -349 -559 -339
vn -325 -878 750
vn -357 -608 242
vn -145 -1337 474
vn 61 -554 495
vn 333 -579 198
vn 125 -760 -134
vn 138 -286 -235
vn -258 -610 -150
vn -205 -774 280
vn 144 -559 426
vn -190 -312 250
vn -309 -660 -124
vn 165 -1583 -170
vn 412 -596 43
vn 603 -925 -462
vn 142 -606 -405
vn -70 -459 -199
vn 411 -922 543
vn -93 -580 463
vn 120 -1337 149
vn 422 -605 19
vn 224 -585 -347
vn -188 -757 -293
vn -179 -283 -253
vn -355 -597 132
vn 899 -69 639
vn 59 -757 288
vn 785 -554 -370
vn 1153 -127 -456
vn 934 453 789
vn -185 -103 886
vn -1033 -535 218
vn -351 -809 -554
vn -192 -683 -1051
vn 158 -480 -1122
vn 1333 88 -321
vn 763 590 884
vn -530 292 981
vn -1229 -374 -9
vn -1208 -298 -358
vn -338 -208 -519
vn 481 -76 -449
vn 605 221 188
vn -92 235 480
vn -830 299 835
vn -699 -24 44
vn -9 1 8
vn -282 92 -424
vn -16 2 7
vn 261 -89 437
vn 182 -36 182
vn 333 -31 -1115
vn 243 -700 -300
vn -588 -463 -674
vn -828 -144 -894
vn 428 389 -1079
vn 994 -80 -228
vn 561 -536 687
vn -522 -818 413
vn -916 -649 516
vn -1121 -508 320
vn -781 68 -1078
vn 550 587 -981
vn 1271 301 103
vn 410 -340 1064
vn 59 -337 1228
vn -404 -267 486
vn -549 -98 -267
vn -22 252 -642
vn 507 263 -111
vn 1154 303 405
vn 298 -72 575
vn 930 -89 156
vn 296 -847 255
vn 604 -485 -727
vn 708 -197 -1071
vn 1003 385 299
vn 119 -113 1006
vn -658 -625 560
vn -364 -821 -445
vn -584 -629 -935
vn -388 -489 -1167
vn 901 133 -930
vn 887 600 603
vn -126 265 1269
vn -1008 -384 488
vn -1125 -373 132
vn -429 -251 -404
vn 234 -13 -621
vn 583 310 -68
vn 105 251 585
vn -346 291 1311
vn -496 -51 376
usemtl m0
f 1 2 3

usemtl m1
f 1 3 4

usemtl m2
f 1 4 5

usemtl m3
f 1 5 6

usemtl m4
f 1 6 7

usemtl m5
f 1 7 2

usemtl m6
f 2 7 8

usemtl m7
f 2 8 9

usemtl m8
f 2 9 10

usemtl m9
f 2 10 3

usemtl m10
f 3 10 11

usemtl m11
f 3 11 12

usemtl m12
f 3 12 4

usemtl m13
f 4 12 13

usemtl m14
f 4 13 14

usemtl m15
f 4 14 5

usemtl m16
f 5 14 15

usemtl m17
f 5 15 16

usemtl m18
f 5 16 6

usemtl m19
f 6 16 17

usemtl m20
f 6 17 18

usemtl m21
f 6 18 7

usemtl m22
f 7 18 19

usemtl m23
f 7 19 8

usemtl m24
f 8 19 20

usemtl m25
f 8 20 21

usemtl m26
f 8 21 9

usemtl m27
f 13 19 22

usemtl m28
f 13 22 14

usemtl m29
f 14 22 23

usemtl m30
f 14 23 15

usemtl m31
f 15 23 24

usemtl m32
f 15 24 25

usemtl m33
f 15 25 16

usemtl m34
f 16 25 26

usemtl m35
f 16 26 17

usemtl m36
f 17 26 27

usemtl m37
f 17 27 28

usemtl m38
f 17 28 18

usemtl m39
f 18 28 22

usemtl m40
f 18 22 19

usemtl m41
f 26 25 29

usemtl m42
f 26 29 30

usemtl m43
f 26 30 27

usemtl m44
f 27 30 31

usemtl m45
f 27 31 32

usemtl m46
f 27 32 28

usemtl m47
f 28 32 23

usemtl m48
f 28 23 22

usemtl m49
f 25 24 33

usemtl m50
f 25 33 29

usemtl m51
f 29 33 34

usemtl m52
f 29 34 35

usemtl m53
f 29 35 30

usemtl m54
f 30 35 36

usemtl m55
f 30 36 31

usemtl m56
f 31 36 37

usemtl m57
f 31 37 38

usemtl m58
f 31 38 32

usemtl m59
f 32 38 24

usemtl m60
f 32 24 23

usemtl m61
f 38 33 24

usemtl m62
f 33 38 39

usemtl m63
f 33 39 34

usemtl m64
f 34 39 40

usemtl m65
f 34 40 41

usemtl m66
f 34 41 35

usemtl m67
f 35 41 42

usemtl m68
f 35 42 36

usemtl m69
f 36 42 43

usemtl m70
f 36 43 37

usemtl m71
f 37 43 44

usemtl m72
f 37 44 39

usemtl m73
f 37 39 38

usemtl m74
f 42 41 45

usemtl m75
f 42 45 46

usemtl m76
f 42 46 43

usemtl m77
f 42 43 47

usemtl m78
f 42 47 48

usemtl m79
f 48 47 49

usemtl m80
f 48 49 50

usemtl m81
f 50 49 51

usemtl m82
f 50 51 52

usemtl m83
f 52 51 53

usemtl m84
f 53 51 49

usemtl m85
f 53 49 54

usemtl m86
f 54 49 47

usemtl m87
f 54 47 43

usemtl m88
f 41 40 55

usemtl m89
f 41 55 45

usemtl m90
f 45 55 56

usemtl m91
f 45 56 57

usemtl m92
f 45 57 46

usemtl m93
f 46 57 58

usemtl m94
f 46 58 59

usemtl m95
f 46 59 43

usemtl m96
f 43 59 44

usemtl m97
f 44 59 60

usemtl m98
f 44 60 40

usemtl m99
f 44 40 39

usemtl m100
f 60 55 40

usemtl m101
f 55 60 61

usemtl m102
f 55 61 56

usemtl m103
f 56 61 62

usemtl m104
f 56 62 63

usemtl m105
f 56 63 57

usemtl m106
f 57 63 64

usemtl m107
f 57 64 58

usemtl m108
f 58 64 65

usemtl m109
f 58 65 66

usemtl m110
f 58 66 59

usemtl m111
f 59 66 60

usemtl m112
f 60 66 61

usemtl m113
f 61 66 67

usemtl m114
f 61 67 62

usemtl m115
f 62 67 68

usemtl m116
f 62 68 69

usemtl m117
f 62 69 63

usemtl m118
f 63 69 70

usemtl m119
f 63 70 64

usemtl m120
f 63 64 71

usemtl m121
f 63 71 72

usemtl m122
f 72 71 73

usemtl m123
f 72 73 74

usemtl m124
f 74 73 75

usemtl m125
f 74 75 76

usemtl m126
f 76 75 77

usemtl m127
f 77 75 73

usemtl m128
f 77 73 78

usemtl m129
f 78 73 71

usemtl m130
f 78 71 64

usemtl m131
f 70 79 64

usemtl m132
f 64 79 65

usemtl m133
f 65 79 80

usemtl m134
f 65 80 67

usemtl m135
f 65 67 66

usemtl m136
f 80 68 67

usemtl m137
f 68 80 81

usemtl m138
f 68 81 82

usemtl m139
f 68 82 69

usemtl m140
f 69 82 83

usemtl m141
f 69 83 70

usemtl m142
f 70 83 84

usemtl m143
f 70 84 79

usemtl m144
f 79 84 85

usemtl m145
f 79 85 80

usemtl m146
f 80 85 81

usemtl m147
f 81 85 86

usemtl m148
f 81 86 87

usemtl m149
f 81 87 82

usemtl m150
f 82 87 88

usemtl m151
f 82 88 83

usemtl m152
f 83 88 89

usemtl m153
f 83 89 84

usemtl m154
f 84 89 90

usemtl m155
f 84 90 85

usemtl m156
f 85 90 86

usemtl m157
f 86 90 91

usemtl m158
f 86 91 92

usemtl m159
f 86 92 87

usemtl m160
f 87 92 93

usemtl m161
f 87 93 88

usemtl m162
f 88 93 94

usemtl m163
f 88 94 89

usemtl m164
f 88 89 95

usemtl m165
f 88 95 96

usemtl m166
f 96 95 97

usemtl m167
f 96 97 98

usemtl m168
f 98 97 99

usemtl m169
f 98 99 100

usemtl m170
f 100 99 101

usemtl m171
f 101 99 97

usemtl m172
f 101 97 102

usemtl m173
f 102 97 95

usemtl m174
f 102 95 89

usemtl m175
f 90 89 103

usemtl m176
f 90 103 91

usemtl m177
f 91 103 104

usemtl m178
f 91 104 105

usemtl m179
f 91 105 92

usemtl m180
f 92 105 106

usemtl m181
f 92 106 93

usemtl m182
f 93 106 107

usemtl m183
f 93 107 94

usemtl m184
f 94 107 108

usemtl m185
f 94 108 103

usemtl m186
f 94 103 89

usemtl m187
f 20 19 13

usemtl m188
f 20 13 12

usemtl m189
f 20 12 109

usemtl m190
f 20 109 21

usemtl m191
f 105 104 108

usemtl m192
f 105 108 106

usemtl m193
f 105 106 110

usemtl m194
f 105 110 106

usemtl m195
f 106 110 111

usemtl m196
f 106 111 110

usemtl m197
f 110 111 112

usemtl m198
f 110 112 111

usemtl m199
f 112 110 113

usemtl m200
f 112 113 114

usemtl m201
f 112 114 113

usemtl m202
f 112 113 110

usemtl m203
f 106 108 107

usemtl m204
f 12 11 109

usemtl m205
f 108 104 103

usemtl m206
f 115 116 117

usemtl m207
f 115 117 118

usemtl m208
f 115 118 119

usemtl m209
f 115 119 116

usemtl m210
f 116 119 120

usemtl m211
f 120 119 121

usemtl m212
f 120 121 86

usemtl m213
f 86 121 90

usemtl m214
f 90 121 122

usemtl m215
f 122 121 119

usemtl m216
f 122 119 118

usemtl m217
f 123 124 125

usemtl m218
f 123 125 126

usemtl m219
f 123 126 127

usemtl m220
f 123 127 124

usemtl m221
f 124 127 128

usemtl m222
f 128 127 129

usemtl m223
f 128 129 67

usemtl m224
f 67 129 65

usemtl m225
f 65 129 130

usemtl m226
f 130 129 127

usemtl m227
f 130 127 126

usemtl m228
f 131 132 133

usemtl m229
f 131 133 134

usemtl m230
f 131 134 135

usemtl m231
f 131 135 132

usemtl m232
f 132 135 136

usemtl m233
f 136 135 137

usemtl m234
f 136 137 40

usemtl m235
f 40 137 44

usemtl m236
f 44 137 138

usemtl m237
f 138 137 135

usemtl m238
f 138 135 134

usemtl m239
f 139 140 141

usemtl m240
f 139 141 142

usemtl m241
f 139 142 143

usemtl m242
f 139 143 140

usemtl m243
f 140 143 144

usemtl m244
f 144 143 145

usemtl m245
f 144 145 26

usemtl m246
f 26 145 25

usemtl m247
f 25 145 146

usemtl m248
f 146 145 143

usemtl m249
f 146 143 142

usemtl m250
f 147 7 19

usemtl m251
f 147 19 148

usemtl m252
f 147 148 149

usemtl m253
f 147 149 150

usemtl m254
f 147 150 7

usemtl m255
f 151 149 152

usemtl m256
f 151 152 153

usemtl m257
f 153 152 154

usemtl m258
f 154 152 149

usemtl m259
f 154 149 148

usemtl m260
f 155 156 157

usemtl m261
f 155 157 158

usemtl m262
f 155 158 159

usemtl m263
f 155 159 156

usemtl m264
f 156 159 160

usemtl m265
f 160 159 161

usemtl m266
f 160 161 4

usemtl m267
f 4 161 13

usemtl m268
f 13 161 162

usemtl m269
f 162 161 159

usemtl m270
f 162 159 163

usemtl m271
f 163 159 158

usemtl m272
f 164 32 24

usemtl m273
f 164 24 165

usemtl m274
f 164 165 166

usemtl m275
f 164 166 167

usemtl m276
f 164 167 32

usemtl m277
f 168 166 169

usemtl m278
f 168 169 170

usemtl m279
f 170 169 171

usemtl m280
f 171 169 166

usemtl m281
f 171 166 165

usemtl m282
f 166 168 167

usemtl m283
f 149 151 150

usemtl m284
f 172 173 174

usemtl m285
f 172 174 175

usemtl m286
f 172 175 176

usemtl m287
f 172 176 177

usemtl m288
f 172 177 173

usemtl m289
f 173 177 178

usemtl m290
f 173 178 179

usemtl m291
f 173 179 174

usemtl m292
f 174 179 180

usemtl m293
f 174 180 175

usemtl m294
f 175 180 181

usemtl m295
f 175 181 182

usemtl m296
f 175 182 176

usemtl m297
f 176 182 183

usemtl m298
f 176 183 184

usemtl m299
f 176 184 177

usemtl m300
f 177 184 178

usemtl m301
f 178 184 185

usemtl m302
f 178 185 179

usemtl m303
f 179 185 180

usemtl m304
f 180 185 186

usemtl m305
f 180 186 181

usemtl m306
f 181 186 187

usemtl m307
f 181 187 188

usemtl m308
f 181 188 182

usemtl m309
f 182 188 189

usemtl m310
f 182 189 183

usemtl m311
f 183 189 190

usemtl m312
f 183 190 191

usemtl m313
f 183 191 184

usemtl m314
f 184 191 185

usemtl m315
f 185 191 186

usemtl m316
f 186 191 192

usemtl m317
f 186 192 187

usemtl m318
f 191 190 192

usemtl m319
f 108 107 193

usemtl m320
f 193 107 194

usemtl m321
f 193 194 195

usemtl m322
f 193 195 196

usemtl m323
f 193 196 107

usemtl m324
f 193 107 197

usemtl m325
f 198 199 200

usemtl m326
f 198 200 201

usemtl m327
f 198 201 202

usemtl m328
f 198 202 203

usemtl m329
f 198 203 199

usemtl m330
f 199 203 204

usemtl m331
f 199 204 205

usemtl m332
f 199 205 200

usemtl m333
f 200 205 206

usemtl m334
f 200 206 201

usemtl m335
f 201 206 207

usemtl m336
f 201 207 208

usemtl m337
f 201 208 202

usemtl m338
f 202 208 209

usemtl m339
f 202 209 210

usemtl m340
f 202 210 203

usemtl m341
f 203 210 204

usemtl m342
f 204 210 211

usemtl m343
f 204 211 205

usemtl m344
f 205 211 206

usemtl m345
f 206 211 212

usemtl m346
f 206 212 207

usemtl m347
f 207 212 213

usemtl m348
f 207 213 214

usemtl m349
f 207 214 208

usemtl m350
f 208 214 215

usemtl m351
f 208 215 209

usemtl m352
f 209 215 216

usemtl m353
f 209 216 217

usemtl m354
f 209 217 210

usemtl m355
f 210 217 211

usemtl m356
f 211 217 212

usemtl m357
f 212 217 218

usemtl m358
f 212 218 213

usemtl m359
f 217 216 218

usemtl m360
f 219 220 221

usemtl m361
f 219 221 222

usemtl m362
f 219 222 223

usemtl m363
f 219 223 224

usemtl m364
f 219 224 220

usemtl m365
f 220 224 225

usemtl m366
f 220 225 226

usemtl m367
f 220 226 221

usemtl m368
f 221 226 227

usemtl m369
f 221 227 222

usemtl m370
f 222 227 228

usemtl m371
f 222 228 229

usemtl m372
f 222 229 223

usemtl m373
f 223 229 230

usemtl m374
f 223 230 231

usemtl m375
f 223 231 224

usemtl m376
f 224 231 225

usemtl m377
f 225 231 232

usemtl m378
f 225 232 226

usemtl m379
f 226 232 227

usemtl m380
f 227 232 233

usemtl m381
f 227 233 228

usemtl m382
f 228 233 234

usemtl m383
f 228 234 235

usemtl m384
f 228 235 229

usemtl m385
f 229 235 236

usemtl m386
f 229 236 230

usemtl m387
f 230 236 237

usemtl m388
f 230 237 238

usemtl m389
f 230 238 231

usemtl m390
f 231 238 232

usemtl m391
f 232 238 233

usemtl m392
f 233 238 239

usemtl m393
f 233 239 234

usemtl m394
f 238 237 239

