mtllib 8222.mtl
o runescapemodel
v -53 0 46
v -56 0 51
v -53 0 54
v -47 0 48
v -47 0 46
v -50 0 44
v -54 0 42
v -58 0 42
v -55 0 46
v -57 0 48
v -60 0 48
v -60 0 51
v -60 0 56
v -57 0 54
v -53 0 58
v -47 0 57
v -49 0 54
v -47 0 52
v -43 0 47
v -45 0 43
v -50 0 40
v -8 0 46
v -3 0 36
v -11 0 30
v -18 0 41
v -17 0 46
v -14 0 49
v -5 0 51
v 1 0 51
v -4 0 45
v -1 0 40
v 5 0 41
v 4 0 35
v 4 0 29
v -2 0 31
v -8 0 24
v -18 0 27
v -16 0 31
v -18 0 36
v -24 0 42
v -21 0 51
v -14 0 55
v 27 0 44
v 24 0 49
v 27 0 52
v 33 0 46
v 33 0 44
v 30 0 42
v 26 0 40
v 22 0 40
v 25 0 44
v 23 0 46
v 20 0 46
v 20 0 49
v 20 0 54
v 23 0 52
v 27 0 56
v 33 0 55
v 31 0 52
v 33 0 50
v 37 0 45
v 35 0 41
v 30 0 38
v 45 0 13
v 50 0 3
v 42 0 -3
v 35 0 8
v 36 0 13
v 39 0 16
v 48 0 18
v 54 0 18
v 49 0 12
v 52 0 7
v 58 0 8
v 57 0 2
v 57 0 -4
v 51 0 -2
v 45 0 -9
v 35 0 -6
v 37 0 -2
v 35 0 3
v 29 0 9
v 32 0 18
v 39 0 22
v 33 0 -46
v 30 0 -41
v 33 0 -38
v 39 0 -44
v 39 0 -46
v 36 0 -48
v 32 0 -50
v 28 0 -50
v 31 0 -46
v 29 0 -44
v 26 0 -44
v 26 0 -41
v 26 0 -36
v 29 0 -38
v 33 0 -34
v 39 0 -35
v 37 0 -38
v 39 0 -40
v 43 0 -45
v 41 0 -49
v 36 0 -52
v -39 0 -14
v -23 0 7
v -2 0 -11
v -10 0 -36
v -18 0 -45
v -32 0 -28
v -53 0 -25
v -60 0 1
v -46 0 1
v -36 0 7
v -28 0 22
v -6 0 12
v -9 0 0
v 4 0 0
v 2 0 -18
v 0 0 -33
v 5 0 -52
v -20 0 -61
v -47 0 -49
v -44 0 54
v -21 0 31
v 36 0 52
v 32 0 -2
v 42 0 -38
v -48 0 18
v 12 0 -36
v 14 0 -14
vn 0 -2304 0
vn 0 -1792 0
vn 0 -1792 0
vn 0 -1792 0
vn 0 -1280 0
vn 0 -1024 0
vn 0 -768 0
vn 0 -768 0
vn 0 -1024 0
vn 0 -1024 0
vn 0 -1024 0
vn 0 -512 0
vn 0 -768 0
vn 0 -1024 0
vn 0 -768 0
vn 0 -1024 0
vn 0 -1024 0
vn 0 -1280 0
vn 0 -768 0
vn 0 -768 0
vn 0 -768 0
vn 0 -2304 0
vn 0 -1792 0
vn 0 -1792 0
vn 0 -1792 0
vn 0 -1280 0
vn 0 -1024 0
vn 0 -768 0
vn 0 -768 0
vn 0 -1024 0
vn 0 -1024 0
vn 0 -1024 0
vn 0 -512 0
vn 0 -768 0
vn 0 -1024 0
vn 0 -768 0
vn 0 -1024 0
vn 0 -1024 0
vn 0 -1280 0
vn 0 -768 0
vn 0 -768 0
vn 0 -768 0
vn 0 -2304 0
vn 0 -1792 0
vn 0 -1792 0
vn 0 -1792 0
vn 0 -1280 0
vn 0 -1024 0
vn 0 -768 0
vn 0 -768 0
vn 0 -1024 0
vn 0 -1024 0
vn 0 -1024 0
vn 0 -512 0
vn 0 -768 0
vn 0 -1024 0
vn 0 -768 0
vn 0 -1024 0
vn 0 -1024 0
vn 0 -1280 0
vn 0 -768 0
vn 0 -768 0
vn 0 -768 0
vn 0 -2304 0
vn 0 -1792 0
vn 0 -1792 0
vn 0 -1792 0
vn 0 -1280 0
vn 0 -1024 0
vn 0 -768 0
vn 0 -768 0
vn 0 -1024 0
vn 0 -1024 0
vn 0 -1024 0
vn 0 -512 0
vn 0 -768 0
vn 0 -1024 0
vn 0 -768 0
vn 0 -1024 0
vn 0 -1024 0
vn 0 -1280 0
vn 0 -768 0
vn 0 -768 0
vn 0 -768 0
vn 0 -2304 0
vn 0 -1792 0
vn 0 -1792 0
vn 0 -1792 0
vn 0 -1280 0
vn 0 -1024 0
vn 0 -768 0
vn 0 -768 0
vn 0 -1024 0
vn 0 -1024 0
vn 0 -1024 0
vn 0 -512 0
vn 0 -768 0
vn 0 -1024 0
vn 0 -768 0
vn 0 -1024 0
vn 0 -1024 0
vn 0 -1280 0
vn 0 -768 0
vn 0 -768 0
vn 0 -768 0
vn 0 -2304 0
vn 0 -1536 0
vn 0 -1792 0
vn 0 -1792 0
vn 0 -1280 0
vn 0 -1024 0
vn 0 -768 0
vn 0 -768 0
vn 0 -1024 0
vn 0 -1280 0
vn 0 -768 0
vn 0 -1024 0
vn 0 -768 0
vn 0 -768 0
vn 0 -1536 0
vn 0 -1024 0
vn 0 -768 0
vn 0 -768 0
vn 0 -768 0
vn 0 -512 0
vn 0 -512 0
vn 0 -512 0
vn 0 -512 0
vn 0 -512 0
vn 0 -768 0
vn 0 -768 0
vn 0 -512 0
usemtl m0
f 1 2 3

usemtl m1
f 1 3 4

usemtl m2
f 1 4 5

usemtl m3
f 1 5 6

usemtl m4
f 1 6 7

usemtl m5
f 1 7 8

usemtl m6
f 1 8 9

usemtl m7
f 1 9 10

usemtl m8
f 1 10 2

usemtl m9
f 2 10 11

usemtl m10
f 2 11 12

usemtl m11
f 2 12 13

usemtl m12
f 2 13 14

usemtl m13
f 2 14 3

usemtl m14
f 3 14 15

usemtl m15
f 3 15 16

usemtl m16
f 3 16 17

usemtl m17
f 3 17 4

usemtl m18
f 4 17 18

usemtl m19
f 4 18 19

usemtl m20
f 4 19 20

usemtl m21
f 4 20 5

usemtl m22
f 5 20 21

usemtl m23
f 5 21 6

usemtl m24
f 6 21 7

usemtl m25
f 22 23 24

usemtl m26
f 22 24 25

usemtl m27
f 22 25 26

usemtl m28
f 22 26 27

usemtl m29
f 22 27 28

usemtl m30
f 22 28 29

usemtl m31
f 22 29 30

usemtl m32
f 22 30 31

usemtl m33
f 22 31 23

usemtl m34
f 23 31 32

usemtl m35
f 23 32 33

usemtl m36
f 23 33 34

usemtl m37
f 23 34 35

usemtl m38
f 23 35 24

usemtl m39
f 24 35 36

usemtl m40
f 24 36 37

usemtl m41
f 24 37 38

usemtl m42
f 24 38 25

usemtl m43
f 25 38 39

usemtl m44
f 25 39 40

usemtl m45
f 25 40 41

usemtl m46
f 25 41 26

usemtl m47
f 26 41 42

usemtl m48
f 26 42 27

usemtl m49
f 27 42 28

usemtl m50
f 43 44 45

usemtl m51
f 43 45 46

usemtl m52
f 43 46 47

usemtl m53
f 43 47 48

usemtl m54
f 43 48 49

usemtl m55
f 43 49 50

usemtl m56
f 43 50 51

usemtl m57
f 43 51 52

usemtl m58
f 43 52 44

usemtl m59
f 44 52 53

usemtl m60
f 44 53 54

usemtl m61
f 44 54 55

usemtl m62
f 44 55 56

usemtl m63
f 44 56 45

usemtl m64
f 45 56 57

usemtl m65
f 45 57 58

usemtl m66
f 45 58 59

usemtl m67
f 45 59 46

usemtl m68
f 46 59 60

usemtl m69
f 46 60 61

usemtl m70
f 46 61 62

usemtl m71
f 46 62 47

usemtl m72
f 47 62 63

usemtl m73
f 47 63 48

usemtl m74
f 48 63 49

usemtl m75
f 64 65 66

usemtl m76
f 64 66 67

usemtl m77
f 64 67 68

usemtl m78
f 64 68 69

usemtl m79
f 64 69 70

usemtl m80
f 64 70 71

usemtl m81
f 64 71 72

usemtl m82
f 64 72 73

usemtl m83
f 64 73 65

usemtl m84
f 65 73 74

usemtl m85
f 65 74 75

usemtl m86
f 65 75 76

usemtl m87
f 65 76 77

usemtl m88
f 65 77 66

usemtl m89
f 66 77 78

usemtl m90
f 66 78 79

usemtl m91
f 66 79 80

usemtl m92
f 66 80 67

usemtl m93
f 67 80 81

usemtl m94
f 67 81 82

usemtl m95
f 67 82 83

usemtl m96
f 67 83 68

usemtl m97
f 68 83 84

usemtl m98
f 68 84 69

usemtl m99
f 69 84 70

usemtl m100
f 85 86 87

usemtl m101
f 85 87 88

usemtl m102
f 85 88 89

usemtl m103
f 85 89 90

usemtl m104
f 85 90 91

usemtl m105
f 85 91 92

usemtl m106
f 85 92 93

usemtl m107
f 85 93 94

usemtl m108
f 85 94 86

usemtl m109
f 86 94 95

usemtl m110
f 86 95 96

usemtl m111
f 86 96 97

usemtl m112
f 86 97 98

usemtl m113
f 86 98 87

usemtl m114
f 87 98 99

usemtl m115
f 87 99 100

usemtl m116
f 87 100 101

usemtl m117
f 87 101 88

usemtl m118
f 88 101 102

usemtl m119
f 88 102 103

usemtl m120
f 88 103 104

usemtl m121
f 88 104 89

usemtl m122
f 89 104 105

usemtl m123
f 89 105 90

usemtl m124
f 90 105 91

usemtl m125
f 106 107 108

usemtl m126
f 106 108 109

usemtl m127
f 106 109 110

usemtl m128
f 106 110 111

usemtl m129
f 106 111 112

usemtl m130
f 106 112 113

usemtl m131
f 106 113 114

usemtl m132
f 106 114 115

usemtl m133
f 106 115 107

usemtl m134
f 107 115 116

usemtl m135
f 107 116 117

usemtl m136
f 107 117 118

usemtl m137
f 107 118 108

usemtl m138
f 108 118 117

usemtl m139
f 108 117 119

usemtl m140
f 108 119 120

usemtl m141
f 108 120 109

usemtl m142
f 109 120 121

usemtl m143
f 109 121 122

usemtl m144
f 109 122 123

usemtl m145
f 109 123 110

usemtl m146
f 110 123 124

usemtl m147
f 110 124 111

usemtl m148
f 111 124 112

usemtl m149
f 11 10 9

usemtl m150
f 11 9 8

usemtl m151
f 19 18 125

usemtl m152
f 125 18 16

usemtl m153
f 16 18 17

usemtl m154
f 15 14 13

usemtl m155
f 32 31 30

usemtl m156
f 32 30 29

usemtl m157
f 40 39 126

usemtl m158
f 126 39 37

usemtl m159
f 37 39 38

usemtl m160
f 36 35 34

usemtl m161
f 53 52 51

usemtl m162
f 53 51 50

usemtl m163
f 61 60 127

usemtl m164
f 127 60 58

usemtl m165
f 58 60 59

usemtl m166
f 57 56 55

usemtl m167
f 74 73 72

usemtl m168
f 74 72 71

usemtl m169
f 82 81 128

usemtl m170
f 128 81 79

usemtl m171
f 79 81 80

usemtl m172
f 78 77 76

usemtl m173
f 95 94 93

usemtl m174
f 95 93 92

usemtl m175
f 103 102 129

usemtl m176
f 129 102 100

usemtl m177
f 100 102 101

usemtl m178
f 99 98 97

usemtl m179
f 130 115 114

usemtl m180
f 130 114 113

usemtl m181
f 122 121 131

usemtl m182
f 131 121 120

usemtl m183
f 131 120 132

usemtl m184
f 132 120 119

usemtl m185
f 116 115 130

