newmtl m0
map_Kd sprite/458-0.png
newmtl m1
map_Kd sprite/458-0.png
newmtl m2
map_Kd sprite/458-0.png
newmtl m3
map_Kd sprite/458-0.png
newmtl m4
map_Kd sprite/458-0.png
newmtl m5
map_Kd sprite/458-0.png
newmtl m6
map_Kd sprite/458-0.png
newmtl m7
map_Kd sprite/458-0.png
newmtl m8
map_Kd sprite/458-0.png
newmtl m9
map_Kd sprite/458-0.png
newmtl m10
map_Kd sprite/458-0.png
newmtl m11
map_Kd sprite/458-0.png
newmtl m12
map_Kd sprite/458-0.png
newmtl m13
map_Kd sprite/458-0.png
newmtl m14
map_Kd sprite/458-0.png
newmtl m15
map_Kd sprite/458-0.png
newmtl m16
map_Kd sprite/458-0.png
newmtl m17
map_Kd sprite/458-0.png
newmtl m18
map_Kd sprite/458-0.png
newmtl m19
map_Kd sprite/458-0.png
newmtl m20
map_Kd sprite/458-0.png
newmtl m21
map_Kd sprite/458-0.png
newmtl m22
map_Kd sprite/458-0.png
newmtl m23
map_Kd sprite/458-0.png
newmtl m24
Kd 0.2549019607843137 0.42745098039215684 0.01568627450980392
newmtl m25
Kd 0.2549019607843137 0.42745098039215684 0.01568627450980392
newmtl m26
Kd 0.2549019607843137 0.42745098039215684 0.01568627450980392
newmtl m27
Kd 0.2549019607843137 0.42745098039215684 0.01568627450980392
newmtl m28
Kd 0.2549019607843137 0.42745098039215684 0.01568627450980392
newmtl m29
Kd 0.2549019607843137 0.42745098039215684 0.01568627450980392
newmtl m30
Kd 0.2549019607843137 0.42745098039215684 0.01568627450980392
newmtl m31
Kd 0.2549019607843137 0.42745098039215684 0.01568627450980392
newmtl m32
Kd 0.2549019607843137 0.42745098039215684 0.01568627450980392
newmtl m33
Kd 0.2549019607843137 0.42745098039215684 0.01568627450980392
newmtl m34
Kd 0.2549019607843137 0.42745098039215684 0.01568627450980392
newmtl m35
Kd 0.2549019607843137 0.42745098039215684 0.01568627450980392
newmtl m36
Kd 0.2549019607843137 0.42745098039215684 0.01568627450980392
newmtl m37
Kd 0.2549019607843137 0.42745098039215684 0.01568627450980392
newmtl m38
Kd 0.2549019607843137 0.42745098039215684 0.01568627450980392
newmtl m39
Kd 0.2549019607843137 0.42745098039215684 0.01568627450980392
newmtl m40
Kd 0.2549019607843137 0.42745098039215684 0.01568627450980392
newmtl m41
Kd 0.2549019607843137 0.42745098039215684 0.01568627450980392
newmtl m42
Kd 0.2549019607843137 0.42745098039215684 0.01568627450980392
newmtl m43
Kd 0.2549019607843137 0.42745098039215684 0.01568627450980392
newmtl m44
Kd 0.2549019607843137 0.42745098039215684 0.01568627450980392
newmtl m45
Kd 0.2549019607843137 0.42745098039215684 0.01568627450980392
newmtl m46
Kd 0.2549019607843137 0.42745098039215684 0.01568627450980392
newmtl m47
Kd 0.2549019607843137 0.42745098039215684 0.01568627450980392
newmtl m48
Kd 0.2549019607843137 0.42745098039215684 0.01568627450980392
newmtl m49
Kd 0.2549019607843137 0.42745098039215684 0.01568627450980392
newmtl m50
Kd 0.2549019607843137 0.42745098039215684 0.01568627450980392
newmtl m51
Kd 0.2549019607843137 0.42745098039215684 0.01568627450980392
newmtl m52
Kd 0.2549019607843137 0.42745098039215684 0.01568627450980392
newmtl m53
Kd 0.2549019607843137 0.42745098039215684 0.01568627450980392
newmtl m54
Kd 0.2549019607843137 0.42745098039215684 0.01568627450980392
newmtl m55
Kd 0.2549019607843137 0.42745098039215684 0.01568627450980392
newmtl m56
Kd 0.2549019607843137 0.42745098039215684 0.01568627450980392
newmtl m57
Kd 0.2549019607843137 0.42745098039215684 0.01568627450980392
newmtl m58
Kd 0.2549019607843137 0.42745098039215684 0.01568627450980392
newmtl m59
Kd 0.2549019607843137 0.42745098039215684 0.01568627450980392
newmtl m60
Kd 0.2549019607843137 0.42745098039215684 0.01568627450980392
newmtl m61
Kd 0.2549019607843137 0.42745098039215684 0.01568627450980392
newmtl m62
Kd 0.2549019607843137 0.42745098039215684 0.01568627450980392
newmtl m63
Kd 0.2549019607843137 0.42745098039215684 0.01568627450980392
newmtl m64
Kd 0.2549019607843137 0.42745098039215684 0.01568627450980392
newmtl m65
Kd 0.2549019607843137 0.42745098039215684 0.01568627450980392
newmtl m66
Kd 0.2549019607843137 0.42745098039215684 0.01568627450980392
newmtl m67
Kd 0.2549019607843137 0.42745098039215684 0.01568627450980392
newmtl m68
Kd 0.2549019607843137 0.42745098039215684 0.01568627450980392
newmtl m69
Kd 0.2549019607843137 0.42745098039215684 0.01568627450980392
newmtl m70
Kd 0.2549019607843137 0.42745098039215684 0.01568627450980392
newmtl m71
Kd 0.2549019607843137 0.42745098039215684 0.01568627450980392
