mtllib 8409.mtl
o runescapemodel
v 72 0 -216
v 120 0 -264
v 120 0 -276
v 60 0 -216
v 72 0 -204
v 132 0 -264
vn 0 -1024 0
vn 0 -512 0
vn 0 -512 0
vn 0 -256 0
vn 0 -256 0
vn 0 -512 0
usemtl m0
f 1 2 3

usemtl m1
f 1 3 4

usemtl m2
f 1 5 6

usemtl m3
f 1 6 2

