newmtl m0
Kd 0.21176470588235294 0.21176470588235294 0.19215686274509805
newmtl m1
Kd 0.21176470588235294 0.21176470588235294 0.19215686274509805
newmtl m2
Kd 0.21176470588235294 0.21176470588235294 0.19215686274509805
newmtl m3
Kd 0.21176470588235294 0.21176470588235294 0.19215686274509805
newmtl m4
Kd 0.21176470588235294 0.21176470588235294 0.19215686274509805
newmtl m5
Kd 0.21176470588235294 0.21176470588235294 0.19215686274509805
newmtl m6
Kd 0.21176470588235294 0.21176470588235294 0.19215686274509805
newmtl m7
Kd 0.21176470588235294 0.21176470588235294 0.19215686274509805
newmtl m8
Kd 0.21176470588235294 0.21176470588235294 0.19215686274509805
newmtl m9
Kd 0.21176470588235294 0.21176470588235294 0.19215686274509805
newmtl m10
Kd 0.21176470588235294 0.21176470588235294 0.19215686274509805
newmtl m11
Kd 0.21176470588235294 0.21176470588235294 0.19215686274509805
newmtl m12
Kd 0.21176470588235294 0.21176470588235294 0.19215686274509805
newmtl m13
Kd 0.21176470588235294 0.21176470588235294 0.19215686274509805
newmtl m14
Kd 0.21176470588235294 0.21176470588235294 0.19215686274509805
newmtl m15
Kd 0.21176470588235294 0.21176470588235294 0.19215686274509805
newmtl m16
Kd 0.21176470588235294 0.21176470588235294 0.19215686274509805
newmtl m17
Kd 0.21176470588235294 0.21176470588235294 0.19215686274509805
newmtl m18
Kd 0.21176470588235294 0.21176470588235294 0.19215686274509805
newmtl m19
Kd 0.1568627450980392 0.1568627450980392 0.10980392156862745
newmtl m20
Kd 0.1568627450980392 0.1568627450980392 0.10980392156862745
newmtl m21
Kd 0.1568627450980392 0.1568627450980392 0.10980392156862745
newmtl m22
Kd 0.1568627450980392 0.1568627450980392 0.10980392156862745
newmtl m23
Kd 0.1568627450980392 0.1568627450980392 0.10980392156862745
newmtl m24
Kd 0.21176470588235294 0.21176470588235294 0.19215686274509805
newmtl m25
Kd 0.21176470588235294 0.21176470588235294 0.19215686274509805
newmtl m26
Kd 0.21176470588235294 0.21176470588235294 0.19215686274509805
newmtl m27
Kd 0.21176470588235294 0.21176470588235294 0.19215686274509805
newmtl m28
Kd 0.21176470588235294 0.21176470588235294 0.19215686274509805
newmtl m29
Kd 0.21176470588235294 0.21176470588235294 0.19215686274509805
newmtl m30
Kd 0.21176470588235294 0.21176470588235294 0.19215686274509805
newmtl m31
Kd 0.21176470588235294 0.21176470588235294 0.19215686274509805
newmtl m32
Kd 0.21176470588235294 0.21176470588235294 0.19215686274509805
newmtl m33
Kd 0.21176470588235294 0.21176470588235294 0.19215686274509805
newmtl m34
Kd 0.21176470588235294 0.21176470588235294 0.19215686274509805
newmtl m35
Kd 0.1568627450980392 0.1568627450980392 0.10980392156862745
newmtl m36
Kd 0.1568627450980392 0.1568627450980392 0.10980392156862745
newmtl m37
Kd 0.1568627450980392 0.1568627450980392 0.10980392156862745
newmtl m38
Kd 0.1568627450980392 0.1568627450980392 0.10980392156862745
newmtl m39
Kd 0.1568627450980392 0.1568627450980392 0.10980392156862745
newmtl m40
Kd 0.1568627450980392 0.1568627450980392 0.10980392156862745
newmtl m41
Kd 0.1568627450980392 0.1568627450980392 0.10980392156862745
newmtl m42
Kd 0.1568627450980392 0.1568627450980392 0.10980392156862745
newmtl m43
Kd 0.1568627450980392 0.1568627450980392 0.10980392156862745
newmtl m44
Kd 0.1568627450980392 0.1568627450980392 0.10980392156862745
newmtl m45
Kd 0.1568627450980392 0.1568627450980392 0.10980392156862745
newmtl m46
Kd 0.1568627450980392 0.1568627450980392 0.10980392156862745
newmtl m47
Kd 0.1568627450980392 0.1568627450980392 0.10980392156862745
newmtl m48
Kd 0.1568627450980392 0.1568627450980392 0.10980392156862745
newmtl m49
Kd 0.1568627450980392 0.1568627450980392 0.10980392156862745
newmtl m50
Kd 0.1568627450980392 0.1568627450980392 0.10980392156862745
newmtl m51
Kd 0.1568627450980392 0.1568627450980392 0.10980392156862745
newmtl m52
Kd 0.1568627450980392 0.1568627450980392 0.10980392156862745
newmtl m53
Kd 0.1568627450980392 0.1568627450980392 0.10980392156862745
newmtl m54
Kd 0.1568627450980392 0.1568627450980392 0.10980392156862745
newmtl m55
Kd 0.21176470588235294 0.21176470588235294 0.19215686274509805
newmtl m56
Kd 0.21176470588235294 0.21176470588235294 0.19215686274509805
newmtl m57
Kd 0.21176470588235294 0.21176470588235294 0.19215686274509805
newmtl m58
Kd 0.21176470588235294 0.21176470588235294 0.19215686274509805
newmtl m59
Kd 0.21176470588235294 0.21176470588235294 0.19215686274509805
newmtl m60
Kd 0.21176470588235294 0.21176470588235294 0.19215686274509805
newmtl m61
Kd 0.21176470588235294 0.21176470588235294 0.19215686274509805
newmtl m62
Kd 0.21176470588235294 0.21176470588235294 0.19215686274509805
newmtl m63
Kd 0.21176470588235294 0.21176470588235294 0.19215686274509805
newmtl m64
Kd 0.21176470588235294 0.21176470588235294 0.19215686274509805
newmtl m65
Kd 0.21176470588235294 0.21176470588235294 0.19215686274509805
newmtl m66
Kd 0.21176470588235294 0.21176470588235294 0.19215686274509805
newmtl m67
Kd 0.21176470588235294 0.21176470588235294 0.19215686274509805
newmtl m68
Kd 0.21176470588235294 0.21176470588235294 0.19215686274509805
newmtl m69
Kd 0.1568627450980392 0.1568627450980392 0.10980392156862745
newmtl m70
Kd 0.1568627450980392 0.1568627450980392 0.10980392156862745
newmtl m71
Kd 0.1568627450980392 0.1568627450980392 0.10980392156862745
newmtl m72
Kd 0.1568627450980392 0.1568627450980392 0.10980392156862745
newmtl m73
Kd 0.1568627450980392 0.1568627450980392 0.10980392156862745
newmtl m74
Kd 0.1568627450980392 0.1568627450980392 0.10980392156862745
newmtl m75
Kd 0.1568627450980392 0.1568627450980392 0.10980392156862745
newmtl m76
Kd 0.1568627450980392 0.1568627450980392 0.10980392156862745
newmtl m77
Kd 0.1568627450980392 0.1568627450980392 0.10980392156862745
newmtl m78
Kd 0.1568627450980392 0.1568627450980392 0.10980392156862745
newmtl m79
Kd 0.1568627450980392 0.1568627450980392 0.10980392156862745
newmtl m80
Kd 0.1568627450980392 0.1568627450980392 0.10980392156862745
newmtl m81
Kd 0.1568627450980392 0.1568627450980392 0.10980392156862745
newmtl m82
Kd 0.1568627450980392 0.1568627450980392 0.10980392156862745
newmtl m83
Kd 0.1568627450980392 0.1568627450980392 0.10980392156862745
newmtl m84
Kd 0.1568627450980392 0.1568627450980392 0.10980392156862745
newmtl m85
Kd 0.1568627450980392 0.1568627450980392 0.10980392156862745
newmtl m86
Kd 0.1568627450980392 0.1568627450980392 0.10980392156862745
newmtl m87
Kd 0.07450980392156863 0.07450980392156863 0.043137254901960784
newmtl m88
Kd 0.07450980392156863 0.07450980392156863 0.043137254901960784
newmtl m89
Kd 0.07450980392156863 0.07450980392156863 0.043137254901960784
newmtl m90
Kd 0.07450980392156863 0.07450980392156863 0.043137254901960784
newmtl m91
Kd 0.07450980392156863 0.07450980392156863 0.043137254901960784
newmtl m92
Kd 0.07450980392156863 0.07450980392156863 0.043137254901960784
newmtl m93
Kd 0.07450980392156863 0.07450980392156863 0.043137254901960784
newmtl m94
Kd 0.07450980392156863 0.07450980392156863 0.043137254901960784
newmtl m95
Kd 0.07450980392156863 0.07450980392156863 0.043137254901960784
newmtl m96
Kd 0.07450980392156863 0.07450980392156863 0.043137254901960784
newmtl m97
Kd 0.07450980392156863 0.07450980392156863 0.043137254901960784
newmtl m98
Kd 0.07450980392156863 0.07450980392156863 0.043137254901960784
newmtl m99
Kd 0.07450980392156863 0.07450980392156863 0.043137254901960784
newmtl m100
Kd 0.07450980392156863 0.07450980392156863 0.043137254901960784
newmtl m101
Kd 0.07450980392156863 0.07450980392156863 0.043137254901960784
newmtl m102
Kd 0.07450980392156863 0.07450980392156863 0.043137254901960784
newmtl m103
Kd 0.07450980392156863 0.07450980392156863 0.043137254901960784
newmtl m104
Kd 0.07450980392156863 0.07450980392156863 0.043137254901960784
newmtl m105
Kd 0.07450980392156863 0.07450980392156863 0.043137254901960784
newmtl m106
Kd 0.07450980392156863 0.07450980392156863 0.043137254901960784
newmtl m107
Kd 0.07450980392156863 0.07450980392156863 0.043137254901960784
newmtl m108
Kd 0.07450980392156863 0.07450980392156863 0.043137254901960784
newmtl m109
Kd 0.07450980392156863 0.07450980392156863 0.043137254901960784
newmtl m110
Kd 0.07450980392156863 0.07450980392156863 0.043137254901960784
newmtl m111
Kd 0.07450980392156863 0.07450980392156863 0.043137254901960784
newmtl m112
Kd 0.07450980392156863 0.07450980392156863 0.043137254901960784
newmtl m113
Kd 0.07450980392156863 0.07450980392156863 0.043137254901960784
newmtl m114
Kd 0.07450980392156863 0.07450980392156863 0.043137254901960784
newmtl m115
Kd 0.07450980392156863 0.07450980392156863 0.043137254901960784
newmtl m116
Kd 0.07450980392156863 0.07450980392156863 0.043137254901960784
newmtl m117
Kd 0.07450980392156863 0.07450980392156863 0.043137254901960784
newmtl m118
Kd 0.07450980392156863 0.07450980392156863 0.043137254901960784
newmtl m119
Kd 0.07450980392156863 0.07450980392156863 0.043137254901960784
newmtl m120
Kd 0.21176470588235294 0.21176470588235294 0.19215686274509805
newmtl m121
Kd 0.21176470588235294 0.21176470588235294 0.19215686274509805
newmtl m122
Kd 0.21176470588235294 0.21176470588235294 0.19215686274509805
newmtl m123
Kd 0.21176470588235294 0.21176470588235294 0.19215686274509805
newmtl m124
Kd 0.21176470588235294 0.21176470588235294 0.19215686274509805
newmtl m125
Kd 0.21176470588235294 0.21176470588235294 0.19215686274509805
newmtl m126
Kd 0.21176470588235294 0.21176470588235294 0.19215686274509805
newmtl m127
Kd 0.21176470588235294 0.21176470588235294 0.19215686274509805
newmtl m128
Kd 0.21176470588235294 0.21176470588235294 0.19215686274509805
newmtl m129
Kd 0.21176470588235294 0.21176470588235294 0.19215686274509805
newmtl m130
Kd 0.21176470588235294 0.21176470588235294 0.19215686274509805
newmtl m131
Kd 0.21176470588235294 0.21176470588235294 0.19215686274509805
newmtl m132
Kd 0.21176470588235294 0.21176470588235294 0.19215686274509805
newmtl m133
Kd 0.21176470588235294 0.21176470588235294 0.19215686274509805
newmtl m134
Kd 0.21176470588235294 0.21176470588235294 0.19215686274509805
newmtl m135
Kd 0.21176470588235294 0.21176470588235294 0.19215686274509805
newmtl m136
Kd 0.21176470588235294 0.21176470588235294 0.19215686274509805
newmtl m137
Kd 0.21176470588235294 0.21176470588235294 0.19215686274509805
newmtl m138
Kd 0.21176470588235294 0.21176470588235294 0.19215686274509805
newmtl m139
Kd 0.21176470588235294 0.21176470588235294 0.19215686274509805
newmtl m140
Kd 0.21176470588235294 0.21176470588235294 0.19215686274509805
newmtl m141
Kd 0.21176470588235294 0.21176470588235294 0.19215686274509805
newmtl m142
Kd 0.21176470588235294 0.21176470588235294 0.19215686274509805
newmtl m143
Kd 0.21176470588235294 0.21176470588235294 0.19215686274509805
newmtl m144
Kd 0.21176470588235294 0.21176470588235294 0.19215686274509805
newmtl m145
Kd 0.21176470588235294 0.21176470588235294 0.19215686274509805
newmtl m146
Kd 0.21176470588235294 0.21176470588235294 0.19215686274509805
newmtl m147
Kd 0.21176470588235294 0.21176470588235294 0.19215686274509805
newmtl m148
Kd 0.21176470588235294 0.21176470588235294 0.19215686274509805
newmtl m149
Kd 0.21176470588235294 0.21176470588235294 0.19215686274509805
newmtl m150
Kd 0.21176470588235294 0.21176470588235294 0.19215686274509805
newmtl m151
Kd 0.21176470588235294 0.21176470588235294 0.19215686274509805
newmtl m152
Kd 0.21176470588235294 0.21176470588235294 0.19215686274509805
newmtl m153
Kd 0.21176470588235294 0.21176470588235294 0.19215686274509805
newmtl m154
Kd 0.21176470588235294 0.21176470588235294 0.19215686274509805
newmtl m155
Kd 0.21176470588235294 0.21176470588235294 0.19215686274509805
newmtl m156
Kd 0.21176470588235294 0.21176470588235294 0.19215686274509805
newmtl m157
Kd 0.21176470588235294 0.21176470588235294 0.19215686274509805
newmtl m158
Kd 0.21176470588235294 0.21176470588235294 0.19215686274509805
newmtl m159
Kd 0.21176470588235294 0.21176470588235294 0.19215686274509805
newmtl m160
Kd 0.21176470588235294 0.21176470588235294 0.19215686274509805
newmtl m161
Kd 0.21176470588235294 0.21176470588235294 0.19215686274509805
newmtl m162
Kd 0.21176470588235294 0.21176470588235294 0.19215686274509805
newmtl m163
Kd 0.21176470588235294 0.21176470588235294 0.19215686274509805
newmtl m164
Kd 0.21176470588235294 0.21176470588235294 0.19215686274509805
newmtl m165
Kd 0.1568627450980392 0.1568627450980392 0.10980392156862745
newmtl m166
Kd 0.1568627450980392 0.1568627450980392 0.10980392156862745
newmtl m167
Kd 0.1568627450980392 0.1568627450980392 0.10980392156862745
newmtl m168
Kd 0.1568627450980392 0.1568627450980392 0.10980392156862745
newmtl m169
Kd 0.1568627450980392 0.1568627450980392 0.10980392156862745
newmtl m170
Kd 0.1568627450980392 0.1568627450980392 0.10980392156862745
newmtl m171
Kd 0.1568627450980392 0.1568627450980392 0.10980392156862745
newmtl m172
Kd 0.1568627450980392 0.1568627450980392 0.10980392156862745
newmtl m173
Kd 0.1568627450980392 0.1568627450980392 0.10980392156862745
newmtl m174
Kd 0.1568627450980392 0.1568627450980392 0.10980392156862745
newmtl m175
Kd 0.1568627450980392 0.1568627450980392 0.10980392156862745
newmtl m176
Kd 0.07450980392156863 0.07450980392156863 0.043137254901960784
newmtl m177
Kd 0.07450980392156863 0.07450980392156863 0.043137254901960784
newmtl m178
Kd 0.07450980392156863 0.07450980392156863 0.043137254901960784
newmtl m179
Kd 0.07450980392156863 0.07450980392156863 0.043137254901960784
newmtl m180
Kd 0.07450980392156863 0.07450980392156863 0.043137254901960784
newmtl m181
Kd 0.07450980392156863 0.07450980392156863 0.043137254901960784
newmtl m182
Kd 0.07450980392156863 0.07450980392156863 0.043137254901960784
newmtl m183
Kd 0.07450980392156863 0.07450980392156863 0.043137254901960784
newmtl m184
Kd 0.07450980392156863 0.07450980392156863 0.043137254901960784
newmtl m185
Kd 0.07450980392156863 0.07450980392156863 0.043137254901960784
newmtl m186
Kd 0.1568627450980392 0.1568627450980392 0.10980392156862745
newmtl m187
Kd 0.21176470588235294 0.21176470588235294 0.19215686274509805
newmtl m188
Kd 0.21176470588235294 0.21176470588235294 0.19215686274509805
newmtl m189
Kd 0.21176470588235294 0.21176470588235294 0.19215686274509805
newmtl m190
Kd 0.21176470588235294 0.21176470588235294 0.19215686274509805
newmtl m191
Kd 0.21176470588235294 0.21176470588235294 0.19215686274509805
newmtl m192
Kd 0.21176470588235294 0.21176470588235294 0.19215686274509805
newmtl m193
Kd 0.21176470588235294 0.21176470588235294 0.19215686274509805
newmtl m194
Kd 0.21176470588235294 0.21176470588235294 0.19215686274509805
newmtl m195
Kd 0.21176470588235294 0.21176470588235294 0.19215686274509805
newmtl m196
Kd 0.1568627450980392 0.1568627450980392 0.10980392156862745
newmtl m197
Kd 0.1568627450980392 0.1568627450980392 0.10980392156862745
newmtl m198
Kd 0.1568627450980392 0.1568627450980392 0.10980392156862745
newmtl m199
Kd 0.1568627450980392 0.1568627450980392 0.10980392156862745
newmtl m200
Kd 0.1568627450980392 0.1568627450980392 0.10980392156862745
newmtl m201
Kd 0.1568627450980392 0.1568627450980392 0.10980392156862745
newmtl m202
Kd 0.1568627450980392 0.1568627450980392 0.10980392156862745
newmtl m203
Kd 0.1568627450980392 0.1568627450980392 0.10980392156862745
newmtl m204
Kd 0.1568627450980392 0.1568627450980392 0.10980392156862745
newmtl m205
Kd 0.1568627450980392 0.1568627450980392 0.10980392156862745
newmtl m206
Kd 0.1568627450980392 0.1568627450980392 0.10980392156862745
newmtl m207
Kd 0.1568627450980392 0.1568627450980392 0.10980392156862745
newmtl m208
Kd 0.1568627450980392 0.1568627450980392 0.10980392156862745
newmtl m209
Kd 0.1568627450980392 0.1568627450980392 0.10980392156862745
newmtl m210
Kd 0.1568627450980392 0.1568627450980392 0.10980392156862745
newmtl m211
Kd 0.1568627450980392 0.1568627450980392 0.10980392156862745
newmtl m212
Kd 0.1568627450980392 0.1568627450980392 0.10980392156862745
newmtl m213
Kd 0.1568627450980392 0.1568627450980392 0.10980392156862745
newmtl m214
Kd 0.1568627450980392 0.1568627450980392 0.10980392156862745
newmtl m215
Kd 0.07450980392156863 0.07450980392156863 0.043137254901960784
newmtl m216
Kd 0.07450980392156863 0.07450980392156863 0.043137254901960784
newmtl m217
Kd 0.07450980392156863 0.07450980392156863 0.043137254901960784
newmtl m218
Kd 0.1568627450980392 0.1568627450980392 0.10980392156862745
newmtl m219
Kd 0.1568627450980392 0.1568627450980392 0.10980392156862745
newmtl m220
Kd 0.07450980392156863 0.07450980392156863 0.043137254901960784
newmtl m221
Kd 0.07450980392156863 0.07450980392156863 0.043137254901960784
newmtl m222
Kd 0.07450980392156863 0.07450980392156863 0.043137254901960784
newmtl m223
Kd 0.07450980392156863 0.07450980392156863 0.043137254901960784
newmtl m224
Kd 0.07450980392156863 0.07450980392156863 0.043137254901960784
newmtl m225
Kd 0.07450980392156863 0.07450980392156863 0.043137254901960784
newmtl m226
Kd 0.07450980392156863 0.07450980392156863 0.043137254901960784
newmtl m227
Kd 0.07450980392156863 0.07450980392156863 0.043137254901960784
newmtl m228
Kd 0.07450980392156863 0.07450980392156863 0.043137254901960784
newmtl m229
Kd 0.07450980392156863 0.07450980392156863 0.043137254901960784
newmtl m230
Kd 0.07450980392156863 0.07450980392156863 0.043137254901960784
newmtl m231
Kd 0.07450980392156863 0.07450980392156863 0.043137254901960784
newmtl m232
Kd 0.07450980392156863 0.07450980392156863 0.043137254901960784
newmtl m233
Kd 0.07450980392156863 0.07450980392156863 0.043137254901960784
newmtl m234
Kd 0.07450980392156863 0.07450980392156863 0.043137254901960784
newmtl m235
Kd 0.07450980392156863 0.07450980392156863 0.043137254901960784
newmtl m236
Kd 0.07450980392156863 0.07450980392156863 0.043137254901960784
newmtl m237
Kd 0.07450980392156863 0.07450980392156863 0.043137254901960784
newmtl m238
Kd 0.1568627450980392 0.1568627450980392 0.10980392156862745
newmtl m239
Kd 0.1568627450980392 0.1568627450980392 0.10980392156862745
newmtl m240
Kd 0.1568627450980392 0.1568627450980392 0.10980392156862745
newmtl m241
Kd 0.1568627450980392 0.1568627450980392 0.10980392156862745
newmtl m242
Kd 0.1568627450980392 0.1568627450980392 0.10980392156862745
newmtl m243
Kd 0.1568627450980392 0.1568627450980392 0.10980392156862745
newmtl m244
Kd 0.1568627450980392 0.1568627450980392 0.10980392156862745
newmtl m245
Kd 0.1568627450980392 0.1568627450980392 0.10980392156862745
newmtl m246
Kd 0.1568627450980392 0.1568627450980392 0.10980392156862745
newmtl m247
Kd 0.1568627450980392 0.1568627450980392 0.10980392156862745
newmtl m248
Kd 0.1568627450980392 0.1568627450980392 0.10980392156862745
newmtl m249
Kd 0.1568627450980392 0.1568627450980392 0.10980392156862745
newmtl m250
Kd 0.1568627450980392 0.1568627450980392 0.10980392156862745
newmtl m251
Kd 0.1568627450980392 0.1568627450980392 0.10980392156862745
newmtl m252
Kd 0.1568627450980392 0.1568627450980392 0.10980392156862745
newmtl m253
Kd 0.1568627450980392 0.1568627450980392 0.10980392156862745
newmtl m254
Kd 0.1568627450980392 0.1568627450980392 0.10980392156862745
newmtl m255
Kd 0.1568627450980392 0.1568627450980392 0.10980392156862745
newmtl m256
Kd 0.1568627450980392 0.1568627450980392 0.10980392156862745
newmtl m257
Kd 0.1568627450980392 0.1568627450980392 0.10980392156862745
newmtl m258
Kd 0.1568627450980392 0.1568627450980392 0.10980392156862745
newmtl m259
Kd 0.1568627450980392 0.1568627450980392 0.10980392156862745
newmtl m260
Kd 0.07450980392156863 0.07450980392156863 0.043137254901960784
newmtl m261
Kd 0.07450980392156863 0.07450980392156863 0.043137254901960784
newmtl m262
Kd 0.07450980392156863 0.07450980392156863 0.043137254901960784
newmtl m263
Kd 0.07450980392156863 0.07450980392156863 0.043137254901960784
newmtl m264
Kd 0.07450980392156863 0.07450980392156863 0.043137254901960784
newmtl m265
Kd 0.07450980392156863 0.07450980392156863 0.043137254901960784
newmtl m266
Kd 0.07450980392156863 0.07450980392156863 0.043137254901960784
newmtl m267
Kd 0.07450980392156863 0.07450980392156863 0.043137254901960784
newmtl m268
Kd 0.07450980392156863 0.07450980392156863 0.043137254901960784
newmtl m269
Kd 0.07450980392156863 0.07450980392156863 0.043137254901960784
newmtl m270
Kd 0.07450980392156863 0.07450980392156863 0.043137254901960784
newmtl m271
Kd 0.07450980392156863 0.07450980392156863 0.043137254901960784
newmtl m272
Kd 0.07450980392156863 0.07450980392156863 0.043137254901960784
newmtl m273
Kd 0.07450980392156863 0.07450980392156863 0.043137254901960784
newmtl m274
Kd 0.07450980392156863 0.07450980392156863 0.043137254901960784
newmtl m275
Kd 0.07450980392156863 0.07450980392156863 0.043137254901960784
newmtl m276
Kd 0.07450980392156863 0.07450980392156863 0.043137254901960784
newmtl m277
Kd 0.07450980392156863 0.07450980392156863 0.043137254901960784
newmtl m278
Kd 0.07450980392156863 0.07450980392156863 0.043137254901960784
newmtl m279
Kd 0.07450980392156863 0.07450980392156863 0.043137254901960784
newmtl m280
Kd 0.07450980392156863 0.07450980392156863 0.043137254901960784
newmtl m281
Kd 0.07450980392156863 0.07450980392156863 0.043137254901960784
newmtl m282
Kd 0.07450980392156863 0.07450980392156863 0.043137254901960784
newmtl m283
Kd 0.07450980392156863 0.07450980392156863 0.043137254901960784
newmtl m284
Kd 0.07450980392156863 0.07450980392156863 0.043137254901960784
newmtl m285
Kd 0.07450980392156863 0.07450980392156863 0.043137254901960784
newmtl m286
Kd 0.07450980392156863 0.07450980392156863 0.043137254901960784
newmtl m287
Kd 0.07450980392156863 0.07450980392156863 0.043137254901960784
newmtl m288
Kd 0.07450980392156863 0.07450980392156863 0.043137254901960784
newmtl m289
Kd 0.07450980392156863 0.07450980392156863 0.043137254901960784
newmtl m290
Kd 0.07450980392156863 0.07450980392156863 0.043137254901960784
newmtl m291
Kd 0.07450980392156863 0.07450980392156863 0.043137254901960784
newmtl m292
Kd 0.07450980392156863 0.07450980392156863 0.043137254901960784
newmtl m293
Kd 0.07450980392156863 0.07450980392156863 0.043137254901960784
