mtllib 8724.mtl
o runescapemodel
v 25 -18 -82
v 19 -63 -98
v 30 -58 -102
v 30 -18 -92
v 25 14 -58
v 4 19 -72
v 14 -18 -88
v 14 -18 -102
v 19 -63 -108
v 25 29 -78
v 30 49 -42
v 53 24 -23
v 30 -8 -42
v 4 9 -62
v 4 -8 -52
v -17 -8 -42
v -17 14 -58
v -49 19 -23
v -27 49 -42
v -22 29 -78
v -17 -18 -92
v -22 -18 -82
v -6 -18 -88
v 4 29 -82
v 4 64 -58
v 4 89 -23
v 46 64 -5
v 46 29 30
v 46 4 15
v 44 4 -15
v 47 -18 -28
v 36 -24 -28
v 37 -43 -5
v 48 -38 0
v 28 -48 36
v 23 -34 41
v 31 -18 16
v -17 -58 -102
v -11 -63 -98
v -17 -63 -108
v -6 -18 -102
v -11 34 99
v 4 54 60
v 4 79 69
v -27 64 50
v -17 49 54
v -34 19 50
v -45 24 30
v -45 4 15
v -43 1 -20
v -38 -18 -28
v -38 -38 0
v -27 -18 15
v -17 -34 40
v -22 -48 35
v -27 -43 -5
v -27 -24 -28
v 14 34 99
v 30 64 50
v 19 93 5
v -17 93 5
v -45 64 -5
v 19 49 54
v 35 19 50
v -10 -14 42
v -9 -15 41
v 0 -16 41
v -3 -13 44
v -3 -11 44
v -8 -2 44
v -26 -13 33
v -13 -14 41
v -9 -17 42
v 0 -19 43
v 9 -17 42
v 9 -15 41
v 10 -14 42
v 3 -13 44
v 3 -11 44
v 4 -2 44
v -4 -2 44
v -7 -2 47
v -9 2 47
v -9 2 44
v -16 14 44
v -32 6 40
v -40 10 16
v -40 2 12
v -16 -32 10
v -7 -31 37
v 13 -14 41
v 26 -13 33
v 8 -2 44
v 32 30 44
v 26 23 37
v 37 27 24
v 25 56 40
v 26 36 48
v 26 35 48
v 16 36 50
v 13 30 44
v 21 23 44
v 22 21 44
v 32 6 40
v 40 10 16
v 40 18 8
v 37 54 0
v 18 72 -8
v 0 68 32
v 0 52 48
v 16 38 50
v 6 37 50
v 7 35 50
v 0 29 48
v 7 24 44
v 14 26 46
v 15 19 46
v 16 14 44
v 40 2 12
v 40 10 8
v 44 18 8
v 40 22 -4
v 28 38 -40
v 0 58 -32
v -18 72 -8
v -25 56 40
v -16 38 50
v -6 37 50
v -4 36 50
v 4 36 50
v -37 27 24
v -27 23 37
v -32 30 44
v -37 54 0
v -40 18 8
v -22 21 44
v -21 23 44
v -13 30 44
v -16 36 50
v -26 35 48
v -26 36 48
v -7 35 50
v 27 -14 -16
v 16 -32 10
v 17 -21 -24
v 40 14 -8
v 38 -2 4
v 6 -31 37
v -3 -54 14
v 3 -54 14
v 22 -54 -2
v 26 -51 -31
v 6 -50 -40
v -6 -50 -40
v -17 -21 -24
v -29 38 -40
v -28 -14 -16
v -40 14 -8
v -40 22 -4
v -44 18 8
v -40 10 8
v -44 14 -8
v -38 -2 4
v -44 22 -4
v 44 14 -8
v 44 22 -4
v -7 24 44
v -2 22 44
v 0 22 48
v 2 22 44
v 6 22 44
v -15 19 46
v -14 26 46
v -6 22 44
v -6 5 44
v -6 5 47
v 0 12 50
v 6 5 47
v 6 5 44
v -26 -51 -31
v -21 -54 -2
v -12 22 48
v 12 22 48
v 1 -2 49
v -1 -2 49
v 1 -2 52
v -1 -2 52
v 3 0 54
v -3 0 54
v -6 -2 50
v -7 2 50
v -1 5 55
v 8 -2 47
v 9 2 44
v 9 2 47
v 7 -2 50
v 8 2 50
v 1 5 55
v -13 24 46
v -15 24 46
v -16 23 46
v -16 21 46
v -15 20 46
v -13 20 46
v -12 21 46
v -12 23 46
v -13 25 46
v -15 25 46
v -17 23 46
v -17 21 46
v -13 19 46
v -11 21 46
v -11 23 46
v 11 23 46
v 11 21 46
v 13 19 46
v 17 21 46
v 17 23 46
v 15 25 46
v 13 25 46
v 12 23 46
v 12 21 46
v 13 20 46
v 15 20 46
v 16 21 46
v 16 23 46
v 15 24 46
v 13 24 46
vn 189 502 -1017
vn -405 440 -427
vn 548 294 -93
vn 1059 -88 413
vn 1043 357 242
vn -32 591 -651
vn -979 304 -372
vn -453 -115 649
vn 84 162 443
vn 703 -397 565
vn 1147 -765 842
vn 1706 66 453
vn 593 458 953
vn -18 520 817
vn -17 243 413
vn -557 516 970
vn -997 368 422
vn -1702 180 607
vn -1085 -703 853
vn -719 -254 503
vn -1275 -202 552
vn -308 278 -540
vn 918 302 -400
vn 31 -685 1137
vn 36 -560 571
vn 48 -1265 770
vn 1185 -686 208
vn 1187 -43 -362
vn 711 189 -117
vn 906 61 -258
vn 945 514 536
vn 176 323 350
vn 342 585 285
vn 1132 197 -263
vn 325 201 -126
vn 428 -113 -250
vn 416 -149 -254
vn -853 205 -149
vn 188 357 -364
vn -393 105 201
vn 350 -91 730
vn -123 28 -198
vn -7 47 -132
vn 27 -848 -628
vn -1230 -463 -717
vn -287 133 -223
vn -517 31 -473
vn -1182 -24 -343
vn -717 174 -116
vn -955 176 -107
vn -936 629 702
vn -1169 347 -174
vn -448 -70 -234
vn -450 -77 -228
vn -336 191 -100
vn -347 588 289
vn -172 316 355
vn 126 45 -161
vn 1260 -415 -683
vn 505 -1021 -44
vn -471 -1028 -41
vn -1158 -657 238
vn 278 147 -215
vn 524 26 -473
vn -372 380 -1289
vn -32 168 -780
vn 0 434 -1756
vn -94 376 -1122
vn -130 32 -1529
vn -780 606 -1528
vn -1315 530 -1181
vn -176 -57 -648
vn -256 -83 -1310
vn 0 10 -1131
vn 256 -73 -1304
vn 32 168 -780
vn 372 380 -1289
vn 94 376 -866
vn 130 32 -1529
vn 0 512 -768
vn 0 768 -512
vn -438 730 -146
vn -1448 -179 -513
vn -640 -320 -512
vn -97 240 -1973
vn -1001 93 -1181
vn -1460 115 -281
vn -1375 412 -224
vn -1616 986 -573
vn -351 979 -750
vn 176 -57 -648
vn 1310 541 -1182
vn 561 497 -1455
vn 877 571 -1243
vn 841 118 -609
vn 1544 -88 -496
vn 1065 -999 -1019
vn 444 -168 -867
vn 277 137 -947
vn 100 504 -1341
vn 191 376 -1468
vn 724 -185 -1406
vn 782 -184 -1498
vn 999 74 -1170
vn 1460 115 -281
vn 1016 -325 -405
vn 1336 -481 22
vn 516 -1222 266
vn 0 -1072 -509
vn 0 -674 -2296
vn 220 -224 -1480
vn -17 -60 -1278
vn 72 397 -1141
vn 0 808 -2514
vn -325 -129 -1858
vn 113 -475 -1604
vn -44 154 -1720
vn 97 240 -1973
vn 1375 412 -224
vn 984 78 -354
vn 483 -377 -446
vn 743 -693 198
vn 1146 -212 1416
vn 2 -674 694
vn -515 -1226 262
vn -1065 -999 -1019
vn -169 -224 -1736
vn 17 -60 -766
vn 149 33 -1254
vn -149 33 -998
vn -1568 -91 -490
vn -841 125 -655
vn -886 554 -1259
vn -1339 -482 12
vn -1016 -325 -405
vn -665 -145 -1284
vn -754 -182 -1685
vn -191 376 -1468
vn -151 504 -1341
vn -226 137 -691
vn -495 -168 -1123
vn -72 397 -1141
vn 1000 559 437
vn 1613 1175 -829
vn 701 -68 1101
vn 686 33 940
vn 877 636 287
vn 346 736 -740
vn -164 -27 -689
vn 160 15 -442
vn 408 14 -229
vn 595 -194 152
vn 102 -205 443
vn -102 -328 667
vn -683 134 1133
vn -1145 -278 1153
vn -992 562 421
vn -697 28 920
vn -747 -689 187
vn -483 -377 -446
vn -984 78 -354
vn -965 211 350
vn -882 630 270
vn -256 -479 387
vn 965 211 350
vn 256 -479 387
vn 294 -156 -1607
vn -932 -37 -1402
vn 0 -46 -462
vn 932 -37 -1402
vn -277 7 -1206
vn -84 144 -1714
vn 49 -473 -1598
vn 372 -3 -1457
vn -443 -251 -512
vn -1169 -795 -402
vn 0 -568 -1040
vn 1137 -807 -451
vn 635 -443 -512
vn -597 -179 145
vn -414 32 -231
vn 51 -332 -871
vn -51 -332 -871
vn 0 768 0
vn 0 768 0
vn 51 1176 -357
vn -60 1118 -546
vn 377 672 -1203
vn -431 520 -1216
vn -693 677 -539
vn -767 -87 -626
vn -715 -569 -1001
vn 748 699 -78
vn 704 -64 -512
vn 1289 -379 -215
vn 693 620 -501
vn 888 -290 -628
vn 501 -377 -1143
vn 0 0 -1536
vn 0 0 -256
vn 0 0 -512
vn 0 0 -512
vn 0 0 -512
vn 0 0 -512
vn 0 0 -512
vn 0 0 -256
vn 0 0 -1536
vn 0 0 -256
vn 0 0 -512
vn 0 0 -512
vn 0 0 -512
vn 0 0 -512
vn 0 0 -256
vn 0 0 -1536
vn 0 0 -256
vn 0 0 -512
vn 0 0 -512
vn 0 0 -512
vn 0 0 -512
vn 0 0 -256
vn 0 0 -1536
vn 0 0 -256
vn 0 0 -512
vn 0 0 -512
vn 0 0 -512
vn 0 0 -512
vn 0 0 -512
vn 0 0 -256
usemtl m0
f 1 2 3

usemtl m1
f 1 3 4

usemtl m2
f 1 4 5

usemtl m3
f 1 5 6

usemtl m4
f 1 6 7

usemtl m5
f 1 7 2

usemtl m6
f 2 7 8

usemtl m7
f 2 8 9

usemtl m8
f 2 9 3

usemtl m9
f 3 9 4

usemtl m10
f 4 9 8

usemtl m11
f 4 8 10

usemtl m12
f 4 10 5

usemtl m13
f 5 10 11

usemtl m14
f 5 11 12

usemtl m15
f 5 12 13

usemtl m16
f 5 13 14

usemtl m17
f 14 13 15

usemtl m18
f 14 15 16

usemtl m19
f 14 16 17

usemtl m20
f 17 16 18

usemtl m21
f 17 18 19

usemtl m22
f 17 19 20

usemtl m23
f 17 20 21

usemtl m24
f 17 21 22

usemtl m25
f 17 22 6

usemtl m26
f 6 22 23

usemtl m27
f 6 23 24

usemtl m28
f 6 24 7

usemtl m29
f 7 24 8

usemtl m30
f 8 24 10

usemtl m31
f 10 24 11

usemtl m32
f 11 24 25

usemtl m33
f 11 25 26

usemtl m34
f 11 26 27

usemtl m35
f 11 27 12

usemtl m36
f 12 27 28

usemtl m37
f 12 28 29

usemtl m38
f 12 29 30

usemtl m39
f 12 30 31

usemtl m40
f 12 31 13

usemtl m41
f 13 31 32

usemtl m42
f 32 31 33

usemtl m43
f 33 31 34

usemtl m44
f 33 34 35

usemtl m45
f 35 34 36

usemtl m46
f 36 34 37

usemtl m47
f 37 34 30

usemtl m48
f 30 34 31

usemtl m49
f 38 39 22

usemtl m50
f 38 22 21

usemtl m51
f 38 21 40

usemtl m52
f 38 40 39

usemtl m53
f 39 40 41

usemtl m54
f 39 41 23

usemtl m55
f 39 23 22

usemtl m56
f 42 43 44

usemtl m57
f 42 44 45

usemtl m58
f 42 45 46

usemtl m59
f 46 45 47

usemtl m60
f 47 45 48

usemtl m61
f 47 48 49

usemtl m62
f 49 48 18

usemtl m63
f 49 18 50

usemtl m64
f 50 18 51

usemtl m65
f 50 51 52

usemtl m66
f 50 52 53

usemtl m67
f 53 52 54

usemtl m68
f 54 52 55

usemtl m69
f 55 52 56

usemtl m70
f 56 52 51

usemtl m71
f 56 51 57

usemtl m72
f 57 51 16

usemtl m73
f 16 51 18

usemtl m74
f 44 43 58

usemtl m75
f 44 58 59

usemtl m76
f 44 59 60

usemtl m77
f 44 60 61

usemtl m78
f 44 61 45

usemtl m79
f 45 61 62

usemtl m80
f 45 62 48

usemtl m81
f 48 62 18

usemtl m82
f 18 62 19

usemtl m83
f 19 62 26

usemtl m84
f 19 26 25

usemtl m85
f 19 25 24

usemtl m86
f 19 24 20

usemtl m87
f 20 24 41

usemtl m88
f 20 41 21

usemtl m89
f 21 41 40

usemtl m90
f 59 63 64

usemtl m91
f 59 64 28

usemtl m92
f 59 28 27

usemtl m93
f 59 27 60

usemtl m94
f 60 27 26

usemtl m95
f 60 26 61

usemtl m96
f 61 26 62

usemtl m97
f 59 58 63

usemtl m98
f 29 28 64

usemtl m99
f 24 23 41

usemtl m100
f 65 66 67

usemtl m101
f 65 67 68

usemtl m102
f 65 68 69

usemtl m103
f 65 69 70

usemtl m104
f 65 70 71

usemtl m105
f 65 71 72

usemtl m106
f 65 72 66

usemtl m107
f 66 72 73

usemtl m108
f 66 73 67

usemtl m109
f 67 73 74

usemtl m110
f 67 74 75

usemtl m111
f 67 75 76

usemtl m112
f 67 76 77

usemtl m113
f 67 77 78

usemtl m114
f 67 78 68

usemtl m115
f 68 78 79

usemtl m116
f 68 79 69

usemtl m117
f 69 79 80

usemtl m118
f 69 80 81

usemtl m119
f 69 81 70

usemtl m120
f 70 81 82

usemtl m121
f 70 82 83

usemtl m122
f 70 83 84

usemtl m123
f 70 84 85

usemtl m124
f 70 85 86

usemtl m125
f 70 86 71

usemtl m126
f 71 86 87

usemtl m127
f 71 87 88

usemtl m128
f 71 88 89

usemtl m129
f 71 89 90

usemtl m130
f 71 90 73

usemtl m131
f 71 73 72

usemtl m132
f 91 77 76

usemtl m133
f 91 76 75

usemtl m134
f 91 75 92

usemtl m135
f 91 92 77

usemtl m136
f 77 92 93

usemtl m137
f 77 93 79

usemtl m138
f 77 79 78

usemtl m139
f 94 95 96

usemtl m140
f 94 96 97

usemtl m141
f 94 97 98

usemtl m142
f 94 98 99

usemtl m143
f 94 99 100

usemtl m144
f 94 100 101

usemtl m145
f 94 101 102

usemtl m146
f 94 102 95

usemtl m147
f 95 102 103

usemtl m148
f 95 103 104

usemtl m149
f 95 104 96

usemtl m150
f 96 104 105

usemtl m151
f 96 105 106

usemtl m152
f 96 106 107

usemtl m153
f 96 107 97

usemtl m154
f 97 107 108

usemtl m155
f 97 108 109

usemtl m156
f 97 109 110

usemtl m157
f 97 110 111

usemtl m158
f 97 111 98

usemtl m159
f 98 111 99

usemtl m160
f 99 111 100

usemtl m161
f 100 111 112

usemtl m162
f 100 112 113

usemtl m163
f 100 113 101

usemtl m164
f 101 113 114

usemtl m165
f 101 114 115

usemtl m166
f 101 115 116

usemtl m167
f 101 116 102

usemtl m168
f 102 116 103

usemtl m169
f 103 116 117

usemtl m170
f 103 117 118

usemtl m171
f 103 118 104

usemtl m172
f 104 118 93

usemtl m173
f 104 93 92

usemtl m174
f 104 92 105

usemtl m175
f 105 92 119

usemtl m176
f 105 119 120

usemtl m177
f 105 120 106

usemtl m178
f 106 120 120

usemtl m179
f 106 120 121

usemtl m180
f 106 121 122

usemtl m181
f 106 122 107

usemtl m182
f 107 122 123

usemtl m183
f 107 123 108

usemtl m184
f 108 123 124

usemtl m185
f 108 124 125

usemtl m186
f 108 125 109

usemtl m187
f 109 125 126

usemtl m188
f 109 126 110

usemtl m189
f 110 126 127

usemtl m190
f 110 127 128

usemtl m191
f 110 128 129

usemtl m192
f 110 129 114

usemtl m193
f 110 114 130

usemtl m194
f 110 130 112

usemtl m195
f 110 112 111

usemtl m196
f 131 132 133

usemtl m197
f 131 133 126

usemtl m198
f 131 126 134

usemtl m199
f 131 134 135

usemtl m200
f 131 135 87

usemtl m201
f 131 87 86

usemtl m202
f 131 86 132

usemtl m203
f 132 86 136

usemtl m204
f 132 136 137

usemtl m205
f 132 137 133

usemtl m206
f 133 137 138

usemtl m207
f 133 138 139

usemtl m208
f 133 139 140

usemtl m209
f 133 140 141

usemtl m210
f 133 141 126

usemtl m211
f 126 141 127

usemtl m212
f 127 141 139

usemtl m213
f 127 139 142

usemtl m214
f 127 142 129

usemtl m215
f 127 129 128

usemtl m216
f 143 144 145

usemtl m217
f 143 145 123

usemtl m218
f 143 123 146

usemtl m219
f 143 146 147

usemtl m220
f 143 147 144

usemtl m221
f 144 147 119

usemtl m222
f 144 119 92

usemtl m223
f 144 92 148

usemtl m224
f 144 148 90

usemtl m225
f 144 90 89

usemtl m226
f 144 89 149

usemtl m227
f 144 149 150

usemtl m228
f 144 150 151

usemtl m229
f 144 151 152

usemtl m230
f 144 152 145

usemtl m231
f 145 152 153

usemtl m232
f 145 153 154

usemtl m233
f 145 154 155

usemtl m234
f 145 155 123

usemtl m235
f 123 155 156

usemtl m236
f 123 156 124

usemtl m237
f 124 156 125

usemtl m238
f 125 156 134

usemtl m239
f 125 134 126

usemtl m240
f 155 89 157

usemtl m241
f 155 157 156

usemtl m242
f 156 157 158

usemtl m243
f 156 158 159

usemtl m244
f 156 159 134

usemtl m245
f 134 159 135

usemtl m246
f 135 159 160

usemtl m247
f 135 160 161

usemtl m248
f 135 161 161

usemtl m249
f 135 161 87

usemtl m250
f 87 161 88

usemtl m251
f 88 161 162

usemtl m252
f 88 162 163

usemtl m253
f 88 163 89

usemtl m254
f 89 163 157

usemtl m255
f 157 163 158

usemtl m256
f 158 163 162

usemtl m257
f 158 162 164

usemtl m258
f 158 164 159

usemtl m259
f 159 164 160

usemtl m260
f 160 164 162

usemtl m261
f 160 162 161

usemtl m262
f 121 165 166

usemtl m263
f 121 166 122

usemtl m264
f 122 166 146

usemtl m265
f 122 146 123

usemtl m266
f 165 121 120

usemtl m267
f 165 120 119

usemtl m268
f 165 119 147

usemtl m269
f 165 147 146

usemtl m270
f 165 146 166

usemtl m271
f 119 120 120

usemtl m272
f 161 161 88

usemtl m273
f 112 130 113

usemtl m274
f 113 130 114

usemtl m275
f 141 140 139

usemtl m276
f 114 129 142

usemtl m277
f 114 142 138

usemtl m278
f 114 138 167

usemtl m279
f 114 167 168

usemtl m280
f 114 168 169

usemtl m281
f 114 169 170

usemtl m282
f 114 170 115

usemtl m283
f 115 170 171

usemtl m284
f 115 171 117

usemtl m285
f 115 117 116

usemtl m286
f 137 136 172

usemtl m287
f 137 172 173

usemtl m288
f 137 173 138

usemtl m289
f 138 173 167

usemtl m290
f 167 173 174

usemtl m291
f 167 174 168

usemtl m292
f 168 174 85

usemtl m293
f 168 85 175

usemtl m294
f 168 175 176

usemtl m295
f 168 176 177

usemtl m296
f 168 177 169

usemtl m297
f 169 177 170

usemtl m298
f 170 177 178

usemtl m299
f 170 178 179

usemtl m300
f 170 179 118

usemtl m301
f 170 118 171

usemtl m302
f 171 118 117

usemtl m303
f 173 172 174

usemtl m304
f 174 172 85

usemtl m305
f 85 172 136

usemtl m306
f 85 136 86

usemtl m307
f 89 180 181

usemtl m308
f 89 181 149

usemtl m309
f 89 155 180

usemtl m310
f 180 155 154

usemtl m311
f 173 137 182

usemtl m312
f 173 182 167

usemtl m313
f 167 182 174

usemtl m314
f 137 136 182

usemtl m315
f 183 102 116

usemtl m316
f 183 116 115

usemtl m317
f 183 115 171

usemtl m318
f 183 103 102

usemtl m319
f 81 80 184

usemtl m320
f 81 184 185

usemtl m321
f 185 184 186

usemtl m322
f 185 186 187

usemtl m323
f 187 186 188

usemtl m324
f 187 188 189

usemtl m325
f 187 189 190

usemtl m326
f 187 190 82

usemtl m327
f 82 190 83

usemtl m328
f 83 190 191

usemtl m329
f 83 191 192

usemtl m330
f 83 192 176

usemtl m331
f 83 176 84

usemtl m332
f 84 176 175

usemtl m333
f 84 175 85

usemtl m334
f 80 93 193

usemtl m335
f 193 93 194

usemtl m336
f 193 194 195

usemtl m337
f 193 195 196

usemtl m338
f 193 196 186

usemtl m339
f 186 196 188

usemtl m340
f 188 196 197

usemtl m341
f 188 197 198

usemtl m342
f 188 198 189

usemtl m343
f 189 198 192

usemtl m344
f 189 192 191

usemtl m345
f 189 191 190

usemtl m346
f 194 93 118

usemtl m347
f 194 118 179

usemtl m348
f 194 179 195

usemtl m349
f 195 179 178

usemtl m350
f 195 178 197

usemtl m351
f 195 197 196

usemtl m352
f 178 198 197

usemtl m353
f 198 178 177

usemtl m354
f 198 177 192

usemtl m355
f 192 177 176

usemtl m356
f 142 139 138

usemtl m357
f 93 80 79

usemtl m358
f 90 74 73

usemtl m359
f 74 90 148

usemtl m360
f 74 148 75

usemtl m361
f 75 148 92

usemtl m362
f 199 200 201

usemtl m363
f 199 201 202

usemtl m364
f 199 202 203

usemtl m365
f 199 203 204

usemtl m366
f 199 204 205

usemtl m367
f 199 205 206

usemtl m368
f 207 208 209

usemtl m369
f 207 209 210

usemtl m370
f 207 210 172

usemtl m371
f 207 172 211

usemtl m372
f 207 211 212

usemtl m373
f 207 212 213

usemtl m374
f 214 215 216

usemtl m375
f 214 216 117

usemtl m376
f 214 117 217

usemtl m377
f 214 217 218

usemtl m378
f 214 218 219

usemtl m379
f 214 219 220

usemtl m380
f 221 222 223

usemtl m381
f 221 223 224

usemtl m382
f 221 224 225

usemtl m383
f 221 225 226

usemtl m384
f 221 226 227

usemtl m385
f 221 227 228

