mtllib 9000.mtl
o runescapemodel
v -64 221 44
v -56 221 44
v -56 221 -64
v -64 221 -64
v -64 213 -64
v -56 213 -64
v -56 213 44
v -64 213 44
v -57 220 47
v -57 214 47
v -57 214 43
v -57 220 43
v -63 220 47
v -63 220 43
v -63 214 47
v -63 214 43
v -54 225 52
v -54 209 52
v -55 211 47
v -55 223 47
v -66 225 52
v -60 217 67
v -66 209 52
v -65 211 47
v -65 223 47
v -60 49 46
v -60 54 41
v -60 100 38
v -60 100 41
v -60 163 38
v -60 163 41
v -60 211 43
v -60 205 40
v -60 201 9
v -60 197 10
v -60 189 -64
v -60 193 -64
v -60 128 -64
v -60 120 -53
v -60 104 -53
v -60 96 -64
v -60 80 -49
v -60 88 -64
v -60 68 -42
v -60 76 -64
v -60 56 -34
v -60 60 -64
v -60 52 -31
v -60 42 -64
v -60 46 9
v -60 36 -64
v -60 40 7
v -60 144 -49
v -60 124 -46
v -60 112 -19
v -60 112 -34
v -60 100 -46
v -60 156 -42
v -60 132 -34
v -60 112 -4
v -60 96 -38
v -60 136 -64
v -60 172 -31
v -60 144 -16
v -60 112 18
v -60 84 -16
v -60 148 -64
v -60 184 -23
v -60 168 -64
vn 0 0 0
vn 0 0 0
vn 0 0 0
vn 0 0 0
vn 0 0 0
vn 0 0 0
vn 0 0 0
vn 0 0 0
vn 0 0 0
vn 0 0 0
vn 0 0 0
vn 0 0 0
vn 0 0 0
vn 0 0 0
vn 0 0 0
vn 0 0 0
vn 238 -225 -215
vn 238 225 -215
vn 0 0 512
vn 0 0 256
vn -238 -225 -215
vn 0 0 -430
vn -238 225 -215
vn 0 0 256
vn 0 0 512
vn 768 0 0
vn 1024 0 0
vn 1792 0 0
vn 768 0 0
vn 2048 0 0
vn 512 0 0
vn 768 0 0
vn 1024 0 0
vn 1024 0 0
vn 1536 0 0
vn 1024 0 0
vn 256 0 0
vn 1280 0 0
vn 1536 0 0
vn 2048 0 0
vn 768 0 0
vn 1024 0 0
vn 768 0 0
vn 1536 0 0
vn 768 0 0
vn 1536 0 0
vn 768 0 0
vn 1536 0 0
vn 768 0 0
vn 1792 0 0
vn 512 0 0
vn 768 0 0
vn 1024 0 0
vn 1536 0 0
vn 1792 0 0
vn 768 0 0
vn 1280 0 0
vn 1536 0 0
vn 1536 0 0
vn 1536 0 0
vn 1536 0 0
vn 768 0 0
vn 1536 0 0
vn 1536 0 0
vn 1536 0 0
vn 1536 0 0
vn 768 0 0
vn 1536 0 0
vn 512 0 0
usemtl m0
f 1 2 3

usemtl m1
f 1 3 4

usemtl m2
f 4 3 5

usemtl m3
f 5 3 6

usemtl m4
f 5 6 7

usemtl m5
f 5 7 8

usemtl m6
f 2 7 6

usemtl m7
f 2 6 3

usemtl m8
f 9 10 11

usemtl m9
f 9 11 12

usemtl m10
f 9 12 13

usemtl m11
f 13 12 14

usemtl m12
f 10 15 16

usemtl m13
f 10 16 11

usemtl m14
f 17 18 19

usemtl m15
f 17 19 20

usemtl m16
f 17 20 21

usemtl m17
f 17 21 22

usemtl m18
f 17 22 18

usemtl m19
f 18 22 23

usemtl m20
f 18 23 24

usemtl m21
f 18 24 19

usemtl m22
f 19 24 25

usemtl m23
f 19 25 20

usemtl m24
f 20 25 21

usemtl m25
f 21 23 22

usemtl m26
f 26 27 28

usemtl m27
f 26 28 29

usemtl m28
f 29 28 30

usemtl m29
f 29 30 31

usemtl m30
f 31 30 32

usemtl m31
f 32 30 33

usemtl m32
f 32 33 34

usemtl m33
f 34 33 35

usemtl m34
f 34 35 36

usemtl m35
f 34 36 37

usemtl m36
f 38 39 40

usemtl m37
f 38 40 41

usemtl m38
f 41 40 42

usemtl m39
f 41 42 43

usemtl m40
f 43 42 44

usemtl m41
f 43 44 45

usemtl m42
f 45 44 46

usemtl m43
f 45 46 47

usemtl m44
f 47 46 48

usemtl m45
f 47 48 49

usemtl m46
f 49 48 50

usemtl m47
f 49 50 51

usemtl m48
f 51 50 52

usemtl m49
f 52 50 27

usemtl m50
f 52 27 26

usemtl m51
f 38 53 39

usemtl m52
f 39 53 54

usemtl m53
f 39 54 55

usemtl m54
f 39 55 56

usemtl m55
f 39 56 40

usemtl m56
f 40 56 55

usemtl m57
f 40 55 57

usemtl m58
f 40 57 44

usemtl m59
f 40 44 42

usemtl m60
f 53 58 54

usemtl m61
f 54 58 59

usemtl m62
f 54 59 60

usemtl m63
f 54 60 55

usemtl m64
f 55 60 61

usemtl m65
f 55 61 57

usemtl m66
f 57 61 46

usemtl m67
f 57 46 44

usemtl m68
f 58 53 38

usemtl m69
f 58 38 62

usemtl m70
f 58 62 63

usemtl m71
f 58 63 59

usemtl m72
f 59 63 64

usemtl m73
f 59 64 65

usemtl m74
f 59 65 60

usemtl m75
f 60 65 66

usemtl m76
f 60 66 61

usemtl m77
f 61 66 48

usemtl m78
f 61 48 46

usemtl m79
f 62 67 63

usemtl m80
f 63 67 68

usemtl m81
f 63 68 64

usemtl m82
f 64 68 35

usemtl m83
f 64 35 30

usemtl m84
f 64 30 65

usemtl m85
f 65 30 28

usemtl m86
f 65 28 66

usemtl m87
f 66 28 50

usemtl m88
f 66 50 48

usemtl m89
f 68 67 69

usemtl m90
f 68 69 36

usemtl m91
f 68 36 35

usemtl m92
f 33 30 35

usemtl m93
f 28 27 50

