mtllib 9399.mtl
o runescapemodel
v 64 176 64
v 64 176 -64
v 64 240 -64
v 64 240 64
v -64 240 0
v -64 240 64
v -64 197 23
v -64 177 34
v -64 145 49
v -64 175 64
v 0 0 64
v 0 0 48
v -16 139 57
v 15 0 56
v -16 129 28
v 15 0 28
v 0 169 32
v 31 0 32
v 0 203 0
v 31 0 -32
v 0 169 -32
v 15 0 -28
v -16 129 -28
v 15 0 -56
v -16 139 -55
v 0 0 -48
v -64 145 -47
v 0 0 -64
v -64 175 -64
v -64 240 -64
v -64 177 -36
v -64 197 -23
v 64 80 64
v 64 80 -64
v 64 0 64
v 64 0 -64
v -16 167 -20
v -16 194 -26
v -16 167 20
v -16 196 0
v -16 194 26
v -16 216 0
v -64 214 0
vn 768 0 0
vn 768 0 0
vn 512 -512 0
vn 256 -512 0
vn -1024 -768 0
vn -1024 -256 0
vn -746 648 763
vn -479 231 454
vn -876 262 337
vn -454 72 -144
vn -432 175 -144
vn -71 54 475
vn -559 362 1132
vn -378 86 205
vn -560 147 432
vn -147 39 500
vn 144 215 904
vn -438 72 296
vn -353 706 0
vn -438 72 -296
vn 144 215 -904
vn -147 39 -500
vn -560 147 -431
vn -378 89 -204
vn -588 352 -1134
vn -71 61 -475
vn -878 243 -359
vn -439 178 132
vn -461 75 132
vn -1024 -256 0
vn -508 220 -453
vn -780 657 -756
vn 768 0 0
vn 768 0 0
vn 512 0 0
vn 256 0 0
vn -417 331 -560
vn -763 314 -391
vn -417 331 560
vn -902 282 0
vn -763 320 387
vn -498 800 0
vn -496 410 0
usemtl m0
f 1 2 3

usemtl m1
f 1 3 4

usemtl m2
f 4 3 5

usemtl m3
f 4 5 6

usemtl m4
f 6 5 7

usemtl m5
f 6 7 8

usemtl m6
f 6 8 9

usemtl m7
f 6 9 10

usemtl m8
f 10 9 11

usemtl m9
f 11 9 12

usemtl m10
f 12 9 13

usemtl m11
f 12 13 14

usemtl m12
f 14 13 15

usemtl m13
f 14 15 16

usemtl m14
f 16 15 17

usemtl m15
f 16 17 18

usemtl m16
f 18 17 19

usemtl m17
f 18 19 20

usemtl m18
f 20 19 21

usemtl m19
f 20 21 22

usemtl m20
f 22 21 23

usemtl m21
f 22 23 24

usemtl m22
f 24 23 25

usemtl m23
f 24 25 26

usemtl m24
f 26 25 27

usemtl m25
f 26 27 28

usemtl m26
f 28 27 29

usemtl m27
f 29 27 30

usemtl m28
f 30 27 31

usemtl m29
f 30 31 32

usemtl m30
f 30 32 5

usemtl m31
f 30 5 3

usemtl m32
f 2 1 33

usemtl m33
f 2 33 34

usemtl m34
f 34 33 35

usemtl m35
f 34 35 36

usemtl m36
f 23 37 25

usemtl m37
f 25 37 38

usemtl m38
f 25 38 32

usemtl m39
f 25 32 31

usemtl m40
f 25 31 27

usemtl m41
f 15 13 39

usemtl m42
f 15 39 17

usemtl m43
f 17 39 19

usemtl m44
f 19 39 40

usemtl m45
f 19 40 37

usemtl m46
f 19 37 21

usemtl m47
f 21 37 23

usemtl m48
f 7 13 8

usemtl m49
f 8 13 9

usemtl m50
f 13 7 41

usemtl m51
f 13 41 39

usemtl m52
f 39 41 40

usemtl m53
f 40 41 42

usemtl m54
f 40 42 38

usemtl m55
f 40 38 37

usemtl m56
f 5 32 43

usemtl m57
f 5 43 7

usemtl m58
f 7 43 42

usemtl m59
f 7 42 41

usemtl m60
f 32 38 42

usemtl m61
f 32 42 43

