mtllib 9574.mtl
o runescapemodel
v 64 119 64
v 64 119 -64
v -64 119 -64
v -64 119 64
v 62 134 52
v 62 134 -48
v 28 133 -15
v 29 133 47
v 62 134 64
v 62 124 64
v 62 124 52
v 62 124 -48
v 62 134 -64
v 28 133 -64
v 26 124 -64
v 27 123 -15
v 28 123 47
v 28 133 64
v 62 124 -64
v 26 124 64
v 21 133 64
v 21 133 56
v -20 133 53
v -19 133 64
v -20 122 53
v -19 122 64
v 21 134 -25
v -19 134 -20
v -19 122 -20
v 21 133 -64
v -19 133 -64
v -19 122 -64
v 21 123 64
v 22 123 56
v 21 123 -25
v 21 123 -64
v -24 132 64
v -26 133 45
v -61 133 47
v -58 132 64
v -61 124 48
v -59 122 64
v -25 132 -40
v -58 132 -42
v -58 123 -42
v -24 132 -64
v -58 132 -64
v -59 122 -64
v -24 122 -40
v -23 121 -64
v -28 123 44
v -23 121 64
vn 0 -512 0
vn 0 -256 0
vn 0 -512 0
vn 0 -256 0
vn 747 -767 0
vn 747 -767 0
vn -779 -872 -9
vn -783 -843 6
vn 242 -512 0
vn 512 0 0
vn 768 0 0
vn 768 0 0
vn 505 -256 0
vn -264 -567 0
vn -504 -80 -5
vn -762 -75 -13
vn -755 -105 42
vn -508 -336 46
vn 256 0 0
vn -247 -55 32
vn 256 -512 0
vn 762 -818 -37
vn -768 -768 -20
vn -512 -256 -46
vn -768 0 -43
vn -256 0 -23
vn 766 -793 11
vn -768 -768 2
vn -768 0 6
vn 512 -256 6
vn -256 -512 11
vn -512 0 0
vn 508 -25 -31
vn 762 -50 -28
vn 768 0 3
vn 256 0 0
vn 254 -535 -3
vn 747 -699 79
vn -764 -772 -54
vn -504 -285 -93
vn -760 -29 -70
vn -252 -25 -34
vn 758 -768 -21
vn -766 -793 2
vn -768 0 5
vn 509 -304 -19
vn -254 -537 0
vn -510 -25 -11
vn 763 -73 -30
vn 255 -23 -9
vn 747 67 51
vn 497 19 90
usemtl m0
f 1 2 3

usemtl m1
f 1 3 4

usemtl m2
f 5 6 7

usemtl m3
f 5 7 8

usemtl m4
f 5 8 9

usemtl m5
f 5 9 10

usemtl m6
f 5 10 11

usemtl m7
f 5 11 6

usemtl m8
f 6 11 12

usemtl m9
f 6 12 13

usemtl m10
f 6 13 14

usemtl m11
f 6 14 7

usemtl m12
f 7 14 15

usemtl m13
f 7 15 16

usemtl m14
f 7 16 8

usemtl m15
f 8 16 17

usemtl m16
f 8 17 18

usemtl m17
f 8 18 9

usemtl m18
f 13 12 19

usemtl m19
f 18 17 20

usemtl m20
f 21 22 23

usemtl m21
f 21 23 24

usemtl m22
f 24 23 25

usemtl m23
f 24 25 26

usemtl m24
f 22 27 28

usemtl m25
f 22 28 23

usemtl m26
f 23 28 29

usemtl m27
f 23 29 25

usemtl m28
f 27 30 31

usemtl m29
f 27 31 28

usemtl m30
f 28 31 32

usemtl m31
f 28 32 29

usemtl m32
f 33 34 22

usemtl m33
f 33 22 21

usemtl m34
f 34 35 27

usemtl m35
f 34 27 22

usemtl m36
f 30 27 35

usemtl m37
f 30 35 36

usemtl m38
f 37 38 39

usemtl m39
f 37 39 40

usemtl m40
f 40 39 41

usemtl m41
f 40 41 42

usemtl m42
f 38 43 44

usemtl m43
f 38 44 39

usemtl m44
f 39 44 45

usemtl m45
f 39 45 41

usemtl m46
f 43 46 47

usemtl m47
f 43 47 44

usemtl m48
f 44 47 48

usemtl m49
f 44 48 45

usemtl m50
f 46 43 49

usemtl m51
f 46 49 50

usemtl m52
f 51 49 43

usemtl m53
f 51 43 38

usemtl m54
f 51 38 52

usemtl m55
f 52 38 37

