mtllib 9726.mtl
o runescapemodel
v 64 144 2
v -64 144 2
v 64 142 1
v -64 142 1
v 64 142 -1
v -64 142 -1
v 64 144 -2
v -64 144 -2
v 64 146 -1
v -64 146 -1
v 64 146 1
v -64 146 1
v 64 144 4
v -64 144 4
v 64 140 2
v -64 140 2
v 64 140 -2
v -64 140 -2
v 64 144 -4
v -64 144 -4
v 64 148 -2
v -64 148 -2
v 64 148 2
v -64 148 2
v -64 143 0
v -64 144 -1
v 64 144 -1
v 64 143 0
v -64 144 1
v 64 144 1
v -64 145 0
v 64 145 0
vn 0 -114 -687
vn 0 114 -687
vn 0 484 -458
vn 0 626 -229
vn 0 626 229
vn 0 484 458
vn 0 114 687
vn 0 -114 687
vn 0 -484 458
vn 0 -626 229
vn 0 -626 -229
vn 0 -484 -458
vn 0 -114 -687
vn 0 114 -687
vn 0 484 -458
vn 0 626 -229
vn 0 626 229
vn 0 484 458
vn 0 114 687
vn 0 -114 687
vn 0 -484 458
vn 0 -626 229
vn 0 -626 -229
vn 0 -484 -458
vn 0 543 181
vn 0 -181 543
vn 0 181 543
vn 0 543 -181
vn 0 181 -543
vn 0 -181 -543
vn 0 -543 -181
vn 0 -543 181
usemtl m0
f 1 2 3

usemtl m1
f 3 2 4

usemtl m2
f 3 4 5

usemtl m3
f 5 4 6

usemtl m4
f 5 6 7

usemtl m5
f 7 6 8

usemtl m6
f 7 8 9

usemtl m7
f 9 8 10

usemtl m8
f 9 10 11

usemtl m9
f 11 10 12

usemtl m10
f 11 12 1

usemtl m11
f 1 12 2

usemtl m12
f 13 14 15

usemtl m13
f 15 14 16

usemtl m14
f 15 16 17

usemtl m15
f 17 16 18

usemtl m16
f 17 18 19

usemtl m17
f 19 18 20

usemtl m18
f 19 20 21

usemtl m19
f 21 20 22

usemtl m20
f 21 22 23

usemtl m21
f 23 22 24

usemtl m22
f 23 24 13

usemtl m23
f 13 24 14

usemtl m24
f 25 26 27

usemtl m25
f 25 27 28

usemtl m26
f 25 28 29

usemtl m27
f 29 28 30

usemtl m28
f 29 30 31

usemtl m29
f 31 30 32

usemtl m30
f 31 32 26

usemtl m31
f 26 32 27

