mtllib 9975.mtl
o runescapemodel
v -91 33 -50
v -110 43 -24
v -104 45 20
v -82 31 7
v -76 30 68
v -60 25 51
v -26 18 102
v -19 12 81
v 21 1 112
v 19 1 94
v 75 -18 96
v 63 -17 84
v 98 -29 60
v 90 -26 55
v 94 -30 2
v 84 -30 4
v 67 -31 -27
v 62 -30 -26
v -82 30 7
v -105 44 19
v -110 42 -24
v -91 32 -50
v -61 24 50
v -77 30 67
v -26 17 102
v 18 0 94
v 20 0 111
v 63 -18 84
v 74 -19 96
v 90 -27 55
v 97 -30 60
v 84 -31 4
v 93 -31 2
v 62 -31 -27
v 67 -32 -27
vn 223 -456 36
vn 92 -237 23
vn 356 -674 45
vn 337 -682 25
vn 272 -710 22
vn 237 -725 46
vn 257 -715 79
vn 18 9 8
vn 248 -722 53
vn 236 -721 79
vn 221 -722 108
vn 225 -720 94
vn 239 -723 42
vn 178 -732 24
vn 91 -748 36
vn 39 -762 58
vn 42 -507 39
vn 43 -251 32
vn -352 677 -61
vn -342 681 -42
vn -231 454 -33
vn -109 231 -9
vn -298 701 -30
vn -258 718 -32
vn -258 718 -67
vn -269 716 -47
vn -254 718 -66
vn -217 728 -83
vn -229 724 -78
vn -276 708 -63
vn -223 715 -40
vn -119 737 -35
vn -49 757 -56
vn -49 501 -52
vn -49 245 -52
usemtl m0
f 1 2 3

usemtl m1
f 1 3 4

usemtl m2
f 4 3 5

usemtl m3
f 4 5 6

usemtl m4
f 6 5 7

usemtl m5
f 6 7 8

usemtl m6
f 8 7 9

usemtl m7
f 8 9 10

usemtl m8
f 10 9 11

usemtl m9
f 10 11 12

usemtl m10
f 12 11 13

usemtl m11
f 12 13 14

usemtl m12
f 14 13 15

usemtl m13
f 14 15 16

usemtl m14
f 16 15 17

usemtl m15
f 16 17 18

usemtl m16
f 19 20 21

usemtl m17
f 19 21 22

usemtl m18
f 20 19 23

usemtl m19
f 20 23 24

usemtl m20
f 24 23 8

usemtl m21
f 24 8 25

usemtl m22
f 25 8 26

usemtl m23
f 25 26 27

usemtl m24
f 27 26 28

usemtl m25
f 27 28 29

usemtl m26
f 29 28 30

usemtl m27
f 29 30 31

usemtl m28
f 31 30 32

usemtl m29
f 31 32 33

usemtl m30
f 33 32 34

usemtl m31
f 33 34 35

