{
  "id": 1022,
  "tableId": 15,
  "columnTypes": [
    [
      "NPC"
    ],
    null,
    [
      "COORDGRID"
    ],
    [
      "STRING"
    ]
  ],
  "columnValues": [
    [
      4212
    ],
    null,
    [
      44944890
    ],
    [
      "First floor of Sinclair Mansion, north of Seers' Village."
    ]
  ]
}