{
  "id": 1025,
  "tableId": 15,
  "columnTypes": [
    [
      "NPC"
    ],
    null,
    [
      "COORDGRID"
    ],
    [
      "STRING"
    ]
  ],
  "columnValues": [
    [
      6527
    ],
    null,
    [
      57249170
    ],
    [
      "Talk to Roavar in the Canifis tavern."
    ]
  ]
}