{
  "id": 1034,
  "tableId": 15,
  "columnTypes": [
    [
      "NPC"
    ],
    null,
    [
      "COORDGRID"
    ],
    [
      "STRING"
    ]
  ],
  "columnValues": [
    [
      5081
    ],
    null,
    [
      50990170
    ],
    [
      "First floor of Wizards Tower."
    ]
  ]
}