{
  "id": 1040,
  "tableId": 15,
  "columnTypes": [
    [
      "NPC"
    ],
    null,
    [
      "COORDGRID"
    ],
    [
      "STRING"
    ]
  ],
  "columnValues": [
    [
      954
    ],
    null,
    [
      52825128
    ],
    [
      "Kalphite Lair entrance."
    ]
  ]
}