{
  "id": 1047,
  "tableId": 16,
  "columnTypes": [
    [
      "LOC"
    ],
    null,
    [
      "COORDGRID"
    ],
    [
      "STRING"
    ]
  ],
  "columnValues": [
    [
      366
    ],
    null,
    [
      42028208
    ],
    [
      "The crate west of the Clock Tower."
    ]
  ]
}