{
  "id": 1053,
  "tableId": 16,
  "columnTypes": [
    [
      "LOC"
    ],
    null,
    [
      "COORDGRID"
    ],
    [
      "STRING"
    ]
  ],
  "columnValues": [
    [
      5107
    ],
    null,
    [
      52225633
    ],
    [
      "Search in the basement of the West Varrock bank."
    ]
  ]
}