{
  "id": 1059,
  "tableId": 16,
  "columnTypes": [
    [
      "LOC"
    ],
    null,
    [
      "COORDGRID"
    ],
    [
      "STRING"
    ]
  ],
  "columnValues": [
    [
      375
    ],
    null,
    [
      317852805
    ],
    [
      "Search the chest on the east wall upstairs in Wydin's Food Store in Port Sarim."
    ]
  ]
}