{
  "id": 1063,
  "tableId": 16,
  "columnTypes": [
    [
      "LOC"
    ],
    null,
    [
      "COORDGRID"
    ],
    [
      "STRING"
    ]
  ],
  "columnValues": [
    [
      5111
    ],
    null,
    [
      52481336
    ],
    [
      "The first house on the left when entering Varrock from the southern entrance."
    ]
  ]
}