{
  "id": 1073,
  "tableId": 16,
  "columnTypes": [
    [
      "LOC"
    ],
    null,
    [
      "COORDGRID"
    ],
    [
      "STRING"
    ]
  ],
  "columnValues": [
    [
      398
    ],
    null,
    [
      50646421
    ],
    [
      "Search the coffin located by the Edgeville Wilderness teleport lever."
    ]
  ]
}