{
  "id": 1077,
  "tableId": 16,
  "columnTypes": [
    [
      "LOC"
    ],
    null,
    [
      "COORDGRID"
    ],
    [
      "STRING"
    ]
  ],
  "columnValues": [
    [
      348
    ],
    null,
    [
      48647407
    ],
    [
      "Wayne's Chains - Chainmail Specialist store at the southern Falador walls."
    ]
  ]
}