{
  "id": 1078,
  "tableId": 16,
  "columnTypes": [
    [
      "LOC"
    ],
    null,
    [
      "COORDGRID"
    ],
    [
      "STRING"
    ]
  ],
  "columnValues": [
    [
      2357
    ],
    null,
    [
      54807858
    ],
    [
      "The bush is on the east side of the first pathway towards the digsite from the Exam Centre."
    ]
  ]
}