{
  "id": 1096,
  "tableId": 16,
  "columnTypes": [
    [
      "LOC"
    ],
    null,
    [
      "COORDGRID"
    ],
    [
      "STRING"
    ]
  ],
  "columnValues": [
    [
      350
    ],
    null,
    [
      49794318
    ],
    [
      "House is located east of the eastern Falador bank and south of the fountain."
    ]
  ]
}