{
  "id": 111,
  "tableId": 0,
  "columnTypes": [
    [
      "INTEGER"
    ],
    [
      "STRING"
    ],
    [
      "STRING"
    ],
    null,
    [
      "INTEGER"
    ],
    [
      "BOOLEAN"
    ],
    [
      "INTEGER"
    ],
    [
      "INTEGER"
    ],
    [
      "INTEGER"
    ],
    [
      "INTEGER",
      "INTEGER",
      "INTEGER"
    ],
    null,
    null,
    null,
    [
      "COORDGRID"
    ],
    [
      "NPC"
    ],
    null,
    [
      "MAPELEMENT"
    ],
    [
      "INTEGER"
    ],
    null,
    [
      "INTEGER"
    ],
    null,
    null,
    null,
    null,
    null,
    null,
    null,
    null,
    [
      "INTEGER"
    ],
    null,
    null,
    null,
    null,
    [
      "INTEGER"
    ],
    [
      "INTEGER"
    ],
    [
      "BOOLEAN"
    ],
    [
      "INTEGER"
    ],
    [
      "STRING"
    ],
    [
      "BOOLEAN"
    ]
  ],
  "columnValues": [
    [
      56
    ],
    [
      "Priest in Peril"
    ],
    [
      "Priest in Peril"
    ],
    null,
    [
      0
    ],
    [
      1
    ],
    [
      0
    ],
    [
      1
    ],
    [
      45
    ],
    [
      29,
      6,
      2004
    ],
    null,
    null,
    null,
    [
      52776337
    ],
    [
      5215
    ],
    null,
    [
      799
    ],
    [
      1
    ],
    null,
    [
      60
    ],
    null,
    null,
    null,
    null,
    null,
    null,
    null,
    null,
    [
      15
    ],
    null,
    null,
    null,
    null,
    [
      10
    ],
    [
      32
    ],
    [
      1
    ],
    [
      1
    ],
    [
      "Gain access to Morytania."
    ],
    [
      1
    ]
  ]
}