{
  "id": 1114,
  "tableId": 16,
  "columnTypes": [
    [
      "LOC"
    ],
    null,
    [
      "COORDGRID"
    ],
    [
      "STRING"
    ]
  ],
  "columnValues": [
    [
      378
    ],
    null,
    [
      52186314
    ],
    [
      "Search the chest by Fred the Farmer's bed in his house north-west of Lumbridge."
    ]
  ]
}