{
  "id": 1115,
  "tableId": 16,
  "columnTypes": [
    [
      "LOC"
    ],
    null,
    [
      "COORDGRID"
    ],
    [
      "STRING"
    ]
  ],
  "columnValues": [
    [
      9523
    ],
    null,
    [
      51596393
    ],
    [
      "Father Urhney's house is found in the western end of the Lumbridge Swamp."
    ]
  ]
}