{
  "id": 1116,
  "tableId": 16,
  "columnTypes": [
    [
      "LOC"
    ],
    null,
    [
      "COORDGRID"
    ],
    [
      "STRING"
    ]
  ],
  "columnValues": [
    [
      9533
    ],
    null,
    [
      48270471
    ],
    [
      "The crates in Rommik's Crafty Supplies in Rimmington."
    ]
  ]
}