{
  "id": 1122,
  "tableId": 16,
  "columnTypes": [
    [
      "LOC"
    ],
    null,
    [
      "COORDGRID"
    ],
    [
      "STRING"
    ]
  ],
  "columnValues": [
    [
      5618
    ],
    null,
    [
      321080464
    ],
    [
      "Open the drawers inside the room with the spinning wheel on the first floor of Lumbridge Castle."
    ]
  ]
}