{
  "id": 113,
  "tableId": 0,
  "columnTypes": [
    [
      "INTEGER"
    ],
    [
      "STRING"
    ],
    [
      "STRING"
    ],
    null,
    [
      "INTEGER"
    ],
    [
      "BOOLEAN"
    ],
    [
      "INTEGER"
    ],
    [
      "INTEGER"
    ],
    [
      "INTEGER"
    ],
    [
      "INTEGER",
      "INTEGER",
      "INTEGER"
    ],
    [
      "INTEGER"
    ],
    [
      "INTEGER"
    ],
    [
      "BOOLEAN",
      "STRING"
    ],
    [
      "COORDGRID"
    ],
    [
      "NPC"
    ],
    null,
    [
      "MAPELEMENT"
    ],
    [
      "INTEGER"
    ],
    null,
    [
      "INTEGER"
    ],
    null,
    null,
    null,
    [
      "STAT",
      "INTEGER"
    ],
    null,
    [
      "DBROW"
    ],
    null,
    null,
    null,
    null,
    null,
    null,
    null,
    [
      "INTEGER"
    ],
    [
      "INTEGER"
    ],
    [
      "BOOLEAN"
    ],
    [
      "INTEGER"
    ],
    [
      "STRING"
    ],
    [
      "BOOLEAN"
    ]
  ],
  "columnValues": [
    [
      144
    ],
    [
      "Queen of Thieves, The"
    ],
    [
      "The Queen of Thieves"
    ],
    null,
    [
      0
    ],
    [
      1
    ],
    [
      1
    ],
    [
      0
    ],
    [
      30
    ],
    [
      9,
      11,
      2017
    ],
    [
      17
    ],
    [
      3
    ],
    [
      1,
      "3A"
    ],
    [
      29445829
    ],
    [
      7926
    ],
    null,
    [
      801
    ],
    [
      1
    ],
    null,
    [
      13
    ],
    null,
    null,
    null,
    [
      17,
      20
    ],
    null,
    [
      13
    ],
    null,
    null,
    null,
    null,
    null,
    null,
    null,
    [
      1
    ],
    [
      0
    ],
    [
      1
    ],
    [
      1
    ],
    [
      "Gain the Port Piscarilius Memoirs teleport."
    ],
    [
      1
    ]
  ]
}