{
  "id": 1143,
  "tableId": 16,
  "columnTypes": [
    [
      "LOC"
    ],
    null,
    [
      "COORDGRID"
    ],
    [
      "STRING"
    ]
  ],
  "columnValues": [
    [
      356
    ],
    null,
    [
      43765101
    ],
    [
      "Inside the Ranging Guild. Search the crate behind the northern most building."
    ]
  ]
}