{
  "id": 1149,
  "tableId": 25,
  "columnTypes": [
    [
      "STRING",
      "INTEGER"
    ]
  ],
  "columnValues": [
    [
      "How many fishermen are there on the fishing platform?",
      11
    ]
  ]
}