{
  "id": 1167,
  "tableId": 25,
  "columnTypes": [
    [
      "STRING",
      "INTEGER"
    ]
  ],
  "columnValues": [
    [
      "How many chairs are there in the Rising Sun?",
      18
    ]
  ]
}