{
  "id": 118,
  "tableId": 0,
  "columnTypes": [
    [
      "INTEGER"
    ],
    [
      "STRING"
    ],
    [
      "STRING"
    ],
    null,
    [
      "INTEGER"
    ],
    [
      "BOOLEAN"
    ],
    [
      "INTEGER"
    ],
    [
      "INTEGER"
    ],
    [
      "INTEGER"
    ],
    [
      "INTEGER",
      "INTEGER",
      "INTEGER"
    ],
    [
      "INTEGER"
    ],
    [
      "INTEGER"
    ],
    null,
    [
      "COORDGRID"
    ],
    [
      "NPC"
    ],
    null,
    [
      "MAPELEMENT"
    ],
    [
      "INTEGER"
    ],
    null,
    [
      "INTEGER"
    ],
    null,
    null,
    null,
    null,
    null,
    [
      "DBROW"
    ],
    null,
    null,
    [
      "INTEGER"
    ],
    null,
    null,
    null,
    null,
    [
      "INTEGER"
    ],
    [
      "INTEGER"
    ],
    [
      "BOOLEAN"
    ],
    [
      "INTEGER"
    ],
    [
      "STRING"
    ],
    [
      "BOOLEAN"
    ]
  ],
  "columnValues": [
    [
      86
    ],
    [
      "Recruitment Drive"
    ],
    [
      "Recruitment Drive"
    ],
    null,
    [
      0
    ],
    [
      1
    ],
    [
      0
    ],
    [
      1
    ],
    [
      11
    ],
    [
      27,
      6,
      2005
    ],
    [
      15
    ],
    [
      1
    ],
    null,
    [
      585370888
    ],
    [
      4771
    ],
    null,
    [
      806
    ],
    [
      1
    ],
    null,
    [
      2
    ],
    null,
    null,
    null,
    null,
    null,
    [
      10,
      34
    ],
    null,
    null,
    [
      10
    ],
    null,
    null,
    null,
    null,
    [
      1
    ],
    [
      5
    ],
    [
      1
    ],
    [
      0
    ],
    [
      "Gain a set of Initiate Armour."
    ],
    [
      1
    ]
  ]
}