{
  "id": 1200,
  "tableId": 25,
  "columnTypes": [
    [
      "STRING",
      "INTEGER"
    ]
  ],
  "columnValues": [
    [
      "Double the miles before the initial Dorgeshuun veteran.",
      2505
    ]
  ]
}