{
  "id": 1214,
  "tableId": 25,
  "columnTypes": [
    [
      "STRING",
      "INTEGER"
    ]
  ],
  "columnValues": [
    [
      "How many air runes would I need to cast 630 wind waves?",
      3150
    ]
  ]
}