{
  "id": 1227,
  "tableId": 25,
  "columnTypes": [
    [
      "STRING",
      "INTEGER"
    ]
  ],
  "columnValues": [
    [
      "How many round tables can be found on this floor of the library?",
      9
    ]
  ]
}