{
  "id": 1238,
  "tableId": 8,
  "columnTypes": [
    [
      "INTEGER"
    ],
    [
      "INTEGER"
    ],
    [
      "STRING"
    ],
    [
      "DBROW"
    ],
    null,
    null,
    null,
    null,
    null,
    null,
    [
      "INTEGER"
    ],
    null
  ],
  "columnValues": [
    [
      641
    ],
    [
      0
    ],
    [
      "Buried beneath the ground, who knows where it's found.<br><br>Lucky for you, a man called Reldo may have a clue."
    ],
    [
      973
    ],
    null,
    null,
    null,
    null,
    null,
    null,
    [
      1
    ],
    null
  ]
}