{
  "id": 1250,
  "tableId": 8,
  "columnTypes": [
    [
      "INTEGER"
    ],
    [
      "INTEGER"
    ],
    [
      "STRING"
    ],
    [
      "DBROW"
    ],
    null,
    null,
    null,
    null,
    null,
    null,
    [
      "INTEGER"
    ],
    null
  ],
  "columnValues": [
    [
      653
    ],
    [
      1
    ],
    [
      "Talk to a party-goer in Falador."
    ],
    [
      946
    ],
    null,
    null,
    null,
    null,
    null,
    null,
    [
      3
    ],
    null
  ]
}