{
  "id": 1263,
  "tableId": 8,
  "columnTypes": [
    [
      "INTEGER"
    ],
    [
      "INTEGER"
    ],
    [
      "STRING"
    ],
    [
      "DBROW"
    ],
    null,
    null,
    null,
    null,
    null,
    null,
    [
      "INTEGER"
    ],
    null
  ],
  "columnValues": [
    [
      666
    ],
    [
      1
    ],
    [
      "Talk to the Doomsayer."
    ],
    [
      890
    ],
    null,
    null,
    null,
    null,
    null,
    null,
    [
      1
    ],
    null
  ]
}