{
  "id": 1268,
  "tableId": 8,
  "columnTypes": [
    [
      "INTEGER"
    ],
    [
      "INTEGER"
    ],
    [
      "STRING"
    ],
    [
      "DBROW"
    ],
    null,
    null,
    null,
    null,
    null,
    null,
    [
      "INTEGER"
    ],
    null
  ],
  "columnValues": [
    [
      671
    ],
    [
      1
    ],
    [
      "Belladonna, my dear. If only I had gloves, then I could hold you at last."
    ],
    [
      960
    ],
    null,
    null,
    null,
    null,
    null,
    null,
    [
      1
    ],
    null
  ]
}