{
  "id": 128,
  "tableId": 0,
  "columnTypes": [
    [
      "INTEGER"
    ],
    [
      "STRING"
    ],
    [
      "STRING"
    ],
    null,
    [
      "INTEGER"
    ],
    [
      "BOOLEAN"
    ],
    [
      "INTEGER"
    ],
    [
      "INTEGER"
    ],
    [
      "INTEGER"
    ],
    [
      "INTEGER",
      "INTEGER",
      "INTEGER"
    ],
    null,
    null,
    null,
    [
      "COORDGRID"
    ],
    null,
    [
      "LOC"
    ],
    [
      "MAPELEMENT"
    ],
    [
      "INTEGER"
    ],
    null,
    [
      "INTEGER"
    ],
    null,
    null,
    null,
    [
      "STAT",
      "INTEGER"
    ],
    null,
    [
      "DBROW"
    ],
    null,
    null,
    [
      "INTEGER"
    ],
    [
      "BOOLEAN"
    ],
    [
      "BOOLEAN"
    ],
    null,
    null,
    [
      "INTEGER"
    ],
    [
      "INTEGER"
    ],
    [
      "BOOLEAN"
    ],
    [
      "INTEGER"
    ],
    [
      "STRING"
    ],
    [
      "BOOLEAN"
    ]
  ],
  "columnValues": [
    [
      63
    ],
    [
      "Shades of Mort'ton"
    ],
    [
      "Shades of Mort'ton"
    ],
    null,
    [
      0
    ],
    [
      1
    ],
    [
      1
    ],
    [
      1
    ],
    [
      26
    ],
    [
      18,
      10,
      2004
    ],
    null,
    null,
    null,
    [
      57035982
    ],
    null,
    [
      4062
    ],
    [
      816
    ],
    [
      3
    ],
    null,
    [
      85
    ],
    null,
    null,
    null,
    [
      12,
      20,
      15,
      15,
      11,
      5
    ],
    null,
    [
      111
    ],
    null,
    null,
    [
      25
    ],
    [
      0
    ],
    [
      1
    ],
    null,
    null,
    [
      0
    ],
    [
      0
    ],
    [
      1
    ],
    [
      1
    ],
    [
      "Gain access to the Shades of Mort'ton minigame."
    ],
    [
      1
    ]
  ]
}