{
  "id": 1286,
  "tableId": 8,
  "columnTypes": [
    [
      "INTEGER"
    ],
    [
      "INTEGER"
    ],
    [
      "STRING"
    ],
    [
      "DBROW"
    ],
    null,
    null,
    null,
    null,
    null,
    null,
    [
      "INTEGER"
    ],
    null
  ],
  "columnValues": [
    [
      756
    ],
    [
      1
    ],
    [
      "Search the crate in the Toad and Chicken pub."
    ],
    [
      1058
    ],
    null,
    null,
    null,
    null,
    null,
    null,
    [
      3
    ],
    null
  ]
}