{
  "id": 1295,
  "tableId": 8,
  "columnTypes": [
    [
      "INTEGER"
    ],
    [
      "INTEGER"
    ],
    [
      "STRING"
    ],
    [
      "DBROW"
    ],
    null,
    null,
    null,
    null,
    null,
    null,
    [
      "INTEGER"
    ],
    null
  ],
  "columnValues": [
    [
      765
    ],
    [
      1
    ],
    [
      "Search a wardrobe in Draynor."
    ],
    [
      1067
    ],
    null,
    null,
    null,
    null,
    null,
    null,
    [
      1
    ],
    null
  ]
}