{
  "id": 133,
  "tableId": 0,
  "columnTypes": [
    [
      "INTEGER"
    ],
    [
      "STRING"
    ],
    [
      "STRING"
    ],
    null,
    [
      "INTEGER"
    ],
    [
      "BOOLEAN"
    ],
    [
      "INTEGER"
    ],
    [
      "INTEGER"
    ],
    [
      "INTEGER"
    ],
    [
      "INTEGER",
      "INTEGER",
      "INTEGER"
    ],
    null,
    null,
    null,
    [
      "COORDGRID"
    ],
    [
      "NPC"
    ],
    null,
    [
      "MAPELEMENT"
    ],
    [
      "INTEGER"
    ],
    null,
    [
      "INTEGER"
    ],
    null,
    null,
    null,
    [
      "STAT",
      "INTEGER"
    ],
    null,
    [
      "DBROW"
    ],
    null,
    null,
    [
      "INTEGER"
    ],
    [
      "BOOLEAN"
    ],
    [
      "BOOLEAN"
    ],
    null,
    null,
    [
      "INTEGER"
    ],
    [
      "INTEGER"
    ],
    [
      "BOOLEAN"
    ],
    [
      "INTEGER"
    ],
    [
      "STRING"
    ],
    [
      "BOOLEAN"
    ]
  ],
  "columnValues": [
    [
      42
    ],
    [
      "Shilo Village"
    ],
    [
      "Shilo Village"
    ],
    null,
    [
      0
    ],
    [
      1
    ],
    [
      1
    ],
    [
      2
    ],
    [
      37
    ],
    [
      27,
      1,
      2003
    ],
    null,
    null,
    null,
    [
      47254407
    ],
    [
      8695
    ],
    null,
    [
      821
    ],
    [
      2
    ],
    null,
    [
      15
    ],
    null,
    null,
    null,
    [
      16,
      32,
      12,
      20
    ],
    null,
    [
      80
    ],
    null,
    null,
    [
      45
    ],
    [
      0
    ],
    [
      1
    ],
    null,
    null,
    [
      3
    ],
    [
      12
    ],
    [
      1
    ],
    [
      1
    ],
    [
      "Gain access to Shilo Village."
    ],
    [
      0
    ]
  ]
}