{
  "id": 1338,
  "tableId": 8,
  "columnTypes": [
    [
      "INTEGER"
    ],
    [
      "INTEGER"
    ],
    [
      "STRING"
    ],
    [
      "DBROW"
    ],
    null,
    null,
    null,
    null,
    null,
    null,
    [
      "INTEGER"
    ],
    null
  ],
  "columnValues": [
    [
      808
    ],
    [
      1
    ],
    [
      "Search the crates in the most north-western house in Al Kharid."
    ],
    [
      1110
    ],
    null,
    null,
    null,
    null,
    null,
    null,
    [
      6
    ],
    null
  ]
}