{
  "id": 1354,
  "tableId": 8,
  "columnTypes": [
    [
      "INTEGER"
    ],
    [
      "INTEGER"
    ],
    [
      "STRING"
    ],
    [
      "DBROW"
    ],
    null,
    null,
    null,
    null,
    null,
    null,
    [
      "INTEGER"
    ],
    null
  ],
  "columnValues": [
    [
      849
    ],
    [
      1
    ],
    [
      "Dig by the Giant's Den entrance, looking out over Lake Molch."
    ],
    [
      628
    ],
    null,
    null,
    null,
    null,
    null,
    null,
    [
      10
    ],
    null
  ]
}