{
  "id": 136,
  "tableId": 0,
  "columnTypes": [
    [
      "INTEGER"
    ],
    [
      "STRING"
    ],
    [
      "STRING"
    ],
    null,
    [
      "INTEGER"
    ],
    [
      "BOOLEAN"
    ],
    [
      "INTEGER"
    ],
    [
      "INTEGER"
    ],
    [
      "INTEGER"
    ],
    [
      "INTEGER",
      "INTEGER",
      "INTEGER"
    ],
    [
      "INTEGER"
    ],
    [
      "INTEGER"
    ],
    null,
    [
      "COORDGRID"
    ],
    [
      "NPC"
    ],
    null,
    [
      "MAPELEMENT"
    ],
    [
      "INTEGER"
    ],
    null,
    [
      "INTEGER"
    ],
    null,
    null,
    null,
    [
      "STAT",
      "INTEGER"
    ],
    null,
    [
      "DBROW"
    ],
    null,
    null,
    [
      "INTEGER"
    ],
    null,
    null,
    null,
    null,
    [
      "INTEGER"
    ],
    [
      "INTEGER"
    ],
    [
      "BOOLEAN"
    ],
    [
      "INTEGER"
    ],
    [
      "STRING"
    ],
    [
      "BOOLEAN"
    ]
  ],
  "columnValues": [
    [
      118
    ],
    [
      "Slug Menace, The"
    ],
    [
      "The Slug Menace"
    ],
    null,
    [
      0
    ],
    [
      1
    ],
    [
      1
    ],
    [
      2
    ],
    [
      11
    ],
    [
      20,
      9,
      2006
    ],
    [
      15
    ],
    [
      4
    ],
    null,
    [
      49106222
    ],
    [
      4687
    ],
    null,
    [
      823
    ],
    [
      1
    ],
    null,
    [
      14
    ],
    null,
    null,
    null,
    [
      12,
      30,
      20,
      30,
      18,
      30,
      17,
      30
    ],
    null,
    [
      127,
      156
    ],
    null,
    null,
    [
      35
    ],
    null,
    null,
    null,
    null,
    [
      0
    ],
    [
      0
    ],
    [
      1
    ],
    [
      1
    ],
    [
      "Learn how to equip Proselyte Armour."
    ],
    [
      1
    ]
  ]
}