{
  "id": 1376,
  "tableId": 8,
  "columnTypes": [
    [
      "INTEGER"
    ],
    [
      "INTEGER"
    ],
    [
      "STRING"
    ],
    [
      "DBROW"
    ],
    null,
    null,
    null,
    null,
    null,
    null,
    [
      "INTEGER"
    ],
    null
  ],
  "columnValues": [
    [
      700
    ],
    [
      3
    ],
    [
      "Identify the back of this over-acting brother. (He's a long way from home.)"
    ],
    [
      989
    ],
    null,
    null,
    null,
    null,
    null,
    null,
    [
      6
    ],
    null
  ]
}