{
  "id": 1382,
  "tableId": 8,
  "columnTypes": [
    [
      "INTEGER"
    ],
    [
      "INTEGER"
    ],
    [
      "STRING"
    ],
    [
      "DBROW"
    ],
    null,
    null,
    null,
    null,
    null,
    null,
    [
      "INTEGER"
    ],
    null
  ],
  "columnValues": [
    [
      706
    ],
    [
      3
    ],
    [
      "The King's magic shouldn't be wasted by me."
    ],
    [
      995
    ],
    null,
    null,
    null,
    null,
    null,
    null,
    [
      6
    ],
    null
  ]
}