{
  "id": 1388,
  "tableId": 8,
  "columnTypes": [
    [
      "INTEGER"
    ],
    [
      "INTEGER"
    ],
    [
      "STRING"
    ],
    [
      "DBROW"
    ],
    null,
    null,
    null,
    null,
    null,
    null,
    [
      "INTEGER"
    ],
    null
  ],
  "columnValues": [
    [
      712
    ],
    [
      3
    ],
    [
      "Surprising? I bet he is..."
    ],
    [
      1001
    ],
    null,
    null,
    null,
    null,
    null,
    null,
    [
      1
    ],
    null
  ]
}