{
  "id": 1393,
  "tableId": 8,
  "columnTypes": [
    [
      "INTEGER"
    ],
    [
      "INTEGER"
    ],
    [
      "STRING"
    ],
    [
      "DBROW"
    ],
    null,
    null,
    null,
    null,
    null,
    null,
    [
      "INTEGER"
    ],
    null
  ],
  "columnValues": [
    [
      821
    ],
    [
      3
    ],
    [
      "My home is grey, and made of stone; A castle with a search for a meal. Hidden in some drawers I am, across from a wooden wheel."
    ],
    [
      1122
    ],
    null,
    null,
    null,
    null,
    null,
    null,
    [
      1
    ],
    null
  ]
}