{
  "id": 1467,
  "tableId": 8,
  "columnTypes": [
    [
      "INTEGER"
    ],
    [
      "INTEGER"
    ],
    [
      "STRING"
    ],
    [
      "DBROW"
    ],
    null,
    null,
    null,
    null,
    null,
    null,
    [
      "INTEGER"
    ],
    null
  ],
  "columnValues": [
    [
      719
    ],
    [
      5
    ],
    [
      "One of several rhyming brothers, in business attire with an obsession for paper work."
    ],
    [
      1008
    ],
    null,
    null,
    null,
    null,
    null,
    null,
    [
      11
    ],
    null
  ]
}