{
  "id": 1475,
  "tableId": 8,
  "columnTypes": [
    [
      "INTEGER"
    ],
    [
      "INTEGER"
    ],
    [
      "STRING"
    ],
    [
      "DBROW"
    ],
    null,
    null,
    null,
    null,
    null,
    null,
    [
      "INTEGER"
    ],
    null
  ],
  "columnValues": [
    [
      727
    ],
    [
      5
    ],
    [
      "The doorman of the Warriors' Guild wishes to be impressed by how strong your equipment is."
    ],
    [
      1016
    ],
    null,
    null,
    null,
    null,
    null,
    null,
    [
      3
    ],
    null
  ]
}