{
  "id": 1479,
  "tableId": 8,
  "columnTypes": [
    [
      "INTEGER"
    ],
    [
      "INTEGER"
    ],
    [
      "STRING"
    ],
    [
      "DBROW"
    ],
    null,
    null,
    null,
    null,
    null,
    null,
    [
      "INTEGER"
    ],
    null
  ],
  "columnValues": [
    [
      731
    ],
    [
      5
    ],
    [
      "Darkness wanders around me, but fills my mind with knowledge."
    ],
    [
      1020
    ],
    null,
    null,
    null,
    null,
    null,
    null,
    [
      10
    ],
    null
  ]
}