{
  "id": 1486,
  "tableId": 8,
  "columnTypes": [
    [
      "INTEGER"
    ],
    [
      "INTEGER"
    ],
    [
      "STRING"
    ],
    [
      "DBROW"
    ],
    null,
    null,
    null,
    null,
    null,
    null,
    [
      "INTEGER"
    ],
    null
  ],
  "columnValues": [
    [
      885
    ],
    [
      5
    ],
    [
      "Dig in front of the icy arena where 1 of 4 was fought."
    ],
    [
      664
    ],
    null,
    null,
    null,
    null,
    null,
    null,
    [
      3,
      6
    ],
    null
  ]
}