{
  "id": 15,
  "tableId": 0,
  "columnTypes": [
    [
      "INTEGER"
    ],
    [
      "STRING"
    ],
    [
      "STRING"
    ],
    null,
    [
      "INTEGER"
    ],
    [
      "BOOLEAN"
    ],
    [
      "INTEGER"
    ],
    [
      "INTEGER"
    ],
    [
      "INTEGER"
    ],
    [
      "INTEGER",
      "INTEGER",
      "INTEGER"
    ],
    [
      "INTEGER"
    ],
    [
      "INTEGER"
    ],
    null,
    [
      "COORDGRID"
    ],
    [
      "NPC"
    ],
    null,
    [
      "MAPELEMENT"
    ],
    [
      "INTEGER"
    ],
    null,
    [
      "INTEGER"
    ],
    null,
    null,
    null,
    [
      "STAT",
      "INTEGER"
    ],
    null,
    null,
    null,
    null,
    [
      "INTEGER"
    ],
    null,
    null,
    null,
    null,
    [
      "INTEGER"
    ],
    [
      "INTEGER"
    ],
    [
      "BOOLEAN"
    ],
    [
      "INTEGER"
    ],
    [
      "STRING"
    ],
    [
      "BOOLEAN"
    ]
  ],
  "columnValues": [
    [
      126
    ],
    [
      "Cold War"
    ],
    [
      "Cold War"
    ],
    null,
    [
      0
    ],
    [
      1
    ],
    [
      1
    ],
    [
      2
    ],
    [
      2
    ],
    [
      29,
      1,
      2007
    ],
    [
      11
    ],
    [
      1
    ],
    null,
    [
      42536129
    ],
    [
      827
    ],
    null,
    [
      713
    ],
    [
      1
    ],
    null,
    [
      135
    ],
    null,
    null,
    null,
    [
      22,
      34,
      12,
      30,
      16,
      30,
      17,
      15,
      21,
      10
    ],
    null,
    null,
    null,
    null,
    [
      30
    ],
    null,
    null,
    null,
    null,
    [
      1
    ],
    [
      2
    ],
    [
      1
    ],
    [
      1
    ],
    [
      "Gain access to the Penguin Agility Course."
    ],
    [
      1
    ]
  ]
}