{
  "id": 1500,
  "tableId": 4,
  "columnTypes": [
    [
      "INTEGER"
    ],
    [
      "INTEGER"
    ],
    [
      "STRING"
    ],
    [
      "DBROW"
    ],
    null,
    [
      "INTEGER"
    ],
    null,
    null
  ],
  "columnValues": [
    [
      2
    ],
    [
      0
    ],
    [
      "Carpet Ahoy"
    ],
    [
      833
    ],
    null,
    [
      1
    ],
    null,
    null
  ]
}