{
  "id": 1507,
  "tableId": 4,
  "columnTypes": [
    [
      "INTEGER"
    ],
    [
      "INTEGER"
    ],
    [
      "STRING"
    ],
    [
      "DBROW"
    ],
    null,
    [
      "INTEGER"
    ],
    null,
    null
  ],
  "columnValues": [
    [
      9
    ],
    [
      0
    ],
    [
      "Taunt Roof"
    ],
    [
      840
    ],
    null,
    [
      1
    ],
    null,
    null
  ]
}