{
  "id": 1512,
  "tableId": 4,
  "columnTypes": [
    [
      "INTEGER"
    ],
    [
      "INTEGER"
    ],
    [
      "STRING"
    ],
    [
      "DBROW"
    ],
    [
      "DBROW"
    ],
    [
      "INTEGER"
    ],
    null,
    null
  ],
  "columnValues": [
    [
      14
    ],
    [
      2
    ],
    [
      "A HEART"
    ],
    [
      845
    ],
    [
      1148
    ],
    [
      10
    ],
    null,
    null
  ]
}