{
  "id": 1531,
  "tableId": 4,
  "columnTypes": [
    [
      "INTEGER"
    ],
    [
      "INTEGER"
    ],
    [
      "STRING"
    ],
    [
      "DBROW"
    ],
    null,
    [
      "INTEGER"
    ],
    null,
    null
  ],
  "columnValues": [
    [
      33
    ],
    [
      2
    ],
    [
      "ICY FE"
    ],
    [
      863
    ],
    null,
    [
      4
    ],
    null,
    null
  ]
}