{
  "id": 1541,
  "tableId": 4,
  "columnTypes": [
    [
      "INTEGER"
    ],
    [
      "INTEGER"
    ],
    [
      "STRING"
    ],
    [
      "DBROW"
    ],
    [
      "DBROW"
    ],
    [
      "INTEGER"
    ],
    null,
    null
  ],
  "columnValues": [
    [
      43
    ],
    [
      2
    ],
    [
      "PACINNG A TAIE"
    ],
    [
      872
    ],
    [
      1171
    ],
    [
      10
    ],
    null,
    null
  ]
}