{
  "id": 1553,
  "tableId": 4,
  "columnTypes": [
    [
      "INTEGER"
    ],
    [
      "INTEGER"
    ],
    [
      "STRING"
    ],
    [
      "DBROW"
    ],
    [
      "DBROW"
    ],
    [
      "INTEGER"
    ],
    null,
    null
  ],
  "columnValues": [
    [
      55
    ],
    [
      3
    ],
    [
      "Baker Climb"
    ],
    [
      883
    ],
    [
      830
    ],
    [
      3,
      8
    ],
    null,
    null
  ]
}