{
  "id": 1555,
  "tableId": 4,
  "columnTypes": [
    [
      "INTEGER"
    ],
    [
      "INTEGER"
    ],
    [
      "STRING"
    ],
    [
      "DBROW"
    ],
    [
      "DBROW"
    ],
    [
      "INTEGER"
    ],
    null,
    null
  ],
  "columnValues": [
    [
      57
    ],
    [
      3
    ],
    [
      "By Look"
    ],
    [
      885
    ],
    [
      1182
    ],
    [
      4
    ],
    null,
    null
  ]
}