{
  "id": 1557,
  "tableId": 4,
  "columnTypes": [
    [
      "INTEGER"
    ],
    [
      "INTEGER"
    ],
    [
      "STRING"
    ],
    [
      "DBROW"
    ],
    [
      "DBROW"
    ],
    [
      "INTEGER"
    ],
    null,
    null
  ],
  "columnValues": [
    [
      59
    ],
    [
      3
    ],
    [
      "Copper Ore Crypts"
    ],
    [
      887
    ],
    [
      1184
    ],
    [
      3
    ],
    null,
    null
  ]
}