{
  "id": 1569,
  "tableId": 4,
  "columnTypes": [
    [
      "INTEGER"
    ],
    [
      "INTEGER"
    ],
    [
      "STRING"
    ],
    [
      "DBROW"
    ],
    [
      "DBROW"
    ],
    [
      "INTEGER"
    ],
    null,
    null
  ],
  "columnValues": [
    [
      71
    ],
    [
      3
    ],
    [
      "Veil Veda"
    ],
    [
      899
    ],
    [
      1193
    ],
    [
      1,
      6,
      4
    ],
    null,
    null
  ]
}