{
  "id": 157,
  "tableId": 0,
  "columnTypes": [
    [
      "INTEGER"
    ],
    [
      "STRING"
    ],
    [
      "STRING"
    ],
    null,
    [
      "INTEGER"
    ],
    [
      "BOOLEAN"
    ],
    [
      "INTEGER"
    ],
    [
      "INTEGER"
    ],
    [
      "INTEGER"
    ],
    [
      "INTEGER",
      "INTEGER",
      "INTEGER"
    ],
    null,
    null,
    null,
    [
      "COORDGRID"
    ],
    [
      "NPC"
    ],
    null,
    [
      "MAPELEMENT"
    ],
    [
      "INTEGER"
    ],
    null,
    [
      "INTEGER"
    ],
    null,
    null,
    null,
    [
      "STAT",
      "INTEGER"
    ],
    null,
    null,
    null,
    null,
    [
      "INTEGER"
    ],
    [
      "BOOLEAN"
    ],
    [
      "BOOLEAN"
    ],
    null,
    null,
    [
      "INTEGER"
    ],
    [
      "INTEGER"
    ],
    [
      "BOOLEAN"
    ],
    [
      "INTEGER"
    ],
    [
      "STRING"
    ],
    [
      "BOOLEAN"
    ]
  ],
  "columnValues": [
    [
      46
    ],
    [
      "Watchtower"
    ],
    [
      "Watchtower"
    ],
    null,
    [
      0
    ],
    [
      1
    ],
    [
      1
    ],
    [
      2
    ],
    [
      48
    ],
    [
      7,
      5,
      2003
    ],
    null,
    null,
    null,
    [
      578604073
    ],
    [
      4397
    ],
    null,
    [
      844
    ],
    [
      4
    ],
    null,
    [
      13
    ],
    null,
    null,
    null,
    [
      14,
      40,
      16,
      25,
      17,
      15,
      15,
      14,
      6,
      14
    ],
    null,
    null,
    null,
    null,
    [
      35
    ],
    [
      0
    ],
    [
      1
    ],
    null,
    null,
    [
      1
    ],
    [
      0
    ],
    [
      1
    ],
    [
      1
    ],
    [
      "Unlock the Watchtower teleport spell."
    ],
    [
      0
    ]
  ]
}