{
  "id": 1589,
  "tableId": 4,
  "columnTypes": [
    [
      "INTEGER"
    ],
    [
      "INTEGER"
    ],
    [
      "STRING"
    ],
    [
      "DBROW"
    ],
    [
      "DBROW"
    ],
    [
      "INTEGER"
    ],
    null,
    null
  ],
  "columnValues": [
    [
      91
    ],
    [
      5
    ],
    [
      "Forlun"
    ],
    [
      918
    ],
    [
      831
    ],
    [
      8
    ],
    null,
    null
  ]
}