{
  "id": 1590,
  "tableId": 4,
  "columnTypes": [
    [
      "INTEGER"
    ],
    [
      "INTEGER"
    ],
    [
      "STRING"
    ],
    [
      "DBROW"
    ],
    [
      "DBROW"
    ],
    [
      "INTEGER"
    ],
    null,
    null
  ],
  "columnValues": [
    [
      92
    ],
    [
      5
    ],
    [
      "Im N Zezim"
    ],
    [
      919
    ],
    [
      831
    ],
    [
      1
    ],
    null,
    null
  ]
}