{
  "id": 16,
  "tableId": 0,
  "columnTypes": [
    [
      "INTEGER"
    ],
    [
      "STRING"
    ],
    [
      "STRING"
    ],
    null,
    [
      "INTEGER"
    ],
    [
      "BOOLEAN"
    ],
    [
      "INTEGER"
    ],
    [
      "INTEGER"
    ],
    [
      "INTEGER"
    ],
    [
      "INTEGER",
      "INTEGER",
      "INTEGER"
    ],
    [
      "INTEGER"
    ],
    [
      "INTEGER"
    ],
    null,
    [
      "COORDGRID"
    ],
    [
      "NPC"
    ],
    null,
    [
      "MAPELEMENT"
    ],
    [
      "INTEGER"
    ],
    null,
    [
      "INTEGER"
    ],
    null,
    null,
    null,
    null,
    [
      "STAT",
      "INTEGER"
    ],
    [
      "DBROW"
    ],
    null,
    null,
    [
      "INTEGER"
    ],
    null,
    null,
    null,
    null,
    [
      "INTEGER"
    ],
    [
      "INTEGER"
    ],
    [
      "BOOLEAN"
    ],
    [
      "INTEGER"
    ],
    [
      "STRING"
    ],
    [
      "BOOLEAN"
    ]
  ],
  "columnValues": [
    [
      124
    ],
    [
      "Contact!"
    ],
    [
      "Contact!"
    ],
    null,
    [
      0
    ],
    [
      1
    ],
    [
      2
    ],
    [
      1
    ],
    [
      40
    ],
    [
      10,
      1,
      2007
    ],
    [
      1
    ],
    [
      3
    ],
    null,
    [
      53758675
    ],
    [
      6192
    ],
    null,
    [
      714
    ],
    [
      1
    ],
    null,
    [
      130
    ],
    null,
    null,
    null,
    null,
    [
      16,
      50,
      17,
      50
    ],
    [
      75,
      112
    ],
    null,
    null,
    [
      70
    ],
    null,
    null,
    null,
    null,
    [
      1
    ],
    [
      1
    ],
    [
      1
    ],
    [
      2
    ],
    [
      "Gain the Keris dagger."
    ],
    [
      0
    ]
  ]
}