{
  "id": 1606,
  "tableId": 28,
  "columnTypes": [
    [
      "STRING"
    ],
    [
      "OBJ"
    ],
    null,
    null,
    [
      "OBJ"
    ],
    null,
    null,
    null,
    null,
    [
      "OBJ"
    ],
    null,
    null,
    null,
    null,
    null,
    null,
    null,
    null,
    null,
    null,
    null,
    null,
    null,
    null
  ],
  "columnValues": [
    [
      "Equip a blue wizard hat, a bronze two-handed sword and HAM boots."
    ],
    [
      579
    ],
    null,
    null,
    [
      1307
    ],
    null,
    null,
    null,
    null,
    [
      4310
    ],
    null,
    null,
    null,
    null,
    null,
    null,
    null,
    null,
    null,
    null,
    null,
    null,
    null,
    null
  ]
}