{
  "id": 1613,
  "tableId": 28,
  "columnTypes": [
    [
      "STRING"
    ],
    null,
    null,
    null,
    [
      "OBJ"
    ],
    [
      "OBJ"
    ],
    null,
    null,
    null,
    null,
    [
      "OBJ"
    ],
    null,
    null,
    null,
    null,
    null,
    null,
    null,
    null,
    null,
    null,
    null,
    null,
    null
  ],
  "columnValues": [
    [
      "Equip an iron chain body, a sapphire ring and a longbow."
    ],
    null,
    null,
    null,
    [
      839
    ],
    [
      1101
    ],
    null,
    null,
    null,
    null,
    [
      1637
    ],
    null,
    null,
    null,
    null,
    null,
    null,
    null,
    null,
    null,
    null,
    null,
    null,
    null
  ]
}