{
  "id": 1638,
  "tableId": 28,
  "columnTypes": [
    [
      "STRING"
    ],
    null,
    null,
    null,
    null,
    [
      "OBJ"
    ],
    [
      "OBJ"
    ],
    [
      "OBJ"
    ],
    null,
    null,
    null,
    null,
    null,
    null,
    null,
    null,
    null,
    null,
    null,
    null,
    null,
    null,
    null,
    null
  ],
  "columnValues": [
    [
      "Equip a green dragonhide body and chaps and a steel square shield."
    ],
    null,
    null,
    null,
    null,
    [
      1135
    ],
    [
      1177
    ],
    [
      1099
    ],
    null,
    null,
    null,
    null,
    null,
    null,
    null,
    null,
    null,
    null,
    null,
    null,
    null,
    null,
    null,
    null
  ]
}