{
  "id": 164,
  "tableId": 0,
  "columnTypes": [
    [
      "INTEGER"
    ],
    [
      "STRING"
    ],
    [
      "STRING"
    ],
    null,
    [
      "INTEGER"
    ],
    [
      "BOOLEAN"
    ],
    [
      "INTEGER"
    ],
    [
      "INTEGER"
    ],
    [
      "INTEGER"
    ],
    [
      "INTEGER",
      "INTEGER",
      "INTEGER"
    ],
    null,
    null,
    null,
    null,
    null,
    null,
    null,
    [
      "INTEGER"
    ],
    null,
    [
      "INTEGER"
    ],
    null,
    null,
    null,
    [
      "STAT",
      "INTEGER"
    ],
    null,
    [
      "DBROW"
    ],
    null,
    null,
    [
      "INTEGER"
    ],
    null,
    null,
    null,
    null,
    [
      "INTEGER"
    ],
    [
      "INTEGER"
    ],
    [
      "BOOLEAN"
    ],
    [
      "INTEGER"
    ],
    [
      "STRING"
    ],
    [
      "BOOLEAN"
    ]
  ],
  "columnValues": [
    [
      165
    ],
    [
      "Frozen Door, The"
    ],
    [
      "The Frozen Door"
    ],
    null,
    [
      1
    ],
    [
      1
    ],
    [
      3
    ],
    [
      1
    ],
    [
      44
    ],
    [
      16,
      12,
      2021
    ],
    null,
    null,
    null,
    null,
    null,
    null,
    null,
    [
      0
    ],
    null,
    [
      10
    ],
    null,
    null,
    null,
    [
      16,
      70,
      3,
      70,
      4,
      70,
      2,
      70
    ],
    null,
    [
      27
    ],
    null,
    null,
    [
      90
    ],
    null,
    null,
    null,
    null,
    [
      0
    ],
    [
      0
    ],
    [
      1
    ],
    [
      2
    ],
    [
      "Gain access to Nex in the God Wars Dungeon."
    ],
    [
      1
    ]
  ]
}