{
  "id": 1641,
  "tableId": 28,
  "columnTypes": [
    [
      "STRING"
    ],
    null,
    null,
    null,
    [
      "OBJ"
    ],
    [
      "OBJ"
    ],
    null,
    null,
    null,
    [
      "OBJ"
    ],
    null,
    null,
    null,
    null,
    null,
    null,
    null,
    null,
    null,
    null,
    null,
    null,
    null,
    null
  ],
  "columnValues": [
    [
      "Equip blue gnome boots, a hard leather body and an unblessed silver sickle."
    ],
    null,
    null,
    null,
    [
      2961
    ],
    [
      1131
    ],
    null,
    null,
    null,
    [
      630
    ],
    null,
    null,
    null,
    null,
    null,
    null,
    null,
    null,
    null,
    null,
    null,
    null,
    null,
    null
  ]
}