{
  "id": 1675,
  "tableId": 28,
  "columnTypes": [
    [
      "STRING"
    ],
    null,
    null,
    null,
    [
      "OBJ"
    ],
    null,
    null,
    null,
    null,
    null,
    null,
    null,
    [
      "INTEGER"
    ],
    null,
    null,
    null,
    null,
    null,
    null,
    null,
    [
      "INTEGER"
    ],
    null,
    null,
    null
  ],
  "columnValues": [
    [
      "Equip a rune crossbow, climbing boots and any mitre."
    ],
    null,
    null,
    null,
    [
      9185
    ],
    null,
    null,
    null,
    null,
    null,
    null,
    null,
    [
      9
    ],
    null,
    null,
    null,
    null,
    null,
    null,
    null,
    [
      32
    ],
    null,
    null,
    null
  ]
}