{
  "id": 1677,
  "tableId": 28,
  "columnTypes": [
    [
      "STRING"
    ],
    null,
    null,
    null,
    [
      "OBJ"
    ],
    null,
    null,
    null,
    null,
    null,
    null,
    null,
    [
      "INTEGER"
    ],
    null,
    null,
    null,
    null,
    null,
    null,
    [
      "INTEGER"
    ],
    null,
    null,
    null,
    null
  ],
  "columnValues": [
    [
      "Equip a seercull, a combat bracelet and helm of Neitiznot."
    ],
    null,
    null,
    null,
    [
      6724
    ],
    null,
    null,
    null,
    null,
    null,
    null,
    null,
    [
      48
    ],
    null,
    null,
    null,
    null,
    null,
    null,
    [
      8
    ],
    null,
    null,
    null,
    null
  ]
}