{
  "id": 17,
  "tableId": 0,
  "columnTypes": [
    [
      "INTEGER"
    ],
    [
      "STRING"
    ],
    [
      "STRING"
    ],
    null,
    [
      "INTEGER"
    ],
    [
      "BOOLEAN"
    ],
    [
      "INTEGER"
    ],
    [
      "INTEGER"
    ],
    [
      "INTEGER"
    ],
    [
      "INTEGER",
      "INTEGER",
      "INTEGER"
    ],
    null,
    null,
    null,
    [
      "COORDGRID"
    ],
    [
      "NPC"
    ],
    null,
    [
      "MAPELEMENT"
    ],
    [
      "INTEGER"
    ],
    null,
    [
      "INTEGER"
    ],
    null,
    null,
    null,
    null,
    null,
    null,
    null,
    null,
    null,
    null,
    null,
    [
      "DBROW"
    ],
    null,
    [
      "INTEGER"
    ],
    [
      "INTEGER"
    ],
    [
      "BOOLEAN"
    ],
    [
      "INTEGER"
    ],
    [
      "STRING"
    ],
    [
      "BOOLEAN"
    ]
  ],
  "columnValues": [
    [
      1
    ],
    [
      "Cook's Assistant"
    ],
    [
      "Cook's Assistant"
    ],
    null,
    [
      0
    ],
    [
      0
    ],
    [
      0
    ],
    [
      0
    ],
    [
      22
    ],
    [
      4,
      1,
      2001
    ],
    null,
    null,
    null,
    [
      52546702
    ],
    [
      4626
    ],
    null,
    [
      715
    ],
    [
      1
    ],
    null,
    [
      2
    ],
    null,
    null,
    null,
    null,
    null,
    null,
    null,
    null,
    null,
    null,
    null,
    [
      3436
    ],
    null,
    [
      2
    ],
    [
      16
    ],
    [
      1
    ],
    [
      0
    ],
    [
      "Help the Lumbridge Castle Cook out of his baking bind."
    ],
    [
      0
    ]
  ]
}