{
  "id": 1712,
  "tableId": 28,
  "columnTypes": [
    [
      "STRING"
    ],
    null,
    null,
    null,
    null,
    null,
    null,
    null,
    null,
    [
      "OBJ"
    ],
    null,
    null,
    [
      "INTEGER"
    ],
    null,
    null,
    [
      "INTEGER"
    ],
    null,
    null,
    null,
    null,
    null,
    null,
    null,
    null
  ],
  "columnValues": [
    [
      "Equip a dragon pickaxe, helm of neitiznot and a pair of rune boots."
    ],
    null,
    null,
    null,
    null,
    null,
    null,
    null,
    null,
    [
      4131
    ],
    null,
    null,
    [
      48
    ],
    null,
    null,
    [
      21
    ],
    null,
    null,
    null,
    null,
    null,
    null,
    null,
    null
  ]
}