{
  "id": 1719,
  "tableId": 28,
  "columnTypes": [
    [
      "STRING"
    ],
    [
      "OBJ"
    ],
    [
      "OBJ"
    ],
    [
      "OBJ"
    ],
    [
      "OBJ"
    ],
    [
      "OBJ"
    ],
    [
      "OBJ"
    ],
    [
      "OBJ"
    ],
    [
      "OBJ"
    ],
    [
      "OBJ"
    ],
    null,
    [
      "OBJ"
    ],
    null,
    null,
    null,
    null,
    null,
    null,
    null,
    null,
    null,
    null,
    null,
    null
  ],
  "columnValues": [
    [
      "Equip three Guthix related items."
    ],
    [
      10382,
      10454,
      2673,
      26473,
      26475,
      26477,
      12639,
      24171,
      11663,
      24183,
      11664,
      24184,
      11665,
      24185,
      13336,
      21786,
      22169,
      8474,
      8692
    ],
    [
      2413,
      21793,
      24249,
      10448,
      13335,
      21784,
      24234
    ],
    [
      10472,
      11666,
      11667,
      11668,
      11669,
      11670,
      11671,
      11672,
      11673
    ],
    [
      2416,
      23330,
      10442,
      8841,
      24181,
      24144,
      6760,
      8660
    ],
    [
      10462,
      10378,
      2669,
      26463,
      26469,
      8839,
      24177,
      13072,
      24178
    ],
    [
      23188,
      2675,
      26488,
      3843,
      3844,
      22137,
      8724,
      8756
    ],
    [
      10466,
      10380,
      2671,
      3480,
      26465,
      26471,
      8840,
      24179,
      13073,
      24180
    ],
    [
      10376,
      26467,
      8842,
      24182
    ],
    [
      19927
    ],
    null,
    [
      20226
    ],
    null,
    null,
    null,
    null,
    null,
    null,
    null,
    null,
    null,
    null,
    null,
    null
  ]
}