{
  "id": 1813,
  "tableId": 14,
  "columnTypes": [
    [
      "INTEGER"
    ],
    [
      "INTEGER"
    ],
    [
      "STRING"
    ],
    null,
    [
      "DBROW"
    ],
    [
      "INTEGER"
    ],
    null
  ],
  "columnValues": [
    [
      551
    ],
    [
      0
    ],
    [
      "I need to give Charlie a raw herring."
    ],
    null,
    [
      848
    ],
    [
      1
    ],
    null
  ]
}