{
  "id": 1822,
  "tableId": 14,
  "columnTypes": [
    [
      "INTEGER"
    ],
    [
      "INTEGER"
    ],
    [
      "STRING"
    ],
    [
      "DBROW"
    ],
    [
      "DBROW"
    ],
    [
      "INTEGER"
    ],
    null
  ],
  "columnValues": [
    [
      560
    ],
    [
      4
    ],
    [
      "Catch a mottled eel with aerial fishing in Lake Molch."
    ],
    [
      1744,
      1789
    ],
    [
      971
    ],
    [
      10
    ],
    null
  ]
}