{
  "id": 1832,
  "tableId": 14,
  "columnTypes": [
    [
      "INTEGER"
    ],
    [
      "INTEGER"
    ],
    [
      "STRING"
    ],
    [
      "DBROW"
    ],
    [
      "DBROW"
    ],
    [
      "INTEGER"
    ],
    null
  ],
  "columnValues": [
    [
      570
    ],
    [
      4
    ],
    [
      "Mine a mithril ore."
    ],
    [
      1754
    ],
    [
      971
    ],
    [
      5,
      6,
      1,
      4,
      10,
      11,
      7,
      3
    ],
    null
  ]
}