{
  "id": 1853,
  "tableId": 14,
  "columnTypes": [
    [
      "INTEGER"
    ],
    [
      "INTEGER"
    ],
    [
      "STRING"
    ],
    [
      "DBROW"
    ],
    [
      "DBROW"
    ],
    [
      "INTEGER"
    ],
    null
  ],
  "columnValues": [
    [
      591
    ],
    [
      5
    ],
    [
      "Mix an anti-venom potion."
    ],
    [
      1775
    ],
    [
      971
    ],
    [
      7
    ],
    null
  ]
}