{
  "id": 1854,
  "tableId": 14,
  "columnTypes": [
    [
      "INTEGER"
    ],
    [
      "INTEGER"
    ],
    [
      "STRING"
    ],
    [
      "DBROW"
    ],
    [
      "DBROW"
    ],
    [
      "INTEGER"
    ],
    null
  ],
  "columnValues": [
    [
      592
    ],
    [
      5
    ],
    [
      "Mine a piece of runite ore whilst sporting the finest mining gear."
    ],
    [
      1776
    ],
    [
      971
    ],
    [
      3
    ],
    null
  ]
}