{
  "id": 1864,
  "tableId": 14,
  "columnTypes": [
    [
      "INTEGER"
    ],
    [
      "INTEGER"
    ],
    [
      "STRING"
    ],
    [
      "DBROW"
    ],
    [
      "DBROW"
    ],
    [
      "INTEGER"
    ],
    null
  ],
  "columnValues": [
    [
      602
    ],
    [
      5
    ],
    [
      "Chop a redwood log whilst sporting the finest lumberjack gear."
    ],
    [
      1785
    ],
    [
      971
    ],
    [
      9,
      10
    ],
    null
  ]
}