{
  "id": 1869,
  "tableId": 22,
  "columnTypes": [
    [
      "STRING"
    ],
    [
      "INTEGER"
    ]
  ],
  "columnValues": [
    [
      "Any Dragon Scimitar"
    ],
    [
      39
    ]
  ]
}