{
  "id": 189,
  "tableId": 18,
  "columnTypes": [
    [
      "COORDGRID"
    ],
    [
      "STRING"
    ],
    null
  ],
  "columnValues": [
    [
      44272997
    ],
    [
      "To the east of the Ranging guild."
    ],
    null
  ]
}