{
  "id": 1912,
  "tableId": 19,
  "columnTypes": [
    [
      "LOC"
    ],
    [
      "COORDGRID"
    ],
    [
      "NPC"
    ],
    [
      "OBJ"
    ],
    [
      "COORDGRID"
    ],
    null,
    null,
    [
      "STRING"
    ]
  ],
  "columnValues": [
    [
      348
    ],
    [
      311217404
    ],
    [
      5418,
      11937,
      11938,
      11939
    ],
    [
      2836
    ],
    [
      43601130
    ],
    null,
    null,
    [
      "Kill any Guard located around East Ardougne for a medium key. Then search the drawers in the upstairs hallway of Jerico's house, which is the house with pigeon cages located south of the northern East Ardougne bank."
    ]
  ]
}