{
  "id": 1914,
  "tableId": 19,
  "columnTypes": [
    [
      "LOC"
    ],
    [
      "COORDGRID"
    ],
    [
      "NPC"
    ],
    [
      "OBJ"
    ],
    [
      "COORDGRID"
    ],
    null,
    null,
    [
      "STRING"
    ]
  ],
  "columnValues": [
    [
      375
    ],
    [
      310922276
    ],
    [
      3652,
      3014,
      3284,
      3282,
      3281,
      3280,
      3279,
      3266,
      3265,
      3264,
      3263,
      6818,
      3261,
      3110,
      3109,
      3108,
      3107,
      3106,
      6989,
      6988,
      6987,
      11058,
      11057
    ],
    [
      2840
    ],
    [
      42503201
    ],
    null,
    null,
    [
      "Search the chest upstairs in the house north of Yanille Wizards' Guild. Kill a man for the key."
    ]
  ]
}