{
  "id": 192,
  "tableId": 18,
  "columnTypes": [
    [
      "COORDGRID"
    ],
    [
      "STRING"
    ],
    null
  ],
  "columnValues": [
    [
      49859910
    ],
    [
      "At the standing stones north of Falador."
    ],
    null
  ]
}