{
  "id": 1942,
  "tableId": 7,
  "columnTypes": [
    [
      "INTEGER"
    ],
    [
      "INTEGER"
    ],
    [
      "STRING"
    ],
    [
      "DBROW"
    ],
    null,
    null,
    [
      "INTEGER"
    ],
    null
  ],
  "columnValues": [
    [
      407
    ],
    [
      2
    ],
    [
      "06.41N 27.15E"
    ],
    [
      481
    ],
    null,
    null,
    [
      1
    ],
    null
  ]
}