{
  "id": 1963,
  "tableId": 7,
  "columnTypes": [
    [
      "INTEGER"
    ],
    [
      "INTEGER"
    ],
    [
      "STRING"
    ],
    [
      "DBROW"
    ],
    null,
    null,
    [
      "INTEGER"
    ],
    null
  ],
  "columnValues": [
    [
      428
    ],
    [
      2
    ],
    [
      "17.39N 37.16W"
    ],
    [
      502
    ],
    null,
    null,
    [
      9
    ],
    null
  ]
}