{
  "id": 1965,
  "tableId": 7,
  "columnTypes": [
    [
      "INTEGER"
    ],
    [
      "INTEGER"
    ],
    [
      "STRING"
    ],
    [
      "DBROW"
    ],
    null,
    [
      "DBROW"
    ],
    [
      "INTEGER"
    ],
    null
  ],
  "columnValues": [
    [
      430
    ],
    [
      3
    ],
    [
      "00.00N 07.13W"
    ],
    [
      504
    ],
    null,
    [
      1807
    ],
    [
      7
    ],
    null
  ]
}