{
  "id": 20,
  "tableId": 0,
  "columnTypes": [
    [
      "INTEGER"
    ],
    [
      "STRING"
    ],
    [
      "STRING"
    ],
    null,
    [
      "INTEGER"
    ],
    [
      "BOOLEAN"
    ],
    [
      "INTEGER"
    ],
    [
      "INTEGER"
    ],
    [
      "INTEGER"
    ],
    [
      "INTEGER",
      "INTEGER",
      "INTEGER"
    ],
    [
      "INTEGER"
    ],
    [
      "INTEGER"
    ],
    null,
    [
      "COORDGRID"
    ],
    [
      "NPC"
    ],
    null,
    null,
    [
      "INTEGER"
    ],
    null,
    [
      "INTEGER"
    ],
    null,
    null,
    null,
    [
      "STAT",
      "INTEGER"
    ],
    null,
    [
      "DBROW"
    ],
    null,
    null,
    [
      "INTEGER"
    ],
    null,
    null,
    null,
    null,
    [
      "INTEGER"
    ],
    [
      "INTEGER"
    ],
    [
      "BOOLEAN"
    ],
    [
      "INTEGER"
    ],
    [
      "STRING"
    ],
    [
      "BOOLEAN"
    ]
  ],
  "columnValues": [
    [
      89
    ],
    [
      "Curse of the Empty Lord"
    ],
    [
      "Curse of the Empty Lord"
    ],
    null,
    [
      1
    ],
    [
      1
    ],
    [
      2
    ],
    [
      2
    ],
    [
      2
    ],
    [
      26,
      7,
      2005
    ],
    [
      9
    ],
    [
      8
    ],
    null,
    [
      41864564
    ],
    [
      6104
    ],
    null,
    null,
    [
      0
    ],
    null,
    [
      6
    ],
    null,
    null,
    null,
    [
      5,
      31
    ],
    null,
    [
      27,
      120
    ],
    null,
    null,
    [
      50
    ],
    null,
    null,
    null,
    null,
    [
      1
    ],
    [
      2
    ],
    [
      1
    ],
    [
      2
    ],
    [
      "Gain a set of Ghostly Robes."
    ],
    [
      1
    ]
  ]
}