{
  "id": 2015,
  "tableId": 7,
  "columnTypes": [
    [
      "INTEGER"
    ],
    [
      "INTEGER"
    ],
    [
      "STRING"
    ],
    [
      "DBROW"
    ],
    null,
    [
      "DBROW"
    ],
    [
      "INTEGER"
    ],
    null
  ],
  "columnValues": [
    [
      480
    ],
    [
      3
    ],
    [
      "23.30N 16.33E"
    ],
    [
      415
    ],
    null,
    [
      1808
    ],
    [
      11
    ],
    null
  ]
}