{
  "id": 2016,
  "tableId": 7,
  "columnTypes": [
    [
      "INTEGER"
    ],
    [
      "INTEGER"
    ],
    [
      "STRING"
    ],
    [
      "DBROW"
    ],
    null,
    [
      "DBROW"
    ],
    [
      "INTEGER"
    ],
    null
  ],
  "columnValues": [
    [
      481
    ],
    [
      3
    ],
    [
      "14.03N 32.11W"
    ],
    [
      555
    ],
    null,
    [
      1807
    ],
    [
      10
    ],
    null
  ]
}