{
  "id": 2032,
  "tableId": 7,
  "columnTypes": [
    [
      "INTEGER"
    ],
    [
      "INTEGER"
    ],
    [
      "STRING"
    ],
    [
      "DBROW"
    ],
    null,
    [
      "DBROW"
    ],
    [
      "INTEGER"
    ],
    null
  ],
  "columnValues": [
    [
      497
    ],
    [
      4
    ],
    [
      "12.35N 36.20E"
    ],
    [
      571
    ],
    null,
    [
      1809,
      1810
    ],
    [
      5
    ],
    null
  ]
}