{
  "id": 204,
  "tableId": 18,
  "columnTypes": [
    [
      "COORDGRID"
    ],
    [
      "STRING"
    ],
    null
  ],
  "columnValues": [
    [
      40766700
    ],
    [
      "In the western section of West Ardougne."
    ],
    null
  ]
}