{
  "id": 2055,
  "tableId": 7,
  "columnTypes": [
    [
      "INTEGER"
    ],
    [
      "INTEGER"
    ],
    [
      "STRING"
    ],
    [
      "DBROW"
    ],
    null,
    [
      "DBROW"
    ],
    [
      "INTEGER"
    ],
    null
  ],
  "columnValues": [
    [
      520
    ],
    [
      4
    ],
    [
      "14.13S 27.26E"
    ],
    [
      594
    ],
    null,
    [
      1809,
      1810
    ],
    [
      6
    ],
    null
  ]
}