{
  "id": 2063,
  "tableId": 7,
  "columnTypes": [
    [
      "INTEGER"
    ],
    [
      "INTEGER"
    ],
    [
      "STRING"
    ],
    [
      "DBROW"
    ],
    null,
    [
      "DBROW"
    ],
    [
      "INTEGER"
    ],
    null
  ],
  "columnValues": [
    [
      528
    ],
    [
      5
    ],
    [
      "05.13N 04.16W"
    ],
    [
      602
    ],
    null,
    [
      1802
    ],
    [
      7
    ],
    null
  ]
}