{
  "id": 2065,
  "tableId": 7,
  "columnTypes": [
    [
      "INTEGER"
    ],
    [
      "INTEGER"
    ],
    [
      "STRING"
    ],
    [
      "DBROW"
    ],
    null,
    [
      "DBROW"
    ],
    [
      "INTEGER"
    ],
    null
  ],
  "columnValues": [
    [
      530
    ],
    [
      5
    ],
    [
      "08.11N 12.30E"
    ],
    [
      604
    ],
    null,
    [
      1802
    ],
    [
      4,
      3
    ],
    null
  ]
}