{
  "id": 2086,
  "tableId": 9,
  "columnTypes": [
    [
      "INTEGER"
    ],
    [
      "INTEGER"
    ],
    [
      "STRING"
    ],
    [
      "DBROW"
    ],
    [
      "INTEGER"
    ],
    null,
    [
      "DBROW"
    ],
    [
      "LOC"
    ],
    [
      "COORDGRID"
    ],
    null,
    null,
    [
      "INTEGER"
    ],
    null
  ],
  "columnValues": [
    [
      275
    ],
    [
      0
    ],
    [
      "Cheer at Iffie Nitter. Equip a chef hat and a red cape."
    ],
    [
      349
    ],
    [
      7
    ],
    null,
    [
      1600
    ],
    [
      34737
    ],
    [
      52579672
    ],
    null,
    null,
    [
      1
    ],
    null
  ]
}