{
  "id": 2095,
  "tableId": 9,
  "columnTypes": [
    [
      "INTEGER"
    ],
    [
      "INTEGER"
    ],
    [
      "STRING"
    ],
    [
      "DBROW"
    ],
    [
      "INTEGER"
    ],
    null,
    [
      "DBROW"
    ],
    null,
    null,
    null,
    null,
    [
      "INTEGER"
    ],
    null
  ],
  "columnValues": [
    [
      284
    ],
    [
      1
    ],
    [
      "Cheer at the games room. Have nothing equipped at all when you do."
    ],
    [
      358
    ],
    [
      7
    ],
    null,
    [
      1607
    ],
    null,
    null,
    null,
    null,
    [
      3
    ],
    null
  ]
}