{
  "id": 2100,
  "tableId": 9,
  "columnTypes": [
    [
      "INTEGER"
    ],
    [
      "INTEGER"
    ],
    [
      "STRING"
    ],
    [
      "DBROW"
    ],
    [
      "INTEGER"
    ],
    null,
    [
      "DBROW"
    ],
    [
      "LOC"
    ],
    [
      "COORDGRID"
    ],
    null,
    null,
    [
      "INTEGER"
    ],
    null
  ],
  "columnValues": [
    [
      289
    ],
    [
      1
    ],
    [
      "Dance a jig by the entrance to the Fishing Guild. Equip an emerald ring, a sapphire amulet, and a bronze chain body."
    ],
    [
      363
    ],
    [
      13
    ],
    null,
    [
      1612
    ],
    [
      28977
    ],
    [
      42732865
    ],
    null,
    null,
    [
      4
    ],
    null
  ]
}