{
  "id": 2111,
  "tableId": 9,
  "columnTypes": [
    [
      "INTEGER"
    ],
    [
      "INTEGER"
    ],
    [
      "STRING"
    ],
    [
      "DBROW"
    ],
    [
      "INTEGER"
    ],
    null,
    [
      "DBROW"
    ],
    [
      "LOC"
    ],
    [
      "COORDGRID"
    ],
    null,
    null,
    [
      "INTEGER"
    ],
    null
  ],
  "columnValues": [
    [
      300
    ],
    [
      1
    ],
    [
      "Shrug in the mine near Rimmington. Equip a gold necklace, a gold ring and a bronze spear."
    ],
    [
      374
    ],
    [
      6
    ],
    null,
    [
      1623
    ],
    [
      28969
    ],
    [
      48762023
    ],
    null,
    null,
    [
      3
    ],
    null
  ]
}