{
  "id": 2118,
  "tableId": 9,
  "columnTypes": [
    [
      "INTEGER"
    ],
    [
      "INTEGER"
    ],
    [
      "STRING"
    ],
    [
      "DBROW"
    ],
    [
      "INTEGER"
    ],
    null,
    [
      "DBROW"
    ],
    [
      "LOC"
    ],
    [
      "COORDGRID"
    ],
    null,
    null,
    [
      "INTEGER"
    ],
    null
  ],
  "columnValues": [
    [
      307
    ],
    [
      1
    ],
    [
      "Wave on Mudskipper Point. Equip a black cape, leather chaps and a steel mace."
    ],
    [
      381
    ],
    [
      5
    ],
    null,
    [
      1630
    ],
    [
      28963
    ],
    [
      48958503
    ],
    null,
    null,
    [
      3,
      1
    ],
    null
  ]
}