{
  "id": 2142,
  "tableId": 9,
  "columnTypes": [
    [
      "INTEGER"
    ],
    [
      "INTEGER"
    ],
    [
      "STRING"
    ],
    [
      "DBROW"
    ],
    [
      "INTEGER"
    ],
    null,
    [
      "DBROW"
    ],
    [
      "LOC"
    ],
    [
      "COORDGRID"
    ],
    null,
    null,
    [
      "INTEGER"
    ],
    null
  ],
  "columnValues": [
    [
      331
    ],
    [
      2
    ],
    [
      "Yawn in the Castle Wars lobby. Shrug before you talk to me. Equip a ruby amulet, a mithril scimitar and a Wilderness cape."
    ],
    [
      460
    ],
    [
      11,
      6
    ],
    null,
    [
      1654
    ],
    [
      28991
    ],
    [
      40045589
    ],
    null,
    null,
    [
      4
    ],
    null
  ]
}