{
  "id": 2152,
  "tableId": 9,
  "columnTypes": [
    [
      "INTEGER"
    ],
    [
      "INTEGER"
    ],
    [
      "STRING"
    ],
    [
      "DBROW"
    ],
    [
      "INTEGER"
    ],
    null,
    [
      "DBROW"
    ],
    [
      "LOC"
    ],
    [
      "COORDGRID"
    ],
    [
      "DBROW"
    ],
    null,
    [
      "INTEGER"
    ],
    null
  ],
  "columnValues": [
    [
      341
    ],
    [
      3
    ],
    [
      "Laugh in Jokul's tent in the Mountain Camp. Beware of double agents! Equip a rune full helmet, blue dragonhide chaps and a fire battlestaff."
    ],
    [
      409
    ],
    [
      9
    ],
    null,
    [
      1664
    ],
    [
      29015
    ],
    [
      46042717
    ],
    [
      1805
    ],
    null,
    [
      8,
      1,
      4
    ],
    null
  ]
}