{
  "id": 2155,
  "tableId": 9,
  "columnTypes": [
    [
      "INTEGER"
    ],
    [
      "INTEGER"
    ],
    [
      "STRING"
    ],
    [
      "DBROW"
    ],
    [
      "INTEGER"
    ],
    null,
    [
      "DBROW"
    ],
    [
      "LOC"
    ],
    [
      "COORDGRID"
    ],
    [
      "DBROW"
    ],
    null,
    [
      "INTEGER"
    ],
    null
  ],
  "columnValues": [
    [
      344
    ],
    [
      3
    ],
    [
      "Panic on the Wilderness volcano bridge. Beware of double agents! Equip any headband and crozier."
    ],
    [
      412
    ],
    [
      18
    ],
    null,
    [
      1667
    ],
    [
      29020
    ],
    [
      55185242
    ],
    [
      1804
    ],
    null,
    [
      11
    ],
    null
  ]
}