{
  "id": 2158,
  "tableId": 9,
  "columnTypes": [
    [
      "INTEGER"
    ],
    [
      "INTEGER"
    ],
    [
      "STRING"
    ],
    [
      "DBROW"
    ],
    [
      "INTEGER"
    ],
    null,
    [
      "DBROW"
    ],
    [
      "LOC"
    ],
    [
      "COORDGRID"
    ],
    [
      "DBROW"
    ],
    null,
    [
      "INTEGER"
    ],
    null
  ],
  "columnValues": [
    [
      347
    ],
    [
      3
    ],
    [
      "Shrug in the woods east of the Level 19 Wilderness Obelisk. Beware of double agents! Equip rune platelegs, an iron platebody and blue dragonhide vambraces."
    ],
    [
      3529
    ],
    [
      6
    ],
    null,
    [
      1670
    ],
    [
      29009
    ],
    [
      53136974
    ],
    [
      1804
    ],
    null,
    [
      11,
      1,
      3
    ],
    null
  ]
}