{
  "id": 216,
  "tableId": 18,
  "columnTypes": [
    [
      "COORDGRID"
    ],
    [
      "STRING"
    ],
    [
      "STRING"
    ]
  ],
  "columnValues": [
    [
      49696110
    ],
    [
      "West of Barbarian Village."
    ],
    [
      "Barbarian Village"
    ]
  ]
}