{
  "id": 2170,
  "tableId": 9,
  "columnTypes": [
    [
      "INTEGER"
    ],
    [
      "INTEGER"
    ],
    [
      "STRING"
    ],
    [
      "DBROW"
    ],
    [
      "INTEGER"
    ],
    null,
    [
      "DBROW"
    ],
    [
      "LOC"
    ],
    [
      "COORDGRID"
    ],
    null,
    null,
    [
      "INTEGER"
    ],
    null
  ],
  "columnValues": [
    [
      359
    ],
    [
      4
    ],
    [
      "Laugh in front of the gem store in Ardougne market. Equip a Castlewars bracelet, a dragonstone amulet and a ring of forging."
    ],
    [
      394
    ],
    [
      9
    ],
    null,
    [
      1682
    ],
    [
      29038
    ],
    [
      43781350
    ],
    null,
    null,
    [
      4
    ],
    null
  ]
}