{
  "id": 2174,
  "tableId": 9,
  "columnTypes": [
    [
      "INTEGER"
    ],
    [
      "INTEGER"
    ],
    [
      "STRING"
    ],
    [
      "DBROW"
    ],
    [
      "INTEGER"
    ],
    null,
    [
      "DBROW"
    ],
    [
      "LOC"
    ],
    [
      "COORDGRID"
    ],
    null,
    null,
    [
      "INTEGER"
    ],
    null
  ],
  "columnValues": [
    [
      363
    ],
    [
      4
    ],
    [
      "Shrug in the Shayzien war tent. Equip a blue mystic robe bottom, a rune kiteshield and any bob shirt."
    ],
    [
      398
    ],
    [
      6
    ],
    null,
    [
      1686
    ],
    [
      29036
    ],
    [
      24383029
    ],
    null,
    null,
    [
      10
    ],
    null
  ]
}