{
  "id": 2194,
  "tableId": 9,
  "columnTypes": [
    [
      "INTEGER"
    ],
    [
      "INTEGER"
    ],
    [
      "STRING"
    ],
    [
      "DBROW"
    ],
    [
      "INTEGER"
    ],
    null,
    [
      "DBROW"
    ],
    [
      "LOC"
    ],
    [
      "COORDGRID"
    ],
    [
      "DBROW"
    ],
    null,
    [
      "INTEGER"
    ],
    null
  ],
  "columnValues": [
    [
      383
    ],
    [
      5
    ],
    [
      "Spin in front of the Soul Altar. Beware of double agents! Equip a dragon pickaxe, helm of neitiznot and a pair of rune boots."
    ],
    [
      434
    ],
    [
      14
    ],
    null,
    [
      1712
    ],
    [
      29046
    ],
    [
      29658895
    ],
    [
      1806
    ],
    null,
    [
      10,
      8,
      3
    ],
    null
  ]
}