{
  "id": 2201,
  "tableId": 21,
  "columnTypes": [
    [
      "STRING"
    ],
    [
      "OBJ"
    ],
    null,
    null
  ],
  "columnValues": [
    [
      "A sled"
    ],
    [
      25282
    ],
    null,
    null
  ]
}