{
  "id": 2203,
  "tableId": 21,
  "columnTypes": [
    [
      "STRING"
    ],
    [
      "OBJ"
    ],
    null,
    null
  ],
  "columnValues": [
    [
      "any Crystal bow"
    ],
    [
      23983,
      24123,
      23985,
      25865,
      25867,
      25884,
      25886,
      25888,
      25890,
      25892,
      25894,
      25896
    ],
    null,
    null
  ]
}