{
  "id": 2226,
  "tableId": 5,
  "columnTypes": [
    [
      "INTEGER"
    ],
    [
      "INTEGER"
    ],
    [
      "DBROW"
    ],
    null,
    [
      "INTEGER"
    ],
    null
  ],
  "columnValues": [
    [
      104
    ],
    [
      0
    ],
    [
      192
    ],
    null,
    [
      3
    ],
    null
  ]
}