{
  "id": 2239,
  "tableId": 5,
  "columnTypes": [
    [
      "INTEGER"
    ],
    [
      "INTEGER"
    ],
    [
      "DBROW"
    ],
    null,
    [
      "INTEGER"
    ],
    null
  ],
  "columnValues": [
    [
      117
    ],
    [
      2
    ],
    [
      1047
    ],
    null,
    [
      4
    ],
    null
  ]
}