{
  "id": 2244,
  "tableId": 5,
  "columnTypes": [
    [
      "INTEGER"
    ],
    [
      "INTEGER"
    ],
    [
      "DBROW"
    ],
    null,
    [
      "INTEGER"
    ],
    null
  ],
  "columnValues": [
    [
      122
    ],
    [
      2
    ],
    [
      201
    ],
    null,
    [
      8
    ],
    null
  ]
}