{
  "id": 2245,
  "tableId": 5,
  "columnTypes": [
    [
      "INTEGER"
    ],
    [
      "INTEGER"
    ],
    [
      "DBROW"
    ],
    null,
    [
      "INTEGER"
    ],
    null
  ],
  "columnValues": [
    [
      123
    ],
    [
      2
    ],
    [
      202
    ],
    null,
    [
      4
    ],
    null
  ]
}