{
  "id": 2250,
  "tableId": 5,
  "columnTypes": [
    [
      "INTEGER"
    ],
    [
      "INTEGER"
    ],
    [
      "DBROW"
    ],
    null,
    [
      "INTEGER"
    ],
    null
  ],
  "columnValues": [
    [
      128
    ],
    [
      3
    ],
    [
      1049
    ],
    null,
    [
      4
    ],
    null
  ]
}