{
  "id": 2259,
  "tableId": 5,
  "columnTypes": [
    [
      "INTEGER"
    ],
    [
      "INTEGER"
    ],
    [
      "DBROW"
    ],
    null,
    [
      "INTEGER"
    ],
    null
  ],
  "columnValues": [
    [
      137
    ],
    [
      4
    ],
    [
      1045
    ],
    null,
    [
      4
    ],
    null
  ]
}