{
  "id": 226,
  "tableId": 18,
  "columnTypes": [
    [
      "COORDGRID"
    ],
    [
      "STRING"
    ],
    [
      "STRING"
    ]
  ],
  "columnValues": [
    [
      52808452
    ],
    [
      "North of Menaphos gate."
    ],
    [
      "Menaphos (N)"
    ]
  ]
}