{
  "id": 2264,
  "tableId": 6,
  "columnTypes": [
    [
      "INTEGER"
    ],
    [
      "INTEGER"
    ],
    [
      "STRING"
    ],
    [
      "DBROW"
    ],
    [
      "DBROW"
    ],
    null,
    [
      "INTEGER"
    ],
    null
  ],
  "columnValues": [
    [
      928
    ],
    [
      2
    ],
    [
      "GUHCHO"
    ],
    [
      1032
    ],
    [
      1223
    ],
    null,
    [
      5
    ],
    null
  ]
}