{
  "id": 2272,
  "tableId": 6,
  "columnTypes": [
    [
      "INTEGER"
    ],
    [
      "INTEGER"
    ],
    [
      "STRING"
    ],
    [
      "DBROW"
    ],
    [
      "DBROW"
    ],
    null,
    [
      "INTEGER"
    ],
    null
  ],
  "columnValues": [
    [
      936
    ],
    [
      3
    ],
    [
      "UZZU MUJHRKYYKJ"
    ],
    [
      855
    ],
    [
      1231
    ],
    null,
    [
      4
    ],
    null
  ]
}