{
  "id": 228,
  "tableId": 18,
  "columnTypes": [
    [
      "COORDGRID"
    ],
    [
      "STRING"
    ],
    [
      "STRING"
    ]
  ],
  "columnValues": [
    [
      56232993
    ],
    [
      "West of Uzer."
    ],
    [
      "Uzer (W)"
    ]
  ]
}