{
  "id": 2282,
  "tableId": 8,
  "columnTypes": [
    [
      "INTEGER"
    ],
    [
      "INTEGER"
    ],
    [
      "STRING"
    ],
    [
      "DBROW"
    ],
    null,
    null,
    null,
    null,
    null,
    null,
    [
      "INTEGER"
    ],
    null
  ],
  "columnValues": [
    [
      742
    ],
    [
      2
    ],
    [
      "In a town where the guards are armed with maces, search the upstairs rooms of the Public House."
    ],
    [
      1916
    ],
    null,
    null,
    null,
    null,
    null,
    null,
    [
      4
    ],
    null
  ]
}