{
  "id": 229,
  "tableId": 18,
  "columnTypes": [
    [
      "COORDGRID"
    ],
    [
      "STRING"
    ],
    [
      "STRING"
    ]
  ],
  "columnValues": [
    [
      53873568
    ],
    [
      "West of Pollnivneach."
    ],
    [
      "Pollnivneach (W)"
    ]
  ]
}