{
  "id": 2293,
  "tableId": 18,
  "columnTypes": [
    [
      "COORDGRID"
    ],
    [
      "STRING"
    ],
    null
  ],
  "columnValues": [
    [
      36457533
    ],
    [
      "South of the yew trees east of Tyras Camp."
    ],
    null
  ]
}