{
  "id": 2310,
  "tableId": 0,
  "columnTypes": [
    [
      "INTEGER"
    ],
    [
      "STRING"
    ],
    [
      "STRING"
    ],
    null,
    [
      "INTEGER"
    ],
    [
      "BOOLEAN"
    ],
    [
      "INTEGER"
    ],
    [
      "INTEGER"
    ],
    [
      "INTEGER"
    ],
    [
      "INTEGER",
      "INTEGER",
      "INTEGER"
    ],
    [
      "INTEGER"
    ],
    [
      "INTEGER"
    ],
    null,
    [
      "COORDGRID"
    ],
    null,
    null,
    [
      "MAPELEMENT"
    ],
    [
      "INTEGER"
    ],
    null,
    [
      "INTEGER"
    ],
    null,
    [
      "DBROW"
    ],
    null,
    [
      "STAT",
      "INTEGER"
    ],
    null,
    [
      "DBROW"
    ],
    null,
    null,
    [
      "INTEGER"
    ],
    null,
    null,
    null,
    null,
    [
      "INTEGER"
    ],
    [
      "INTEGER"
    ],
    [
      "BOOLEAN"
    ],
    [
      "INTEGER"
    ],
    [
      "STRING"
    ],
    [
      "BOOLEAN"
    ]
  ],
  "columnValues": [
    [
      174
    ],
    [
      "Recipe for Disaster Pirate"
    ],
    [
      "Recipe for Disaster - Pirate Pete"
    ],
    null,
    [
      0
    ],
    [
      1
    ],
    [
      5
    ],
    [
      2
    ],
    [
      22
    ],
    [
      15,
      3,
      2006
    ],
    [
      21
    ],
    [
      2
    ],
    null,
    [
      52546702
    ],
    null,
    null,
    [
      805
    ],
    [
      1
    ],
    null,
    [
      110
    ],
    null,
    [
      117
    ],
    null,
    [
      7,
      31
    ],
    null,
    [
      2307
    ],
    null,
    null,
    [
      15
    ],
    null,
    null,
    null,
    null,
    [
      1
    ],
    [
      0
    ],
    [
      1
    ],
    [
      1
    ],
    [
      "Gain further access to the Culinaromancer's Chest."
    ],
    [
      1
    ]
  ]
}