{
  "id": 2318,
  "tableId": 34,
  "columnTypes": [
    [
      "INTEGER"
    ],
    [
      "INTEGER"
    ],
    [
      "NAMEDOBJ"
    ],
    [
      "STRING"
    ],
    [
      "STRING"
    ],
    [
      "STRING"
    ]
  ],
  "columnValues": [
    [
      1
    ],
    [
      7
    ],
    [
      27153
    ],
    [
      "Lesbian"
    ],
    [
      "A crown made out of six beautiful flowers that celebrates Pride."
    ],
    [
      "Lesbian Flower Crown"
    ]
  ]
}