{
  "id": 2321,
  "tableId": 34,
  "columnTypes": [
    [
      "INTEGER"
    ],
    [
      "INTEGER"
    ],
    [
      "NAMEDOBJ"
    ],
    null,
    [
      "STRING"
    ],
    null
  ],
  "columnValues": [
    [
      2
    ],
    [
      1
    ],
    [
      27465
    ],
    null,
    [
      "Perfect for collecting treats while Trick-or-Treating!"
    ],
    null
  ]
}