{
  "id": 2361,
  "tableId": 65,
  "columnTypes": [
    [
      "STRING"
    ],
    [
      "IDKIT"
    ],
    [
      "IDKIT"
    ],
    [
      "MODEL"
    ],
    null,
    [
      "MODEL"
    ],
    null
  ],
  "columnValues": [
    [
      "Torn"
    ],
    [
      24
    ],
    [
      60
    ],
    [
      28551
    ],
    null,
    [
      18560
    ],
    null
  ]
}