{
  "id": 2401,
  "tableId": 37,
  "columnTypes": [
    [
      "STRING"
    ],
    [
      "IDKIT"
    ],
    [
      "IDKIT"
    ],
    [
      "MODEL"
    ],
    [
      "IDKIT"
    ],
    [
      "IDKIT"
    ]
  ],
  "columnValues": [
    [
      "Afro"
    ],
    [
      204
    ],
    [
      157
    ],
    [
      47792
    ],
    [
      234
    ],
    [
      187
    ]
  ]
}