{
  "id": 2402,
  "tableId": 37,
  "columnTypes": [
    [
      "STRING"
    ],
    [
      "IDKIT"
    ],
    [
      "IDKIT"
    ],
    [
      "MODEL"
    ],
    null,
    null
  ],
  "columnValues": [
    [
      "Short locs"
    ],
    [
      205
    ],
    [
      158
    ],
    [
      47771
    ],
    null,
    null
  ]
}