{
  "id": 2408,
  "tableId": 37,
  "columnTypes": [
    [
      "STRING"
    ],
    [
      "IDKIT"
    ],
    [
      "IDKIT"
    ],
    [
      "MODEL"
    ],
    null,
    null
  ],
  "columnValues": [
    [
      "Punk"
    ],
    [
      211
    ],
    [
      164
    ],
    [
      47803
    ],
    null,
    null
  ]
}