{
  "id": 2430,
  "tableId": 40,
  "columnTypes": [
    [
      "NAMEDOBJ"
    ],
    null,
    null,
    null,
    [
      "INTEGER"
    ],
    [
      "DBROW",
      "INTEGER"
    ],
    null,
    null,
    null,
    null,
    null,
    null,
    null,
    [
      "BOOLEAN"
    ],
    null,
    null
  ],
  "columnValues": [
    [
      27906
    ],
    null,
    null,
    null,
    [
      2
    ],
    [
      2466,
      650
    ],
    null,
    null,
    null,
    null,
    null,
    null,
    null,
    [
      1
    ],
    null,
    null
  ]
}