{
  "id": 2439,
  "tableId": 40,
  "columnTypes": [
    [
      "NAMEDOBJ"
    ],
    null,
    null,
    null,
    [
      "INTEGER"
    ],
    [
      "DBROW",
      "INTEGER"
    ],
    null,
    null,
    null,
    null,
    null,
    null,
    null,
    [
      "BOOLEAN"
    ],
    null,
    null
  ],
  "columnValues": [
    [
      28080
    ],
    null,
    null,
    null,
    [
      3
    ],
    [
      2466,
      150
    ],
    null,
    null,
    null,
    null,
    null,
    null,
    null,
    [
      1
    ],
    null,
    null
  ]
}