{
  "id": 246,
  "tableId": 18,
  "columnTypes": [
    [
      "COORDGRID"
    ],
    [
      "STRING"
    ],
    [
      "STRING"
    ]
  ],
  "columnValues": [
    [
      42667584
    ],
    [
      "Outside the fence in the south-western corner of Rellekka."
    ],
    [
      "Rellekka (SW)"
    ]
  ]
}