{
  "id": 2468,
  "tableId": 39,
  "columnTypes": [
    [
      "STRING"
    ],
    null,
    null,
    [
      "ENUM"
    ],
    null,
    [
      "DBROW"
    ],
    null,
    null,
    null,
    null,
    [
      "STRING"
    ],
    null,
    null,
    [
      "STRING"
    ],
    [
      "STRING"
    ]
  ],
  "columnValues": [
    [
      "Test shop"
    ],
    null,
    null,
    [
      4989
    ],
    null,
    [
      2469,
      2470,
      2471,
      2472,
      2473,
      2474,
      2475,
      2476,
      2477
    ],
    null,
    null,
    null,
    null,
    [
      "Welcome to Test shop 1"
    ],
    null,
    null,
    [
      "Buy"
    ],
    [
      "Sell"
    ]
  ]
}