{
  "id": 2478,
  "tableId": 39,
  "columnTypes": [
    [
      "STRING"
    ],
    [
      "INV"
    ],
    null,
    null,
    null,
    null,
    [
      "INTEGER"
    ],
    [
      "INTEGER"
    ],
    [
      "INTEGER"
    ],
    null,
    [
      "STRING"
    ],
    null,
    null,
    null,
    null
  ],
  "columnValues": [
    [
      "Lumbridge General Store"
    ],
    [
      3
    ],
    null,
    null,
    null,
    null,
    [
      130
    ],
    [
      40
    ],
    [
      3
    ],
    null,
    [
      "Welcome to Lumbridge General Store"
    ],
    null,
    null,
    null,
    null
  ]
}