{
  "id": 2495,
  "tableId": 34,
  "columnTypes": [
    [
      "INTEGER"
    ],
    [
      "INTEGER"
    ],
    [
      "NAMEDOBJ"
    ],
    [
      "STRING"
    ],
    [
      "STRING"
    ],
    [
      "STRING"
    ]
  ],
  "columnValues": [
    [
      4
    ],
    [
      7
    ],
    [
      28114
    ],
    [
      "Lesbian"
    ],
    [
      "A scarf woven from spare rainbow strands; emblazoned with a heart."
    ],
    [
      "Lesbian Scarf"
    ]
  ]
}