{
  "id": 2516,
  "tableId": 44,
  "columnTypes": [
    [
      "STRING"
    ],
    [
      "STRING"
    ],
    [
      "STRING"
    ],
    [
      "INTEGER"
    ],
    [
      "MIDI"
    ],
    [
      "INTEGER",
      "INTEGER"
    ],
    null,
    null,
    null,
    null,
    null
  ],
  "columnValues": [
    [
      "All's Fairy in Love & War"
    ],
    [
      "All's Fairy in Love & War"
    ],
    [
      "during the Fairytale II - Cure a Queen quest."
    ],
    [
      347
    ],
    [
      73
    ],
    [
      14,
      20
    ],
    null,
    null,
    null,
    null,
    null
  ]
}