{
  "id": 2545,
  "tableId": 44,
  "columnTypes": [
    [
      "STRING"
    ],
    [
      "STRING"
    ],
    [
      "STRING"
    ],
    [
      "INTEGER"
    ],
    [
      "MIDI"
    ],
    [
      "INTEGER",
      "INTEGER"
    ],
    null,
    null,
    null,
    null,
    null
  ],
  "columnValues": [
    [
      "Attack 5"
    ],
    [
      "Attack 5"
    ],
    [
      "while fighting the King Black Dragon."
    ],
    [
      213
    ],
    [
      28
    ],
    [
      1,
      14
    ],
    null,
    null,
    null,
    null,
    null
  ]
}