{
  "id": 2552,
  "tableId": 44,
  "columnTypes": [
    [
      "STRING"
    ],
    [
      "STRING"
    ],
    [
      "STRING"
    ],
    [
      "INTEGER"
    ],
    [
      "MIDI"
    ],
    [
      "INTEGER",
      "INTEGER"
    ],
    null,
    null,
    null,
    null,
    null
  ],
  "columnValues": [
    [
      "Back to Life"
    ],
    [
      "Back to Life"
    ],
    [
      "in Sophanem."
    ],
    [
      400
    ],
    [
      616
    ],
    [
      13,
      30
    ],
    null,
    null,
    null,
    null,
    null
  ]
}