{
  "id": 2561,
  "tableId": 44,
  "columnTypes": [
    [
      "STRING"
    ],
    [
      "STRING"
    ],
    [
      "STRING"
    ],
    [
      "INTEGER"
    ],
    [
      "MIDI"
    ],
    [
      "INTEGER",
      "INTEGER"
    ],
    null,
    null,
    null,
    null,
    null
  ],
  "columnValues": [
    [
      "Barking Mad"
    ],
    [
      "Barking Mad"
    ],
    [
      "at the Werewolf Agility Course."
    ],
    [
      300
    ],
    [
      345
    ],
    [
      17,
      5
    ],
    null,
    null,
    null,
    null,
    null
  ]
}