{
  "id": 2571,
  "tableId": 44,
  "columnTypes": [
    [
      "STRING"
    ],
    [
      "STRING"
    ],
    [
      "STRING"
    ],
    [
      "INTEGER"
    ],
    [
      "MIDI"
    ],
    [
      "INTEGER",
      "INTEGER"
    ],
    null,
    null,
    null,
    null,
    null
  ],
  "columnValues": [
    [
      "Beetle Juice"
    ],
    [
      "Beetle Juice"
    ],
    [
      "during the Contact! quest."
    ],
    [
      244
    ],
    [
      615
    ],
    [
      13,
      29
    ],
    null,
    null,
    null,
    null,
    null
  ]
}