{
  "id": 2579,
  "tableId": 44,
  "columnTypes": [
    [
      "STRING"
    ],
    [
      "STRING"
    ],
    [
      "STRING"
    ],
    [
      "INTEGER"
    ],
    [
      "MIDI"
    ],
    [
      "INTEGER",
      "INTEGER"
    ],
    null,
    null,
    null,
    null,
    null
  ],
  "columnValues": [
    [
      "Bob's on Holiday"
    ],
    [
      "Bob's on Holiday"
    ],
    [
      "during the A Tail of Two Cats quest."
    ],
    [
      254
    ],
    [
      484
    ],
    [
      22,
      4
    ],
    null,
    null,
    null,
    null,
    null
  ]
}