{
  "id": 258,
  "tableId": 18,
  "columnTypes": [
    [
      "COORDGRID"
    ],
    [
      "STRING"
    ],
    [
      "STRING"
    ]
  ],
  "columnValues": [
    [
      35867370
    ],
    [
      "Isle of Souls Mine, south of the Soul Wars lobby."
    ],
    [
      "Isle of Souls (S)"
    ]
  ]
}