{
  "id": 2600,
  "tableId": 44,
  "columnTypes": [
    [
      "STRING"
    ],
    [
      "STRING"
    ],
    [
      "STRING"
    ],
    [
      "INTEGER"
    ],
    [
      "MIDI"
    ],
    [
      "INTEGER",
      "INTEGER"
    ],
    null,
    null,
    null,
    null,
    null
  ],
  "columnValues": [
    [
      "Cave of Beasts"
    ],
    [
      "Cave of Beasts"
    ],
    [
      "during the Mountain Daughter quest."
    ],
    [
      593
    ],
    [
      357
    ],
    [
      9,
      24
    ],
    null,
    null,
    null,
    null,
    null
  ]
}