{
  "id": 2601,
  "tableId": 44,
  "columnTypes": [
    [
      "STRING"
    ],
    [
      "STRING"
    ],
    [
      "STRING"
    ],
    [
      "INTEGER"
    ],
    [
      "MIDI"
    ],
    [
      "INTEGER",
      "INTEGER"
    ],
    null,
    null,
    null,
    null,
    null
  ],
  "columnValues": [
    [
      "Cave of the Goblins"
    ],
    [
      "Cave of the Goblins"
    ],
    [
      "beneath Lumbridge Swamp."
    ],
    [
      465
    ],
    [
      389
    ],
    [
      10,
      16
    ],
    null,
    null,
    null,
    null,
    null
  ]
}