{
  "id": 2603,
  "tableId": 44,
  "columnTypes": [
    [
      "STRING"
    ],
    [
      "STRING"
    ],
    [
      "STRING"
    ],
    [
      "INTEGER"
    ],
    [
      "MIDI"
    ],
    [
      "INTEGER",
      "INTEGER"
    ],
    null,
    null,
    null,
    null,
    null
  ],
  "columnValues": [
    [
      "Cellar Song"
    ],
    [
      "Cellar Song"
    ],
    [
      "beneath the Varrock west bank."
    ],
    [
      232
    ],
    [
      330
    ],
    [
      6,
      13
    ],
    null,
    null,
    null,
    null,
    null
  ]
}