{
  "id": 2628,
  "tableId": 44,
  "columnTypes": [
    [
      "STRING"
    ],
    [
      "STRING"
    ],
    [
      "STRING"
    ],
    [
      "INTEGER"
    ],
    [
      "MIDI"
    ],
    [
      "INTEGER",
      "INTEGER"
    ],
    null,
    null,
    null,
    null,
    null
  ],
  "columnValues": [
    [
      "Seed of Crwys, The"
    ],
    [
      "The Seed of Crwys"
    ],
    [
      "in Prifddinas."
    ],
    [
      598
    ],
    [
      659
    ],
    [
      19,
      23
    ],
    null,
    null,
    null,
    null,
    null
  ]
}