{
  "id": 2631,
  "tableId": 44,
  "columnTypes": [
    [
      "STRING"
    ],
    [
      "STRING"
    ],
    [
      "STRING"
    ],
    [
      "INTEGER"
    ],
    [
      "MIDI"
    ],
    [
      "INTEGER",
      "INTEGER"
    ],
    [
      "INTEGER"
    ],
    null,
    null,
    null,
    null
  ],
  "columnValues": [
    [
      "Crystal Sword"
    ],
    [
      "Crystal Sword"
    ],
    [
      "in the Wilderness."
    ],
    [
      285
    ],
    [
      169
    ],
    [
      1,
      29
    ],
    [
      10
    ],
    null,
    null,
    null,
    null
  ]
}