{
  "id": 2632,
  "tableId": 44,
  "columnTypes": [
    [
      "STRING"
    ],
    [
      "STRING"
    ],
    [
      "STRING"
    ],
    [
      "INTEGER"
    ],
    [
      "MIDI"
    ],
    [
      "INTEGER",
      "INTEGER"
    ],
    null,
    null,
    null,
    null,
    null
  ],
  "columnValues": [
    [
      "Cursed"
    ],
    [
      "Cursed"
    ],
    [
      "during the Underground Pass quest."
    ],
    [
      282
    ],
    [
      59
    ],
    [
      6,
      26
    ],
    null,
    null,
    null,
    null,
    null
  ]
}