{
  "id": 2637,
  "tableId": 44,
  "columnTypes": [
    [
      "STRING"
    ],
    [
      "STRING"
    ],
    [
      "STRING"
    ],
    [
      "INTEGER"
    ],
    [
      "MIDI"
    ],
    [
      "INTEGER",
      "INTEGER"
    ],
    [
      "INTEGER"
    ],
    null,
    null,
    null,
    null
  ],
  "columnValues": [
    [
      "Dangerous"
    ],
    [
      "Dangerous"
    ],
    [
      "in the Wilderness."
    ],
    [
      222
    ],
    [
      182
    ],
    [
      1,
      30
    ],
    [
      10
    ],
    null,
    null,
    null,
    null
  ]
}