{
  "id": 2650,
  "tableId": 44,
  "columnTypes": [
    [
      "STRING"
    ],
    [
      "STRING"
    ],
    [
      "STRING"
    ],
    [
      "INTEGER"
    ],
    [
      "MIDI"
    ],
    [
      "INTEGER",
      "INTEGER"
    ],
    null,
    null,
    null,
    null,
    null
  ],
  "columnValues": [
    [
      "Delrith"
    ],
    [
      "Delrith"
    ],
    [
      "during the Demon Slayer quest."
    ],
    [
      131
    ],
    [
      195
    ],
    [
      22,
      18
    ],
    null,
    null,
    null,
    null,
    null
  ]
}