{
  "id": 2653,
  "tableId": 44,
  "columnTypes": [
    [
      "STRING"
    ],
    [
      "STRING"
    ],
    [
      "STRING"
    ],
    [
      "INTEGER"
    ],
    [
      "MIDI"
    ],
    [
      "INTEGER",
      "INTEGER"
    ],
    null,
    null,
    null,
    null,
    null
  ],
  "columnValues": [
    [
      "Desolate Mage, The"
    ],
    [
      "The Desolate Mage"
    ],
    [
      "at Mount Quidamortem."
    ],
    [
      667
    ],
    [
      495
    ],
    [
      17,
      8
    ],
    null,
    null,
    null,
    null,
    null
  ]
}