{
  "id": 2654,
  "tableId": 44,
  "columnTypes": [
    [
      "STRING"
    ],
    [
      "STRING"
    ],
    [
      "STRING"
    ],
    [
      "INTEGER"
    ],
    [
      "MIDI"
    ],
    [
      "INTEGER",
      "INTEGER"
    ],
    null,
    null,
    null,
    null,
    null
  ],
  "columnValues": [
    [
      "Devils May Care"
    ],
    [
      "Devils May Care"
    ],
    [
      "in the Smoke Devil Dungeon."
    ],
    [
      371
    ],
    [
      424
    ],
    [
      16,
      20
    ],
    null,
    null,
    null,
    null,
    null
  ]
}