{
  "id": 2657,
  "tableId": 44,
  "columnTypes": [
    [
      "STRING"
    ],
    [
      "STRING"
    ],
    [
      "STRING"
    ],
    [
      "INTEGER"
    ],
    [
      "MIDI"
    ],
    [
      "INTEGER",
      "INTEGER"
    ],
    null,
    null,
    null,
    null,
    null
  ],
  "columnValues": [
    [
      "Dimension X"
    ],
    [
      "Dimension X"
    ],
    [
      "at the Gorak Plane."
    ],
    [
      252
    ],
    [
      86
    ],
    [
      14,
      19
    ],
    null,
    null,
    null,
    null,
    null
  ]
}