{
  "id": 2659,
  "tableId": 44,
  "columnTypes": [
    [
      "STRING"
    ],
    [
      "STRING"
    ],
    [
      "STRING"
    ],
    [
      "INTEGER"
    ],
    [
      "MIDI"
    ],
    [
      "INTEGER",
      "INTEGER"
    ],
    null,
    null,
    null,
    null,
    null
  ],
  "columnValues": [
    [
      "Distillery Hilarity"
    ],
    [
      "Distillery Hilarity"
    ],
    [
      "outside the Trouble Brewing minigame."
    ],
    [
      422
    ],
    [
      610
    ],
    [
      13,
      25
    ],
    null,
    null,
    null,
    null,
    null
  ]
}