{
  "id": 2660,
  "tableId": 44,
  "columnTypes": [
    [
      "STRING"
    ],
    [
      "STRING"
    ],
    [
      "STRING"
    ],
    [
      "INTEGER"
    ],
    [
      "MIDI"
    ],
    [
      "INTEGER",
      "INTEGER"
    ],
    null,
    null,
    null,
    null,
    null
  ],
  "columnValues": [
    [
      "Dogs of War"
    ],
    [
      "Dogs of War"
    ],
    [
      "in the Stronghold of Security."
    ],
    [
      576
    ],
    [
      537
    ],
    [
      13,
      3
    ],
    null,
    null,
    null,
    null,
    null
  ]
}