{
  "id": 2663,
  "tableId": 44,
  "columnTypes": [
    [
      "STRING"
    ],
    [
      "STRING"
    ],
    [
      "STRING"
    ],
    [
      "INTEGER"
    ],
    [
      "MIDI"
    ],
    [
      "INTEGER",
      "INTEGER"
    ],
    [
      "INTEGER"
    ],
    null,
    null,
    null,
    null
  ],
  "columnValues": [
    [
      "Doorways"
    ],
    [
      "Doorways"
    ],
    [
      "in the area around Varrock."
    ],
    [
      251
    ],
    [
      56
    ],
    [
      2,
      2
    ],
    [
      8
    ],
    null,
    null,
    null,
    null
  ]
}