{
  "id": 2667,
  "tableId": 44,
  "columnTypes": [
    [
      "STRING"
    ],
    [
      "STRING"
    ],
    [
      "STRING"
    ],
    [
      "INTEGER"
    ],
    [
      "MIDI"
    ],
    [
      "INTEGER",
      "INTEGER"
    ],
    null,
    null,
    null,
    null,
    null
  ],
  "columnValues": [
    [
      "Down and Out"
    ],
    [
      "Down and Out"
    ],
    [
      "during the Dream Mentor quest."
    ],
    [
      225
    ],
    [
      301
    ],
    [
      16,
      7
    ],
    null,
    null,
    null,
    null,
    null
  ]
}