{
  "id": 2672,
  "tableId": 44,
  "columnTypes": [
    [
      "STRING"
    ],
    [
      "STRING"
    ],
    [
      "STRING"
    ],
    [
      "INTEGER"
    ],
    [
      "MIDI"
    ],
    [
      "INTEGER",
      "INTEGER"
    ],
    null,
    null,
    null,
    null,
    null
  ],
  "columnValues": [
    [
      "Dragontooth Island"
    ],
    [
      "Dragontooth Island"
    ],
    [
      "on Dragontooth Island."
    ],
    [
      500
    ],
    [
      358
    ],
    [
      9,
      25
    ],
    null,
    null,
    null,
    null,
    null
  ]
}