{
  "id": 2679,
  "tableId": 44,
  "columnTypes": [
    [
      "STRING"
    ],
    [
      "STRING"
    ],
    [
      "STRING"
    ],
    [
      "INTEGER"
    ],
    [
      "MIDI"
    ],
    [
      "INTEGER",
      "INTEGER"
    ],
    null,
    null,
    null,
    null,
    null
  ],
  "columnValues": [
    [
      "Dusk in Yu'biusk"
    ],
    [
      "Dusk in Yu'biusk"
    ],
    [
      "in Yu'biusk."
    ],
    [
      489
    ],
    [
      713
    ],
    [
      21,
      23
    ],
    null,
    null,
    null,
    null,
    null
  ]
}