{
  "id": 2681,
  "tableId": 44,
  "columnTypes": [
    [
      "STRING"
    ],
    [
      "STRING"
    ],
    [
      "STRING"
    ],
    [
      "INTEGER"
    ],
    [
      "MIDI"
    ],
    [
      "INTEGER",
      "INTEGER"
    ],
    null,
    null,
    null,
    null,
    null
  ],
  "columnValues": [
    [
      "Dynasty"
    ],
    [
      "Dynasty"
    ],
    [
      "in Pollnivneach."
    ],
    [
      437
    ],
    [
      351
    ],
    [
      9,
      19
    ],
    null,
    null,
    null,
    null,
    null
  ]
}