{
  "id": 2692,
  "tableId": 44,
  "columnTypes": [
    [
      "STRING"
    ],
    [
      "STRING"
    ],
    [
      "STRING"
    ],
    [
      "INTEGER"
    ],
    [
      "MIDI"
    ],
    [
      "INTEGER",
      "INTEGER"
    ],
    null,
    null,
    null,
    null,
    null
  ],
  "columnValues": [
    [
      "Espionage"
    ],
    [
      "Espionage"
    ],
    [
      "during the Cold War quest."
    ],
    [
      398
    ],
    [
      216
    ],
    [
      15,
      22
    ],
    null,
    null,
    null,
    null,
    null
  ]
}