{
  "id": 2712,
  "tableId": 44,
  "columnTypes": [
    [
      "STRING"
    ],
    [
      "STRING"
    ],
    [
      "STRING"
    ],
    [
      "INTEGER"
    ],
    [
      "MIDI"
    ],
    [
      "INTEGER",
      "INTEGER"
    ],
    null,
    null,
    null,
    null,
    null
  ],
  "columnValues": [
    [
      "Far Away"
    ],
    [
      "Far Away"
    ],
    [
      "during the Mourning's End Part I quest."
    ],
    [
      458
    ],
    [
      372
    ],
    [
      10,
      4
    ],
    null,
    null,
    null,
    null,
    null
  ]
}