{
  "id": 2716,
  "tableId": 44,
  "columnTypes": [
    [
      "STRING"
    ],
    [
      "STRING"
    ],
    [
      "STRING"
    ],
    [
      "INTEGER"
    ],
    [
      "MIDI"
    ],
    [
      "INTEGER",
      "INTEGER"
    ],
    null,
    null,
    null,
    null,
    null
  ],
  "columnValues": [
    [
      "Fight or Flight"
    ],
    [
      "Fight or Flight"
    ],
    [
      "during the Mourning's End Part I quest."
    ],
    [
      445
    ],
    [
      375
    ],
    [
      10,
      5
    ],
    null,
    null,
    null,
    null,
    null
  ]
}