{
  "id": 2748,
  "tableId": 44,
  "columnTypes": [
    [
      "STRING"
    ],
    [
      "STRING"
    ],
    [
      "STRING"
    ],
    [
      "INTEGER"
    ],
    [
      "MIDI"
    ],
    [
      "INTEGER",
      "INTEGER"
    ],
    null,
    null,
    null,
    null,
    null
  ],
  "columnValues": [
    [
      "Tempest"
    ],
    [
      "Tempest"
    ],
    [
      "while fighting the Grotesque Guardians."
    ],
    [
      385
    ],
    [
      518
    ],
    [
      17,
      20
    ],
    null,
    null,
    null,
    null,
    null
  ]
}