{
  "id": 2751,
  "tableId": 44,
  "columnTypes": [
    [
      "STRING"
    ],
    [
      "STRING"
    ],
    [
      "STRING"
    ],
    [
      "INTEGER"
    ],
    [
      "MIDI"
    ],
    [
      "INTEGER",
      "INTEGER"
    ],
    null,
    null,
    null,
    null,
    null
  ],
  "columnValues": [
    [
      "Dogfight"
    ],
    [
      "Dogfight"
    ],
    [
      "during The General's Shadow miniquest."
    ],
    [
      169
    ],
    [
      233
    ],
    [
      22,
      9
    ],
    null,
    null,
    null,
    null,
    null
  ]
}