{
  "id": 2765,
  "tableId": 44,
  "columnTypes": [
    [
      "STRING"
    ],
    [
      "STRING"
    ],
    [
      "STRING"
    ],
    [
      "INTEGER"
    ],
    [
      "MIDI"
    ],
    [
      "INTEGER",
      "INTEGER"
    ],
    [
      "INTEGER"
    ],
    null,
    null,
    null,
    null
  ],
  "columnValues": [
    [
      "Greatness"
    ],
    [
      "Greatness"
    ],
    [
      "in the area around Varrock."
    ],
    [
      370
    ],
    [
      116
    ],
    [
      2,
      25
    ],
    [
      8
    ],
    null,
    null,
    null,
    null
  ]
}