{
  "id": 2774,
  "tableId": 44,
  "columnTypes": [
    [
      "STRING"
    ],
    [
      "STRING"
    ],
    [
      "STRING"
    ],
    [
      "INTEGER"
    ],
    [
      "MIDI"
    ],
    [
      "INTEGER",
      "INTEGER"
    ],
    null,
    null,
    null,
    null,
    null
  ],
  "columnValues": [
    [
      "H.A.M. and Seek"
    ],
    [
      "H.A.M. and Seek"
    ],
    [
      "during the Another Slice of H.A.M. quest."
    ],
    [
      405
    ],
    [
      276
    ],
    [
      15,
      30
    ],
    null,
    null,
    null,
    null,
    null
  ]
}