{
  "id": 2783,
  "tableId": 44,
  "columnTypes": [
    [
      "STRING"
    ],
    [
      "STRING"
    ],
    [
      "STRING"
    ],
    [
      "INTEGER"
    ],
    [
      "MIDI"
    ],
    [
      "INTEGER",
      "INTEGER"
    ],
    null,
    null,
    null,
    null,
    null
  ],
  "columnValues": [
    [
      "Heart and Mind"
    ],
    [
      "Heart and Mind"
    ],
    [
      "at the Body Altar."
    ],
    [
      353
    ],
    [
      190
    ],
    [
      6,
      14
    ],
    null,
    null,
    null,
    null,
    null
  ]
}