{
  "id": 2784,
  "tableId": 44,
  "columnTypes": [
    [
      "STRING"
    ],
    [
      "STRING"
    ],
    [
      "STRING"
    ],
    [
      "INTEGER"
    ],
    [
      "MIDI"
    ],
    [
      "INTEGER",
      "INTEGER"
    ],
    null,
    null,
    null,
    null,
    null
  ],
  "columnValues": [
    [
      "Hells Bells"
    ],
    [
      "Hells Bells"
    ],
    [
      "during the Troll Romance quest."
    ],
    [
      350
    ],
    [
      4
    ],
    [
      8,
      30
    ],
    null,
    null,
    null,
    null,
    null
  ]
}