{
  "id": 2802,
  "tableId": 44,
  "columnTypes": [
    [
      "STRING"
    ],
    [
      "STRING"
    ],
    [
      "STRING"
    ],
    [
      "INTEGER"
    ],
    [
      "MIDI"
    ],
    [
      "INTEGER",
      "INTEGER"
    ],
    null,
    null,
    null,
    null,
    null
  ],
  "columnValues": [
    [
      "Impetuous"
    ],
    [
      "Impetuous"
    ],
    [
      "in Puro-Puro."
    ],
    [
      337
    ],
    [
      349
    ],
    [
      15,
      26
    ],
    null,
    null,
    null,
    null,
    null
  ]
}