{
  "id": 2826,
  "tableId": 44,
  "columnTypes": [
    [
      "STRING"
    ],
    [
      "STRING"
    ],
    [
      "STRING"
    ],
    [
      "INTEGER"
    ],
    [
      "MIDI"
    ],
    [
      "INTEGER",
      "INTEGER"
    ],
    [
      "INTEGER"
    ],
    null,
    null,
    [
      "INTEGER"
    ],
    null
  ],
  "columnValues": [
    [
      "Jungle Bells"
    ],
    [
      "Jungle Bells"
    ],
    [
      "during a Christmas event."
    ],
    [
      385
    ],
    [
      209
    ],
    [
      15,
      13
    ],
    [
      15
    ],
    null,
    null,
    [
      3
    ],
    null
  ]
}