{
  "id": 2833,
  "tableId": 44,
  "columnTypes": [
    [
      "STRING"
    ],
    [
      "STRING"
    ],
    [
      "STRING"
    ],
    [
      "INTEGER"
    ],
    [
      "MIDI"
    ],
    [
      "INTEGER",
      "INTEGER"
    ],
    [
      "INTEGER"
    ],
    null,
    null,
    null,
    null
  ],
  "columnValues": [
    [
      "Jungly 3"
    ],
    [
      "Jungly 3"
    ],
    [
      "on Karamja."
    ],
    [
      135
    ],
    [
      117
    ],
    [
      3,
      5
    ],
    [
      16
    ],
    null,
    null,
    null,
    null
  ]
}