{
  "id": 2839,
  "tableId": 44,
  "columnTypes": [
    [
      "STRING"
    ],
    [
      "STRING"
    ],
    [
      "STRING"
    ],
    [
      "INTEGER"
    ],
    [
      "MIDI"
    ],
    [
      "INTEGER",
      "INTEGER"
    ],
    null,
    null,
    null,
    null,
    null
  ],
  "columnValues": [
    [
      "Knightly"
    ],
    [
      "Knightly"
    ],
    [
      "in the East Ardougne Castle."
    ],
    [
      250
    ],
    [
      191
    ],
    [
      3,
      6
    ],
    null,
    null,
    null,
    null,
    null
  ]
}