{
  "id": 2842,
  "tableId": 44,
  "columnTypes": [
    [
      "STRING"
    ],
    [
      "STRING"
    ],
    [
      "STRING"
    ],
    [
      "INTEGER"
    ],
    [
      "MIDI"
    ],
    [
      "INTEGER",
      "INTEGER"
    ],
    null,
    null,
    null,
    null,
    null
  ],
  "columnValues": [
    [
      "Houses of Kourend, The"
    ],
    [
      "The Houses of Kourend"
    ],
    [
      "during the A Kingdom Divided quest."
    ],
    [
      249
    ],
    [
      699
    ],
    [
      21,
      8
    ],
    null,
    null,
    null,
    null,
    null
  ]
}