{
  "id": 2848,
  "tableId": 44,
  "columnTypes": [
    [
      "STRING"
    ],
    [
      "STRING"
    ],
    [
      "STRING"
    ],
    [
      "INTEGER"
    ],
    [
      "MIDI"
    ],
    [
      "INTEGER",
      "INTEGER"
    ],
    [
      "INTEGER"
    ],
    null,
    null,
    null,
    null
  ],
  "columnValues": [
    [
      "Lament of Meiyerditch"
    ],
    [
      "Lament of Meiyerditch"
    ],
    [
      "in Meiyerditch."
    ],
    [
      566
    ],
    [
      197
    ],
    [
      14,
      14
    ],
    [
      21
    ],
    null,
    null,
    null,
    null
  ]
}