{
  "id": 2874,
  "tableId": 44,
  "columnTypes": [
    [
      "STRING"
    ],
    [
      "STRING"
    ],
    [
      "STRING"
    ],
    [
      "INTEGER"
    ],
    [
      "MIDI"
    ],
    [
      "INTEGER",
      "INTEGER"
    ],
    null,
    null,
    null,
    null,
    null
  ],
  "columnValues": [
    [
      "You Have My Attention"
    ],
    [
      "You Have My Attention"
    ],
    [
      "during the Sins of the Father quest."
    ],
    [
      668
    ],
    [
      666
    ],
    [
      20,
      20
    ],
    null,
    null,
    null,
    null,
    null
  ]
}