{
  "id": 2887,
  "tableId": 44,
  "columnTypes": [
    [
      "STRING"
    ],
    [
      "STRING"
    ],
    [
      "STRING"
    ],
    [
      "INTEGER"
    ],
    [
      "MIDI"
    ],
    [
      "INTEGER",
      "INTEGER"
    ],
    null,
    null,
    null,
    null,
    null
  ],
  "columnValues": [
    [
      "Major Miner"
    ],
    [
      "Major Miner"
    ],
    [
      "in the Jatizso mine."
    ],
    [
      363
    ],
    [
      222
    ],
    [
      14,
      21
    ],
    null,
    null,
    null,
    null,
    null
  ]
}