{
  "id": 2893,
  "tableId": 44,
  "columnTypes": [
    [
      "STRING"
    ],
    [
      "STRING"
    ],
    [
      "STRING"
    ],
    [
      "INTEGER"
    ],
    [
      "MIDI"
    ],
    [
      "INTEGER",
      "INTEGER"
    ],
    null,
    null,
    null,
    null,
    null
  ],
  "columnValues": [
    [
      "Masquerade"
    ],
    [
      "Masquerade"
    ],
    [
      "in the Fremennik Slayer Dungeon."
    ],
    [
      345
    ],
    [
      340
    ],
    [
      9,
      12
    ],
    null,
    null,
    null,
    null,
    null
  ]
}