{
  "id": 2918,
  "tableId": 44,
  "columnTypes": [
    [
      "STRING"
    ],
    [
      "STRING"
    ],
    [
      "STRING"
    ],
    [
      "INTEGER"
    ],
    [
      "MIDI"
    ],
    [
      "INTEGER",
      "INTEGER"
    ],
    null,
    null,
    null,
    null,
    null
  ],
  "columnValues": [
    [
      "Monarch Waltz"
    ],
    [
      "Monarch Waltz"
    ],
    [
      "at Sinclair Mansion."
    ],
    [
      241
    ],
    [
      21
    ],
    [
      3,
      22
    ],
    null,
    null,
    null,
    null,
    null
  ]
}