{
  "id": 2939,
  "tableId": 44,
  "columnTypes": [
    [
      "STRING"
    ],
    [
      "STRING"
    ],
    [
      "STRING"
    ],
    [
      "INTEGER"
    ],
    [
      "MIDI"
    ],
    [
      "INTEGER",
      "INTEGER"
    ],
    [
      "INTEGER"
    ],
    null,
    null,
    null,
    null
  ],
  "columnValues": [
    [
      "Night of the Vampyre"
    ],
    [
      "Night of the Vampyre"
    ],
    [
      "in Meiyerditch."
    ],
    [
      616
    ],
    [
      646
    ],
    [
      14,
      17
    ],
    [
      21
    ],
    null,
    null,
    null,
    null
  ]
}