{
  "id": 295,
  "tableId": 18,
  "columnTypes": [
    [
      "COORDGRID"
    ],
    [
      "STRING"
    ],
    [
      "STRING"
    ]
  ],
  "columnValues": [
    [
      56429751
    ],
    [
      "At Haunted Mine quest start."
    ],
    [
      "Haunted Mine"
    ]
  ]
}