{
  "id": 2967,
  "tableId": 44,
  "columnTypes": [
    [
      "STRING"
    ],
    [
      "STRING"
    ],
    [
      "STRING"
    ],
    [
      "INTEGER"
    ],
    [
      "MIDI"
    ],
    [
      "INTEGER",
      "INTEGER"
    ],
    null,
    null,
    null,
    null,
    null
  ],
  "columnValues": [
    [
      "Penguin Plots"
    ],
    [
      "Penguin Plots"
    ],
    [
      "during the Cold War quest."
    ],
    [
      109
    ],
    [
      219
    ],
    [
      22,
      17
    ],
    null,
    null,
    null,
    null,
    null
  ]
}