{
  "id": 2975,
  "tableId": 44,
  "columnTypes": [
    [
      "STRING"
    ],
    [
      "STRING"
    ],
    [
      "STRING"
    ],
    [
      "INTEGER"
    ],
    [
      "MIDI"
    ],
    [
      "INTEGER",
      "INTEGER"
    ],
    null,
    null,
    null,
    null,
    null
  ],
  "columnValues": [
    [
      "Pinball Wizard"
    ],
    [
      "Pinball Wizard"
    ],
    [
      "during the Pinball random event."
    ],
    [
      413
    ],
    [
      614
    ],
    [
      13,
      28
    ],
    null,
    null,
    null,
    null,
    null
  ]
}