{
  "id": 2976,
  "tableId": 44,
  "columnTypes": [
    [
      "STRING"
    ],
    [
      "STRING"
    ],
    [
      "STRING"
    ],
    [
      "INTEGER"
    ],
    [
      "MIDI"
    ],
    [
      "INTEGER",
      "INTEGER"
    ],
    null,
    null,
    null,
    null,
    null
  ],
  "columnValues": [
    [
      "Pirates of Penance"
    ],
    [
      "Pirates of Penance"
    ],
    [
      "during the Barbarian Assault minigame."
    ],
    [
      401
    ],
    [
      211
    ],
    [
      14,
      26
    ],
    null,
    null,
    null,
    null,
    null
  ]
}