{
  "id": 298,
  "tableId": 18,
  "columnTypes": [
    [
      "COORDGRID"
    ],
    [
      "STRING"
    ],
    [
      "STRING"
    ]
  ],
  "columnValues": [
    [
      60066716
    ],
    [
      "Near Mos Le'Harmless southern bar."
    ],
    [
      "Mos Le'Harmless (S)"
    ]
  ]
}