{
  "id": 2980,
  "tableId": 44,
  "columnTypes": [
    [
      "STRING"
    ],
    [
      "STRING"
    ],
    [
      "STRING"
    ],
    [
      "INTEGER"
    ],
    [
      "MIDI"
    ],
    [
      "INTEGER",
      "INTEGER"
    ],
    null,
    null,
    null,
    null,
    null
  ],
  "columnValues": [
    [
      "Prime Time"
    ],
    [
      "Prime Time"
    ],
    [
      "during the Elemental Workshop II quest."
    ],
    [
      465
    ],
    [
      202
    ],
    [
      14,
      30
    ],
    null,
    null,
    null,
    null,
    null
  ]
}