{
  "id": 2983,
  "tableId": 44,
  "columnTypes": [
    [
      "STRING"
    ],
    [
      "STRING"
    ],
    [
      "STRING"
    ],
    [
      "INTEGER"
    ],
    [
      "MIDI"
    ],
    [
      "INTEGER",
      "INTEGER"
    ],
    null,
    null,
    null,
    null,
    null
  ],
  "columnValues": [
    [
      "Taste Of Hope, A"
    ],
    [
      "A Taste of Hope"
    ],
    [
      "during the A Taste of Hope quest."
    ],
    [
      649
    ],
    [
      555
    ],
    [
      18,
      9
    ],
    null,
    null,
    null,
    null,
    null
  ]
}