{
  "id": 2989,
  "tableId": 44,
  "columnTypes": [
    [
      "STRING"
    ],
    [
      "STRING"
    ],
    [
      "STRING"
    ],
    [
      "INTEGER"
    ],
    [
      "MIDI"
    ],
    [
      "INTEGER",
      "INTEGER"
    ],
    [
      "INTEGER"
    ],
    null,
    null,
    null,
    null
  ],
  "columnValues": [
    [
      "Reggae 2"
    ],
    [
      "Reggae 2"
    ],
    [
      "on Karamja."
    ],
    [
      337
    ],
    [
      89
    ],
    [
      4,
      1
    ],
    [
      16
    ],
    null,
    null,
    null,
    null
  ]
}