{
  "id": 2993,
  "tableId": 44,
  "columnTypes": [
    [
      "STRING"
    ],
    [
      "STRING"
    ],
    [
      "STRING"
    ],
    [
      "INTEGER"
    ],
    [
      "MIDI"
    ],
    [
      "INTEGER",
      "INTEGER"
    ],
    null,
    null,
    null,
    null,
    null
  ],
  "columnValues": [
    [
      "Rhapsody"
    ],
    [
      "Rhapsody"
    ],
    [
      "at the piano in a Clan Hall."
    ],
    [
      506
    ],
    [
      692
    ],
    [
      16,
      28
    ],
    null,
    null,
    null,
    null,
    null
  ]
}