{
  "id": 3012,
  "tableId": 44,
  "columnTypes": [
    [
      "STRING"
    ],
    [
      "STRING"
    ],
    [
      "STRING"
    ],
    [
      "INTEGER"
    ],
    [
      "MIDI"
    ],
    [
      "INTEGER",
      "INTEGER"
    ],
    null,
    null,
    null,
    null,
    null
  ],
  "columnValues": [
    [
      "Scape Cave"
    ],
    [
      "Scape Cave"
    ],
    [
      "in the Varrock Sewers."
    ],
    [
      266
    ],
    [
      144
    ],
    [
      4,
      6
    ],
    null,
    null,
    null,
    null,
    null
  ]
}