{
  "id": 3015,
  "tableId": 44,
  "columnTypes": [
    [
      "STRING"
    ],
    [
      "STRING"
    ],
    [
      "STRING"
    ],
    [
      "INTEGER"
    ],
    [
      "MIDI"
    ],
    null,
    null,
    null,
    null,
    null,
    null
  ],
  "columnValues": [
    [
      "Scape Main"
    ],
    [
      "Scape Main"
    ],
    [
      "automatically."
    ],
    [
      327
    ],
    [
      16
    ],
    null,
    null,
    null,
    null,
    null,
    null
  ]
}