{
  "id": 3025,
  "tableId": 44,
  "columnTypes": [
    [
      "STRING"
    ],
    [
      "STRING"
    ],
    [
      "STRING"
    ],
    [
      "INTEGER"
    ],
    [
      "MIDI"
    ],
    [
      "INTEGER",
      "INTEGER"
    ],
    null,
    null,
    null,
    null,
    null
  ],
  "columnValues": [
    [
      "Scorpia Dances"
    ],
    [
      "Scorpia Dances"
    ],
    [
      "while fighting Scorpia."
    ],
    [
      545
    ],
    [
      423
    ],
    [
      16,
      17
    ],
    null,
    null,
    null,
    null,
    null
  ]
}