{
  "id": 3027,
  "tableId": 44,
  "columnTypes": [
    [
      "STRING"
    ],
    [
      "STRING"
    ],
    [
      "STRING"
    ],
    [
      "INTEGER"
    ],
    [
      "MIDI"
    ],
    [
      "INTEGER",
      "INTEGER"
    ],
    [
      "INTEGER"
    ],
    [
      "BOOLEAN"
    ],
    null,
    null,
    null
  ],
  "columnValues": [
    [
      "Sea Shanty"
    ],
    [
      "Sea Shanty"
    ],
    [
      "at Musa Point."
    ],
    [
      186
    ],
    [
      92
    ],
    [
      4,
      10
    ],
    [
      11
    ],
    [
      1
    ],
    null,
    null,
    null
  ]
}