{
  "id": 3028,
  "tableId": 44,
  "columnTypes": [
    [
      "STRING"
    ],
    [
      "STRING"
    ],
    [
      "STRING"
    ],
    [
      "INTEGER"
    ],
    [
      "MIDI"
    ],
    [
      "INTEGER",
      "INTEGER"
    ],
    [
      "INTEGER"
    ],
    null,
    null,
    [
      "INTEGER"
    ],
    null
  ],
  "columnValues": [
    [
      "Sea Shanty Xmas"
    ],
    [
      "Sea Shanty Xmas"
    ],
    [
      "during a Christmas event."
    ],
    [
      186
    ],
    [
      210
    ],
    [
      15,
      12
    ],
    [
      15
    ],
    null,
    null,
    [
      3
    ],
    null
  ]
}