{
  "id": 3044,
  "tableId": 44,
  "columnTypes": [
    [
      "STRING"
    ],
    [
      "STRING"
    ],
    [
      "STRING"
    ],
    [
      "INTEGER"
    ],
    [
      "MIDI"
    ],
    [
      "INTEGER",
      "INTEGER"
    ],
    null,
    null,
    null,
    null,
    null
  ],
  "columnValues": [
    [
      "Showdown"
    ],
    [
      "Showdown"
    ],
    [
      "during the Monkey Madness quest."
    ],
    [
      333
    ],
    [
      311
    ],
    [
      8,
      21
    ],
    null,
    null,
    null,
    null,
    null
  ]
}