{
  "id": 306,
  "tableId": 18,
  "columnTypes": [
    [
      "COORDGRID"
    ],
    [
      "STRING"
    ],
    [
      "STRING"
    ]
  ],
  "columnValues": [
    [
      38833399
    ],
    [
      "South-west of the crystal gate to Arandar."
    ],
    [
      "Arandar gate"
    ]
  ]
}