{
  "id": 3069,
  "tableId": 44,
  "columnTypes": [
    [
      "STRING"
    ],
    [
      "STRING"
    ],
    [
      "STRING"
    ],
    [
      "INTEGER"
    ],
    [
      "MIDI"
    ],
    [
      "INTEGER",
      "INTEGER"
    ],
    [
      "INTEGER"
    ],
    null,
    null,
    null,
    null
  ],
  "columnValues": [
    [
      "Stagnant"
    ],
    [
      "Stagnant"
    ],
    [
      "in Mort Myre Swamp."
    ],
    [
      427
    ],
    [
      241
    ],
    [
      7,
      1
    ],
    [
      20
    ],
    null,
    null,
    null,
    null
  ]
}