{
  "id": 3070,
  "tableId": 44,
  "columnTypes": [
    [
      "STRING"
    ],
    [
      "STRING"
    ],
    [
      "STRING"
    ],
    [
      "INTEGER"
    ],
    [
      "MIDI"
    ],
    [
      "INTEGER",
      "INTEGER"
    ],
    null,
    null,
    null,
    null,
    null
  ],
  "columnValues": [
    [
      "Stand Up and Be Counted"
    ],
    [
      "Stand Up and Be Counted"
    ],
    [
      "during the Song of the Elves quest."
    ],
    [
      422
    ],
    [
      656
    ],
    [
      20,
      0
    ],
    null,
    null,
    null,
    null,
    null
  ]
}