{
  "id": 308,
  "tableId": 18,
  "columnTypes": [
    [
      "COORDGRID"
    ],
    [
      "STRING"
    ],
    [
      "STRING"
    ]
  ],
  "columnValues": [
    [
      35671250
    ],
    [
      "North-west of Iorwerth Camp."
    ],
    [
      "Iorwerth Camp (NW)"
    ]
  ]
}