{
  "id": 3084,
  "tableId": 44,
  "columnTypes": [
    [
      "STRING"
    ],
    [
      "STRING"
    ],
    [
      "STRING"
    ],
    [
      "INTEGER"
    ],
    [
      "MIDI"
    ],
    [
      "INTEGER",
      "INTEGER"
    ],
    null,
    null,
    null,
    null,
    null
  ],
  "columnValues": [
    [
      "Surok's Theme"
    ],
    [
      "Surok's Theme"
    ],
    [
      "during the What Lies Below quest."
    ],
    [
      327
    ],
    [
      250
    ],
    [
      22,
      1
    ],
    null,
    null,
    null,
    null,
    null
  ]
}