{
  "id": 3091,
  "tableId": 44,
  "columnTypes": [
    [
      "STRING"
    ],
    [
      "STRING"
    ],
    [
      "STRING"
    ],
    [
      "INTEGER"
    ],
    [
      "MIDI"
    ],
    [
      "INTEGER",
      "INTEGER"
    ],
    null,
    null,
    null,
    null,
    null
  ],
  "columnValues": [
    [
      "Temple"
    ],
    [
      "Temple"
    ],
    [
      "in the Temple of Marimbo Dungeon."
    ],
    [
      597
    ],
    [
      307
    ],
    [
      8,
      19
    ],
    null,
    null,
    null,
    null,
    null
  ]
}