{
  "id": 3093,
  "tableId": 44,
  "columnTypes": [
    [
      "STRING"
    ],
    [
      "STRING"
    ],
    [
      "STRING"
    ],
    [
      "INTEGER"
    ],
    [
      "MIDI"
    ],
    [
      "INTEGER",
      "INTEGER"
    ],
    null,
    null,
    null,
    null,
    null
  ],
  "columnValues": [
    [
      "Temple of the Eye"
    ],
    [
      "Temple of the Eye"
    ],
    [
      "during the Temple of the Eye quest."
    ],
    [
      602
    ],
    [
      719
    ],
    [
      21,
      27
    ],
    null,
    null,
    null,
    null,
    null
  ]
}