{
  "id": 3096,
  "tableId": 44,
  "columnTypes": [
    [
      "STRING"
    ],
    [
      "STRING"
    ],
    [
      "STRING"
    ],
    [
      "INTEGER"
    ],
    [
      "MIDI"
    ],
    [
      "INTEGER",
      "INTEGER"
    ],
    null,
    null,
    null,
    null,
    null
  ],
  "columnValues": [
    [
      "Terrible Caverns, The"
    ],
    [
      "The Terrible Caverns"
    ],
    [
      "during the Sins of the Father quest."
    ],
    [
      413
    ],
    [
      667
    ],
    [
      20,
      11
    ],
    null,
    null,
    null,
    null,
    null
  ]
}