{
  "id": 3132,
  "tableId": 44,
  "columnTypes": [
    [
      "STRING"
    ],
    [
      "STRING"
    ],
    [
      "STRING"
    ],
    [
      "INTEGER"
    ],
    [
      "MIDI"
    ],
    [
      "INTEGER",
      "INTEGER"
    ],
    null,
    null,
    null,
    null,
    null
  ],
  "columnValues": [
    [
      "Welcome to the Theatre"
    ],
    [
      "Welcome to the Theatre"
    ],
    [
      "at Ver Sinhaza."
    ],
    [
      800
    ],
    [
      556
    ],
    [
      18,
      8
    ],
    null,
    null,
    null,
    null,
    null
  ]
}