{
  "id": 3140,
  "tableId": 44,
  "columnTypes": [
    [
      "STRING"
    ],
    [
      "STRING"
    ],
    [
      "STRING"
    ],
    [
      "INTEGER"
    ],
    [
      "MIDI"
    ],
    [
      "INTEGER",
      "INTEGER"
    ],
    null,
    null,
    null,
    null,
    null
  ],
  "columnValues": [
    [
      "Sands of Time"
    ],
    [
      "Sands of Time"
    ],
    [
      "in the Tombs of Amascut."
    ],
    [
      770
    ],
    [
      739
    ],
    [
      23,
      4
    ],
    null,
    null,
    null,
    null,
    null
  ]
}