{
  "id": 3144,
  "tableId": 44,
  "columnTypes": [
    [
      "STRING"
    ],
    [
      "STRING"
    ],
    [
      "STRING"
    ],
    [
      "INTEGER"
    ],
    [
      "MIDI"
    ],
    [
      "INTEGER",
      "INTEGER"
    ],
    null,
    null,
    null,
    null,
    null
  ],
  "columnValues": [
    [
      "Jaws of Gluttony"
    ],
    [
      "Jaws of Gluttony"
    ],
    [
      "in the Tombs of Amascut."
    ],
    [
      566
    ],
    [
      736
    ],
    [
      23,
      6
    ],
    null,
    null,
    null,
    null,
    null
  ]
}