{
  "id": 3148,
  "tableId": 44,
  "columnTypes": [
    [
      "STRING"
    ],
    [
      "STRING"
    ],
    [
      "STRING"
    ],
    [
      "INTEGER"
    ],
    [
      "MIDI"
    ],
    [
      "INTEGER",
      "INTEGER"
    ],
    null,
    null,
    null,
    null,
    null
  ],
  "columnValues": [
    [
      "Test of Strength"
    ],
    [
      "Test of Strength"
    ],
    [
      "in the Tombs of Amascut."
    ],
    [
      720
    ],
    [
      732
    ],
    [
      23,
      0
    ],
    null,
    null,
    null,
    null,
    null
  ]
}