{
  "id": 3161,
  "tableId": 44,
  "columnTypes": [
    [
      "STRING"
    ],
    [
      "STRING"
    ],
    [
      "STRING"
    ],
    [
      "INTEGER"
    ],
    [
      "MIDI"
    ],
    [
      "INTEGER",
      "INTEGER"
    ],
    [
      "INTEGER"
    ],
    null,
    null,
    null,
    null
  ],
  "columnValues": [
    [
      "Tribal 2"
    ],
    [
      "Tribal 2"
    ],
    [
      "on Karamja."
    ],
    [
      380
    ],
    [
      94
    ],
    [
      5,
      1
    ],
    [
      16
    ],
    null,
    null,
    null,
    null
  ]
}