{
  "id": 3167,
  "tableId": 44,
  "columnTypes": [
    [
      "STRING"
    ],
    [
      "STRING"
    ],
    [
      "STRING"
    ],
    [
      "INTEGER"
    ],
    [
      "MIDI"
    ],
    [
      "INTEGER",
      "INTEGER"
    ],
    null,
    null,
    null,
    null,
    null
  ],
  "columnValues": [
    [
      "Twilight"
    ],
    [
      "Twilight"
    ],
    [
      "during the Elemental Workshop I quest."
    ],
    [
      535
    ],
    [
      88
    ],
    [
      6,
      19
    ],
    null,
    null,
    null,
    null,
    null
  ]
}