{
  "id": 3192,
  "tableId": 44,
  "columnTypes": [
    [
      "STRING"
    ],
    [
      "STRING"
    ],
    [
      "STRING"
    ],
    [
      "INTEGER"
    ],
    [
      "MIDI"
    ],
    [
      "INTEGER",
      "INTEGER"
    ],
    null,
    null,
    null,
    null,
    null
  ],
  "columnValues": [
    [
      "Voodoo Cult"
    ],
    [
      "Voodoo Cult"
    ],
    [
      "during the Legends' Quest."
    ],
    [
      533
    ],
    [
      30
    ],
    [
      5,
      10
    ],
    null,
    null,
    null,
    null,
    null
  ]
}