{
  "id": 3199,
  "tableId": 44,
  "columnTypes": [
    [
      "STRING"
    ],
    [
      "STRING"
    ],
    [
      "STRING"
    ],
    [
      "INTEGER"
    ],
    [
      "MIDI"
    ],
    [
      "INTEGER",
      "INTEGER"
    ],
    null,
    null,
    null,
    null,
    null
  ],
  "columnValues": [
    [
      "Song of the Elves"
    ],
    [
      "Song of the Elves"
    ],
    [
      "during the Song of the Elves quest."
    ],
    [
      587
    ],
    [
      645
    ],
    [
      19,
      29
    ],
    null,
    null,
    null,
    null,
    null
  ]
}