{
  "id": 3202,
  "tableId": 44,
  "columnTypes": [
    [
      "STRING"
    ],
    [
      "STRING"
    ],
    [
      "STRING"
    ],
    [
      "INTEGER"
    ],
    [
      "MIDI"
    ],
    [
      "INTEGER",
      "INTEGER"
    ],
    null,
    null,
    null,
    null,
    null
  ],
  "columnValues": [
    [
      "Warriors' Guild"
    ],
    [
      "Warriors' Guild"
    ],
    [
      "at the Warriors' Guild."
    ],
    [
      314
    ],
    [
      634
    ],
    [
      14,
      7
    ],
    null,
    null,
    null,
    null,
    null
  ]
}