{
  "id": 3205,
  "tableId": 44,
  "columnTypes": [
    [
      "STRING"
    ],
    [
      "STRING"
    ],
    [
      "STRING"
    ],
    [
      "INTEGER"
    ],
    [
      "MIDI"
    ],
    [
      "INTEGER",
      "INTEGER"
    ],
    [
      "INTEGER"
    ],
    null,
    null,
    null,
    null
  ],
  "columnValues": [
    [
      "Waterlogged"
    ],
    [
      "Waterlogged"
    ],
    [
      "in Mort Myre Swamp."
    ],
    [
      485
    ],
    [
      244
    ],
    [
      7,
      7
    ],
    [
      20
    ],
    null,
    null,
    null,
    null
  ]
}