{
  "id": 3214,
  "tableId": 44,
  "columnTypes": [
    [
      "STRING"
    ],
    [
      "STRING"
    ],
    [
      "STRING"
    ],
    [
      "INTEGER"
    ],
    [
      "MIDI"
    ],
    [
      "INTEGER",
      "INTEGER"
    ],
    [
      "INTEGER"
    ],
    null,
    null,
    null,
    null
  ],
  "columnValues": [
    [
      "Wild Isle"
    ],
    [
      "Wild Isle"
    ],
    [
      "in the Wilderness."
    ],
    [
      187
    ],
    [
      189
    ],
    [
      6,
      6
    ],
    [
      10
    ],
    null,
    null,
    null,
    null
  ]
}