{
  "id": 3235,
  "tableId": 44,
  "columnTypes": [
    [
      "STRING"
    ],
    [
      "STRING"
    ],
    [
      "STRING"
    ],
    [
      "INTEGER"
    ],
    [
      "MIDI"
    ],
    [
      "INTEGER",
      "INTEGER"
    ],
    null,
    null,
    null,
    null,
    null
  ],
  "columnValues": [
    [
      "Xenophobe"
    ],
    [
      "Xenophobe"
    ],
    [
      "in the Waterbirth Island Dungeon."
    ],
    [
      291
    ],
    [
      524
    ],
    [
      12,
      14
    ],
    null,
    null,
    null,
    null,
    null
  ]
}