{
  "id": 3247,
  "tableId": 44,
  "columnTypes": [
    [
      "STRING"
    ],
    [
      "STRING"
    ],
    [
      "STRING"
    ],
    [
      "INTEGER"
    ],
    [
      "MIDI"
    ],
    [
      "INTEGER",
      "INTEGER"
    ],
    null,
    null,
    null,
    null,
    null
  ],
  "columnValues": [
    [
      "Secrets of the North"
    ],
    [
      "Secrets of the North"
    ],
    [
      "during the Secrets of the North quest."
    ],
    [
      522
    ],
    [
      743
    ],
    [
      23,
      9
    ],
    null,
    null,
    null,
    null,
    null
  ]
}