{
  "id": 3284,
  "tableId": 39,
  "columnTypes": [
    [
      "STRING"
    ],
    null,
    null,
    [
      "ENUM"
    ],
    null,
    [
      "DBROW"
    ],
    null,
    [
      "INTEGER"
    ],
    null,
    null,
    [
      "STRING"
    ],
    null,
    null,
    null,
    null
  ],
  "columnValues": [
    [
      "Forestry Shop"
    ],
    null,
    null,
    [
      3746
    ],
    null,
    [
      3285,
      3286,
      3287,
      3439,
      3440,
      3441,
      3290,
      3291,
      3442,
      3292,
      3433,
      3434,
      3293,
      3435,
      3294,
      3295,
      3296,
      3297,
      3298,
      3299,
      3300,
      3301,
      3443,
      3444
    ],
    null,
    [
      800
    ],
    null,
    null,
    [
      "Welcome to The Forestry Shop."
    ],
    null,
    null,
    null,
    null
  ]
}