{
  "id": 3287,
  "tableId": 40,
  "columnTypes": [
    [
      "NAMEDOBJ"
    ],
    null,
    null,
    null,
    [
      "INTEGER"
    ],
    [
      "DBROW",
      "INTEGER"
    ],
    null,
    null,
    null,
    null,
    null,
    null,
    null,
    [
      "BOOLEAN"
    ],
    null,
    null
  ],
  "columnValues": [
    [
      28154
    ],
    null,
    null,
    null,
    [
      2
    ],
    [
      3302,
      150,
      3307,
      10
    ],
    null,
    null,
    null,
    null,
    null,
    null,
    null,
    [
      0
    ],
    null,
    null
  ]
}