{
  "id": 33,
  "tableId": 0,
  "columnTypes": [
    [
      "INTEGER"
    ],
    [
      "STRING"
    ],
    [
      "STRING"
    ],
    null,
    [
      "INTEGER"
    ],
    [
      "BOOLEAN"
    ],
    [
      "INTEGER"
    ],
    [
      "INTEGER"
    ],
    [
      "INTEGER"
    ],
    [
      "INTEGER",
      "INTEGER",
      "INTEGER"
    ],
    null,
    null,
    null,
    [
      "COORDGRID"
    ],
    [
      "NPC"
    ],
    null,
    [
      "MAPELEMENT"
    ],
    [
      "INTEGER"
    ],
    null,
    [
      "INTEGER"
    ],
    null,
    null,
    null,
    null,
    null,
    [
      "DBROW"
    ],
    null,
    [
      "INTEGER"
    ],
    null,
    null,
    null,
    null,
    null,
    [
      "INTEGER"
    ],
    [
      "INTEGER"
    ],
    [
      "BOOLEAN"
    ],
    [
      "INTEGER"
    ],
    [
      "STRING"
    ],
    [
      "BOOLEAN"
    ]
  ],
  "columnValues": [
    [
      134
    ],
    [
      "Dream Mentor"
    ],
    [
      "Dream Mentor"
    ],
    null,
    [
      0
    ],
    [
      1
    ],
    [
      3
    ],
    [
      2
    ],
    [
      23
    ],
    [
      15,
      5,
      2007
    ],
    null,
    null,
    null,
    [
      575154280
    ],
    [
      3465
    ],
    null,
    [
      729
    ],
    [
      2
    ],
    null,
    [
      28
    ],
    null,
    null,
    null,
    null,
    null,
    [
      88,
      36
    ],
    null,
    [
      85
    ],
    null,
    null,
    null,
    null,
    null,
    [
      2
    ],
    [
      0
    ],
    [
      1
    ],
    [
      2
    ],
    [
      "Learn how to cast more Lunar spells."
    ],
    [
      1
    ]
  ]
}