{
  "id": 3353,
  "tableId": 41,
  "columnTypes": [
    [
      "NAMEDOBJ"
    ],
    [
      "STRING"
    ],
    [
      "STRING"
    ],
    null
  ],
  "columnValues": [
    [
      995
    ],
    [
      "Free"
    ],
    [
      "Free"
    ],
    null
  ]
}