{
  "id": 3356,
  "tableId": 40,
  "columnTypes": [
    [
      "NAMEDOBJ"
    ],
    null,
    null,
    null,
    [
      "INTEGER"
    ],
    [
      "DBROW",
      "INTEGER"
    ],
    null,
    null,
    null,
    null,
    null,
    null,
    null,
    [
      "BOOLEAN"
    ],
    null,
    null
  ],
  "columnValues": [
    [
      28140
    ],
    null,
    null,
    null,
    [
      1,
      3
    ],
    [
      3302,
      5000,
      3304,
      300,
      3305,
      300
    ],
    null,
    null,
    null,
    null,
    null,
    null,
    null,
    [
      0
    ],
    null,
    null
  ]
}