{
  "id": 339,
  "tableId": 18,
  "columnTypes": [
    [
      "COORDGRID"
    ],
    [
      "STRING"
    ],
    [
      "STRING"
    ]
  ],
  "columnValues": [
    [
      28970617
    ],
    [
      "South of the Piscarilius mine."
    ],
    [
      "Piscarilius mine"
    ]
  ]
}