{
  "id": 3414,
  "tableId": 35,
  "columnTypes": [
    [
      "INTEGER"
    ],
    [
      "INTEGER"
    ],
    [
      "INTEGER"
    ],
    [
      "DBROW"
    ],
    [
      "BOOLEAN"
    ]
  ],
  "columnValues": [
    [
      3
    ],
    [
      6
    ],
    [
      1
    ],
    [
      3378,
      3378,
      3378,
      3378,
      3378,
      3378
    ],
    [
      1
    ]
  ]
}