{
  "id": 3416,
  "tableId": 44,
  "columnTypes": [
    [
      "STRING"
    ],
    [
      "STRING"
    ],
    [
      "STRING"
    ],
    [
      "INTEGER"
    ],
    [
      "MIDI"
    ],
    [
      "INTEGER",
      "INTEGER"
    ],
    null,
    null,
    null,
    null,
    null
  ],
  "columnValues": [
    [
      "Strangled"
    ],
    [
      "Strangled"
    ],
    [
      "during the Desert Treasure II - The Fallen Empire quest."
    ],
    [
      406
    ],
    [
      764
    ],
    [
      23,
      25
    ],
    null,
    null,
    null,
    null,
    null
  ]
}