{
  "id": 342,
  "tableId": 18,
  "columnTypes": [
    [
      "COORDGRID"
    ],
    [
      "STRING"
    ],
    [
      "STRING"
    ]
  ],
  "columnValues": [
    [
      27086325
    ],
    [
      "East of Watson's house."
    ],
    [
      "Watson's house"
    ]
  ]
}