{
  "id": 3420,
  "tableId": 44,
  "columnTypes": [
    [
      "STRING"
    ],
    [
      "STRING"
    ],
    [
      "STRING"
    ],
    [
      "INTEGER"
    ],
    [
      "MIDI"
    ],
    [
      "INTEGER",
      "INTEGER"
    ],
    null,
    null,
    null,
    null,
    null
  ],
  "columnValues": [
    [
      "Healin' Feelin'"
    ],
    [
      "Healin' Feelin'"
    ],
    [
      "during The Path of Glouphrie quest."
    ],
    [
      228
    ],
    [
      767
    ],
    [
      23,
      27
    ],
    null,
    null,
    null,
    null,
    null
  ]
}