{
  "id": 3430,
  "tableId": 34,
  "columnTypes": [
    [
      "INTEGER"
    ],
    [
      "INTEGER"
    ],
    [
      "NAMEDOBJ"
    ],
    [
      "STRING"
    ],
    [
      "STRING"
    ],
    [
      "STRING"
    ]
  ],
  "columnValues": [
    [
      6
    ],
    [
      4
    ],
    [
      28611
    ],
    [
      "Old"
    ],
    [
      "Provider of mental cobwebs."
    ],
    [
      "Old spider"
    ]
  ]
}