{
  "id": 3434,
  "tableId": 40,
  "columnTypes": [
    [
      "NAMEDOBJ"
    ],
    null,
    null,
    null,
    [
      "INTEGER"
    ],
    [
      "DBROW",
      "INTEGER"
    ],
    null,
    null,
    null,
    [
      "INTEGER"
    ],
    null,
    null,
    null,
    [
      "BOOLEAN"
    ],
    null,
    null
  ],
  "columnValues": [
    [
      28630
    ],
    null,
    null,
    null,
    [
      3
    ],
    [
      3302,
      5000,
      3305,
      500
    ],
    null,
    null,
    null,
    [
      1
    ],
    null,
    null,
    null,
    [
      0
    ],
    null,
    null
  ]
}