{
  "id": 3442,
  "tableId": 40,
  "columnTypes": [
    [
      "NAMEDOBJ"
    ],
    null,
    null,
    null,
    [
      "INTEGER"
    ],
    [
      "DBROW",
      "INTEGER"
    ],
    null,
    null,
    null,
    null,
    null,
    null,
    null,
    [
      "BOOLEAN"
    ],
    null,
    null
  ],
  "columnValues": [
    [
      28613
    ],
    null,
    null,
    null,
    [
      3
    ],
    [
      3302,
      2500
    ],
    null,
    null,
    null,
    null,
    null,
    null,
    null,
    [
      1
    ],
    null,
    null
  ]
}