{
  "id": 3445,
  "tableId": 44,
  "columnTypes": [
    [
      "STRING"
    ],
    [
      "STRING"
    ],
    [
      "STRING"
    ],
    [
      "INTEGER"
    ],
    [
      "MIDI"
    ],
    [
      "INTEGER",
      "INTEGER"
    ],
    [
      "INTEGER"
    ],
    null,
    null,
    [
      "INTEGER"
    ],
    null
  ],
  "columnValues": [
    [
      "Dot's Yuletide"
    ],
    [
      "Dot's Yuletide"
    ],
    [
      "during a Christmas event."
    ],
    [
      190
    ],
    [
      773
    ],
    [
      24,
      0
    ],
    [
      15
    ],
    null,
    null,
    [
      3
    ],
    null
  ]
}