{
  "id": 346,
  "tableId": 18,
  "columnTypes": [
    [
      "COORDGRID"
    ],
    [
      "STRING"
    ],
    [
      "STRING"
    ]
  ],
  "columnValues": [
    [
      19451388
    ],
    [
      "South-west of the Kebos Swamp, below the crimson swifts."
    ],
    [
      "Kebos Swamp (SW)"
    ]
  ]
}