{
  "id": 3478,
  "tableId": 18,
  "columnTypes": [
    [
      "COORDGRID"
    ],
    [
      "STRING"
    ],
    null
  ],
  "columnValues": [
    [
      27773870
    ],
    [
      "Amongst the trees at the Locus Oasis in Varlamore"
    ],
    null
  ]
}