{
  "id": 3481,
  "tableId": 18,
  "columnTypes": [
    [
      "COORDGRID"
    ],
    [
      "STRING"
    ],
    null
  ],
  "columnValues": [
    [
      26971076
    ],
    [
      "Near fairy ring (AJP)"
    ],
    null
  ]
}