{
  "id": 3482,
  "tableId": 18,
  "columnTypes": [
    [
      "COORDGRID"
    ],
    [
      "STRING"
    ],
    null
  ],
  "columnValues": [
    [
      25513071
    ],
    [
      "North of Ortus Farm"
    ],
    null
  ]
}