{
  "id": 3493,
  "tableId": 15,
  "columnTypes": [
    [
      "NPC"
    ],
    null,
    [
      "COORDGRID"
    ],
    [
      "STRING"
    ]
  ],
  "columnValues": [
    [
      12809
    ],
    null,
    [
      29533472
    ],
    [
      "Inside the Fortis Colosseum."
    ]
  ]
}