{
  "id": 3506,
  "tableId": 7,
  "columnTypes": [
    [
      "INTEGER"
    ],
    [
      "INTEGER"
    ],
    [
      "STRING"
    ],
    [
      "DBROW"
    ],
    null,
    [
      "DBROW"
    ],
    [
      "INTEGER"
    ],
    null
  ],
  "columnValues": [
    [
      969
    ],
    [
      4
    ],
    [
      "0.42N 27.35W"
    ],
    [
      3482
    ],
    null,
    [
      1809,
      1810
    ],
    [
      21
    ],
    null
  ]
}