{
  "id": 3535,
  "tableId": 41,
  "columnTypes": [
    [
      "NAMEDOBJ"
    ],
    [
      "STRING"
    ],
    [
      "STRING"
    ],
    null
  ],
  "columnValues": [
    [
      11856
    ],
    [
      "Graceful Legs"
    ],
    [
      "Graceful Legs"
    ],
    null
  ]
}