{
  "id": 3538,
  "tableId": 40,
  "columnTypes": [
    [
      "NAMEDOBJ"
    ],
    null,
    null,
    null,
    null,
    [
      "DBROW",
      "INTEGER"
    ],
    null,
    null,
    null,
    [
      "INTEGER"
    ],
    null,
    null,
    null,
    [
      "BOOLEAN"
    ],
    null,
    null
  ],
  "columnValues": [
    [
      29484
    ],
    null,
    null,
    null,
    null,
    [
      620,
      1
    ],
    null,
    null,
    null,
    [
      0
    ],
    null,
    null,
    null,
    [
      0
    ],
    null,
    null
  ]
}