{
  "id": 3540,
  "tableId": 40,
  "columnTypes": [
    [
      "NAMEDOBJ"
    ],
    null,
    null,
    null,
    null,
    [
      "DBROW",
      "INTEGER"
    ],
    null,
    null,
    null,
    null,
    null,
    null,
    null,
    [
      "BOOLEAN"
    ],
    [
      "BOOLEAN"
    ],
    null
  ],
  "columnValues": [
    [
      3000
    ],
    null,
    null,
    null,
    null,
    [
      3531,
      10
    ],
    null,
    null,
    null,
    null,
    null,
    null,
    null,
    [
      0
    ],
    [
      1
    ],
    null
  ]
}