{
  "id": 3569,
  "tableId": 40,
  "columnTypes": [
    [
      "NAMEDOBJ"
    ],
    null,
    null,
    null,
    [
      "INTEGER"
    ],
    [
      "DBROW",
      "INTEGER"
    ],
    null,
    null,
    null,
    null,
    null,
    null,
    null,
    null,
    null,
    null
  ],
  "columnValues": [
    [
      8968
    ],
    null,
    null,
    null,
    [
      2
    ],
    [
      3545,
      3000
    ],
    null,
    null,
    null,
    null,
    null,
    null,
    null,
    null,
    null,
    null
  ]
}