{
  "id": 3587,
  "tableId": 34,
  "columnTypes": [
    [
      "INTEGER"
    ],
    [
      "INTEGER"
    ],
    [
      "NAMEDOBJ"
    ],
    [
      "STRING"
    ],
    [
      "STRING"
    ],
    [
      "STRING"
    ]
  ],
  "columnValues": [
    [
      8
    ],
    [
      2
    ],
    [
      29510
    ],
    [
      "Asexual"
    ],
    [
      "A humble shirt with a colourful crown motif on the back!"
    ],
    [
      "Asexual shirt"
    ]
  ]
}