{
  "id": 3606,
  "tableId": 44,
  "columnTypes": [
    [
      "STRING"
    ],
    [
      "STRING"
    ],
    [
      "STRING"
    ],
    [
      "INTEGER"
    ],
    [
      "MIDI"
    ],
    null,
    null,
    null,
    [
      "BOOLEAN"
    ],
    null,
    [
      "DBROW"
    ]
  ],
  "columnValues": [
    [
      "Sound of Guthix, The"
    ],
    [
      "The Sound of Guthix"
    ],
    [
      "during the While Guthix Sleeps quest."
    ],
    [
      421
    ],
    [
      796
    ],
    null,
    null,
    null,
    [
      1
    ],
    null,
    [
      3605
    ]
  ]
}