{
  "id": 361,
  "tableId": 18,
  "columnTypes": [
    [
      "COORDGRID"
    ],
    [
      "STRING"
    ],
    null
  ],
  "columnValues": [
    [
      51006588
    ],
    [
      "On the bridge to the Misthalin Wizards' Tower."
    ],
    null
  ]
}