{
  "id": 3614,
  "tableId": 37,
  "columnTypes": [
    [
      "STRING"
    ],
    [
      "IDKIT"
    ],
    [
      "IDKIT"
    ],
    [
      "MODEL"
    ],
    null,
    null
  ],
  "columnValues": [
    [
      "Medium"
    ],
    [
      3
    ],
    [
      49
    ],
    [
      47819
    ],
    null,
    null
  ]
}