{
  "id": 3621,
  "tableId": 37,
  "columnTypes": [
    [
      "STRING"
    ],
    [
      "IDKIT"
    ],
    [
      "IDKIT"
    ],
    [
      "MODEL"
    ],
    null,
    null
  ],
  "columnValues": [
    [
      "Wind braids"
    ],
    [
      129
    ],
    [
      120
    ],
    [
      47786
    ],
    null,
    null
  ]
}