{
  "id": 3633,
  "tableId": 37,
  "columnTypes": [
    [
      "STRING"
    ],
    [
      "IDKIT"
    ],
    [
      "IDKIT"
    ],
    [
      "MODEL"
    ],
    null,
    null
  ],
  "columnValues": [
    [
      "Bob"
    ],
    [
      229
    ],
    [
      124
    ],
    [
      47822
    ],
    null,
    null
  ]
}