{
  "id": 3635,
  "tableId": 37,
  "columnTypes": [
    [
      "STRING"
    ],
    [
      "IDKIT"
    ],
    [
      "IDKIT"
    ],
    [
      "MODEL"
    ],
    null,
    null
  ],
  "columnValues": [
    [
      "Straight"
    ],
    [
      231
    ],
    [
      126
    ],
    [
      47833
    ],
    null,
    null
  ]
}