{
  "id": 3637,
  "tableId": 67,
  "columnTypes": [
    [
      "STRING"
    ],
    [
      "IDKIT"
    ],
    [
      "IDKIT"
    ],
    [
      "MODEL"
    ],
    [
      "MODEL"
    ]
  ],
  "columnValues": [
    [
      "Flares"
    ],
    [
      38
    ],
    [
      72
    ],
    [
      27639
    ],
    [
      15925
    ]
  ]
}