{
  "id": 3639,
  "tableId": 67,
  "columnTypes": [
    [
      "STRING"
    ],
    [
      "IDKIT"
    ],
    [
      "IDKIT"
    ],
    [
      "MODEL"
    ],
    [
      "MODEL"
    ]
  ],
  "columnValues": [
    [
      "Tatty"
    ],
    [
      40
    ],
    [
      75
    ],
    [
      28212
    ],
    [
      14424
    ]
  ]
}