{
  "id": 3647,
  "tableId": 67,
  "columnTypes": [
    [
      "STRING"
    ],
    [
      "IDKIT"
    ],
    [
      "IDKIT"
    ],
    [
      "MODEL"
    ],
    [
      "MODEL"
    ]
  ],
  "columnValues": [
    [
      "Skirt"
    ],
    [
      281
    ],
    [
      71
    ],
    [
      27623
    ],
    [
      433
    ]
  ]
}