{
  "id": 3656,
  "tableId": 67,
  "columnTypes": [
    [
      "STRING"
    ],
    [
      "IDKIT"
    ],
    [
      "IDKIT"
    ],
    [
      "MODEL"
    ],
    [
      "MODEL"
    ]
  ],
  "columnValues": [
    [
      "Torn Skirt"
    ],
    [
      290
    ],
    [
      139
    ],
    [
      28339
    ],
    [
      28363
    ]
  ]
}