{
  "id": 3657,
  "tableId": 67,
  "columnTypes": [
    [
      "STRING"
    ],
    [
      "IDKIT"
    ],
    [
      "IDKIT"
    ],
    [
      "MODEL"
    ],
    [
      "MODEL"
    ]
  ],
  "columnValues": [
    [
      "Patched Skirt"
    ],
    [
      291
    ],
    [
      140
    ],
    [
      28334
    ],
    [
      28359
    ]
  ]
}