{
  "id": 3663,
  "tableId": 66,
  "columnTypes": [
    [
      "STRING"
    ],
    [
      "IDKIT"
    ],
    [
      "IDKIT"
    ],
    [
      "MODEL"
    ],
    [
      "MODEL"
    ]
  ],
  "columnValues": [
    [
      "White Cuffs"
    ],
    [
      85
    ],
    [
      96
    ],
    [
      28343
    ],
    [
      28368
    ]
  ]
}