{
  "id": 367,
  "tableId": 18,
  "columnTypes": [
    [
      "COORDGRID"
    ],
    [
      "STRING"
    ],
    null
  ],
  "columnValues": [
    [
      52481121
    ],
    [
      "Near the shed in Lumbridge Swamp."
    ],
    null
  ]
}