{
  "id": 3673,
  "tableId": 66,
  "columnTypes": [
    [
      "STRING"
    ],
    [
      "IDKIT"
    ],
    [
      "IDKIT"
    ],
    [
      "MODEL"
    ],
    [
      "MODEL"
    ]
  ],
  "columnValues": [
    [
      "Bare Shoulders"
    ],
    [
      264
    ],
    [
      99
    ],
    [
      26633
    ],
    [
      28369
    ]
  ]
}