{
  "id": 3710,
  "tableId": 0,
  "columnTypes": [
    [
      "INTEGER"
    ],
    [
      "STRING"
    ],
    [
      "STRING"
    ],
    null,
    [
      "INTEGER"
    ],
    [
      "BOOLEAN"
    ],
    [
      "INTEGER"
    ],
    [
      "INTEGER"
    ],
    [
      "INTEGER"
    ],
    [
      "INTEGER",
      "INTEGER",
      "INTEGER"
    ],
    [
      "INTEGER"
    ],
    [
      "INTEGER"
    ],
    null,
    [
      "COORDGRID"
    ],
    [
      "NPC"
    ],
    null,
    [
      "MAPELEMENT"
    ],
    [
      "INTEGER"
    ],
    null,
    [
      "INTEGER"
    ],
    null,
    null,
    null,
    [
      "STAT",
      "INTEGER"
    ],
    null,
    [
      "DBROW"
    ],
    null,
    null,
    [
      "INTEGER"
    ],
    null,
    null,
    null,
    null,
    [
      "INTEGER"
    ],
    [
      "INTEGER"
    ],
    [
      "BOOLEAN"
    ],
    [
      "INTEGER"
    ],
    [
      "STRING"
    ],
    [
      "BOOLEAN"
    ]
  ],
  "columnValues": [
    [
      194
    ],
    [
      "Heart of Darkness, The"
    ],
    [
      "The Heart of Darkness"
    ],
    null,
    [
      0
    ],
    [
      1
    ],
    [
      2
    ],
    [
      2
    ],
    [
      51
    ],
    [
      25,
      9,
      2024
    ],
    [
      22
    ],
    [
      3
    ],
    null,
    [
      23809125
    ],
    [
      13379
    ],
    null,
    [
      957
    ],
    [
      2
    ],
    null,
    [
      76
    ],
    null,
    null,
    null,
    [
      14,
      55,
      17,
      48,
      18,
      48,
      16,
      46
    ],
    null,
    [
      3512
    ],
    null,
    null,
    [
      65
    ],
    null,
    null,
    null,
    null,
    [
      0
    ],
    [
      0
    ],
    [
      1
    ],
    [
      2
    ],
    [
      "Uncover the secrets of a mysterious cult and unlock a new dungeon."
    ],
    [
      1
    ]
  ]
}