{
  "id": 3740,
  "tableId": 44,
  "columnTypes": [
    [
      "STRING"
    ],
    [
      "STRING"
    ],
    [
      "STRING"
    ],
    [
      "INTEGER"
    ],
    [
      "MIDI"
    ],
    [
      "INTEGER",
      "INTEGER"
    ],
    [
      "INTEGER"
    ],
    null,
    null,
    null,
    null
  ],
  "columnValues": [
    [
      "Peace and Prosperity"
    ],
    [
      "Peace and Prosperity"
    ],
    [
      "on Aldarin."
    ],
    [
      355
    ],
    [
      804
    ],
    [
      25,
      2
    ],
    [
      27
    ],
    null,
    null,
    null,
    null
  ]
}