{
  "id": 3742,
  "tableId": 18,
  "columnTypes": [
    [
      "COORDGRID"
    ],
    [
      "STRING"
    ],
    null
  ],
  "columnValues": [
    [
      22776686
    ],
    [
      "Outside the bank on Aldarin"
    ],
    null
  ]
}