{
  "id": 3745,
  "tableId": 44,
  "columnTypes": [
    [
      "STRING"
    ],
    [
      "STRING"
    ],
    [
      "STRING"
    ],
    [
      "INTEGER"
    ],
    [
      "MIDI"
    ],
    [
      "INTEGER",
      "INTEGER"
    ],
    null,
    null,
    null,
    null,
    [
      "DBROW"
    ]
  ],
  "columnValues": [
    [
      "Matter of Intrigue, A"
    ],
    [
      "A Matter of Intrigue"
    ],
    [
      "during the Twilight's Promise quest."
    ],
    [
      182
    ],
    [
      810
    ],
    [
      25,
      3
    ],
    null,
    null,
    null,
    null,
    [
      3448
    ]
  ]
}