{
  "id": 3757,
  "tableId": 40,
  "columnTypes": [
    [
      "NAMEDOBJ"
    ],
    null,
    null,
    null,
    null,
    [
      "DBROW",
      "INTEGER"
    ],
    null,
    null,
    null,
    null,
    [
      "INTEGER"
    ],
    null,
    null,
    [
      "BOOLEAN"
    ],
    null,
    null
  ],
  "columnValues": [
    [
      29978
    ],
    null,
    null,
    null,
    null,
    [
      3748,
      2250,
      3747,
      2250,
      3749,
      4750
    ],
    null,
    null,
    null,
    null,
    [
      1
    ],
    null,
    null,
    [
      1
    ],
    null,
    null
  ]
}