{
  "id": 376,
  "tableId": 18,
  "columnTypes": [
    [
      "COORDGRID"
    ],
    [
      "STRING"
    ],
    null
  ],
  "columnValues": [
    [
      50597128
    ],
    [
      "Draynor Manor by the fountain."
    ],
    null
  ]
}