{
  "id": 3765,
  "tableId": 41,
  "columnTypes": [
    [
      "NAMEDOBJ"
    ],
    [
      "STRING"
    ],
    [
      "STRING"
    ],
    null
  ],
  "columnValues": [
    [
      30038
    ],
    [
      "Termite"
    ],
    [
      "Termites"
    ],
    null
  ]
}