{
  "id": 3784,
  "tableId": 72,
  "columnTypes": [
    [
      "INTEGER"
    ],
    [
      "STRING"
    ],
    [
      "COORDGRID"
    ],
    [
      "COMPONENT"
    ]
  ],
  "columnValues": [
    [
      1
    ],
    [
      "The Darkfrost"
    ],
    [
      24415444
    ],
    [
      57606172
    ]
  ]
}