{
  "id": 3795,
  "tableId": 76,
  "columnTypes": [
    [
      "INTEGER"
    ],
    [
      "STRING"
    ],
    [
      "COMPONENT"
    ],
    [
      "COMPONENT"
    ]
  ],
  "columnValues": [
    [
      8
    ],
    [
      "Karamja Shipyard"
    ],
    [
      4718605
    ],
    [
      4718604
    ]
  ]
}