{
  "id": 3802,
  "tableId": 76,
  "columnTypes": [
    [
      "INTEGER"
    ],
    [
      "STRING"
    ],
    [
      "COMPONENT"
    ],
    [
      "COMPONENT"
    ]
  ],
  "columnValues": [
    [
      15
    ],
    [
      "Aldarin"
    ],
    [
      4718641
    ],
    [
      4718640
    ]
  ]
}