{
  "id": 3804,
  "tableId": 76,
  "columnTypes": [
    [
      "INTEGER"
    ],
    [
      "STRING"
    ],
    [
      "COMPONENT"
    ],
    [
      "COMPONENT"
    ]
  ],
  "columnValues": [
    [
      17
    ],
    [
      "Tempestus"
    ],
    [
      4718647
    ],
    [
      4718646
    ]
  ]
}