{
  "id": 3806,
  "tableId": 77,
  "columnTypes": [
    [
      "INTEGER"
    ],
    [
      "COMPONENT"
    ],
    [
      "COMPONENT"
    ],
    [
      "COMPONENT"
    ],
    [
      "COMPONENT"
    ]
  ],
  "columnValues": [
    [
      0
    ],
    [
      983094
    ],
    [
      983109
    ],
    [
      983107
    ],
    [
      983108
    ]
  ]
}