{
  "id": 383,
  "tableId": 18,
  "columnTypes": [
    [
      "COORDGRID"
    ],
    [
      "STRING"
    ],
    null
  ],
  "columnValues": [
    [
      52579748
    ],
    [
      "Varrock Palace library."
    ],
    null
  ]
}