{
  "id": 398,
  "tableId": 18,
  "columnTypes": [
    [
      "COORDGRID"
    ],
    [
      "STRING"
    ],
    null
  ],
  "columnValues": [
    [
      24366643
    ],
    [
      "Shayzien war tent."
    ],
    null
  ]
}