{
  "id": 416,
  "tableId": 18,
  "columnTypes": [
    [
      "COORDGRID"
    ],
    [
      "STRING"
    ],
    null
  ],
  "columnValues": [
    [
      49581685
    ],
    [
      "Noterazzo's shop in the wilderness."
    ],
    null
  ]
}