{
  "id": 431,
  "tableId": 18,
  "columnTypes": [
    [
      "COORDGRID"
    ],
    [
      "STRING"
    ],
    null
  ],
  "columnValues": [
    [
      50597046
    ],
    [
      "Behind Miss Schism in Draynor Village."
    ],
    null
  ]
}