{
  "id": 463,
  "tableId": 18,
  "columnTypes": [
    [
      "COORDGRID"
    ],
    [
      "STRING"
    ],
    null
  ],
  "columnValues": [
    [
      47303762
    ],
    [
      "West of Banana plantation on Karamja."
    ],
    null
  ]
}