{
  "id": 469,
  "tableId": 18,
  "columnTypes": [
    [
      "COORDGRID"
    ],
    [
      "STRING"
    ],
    null
  ],
  "columnValues": [
    [
      44190855
    ],
    [
      "Moss Giant Island, west of Brimhaven."
    ],
    null
  ]
}