{
  "id": 474,
  "tableId": 18,
  "columnTypes": [
    [
      "COORDGRID"
    ],
    [
      "STRING"
    ],
    null
  ],
  "columnValues": [
    [
      38046709
    ],
    [
      "South-west of Castle wars. Fairy ring (BKP)."
    ],
    null
  ]
}