{
  "id": 476,
  "tableId": 18,
  "columnTypes": [
    [
      "COORDGRID"
    ],
    [
      "STRING"
    ],
    null
  ],
  "columnValues": [
    [
      46681049
    ],
    [
      "West of the Nature Altar. Fairy ring (CKR)."
    ],
    null
  ]
}