{
  "id": 486,
  "tableId": 18,
  "columnTypes": [
    [
      "COORDGRID"
    ],
    [
      "STRING"
    ],
    null
  ],
  "columnValues": [
    [
      39112043
    ],
    [
      "West of Tree Gnome Stronghold, near the pen containing terrorbirds."
    ],
    null
  ]
}