{
  "id": 504,
  "tableId": 18,
  "columnTypes": [
    [
      "COORDGRID"
    ],
    [
      "STRING"
    ],
    null
  ],
  "columnValues": [
    [
      36195417
    ],
    [
      "North-east of Tyras Camp (BJS if 76 Agility)."
    ],
    null
  ]
}