{
  "id": 508,
  "tableId": 18,
  "columnTypes": [
    [
      "COORDGRID"
    ],
    [
      "STRING"
    ],
    null
  ],
  "columnValues": [
    [
      44223667
    ],
    [
      "Little island (AIR)."
    ],
    null
  ]
}