{
  "id": 531,
  "tableId": 18,
  "columnTypes": [
    [
      "COORDGRID"
    ],
    [
      "STRING"
    ],
    null
  ],
  "columnValues": [
    [
      54103664
    ],
    [
      "Wilderness. West of eastern green dragon."
    ],
    null
  ]
}