{
  "id": 545,
  "tableId": 18,
  "columnTypes": [
    [
      "COORDGRID"
    ],
    [
      "STRING"
    ],
    null
  ],
  "columnValues": [
    [
      61771577
    ],
    [
      "Small Island north of Fossil Island."
    ],
    null
  ]
}