{
  "id": 587,
  "tableId": 18,
  "columnTypes": [
    [
      "COORDGRID"
    ],
    [
      "STRING"
    ],
    null
  ],
  "columnValues": [
    [
      47058785
    ],
    [
      "Weiss."
    ],
    null
  ]
}