{
  "id": 591,
  "tableId": 18,
  "columnTypes": [
    [
      "COORDGRID"
    ],
    [
      "STRING"
    ],
    null
  ],
  "columnValues": [
    [
      37981066
    ],
    [
      "North-east corner of the Isle of Souls."
    ],
    null
  ]
}