{
  "id": 602,
  "tableId": 18,
  "columnTypes": [
    [
      "COORDGRID"
    ],
    [
      "STRING"
    ],
    null
  ],
  "columnValues": [
    [
      37735680
    ],
    [
      "East of Prifddinas."
    ],
    null
  ]
}