{
  "id": 606,
  "tableId": 18,
  "columnTypes": [
    [
      "COORDGRID"
    ],
    [
      "STRING"
    ],
    null
  ],
  "columnValues": [
    [
      50548209
    ],
    [
      "Wilderness. Obelisk of Air."
    ],
    null
  ]
}