{
  "id": 610,
  "tableId": 18,
  "columnTypes": [
    [
      "COORDGRID"
    ],
    [
      "STRING"
    ],
    null
  ],
  "columnValues": [
    [
      20450983
    ],
    [
      "In the north wing of the Farming Guild."
    ],
    null
  ]
}