{
  "id": 62,
  "tableId": 0,
  "columnTypes": [
    [
      "INTEGER"
    ],
    [
      "STRING"
    ],
    [
      "STRING"
    ],
    null,
    [
      "INTEGER"
    ],
    [
      "BOOLEAN"
    ],
    [
      "INTEGER"
    ],
    [
      "INTEGER"
    ],
    [
      "INTEGER"
    ],
    [
      "INTEGER",
      "INTEGER",
      "INTEGER"
    ],
    null,
    null,
    null,
    [
      "COORDGRID"
    ],
    [
      "NPC"
    ],
    null,
    [
      "MAPELEMENT"
    ],
    [
      "INTEGER"
    ],
    null,
    [
      "INTEGER"
    ],
    null,
    null,
    null,
    [
      "STAT",
      "INTEGER"
    ],
    null,
    [
      "DBROW"
    ],
    null,
    null,
    [
      "INTEGER"
    ],
    [
      "BOOLEAN"
    ],
    [
      "BOOLEAN"
    ],
    null,
    null,
    [
      "INTEGER"
    ],
    [
      "INTEGER"
    ],
    [
      "BOOLEAN"
    ],
    [
      "INTEGER"
    ],
    [
      "STRING"
    ],
    [
      "BOOLEAN"
    ]
  ],
  "columnValues": [
    [
      73
    ],
    [
      "Ghosts Ahoy"
    ],
    [
      "Ghosts Ahoy"
    ],
    null,
    [
      0
    ],
    [
      1
    ],
    [
      1
    ],
    [
      2
    ],
    [
      29
    ],
    [
      15,
      2,
      2005
    ],
    null,
    null,
    null,
    [
      60247477
    ],
    [
      2985
    ],
    null,
    [
      754
    ],
    [
      2
    ],
    null,
    [
      8
    ],
    null,
    null,
    null,
    [
      16,
      25,
      7,
      20
    ],
    null,
    [
      111,
      120
    ],
    null,
    null,
    [
      15
    ],
    [
      0
    ],
    [
      1
    ],
    null,
    null,
    [
      1
    ],
    [
      0
    ],
    [
      1
    ],
    [
      1
    ],
    [
      "Gain access to Ectophial teleportation."
    ],
    [
      1
    ]
  ]
}