{
  "id": 621,
  "tableId": 18,
  "columnTypes": [
    [
      "COORDGRID"
    ],
    [
      "STRING"
    ],
    null
  ],
  "columnValues": [
    [
      28986714
    ],
    [
      "Crabclaw Isle."
    ],
    null
  ]
}