{
  "id": 635,
  "tableId": 18,
  "columnTypes": [
    [
      "COORDGRID"
    ],
    [
      "STRING"
    ],
    null
  ],
  "columnValues": [
    [
      41340571
    ],
    [
      "The entrance to the Waterbirth Island Dungeon."
    ],
    null
  ]
}