{
  "id": 637,
  "tableId": 18,
  "columnTypes": [
    [
      "COORDGRID"
    ],
    [
      "STRING"
    ],
    null
  ],
  "columnValues": [
    [
      38375005
    ],
    [
      "The furnace in Piscatoris Fishing Colony."
    ],
    null
  ]
}