{
  "id": 658,
  "tableId": 18,
  "columnTypes": [
    [
      "COORDGRID"
    ],
    [
      "STRING"
    ],
    null
  ],
  "columnValues": [
    [
      318296942
    ],
    [
      "Within the Rogues' Den."
    ],
    null
  ]
}