{
  "id": 662,
  "tableId": 18,
  "columnTypes": [
    [
      "COORDGRID"
    ],
    [
      "STRING"
    ],
    null
  ],
  "columnValues": [
    [
      50063458
    ],
    [
      "Among the fire giants in the Deep Wilderness Dungeon."
    ],
    null
  ]
}