{
  "id": 690,
  "tableId": 12,
  "columnTypes": [
    [
      "INTEGER"
    ],
    [
      "INTEGER"
    ],
    [
      "DBROW"
    ],
    null,
    [
      "DBROW"
    ],
    [
      "INTEGER"
    ],
    null
  ],
  "columnValues": [
    [
      140
    ],
    [
      5
    ],
    [
      214
    ],
    null,
    [
      1802
    ],
    [
      3
    ],
    null
  ]
}