{
  "id": 702,
  "tableId": 12,
  "columnTypes": [
    [
      "INTEGER"
    ],
    [
      "INTEGER"
    ],
    [
      "DBROW"
    ],
    null,
    [
      "DBROW"
    ],
    [
      "INTEGER"
    ],
    null
  ],
  "columnValues": [
    [
      152
    ],
    [
      5
    ],
    [
      226
    ],
    null,
    [
      1802
    ],
    [
      6
    ],
    null
  ]
}