{
  "id": 717,
  "tableId": 12,
  "columnTypes": [
    [
      "INTEGER"
    ],
    [
      "INTEGER"
    ],
    [
      "DBROW"
    ],
    null,
    [
      "DBROW"
    ],
    [
      "INTEGER"
    ],
    null
  ],
  "columnValues": [
    [
      169
    ],
    [
      5
    ],
    [
      243
    ],
    null,
    [
      1802
    ],
    [
      8
    ],
    null
  ]
}