{
  "id": 73,
  "tableId": 0,
  "columnTypes": [
    [
      "INTEGER"
    ],
    [
      "STRING"
    ],
    [
      "STRING"
    ],
    null,
    [
      "INTEGER"
    ],
    [
      "BOOLEAN"
    ],
    [
      "INTEGER"
    ],
    [
      "INTEGER"
    ],
    [
      "INTEGER"
    ],
    [
      "INTEGER",
      "INTEGER",
      "INTEGER"
    ],
    [
      "INTEGER"
    ],
    [
      "INTEGER"
    ],
    null,
    [
      "COORDGRID"
    ],
    [
      "NPC"
    ],
    null,
    [
      "MAPELEMENT"
    ],
    [
      "INTEGER"
    ],
    null,
    [
      "INTEGER"
    ],
    null,
    null,
    null,
    [
      "STAT",
      "INTEGER"
    ],
    null,
    [
      "DBROW"
    ],
    null,
    null,
    [
      "INTEGER"
    ],
    [
      "BOOLEAN"
    ],
    null,
    null,
    null,
    [
      "INTEGER"
    ],
    [
      "INTEGER"
    ],
    [
      "BOOLEAN"
    ],
    [
      "INTEGER"
    ],
    [
      "STRING"
    ],
    [
      "BOOLEAN"
    ]
  ],
  "columnValues": [
    [
      31
    ],
    [
      "Holy Grail"
    ],
    [
      "Holy Grail"
    ],
    null,
    [
      0
    ],
    [
      1
    ],
    [
      1
    ],
    [
      1
    ],
    [
      35
    ],
    [
      23,
      7,
      2002
    ],
    [
      0
    ],
    [
      2
    ],
    null,
    [
      45288891
    ],
    [
      3531
    ],
    null,
    [
      765
    ],
    [
      2
    ],
    null,
    [
      10
    ],
    null,
    null,
    null,
    [
      0,
      20
    ],
    null,
    [
      93
    ],
    null,
    null,
    [
      50
    ],
    [
      0
    ],
    null,
    null,
    null,
    [
      1
    ],
    [
      0
    ],
    [
      1
    ],
    [
      1
    ],
    [
      "Gain great Prayer and Defence XP."
    ],
    [
      1
    ]
  ]
}