{
  "id": 739,
  "tableId": 12,
  "columnTypes": [
    [
      "INTEGER"
    ],
    [
      "INTEGER"
    ],
    [
      "DBROW"
    ],
    null,
    [
      "DBROW"
    ],
    [
      "INTEGER"
    ],
    null
  ],
  "columnValues": [
    [
      192
    ],
    [
      5
    ],
    [
      266
    ],
    null,
    [
      1803
    ],
    [
      4
    ],
    null
  ]
}