{
  "id": 742,
  "tableId": 12,
  "columnTypes": [
    [
      "INTEGER"
    ],
    [
      "INTEGER"
    ],
    [
      "DBROW"
    ],
    null,
    [
      "DBROW"
    ],
    [
      "INTEGER"
    ],
    null
  ],
  "columnValues": [
    [
      195
    ],
    [
      5
    ],
    [
      269
    ],
    null,
    [
      1802
    ],
    [
      4
    ],
    null
  ]
}