{
  "id": 750,
  "tableId": 12,
  "columnTypes": [
    [
      "INTEGER"
    ],
    [
      "INTEGER"
    ],
    [
      "DBROW"
    ],
    null,
    [
      "DBROW"
    ],
    [
      "INTEGER"
    ],
    null
  ],
  "columnValues": [
    [
      203
    ],
    [
      5
    ],
    [
      277
    ],
    null,
    [
      1802
    ],
    [
      2
    ],
    null
  ]
}