{
  "id": 757,
  "tableId": 12,
  "columnTypes": [
    [
      "INTEGER"
    ],
    [
      "INTEGER"
    ],
    [
      "DBROW"
    ],
    null,
    [
      "DBROW"
    ],
    [
      "INTEGER"
    ],
    null
  ],
  "columnValues": [
    [
      211
    ],
    [
      5
    ],
    [
      285
    ],
    null,
    [
      1802
    ],
    [
      1
    ],
    null
  ]
}