{
  "id": 759,
  "tableId": 12,
  "columnTypes": [
    [
      "INTEGER"
    ],
    [
      "INTEGER"
    ],
    [
      "DBROW"
    ],
    null,
    [
      "DBROW"
    ],
    [
      "INTEGER"
    ],
    null
  ],
  "columnValues": [
    [
      213
    ],
    [
      5
    ],
    [
      287
    ],
    null,
    [
      1802
    ],
    [
      1
    ],
    null
  ]
}