{
  "id": 760,
  "tableId": 12,
  "columnTypes": [
    [
      "INTEGER"
    ],
    [
      "INTEGER"
    ],
    [
      "DBROW"
    ],
    null,
    [
      "DBROW"
    ],
    [
      "INTEGER"
    ],
    null
  ],
  "columnValues": [
    [
      214
    ],
    [
      5
    ],
    [
      288
    ],
    null,
    [
      1802
    ],
    [
      1
    ],
    null
  ]
}