{
  "id": 77,
  "tableId": 0,
  "columnTypes": [
    [
      "INTEGER"
    ],
    [
      "STRING"
    ],
    [
      "STRING"
    ],
    null,
    [
      "INTEGER"
    ],
    [
      "BOOLEAN"
    ],
    [
      "INTEGER"
    ],
    [
      "INTEGER"
    ],
    [
      "INTEGER"
    ],
    [
      "INTEGER",
      "INTEGER",
      "INTEGER"
    ],
    [
      "INTEGER"
    ],
    [
      "INTEGER"
    ],
    null,
    [
      "COORDGRID"
    ],
    [
      "NPC"
    ],
    null,
    [
      "MAPELEMENT"
    ],
    [
      "INTEGER"
    ],
    null,
    [
      "INTEGER"
    ],
    null,
    null,
    null,
    [
      "STAT",
      "INTEGER"
    ],
    null,
    [
      "DBROW"
    ],
    null,
    null,
    [
      "INTEGER"
    ],
    [
      "BOOLEAN"
    ],
    [
      "BOOLEAN"
    ],
    null,
    null,
    [
      "INTEGER"
    ],
    [
      "INTEGER"
    ],
    [
      "BOOLEAN"
    ],
    [
      "INTEGER"
    ],
    [
      "STRING"
    ],
    [
      "BOOLEAN"
    ]
  ],
  "columnValues": [
    [
      107
    ],
    [
      "In Aid of the Myreque"
    ],
    [
      "In Aid of the Myreque"
    ],
    null,
    [
      0
    ],
    [
      1
    ],
    [
      1
    ],
    [
      2
    ],
    [
      6
    ],
    [
      10,
      1,
      2006
    ],
    [
      10
    ],
    [
      2
    ],
    null,
    [
      57452141
    ],
    [
      9620
    ],
    null,
    [
      769
    ],
    [
      2
    ],
    null,
    [
      430
    ],
    null,
    null,
    null,
    [
      12,
      25,
      14,
      15,
      6,
      7
    ],
    null,
    [
      79
    ],
    null,
    null,
    [
      45
    ],
    [
      0
    ],
    [
      1
    ],
    null,
    null,
    [
      1
    ],
    [
      3
    ],
    [
      1
    ],
    [
      1
    ],
    [
      "Gain access to the Temple Trekking minigame."
    ],
    [
      1
    ]
  ]
}