{
  "id": 799,
  "tableId": 12,
  "columnTypes": [
    [
      "INTEGER"
    ],
    [
      "INTEGER"
    ],
    [
      "DBROW"
    ],
    null,
    [
      "DBROW"
    ],
    [
      "INTEGER"
    ],
    null
  ],
  "columnValues": [
    [
      254
    ],
    [
      5
    ],
    [
      328
    ],
    null,
    [
      1802
    ],
    [
      10
    ],
    null
  ]
}