{
  "id": 803,
  "tableId": 12,
  "columnTypes": [
    [
      "INTEGER"
    ],
    [
      "INTEGER"
    ],
    [
      "DBROW"
    ],
    null,
    [
      "DBROW"
    ],
    [
      "INTEGER"
    ],
    null
  ],
  "columnValues": [
    [
      258
    ],
    [
      5
    ],
    [
      332
    ],
    null,
    [
      1802
    ],
    [
      10
    ],
    null
  ]
}