{
  "id": 804,
  "tableId": 12,
  "columnTypes": [
    [
      "INTEGER"
    ],
    [
      "INTEGER"
    ],
    [
      "DBROW"
    ],
    null,
    [
      "DBROW"
    ],
    [
      "INTEGER"
    ],
    null
  ],
  "columnValues": [
    [
      259
    ],
    [
      5
    ],
    [
      333
    ],
    null,
    [
      1802
    ],
    [
      10
    ],
    null
  ]
}