{
  "id": 808,
  "tableId": 12,
  "columnTypes": [
    [
      "INTEGER"
    ],
    [
      "INTEGER"
    ],
    [
      "DBROW"
    ],
    null,
    [
      "DBROW"
    ],
    [
      "INTEGER"
    ],
    null
  ],
  "columnValues": [
    [
      263
    ],
    [
      5
    ],
    [
      337
    ],
    null,
    [
      1802
    ],
    [
      10
    ],
    null
  ]
}