{
  "id": 820,
  "tableId": 20,
  "columnTypes": [
    [
      "NPC"
    ],
    null,
    [
      "STRING"
    ]
  ],
  "columnValues": [
    [
      2916,
      2917
    ],
    null,
    [
      "Kill a waterfiend."
    ]
  ]
}