{
  "id": 821,
  "tableId": 20,
  "columnTypes": [
    [
      "NPC"
    ],
    null,
    [
      "STRING"
    ]
  ],
  "columnValues": [
    [
      9282,
      9283,
      9284,
      9285,
      9286,
      9287,
      9288,
      9293,
      9294,
      9295,
      9296,
      9297,
      417,
      418
    ],
    null,
    [
      "Kill a basilisk."
    ]
  ]
}