{
  "id": 823,
  "tableId": 20,
  "columnTypes": [
    [
      "NPC"
    ],
    null,
    [
      "STRING"
    ]
  ],
  "columnValues": [
    [
      100,
      102
    ],
    null,
    [
      "Kill a rock crab."
    ]
  ]
}