{
  "id": 824,
  "tableId": 20,
  "columnTypes": [
    [
      "NPC"
    ],
    null,
    [
      "STRING"
    ]
  ],
  "columnValues": [
    [
      3138,
      7276,
      9610,
      9611,
      484,
      485,
      486,
      487
    ],
    null,
    [
      "Kill a Bloodveld."
    ]
  ]
}