{
  "id": 826,
  "tableId": 20,
  "columnTypes": [
    [
      "NPC"
    ],
    null,
    [
      "STRING"
    ]
  ],
  "columnValues": [
    [
      7868,
      7869,
      7870,
      260,
      261,
      262,
      263,
      264,
      2918
    ],
    null,
    [
      "Kill a green or brutal green dragon."
    ]
  ]
}