{
  "id": 836,
  "tableId": 15,
  "columnTypes": [
    [
      "NPC"
    ],
    null,
    [
      "COORDGRID"
    ],
    [
      "STRING"
    ]
  ],
  "columnValues": [
    [
      2892
    ],
    null,
    [
      49581230
    ],
    [
      "Port Sarim battleaxe shop."
    ]
  ]
}