{
  "id": 846,
  "tableId": 15,
  "columnTypes": [
    [
      "NPC"
    ],
    null,
    [
      "COORDGRID"
    ],
    [
      "STRING"
    ]
  ],
  "columnValues": [
    [
      5067
    ],
    null,
    [
      44485862
    ],
    [
      "North Witchaven next to the row boat. After the Sea Slug quest, she is found wandering the coast."
    ]
  ]
}