{
  "id": 858,
  "tableId": 15,
  "columnTypes": [
    [
      "NPC"
    ],
    null,
    [
      "COORDGRID"
    ],
    [
      "STRING"
    ]
  ],
  "columnValues": [
    [
      3647
    ],
    null,
    [
      48139344
    ],
    [
      "In the Banana plantation on Musa Point."
    ]
  ]
}