{
  "id": 863,
  "tableId": 15,
  "columnTypes": [
    [
      "NPC"
    ],
    null,
    [
      "COORDGRID"
    ],
    [
      "STRING"
    ]
  ],
  "columnValues": [
    [
      1471
    ],
    null,
    [
      43092917
    ],
    [
      "Rantz's cave, east of Feldip Hills."
    ]
  ]
}