{
  "id": 865,
  "tableId": 15,
  "columnTypes": [
    [
      "NPC"
    ],
    [
      "NPC"
    ],
    [
      "COORDGRID"
    ],
    [
      "STRING"
    ]
  ],
  "columnValues": [
    [
      490
    ],
    [
      6797
    ],
    [
      39849311
    ],
    [
      "The slayer cave in Tree Gnome Stronghold."
    ]
  ]
}