{
  "id": 867,
  "tableId": 15,
  "columnTypes": [
    [
      "NPC"
    ],
    null,
    [
      "COORDGRID"
    ],
    [
      "STRING"
    ]
  ],
  "columnValues": [
    [
      5215
    ],
    null,
    [
      52759956
    ],
    [
      "Ground floor of Varrock Palace."
    ]
  ]
}