{
  "id": 871,
  "tableId": 15,
  "columnTypes": [
    [
      "NPC"
    ],
    null,
    [
      "COORDGRID"
    ],
    [
      "STRING"
    ]
  ],
  "columnValues": [
    [
      4256
    ],
    null,
    [
      42044676
    ],
    [
      "North-western house in East Ardougne."
    ]
  ]
}