{
  "id": 884,
  "tableId": 15,
  "columnTypes": [
    [
      "NPC"
    ],
    null,
    [
      "COORDGRID"
    ],
    [
      "STRING"
    ]
  ],
  "columnValues": [
    [
      306
    ],
    null,
    [
      53054612
    ],
    [
      "East of Lumbridge Castle."
    ]
  ]
}