{
  "id": 903,
  "tableId": 15,
  "columnTypes": [
    [
      "NPC"
    ],
    null,
    [
      "COORDGRID"
    ],
    [
      "STRING"
    ]
  ],
  "columnValues": [
    [
      2574
    ],
    null,
    [
      308530522
    ],
    [
      "Southern Tree Gnome Stronghold Bank."
    ]
  ]
}