{
  "id": 913,
  "tableId": 15,
  "columnTypes": [
    [
      "NPC"
    ],
    null,
    [
      "COORDGRID"
    ],
    [
      "STRING"
    ]
  ],
  "columnValues": [
    [
      11060
    ],
    null,
    [
      25054702
    ],
    [
      "Great Kourend."
    ]
  ]
}