{
  "id": 918,
  "tableId": 15,
  "columnTypes": [
    [
      "NPC"
    ],
    null,
    [
      "COORDGRID"
    ],
    [
      "STRING"
    ]
  ],
  "columnValues": [
    [
      1082
    ],
    null,
    [
      41166864
    ],
    [
      "Miscellania and Etceteria Dungeon."
    ]
  ]
}