{
  "id": 923,
  "tableId": 15,
  "columnTypes": [
    [
      "NPC"
    ],
    null,
    [
      "COORDGRID"
    ],
    [
      "STRING"
    ]
  ],
  "columnValues": [
    [
      7953
    ],
    null,
    [
      308644645
    ],
    [
      "Myths' Guild."
    ]
  ]
}