{
  "id": 931,
  "tableId": 15,
  "columnTypes": [
    [
      "NPC"
    ],
    null,
    [
      "COORDGRID"
    ],
    [
      "STRING"
    ]
  ],
  "columnValues": [
    [
      3606
    ],
    null,
    [
      42110130
    ],
    [
      "Brother Kojo in the Clock Tower."
    ]
  ]
}