{
  "id": 938,
  "tableId": 15,
  "columnTypes": [
    [
      "NPC"
    ],
    null,
    [
      "COORDGRID"
    ],
    [
      "STRING"
    ]
  ],
  "columnValues": [
    [
      1313
    ],
    null,
    [
      49892536
    ],
    [
      "The Rusty Anchor is located in the north of Port Sarim."
    ]
  ]
}