{
  "id": 94,
  "tableId": 0,
  "columnTypes": [
    [
      "INTEGER"
    ],
    [
      "STRING"
    ],
    [
      "STRING"
    ],
    null,
    [
      "INTEGER"
    ],
    [
      "BOOLEAN"
    ],
    [
      "INTEGER"
    ],
    [
      "INTEGER"
    ],
    [
      "INTEGER"
    ],
    [
      "INTEGER",
      "INTEGER",
      "INTEGER"
    ],
    null,
    null,
    null,
    [
      "COORDGRID"
    ],
    [
      "NPC"
    ],
    null,
    [
      "MAPELEMENT"
    ],
    [
      "INTEGER"
    ],
    null,
    [
      "INTEGER"
    ],
    null,
    null,
    null,
    null,
    null,
    null,
    null,
    null,
    null,
    null,
    null,
    null,
    null,
    [
      "INTEGER"
    ],
    [
      "INTEGER"
    ],
    [
      "BOOLEAN"
    ],
    [
      "INTEGER"
    ],
    null,
    null
  ],
  "columnValues": [
    [
      141
    ],
    [
      "Misthalin Mystery"
    ],
    [
      "Misthalin Mystery"
    ],
    null,
    [
      0
    ],
    [
      0
    ],
    [
      0
    ],
    [
      1
    ],
    [
      22
    ],
    [
      26,
      1,
      2017
    ],
    null,
    null,
    null,
    [
      53021780
    ],
    [
      7428,
      7429
    ],
    null,
    [
      782
    ],
    [
      1
    ],
    null,
    [
      135
    ],
    null,
    null,
    null,
    null,
    null,
    null,
    null,
    null,
    null,
    null,
    null,
    null,
    null,
    [
      0
    ],
    [
      0
    ],
    [
      1
    ],
    [
      0
    ],
    null,
    null
  ]
}