{
  "id": 944,
  "tableId": 15,
  "columnTypes": [
    [
      "NPC"
    ],
    null,
    [
      "COORDGRID"
    ],
    [
      "STRING"
    ]
  ],
  "columnValues": [
    [
      3281
    ],
    null,
    [
      48811371
    ],
    [
      "Rusty can be found north-east of Falador on the way to the Mind Altar."
    ]
  ]
}