{
  "id": 946,
  "tableId": 15,
  "columnTypes": [
    [
      "NPC"
    ],
    null,
    [
      "COORDGRID"
    ],
    [
      "STRING"
    ]
  ],
  "columnValues": [
    [
      5795
    ],
    null,
    [
      49909046
    ],
    [
      "Lucy is the bartender on the first floor of the Falador party room."
    ]
  ]
}