{
  "id": 95,
  "tableId": 0,
  "columnTypes": [
    [
      "INTEGER"
    ],
    [
      "STRING"
    ],
    [
      "STRING"
    ],
    null,
    [
      "INTEGER"
    ],
    [
      "BOOLEAN"
    ],
    [
      "INTEGER"
    ],
    [
      "INTEGER"
    ],
    [
      "INTEGER"
    ],
    [
      "INTEGER",
      "INTEGER",
      "INTEGER"
    ],
    [
      "INTEGER"
    ],
    [
      "INTEGER"
    ],
    null,
    [
      "COORDGRID"
    ],
    [
      "NPC"
    ],
    null,
    [
      "MAPELEMENT"
    ],
    [
      "INTEGER"
    ],
    null,
    [
      "INTEGER"
    ],
    null,
    null,
    null,
    null,
    null,
    [
      "DBROW"
    ],
    null,
    null,
    [
      "INTEGER"
    ],
    null,
    null,
    null,
    null,
    [
      "INTEGER"
    ],
    [
      "INTEGER"
    ],
    [
      "BOOLEAN"
    ],
    [
      "INTEGER"
    ],
    [
      "STRING"
    ],
    [
      "BOOLEAN"
    ]
  ],
  "columnValues": [
    [
      67
    ],
    [
      "Monkey Madness I"
    ],
    [
      "Monkey Madness I"
    ],
    null,
    [
      0
    ],
    [
      1
    ],
    [
      3
    ],
    [
      3
    ],
    [
      13
    ],
    [
      6,
      12,
      2004
    ],
    [
      8
    ],
    [
      4
    ],
    null,
    [
      40390055
    ],
    [
      1423
    ],
    null,
    [
      783
    ],
    [
      3
    ],
    null,
    [
      9
    ],
    null,
    null,
    null,
    null,
    null,
    [
      66,
      150
    ],
    null,
    null,
    [
      65
    ],
    null,
    null,
    null,
    null,
    [
      1
    ],
    [
      1
    ],
    [
      1
    ],
    [
      2
    ],
    [
      "Learn how to wield Dragon Scimitars."
    ],
    [
      1
    ]
  ]
}