{
  "id": 954,
  "tableId": 15,
  "columnTypes": [
    [
      "NPC"
    ],
    null,
    [
      "COORDGRID"
    ],
    [
      "STRING"
    ]
  ],
  "columnValues": [
    [
      2567
    ],
    null,
    [
      309202257
    ],
    [
      "The tree house south-east of the Gnome Agility Course."
    ]
  ]
}