{
  "id": 956,
  "tableId": 15,
  "columnTypes": [
    [
      "NPC"
    ],
    null,
    [
      "COORDGRID"
    ],
    [
      "STRING"
    ]
  ],
  "columnValues": [
    [
      6529
    ],
    null,
    [
      48254215
    ],
    [
      "The Falador gem store."
    ]
  ]
}