{
  "id": 959,
  "tableId": 15,
  "columnTypes": [
    [
      "NPC"
    ],
    null,
    [
      "COORDGRID"
    ],
    [
      "STRING"
    ]
  ],
  "columnValues": [
    [
      6964
    ],
    null,
    [
      30084810
    ],
    [
      "North-east corner of Port Piscarilius."
    ]
  ]
}