{
  "id": 986,
  "tableId": 15,
  "columnTypes": [
    [
      "NPC"
    ],
    null,
    [
      "COORDGRID"
    ],
    [
      "STRING"
    ]
  ],
  "columnValues": [
    [
      822
    ],
    null,
    [
      50269628
    ],
    [
      "In Edgeville."
    ]
  ]
}