{
  "id": 11796498,
  "isIf3": true,
  "type": 0,
  "contentType": 0,
  "originalX": 153,
  "originalY": 0,
  "originalWidth": 150,
  "originalHeight": 0,
  "widthMode": 0,
  "heightMode": 1,
  "xPositionMode": 0,
  "yPositionMode": 0,
  "parentId": 11796491,
  "isHidden": false,
  "scrollWidth": 0,
  "scrollHeight": 0,
  "noClickThrough": false,
  "spriteId": -1,
  "textureId": 0,
  "spriteTiling": false,
  "opacity": 0,
  "borderType": 0,
  "shadowColor": 0,
  "flippedVertically": false,
  "flippedHorizontally": false,
  "modelType": 1,
  "modelId": -1,
  "offsetX2d": 0,
  "offsetY2d": 0,
  "rotationX": 0,
  "rotationY": 0,
  "rotationZ": 0,
  "modelZoom": 100,
  "animation": -1,
  "orthogonal": false,
  "modelHeightOverride": 0,
  "fontId": -1,
  "text": "",
  "lineHeight": 0,
  "xTextAlignment": 0,
  "yTextAlignment": 0,
  "textShadowed": false,
  "textColor": 0,
  "filled": false,
  "lineWidth": 1,
  "lineDirection": false,
  "clickMask": 2,
  "name": "",
  "actions": [
    "Select"
  ],
  "dragDeadZone": 0,
  "dragDeadTime": 0,
  "dragRenderBehavior": false,
  "targetVerb": "",
  "onOpListener": [
    1330,
    -2147483645,
    11796493,
    11796494,
    11796495,
    11796496,
    11796498,
    11796499,
    11796500,
    11796501,
    11796484,
    11796483,
    11796488,
    11796487
  ],
  "hasListener": true,
  "menuType": 0,
  "hoveredSiblingId": 0,
  "xPitch": 0,
  "yPitch": 0,
  "alternateText": "",
  "alternateTextColor": 0,
  "hoveredTextColor": 0,
  "alternateHoveredTextColor": 0,
  "alternateSpriteId": -1,
  "alternateModelId": -1,
  "alternateAnimation": -1,
  "spellName": "",
  "tooltip": "Ok"
}