{
  "id": 4718616,
  "isIf3": true,
  "type": 6,
  "contentType": 0,
  "originalX": -6,
  "originalY": -6,
  "originalWidth": 32,
  "originalHeight": 32,
  "widthMode": 0,
  "heightMode": 0,
  "xPositionMode": 2,
  "yPositionMode": 0,
  "parentId": 4718615,
  "isHidden": false,
  "scrollWidth": 0,
  "scrollHeight": 0,
  "noClickThrough": false,
  "spriteId": -1,
  "textureId": 0,
  "spriteTiling": false,
  "opacity": 0,
  "borderType": 0,
  "shadowColor": 0,
  "flippedVertically": false,
  "flippedHorizontally": false,
  "modelType": 1,
  "modelId": 17360,
  "offsetX2d": 0,
  "offsetY2d": 0,
  "rotationX": 355,
  "rotationY": 0,
  "rotationZ": 0,
  "modelZoom": 400,
  "animation": -1,
  "orthogonal": false,
  "modelHeightOverride": 0,
  "fontId": -1,
  "text": "",
  "lineHeight": 0,
  "xTextAlignment": 0,
  "yTextAlignment": 0,
  "textShadowed": false,
  "textColor": 0,
  "filled": false,
  "lineWidth": 1,
  "lineDirection": false,
  "clickMask": 2,
  "name": "",
  "actions": [
    "Port Khazard"
  ],
  "dragDeadZone": 0,
  "dragDeadTime": 0,
  "dragRenderBehavior": false,
  "targetVerb": "",
  "onMouseOverListener": [
    7337,
    5,
    1
  ],
  "onOpListener": [
    489,
    -2147483644,
    2
  ],
  "hasListener": true,
  "menuType": 0,
  "hoveredSiblingId": 0,
  "xPitch": 0,
  "yPitch": 0,
  "alternateText": "",
  "alternateTextColor": 0,
  "hoveredTextColor": 0,
  "alternateHoveredTextColor": 0,
  "alternateSpriteId": -1,
  "alternateModelId": -1,
  "alternateAnimation": -1,
  "spellName": "",
  "tooltip": "Ok"
}