{
  "id": 10476,
  "name": "Leagues Assistant",
  "size": 1,
  "models": [
    408,
    38977,
    38974,
    10706,
    38972,
    38979,
    437
  ],
  "chatheadModels": [
    125,
    38999
  ],
  "standingAnimation": 808,
  "idleRotateLeftAnimation": -1,
  "idleRotateRightAnimation": -1,
  "walkingAnimation": 819,
  "rotate180Animation": 820,
  "rotateLeftAnimation": 821,
  "rotateRightAnimation": 822,
  "runAnimation": -1,
  "runRotate180Animation": -1,
  "runRotateLeftAnimation": -1,
  "runRotateRightAnimation": -1,
  "crawlAnimation": -1,
  "crawlRotate180Animation": -1,
  "crawlRotateLeftAnimation": -1,
  "crawlRotateRightAnimation": -1,
  "recolorToFind": [
    6798,
    4550
  ],
  "recolorToReplace": [
    7070,
    4413
  ],
  "actions": [
    "Talk-to",
    null,
    null,
    null,
    null
  ],
  "isMinimapVisible": true,
  "combatLevel": 0,
  "widthScale": 128,
  "heightScale": 128,
  "hasRenderPriority": true,
  "ambient": 0,
  "contrast": 0,
  "rotationSpeed": 32,
  "varbitId": -1,
  "varpIndex": -1,
  "isInteractable": true,
  "rotationFlag": true,
  "isFollower": false,
  "lowPriorityFollowerOps": false,
  "category": 922,
  "height": -1,
  "stats": [
    1,
    1,
    1,
    1,
    1,
    1
  ]
}