{
  "id": 10480,
  "name": "Captain Klemfoodle",
  "size": 1,
  "models": [
    2908,
    14824,
    14825
  ],
  "chatheadModels": [
    25874
  ],
  "standingAnimation": 195,
  "idleRotateLeftAnimation": -1,
  "idleRotateRightAnimation": -1,
  "walkingAnimation": 189,
  "rotate180Animation": -1,
  "rotateLeftAnimation": -1,
  "rotateRightAnimation": -1,
  "runAnimation": -1,
  "runRotate180Animation": -1,
  "runRotateLeftAnimation": -1,
  "runRotateRightAnimation": -1,
  "crawlAnimation": -1,
  "crawlRotate180Animation": -1,
  "crawlRotateLeftAnimation": -1,
  "crawlRotateRightAnimation": -1,
  "recolorToFind": [
    22426,
    22422,
    22040,
    5202,
    8747
  ],
  "recolorToReplace": [
    5797,
    5914,
    4626,
    5541,
    4626
  ],
  "actions": [
    "Glider",
    null,
    "Talk-to",
    "Glider-to Ta Quir Priw",
    null
  ],
  "isMinimapVisible": true,
  "combatLevel": 0,
  "widthScale": 128,
  "heightScale": 128,
  "hasRenderPriority": true,
  "ambient": 0,
  "contrast": 0,
  "rotationSpeed": 32,
  "varbitId": -1,
  "varpIndex": -1,
  "isInteractable": true,
  "rotationFlag": true,
  "isFollower": false,
  "lowPriorityFollowerOps": false,
  "category": 0,
  "height": -1,
  "stats": [
    1,
    1,
    1,
    1,
    1,
    1
  ]
}