{
  "id": 10498,
  "name": "Chicken",
  "size": 1,
  "models": [
    23905
  ],
  "standingAnimation": 5386,
  "idleRotateLeftAnimation": -1,
  "idleRotateRightAnimation": -1,
  "walkingAnimation": 5385,
  "rotate180Animation": -1,
  "rotateLeftAnimation": -1,
  "rotateRightAnimation": -1,
  "runAnimation": -1,
  "runRotate180Animation": -1,
  "runRotateLeftAnimation": -1,
  "runRotateRightAnimation": -1,
  "crawlAnimation": -1,
  "crawlRotate180Animation": -1,
  "crawlRotateLeftAnimation": -1,
  "crawlRotateRightAnimation": -1,
  "recolorToFind": [
    6474,
    6470,
    6466,
    8896
  ],
  "recolorToReplace": [
    5660,
    6932,
    7056,
    8121
  ],
  "actions": [
    null,
    "Attack",
    null,
    null,
    null
  ],
  "isMinimapVisible": true,
  "combatLevel": 1,
  "widthScale": 85,
  "heightScale": 85,
  "hasRenderPriority": false,
  "ambient": 15,
  "contrast": 0,
  "rotationSpeed": 32,
  "varbitId": -1,
  "varpIndex": -1,
  "isInteractable": true,
  "rotationFlag": true,
  "isFollower": false,
  "lowPriorityFollowerOps": false,
  "category": 444,
  "height": -1,
  "stats": [
    1,
    1,
    1,
    3,
    1,
    1
  ]
}