{
  "id": 11158,
  "name": "Sraracha",
  "size": 1,
  "models": [
    37290
  ],
  "chatheadModels": [
    37347
  ],
  "standingAnimation": 8320,
  "idleRotateLeftAnimation": -1,
  "idleRotateRightAnimation": -1,
  "walkingAnimation": 8319,
  "rotate180Animation": -1,
  "rotateLeftAnimation": -1,
  "rotateRightAnimation": -1,
  "runAnimation": -1,
  "runRotate180Animation": -1,
  "runRotateLeftAnimation": -1,
  "runRotateRightAnimation": -1,
  "crawlAnimation": -1,
  "crawlRotate180Animation": -1,
  "crawlRotateLeftAnimation": -1,
  "crawlRotateRightAnimation": -1,
  "recolorToFind": [
    229,
    348,
    412,
    555,
    670
  ],
  "recolorToReplace": [
    -29467,
    -30495,
    -26317,
    -25925,
    -25817
  ],
  "actions": [
    "Talk-to",
    null,
    "Pick-up",
    null,
    null
  ],
  "isMinimapVisible": false,
  "combatLevel": 0,
  "widthScale": 48,
  "heightScale": 48,
  "hasRenderPriority": false,
  "ambient": 30,
  "contrast": 30,
  "rotationSpeed": 32,
  "varbitId": -1,
  "varpIndex": -1,
  "isInteractable": true,
  "rotationFlag": true,
  "isFollower": false,
  "lowPriorityFollowerOps": false,
  "category": 764,
  "height": -1,
  "stats": [
    1,
    1,
    1,
    1,
    1,
    1
  ]
}