{
  "id": 1129,
  "name": "Kamil (hard)",
  "size": 1,
  "models": [
    219,
    268,
    251,
    164,
    179,
    185,
    3379,
    518,
    317
  ],
  "chatheadModels": [
    57,
    83
  ],
  "standingAnimation": 842,
  "idleRotateLeftAnimation": -1,
  "idleRotateRightAnimation": -1,
  "walkingAnimation": 841,
  "rotate180Animation": -1,
  "rotateLeftAnimation": -1,
  "rotateRightAnimation": -1,
  "runAnimation": -1,
  "runRotate180Animation": -1,
  "runRotateLeftAnimation": -1,
  "runRotateRightAnimation": -1,
  "crawlAnimation": -1,
  "crawlRotate180Animation": -1,
  "crawlRotateLeftAnimation": -1,
  "crawlRotateRightAnimation": -1,
  "recolorToFind": [
    4550,
    61,
    41,
    57
  ],
  "recolorToReplace": [
    5351,
    127,
    127,
    127
  ],
  "actions": [
    null,
    "Attack",
    null,
    null,
    null
  ],
  "isMinimapVisible": true,
  "combatLevel": 273,
  "widthScale": 128,
  "heightScale": 128,
  "hasRenderPriority": true,
  "ambient": 0,
  "contrast": 0,
  "rotationSpeed": 32,
  "varbitId": -1,
  "varpIndex": -1,
  "isInteractable": true,
  "rotationFlag": true,
  "isFollower": false,
  "lowPriorityFollowerOps": false,
  "category": 724,
  "height": -1,
  "stats": [
    380,
    135,
    160,
    255,
    1,
    1
  ]
}