{
  "id": 1557,
  "name": "Water wizard",
  "size": 1,
  "models": [
    9457,
    181,
    248,
    28515,
    26619,
    176,
    265,
    534,
    567,
    323
  ],
  "chatheadModels": [
    9446,
    80
  ],
  "standingAnimation": 813,
  "idleRotateLeftAnimation": -1,
  "idleRotateRightAnimation": -1,
  "walkingAnimation": 1205,
  "rotate180Animation": 1206,
  "rotateLeftAnimation": 1207,
  "rotateRightAnimation": 1208,
  "runAnimation": -1,
  "runRotate180Animation": -1,
  "runRotateLeftAnimation": -1,
  "runRotateRightAnimation": -1,
  "crawlAnimation": -1,
  "crawlRotate180Animation": -1,
  "crawlRotateLeftAnimation": -1,
  "crawlRotateRightAnimation": -1,
  "recolorToFind": [
    8741,
    25238,
    7700,
    926,
    11200,
    -22419
  ],
  "recolorToReplace": [
    -25047,
    -25047,
    -25706,
    -21612,
    -21612,
    -21568
  ],
  "actions": [
    null,
    "Attack",
    null,
    null,
    null
  ],
  "isMinimapVisible": true,
  "combatLevel": 13,
  "widthScale": 128,
  "heightScale": 128,
  "hasRenderPriority": false,
  "ambient": 0,
  "contrast": 0,
  "rotationSpeed": 32,
  "varbitId": -1,
  "varpIndex": -1,
  "isInteractable": true,
  "rotationFlag": true,
  "isFollower": false,
  "lowPriorityFollowerOps": false,
  "category": 423,
  "height": -1,
  "stats": [
    5,
    10,
    5,
    25,
    0,
    10
  ]
}