{
  "id": 1574,
  "name": "Woman-at-arms (hard)",
  "size": 1,
  "models": [
    395,
    468,
    337,
    10706,
    23178,
    23179,
    432,
    5031,
    481,
    437
  ],
  "chatheadModels": [
    117
  ],
  "standingAnimation": 808,
  "idleRotateLeftAnimation": -1,
  "idleRotateRightAnimation": -1,
  "walkingAnimation": 819,
  "rotate180Animation": 820,
  "rotateLeftAnimation": 821,
  "rotateRightAnimation": 822,
  "runAnimation": -1,
  "runRotate180Animation": -1,
  "runRotateLeftAnimation": -1,
  "runRotateRightAnimation": -1,
  "crawlAnimation": -1,
  "crawlRotate180Animation": -1,
  "crawlRotateLeftAnimation": -1,
  "crawlRotateRightAnimation": -1,
  "recolorToFind": [
    61,
    41,
    57,
    926,
    7700,
    11200
  ],
  "recolorToReplace": [
    -22239,
    -22254,
    -22239,
    1701,
    1581,
    1701
  ],
  "actions": [
    "Talk-to",
    null,
    "Escort",
    "Supply",
    null
  ],
  "isMinimapVisible": true,
  "combatLevel": 0,
  "widthScale": 128,
  "heightScale": 128,
  "hasRenderPriority": false,
  "ambient": 0,
  "contrast": 0,
  "rotationSpeed": 32,
  "varbitId": -1,
  "varpIndex": -1,
  "isInteractable": true,
  "rotationFlag": true,
  "isFollower": false,
  "lowPriorityFollowerOps": false,
  "category": 382,
  "height": -1,
  "stats": [
    10,
    10,
    10,
    30,
    10,
    10
  ]
}