{
  "id": 1622,
  "name": "Cat",
  "size": 1,
  "models": [
    3010,
    3006
  ],
  "chatheadModels": [
    6435
  ],
  "standingAnimation": 317,
  "idleRotateLeftAnimation": -1,
  "idleRotateRightAnimation": -1,
  "walkingAnimation": 314,
  "rotate180Animation": -1,
  "rotateLeftAnimation": -1,
  "rotateRightAnimation": -1,
  "runAnimation": -1,
  "runRotate180Animation": -1,
  "runRotateLeftAnimation": -1,
  "runRotateRightAnimation": -1,
  "crawlAnimation": -1,
  "crawlRotate180Animation": -1,
  "crawlRotateLeftAnimation": -1,
  "crawlRotateRightAnimation": -1,
  "recolorToFind": [
    61,
    16,
    127
  ],
  "recolorToReplace": [
    12,
    12,
    33
  ],
  "actions": [
    "Pick-up",
    null,
    "Talk-to",
    "Chase",
    "Interact"
  ],
  "isMinimapVisible": false,
  "combatLevel": 0,
  "widthScale": 60,
  "heightScale": 60,
  "hasRenderPriority": false,
  "ambient": 0,
  "contrast": 0,
  "rotationSpeed": 32,
  "varbitId": -1,
  "varpIndex": -1,
  "isInteractable": true,
  "rotationFlag": true,
  "isFollower": true,
  "lowPriorityFollowerOps": true,
  "category": 30,
  "height": -1,
  "stats": [
    4,
    0,
    3,
    6,
    1,
    1
  ]
}