{
  "id": 1627,
  "name": "Lazy cat",
  "size": 1,
  "models": [
    9427,
    9425
  ],
  "chatheadModels": [
    9422
  ],
  "standingAnimation": 317,
  "idleRotateLeftAnimation": -1,
  "idleRotateRightAnimation": -1,
  "walkingAnimation": 314,
  "rotate180Animation": -1,
  "rotateLeftAnimation": -1,
  "rotateRightAnimation": -1,
  "runAnimation": -1,
  "runRotate180Animation": -1,
  "runRotateLeftAnimation": -1,
  "runRotateRightAnimation": -1,
  "crawlAnimation": -1,
  "crawlRotate180Animation": -1,
  "crawlRotateLeftAnimation": -1,
  "crawlRotateRightAnimation": -1,
  "actions": [
    "Pick-up",
    null,
    "Talk-to",
    "Chase",
    "Interact"
  ],
  "isMinimapVisible": false,
  "combatLevel": 0,
  "widthScale": 70,
  "heightScale": 70,
  "hasRenderPriority": false,
  "ambient": 0,
  "contrast": 0,
  "rotationSpeed": 32,
  "varbitId": -1,
  "varpIndex": -1,
  "isInteractable": true,
  "rotationFlag": true,
  "isFollower": true,
  "lowPriorityFollowerOps": true,
  "category": 32,
  "height": -1,
  "stats": [
    6,
    2,
    6,
    14,
    1,
    1
  ]
}