{
  "id": 1684,
  "name": "Giant crypt spider",
  "size": 1,
  "models": [
    20315,
    20316
  ],
  "standingAnimation": 5326,
  "idleRotateLeftAnimation": -1,
  "idleRotateRightAnimation": -1,
  "walkingAnimation": 5325,
  "rotate180Animation": -1,
  "rotateLeftAnimation": -1,
  "rotateRightAnimation": -1,
  "runAnimation": -1,
  "runRotate180Animation": -1,
  "runRotateLeftAnimation": -1,
  "runRotateRightAnimation": -1,
  "crawlAnimation": -1,
  "crawlRotate180Animation": -1,
  "crawlRotateLeftAnimation": -1,
  "crawlRotateRightAnimation": -1,
  "recolorToFind": [
    960,
    -31808,
    22443,
    11200,
    -9280,
    -15437
  ],
  "recolorToReplace": [
    -32614,
    30100,
    -28266,
    21776,
    21675,
    -32488
  ],
  "actions": [
    null,
    "Attack",
    null,
    null,
    null
  ],
  "isMinimapVisible": true,
  "combatLevel": 79,
  "widthScale": 128,
  "heightScale": 128,
  "hasRenderPriority": false,
  "ambient": 0,
  "contrast": 0,
  "rotationSpeed": 32,
  "varbitId": -1,
  "varpIndex": -1,
  "isInteractable": true,
  "rotationFlag": true,
  "isFollower": false,
  "lowPriorityFollowerOps": false,
  "category": 384,
  "height": -1,
  "stats": [
    65,
    65,
    67,
    80,
    1,
    1
  ]
}