{
  "id": 1881,
  "name": "Thakkrad Sigmundson",
  "size": 1,
  "models": [
    4219,
    4220,
    4221,
    253,
    21886,
    26634,
    177,
    491,
    14857,
    19945
  ],
  "chatheadModels": [
    4210,
    4211,
    85
  ],
  "standingAnimation": 808,
  "idleRotateLeftAnimation": -1,
  "idleRotateRightAnimation": -1,
  "walkingAnimation": 819,
  "rotate180Animation": 820,
  "rotateLeftAnimation": 821,
  "rotateRightAnimation": 822,
  "runAnimation": -1,
  "runRotate180Animation": -1,
  "runRotateLeftAnimation": -1,
  "runRotateRightAnimation": -1,
  "crawlAnimation": -1,
  "crawlRotate180Animation": -1,
  "crawlRotateLeftAnimation": -1,
  "crawlRotateRightAnimation": -1,
  "recolorToFind": [
    17825,
    12698,
    18716,
    19986,
    7741,
    6798
  ],
  "recolorToReplace": [
    5404,
    5400,
    5404,
    5404,
    5400,
    9143
  ],
  "actions": [
    "Talk-to",
    null,
    "Craft-goods",
    null,
    null
  ],
  "isMinimapVisible": true,
  "combatLevel": 0,
  "widthScale": 128,
  "heightScale": 128,
  "hasRenderPriority": false,
  "ambient": 0,
  "contrast": 0,
  "rotationSpeed": 32,
  "varbitId": -1,
  "varpIndex": -1,
  "isInteractable": true,
  "rotationFlag": true,
  "isFollower": false,
  "lowPriorityFollowerOps": false,
  "category": 341,
  "height": -1,
  "stats": [
    1,
    1,
    1,
    1,
    1,
    1
  ]
}