{
  "id": 1942,
  "name": "Flosi Dalksson",
  "size": 1,
  "models": [
    217,
    252,
    28515,
    305,
    26630,
    179,
    12769,
    4226,
    4218
  ],
  "chatheadModels": [
    55,
    84
  ],
  "standingAnimation": 808,
  "idleRotateLeftAnimation": -1,
  "idleRotateRightAnimation": -1,
  "walkingAnimation": 819,
  "rotate180Animation": 820,
  "rotateLeftAnimation": 821,
  "rotateRightAnimation": 822,
  "runAnimation": -1,
  "runRotate180Animation": -1,
  "runRotateLeftAnimation": -1,
  "runRotateRightAnimation": -1,
  "crawlAnimation": -1,
  "crawlRotate180Animation": -1,
  "crawlRotateLeftAnimation": -1,
  "crawlRotateRightAnimation": -1,
  "recolorToFind": [
    8741,
    25238,
    8078,
    6798,
    7952,
    7073
  ],
  "recolorToReplace": [
    5667,
    4626,
    6589,
    4921,
    4382,
    3489
  ],
  "actions": [
    "Talk-to",
    null,
    "Trade",
    null,
    null
  ],
  "isMinimapVisible": true,
  "combatLevel": 0,
  "widthScale": 136,
  "heightScale": 132,
  "hasRenderPriority": true,
  "ambient": 0,
  "contrast": 0,
  "rotationSpeed": 32,
  "varbitId": -1,
  "varpIndex": -1,
  "isInteractable": true,
  "rotationFlag": true,
  "isFollower": false,
  "lowPriorityFollowerOps": false,
  "category": 0,
  "height": -1,
  "stats": [
    1,
    1,
    1,
    1,
    1,
    1
  ]
}