{
  "id": 2159,
  "name": "TzHaar-Mej",
  "size": 1,
  "models": [
    9311,
    9310,
    9313,
    9312
  ],
  "chatheadModels": [
    9251
  ],
  "standingAnimation": 2603,
  "idleRotateLeftAnimation": -1,
  "idleRotateRightAnimation": -1,
  "walkingAnimation": 2601,
  "rotate180Animation": -1,
  "rotateLeftAnimation": -1,
  "rotateRightAnimation": -1,
  "runAnimation": -1,
  "runRotate180Animation": -1,
  "runRotateLeftAnimation": -1,
  "runRotateRightAnimation": -1,
  "crawlAnimation": -1,
  "crawlRotate180Animation": -1,
  "crawlRotateLeftAnimation": -1,
  "crawlRotateRightAnimation": -1,
  "recolorToFind": [
    3005,
    406
  ],
  "recolorToReplace": [
    3008,
    801
  ],
  "actions": [
    null,
    "Attack",
    null,
    null,
    null
  ],
  "isMinimapVisible": true,
  "combatLevel": 103,
  "widthScale": 128,
  "heightScale": 115,
  "hasRenderPriority": false,
  "ambient": 10,
  "contrast": 0,
  "rotationSpeed": 32,
  "varbitId": -1,
  "varpIndex": -1,
  "isInteractable": true,
  "rotationFlag": true,
  "isFollower": false,
  "lowPriorityFollowerOps": false,
  "category": 430,
  "height": -1,
  "stats": [
    80,
    80,
    80,
    100,
    1,
    120
  ]
}