{
  "id": 2173,
  "name": "TzHaar-Ket",
  "size": 1,
  "models": [
    9301,
    9300,
    9303,
    9302,
    9306,
    9315
  ],
  "chatheadModels": [
    9251
  ],
  "standingAnimation": 2603,
  "idleRotateLeftAnimation": -1,
  "idleRotateRightAnimation": -1,
  "walkingAnimation": 2601,
  "rotate180Animation": -1,
  "rotateLeftAnimation": -1,
  "rotateRightAnimation": -1,
  "runAnimation": -1,
  "runRotate180Animation": -1,
  "runRotateLeftAnimation": -1,
  "runRotateRightAnimation": -1,
  "crawlAnimation": -1,
  "crawlRotate180Animation": -1,
  "crawlRotateLeftAnimation": -1,
  "crawlRotateRightAnimation": -1,
  "actions": [
    null,
    "Attack",
    null,
    null,
    null
  ],
  "isMinimapVisible": true,
  "combatLevel": 149,
  "widthScale": 156,
  "heightScale": 156,
  "hasRenderPriority": false,
  "ambient": 10,
  "contrast": 0,
  "rotationSpeed": 32,
  "varbitId": -1,
  "varpIndex": -1,
  "isInteractable": true,
  "rotationFlag": true,
  "isFollower": false,
  "lowPriorityFollowerOps": false,
  "category": 433,
  "height": -1,
  "stats": [
    120,
    120,
    140,
    140,
    1,
    40
  ]
}