{
  "id": 2486,
  "name": "Goblin",
  "size": 1,
  "models": [
    24466,
    24483,
    24432,
    24475,
    24443,
    24450,
    24507
  ],
  "standingAnimation": 6186,
  "idleRotateLeftAnimation": -1,
  "idleRotateRightAnimation": -1,
  "walkingAnimation": 6187,
  "rotate180Animation": -1,
  "rotateLeftAnimation": -1,
  "rotateRightAnimation": -1,
  "runAnimation": -1,
  "runRotate180Animation": -1,
  "runRotateLeftAnimation": -1,
  "runRotateRightAnimation": -1,
  "crawlAnimation": -1,
  "crawlRotate180Animation": -1,
  "crawlRotateLeftAnimation": -1,
  "crawlRotateRightAnimation": -1,
  "recolorToFind": [
    11941,
    12060,
    6331,
    3769,
    3650
  ],
  "recolorToReplace": [
    9891,
    10010,
    25121,
    5809,
    5561
  ],
  "actions": [
    null,
    "Attack",
    null,
    null,
    null
  ],
  "isMinimapVisible": true,
  "combatLevel": 11,
  "widthScale": 125,
  "heightScale": 125,
  "hasRenderPriority": false,
  "ambient": 15,
  "contrast": 0,
  "rotationSpeed": 32,
  "varbitId": -1,
  "varpIndex": -1,
  "isInteractable": true,
  "rotationFlag": true,
  "isFollower": false,
  "lowPriorityFollowerOps": false,
  "category": 449,
  "height": -1,
  "stats": [
    10,
    7,
    3,
    7,
    1,
    1
  ]
}