{
  "id": 2639,
  "name": "Robert the Strong",
  "size": 1,
  "models": [
    8747,
    250,
    8749,
    4924,
    9431,
    8748,
    8727
  ],
  "chatheadModels": [
    8745,
    82
  ],
  "standingAnimation": 808,
  "idleRotateLeftAnimation": -1,
  "idleRotateRightAnimation": -1,
  "walkingAnimation": 819,
  "rotate180Animation": 820,
  "rotateLeftAnimation": 821,
  "rotateRightAnimation": 822,
  "runAnimation": -1,
  "runRotate180Animation": -1,
  "runRotateLeftAnimation": -1,
  "runRotateRightAnimation": -1,
  "crawlAnimation": -1,
  "crawlRotate180Animation": -1,
  "crawlRotateLeftAnimation": -1,
  "crawlRotateRightAnimation": -1,
  "recolorToFind": [
    10266,
    6674,
    10283,
    3226,
    -22469,
    -22464
  ],
  "recolorToReplace": [
    57,
    -32566,
    57,
    57,
    8,
    57
  ],
  "actions": [
    "Talk-to",
    null,
    null,
    null,
    null
  ],
  "isMinimapVisible": true,
  "combatLevel": 0,
  "widthScale": 132,
  "heightScale": 138,
  "hasRenderPriority": false,
  "ambient": 0,
  "contrast": 0,
  "rotationSpeed": 32,
  "varbitId": -1,
  "varpIndex": -1,
  "isInteractable": true,
  "rotationFlag": true,
  "isFollower": false,
  "lowPriorityFollowerOps": false,
  "category": 36,
  "height": -1,
  "stats": [
    0,
    40,
    0,
    100,
    40,
    1
  ]
}