{
  "id": 2676,
  "name": "Rhazien",
  "size": 1,
  "models": [
    214,
    4219,
    252,
    28515,
    326,
    26630,
    176,
    496,
    28285,
    7121
  ],
  "chatheadModels": [
    52,
    84,
    4210
  ],
  "standingAnimation": 2163,
  "idleRotateLeftAnimation": -1,
  "idleRotateRightAnimation": -1,
  "walkingAnimation": 2164,
  "rotate180Animation": -1,
  "rotateLeftAnimation": -1,
  "rotateRightAnimation": -1,
  "runAnimation": -1,
  "runRotate180Animation": -1,
  "runRotateLeftAnimation": -1,
  "runRotateRightAnimation": -1,
  "crawlAnimation": -1,
  "crawlRotate180Animation": -1,
  "crawlRotateLeftAnimation": -1,
  "crawlRotateRightAnimation": -1,
  "recolorToFind": [
    6798,
    8741,
    25238,
    908
  ],
  "recolorToReplace": [
    6701,
    6558,
    13840,
    5648
  ],
  "actions": [
    "Talk-to",
    null,
    "Pay",
    null,
    "Trade"
  ],
  "isMinimapVisible": true,
  "combatLevel": 0,
  "widthScale": 128,
  "heightScale": 128,
  "hasRenderPriority": false,
  "ambient": 0,
  "contrast": 0,
  "rotationSpeed": 32,
  "varbitId": -1,
  "varpIndex": -1,
  "isInteractable": true,
  "rotationFlag": true,
  "isFollower": false,
  "lowPriorityFollowerOps": false,
  "category": 459,
  "height": -1,
  "stats": [
    1,
    1,
    1,
    1,
    1,
    1
  ]
}