{
  "id": 274,
  "name": "Steel dragon",
  "size": 4,
  "models": [
    24578,
    24587,
    24583,
    17423
  ],
  "standingAnimation": 90,
  "idleRotateLeftAnimation": -1,
  "idleRotateRightAnimation": -1,
  "walkingAnimation": 79,
  "rotate180Animation": -1,
  "rotateLeftAnimation": -1,
  "rotateRightAnimation": -1,
  "runAnimation": -1,
  "runRotate180Animation": -1,
  "runRotateLeftAnimation": -1,
  "runRotateRightAnimation": -1,
  "crawlAnimation": -1,
  "crawlRotate180Animation": -1,
  "crawlRotateLeftAnimation": -1,
  "crawlRotateRightAnimation": -1,
  "recolorToFind": [
    -22256,
    -27364,
    -27359,
    -27479,
    -27471,
    -27446
  ],
  "recolorToReplace": [
    5161,
    3123,
    3131,
    3140,
    3148,
    5202
  ],
  "actions": [
    null,
    "Attack",
    null,
    null,
    null
  ],
  "isMinimapVisible": true,
  "combatLevel": 246,
  "widthScale": 128,
  "heightScale": 128,
  "hasRenderPriority": false,
  "ambient": 15,
  "contrast": 15,
  "rotationSpeed": 32,
  "varbitId": -1,
  "varpIndex": -1,
  "isInteractable": true,
  "rotationFlag": true,
  "isFollower": false,
  "lowPriorityFollowerOps": false,
  "category": 347,
  "height": -1,
  "stats": [
    215,
    215,
    215,
    210,
    1,
    100
  ]
}