{
  "id": 301,
  "name": "Black Heather",
  "size": 1,
  "models": [
    401,
    18554,
    3848,
    353,
    435,
    490,
    481
  ],
  "standingAnimation": 808,
  "idleRotateLeftAnimation": -1,
  "idleRotateRightAnimation": -1,
  "walkingAnimation": 819,
  "rotate180Animation": 820,
  "rotateLeftAnimation": 821,
  "rotateRightAnimation": 822,
  "runAnimation": -1,
  "runRotate180Animation": -1,
  "runRotateLeftAnimation": -1,
  "runRotateRightAnimation": -1,
  "crawlAnimation": -1,
  "crawlRotate180Animation": -1,
  "crawlRotateLeftAnimation": -1,
  "crawlRotateRightAnimation": -1,
  "recolorToFind": [
    8741,
    6024,
    10138,
    7700,
    11200
  ],
  "recolorToReplace": [
    12,
    10508,
    12,
    1950,
    2749
  ],
  "actions": [
    "Talk-to",
    "Attack",
    null,
    null,
    null
  ],
  "isMinimapVisible": true,
  "combatLevel": 34,
  "widthScale": 128,
  "heightScale": 128,
  "hasRenderPriority": false,
  "ambient": 0,
  "contrast": 0,
  "rotationSpeed": 32,
  "varbitId": -1,
  "varpIndex": -1,
  "isInteractable": true,
  "rotationFlag": true,
  "isFollower": false,
  "lowPriorityFollowerOps": false,
  "category": 0,
  "height": -1,
  "stats": [
    32,
    27,
    26,
    37,
    1,
    1
  ]
}