{
  "id": 3038,
  "name": "Goblin",
  "size": 1,
  "models": [
    24455,
    24488,
    24434,
    24478,
    24441,
    24448
  ],
  "chatheadModels": [
    24209
  ],
  "standingAnimation": 6181,
  "idleRotateLeftAnimation": -1,
  "idleRotateRightAnimation": -1,
  "walkingAnimation": 6180,
  "rotate180Animation": -1,
  "rotateLeftAnimation": -1,
  "rotateRightAnimation": -1,
  "runAnimation": -1,
  "runRotate180Animation": -1,
  "runRotateLeftAnimation": -1,
  "runRotateRightAnimation": -1,
  "crawlAnimation": -1,
  "crawlRotate180Animation": -1,
  "crawlRotateLeftAnimation": -1,
  "crawlRotateRightAnimation": -1,
  "recolorToFind": [
    11817,
    10917,
    11941,
    12060,
    12065
  ],
  "recolorToReplace": [
    16929,
    16924,
    16685,
    16805,
    17048
  ],
  "actions": [
    null,
    "Attack",
    null,
    null,
    null
  ],
  "isMinimapVisible": true,
  "combatLevel": 2,
  "widthScale": 125,
  "heightScale": 125,
  "hasRenderPriority": false,
  "ambient": 15,
  "contrast": 0,
  "rotationSpeed": 32,
  "varbitId": -1,
  "varpIndex": -1,
  "isInteractable": true,
  "rotationFlag": true,
  "isFollower": false,
  "lowPriorityFollowerOps": false,
  "category": 311,
  "height": -1,
  "stats": [
    1,
    1,
    1,
    5,
    1,
    1
  ]
}