{
  "id": 3066,
  "name": "Barbarian",
  "size": 1,
  "models": [
    214,
    11747,
    252,
    11759,
    11728,
    11731,
    11755,
    11734,
    11788
  ],
  "chatheadModels": [
    52,
    84,
    11807
  ],
  "standingAnimation": 2065,
  "idleRotateLeftAnimation": -1,
  "idleRotateRightAnimation": -1,
  "walkingAnimation": 2064,
  "rotate180Animation": -1,
  "rotateLeftAnimation": -1,
  "rotateRightAnimation": -1,
  "runAnimation": -1,
  "runRotate180Animation": -1,
  "runRotateLeftAnimation": -1,
  "runRotateRightAnimation": -1,
  "crawlAnimation": -1,
  "crawlRotate180Animation": -1,
  "crawlRotateLeftAnimation": -1,
  "crawlRotateRightAnimation": -1,
  "recolorToFind": [
    943,
    939,
    935
  ],
  "recolorToReplace": [
    1944,
    1944,
    1944
  ],
  "actions": [
    "Talk-to",
    "Attack",
    null,
    null,
    null
  ],
  "isMinimapVisible": true,
  "combatLevel": 10,
  "widthScale": 137,
  "heightScale": 128,
  "hasRenderPriority": false,
  "ambient": 0,
  "contrast": 0,
  "rotationSpeed": 32,
  "varbitId": -1,
  "varpIndex": -1,
  "isInteractable": true,
  "rotationFlag": true,
  "isFollower": false,
  "lowPriorityFollowerOps": false,
  "category": 369,
  "height": -1,
  "stats": [
    8,
    3,
    7,
    18,
    1,
    1
  ]
}