{
  "id": 3112,
  "name": "Woman",
  "size": 1,
  "models": [
    391,
    18914,
    3476,
    353,
    14423,
    358,
    437
  ],
  "chatheadModels": [
    114,
    131
  ],
  "standingAnimation": 808,
  "idleRotateLeftAnimation": -1,
  "idleRotateRightAnimation": -1,
  "walkingAnimation": 819,
  "rotate180Animation": 820,
  "rotateLeftAnimation": 821,
  "rotateRightAnimation": 822,
  "runAnimation": -1,
  "runRotate180Animation": -1,
  "runRotateLeftAnimation": -1,
  "runRotateRightAnimation": -1,
  "crawlAnimation": -1,
  "crawlRotate180Animation": -1,
  "crawlRotateLeftAnimation": -1,
  "crawlRotateRightAnimation": -1,
  "recolorToFind": [
    25238,
    8741,
    -22464,
    6798,
    8741
  ],
  "recolorToReplace": [
    5652,
    5784,
    4550,
    5921,
    5784
  ],
  "actions": [
    "Talk-to",
    "Attack",
    "Pickpocket",
    null,
    null
  ],
  "isMinimapVisible": true,
  "combatLevel": 2,
  "widthScale": 128,
  "heightScale": 128,
  "hasRenderPriority": false,
  "ambient": 0,
  "contrast": 0,
  "rotationSpeed": 32,
  "varbitId": -1,
  "varpIndex": -1,
  "isInteractable": true,
  "rotationFlag": true,
  "isFollower": false,
  "lowPriorityFollowerOps": false,
  "category": 492,
  "height": -1,
  "stats": [
    1,
    1,
    1,
    7,
    1,
    1
  ]
}