{
  "id": 3128,
  "name": "Yt-HurKot",
  "size": 1,
  "models": [
    9326,
    9328,
    9327
  ],
  "standingAnimation": 2636,
  "idleRotateLeftAnimation": -1,
  "idleRotateRightAnimation": -1,
  "walkingAnimation": 2634,
  "rotate180Animation": -1,
  "rotateLeftAnimation": -1,
  "rotateRightAnimation": -1,
  "runAnimation": -1,
  "runRotate180Animation": -1,
  "runRotateLeftAnimation": -1,
  "runRotateRightAnimation": -1,
  "crawlAnimation": -1,
  "crawlRotate180Animation": -1,
  "crawlRotateLeftAnimation": -1,
  "crawlRotateRightAnimation": -1,
  "recolorToFind": [
    908
  ],
  "recolorToReplace": [
    148
  ],
  "actions": [
    null,
    "Attack",
    null,
    null,
    null
  ],
  "isMinimapVisible": true,
  "combatLevel": 108,
  "widthScale": 35,
  "heightScale": 35,
  "hasRenderPriority": false,
  "ambient": 30,
  "contrast": 30,
  "rotationSpeed": 32,
  "varbitId": -1,
  "varpIndex": -1,
  "isInteractable": true,
  "rotationFlag": true,
  "isFollower": false,
  "lowPriorityFollowerOps": false,
  "category": 500,
  "height": -1,
  "stats": [
    140,
    60,
    100,
    60,
    120,
    120
  ]
}