{
  "id": 3297,
  "name": "Knight of Ardougne",
  "size": 1,
  "models": [
    218,
    313,
    164,
    179,
    268,
    185,
    518,
    3330
  ],
  "standingAnimation": 808,
  "idleRotateLeftAnimation": -1,
  "idleRotateRightAnimation": -1,
  "walkingAnimation": 819,
  "rotate180Animation": 820,
  "rotateLeftAnimation": 821,
  "rotateRightAnimation": 822,
  "runAnimation": -1,
  "runRotate180Animation": -1,
  "runRotateLeftAnimation": -1,
  "runRotateRightAnimation": -1,
  "crawlAnimation": -1,
  "crawlRotate180Animation": -1,
  "crawlRotateLeftAnimation": -1,
  "crawlRotateRightAnimation": -1,
  "recolorToFind": [
    11187,
    5532,
    -11139,
    6798
  ],
  "recolorToReplace": [
    -11351,
    82,
    -17472,
    -17472
  ],
  "actions": [
    null,
    "Attack",
    "Pickpocket",
    null,
    null
  ],
  "isMinimapVisible": true,
  "combatLevel": 46,
  "widthScale": 128,
  "heightScale": 128,
  "hasRenderPriority": false,
  "ambient": 0,
  "contrast": 0,
  "rotationSpeed": 32,
  "varbitId": -1,
  "varpIndex": -1,
  "isInteractable": true,
  "rotationFlag": true,
  "isFollower": false,
  "lowPriorityFollowerOps": false,
  "category": 1731,
  "height": -1,
  "stats": [
    38,
    31,
    40,
    52,
    1,
    1
  ]
}