{
  "id": 3451,
  "name": "Mysterious ghost",
  "size": 1,
  "models": [
    202,
    230,
    246,
    28515,
    26619,
    176,
    260,
    185
  ],
  "chatheadModels": [
    8373,
    8372
  ],
  "standingAnimation": 2334,
  "idleRotateLeftAnimation": -1,
  "idleRotateRightAnimation": -1,
  "walkingAnimation": 2333,
  "rotate180Animation": -1,
  "rotateLeftAnimation": -1,
  "rotateRightAnimation": -1,
  "runAnimation": -1,
  "runRotate180Animation": -1,
  "runRotateLeftAnimation": -1,
  "runRotateRightAnimation": -1,
  "crawlAnimation": -1,
  "crawlRotate180Animation": -1,
  "crawlRotateLeftAnimation": -1,
  "crawlRotateRightAnimation": -1,
  "recolorToFind": [
    -26722,
    25238,
    8741
  ],
  "recolorToReplace": [
    25104,
    25104,
    19986
  ],
  "actions": [
    "Talk-To",
    null,
    null,
    null,
    null
  ],
  "isMinimapVisible": false,
  "combatLevel": 0,
  "widthScale": 112,
  "heightScale": 112,
  "hasRenderPriority": false,
  "ambient": 35,
  "contrast": 35,
  "rotationSpeed": 32,
  "varbitId": -1,
  "varpIndex": -1,
  "isInteractable": true,
  "rotationFlag": true,
  "isFollower": false,
  "lowPriorityFollowerOps": false,
  "category": 0,
  "height": -1,
  "stats": [
    1,
    1,
    1,
    1,
    1,
    1
  ]
}