{
  "id": 3597,
  "name": "'No fingers'",
  "size": 1,
  "models": [
    230,
    22599,
    10561,
    18498,
    19329,
    19332,
    14381,
    18128,
    22609
  ],
  "chatheadModels": [
    63,
    22592,
    10560
  ],
  "standingAnimation": 5815,
  "idleRotateLeftAnimation": -1,
  "idleRotateRightAnimation": -1,
  "walkingAnimation": 819,
  "rotate180Animation": 820,
  "rotateLeftAnimation": 821,
  "rotateRightAnimation": 822,
  "runAnimation": -1,
  "runRotate180Animation": -1,
  "runRotateLeftAnimation": -1,
  "runRotateRightAnimation": -1,
  "crawlAnimation": -1,
  "crawlRotate180Animation": -1,
  "crawlRotateLeftAnimation": -1,
  "crawlRotateRightAnimation": -1,
  "recolorToFind": [
    -25303,
    8656,
    8741,
    5541,
    -24164,
    -25299
  ],
  "recolorToReplace": [
    5772,
    809,
    809,
    2576,
    7331,
    7331
  ],
  "actions": [
    "Talk-to",
    null,
    "Pickpocket",
    null,
    null
  ],
  "isMinimapVisible": true,
  "combatLevel": 0,
  "widthScale": 120,
  "heightScale": 120,
  "hasRenderPriority": true,
  "ambient": 25,
  "contrast": 25,
  "rotationSpeed": 0,
  "varbitId": -1,
  "varpIndex": -1,
  "isInteractable": true,
  "rotationFlag": true,
  "isFollower": false,
  "lowPriorityFollowerOps": false,
  "category": 0,
  "height": -1,
  "stats": [
    1,
    1,
    1,
    1,
    1,
    1
  ]
}