{
  "id": 3609,
  "name": "Dungeon rat",
  "size": 1,
  "models": [
    18893,
    18889,
    18896,
    18888
  ],
  "standingAnimation": 4932,
  "idleRotateLeftAnimation": -1,
  "idleRotateRightAnimation": -1,
  "walkingAnimation": 4931,
  "rotate180Animation": -1,
  "rotateLeftAnimation": -1,
  "rotateRightAnimation": -1,
  "runAnimation": -1,
  "runRotate180Animation": -1,
  "runRotateLeftAnimation": -1,
  "runRotateRightAnimation": -1,
  "crawlAnimation": -1,
  "crawlRotate180Animation": -1,
  "crawlRotateLeftAnimation": -1,
  "crawlRotateRightAnimation": -1,
  "recolorToFind": [
    10295,
    10291,
    10287,
    10283,
    10279,
    10275
  ],
  "recolorToReplace": [
    21568,
    21576,
    21568,
    21572,
    21563,
    21559
  ],
  "actions": [
    null,
    "Attack",
    null,
    null,
    null
  ],
  "isMinimapVisible": true,
  "combatLevel": 12,
  "widthScale": 64,
  "heightScale": 64,
  "hasRenderPriority": false,
  "ambient": 0,
  "contrast": 0,
  "rotationSpeed": 32,
  "varbitId": -1,
  "varpIndex": -1,
  "isInteractable": true,
  "rotationFlag": true,
  "isFollower": false,
  "lowPriorityFollowerOps": false,
  "category": 262,
  "height": -1,
  "stats": [
    10,
    10,
    10,
    12,
    1,
    1
  ]
}