{
  "id": 3695,
  "name": "Vampyre Juvinate",
  "size": 1,
  "models": [
    17962,
    17980
  ],
  "chatheadModels": [
    35318
  ],
  "standingAnimation": 4702,
  "idleRotateLeftAnimation": -1,
  "idleRotateRightAnimation": -1,
  "walkingAnimation": 4700,
  "rotate180Animation": -1,
  "rotateLeftAnimation": -1,
  "rotateRightAnimation": -1,
  "runAnimation": -1,
  "runRotate180Animation": -1,
  "runRotateLeftAnimation": -1,
  "runRotateRightAnimation": -1,
  "crawlAnimation": -1,
  "crawlRotate180Animation": -1,
  "crawlRotateLeftAnimation": -1,
  "crawlRotateRightAnimation": -1,
  "recolorToFind": [
    105
  ],
  "recolorToReplace": [
    555
  ],
  "actions": [
    "Talk-to",
    "Attack",
    null,
    null,
    null
  ],
  "isMinimapVisible": true,
  "combatLevel": 54,
  "widthScale": 128,
  "heightScale": 128,
  "hasRenderPriority": false,
  "ambient": -25,
  "contrast": 0,
  "rotationSpeed": 32,
  "varbitId": -1,
  "varpIndex": -1,
  "isInteractable": true,
  "rotationFlag": true,
  "isFollower": false,
  "lowPriorityFollowerOps": false,
  "category": 519,
  "height": -1,
  "stats": [
    40,
    30,
    40,
    85,
    1,
    1
  ]
}