{
  "id": 3897,
  "name": "Koschei the deathless",
  "size": 1,
  "models": [
    203,
    252,
    315,
    165,
    3381,
    4226,
    4218,
    4236
  ],
  "chatheadModels": [
    46,
    84
  ],
  "standingAnimation": 813,
  "idleRotateLeftAnimation": -1,
  "idleRotateRightAnimation": -1,
  "walkingAnimation": 819,
  "rotate180Animation": 820,
  "rotateLeftAnimation": 821,
  "rotateRightAnimation": 822,
  "runAnimation": -1,
  "runRotate180Animation": -1,
  "runRotateLeftAnimation": -1,
  "runRotateRightAnimation": -1,
  "crawlAnimation": -1,
  "crawlRotate180Animation": -1,
  "crawlRotateLeftAnimation": -1,
  "crawlRotateRightAnimation": -1,
  "recolorToFind": [
    10004,
    25238,
    8078,
    6798,
    4550,
    937
  ],
  "recolorToReplace": [
    61,
    7566,
    7609,
    7087,
    5442,
    914
  ],
  "actions": [
    null,
    "Attack",
    null,
    null,
    null
  ],
  "isMinimapVisible": true,
  "combatLevel": 0,
  "widthScale": 128,
  "heightScale": 128,
  "hasRenderPriority": false,
  "ambient": 0,
  "contrast": 0,
  "rotationSpeed": 32,
  "varbitId": -1,
  "varpIndex": -1,
  "isInteractable": true,
  "rotationFlag": true,
  "isFollower": false,
  "lowPriorityFollowerOps": false,
  "category": 0,
  "height": -1,
  "stats": [
    20,
    20,
    20,
    30,
    1,
    1
  ]
}