{
  "id": 3939,
  "name": "Borrokar",
  "size": 1,
  "models": [
    4220,
    252,
    299,
    26630,
    179,
    4226,
    4218,
    550,
    4221,
    4219
  ],
  "chatheadModels": [
    53,
    84,
    4210
  ],
  "standingAnimation": 808,
  "idleRotateLeftAnimation": -1,
  "idleRotateRightAnimation": -1,
  "walkingAnimation": 819,
  "rotate180Animation": 820,
  "rotateLeftAnimation": 821,
  "rotateRightAnimation": 822,
  "runAnimation": -1,
  "runRotate180Animation": -1,
  "runRotateLeftAnimation": -1,
  "runRotateRightAnimation": -1,
  "crawlAnimation": -1,
  "crawlRotate180Animation": -1,
  "crawlRotateLeftAnimation": -1,
  "crawlRotateRightAnimation": -1,
  "recolorToFind": [
    6798,
    25238,
    8741,
    8078,
    8084
  ],
  "recolorToReplace": [
    6585,
    7465,
    8501,
    7485,
    7601
  ],
  "actions": [
    "Talk-to",
    "Attack",
    "Pickpocket",
    null,
    null
  ],
  "isMinimapVisible": true,
  "combatLevel": 48,
  "widthScale": 128,
  "heightScale": 128,
  "hasRenderPriority": false,
  "ambient": 0,
  "contrast": 0,
  "rotationSpeed": 32,
  "varbitId": -1,
  "varpIndex": -1,
  "isInteractable": true,
  "rotationFlag": true,
  "isFollower": false,
  "lowPriorityFollowerOps": false,
  "category": 0,
  "height": -1,
  "stats": [
    40,
    40,
    40,
    50,
    1,
    1
  ]
}