{
  "id": 4090,
  "name": "Soldier",
  "size": 1,
  "models": [
    230,
    295,
    150,
    264,
    3710,
    246
  ],
  "chatheadModels": [
    55
  ],
  "standingAnimation": 1144,
  "idleRotateLeftAnimation": -1,
  "idleRotateRightAnimation": -1,
  "walkingAnimation": 1144,
  "rotate180Animation": 1144,
  "rotateLeftAnimation": 1144,
  "rotateRightAnimation": 1144,
  "runAnimation": -1,
  "runRotate180Animation": -1,
  "runRotateLeftAnimation": -1,
  "runRotateRightAnimation": -1,
  "crawlAnimation": -1,
  "crawlRotate180Animation": -1,
  "crawlRotateLeftAnimation": -1,
  "crawlRotateRightAnimation": -1,
  "recolorToFind": [
    8090,
    61,
    25238,
    4626,
    7952
  ],
  "recolorToReplace": [
    0,
    0,
    0,
    0,
    0
  ],
  "actions": [
    "Talk-to",
    null,
    null,
    null,
    null
  ],
  "isMinimapVisible": true,
  "combatLevel": 0,
  "widthScale": 128,
  "heightScale": 128,
  "hasRenderPriority": false,
  "ambient": 0,
  "contrast": 0,
  "rotationSpeed": 32,
  "varbitId": -1,
  "varpIndex": -1,
  "isInteractable": true,
  "rotationFlag": true,
  "isFollower": false,
  "lowPriorityFollowerOps": false,
  "category": 551,
  "height": -1,
  "stats": [
    1,
    1,
    1,
    1,
    1,
    1
  ]
}