{
  "id": 4196,
  "name": "Apparition",
  "size": 1,
  "models": [
    6464,
    281,
    315,
    27139,
    176,
    6135,
    266,
    181
  ],
  "standingAnimation": 813,
  "idleRotateLeftAnimation": -1,
  "idleRotateRightAnimation": -1,
  "walkingAnimation": 1205,
  "rotate180Animation": 1206,
  "rotateLeftAnimation": 1207,
  "rotateRightAnimation": 1208,
  "runAnimation": -1,
  "runRotate180Animation": -1,
  "runRotateLeftAnimation": -1,
  "runRotateRightAnimation": -1,
  "crawlAnimation": -1,
  "crawlRotate180Animation": -1,
  "crawlRotateLeftAnimation": -1,
  "crawlRotateRightAnimation": -1,
  "recolorToFind": [
    4550,
    61,
    -22464,
    4626,
    25238
  ],
  "recolorToReplace": [
    7587,
    9015,
    7587,
    7587,
    -22628
  ],
  "actions": [
    null,
    "Attack",
    null,
    null,
    null
  ],
  "isMinimapVisible": true,
  "combatLevel": 75,
  "widthScale": 140,
  "heightScale": 140,
  "hasRenderPriority": true,
  "ambient": 0,
  "contrast": 0,
  "rotationSpeed": 32,
  "varbitId": -1,
  "varpIndex": -1,
  "isInteractable": true,
  "rotationFlag": true,
  "isFollower": false,
  "lowPriorityFollowerOps": false,
  "category": 588,
  "height": -1,
  "stats": [
    30,
    60,
    40,
    70,
    1,
    85
  ]
}