{
  "id": 438,
  "name": "Jelly",
  "size": 1,
  "models": [
    5081
  ],
  "standingAnimation": 1583,
  "idleRotateLeftAnimation": -1,
  "idleRotateRightAnimation": -1,
  "walkingAnimation": 1584,
  "rotate180Animation": -1,
  "rotateLeftAnimation": -1,
  "rotateRightAnimation": -1,
  "runAnimation": -1,
  "runRotate180Animation": -1,
  "runRotateLeftAnimation": -1,
  "runRotateRightAnimation": -1,
  "crawlAnimation": -1,
  "crawlRotate180Animation": -1,
  "crawlRotateLeftAnimation": -1,
  "crawlRotateRightAnimation": -1,
  "recolorToFind": [
    21557,
    21565,
    21570,
    21574,
    21578
  ],
  "recolorToReplace": [
    26677,
    26685,
    26690,
    26694,
    26698
  ],
  "actions": [
    null,
    "Attack",
    null,
    null,
    null
  ],
  "isMinimapVisible": true,
  "combatLevel": 78,
  "widthScale": 108,
  "heightScale": 108,
  "hasRenderPriority": false,
  "ambient": 0,
  "contrast": 0,
  "rotationSpeed": 32,
  "varbitId": -1,
  "varpIndex": -1,
  "isInteractable": true,
  "rotationFlag": true,
  "isFollower": false,
  "lowPriorityFollowerOps": false,
  "category": 364,
  "height": -1,
  "stats": [
    45,
    120,
    45,
    75,
    1,
    45
  ]
}