{
  "id": 456,
  "name": "Crawling Hand",
  "size": 2,
  "models": [
    5071
  ],
  "standingAnimation": 1588,
  "idleRotateLeftAnimation": -1,
  "idleRotateRightAnimation": -1,
  "walkingAnimation": 1589,
  "rotate180Animation": -1,
  "rotateLeftAnimation": -1,
  "rotateRightAnimation": -1,
  "runAnimation": -1,
  "runRotate180Animation": -1,
  "runRotateLeftAnimation": -1,
  "runRotateRightAnimation": -1,
  "crawlAnimation": -1,
  "crawlRotate180Animation": -1,
  "crawlRotateLeftAnimation": -1,
  "crawlRotateRightAnimation": -1,
  "recolorToFind": [
    21553,
    21549,
    21545,
    21665,
    21660,
    21656
  ],
  "recolorToReplace": [
    -32721,
    -27603,
    -32729,
    -32738,
    -32742,
    -32746
  ],
  "actions": [
    null,
    "Attack",
    null,
    null,
    null
  ],
  "isMinimapVisible": true,
  "combatLevel": 12,
  "widthScale": 216,
  "heightScale": 216,
  "hasRenderPriority": false,
  "ambient": 30,
  "contrast": 0,
  "rotationSpeed": 32,
  "varbitId": -1,
  "varpIndex": -1,
  "isInteractable": true,
  "rotationFlag": true,
  "isFollower": false,
  "lowPriorityFollowerOps": false,
  "category": 367,
  "height": -1,
  "stats": [
    11,
    7,
    7,
    19,
    1,
    1
  ]
}