{
  "id": 4650,
  "name": "Desert Wolf",
  "size": 2,
  "models": [
    26266
  ],
  "standingAnimation": 6580,
  "idleRotateLeftAnimation": -1,
  "idleRotateRightAnimation": -1,
  "walkingAnimation": 6556,
  "rotate180Animation": -1,
  "rotateLeftAnimation": -1,
  "rotateRightAnimation": -1,
  "runAnimation": -1,
  "runRotate180Animation": -1,
  "runRotateLeftAnimation": -1,
  "runRotateRightAnimation": -1,
  "crawlAnimation": -1,
  "crawlRotate180Animation": -1,
  "crawlRotateLeftAnimation": -1,
  "crawlRotateRightAnimation": -1,
  "recolorToFind": [
    10337,
    10328,
    10312,
    10304,
    10295,
    10287
  ],
  "recolorToReplace": [
    8615,
    8737,
    7706,
    7700,
    6798,
    6024
  ],
  "actions": [
    null,
    "Attack",
    null,
    null,
    null
  ],
  "isMinimapVisible": true,
  "combatLevel": 27,
  "widthScale": 116,
  "heightScale": 116,
  "hasRenderPriority": false,
  "ambient": 0,
  "contrast": 0,
  "rotationSpeed": 32,
  "varbitId": -1,
  "varpIndex": -1,
  "isInteractable": true,
  "rotationFlag": true,
  "isFollower": false,
  "lowPriorityFollowerOps": false,
  "category": 310,
  "height": -1,
  "stats": [
    20,
    22,
    21,
    34,
    0,
    0
  ]
}