{
  "id": 4663,
  "name": "Guard",
  "size": 1,
  "models": [
    11737,
    4220,
    253,
    294,
    19329,
    19332,
    19336,
    523,
    6090,
    16473
  ],
  "chatheadModels": [
    11802,
    63,
    85
  ],
  "standingAnimation": 808,
  "idleRotateLeftAnimation": -1,
  "idleRotateRightAnimation": -1,
  "walkingAnimation": 819,
  "rotate180Animation": 820,
  "rotateLeftAnimation": 821,
  "rotateRightAnimation": 822,
  "runAnimation": -1,
  "runRotate180Animation": -1,
  "runRotateLeftAnimation": -1,
  "runRotateRightAnimation": -1,
  "crawlAnimation": -1,
  "crawlRotate180Animation": -1,
  "crawlRotateLeftAnimation": -1,
  "crawlRotateRightAnimation": -1,
  "recolorToFind": [
    5161,
    926,
    4550,
    10353,
    5652,
    8741
  ],
  "recolorToReplace": [
    8472,
    9123,
    4645,
    8472,
    8472,
    24
  ],
  "actions": [
    "Talk-to",
    "Attack",
    null,
    null,
    null
  ],
  "isMinimapVisible": true,
  "combatLevel": 45,
  "widthScale": 128,
  "heightScale": 128,
  "hasRenderPriority": false,
  "ambient": 15,
  "contrast": 0,
  "rotationSpeed": 32,
  "varbitId": -1,
  "varpIndex": -1,
  "isInteractable": true,
  "rotationFlag": true,
  "isFollower": false,
  "lowPriorityFollowerOps": false,
  "category": 627,
  "height": -1,
  "stats": [
    32,
    39,
    32,
    60,
    0,
    0
  ]
}