{
  "id": 4690,
  "name": "Angry giant rat",
  "size": 1,
  "models": [
    18892,
    18890,
    18895,
    18887
  ],
  "standingAnimation": 4932,
  "idleRotateLeftAnimation": -1,
  "idleRotateRightAnimation": -1,
  "walkingAnimation": 4931,
  "rotate180Animation": -1,
  "rotateLeftAnimation": -1,
  "rotateRightAnimation": -1,
  "runAnimation": -1,
  "runRotate180Animation": -1,
  "runRotateLeftAnimation": -1,
  "runRotateRightAnimation": -1,
  "crawlAnimation": -1,
  "crawlRotate180Animation": -1,
  "crawlRotateLeftAnimation": -1,
  "crawlRotateRightAnimation": -1,
  "recolorToFind": [
    10295,
    10291,
    10287,
    10283,
    10279,
    10275
  ],
  "recolorToReplace": [
    443,
    443,
    439,
    443,
    439,
    435
  ],
  "actions": [
    null,
    "Attack",
    null,
    null,
    null
  ],
  "isMinimapVisible": true,
  "combatLevel": 47,
  "widthScale": 64,
  "heightScale": 64,
  "hasRenderPriority": false,
  "ambient": 30,
  "contrast": 30,
  "rotationSpeed": 32,
  "varbitId": -1,
  "varpIndex": -1,
  "isInteractable": true,
  "rotationFlag": true,
  "isFollower": false,
  "lowPriorityFollowerOps": false,
  "category": 0,
  "height": -1,
  "stats": [
    38,
    38,
    41,
    50,
    1,
    1
  ]
}