{
  "id": 4717,
  "name": "Auguste",
  "size": 1,
  "models": [
    19470,
    246,
    19476,
    19467,
    177,
    19472,
    181
  ],
  "chatheadModels": [
    359
  ],
  "standingAnimation": 773,
  "idleRotateLeftAnimation": -1,
  "idleRotateRightAnimation": -1,
  "walkingAnimation": 772,
  "rotate180Animation": 772,
  "rotateLeftAnimation": 772,
  "rotateRightAnimation": 772,
  "runAnimation": -1,
  "runRotate180Animation": -1,
  "runRotateLeftAnimation": -1,
  "runRotateRightAnimation": -1,
  "crawlAnimation": -1,
  "crawlRotate180Animation": -1,
  "crawlRotateLeftAnimation": -1,
  "crawlRotateRightAnimation": -1,
  "recolorToFind": [
    4626
  ],
  "recolorToReplace": [
    0
  ],
  "actions": [
    "Talk-to",
    null,
    null,
    "Fly",
    null
  ],
  "isMinimapVisible": true,
  "combatLevel": 0,
  "widthScale": 128,
  "heightScale": 128,
  "hasRenderPriority": true,
  "ambient": 0,
  "contrast": 0,
  "rotationSpeed": 32,
  "varbitId": -1,
  "varpIndex": -1,
  "isInteractable": true,
  "rotationFlag": true,
  "isFollower": false,
  "lowPriorityFollowerOps": false,
  "category": 0,
  "height": -1,
  "stats": [
    1,
    1,
    1,
    1,
    1,
    1
  ]
}