{
  "id": 4776,
  "name": "Fortress Guard",
  "size": 1,
  "models": [
    7668,
    252,
    294,
    317,
    26632,
    177,
    518,
    541,
    28285,
    185
  ],
  "chatheadModels": [
    7667,
    84
  ],
  "standingAnimation": 808,
  "idleRotateLeftAnimation": -1,
  "idleRotateRightAnimation": -1,
  "walkingAnimation": 819,
  "rotate180Animation": 820,
  "rotateLeftAnimation": 821,
  "rotateRightAnimation": 822,
  "runAnimation": -1,
  "runRotate180Animation": -1,
  "runRotateLeftAnimation": -1,
  "runRotateRightAnimation": -1,
  "crawlAnimation": -1,
  "crawlRotate180Animation": -1,
  "crawlRotateLeftAnimation": -1,
  "crawlRotateRightAnimation": -1,
  "recolorToFind": [
    25238,
    8741,
    57,
    7952,
    61
  ],
  "recolorToReplace": [
    12,
    12,
    5652,
    -11126,
    5652
  ],
  "actions": [
    "Talk-to",
    "Attack",
    null,
    null,
    null
  ],
  "isMinimapVisible": true,
  "combatLevel": 20,
  "widthScale": 128,
  "heightScale": 128,
  "hasRenderPriority": false,
  "ambient": 0,
  "contrast": 0,
  "rotationSpeed": 32,
  "varbitId": -1,
  "varpIndex": -1,
  "isInteractable": true,
  "rotationFlag": true,
  "isFollower": false,
  "lowPriorityFollowerOps": false,
  "category": 0,
  "height": -1,
  "stats": [
    18,
    15,
    18,
    22,
    1,
    1
  ]
}