{
  "id": 4783,
  "name": "Mayor Hobb",
  "size": 1,
  "models": [
    11330,
    18192,
    18193,
    18197,
    15008,
    330,
    10301,
    10218,
    263,
    14374
  ],
  "chatheadModels": [
    11402,
    18186,
    80
  ],
  "standingAnimation": 808,
  "idleRotateLeftAnimation": -1,
  "idleRotateRightAnimation": -1,
  "walkingAnimation": -1,
  "rotate180Animation": -1,
  "rotateLeftAnimation": -1,
  "rotateRightAnimation": -1,
  "runAnimation": -1,
  "runRotate180Animation": -1,
  "runRotateLeftAnimation": -1,
  "runRotateRightAnimation": -1,
  "crawlAnimation": -1,
  "crawlRotate180Animation": -1,
  "crawlRotateLeftAnimation": -1,
  "crawlRotateRightAnimation": -1,
  "recolorToFind": [
    10828,
    10692,
    25238,
    6038,
    8741,
    4550
  ],
  "recolorToReplace": [
    -18034,
    -16228,
    -18034,
    -22469,
    -16228,
    8646
  ],
  "actions": [
    "Talk-to",
    null,
    null,
    null,
    null
  ],
  "isMinimapVisible": true,
  "combatLevel": 0,
  "widthScale": 140,
  "heightScale": 124,
  "hasRenderPriority": false,
  "ambient": 0,
  "contrast": 0,
  "rotationSpeed": 32,
  "varbitId": -1,
  "varpIndex": -1,
  "isInteractable": true,
  "rotationFlag": true,
  "isFollower": false,
  "lowPriorityFollowerOps": false,
  "category": 0,
  "height": -1,
  "stats": [
    1,
    1,
    1,
    1,
    1,
    1
  ]
}