{
  "id": 5144,
  "name": "Sigmund",
  "size": 1,
  "models": [
    5430,
    5215,
    283,
    296,
    317,
    24536,
    177,
    518,
    24537,
    181
  ],
  "chatheadModels": [
    5428,
    5207
  ],
  "standingAnimation": 808,
  "idleRotateLeftAnimation": -1,
  "idleRotateRightAnimation": -1,
  "walkingAnimation": 819,
  "rotate180Animation": 820,
  "rotateLeftAnimation": 821,
  "rotateRightAnimation": 822,
  "runAnimation": -1,
  "runRotate180Animation": -1,
  "runRotateLeftAnimation": -1,
  "runRotateRightAnimation": -1,
  "crawlAnimation": -1,
  "crawlRotate180Animation": -1,
  "crawlRotateLeftAnimation": -1,
  "crawlRotateRightAnimation": -1,
  "recolorToFind": [
    8741,
    25238,
    7952,
    61,
    8078,
    11200
  ],
  "recolorToReplace": [
    -4189,
    -4189,
    -4189,
    68,
    -4189,
    177
  ],
  "actions": [
    null,
    "Attack",
    null,
    null,
    null
  ],
  "isMinimapVisible": true,
  "combatLevel": 64,
  "widthScale": 128,
  "heightScale": 128,
  "hasRenderPriority": false,
  "ambient": 0,
  "contrast": 0,
  "headIconArchiveIds": [
    440
  ],
  "headIconSpriteIndex": [
    1
  ],
  "rotationSpeed": 32,
  "varbitId": -1,
  "varpIndex": -1,
  "isInteractable": true,
  "rotationFlag": true,
  "isFollower": false,
  "lowPriorityFollowerOps": false,
  "category": 654,
  "height": -1,
  "stats": [
    55,
    44,
    55,
    70,
    1,
    1
  ]
}