{
  "id": 5438,
  "name": "Giles",
  "size": 1,
  "models": [
    230,
    247,
    7611,
    27154,
    176,
    28285,
    181,
    8954
  ],
  "chatheadModels": [
    63,
    79
  ],
  "standingAnimation": 808,
  "idleRotateLeftAnimation": -1,
  "idleRotateRightAnimation": -1,
  "walkingAnimation": 819,
  "rotate180Animation": 820,
  "rotateLeftAnimation": 821,
  "rotateRightAnimation": 822,
  "runAnimation": -1,
  "runRotate180Animation": -1,
  "runRotateLeftAnimation": -1,
  "runRotateRightAnimation": -1,
  "crawlAnimation": -1,
  "crawlRotate180Animation": -1,
  "crawlRotateLeftAnimation": -1,
  "crawlRotateRightAnimation": -1,
  "recolorToFind": [
    8741,
    25238,
    4626,
    28318,
    908
  ],
  "recolorToReplace": [
    33,
    24,
    0,
    4,
    4
  ],
  "actions": [
    "Talk-to",
    null,
    null,
    null,
    "Dismiss"
  ],
  "isMinimapVisible": true,
  "combatLevel": 0,
  "widthScale": 145,
  "heightScale": 106,
  "hasRenderPriority": true,
  "ambient": 0,
  "contrast": 0,
  "rotationSpeed": 32,
  "varbitId": -1,
  "varpIndex": -1,
  "isInteractable": true,
  "rotationFlag": true,
  "isFollower": false,
  "lowPriorityFollowerOps": false,
  "category": 771,
  "height": -1,
  "stats": [
    1,
    1,
    1,
    1,
    1,
    1
  ]
}