{
  "id": 5497,
  "name": "null",
  "size": 1,
  "standingAnimation": 2370,
  "idleRotateLeftAnimation": -1,
  "idleRotateRightAnimation": -1,
  "walkingAnimation": 2369,
  "rotate180Animation": -1,
  "rotateLeftAnimation": -1,
  "rotateRightAnimation": -1,
  "runAnimation": -1,
  "runRotate180Animation": -1,
  "runRotateLeftAnimation": -1,
  "runRotateRightAnimation": -1,
  "crawlAnimation": -1,
  "crawlRotate180Animation": -1,
  "crawlRotateLeftAnimation": -1,
  "crawlRotateRightAnimation": -1,
  "actions": [
    null,
    "Kill",
    null,
    null,
    null
  ],
  "isMinimapVisible": true,
  "combatLevel": 3,
  "widthScale": 30,
  "heightScale": 30,
  "hasRenderPriority": false,
  "ambient": 0,
  "contrast": 0,
  "rotationSpeed": 32,
  "configs": [
    -1,
    5502,
    374,
    5502,
    5500,
    374,
    5500,
    5502,
    374,
    5502,
    373,
    374,
    373,
    5502,
    5500,
    5502,
    373,
    5500,
    373,
    374,
    5500,
    374,
    373,
    5500,
    373,
    -1
  ],
  "varbitId": -1,
  "varpIndex": 531,
  "isInteractable": true,
  "rotationFlag": true,
  "isFollower": false,
  "lowPriorityFollowerOps": false,
  "category": 269,
  "height": -1,
  "stats": [
    3,
    3,
    3,
    5,
    1,
    1
  ]
}