{
  "id": 5630,
  "name": "Giant snail",
  "size": 3,
  "models": [
    14161
  ],
  "standingAnimation": 3722,
  "idleRotateLeftAnimation": -1,
  "idleRotateRightAnimation": -1,
  "walkingAnimation": 3721,
  "rotate180Animation": -1,
  "rotateLeftAnimation": -1,
  "rotateRightAnimation": -1,
  "runAnimation": -1,
  "runRotate180Animation": -1,
  "runRotateLeftAnimation": -1,
  "runRotateRightAnimation": -1,
  "crawlAnimation": -1,
  "crawlRotate180Animation": -1,
  "crawlRotateLeftAnimation": -1,
  "crawlRotateRightAnimation": -1,
  "recolorToFind": [
    13477,
    13601,
    13596,
    13592,
    13716,
    13840
  ],
  "recolorToReplace": [
    10531,
    10526,
    10650,
    10646,
    10770,
    10894
  ],
  "actions": [
    null,
    "Attack",
    null,
    null,
    null
  ],
  "isMinimapVisible": true,
  "combatLevel": 139,
  "widthScale": 170,
  "heightScale": 170,
  "hasRenderPriority": false,
  "ambient": 15,
  "contrast": 0,
  "rotationSpeed": 32,
  "varbitId": -1,
  "varpIndex": -1,
  "isInteractable": true,
  "rotationFlag": true,
  "isFollower": false,
  "lowPriorityFollowerOps": false,
  "category": 681,
  "height": -1,
  "stats": [
    30,
    86,
    30,
    160,
    160,
    30
  ]
}