{
  "id": 5694,
  "name": "Undead Lumberjack",
  "size": 1,
  "models": [
    23214
  ],
  "standingAnimation": 5966,
  "idleRotateLeftAnimation": -1,
  "idleRotateRightAnimation": -1,
  "walkingAnimation": 5966,
  "rotate180Animation": -1,
  "rotateLeftAnimation": -1,
  "rotateRightAnimation": -1,
  "runAnimation": -1,
  "runRotate180Animation": -1,
  "runRotateLeftAnimation": -1,
  "runRotateRightAnimation": -1,
  "crawlAnimation": -1,
  "crawlRotate180Animation": -1,
  "crawlRotateLeftAnimation": -1,
  "crawlRotateRightAnimation": -1,
  "recolorToFind": [
    5276,
    5281,
    -22502,
    -22493,
    -22489,
    -22485
  ],
  "recolorToReplace": [
    10266,
    10270,
    47,
    51,
    55,
    59
  ],
  "actions": [
    null,
    "Attack",
    null,
    null,
    null
  ],
  "isMinimapVisible": true,
  "combatLevel": 55,
  "widthScale": 128,
  "heightScale": 128,
  "hasRenderPriority": false,
  "ambient": 10,
  "contrast": 10,
  "rotationSpeed": 32,
  "varbitId": -1,
  "varpIndex": -1,
  "isInteractable": true,
  "rotationFlag": true,
  "isFollower": false,
  "lowPriorityFollowerOps": false,
  "category": 696,
  "height": -1,
  "stats": [
    133,
    15,
    16,
    15,
    1,
    1
  ]
}