{
  "id": 5881,
  "name": "Blue dragon",
  "size": 4,
  "models": [
    17410,
    17425,
    17420,
    17423
  ],
  "standingAnimation": 90,
  "idleRotateLeftAnimation": -1,
  "idleRotateRightAnimation": -1,
  "walkingAnimation": 79,
  "rotate180Animation": -1,
  "rotateLeftAnimation": -1,
  "rotateRightAnimation": -1,
  "runAnimation": -1,
  "runRotate180Animation": -1,
  "runRotateLeftAnimation": -1,
  "runRotateRightAnimation": -1,
  "crawlAnimation": -1,
  "crawlRotate180Animation": -1,
  "crawlRotateLeftAnimation": -1,
  "crawlRotateRightAnimation": -1,
  "recolorToFind": [
    910,
    912,
    1938,
    1814,
    2588,
    2469
  ],
  "recolorToReplace": [
    -22242,
    -22237,
    -22233,
    -24279,
    -27459,
    -27450
  ],
  "actions": [
    null,
    "Attack",
    null,
    null,
    null
  ],
  "isMinimapVisible": true,
  "combatLevel": 111,
  "widthScale": 110,
  "heightScale": 110,
  "hasRenderPriority": false,
  "ambient": 0,
  "contrast": 0,
  "rotationSpeed": 32,
  "varbitId": -1,
  "varpIndex": -1,
  "isInteractable": true,
  "rotationFlag": true,
  "isFollower": false,
  "lowPriorityFollowerOps": false,
  "category": 347,
  "height": -1,
  "stats": [
    95,
    95,
    95,
    105,
    1,
    1
  ]
}