{
  "id": 5919,
  "name": "Grace",
  "size": 1,
  "models": [
    28882,
    28887,
    28886,
    28884,
    28885,
    28888,
    28883
  ],
  "chatheadModels": [
    28895,
    120
  ],
  "standingAnimation": 808,
  "idleRotateLeftAnimation": -1,
  "idleRotateRightAnimation": -1,
  "walkingAnimation": 819,
  "rotate180Animation": 820,
  "rotateLeftAnimation": 821,
  "rotateRightAnimation": 822,
  "runAnimation": -1,
  "runRotate180Animation": -1,
  "runRotateLeftAnimation": -1,
  "runRotateRightAnimation": -1,
  "crawlAnimation": -1,
  "crawlRotate180Animation": -1,
  "crawlRotateLeftAnimation": -1,
  "crawlRotateRightAnimation": -1,
  "recolorToFind": [
    7700,
    11200,
    926,
    6430,
    10378,
    10270
  ],
  "recolorToReplace": [
    5314,
    3288,
    5314,
    5314,
    3288,
    6348
  ],
  "actions": [
    "Talk-to",
    null,
    "Trade",
    "View Laps",
    "Toggle Counter"
  ],
  "isMinimapVisible": true,
  "combatLevel": 0,
  "widthScale": 128,
  "heightScale": 128,
  "hasRenderPriority": false,
  "ambient": 0,
  "contrast": 0,
  "rotationSpeed": 32,
  "varbitId": -1,
  "varpIndex": -1,
  "isInteractable": true,
  "rotationFlag": true,
  "isFollower": false,
  "lowPriorityFollowerOps": false,
  "category": 0,
  "height": -1,
  "stats": [
    1,
    1,
    1,
    1,
    1,
    1
  ]
}