{
  "id": 5978,
  "name": "Entrance Guardian",
  "size": 1,
  "models": [
    10633,
    10635,
    10637,
    10638,
    10630
  ],
  "chatheadModels": [
    10695
  ],
  "standingAnimation": 3033,
  "idleRotateLeftAnimation": -1,
  "idleRotateRightAnimation": -1,
  "walkingAnimation": 3034,
  "rotate180Animation": -1,
  "rotateLeftAnimation": -1,
  "rotateRightAnimation": -1,
  "runAnimation": -1,
  "runRotate180Animation": -1,
  "runRotateLeftAnimation": -1,
  "runRotateRightAnimation": -1,
  "crawlAnimation": -1,
  "crawlRotate180Animation": -1,
  "crawlRotateLeftAnimation": -1,
  "crawlRotateRightAnimation": -1,
  "recolorToFind": [
    -22456,
    -22460,
    -22467,
    -22473,
    -22481,
    24
  ],
  "recolorToReplace": [
    10314,
    10314,
    10310,
    10312,
    14395,
    10270
  ],
  "actions": [
    "Talk-to",
    null,
    null,
    null,
    null
  ],
  "isMinimapVisible": true,
  "combatLevel": 0,
  "widthScale": 60,
  "heightScale": 60,
  "hasRenderPriority": false,
  "ambient": 10,
  "contrast": 10,
  "rotationSpeed": 32,
  "varbitId": -1,
  "varpIndex": -1,
  "isInteractable": true,
  "rotationFlag": true,
  "isFollower": false,
  "lowPriorityFollowerOps": false,
  "category": 0,
  "height": -1,
  "stats": [
    1,
    1,
    1,
    1,
    1,
    1
  ]
}