{
  "id": 6052,
  "name": "Black Guard Berserker",
  "size": 1,
  "models": [
    7025,
    7050,
    7039,
    7073,
    7042
  ],
  "chatheadModels": [
    6984
  ],
  "standingAnimation": 101,
  "idleRotateLeftAnimation": -1,
  "idleRotateRightAnimation": -1,
  "walkingAnimation": 98,
  "rotate180Animation": -1,
  "rotateLeftAnimation": -1,
  "rotateRightAnimation": -1,
  "runAnimation": -1,
  "runRotate180Animation": -1,
  "runRotateLeftAnimation": -1,
  "runRotateRightAnimation": -1,
  "crawlAnimation": -1,
  "crawlRotate180Animation": -1,
  "crawlRotateLeftAnimation": -1,
  "crawlRotateRightAnimation": -1,
  "recolorToFind": [
    61,
    8,
    33,
    908,
    906
  ],
  "recolorToReplace": [
    22406,
    22406,
    10382,
    22406,
    22406
  ],
  "actions": [
    "Talk-to",
    "Attack",
    null,
    null,
    null
  ],
  "isMinimapVisible": true,
  "combatLevel": 66,
  "widthScale": 145,
  "heightScale": 135,
  "hasRenderPriority": false,
  "ambient": 0,
  "contrast": 0,
  "rotationSpeed": 32,
  "varbitId": -1,
  "varpIndex": -1,
  "isInteractable": true,
  "rotationFlag": true,
  "isFollower": false,
  "lowPriorityFollowerOps": false,
  "category": 352,
  "height": -1,
  "stats": [
    60,
    60,
    60,
    50,
    1,
    1
  ]
}