{
  "id": 6075,
  "name": "Tortoise",
  "size": 3,
  "models": [
    14800,
    14802,
    14798
  ],
  "standingAnimation": 3952,
  "idleRotateLeftAnimation": -1,
  "idleRotateRightAnimation": -1,
  "walkingAnimation": 3953,
  "rotate180Animation": -1,
  "rotateLeftAnimation": -1,
  "rotateRightAnimation": -1,
  "runAnimation": -1,
  "runRotate180Animation": -1,
  "runRotateLeftAnimation": -1,
  "runRotateRightAnimation": -1,
  "crawlAnimation": -1,
  "crawlRotate180Animation": -1,
  "crawlRotateLeftAnimation": -1,
  "crawlRotateRightAnimation": -1,
  "actions": [
    null,
    "Attack",
    null,
    null,
    null
  ],
  "isMinimapVisible": true,
  "combatLevel": 79,
  "widthScale": 115,
  "heightScale": 120,
  "hasRenderPriority": true,
  "ambient": 10,
  "contrast": 15,
  "rotationSpeed": 15,
  "varbitId": -1,
  "varpIndex": -1,
  "isInteractable": true,
  "rotationFlag": true,
  "isFollower": false,
  "lowPriorityFollowerOps": false,
  "category": 0,
  "height": -1,
  "stats": [
    15,
    80,
    90,
    100,
    1,
    1
  ]
}