{
  "id": 611,
  "name": "Zombie protester",
  "size": 1,
  "models": [
    21102,
    21068,
    21050,
    21097,
    21129,
    21083
  ],
  "chatheadModels": [
    21388
  ],
  "standingAnimation": 5584,
  "idleRotateLeftAnimation": -1,
  "idleRotateRightAnimation": -1,
  "walkingAnimation": 5583,
  "rotate180Animation": -1,
  "rotateLeftAnimation": -1,
  "rotateRightAnimation": -1,
  "runAnimation": -1,
  "runRotate180Animation": -1,
  "runRotateLeftAnimation": -1,
  "runRotateRightAnimation": -1,
  "crawlAnimation": -1,
  "crawlRotate180Animation": -1,
  "crawlRotateLeftAnimation": -1,
  "crawlRotateRightAnimation": -1,
  "recolorToFind": [
    13506,
    13501,
    13493,
    13489,
    13497
  ],
  "recolorToReplace": [
    28866,
    28866,
    28973,
    28973,
    28857
  ],
  "actions": [
    "Talk-to",
    null,
    null,
    null,
    null
  ],
  "isMinimapVisible": true,
  "combatLevel": 0,
  "widthScale": 118,
  "heightScale": 118,
  "hasRenderPriority": false,
  "ambient": 0,
  "contrast": 0,
  "rotationSpeed": 32,
  "varbitId": -1,
  "varpIndex": -1,
  "isInteractable": true,
  "rotationFlag": true,
  "isFollower": false,
  "lowPriorityFollowerOps": false,
  "category": 305,
  "height": -1,
  "stats": [
    1,
    1,
    1,
    1,
    99,
    1
  ]
}