{
  "id": 616,
  "name": "Zombie pirate",
  "size": 1,
  "models": [
    21431,
    21476,
    21414,
    21442,
    21462,
    21456,
    21425
  ],
  "chatheadModels": [
    21393
  ],
  "standingAnimation": 5650,
  "idleRotateLeftAnimation": -1,
  "idleRotateRightAnimation": -1,
  "walkingAnimation": 5652,
  "rotate180Animation": -1,
  "rotateLeftAnimation": -1,
  "rotateRightAnimation": -1,
  "runAnimation": -1,
  "runRotate180Animation": -1,
  "runRotateLeftAnimation": -1,
  "runRotateRightAnimation": -1,
  "crawlAnimation": -1,
  "crawlRotate180Animation": -1,
  "crawlRotateLeftAnimation": -1,
  "crawlRotateRightAnimation": -1,
  "recolorToFind": [
    28744,
    28740,
    28736,
    28731,
    127
  ],
  "recolorToReplace": [
    28866,
    28861,
    28857,
    28853,
    404
  ],
  "actions": [
    null,
    "Attack",
    null,
    null,
    null
  ],
  "isMinimapVisible": true,
  "combatLevel": 57,
  "widthScale": 128,
  "heightScale": 128,
  "hasRenderPriority": false,
  "ambient": 0,
  "contrast": 0,
  "rotationSpeed": 32,
  "varbitId": -1,
  "varpIndex": -1,
  "isInteractable": true,
  "rotationFlag": true,
  "isFollower": false,
  "lowPriorityFollowerOps": false,
  "category": 274,
  "height": -1,
  "stats": [
    49,
    50,
    50,
    52,
    1,
    1
  ]
}