{
  "id": 626,
  "name": "Fever spider",
  "size": 2,
  "models": [
    20302,
    20301
  ],
  "standingAnimation": 5318,
  "idleRotateLeftAnimation": -1,
  "idleRotateRightAnimation": -1,
  "walkingAnimation": 5317,
  "rotate180Animation": -1,
  "rotateLeftAnimation": -1,
  "rotateRightAnimation": -1,
  "runAnimation": -1,
  "runRotate180Animation": -1,
  "runRotateLeftAnimation": -1,
  "runRotateRightAnimation": -1,
  "crawlAnimation": -1,
  "crawlRotate180Animation": -1,
  "crawlRotateLeftAnimation": -1,
  "crawlRotateRightAnimation": -1,
  "recolorToFind": [
    -9280,
    960,
    -31808,
    22443,
    -15437,
    11200
  ],
  "recolorToReplace": [
    6953,
    4894,
    20,
    6930,
    5029,
    5388
  ],
  "actions": [
    null,
    "Attack",
    null,
    null,
    null
  ],
  "isMinimapVisible": true,
  "combatLevel": 49,
  "widthScale": 78,
  "heightScale": 78,
  "hasRenderPriority": false,
  "ambient": 0,
  "contrast": 0,
  "rotationSpeed": 32,
  "varbitId": -1,
  "varpIndex": -1,
  "isInteractable": true,
  "rotationFlag": true,
  "isFollower": false,
  "lowPriorityFollowerOps": false,
  "category": 306,
  "height": -1,
  "stats": [
    60,
    40,
    30,
    40,
    1,
    1
  ]
}