{
  "id": 63,
  "name": "Zombie",
  "size": 1,
  "models": [
    21011,
    20968,
    20961,
    20990,
    21025,
    20988,
    21031
  ],
  "standingAnimation": 5572,
  "idleRotateLeftAnimation": -1,
  "idleRotateRightAnimation": -1,
  "walkingAnimation": 5570,
  "rotate180Animation": 5790,
  "rotateLeftAnimation": 5788,
  "rotateRightAnimation": 5789,
  "runAnimation": -1,
  "runRotate180Animation": -1,
  "runRotateLeftAnimation": -1,
  "runRotateRightAnimation": -1,
  "crawlAnimation": -1,
  "crawlRotate180Animation": -1,
  "crawlRotateLeftAnimation": -1,
  "crawlRotateRightAnimation": -1,
  "recolorToFind": [
    13506,
    13501,
    13493,
    13489,
    13497
  ],
  "recolorToReplace": [
    15405,
    15405,
    15397,
    15397,
    16425
  ],
  "actions": [
    null,
    "Attack",
    null,
    null,
    null
  ],
  "isMinimapVisible": true,
  "combatLevel": 24,
  "widthScale": 128,
  "heightScale": 128,
  "hasRenderPriority": false,
  "ambient": 0,
  "contrast": 0,
  "rotationSpeed": 32,
  "varbitId": -1,
  "varpIndex": -1,
  "isInteractable": true,
  "rotationFlag": true,
  "isFollower": false,
  "lowPriorityFollowerOps": false,
  "category": 274,
  "height": -1,
  "stats": [
    19,
    16,
    21,
    30,
    1,
    1
  ]
}