{
  "id": 6312,
  "name": "Gelatinnoth Mother (hard)",
  "size": 3,
  "models": [
    13442
  ],
  "standingAnimation": 1338,
  "idleRotateLeftAnimation": -1,
  "idleRotateRightAnimation": -1,
  "walkingAnimation": 1339,
  "rotate180Animation": -1,
  "rotateLeftAnimation": -1,
  "rotateRightAnimation": -1,
  "runAnimation": -1,
  "runRotate180Animation": -1,
  "runRotateLeftAnimation": -1,
  "runRotateRightAnimation": -1,
  "crawlAnimation": -1,
  "crawlRotate180Animation": -1,
  "crawlRotateLeftAnimation": -1,
  "crawlRotateRightAnimation": -1,
  "recolorToFind": [
    935
  ],
  "recolorToReplace": [
    103
  ],
  "actions": [
    null,
    "Attack",
    null,
    null,
    null
  ],
  "isMinimapVisible": true,
  "combatLevel": 201,
  "widthScale": 128,
  "heightScale": 128,
  "hasRenderPriority": true,
  "ambient": 0,
  "contrast": 0,
  "rotationSpeed": 32,
  "varbitId": -1,
  "varpIndex": -1,
  "isInteractable": true,
  "rotationFlag": true,
  "isFollower": false,
  "lowPriorityFollowerOps": false,
  "category": 724,
  "height": -1,
  "stats": [
    186,
    81,
    186,
    240,
    120,
    1
  ]
}