{
  "id": 643,
  "name": "Arrg",
  "size": 2,
  "models": [
    3754,
    3759,
    3756,
    3757,
    3770,
    3769
  ],
  "chatheadModels": [
    3791
  ],
  "standingAnimation": 286,
  "idleRotateLeftAnimation": -1,
  "idleRotateRightAnimation": -1,
  "walkingAnimation": 283,
  "rotate180Animation": -1,
  "rotateLeftAnimation": -1,
  "rotateRightAnimation": -1,
  "runAnimation": -1,
  "runRotate180Animation": -1,
  "runRotateLeftAnimation": -1,
  "runRotateRightAnimation": -1,
  "crawlAnimation": -1,
  "crawlRotate180Animation": -1,
  "crawlRotateLeftAnimation": -1,
  "crawlRotateRightAnimation": -1,
  "recolorToFind": [
    61,
    21570
  ],
  "recolorToReplace": [
    6435,
    4510
  ],
  "actions": [
    null,
    "Attack",
    null,
    null,
    null
  ],
  "isMinimapVisible": true,
  "combatLevel": 113,
  "widthScale": 150,
  "heightScale": 150,
  "hasRenderPriority": false,
  "ambient": 0,
  "contrast": 0,
  "rotationSpeed": 32,
  "varbitId": -1,
  "varpIndex": -1,
  "isInteractable": true,
  "rotationFlag": true,
  "isFollower": false,
  "lowPriorityFollowerOps": false,
  "category": 309,
  "height": -1,
  "stats": [
    70,
    40,
    140,
    140,
    70,
    0
  ]
}