{
  "id": 659,
  "name": "Goblin",
  "size": 1,
  "models": [
    24431,
    24443,
    24448,
    24466,
    24476,
    24485,
    24502
  ],
  "chatheadModels": [
    24218
  ],
  "standingAnimation": 6181,
  "idleRotateLeftAnimation": -1,
  "idleRotateRightAnimation": -1,
  "walkingAnimation": 6180,
  "rotate180Animation": -1,
  "rotateLeftAnimation": -1,
  "rotateRightAnimation": -1,
  "runAnimation": -1,
  "runRotate180Animation": -1,
  "runRotateLeftAnimation": -1,
  "runRotateRightAnimation": -1,
  "crawlAnimation": -1,
  "crawlRotate180Animation": -1,
  "crawlRotateLeftAnimation": -1,
  "crawlRotateRightAnimation": -1,
  "recolorToFind": [
    6331,
    6323,
    11941,
    11045
  ],
  "recolorToReplace": [
    916,
    912,
    10782,
    11038
  ],
  "actions": [
    "Talk-to",
    "Attack",
    null,
    null,
    null
  ],
  "isMinimapVisible": true,
  "combatLevel": 5,
  "widthScale": 124,
  "heightScale": 124,
  "hasRenderPriority": false,
  "ambient": 15,
  "contrast": 0,
  "rotationSpeed": 32,
  "varbitId": -1,
  "varpIndex": -1,
  "isInteractable": true,
  "rotationFlag": true,
  "isFollower": false,
  "lowPriorityFollowerOps": false,
  "category": 311,
  "height": -1,
  "stats": [
    3,
    4,
    1,
    12,
    1,
    1
  ]
}