{
  "id": 6612,
  "name": "Vet'ion",
  "size": 3,
  "models": [
    47383,
    47388,
    47385,
    47389
  ],
  "standingAnimation": 9966,
  "idleRotateLeftAnimation": -1,
  "idleRotateRightAnimation": -1,
  "walkingAnimation": 9968,
  "rotate180Animation": -1,
  "rotateLeftAnimation": -1,
  "rotateRightAnimation": -1,
  "runAnimation": -1,
  "runRotate180Animation": -1,
  "runRotateLeftAnimation": -1,
  "runRotateRightAnimation": -1,
  "crawlAnimation": -1,
  "crawlRotate180Animation": -1,
  "crawlRotateLeftAnimation": -1,
  "crawlRotateRightAnimation": -1,
  "recolorToFind": [
    -10352,
    -10610,
    -10843,
    -10346,
    -10965,
    -10732
  ],
  "recolorToReplace": [
    4019,
    4007,
    4007,
    3879,
    4023,
    19406
  ],
  "actions": [
    null,
    "Attack",
    null,
    null,
    null
  ],
  "isMinimapVisible": true,
  "combatLevel": 454,
  "widthScale": 190,
  "heightScale": 190,
  "hasRenderPriority": false,
  "ambient": 0,
  "contrast": 0,
  "rotationSpeed": 32,
  "varbitId": -1,
  "varpIndex": -1,
  "isInteractable": true,
  "rotationFlag": true,
  "isFollower": false,
  "lowPriorityFollowerOps": false,
  "params": {
    "509": 2,
    "1361": 2,
    "510": "Vet'ion"
  },
  "category": 746,
  "height": -1,
  "stats": [
    430,
    395,
    430,
    255,
    1,
    300
  ]
}