{
  "id": 6618,
  "name": "Crazy archaeologist",
  "size": 1,
  "models": [
    6364,
    203,
    250,
    28515,
    3707,
    27139,
    176,
    28285,
    185,
    556
  ],
  "chatheadModels": [
    45,
    6212,
    82
  ],
  "standingAnimation": 3846,
  "idleRotateLeftAnimation": -1,
  "idleRotateRightAnimation": -1,
  "walkingAnimation": 819,
  "rotate180Animation": 820,
  "rotateLeftAnimation": 821,
  "rotateRightAnimation": 822,
  "runAnimation": -1,
  "runRotate180Animation": -1,
  "runRotateLeftAnimation": -1,
  "runRotateRightAnimation": -1,
  "crawlAnimation": -1,
  "crawlRotate180Animation": -1,
  "crawlRotateLeftAnimation": -1,
  "crawlRotateRightAnimation": -1,
  "recolorToFind": [
    -22464,
    3131,
    3127,
    3123,
    25238,
    5018
  ],
  "recolorToReplace": [
    12,
    10388,
    10514,
    10638,
    10388,
    -29917
  ],
  "actions": [
    null,
    "Attack",
    null,
    null,
    null
  ],
  "isMinimapVisible": true,
  "combatLevel": 204,
  "widthScale": 140,
  "heightScale": 140,
  "hasRenderPriority": false,
  "ambient": 35,
  "contrast": 35,
  "rotationSpeed": 32,
  "varbitId": -1,
  "varpIndex": -1,
  "isInteractable": true,
  "rotationFlag": true,
  "isFollower": false,
  "lowPriorityFollowerOps": false,
  "params": {
    "1361": 2
  },
  "category": 0,
  "height": -1,
  "stats": [
    160,
    240,
    90,
    225,
    180,
    1
  ]
}