{
  "id": 6634,
  "name": "K'ril Tsutsaroth Jr.",
  "size": 1,
  "models": [
    27683,
    27681,
    27692,
    27682,
    27690
  ],
  "chatheadModels": [
    28858
  ],
  "standingAnimation": 6935,
  "idleRotateLeftAnimation": -1,
  "idleRotateRightAnimation": -1,
  "walkingAnimation": 4070,
  "rotate180Animation": -1,
  "rotateLeftAnimation": -1,
  "rotateRightAnimation": -1,
  "runAnimation": -1,
  "runRotate180Animation": -1,
  "runRotateLeftAnimation": -1,
  "runRotateRightAnimation": -1,
  "crawlAnimation": -1,
  "crawlRotate180Animation": -1,
  "crawlRotateLeftAnimation": -1,
  "crawlRotateRightAnimation": -1,
  "actions": [
    "Talk-to",
    null,
    "Pick-up",
    null,
    null
  ],
  "isMinimapVisible": false,
  "combatLevel": 0,
  "widthScale": 20,
  "heightScale": 20,
  "hasRenderPriority": false,
  "ambient": 30,
  "contrast": 30,
  "rotationSpeed": 32,
  "varbitId": -1,
  "varpIndex": -1,
  "isInteractable": true,
  "rotationFlag": true,
  "isFollower": true,
  "lowPriorityFollowerOps": true,
  "category": 0,
  "height": -1,
  "stats": [
    1,
    1,
    1,
    1,
    1,
    1
  ]
}