{
  "id": 6911,
  "name": "Soldier (tier 4)",
  "size": 1,
  "models": [
    29695,
    29776,
    29768,
    29701,
    29705,
    29778,
    540
  ],
  "chatheadModels": [
    30944
  ],
  "standingAnimation": 813,
  "idleRotateLeftAnimation": -1,
  "idleRotateRightAnimation": -1,
  "walkingAnimation": 1205,
  "rotate180Animation": 1206,
  "rotateLeftAnimation": 1207,
  "rotateRightAnimation": 1208,
  "runAnimation": -1,
  "runRotate180Animation": -1,
  "runRotateLeftAnimation": -1,
  "runRotateRightAnimation": -1,
  "crawlAnimation": -1,
  "crawlRotate180Animation": -1,
  "crawlRotateLeftAnimation": -1,
  "crawlRotateRightAnimation": -1,
  "recolorToFind": [
    4550
  ],
  "recolorToReplace": [
    4533
  ],
  "actions": [
    null,
    "Attack",
    null,
    null,
    null
  ],
  "isMinimapVisible": true,
  "combatLevel": 70,
  "widthScale": 128,
  "heightScale": 128,
  "hasRenderPriority": false,
  "ambient": 0,
  "contrast": 0,
  "rotationSpeed": 32,
  "varbitId": -1,
  "varpIndex": -1,
  "isInteractable": true,
  "rotationFlag": true,
  "isFollower": false,
  "lowPriorityFollowerOps": false,
  "category": 928,
  "height": -1,
  "stats": [
    60,
    60,
    60,
    65,
    1,
    1
  ]
}