{
  "id": 6937,
  "name": "Ramocean",
  "size": 1,
  "models": [
    12749,
    18192,
    22163,
    10219,
    10980,
    179,
    12750,
    19948,
    12767
  ],
  "chatheadModels": [
    41,
    26661,
    26830
  ],
  "standingAnimation": 813,
  "idleRotateLeftAnimation": -1,
  "idleRotateRightAnimation": -1,
  "walkingAnimation": 1205,
  "rotate180Animation": 1206,
  "rotateLeftAnimation": 1209,
  "rotateRightAnimation": 1209,
  "runAnimation": -1,
  "runRotate180Animation": -1,
  "runRotateLeftAnimation": -1,
  "runRotateRightAnimation": -1,
  "crawlAnimation": -1,
  "crawlRotate180Animation": -1,
  "crawlRotateLeftAnimation": -1,
  "crawlRotateRightAnimation": -1,
  "recolorToFind": [
    6798,
    8741,
    8860,
    4550,
    -21608,
    78
  ],
  "recolorToReplace": [
    5772,
    -3188,
    -3194,
    3627,
    -32506,
    5671
  ],
  "actions": [
    "Talk-to",
    null,
    null,
    null,
    null
  ],
  "isMinimapVisible": true,
  "combatLevel": 0,
  "widthScale": 128,
  "heightScale": 128,
  "hasRenderPriority": true,
  "ambient": 0,
  "contrast": 0,
  "rotationSpeed": 32,
  "varbitId": -1,
  "varpIndex": -1,
  "isInteractable": true,
  "rotationFlag": true,
  "isFollower": false,
  "lowPriorityFollowerOps": false,
  "category": 0,
  "height": -1,
  "stats": [
    1,
    1,
    1,
    1,
    1,
    1
  ]
}