{
  "id": 6988,
  "name": "Man",
  "size": 1,
  "models": [
    217,
    246,
    28515,
    326,
    26619,
    177,
    28346,
    185
  ],
  "chatheadModels": [
    55
  ],
  "standingAnimation": 808,
  "idleRotateLeftAnimation": -1,
  "idleRotateRightAnimation": -1,
  "walkingAnimation": 819,
  "rotate180Animation": 820,
  "rotateLeftAnimation": 821,
  "rotateRightAnimation": 822,
  "runAnimation": -1,
  "runRotate180Animation": -1,
  "runRotateLeftAnimation": -1,
  "runRotateRightAnimation": -1,
  "crawlAnimation": -1,
  "crawlRotate180Animation": -1,
  "crawlRotateLeftAnimation": -1,
  "crawlRotateRightAnimation": -1,
  "recolorToFind": [
    6798,
    8741,
    25238
  ],
  "recolorToReplace": [
    8755,
    3858,
    12585
  ],
  "actions": [
    "Talk-to",
    "Attack",
    "Pickpocket",
    null,
    null
  ],
  "isMinimapVisible": true,
  "combatLevel": 2,
  "widthScale": 128,
  "heightScale": 128,
  "hasRenderPriority": false,
  "ambient": 0,
  "contrast": 0,
  "rotationSpeed": 32,
  "varbitId": -1,
  "varpIndex": -1,
  "isInteractable": true,
  "rotationFlag": true,
  "isFollower": false,
  "lowPriorityFollowerOps": false,
  "category": 266,
  "height": -1,
  "stats": [
    1,
    1,
    1,
    7,
    1,
    1
  ]
}