{
  "id": 7147,
  "name": "Demonic gorilla",
  "size": 2,
  "models": [
    31241
  ],
  "standingAnimation": 7230,
  "idleRotateLeftAnimation": -1,
  "idleRotateRightAnimation": -1,
  "walkingAnimation": 7233,
  "rotate180Animation": -1,
  "rotateLeftAnimation": -1,
  "rotateRightAnimation": -1,
  "runAnimation": -1,
  "runRotate180Animation": -1,
  "runRotateLeftAnimation": -1,
  "runRotateRightAnimation": -1,
  "crawlAnimation": -1,
  "crawlRotate180Animation": -1,
  "crawlRotateLeftAnimation": -1,
  "crawlRotateRightAnimation": -1,
  "recolorToFind": [
    10266
  ],
  "recolorToReplace": [
    28
  ],
  "actions": [
    null,
    "Attack",
    null,
    null,
    null
  ],
  "isMinimapVisible": true,
  "combatLevel": 275,
  "widthScale": 64,
  "heightScale": 64,
  "hasRenderPriority": false,
  "ambient": -10,
  "contrast": 0,
  "headIconArchiveIds": [
    440
  ],
  "headIconSpriteIndex": [
    0
  ],
  "rotationSpeed": 32,
  "varbitId": -1,
  "varpIndex": -1,
  "isInteractable": true,
  "rotationFlag": true,
  "isFollower": false,
  "lowPriorityFollowerOps": false,
  "category": 947,
  "height": -1,
  "stats": [
    205,
    200,
    195,
    380,
    195,
    195
  ]
}