{
  "id": 7222,
  "name": "Scurrius",
  "size": 3,
  "models": [
    50146,
    50145,
    50144,
    50147
  ],
  "standingAnimation": 10687,
  "idleRotateLeftAnimation": -1,
  "idleRotateRightAnimation": -1,
  "walkingAnimation": 10690,
  "rotate180Animation": -1,
  "rotateLeftAnimation": -1,
  "rotateRightAnimation": -1,
  "runAnimation": 10691,
  "runRotate180Animation": -1,
  "runRotateLeftAnimation": -1,
  "runRotateRightAnimation": -1,
  "crawlAnimation": -1,
  "crawlRotate180Animation": -1,
  "crawlRotateLeftAnimation": -1,
  "crawlRotateRightAnimation": -1,
  "actions": [
    null,
    "Attack",
    null,
    null,
    null
  ],
  "isMinimapVisible": true,
  "combatLevel": 200,
  "widthScale": 90,
  "heightScale": 90,
  "hasRenderPriority": true,
  "ambient": 10,
  "contrast": 100,
  "rotationSpeed": 50,
  "varbitId": -1,
  "varpIndex": -1,
  "isInteractable": true,
  "rotationFlag": true,
  "isFollower": false,
  "lowPriorityFollowerOps": false,
  "params": {
    "509": 2,
    "510": "Scurrius"
  },
  "category": 9,
  "height": -1,
  "stats": [
    300,
    60,
    100,
    500,
    50,
    50
  ]
}