{
  "id": 7227,
  "name": "Miriam",
  "size": 1,
  "models": [
    6019,
    7035,
    7064,
    7038,
    7048,
    7068,
    6021
  ],
  "chatheadModels": [
    6994,
    6026
  ],
  "standingAnimation": 101,
  "idleRotateLeftAnimation": -1,
  "idleRotateRightAnimation": -1,
  "walkingAnimation": 98,
  "rotate180Animation": -1,
  "rotateLeftAnimation": -1,
  "rotateRightAnimation": -1,
  "runAnimation": -1,
  "runRotate180Animation": -1,
  "runRotateLeftAnimation": -1,
  "runRotateRightAnimation": -1,
  "crawlAnimation": -1,
  "crawlRotate180Animation": -1,
  "crawlRotateLeftAnimation": -1,
  "crawlRotateRightAnimation": -1,
  "recolorToFind": [
    10659,
    4550,
    7062,
    61,
    2578,
    910
  ],
  "recolorToReplace": [
    -29802,
    4537,
    6032,
    7054,
    7054,
    6020
  ],
  "actions": [
    "Talk-to",
    null,
    "Travel",
    null,
    null
  ],
  "isMinimapVisible": true,
  "combatLevel": 0,
  "widthScale": 128,
  "heightScale": 128,
  "hasRenderPriority": true,
  "ambient": 0,
  "contrast": 0,
  "rotationSpeed": 32,
  "varbitId": -1,
  "varpIndex": -1,
  "isInteractable": true,
  "rotationFlag": true,
  "isFollower": false,
  "lowPriorityFollowerOps": false,
  "category": 1897,
  "height": -1,
  "stats": [
    1,
    1,
    1,
    1,
    1,
    1
  ]
}