{
  "id": 7248,
  "name": "Lesser demon",
  "size": 2,
  "models": [
    17379,
    17395,
    17386,
    17388,
    17390
  ],
  "standingAnimation": 66,
  "idleRotateLeftAnimation": -1,
  "idleRotateRightAnimation": -1,
  "walkingAnimation": 63,
  "rotate180Animation": -1,
  "rotateLeftAnimation": -1,
  "rotateRightAnimation": -1,
  "runAnimation": -1,
  "runRotate180Animation": -1,
  "runRotateLeftAnimation": -1,
  "runRotateRightAnimation": -1,
  "crawlAnimation": -1,
  "crawlRotate180Animation": -1,
  "crawlRotateLeftAnimation": -1,
  "crawlRotateRightAnimation": -1,
  "recolorToFind": [
    1690,
    1814,
    1938,
    912,
    910,
    0
  ],
  "recolorToReplace": [
    173,
    5786,
    284,
    404,
    17052,
    7386
  ],
  "actions": [
    null,
    "Attack",
    null,
    null,
    null
  ],
  "isMinimapVisible": true,
  "combatLevel": 94,
  "widthScale": 84,
  "heightScale": 84,
  "hasRenderPriority": false,
  "ambient": 0,
  "contrast": 0,
  "rotationSpeed": 32,
  "varbitId": -1,
  "varpIndex": -1,
  "isInteractable": true,
  "rotationFlag": true,
  "isFollower": false,
  "lowPriorityFollowerOps": false,
  "category": 275,
  "height": -1,
  "stats": [
    80,
    85,
    70,
    98,
    1,
    1
  ]
}