{
  "id": 7278,
  "name": "Greater Nechryael",
  "size": 1,
  "models": [
    5074
  ],
  "standingAnimation": 1527,
  "idleRotateLeftAnimation": -1,
  "idleRotateRightAnimation": -1,
  "walkingAnimation": 1526,
  "rotate180Animation": -1,
  "rotateLeftAnimation": -1,
  "rotateRightAnimation": -1,
  "runAnimation": -1,
  "runRotate180Animation": -1,
  "runRotateLeftAnimation": -1,
  "runRotateRightAnimation": -1,
  "crawlAnimation": -1,
  "crawlRotate180Animation": -1,
  "crawlRotateLeftAnimation": -1,
  "crawlRotateRightAnimation": -1,
  "recolorToFind": [
    2981
  ],
  "recolorToReplace": [
    908
  ],
  "actions": [
    null,
    "Attack",
    null,
    null,
    null
  ],
  "isMinimapVisible": true,
  "combatLevel": 200,
  "widthScale": 120,
  "heightScale": 120,
  "hasRenderPriority": false,
  "ambient": -25,
  "contrast": -15,
  "rotationSpeed": 32,
  "varbitId": -1,
  "varpIndex": -1,
  "isInteractable": true,
  "rotationFlag": true,
  "isFollower": false,
  "lowPriorityFollowerOps": false,
  "category": 203,
  "height": -1,
  "stats": [
    197,
    85,
    197,
    205,
    1,
    1
  ]
}