{
  "id": 7308,
  "name": "Ancient Wizard",
  "size": 1,
  "models": [
    31793,
    214,
    250,
    31806,
    3189,
    31796,
    177,
    31782,
    181,
    16846
  ],
  "chatheadModels": [
    82,
    52,
    31945
  ],
  "standingAnimation": 4591,
  "idleRotateLeftAnimation": -1,
  "idleRotateRightAnimation": -1,
  "walkingAnimation": 4226,
  "rotate180Animation": 4227,
  "rotateLeftAnimation": 821,
  "rotateRightAnimation": 822,
  "runAnimation": -1,
  "runRotate180Animation": -1,
  "runRotateLeftAnimation": -1,
  "runRotateRightAnimation": -1,
  "crawlAnimation": -1,
  "crawlRotate180Animation": -1,
  "crawlRotateLeftAnimation": -1,
  "crawlRotateRightAnimation": -1,
  "recolorToFind": [
    6447,
    6443,
    6439,
    5656,
    5652,
    5904
  ],
  "recolorToReplace": [
    6806,
    7054,
    5002,
    -29395,
    -29403,
    -29284
  ],
  "actions": [
    null,
    "Attack",
    null,
    null,
    null
  ],
  "isMinimapVisible": true,
  "combatLevel": 98,
  "widthScale": 128,
  "heightScale": 128,
  "hasRenderPriority": true,
  "ambient": 0,
  "contrast": 0,
  "rotationSpeed": 32,
  "varbitId": -1,
  "varpIndex": -1,
  "isInteractable": true,
  "rotationFlag": true,
  "isFollower": false,
  "lowPriorityFollowerOps": false,
  "params": {
    "627": 1
  },
  "category": 0,
  "height": -1,
  "stats": [
    50,
    20,
    30,
    80,
    150,
    80
  ]
}