{
  "id": 736,
  "name": "Bandit",
  "size": 1,
  "models": [
    6086,
    6087,
    28515,
    27139,
    6090,
    181,
    176,
    6099,
    523
  ],
  "chatheadModels": [
    6081,
    6080,
    53
  ],
  "standingAnimation": 808,
  "idleRotateLeftAnimation": -1,
  "idleRotateRightAnimation": -1,
  "walkingAnimation": 819,
  "rotate180Animation": 820,
  "rotateLeftAnimation": 821,
  "rotateRightAnimation": 822,
  "runAnimation": -1,
  "runRotate180Animation": -1,
  "runRotateLeftAnimation": -1,
  "runRotateRightAnimation": -1,
  "crawlAnimation": -1,
  "crawlRotate180Animation": -1,
  "crawlRotateLeftAnimation": -1,
  "crawlRotateRightAnimation": -1,
  "recolorToFind": [
    8741,
    5555
  ],
  "recolorToReplace": [
    10351,
    127
  ],
  "actions": [
    "Talk-to",
    "Attack",
    "Pickpocket",
    null,
    null
  ],
  "isMinimapVisible": true,
  "combatLevel": 41,
  "widthScale": 128,
  "heightScale": 128,
  "hasRenderPriority": false,
  "ambient": 0,
  "contrast": 0,
  "rotationSpeed": 32,
  "varbitId": -1,
  "varpIndex": -1,
  "isInteractable": true,
  "rotationFlag": true,
  "isFollower": false,
  "lowPriorityFollowerOps": false,
  "category": 0,
  "height": -1,
  "stats": [
    40,
    20,
    50,
    30,
    0,
    0
  ]
}