{
  "id": 7647,
  "name": "Rock Golem",
  "size": 1,
  "models": [
    29755
  ],
  "chatheadModels": [
    29761
  ],
  "standingAnimation": 7180,
  "idleRotateLeftAnimation": -1,
  "idleRotateRightAnimation": -1,
  "walkingAnimation": 7181,
  "rotate180Animation": -1,
  "rotateLeftAnimation": -1,
  "rotateRightAnimation": -1,
  "runAnimation": -1,
  "runRotate180Animation": -1,
  "runRotateLeftAnimation": -1,
  "runRotateRightAnimation": -1,
  "crawlAnimation": -1,
  "crawlRotate180Animation": -1,
  "crawlRotateLeftAnimation": -1,
  "crawlRotateRightAnimation": -1,
  "recolorToFind": [
    6823,
    6697,
    6819,
    6814,
    6682,
    5656
  ],
  "recolorToReplace": [
    21675,
    21671,
    21667,
    21662,
    21658,
    21782
  ],
  "actions": [
    "Talk-to",
    null,
    "Pick-up",
    null,
    null
  ],
  "isMinimapVisible": false,
  "combatLevel": 0,
  "widthScale": 128,
  "heightScale": 128,
  "hasRenderPriority": false,
  "ambient": 0,
  "contrast": 10,
  "rotationSpeed": 32,
  "varbitId": -1,
  "varpIndex": -1,
  "isInteractable": true,
  "rotationFlag": true,
  "isFollower": true,
  "lowPriorityFollowerOps": true,
  "category": 1043,
  "height": -1,
  "stats": [
    1,
    1,
    1,
    1,
    1,
    1
  ]
}