{
  "id": 782,
  "name": "Ethereal Guide",
  "size": 1,
  "models": [
    16480,
    16484,
    16471,
    16475,
    16482,
    16474,
    16483
  ],
  "chatheadModels": [
    16468
  ],
  "standingAnimation": 813,
  "idleRotateLeftAnimation": -1,
  "idleRotateRightAnimation": -1,
  "walkingAnimation": 1205,
  "rotate180Animation": 1206,
  "rotateLeftAnimation": 1207,
  "rotateRightAnimation": 1208,
  "runAnimation": -1,
  "runRotate180Animation": -1,
  "runRotateLeftAnimation": -1,
  "runRotateRightAnimation": -1,
  "crawlAnimation": -1,
  "crawlRotate180Animation": -1,
  "crawlRotateLeftAnimation": -1,
  "crawlRotateRightAnimation": -1,
  "recolorToFind": [
    -31860,
    410,
    -32236,
    -29529,
    6573,
    -32500
  ],
  "recolorToReplace": [
    -5950,
    29902,
    -11196,
    222,
    -11165,
    29902
  ],
  "actions": [
    "Talk-to",
    null,
    null,
    null,
    null
  ],
  "isMinimapVisible": true,
  "combatLevel": 0,
  "widthScale": 127,
  "heightScale": 124,
  "hasRenderPriority": false,
  "ambient": 40,
  "contrast": 40,
  "rotationSpeed": 32,
  "varbitId": -1,
  "varpIndex": -1,
  "isInteractable": true,
  "rotationFlag": true,
  "isFollower": false,
  "lowPriorityFollowerOps": false,
  "category": 0,
  "height": -1,
  "stats": [
    1,
    1,
    1,
    1,
    1,
    1
  ]
}