{
  "id": 7861,
  "name": "Black dragon",
  "size": 4,
  "models": [
    17407,
    17425,
    17418,
    17423
  ],
  "standingAnimation": 90,
  "idleRotateLeftAnimation": -1,
  "idleRotateRightAnimation": -1,
  "walkingAnimation": 79,
  "rotate180Animation": -1,
  "rotateLeftAnimation": -1,
  "rotateRightAnimation": -1,
  "runAnimation": -1,
  "runRotate180Animation": -1,
  "runRotateLeftAnimation": -1,
  "runRotateRightAnimation": -1,
  "crawlAnimation": -1,
  "crawlRotate180Animation": -1,
  "crawlRotateLeftAnimation": -1,
  "crawlRotateRightAnimation": -1,
  "recolorToFind": [
    2469,
    912,
    1938,
    1814,
    2588,
    910
  ],
  "recolorToReplace": [
    41,
    12,
    16,
    20,
    33,
    8
  ],
  "actions": [
    null,
    "Attack",
    null,
    null,
    null
  ],
  "isMinimapVisible": true,
  "combatLevel": 247,
  "widthScale": 110,
  "heightScale": 110,
  "hasRenderPriority": false,
  "ambient": 0,
  "contrast": 0,
  "rotationSpeed": 32,
  "varbitId": -1,
  "varpIndex": -1,
  "isInteractable": true,
  "rotationFlag": true,
  "isFollower": false,
  "lowPriorityFollowerOps": false,
  "category": 347,
  "height": -1,
  "stats": [
    200,
    200,
    215,
    250,
    1,
    150
  ]
}