{
  "id": 7898,
  "name": "Artur Hosidius",
  "size": 1,
  "models": [
    215,
    244,
    246,
    28515,
    4391,
    27154,
    10218,
    28346,
    181
  ],
  "chatheadModels": [
    53,
    77
  ],
  "standingAnimation": -1,
  "idleRotateLeftAnimation": -1,
  "idleRotateRightAnimation": -1,
  "walkingAnimation": -1,
  "rotate180Animation": -1,
  "rotateLeftAnimation": -1,
  "rotateRightAnimation": -1,
  "runAnimation": -1,
  "runRotate180Animation": -1,
  "runRotateLeftAnimation": -1,
  "runRotateRightAnimation": -1,
  "crawlAnimation": -1,
  "crawlRotate180Animation": -1,
  "crawlRotateLeftAnimation": -1,
  "crawlRotateRightAnimation": -1,
  "recolorToFind": [
    8741,
    25238,
    7719,
    6798,
    4550,
    8084
  ],
  "recolorToReplace": [
    7566,
    138,
    8720,
    10006,
    4560,
    9096
  ],
  "actions": [
    "Talk-to",
    null,
    null,
    null,
    null
  ],
  "isMinimapVisible": true,
  "combatLevel": 0,
  "widthScale": 128,
  "heightScale": 128,
  "hasRenderPriority": false,
  "ambient": 0,
  "contrast": 0,
  "rotationSpeed": 32,
  "varbitId": -1,
  "varpIndex": -1,
  "isInteractable": true,
  "rotationFlag": true,
  "isFollower": false,
  "lowPriorityFollowerOps": false,
  "category": 0,
  "height": -1,
  "stats": [
    1,
    1,
    1,
    1,
    1,
    1
  ]
}