{
  "id": 7908,
  "name": "The Queen of Thieves",
  "size": 1,
  "models": [
    393,
    25714,
    3476,
    353,
    25710,
    25701,
    437
  ],
  "chatheadModels": [
    115
  ],
  "standingAnimation": -1,
  "idleRotateLeftAnimation": -1,
  "idleRotateRightAnimation": -1,
  "walkingAnimation": -1,
  "rotate180Animation": -1,
  "rotateLeftAnimation": -1,
  "rotateRightAnimation": -1,
  "runAnimation": -1,
  "runRotate180Animation": -1,
  "runRotateLeftAnimation": -1,
  "runRotateRightAnimation": -1,
  "crawlAnimation": -1,
  "crawlRotate180Animation": -1,
  "crawlRotateLeftAnimation": -1,
  "crawlRotateRightAnimation": -1,
  "recolorToFind": [
    8741,
    45,
    49,
    6798
  ],
  "recolorToReplace": [
    -27244,
    24,
    28,
    908
  ],
  "actions": [
    "Talk-to",
    null,
    null,
    null,
    null
  ],
  "isMinimapVisible": true,
  "combatLevel": 0,
  "widthScale": 128,
  "heightScale": 128,
  "hasRenderPriority": false,
  "ambient": 0,
  "contrast": 0,
  "rotationSpeed": 32,
  "varbitId": -1,
  "varpIndex": -1,
  "isInteractable": true,
  "rotationFlag": true,
  "isFollower": false,
  "lowPriorityFollowerOps": false,
  "category": 0,
  "height": -1,
  "stats": [
    1,
    1,
    1,
    1,
    1,
    1
  ]
}