{
  "id": 7936,
  "name": "Revenant demon",
  "size": 3,
  "models": [
    34161,
    34162,
    34160,
    34159,
    17390
  ],
  "standingAnimation": 66,
  "idleRotateLeftAnimation": -1,
  "idleRotateRightAnimation": -1,
  "walkingAnimation": 63,
  "rotate180Animation": -1,
  "rotateLeftAnimation": -1,
  "rotateRightAnimation": -1,
  "runAnimation": -1,
  "runRotate180Animation": -1,
  "runRotateLeftAnimation": -1,
  "runRotateRightAnimation": -1,
  "crawlAnimation": -1,
  "crawlRotate180Animation": -1,
  "crawlRotateLeftAnimation": -1,
  "crawlRotateRightAnimation": -1,
  "actions": [
    null,
    "Attack",
    null,
    null,
    null
  ],
  "isMinimapVisible": true,
  "combatLevel": 98,
  "widthScale": 110,
  "heightScale": 110,
  "hasRenderPriority": true,
  "ambient": 60,
  "contrast": 60,
  "rotationSpeed": 32,
  "varbitId": -1,
  "varpIndex": -1,
  "isInteractable": true,
  "rotationFlag": true,
  "isFollower": false,
  "lowPriorityFollowerOps": false,
  "category": 1189,
  "height": -1,
  "stats": [
    83,
    80,
    76,
    80,
    80,
    120
  ]
}