{
  "id": 7943,
  "name": "Emblem Trader",
  "size": 1,
  "models": [
    5449,
    181,
    249,
    5450,
    28226,
    176,
    28223,
    32970
  ],
  "chatheadModels": [
    10372
  ],
  "standingAnimation": 813,
  "idleRotateLeftAnimation": -1,
  "idleRotateRightAnimation": -1,
  "walkingAnimation": 1205,
  "rotate180Animation": 1206,
  "rotateLeftAnimation": 1207,
  "rotateRightAnimation": 1208,
  "runAnimation": -1,
  "runRotate180Animation": -1,
  "runRotateLeftAnimation": -1,
  "runRotateRightAnimation": -1,
  "crawlAnimation": -1,
  "crawlRotate180Animation": -1,
  "crawlRotateLeftAnimation": -1,
  "crawlRotateRightAnimation": -1,
  "recolorToFind": [
    94,
    -22087,
    -22097,
    -22308,
    -22421,
    -22196
  ],
  "recolorToReplace": [
    10776,
    10892,
    10776,
    10892,
    10892,
    10892
  ],
  "actions": [
    "Talk-to",
    null,
    "Rewards",
    null,
    "Skull"
  ],
  "isMinimapVisible": true,
  "combatLevel": 0,
  "widthScale": 128,
  "heightScale": 128,
  "hasRenderPriority": true,
  "ambient": 0,
  "contrast": 0,
  "rotationSpeed": 32,
  "varbitId": -1,
  "varpIndex": -1,
  "isInteractable": true,
  "rotationFlag": true,
  "isFollower": false,
  "lowPriorityFollowerOps": false,
  "category": 1187,
  "height": -1,
  "stats": [
    1,
    1,
    1,
    1,
    1,
    1
  ]
}