{
  "id": 8032,
  "name": "null",
  "size": 1,
  "models": [
    28163
  ],
  "standingAnimation": 7075,
  "idleRotateLeftAnimation": -1,
  "idleRotateRightAnimation": -1,
  "walkingAnimation": 7075,
  "rotate180Animation": -1,
  "rotateLeftAnimation": -1,
  "rotateRightAnimation": -1,
  "runAnimation": -1,
  "runRotate180Animation": -1,
  "runRotateLeftAnimation": -1,
  "runRotateRightAnimation": -1,
  "crawlAnimation": -1,
  "crawlRotate180Animation": -1,
  "crawlRotateLeftAnimation": -1,
  "crawlRotateRightAnimation": -1,
  "recolorToFind": [
    -31784
  ],
  "recolorToReplace": [
    -22417
  ],
  "actions": [
    null,
    null,
    null,
    null,
    null
  ],
  "isMinimapVisible": false,
  "combatLevel": 0,
  "widthScale": 64,
  "heightScale": 48,
  "hasRenderPriority": true,
  "ambient": 20,
  "contrast": 20,
  "rotationSpeed": 0,
  "varbitId": -1,
  "varpIndex": -1,
  "isInteractable": false,
  "rotationFlag": true,
  "isFollower": false,
  "lowPriorityFollowerOps": false,
  "category": 0,
  "height": -1,
  "stats": [
    1,
    1,
    1,
    1,
    1,
    1
  ]
}