{
  "id": 8075,
  "name": "Red dragon",
  "size": 5,
  "models": [
    17408,
    17425,
    17418,
    17423
  ],
  "standingAnimation": 7870,
  "idleRotateLeftAnimation": -1,
  "idleRotateRightAnimation": -1,
  "walkingAnimation": 7870,
  "rotate180Animation": -1,
  "rotateLeftAnimation": -1,
  "rotateRightAnimation": -1,
  "runAnimation": -1,
  "runRotate180Animation": -1,
  "runRotateLeftAnimation": -1,
  "runRotateRightAnimation": -1,
  "crawlAnimation": -1,
  "crawlRotate180Animation": -1,
  "crawlRotateLeftAnimation": -1,
  "crawlRotateRightAnimation": -1,
  "recolorToFind": [
    910,
    912,
    1938,
    1814,
    2588,
    2469
  ],
  "recolorToReplace": [
    2954,
    1932,
    3982,
    1810,
    3486,
    3367
  ],
  "actions": [
    null,
    null,
    null,
    null,
    null
  ],
  "isMinimapVisible": true,
  "combatLevel": 152,
  "widthScale": 110,
  "heightScale": 110,
  "hasRenderPriority": false,
  "ambient": 0,
  "contrast": 0,
  "rotationSpeed": 32,
  "varbitId": -1,
  "varpIndex": -1,
  "isInteractable": true,
  "rotationFlag": true,
  "isFollower": false,
  "lowPriorityFollowerOps": false,
  "category": 347,
  "height": -1,
  "stats": [
    130,
    130,
    130,
    140,
    1,
    1
  ]
}