{
  "id": 8088,
  "name": "Mithril dragon",
  "size": 5,
  "models": [
    24575,
    24584,
    24580,
    17423
  ],
  "standingAnimation": 90,
  "idleRotateLeftAnimation": -1,
  "idleRotateRightAnimation": -1,
  "walkingAnimation": 79,
  "rotate180Animation": -1,
  "rotateLeftAnimation": -1,
  "rotateRightAnimation": -1,
  "runAnimation": -1,
  "runRotate180Animation": -1,
  "runRotateLeftAnimation": -1,
  "runRotateRightAnimation": -1,
  "crawlAnimation": -1,
  "crawlRotate180Animation": -1,
  "crawlRotateLeftAnimation": -1,
  "crawlRotateRightAnimation": -1,
  "recolorToFind": [
    -27364,
    -27359,
    -27479,
    -22233,
    -27446,
    -27471
  ],
  "recolorToReplace": [
    -22248,
    -22111,
    -22233,
    -22225,
    -22219,
    -22225
  ],
  "actions": [
    null,
    null,
    null,
    null,
    null
  ],
  "isMinimapVisible": true,
  "combatLevel": 304,
  "widthScale": 110,
  "heightScale": 110,
  "hasRenderPriority": true,
  "ambient": 15,
  "contrast": 15,
  "rotationSpeed": 32,
  "varbitId": -1,
  "varpIndex": -1,
  "isInteractable": true,
  "rotationFlag": true,
  "isFollower": false,
  "lowPriorityFollowerOps": false,
  "category": 0,
  "height": -1,
  "stats": [
    1,
    1,
    1,
    1,
    1,
    1
  ]
}