{
  "id": 809,
  "name": "Ospak",
  "size": 1,
  "models": [
    206,
    252,
    28515,
    26630,
    176,
    3599,
    326,
    4234
  ],
  "chatheadModels": [
    46,
    84
  ],
  "standingAnimation": 1137,
  "idleRotateLeftAnimation": -1,
  "idleRotateRightAnimation": -1,
  "walkingAnimation": 1323,
  "rotate180Animation": 1324,
  "rotateLeftAnimation": 1325,
  "rotateRightAnimation": 1326,
  "runAnimation": -1,
  "runRotate180Animation": -1,
  "runRotateLeftAnimation": -1,
  "runRotateRightAnimation": -1,
  "crawlAnimation": -1,
  "crawlRotate180Animation": -1,
  "crawlRotateLeftAnimation": -1,
  "crawlRotateRightAnimation": -1,
  "recolorToFind": [
    6798,
    25238,
    8741,
    8078,
    906
  ],
  "recolorToReplace": [
    6722,
    5272,
    5545,
    5421,
    4525
  ],
  "actions": [
    "Talk-to",
    null,
    null,
    null,
    null
  ],
  "isMinimapVisible": true,
  "combatLevel": 0,
  "widthScale": 128,
  "heightScale": 128,
  "hasRenderPriority": false,
  "ambient": 0,
  "contrast": 0,
  "rotationSpeed": 32,
  "varbitId": -1,
  "varpIndex": -1,
  "isInteractable": true,
  "rotationFlag": true,
  "isFollower": false,
  "lowPriorityFollowerOps": false,
  "category": 0,
  "height": -1,
  "stats": [
    1,
    1,
    1,
    1,
    1,
    1
  ]
}