{
  "id": 8149,
  "name": "White Knight",
  "size": 1,
  "models": [
    11744,
    306,
    164,
    13318,
    546,
    268,
    4954
  ],
  "standingAnimation": 2561,
  "idleRotateLeftAnimation": -1,
  "idleRotateRightAnimation": -1,
  "walkingAnimation": 2562,
  "rotate180Animation": 2562,
  "rotateLeftAnimation": 2562,
  "rotateRightAnimation": 2562,
  "runAnimation": -1,
  "runRotate180Animation": -1,
  "runRotateLeftAnimation": -1,
  "runRotateRightAnimation": -1,
  "crawlAnimation": -1,
  "crawlRotate180Animation": -1,
  "crawlRotateLeftAnimation": -1,
  "crawlRotateRightAnimation": -1,
  "recolorToFind": [
    5400,
    5648,
    41,
    61,
    57,
    -22225
  ],
  "recolorToReplace": [
    5214,
    5206,
    5206,
    5223,
    7269,
    926
  ],
  "actions": [
    null,
    null,
    null,
    null,
    null
  ],
  "isMinimapVisible": true,
  "combatLevel": 36,
  "widthScale": 128,
  "heightScale": 128,
  "hasRenderPriority": true,
  "ambient": 0,
  "contrast": 0,
  "rotationSpeed": 32,
  "varbitId": -1,
  "varpIndex": -1,
  "isInteractable": true,
  "rotationFlag": true,
  "isFollower": false,
  "lowPriorityFollowerOps": false,
  "category": 0,
  "height": -1,
  "stats": [
    27,
    21,
    29,
    52,
    1,
    1
  ]
}