{
  "id": 8155,
  "name": "Jardric",
  "size": 1,
  "models": [
    2974,
    2981,
    2978,
    2983,
    2985,
    34666,
    34665
  ],
  "chatheadModels": [
    4
  ],
  "standingAnimation": 7861,
  "idleRotateLeftAnimation": -1,
  "idleRotateRightAnimation": -1,
  "walkingAnimation": 7862,
  "rotate180Animation": -1,
  "rotateLeftAnimation": -1,
  "rotateRightAnimation": -1,
  "runAnimation": -1,
  "runRotate180Animation": -1,
  "runRotateLeftAnimation": -1,
  "runRotateRightAnimation": -1,
  "crawlAnimation": -1,
  "crawlRotate180Animation": -1,
  "crawlRotateLeftAnimation": -1,
  "crawlRotateRightAnimation": -1,
  "recolorToFind": [
    4550,
    5784,
    803,
    7473,
    61
  ],
  "recolorToReplace": [
    4533,
    532,
    5388,
    4636,
    4636
  ],
  "actions": [
    "Talk-to",
    null,
    "Escape",
    null,
    null
  ],
  "isMinimapVisible": true,
  "combatLevel": 126,
  "widthScale": 128,
  "heightScale": 128,
  "hasRenderPriority": true,
  "ambient": 0,
  "contrast": 0,
  "rotationSpeed": 32,
  "varbitId": -1,
  "varpIndex": -1,
  "isInteractable": true,
  "rotationFlag": true,
  "isFollower": false,
  "lowPriorityFollowerOps": false,
  "category": 1211,
  "height": -1,
  "stats": [
    110,
    100,
    110,
    120,
    80,
    80
  ]
}