{
  "id": 8174,
  "name": "Oneiromancer",
  "size": 1,
  "models": [
    16500,
    12141,
    16506,
    16494,
    16498,
    16503,
    270
  ],
  "chatheadModels": [
    12135,
    16465
  ],
  "standingAnimation": 4424,
  "idleRotateLeftAnimation": -1,
  "idleRotateRightAnimation": -1,
  "walkingAnimation": 4426,
  "rotate180Animation": 4427,
  "rotateLeftAnimation": 4428,
  "rotateRightAnimation": 4429,
  "runAnimation": -1,
  "runRotate180Animation": -1,
  "runRotateLeftAnimation": -1,
  "runRotateRightAnimation": -1,
  "crawlAnimation": -1,
  "crawlRotate180Animation": -1,
  "crawlRotateLeftAnimation": -1,
  "crawlRotateRightAnimation": -1,
  "recolorToFind": [
    8615,
    8741,
    8865,
    25238,
    15009,
    790
  ],
  "recolorToReplace": [
    -22429,
    -22431,
    -22434,
    -22434,
    235,
    -6025
  ],
  "actions": [
    null,
    null,
    null,
    null,
    null
  ],
  "isMinimapVisible": true,
  "combatLevel": 126,
  "widthScale": 135,
  "heightScale": 135,
  "hasRenderPriority": true,
  "ambient": 15,
  "contrast": 15,
  "rotationSpeed": 32,
  "varbitId": -1,
  "varpIndex": -1,
  "isInteractable": true,
  "rotationFlag": true,
  "isFollower": false,
  "lowPriorityFollowerOps": false,
  "category": 1211,
  "height": -1,
  "stats": [
    1,
    1,
    1,
    1,
    1,
    1
  ]
}