{
  "id": 8256,
  "name": "Vyrewatch",
  "size": 1,
  "models": [
    17963,
    18000,
    17981
  ],
  "chatheadModels": [
    18053
  ],
  "standingAnimation": 4703,
  "idleRotateLeftAnimation": -1,
  "idleRotateRightAnimation": -1,
  "walkingAnimation": 4700,
  "rotate180Animation": -1,
  "rotateLeftAnimation": -1,
  "rotateRightAnimation": -1,
  "runAnimation": -1,
  "runRotate180Animation": -1,
  "runRotateLeftAnimation": -1,
  "runRotateRightAnimation": -1,
  "crawlAnimation": -1,
  "crawlRotate180Animation": -1,
  "crawlRotateLeftAnimation": -1,
  "crawlRotateRightAnimation": -1,
  "actions": [
    null,
    "Attack",
    null,
    null,
    null
  ],
  "isMinimapVisible": true,
  "combatLevel": 87,
  "widthScale": 128,
  "heightScale": 128,
  "hasRenderPriority": false,
  "ambient": -25,
  "contrast": 0,
  "rotationSpeed": 32,
  "varbitId": -1,
  "varpIndex": -1,
  "isInteractable": true,
  "rotationFlag": true,
  "isFollower": false,
  "lowPriorityFollowerOps": false,
  "category": 1223,
  "height": -1,
  "stats": [
    80,
    75,
    75,
    75,
    1,
    75
  ]
}