{
  "id": 8304,
  "name": "Vyrewatch",
  "size": 1,
  "models": [
    17969,
    18000,
    17987
  ],
  "chatheadModels": [
    18056
  ],
  "standingAnimation": 4702,
  "idleRotateLeftAnimation": -1,
  "idleRotateRightAnimation": -1,
  "walkingAnimation": 4699,
  "rotate180Animation": -1,
  "rotateLeftAnimation": -1,
  "rotateRightAnimation": -1,
  "runAnimation": -1,
  "runRotate180Animation": -1,
  "runRotateLeftAnimation": -1,
  "runRotateRightAnimation": -1,
  "crawlAnimation": -1,
  "crawlRotate180Animation": -1,
  "crawlRotateLeftAnimation": -1,
  "crawlRotateRightAnimation": -1,
  "actions": [
    "Talk-to",
    "Attack",
    null,
    null,
    null
  ],
  "isMinimapVisible": true,
  "combatLevel": 105,
  "widthScale": 128,
  "heightScale": 128,
  "hasRenderPriority": true,
  "ambient": -25,
  "contrast": 0,
  "rotationSpeed": 32,
  "varbitId": -1,
  "varpIndex": -1,
  "isInteractable": true,
  "rotationFlag": true,
  "isFollower": false,
  "lowPriorityFollowerOps": false,
  "category": 1225,
  "height": -1,
  "stats": [
    105,
    85,
    86,
    90,
    105,
    105
  ]
}