{
  "id": 8637,
  "name": "Third Age Mage",
  "size": 1,
  "models": [
    20136,
    20160,
    20124,
    179,
    20143,
    185,
    28619,
    20151,
    28483,
    250
  ],
  "standingAnimation": 813,
  "idleRotateLeftAnimation": -1,
  "idleRotateRightAnimation": -1,
  "walkingAnimation": 1205,
  "rotate180Animation": 1206,
  "rotateLeftAnimation": 1207,
  "rotateRightAnimation": 1208,
  "runAnimation": -1,
  "runRotate180Animation": -1,
  "runRotateLeftAnimation": -1,
  "runRotateRightAnimation": -1,
  "crawlAnimation": -1,
  "crawlRotate180Animation": -1,
  "crawlRotateLeftAnimation": -1,
  "crawlRotateRightAnimation": -1,
  "recolorToFind": [
    4550,
    6798,
    10004,
    4626
  ],
  "recolorToReplace": [
    5165,
    21530,
    -32610,
    -32610
  ],
  "actions": [
    null,
    "Attack",
    null,
    null,
    null
  ],
  "isMinimapVisible": true,
  "combatLevel": 83,
  "widthScale": 128,
  "heightScale": 128,
  "hasRenderPriority": false,
  "ambient": 0,
  "contrast": 0,
  "rotationSpeed": 32,
  "varbitId": -1,
  "varpIndex": -1,
  "isInteractable": true,
  "rotationFlag": true,
  "isFollower": false,
  "lowPriorityFollowerOps": false,
  "category": 1316,
  "height": -1,
  "stats": [
    1,
    80,
    1,
    40,
    1,
    110
  ]
}