{
  "id": 8840,
  "name": "Omart",
  "size": 1,
  "models": [
    207,
    185,
    252,
    311,
    27154,
    179,
    28346,
    550
  ],
  "chatheadModels": [
    47,
    84
  ],
  "standingAnimation": 808,
  "idleRotateLeftAnimation": -1,
  "idleRotateRightAnimation": -1,
  "walkingAnimation": 819,
  "rotate180Animation": 820,
  "rotateLeftAnimation": 821,
  "rotateRightAnimation": 822,
  "runAnimation": -1,
  "runRotate180Animation": -1,
  "runRotateLeftAnimation": -1,
  "runRotateRightAnimation": -1,
  "crawlAnimation": -1,
  "crawlRotate180Animation": -1,
  "crawlRotateLeftAnimation": -1,
  "crawlRotateRightAnimation": -1,
  "recolorToFind": [
    926,
    8741,
    7073,
    11200
  ],
  "recolorToReplace": [
    -22266,
    6936,
    6032,
    -22266
  ],
  "actions": [
    null,
    null,
    null,
    null,
    null
  ],
  "isMinimapVisible": true,
  "combatLevel": 0,
  "widthScale": 128,
  "heightScale": 128,
  "hasRenderPriority": true,
  "ambient": 0,
  "contrast": 0,
  "rotationSpeed": 32,
  "varbitId": -1,
  "varpIndex": -1,
  "isInteractable": true,
  "rotationFlag": true,
  "isFollower": false,
  "lowPriorityFollowerOps": false,
  "category": 0,
  "height": -1,
  "stats": [
    1,
    1,
    1,
    1,
    1,
    1
  ]
}