{
  "id": 9181,
  "name": "Dire Wolf",
  "size": 2,
  "models": [
    37364
  ],
  "standingAnimation": 6580,
  "idleRotateLeftAnimation": -1,
  "idleRotateRightAnimation": -1,
  "walkingAnimation": 6556,
  "rotate180Animation": -1,
  "rotateLeftAnimation": -1,
  "rotateRightAnimation": -1,
  "runAnimation": -1,
  "runRotate180Animation": -1,
  "runRotateLeftAnimation": -1,
  "runRotateRightAnimation": -1,
  "crawlAnimation": -1,
  "crawlRotate180Animation": -1,
  "crawlRotateLeftAnimation": -1,
  "crawlRotateRightAnimation": -1,
  "recolorToFind": [
    10258,
    20,
    10262,
    10270,
    262,
    7219
  ],
  "recolorToReplace": [
    10312,
    74,
    10304,
    10324,
    10291,
    10324
  ],
  "actions": [
    null,
    "Attack",
    null,
    null,
    null
  ],
  "isMinimapVisible": true,
  "combatLevel": 72,
  "widthScale": 170,
  "heightScale": 170,
  "hasRenderPriority": false,
  "ambient": 30,
  "contrast": 0,
  "rotationSpeed": 32,
  "varbitId": -1,
  "varpIndex": -1,
  "isInteractable": true,
  "rotationFlag": true,
  "isFollower": false,
  "lowPriorityFollowerOps": false,
  "category": 310,
  "height": -1,
  "stats": [
    60,
    62,
    61,
    74,
    1,
    1
  ]
}