{
  "id": 9219,
  "name": "null",
  "size": 3,
  "standingAnimation": 66,
  "idleRotateLeftAnimation": -1,
  "idleRotateRightAnimation": -1,
  "walkingAnimation": 63,
  "rotate180Animation": -1,
  "rotateLeftAnimation": -1,
  "rotateRightAnimation": -1,
  "runAnimation": -1,
  "runRotate180Animation": -1,
  "runRotateLeftAnimation": -1,
  "runRotateRightAnimation": -1,
  "crawlAnimation": -1,
  "crawlRotate180Animation": -1,
  "crawlRotateLeftAnimation": -1,
  "crawlRotateRightAnimation": -1,
  "actions": [
    null,
    null,
    null,
    null,
    null
  ],
  "isMinimapVisible": true,
  "combatLevel": 91,
  "widthScale": 110,
  "heightScale": 110,
  "hasRenderPriority": false,
  "ambient": 0,
  "contrast": 0,
  "rotationSpeed": 32,
  "configs": [
    8996,
    8996,
    8996,
    8996,
    8996,
    8996,
    8996,
    8996,
    8996,
    8996,
    -1
  ],
  "varbitId": -1,
  "varpIndex": 161,
  "isInteractable": true,
  "rotationFlag": true,
  "isFollower": false,
  "lowPriorityFollowerOps": false,
  "category": 275,
  "height": -1,
  "stats": [
    76,
    77,
    78,
    87,
    1,
    1
  ]
}