{
  "id": 9305,
  "name": "Trader Stan",
  "size": 1,
  "models": [
    186,
    6848,
    5215,
    17354,
    17351,
    177,
    17366,
    27639,
    8920
  ],
  "chatheadModels": [
    5787,
    28,
    5207
  ],
  "standingAnimation": -1,
  "idleRotateLeftAnimation": -1,
  "idleRotateRightAnimation": -1,
  "walkingAnimation": -1,
  "rotate180Animation": -1,
  "rotateLeftAnimation": -1,
  "rotateRightAnimation": -1,
  "runAnimation": -1,
  "runRotate180Animation": -1,
  "runRotateLeftAnimation": -1,
  "runRotateRightAnimation": -1,
  "crawlAnimation": -1,
  "crawlRotate180Animation": -1,
  "crawlRotateLeftAnimation": -1,
  "crawlRotateRightAnimation": -1,
  "recolorToFind": [
    -31833,
    25238,
    10524,
    10512,
    10289
  ],
  "recolorToReplace": [
    11179,
    103,
    6038,
    6038,
    6038
  ],
  "actions": [
    "Talk-To",
    null,
    "Trade",
    "Charter",
    "Charter-to Port Phasmatys"
  ],
  "isMinimapVisible": true,
  "combatLevel": 0,
  "widthScale": 128,
  "heightScale": 128,
  "hasRenderPriority": false,
  "ambient": 0,
  "contrast": 0,
  "rotationSpeed": 32,
  "varbitId": -1,
  "varpIndex": -1,
  "isInteractable": true,
  "rotationFlag": true,
  "isFollower": false,
  "lowPriorityFollowerOps": false,
  "category": 0,
  "height": -1,
  "stats": [
    1,
    1,
    1,
    1,
    1,
    1
  ]
}