{
  "id": 9349,
  "name": "Trader Crewmember",
  "size": 1,
  "models": [
    11360,
    17355,
    7007,
    361,
    399,
    437
  ],
  "chatheadModels": [
    118
  ],
  "standingAnimation": -1,
  "idleRotateLeftAnimation": -1,
  "idleRotateRightAnimation": -1,
  "walkingAnimation": -1,
  "rotate180Animation": -1,
  "rotateLeftAnimation": -1,
  "rotateRightAnimation": -1,
  "runAnimation": -1,
  "runRotate180Animation": -1,
  "runRotateLeftAnimation": -1,
  "runRotateRightAnimation": -1,
  "crawlAnimation": -1,
  "crawlRotate180Animation": -1,
  "crawlRotateLeftAnimation": -1,
  "crawlRotateRightAnimation": -1,
  "recolorToFind": [
    9529,
    4626,
    926,
    107,
    6798
  ],
  "recolorToReplace": [
    -5224,
    -5224,
    9911,
    9911,
    0
  ],
  "actions": [
    "Talk-To",
    null,
    "Trade",
    "Charter",
    "Charter-to Brimhaven"
  ],
  "isMinimapVisible": true,
  "combatLevel": 0,
  "widthScale": 128,
  "heightScale": 128,
  "hasRenderPriority": false,
  "ambient": 0,
  "contrast": 0,
  "rotationSpeed": 32,
  "varbitId": -1,
  "varpIndex": -1,
  "isInteractable": true,
  "rotationFlag": true,
  "isFollower": false,
  "lowPriorityFollowerOps": false,
  "category": 0,
  "height": -1,
  "stats": [
    1,
    1,
    1,
    1,
    1,
    1
  ]
}