{
  "id": 9528,
  "name": "Veliaf Hurtz",
  "size": 1,
  "models": [
    210,
    247,
    313,
    26634,
    179,
    268,
    181,
    284,
    244,
    35177
  ],
  "chatheadModels": [
    49,
    79
  ],
  "standingAnimation": 8009,
  "idleRotateLeftAnimation": -1,
  "idleRotateRightAnimation": -1,
  "walkingAnimation": 8011,
  "rotate180Animation": 8012,
  "rotateLeftAnimation": 8013,
  "rotateRightAnimation": 8014,
  "runAnimation": -1,
  "runRotate180Animation": -1,
  "runRotateLeftAnimation": -1,
  "runRotateRightAnimation": -1,
  "crawlAnimation": -1,
  "crawlRotate180Animation": -1,
  "crawlRotateLeftAnimation": -1,
  "crawlRotateRightAnimation": -1,
  "recolorToFind": [
    25238,
    -11139,
    4626,
    4550,
    6798,
    11200
  ],
  "recolorToReplace": [
    5908,
    26929,
    41,
    6695,
    0,
    8846
  ],
  "actions": [
    null,
    null,
    null,
    null,
    null
  ],
  "isMinimapVisible": true,
  "combatLevel": 104,
  "widthScale": 128,
  "heightScale": 128,
  "hasRenderPriority": true,
  "ambient": 0,
  "contrast": 0,
  "headIconArchiveIds": [
    440
  ],
  "headIconSpriteIndex": [
    2
  ],
  "rotationSpeed": 32,
  "varbitId": -1,
  "varpIndex": -1,
  "isInteractable": true,
  "rotationFlag": true,
  "isFollower": false,
  "lowPriorityFollowerOps": false,
  "category": 0,
  "height": -1,
  "stats": [
    80,
    160,
    50,
    80,
    1,
    160
  ]
}