{
  "id": 9615,
  "name": "Vampyre Juvinate",
  "size": 1,
  "models": [
    14042,
    14039,
    14046,
    14041,
    14044
  ],
  "chatheadModels": [
    13943
  ],
  "standingAnimation": 808,
  "idleRotateLeftAnimation": -1,
  "idleRotateRightAnimation": -1,
  "walkingAnimation": 819,
  "rotate180Animation": 820,
  "rotateLeftAnimation": 821,
  "rotateRightAnimation": 822,
  "runAnimation": -1,
  "runRotate180Animation": -1,
  "runRotateLeftAnimation": -1,
  "runRotateRightAnimation": -1,
  "crawlAnimation": -1,
  "crawlRotate180Animation": -1,
  "crawlRotateLeftAnimation": -1,
  "crawlRotateRightAnimation": -1,
  "recolorToFind": [
    4550,
    -25295,
    -25299,
    -25307,
    26698
  ],
  "recolorToReplace": [
    -32690,
    -25413,
    -25419,
    -25299,
    10308
  ],
  "actions": [
    null,
    "Attack",
    null,
    null,
    null
  ],
  "isMinimapVisible": true,
  "combatLevel": 119,
  "widthScale": 145,
  "heightScale": 147,
  "hasRenderPriority": false,
  "ambient": 5,
  "contrast": 0,
  "rotationSpeed": 32,
  "varbitId": -1,
  "varpIndex": -1,
  "isInteractable": true,
  "rotationFlag": true,
  "isFollower": false,
  "lowPriorityFollowerOps": false,
  "category": 519,
  "height": -1,
  "stats": [
    127,
    65,
    76,
    150,
    50,
    50
  ]
}