{
  "id": 10829,
  "decorDisplacement": 16,
  "isHollow": false,
  "name": "Willow tree",
  "objectModels": [
    5528
  ],
  "recolorToFind": [
    5786
  ],
  "mapAreaId": -1,
  "sizeX": 2,
  "sizeY": 2,
  "ambientSoundDistance": 0,
  "ambientSoundRetain": 0,
  "offsetX": 0,
  "mergeNormals": false,
  "wallOrDoor": 1,
  "animationID": -1,
  "varbitID": -1,
  "ambient": 10,
  "contrast": 750,
  "actions": [
    "Chop down",
    null,
    null,
    null,
    null
  ],
  "interactType": 2,
  "mapSceneID": 3,
  "blockingMask": 0,
  "recolorToReplace": [
    8598
  ],
  "shadow": true,
  "modelSizeX": 128,
  "modelSizeHeight": 128,
  "modelSizeY": 128,
  "objectID": 0,
  "offsetHeight": 0,
  "offsetY": 0,
  "obstructsGround": false,
  "contouredGround": 20480,
  "supportsItems": 1,
  "category": 286,
  "isRotated": false,
  "varpID": -1,
  "ambientSoundId": -1,
  "aBool2111": false,
  "ambientSoundChangeTicksMin": 0,
  "ambientSoundChangeTicksMax": 0,
  "blocksProjectile": true,
  "randomizeAnimStart": false,
  "deferAnimChange": false
}