{
  "id": 11884,
  "decorDisplacement": 16,
  "isHollow": false,
  "name": "null",
  "objectModels": [
    11644,
    11645,
    11646,
    11647,
    11648
  ],
  "objectTypes": [
    0,
    1,
    2,
    3,
    9
  ],
  "recolorToFind": [
    8406,
    6356,
    6352,
    8398,
    6348,
    5322
  ],
  "mapAreaId": -1,
  "sizeX": 1,
  "sizeY": 1,
  "ambientSoundDistance": 0,
  "ambientSoundRetain": 0,
  "offsetX": 0,
  "mergeNormals": true,
  "wallOrDoor": 0,
  "animationID": -1,
  "varbitID": -1,
  "ambient": 10,
  "contrast": 0,
  "actions": [
    null,
    null,
    null,
    null,
    null
  ],
  "interactType": 2,
  "mapSceneID": -1,
  "blockingMask": 0,
  "recolorToReplace": [
    7335,
    7331,
    7326,
    7326,
    7331,
    7335
  ],
  "shadow": true,
  "modelSizeX": 128,
  "modelSizeHeight": 128,
  "modelSizeY": 128,
  "objectID": 0,
  "offsetHeight": 0,
  "offsetY": 0,
  "obstructsGround": false,
  "contouredGround": -1,
  "supportsItems": 1,
  "category": 0,
  "isRotated": false,
  "varpID": -1,
  "ambientSoundId": -1,
  "aBool2111": false,
  "ambientSoundChangeTicksMin": 0,
  "ambientSoundChangeTicksMax": 0,
  "blocksProjectile": true,
  "randomizeAnimStart": false,
  "deferAnimChange": false
}