{
  "id": 12546,
  "decorDisplacement": 16,
  "isHollow": false,
  "name": "Crate",
  "objectModels": [
    5256
  ],
  "recolorToFind": [
    5417,
    5413,
    5537,
    5532,
    5656,
    5652
  ],
  "mapAreaId": -1,
  "sizeX": 1,
  "sizeY": 1,
  "ambientSoundDistance": 0,
  "ambientSoundRetain": 0,
  "offsetX": 0,
  "mergeNormals": false,
  "wallOrDoor": 1,
  "animationID": -1,
  "varbitID": -1,
  "ambient": 35,
  "contrast": 0,
  "actions": [
    "Search",
    null,
    null,
    null,
    null
  ],
  "interactType": 2,
  "mapSceneID": -1,
  "blockingMask": 0,
  "recolorToReplace": [
    6032,
    5908,
    5784,
    5665,
    5541,
    5660
  ],
  "shadow": true,
  "modelSizeX": 100,
  "modelSizeHeight": 100,
  "modelSizeY": 100,
  "objectID": 0,
  "offsetHeight": 0,
  "offsetY": 0,
  "obstructsGround": false,
  "contouredGround": -1,
  "supportsItems": 1,
  "category": 209,
  "isRotated": false,
  "varpID": -1,
  "ambientSoundId": -1,
  "aBool2111": false,
  "ambientSoundChangeTicksMin": 0,
  "ambientSoundChangeTicksMax": 0,
  "blocksProjectile": false,
  "randomizeAnimStart": false,
  "deferAnimChange": false
}