{
  "id": 12942,
  "decorDisplacement": 16,
  "isHollow": false,
  "name": "null",
  "objectModels": [
    22214,
    22215,
    22216
  ],
  "objectTypes": [
    0,
    1,
    2
  ],
  "recolorToFind": [
    10646,
    12694,
    16656,
    11148,
    7442
  ],
  "mapAreaId": -1,
  "sizeX": 1,
  "sizeY": 1,
  "ambientSoundDistance": 0,
  "ambientSoundRetain": 0,
  "offsetX": 0,
  "mergeNormals": true,
  "wallOrDoor": 0,
  "animationID": -1,
  "varbitID": -1,
  "ambient": 30,
  "contrast": 0,
  "actions": [
    null,
    null,
    null,
    null,
    null
  ],
  "interactType": 2,
  "mapSceneID": -1,
  "blockingMask": 0,
  "recolorToReplace": [
    9761,
    9756,
    9880,
    10004,
    5409
  ],
  "shadow": true,
  "modelSizeX": 128,
  "modelSizeHeight": 160,
  "modelSizeY": 128,
  "objectID": 0,
  "offsetHeight": 0,
  "offsetY": 0,
  "obstructsGround": false,
  "contouredGround": -1,
  "supportsItems": 1,
  "category": 0,
  "isRotated": false,
  "varpID": -1,
  "ambientSoundId": -1,
  "aBool2111": false,
  "ambientSoundChangeTicksMin": 0,
  "ambientSoundChangeTicksMax": 0,
  "blocksProjectile": true,
  "randomizeAnimStart": false,
  "deferAnimChange": false
}