{
  "id": 14737,
  "decorDisplacement": 16,
  "isHollow": false,
  "name": "Staircase",
  "objectModels": [
    9519
  ],
  "recolorToFind": [
    7335,
    7331,
    7326,
    5400
  ],
  "mapAreaId": -1,
  "sizeX": 1,
  "sizeY": 1,
  "ambientSoundDistance": 0,
  "ambientSoundRetain": 0,
  "offsetX": 0,
  "mergeNormals": false,
  "wallOrDoor": 1,
  "animationID": -1,
  "varbitID": -1,
  "ambient": 20,
  "contrast": 0,
  "actions": [
    "Climb-down",
    null,
    null,
    null,
    null
  ],
  "interactType": 1,
  "mapSceneID": 7,
  "blockingMask": 13,
  "recolorToReplace": [
    24,
    20,
    16,
    7830
  ],
  "shadow": true,
  "modelSizeX": 128,
  "modelSizeHeight": 128,
  "modelSizeY": 128,
  "objectID": 0,
  "offsetHeight": 0,
  "offsetY": 0,
  "obstructsGround": false,
  "contouredGround": -1,
  "supportsItems": 1,
  "category": 0,
  "isRotated": false,
  "varpID": -1,
  "ambientSoundId": -1,
  "aBool2111": false,
  "ambientSoundChangeTicksMin": 0,
  "ambientSoundChangeTicksMax": 0,
  "blocksProjectile": true,
  "randomizeAnimStart": false,
  "deferAnimChange": false
}