{
  "id": 15478,
  "decorDisplacement": 16,
  "isHollow": false,
  "name": "Portal",
  "objectModels": [
    11233,
    12636
  ],
  "mapAreaId": -1,
  "sizeX": 5,
  "sizeY": 2,
  "ambientSoundDistance": 0,
  "ambientSoundRetain": 0,
  "offsetX": 0,
  "mergeNormals": false,
  "wallOrDoor": 1,
  "animationID": 3174,
  "varbitID": -1,
  "ambient": 40,
  "contrast": 0,
  "actions": [
    "Enter",
    "Home",
    "Build mode",
    "Friend's house",
    null
  ],
  "interactType": 2,
  "mapSceneID": 64,
  "blockingMask": 0,
  "shadow": true,
  "modelSizeX": 128,
  "modelSizeHeight": 128,
  "modelSizeY": 128,
  "objectID": 0,
  "offsetHeight": 0,
  "offsetY": 0,
  "obstructsGround": false,
  "contouredGround": -1,
  "supportsItems": 1,
  "category": 486,
  "isRotated": false,
  "varpID": -1,
  "ambientSoundId": -1,
  "aBool2111": false,
  "ambientSoundChangeTicksMin": 0,
  "ambientSoundChangeTicksMax": 0,
  "blocksProjectile": true,
  "randomizeAnimStart": false,
  "deferAnimChange": false
}