{
  "id": 16448,
  "decorDisplacement": 16,
  "isHollow": false,
  "name": "null",
  "objectModels": [
    1105
  ],
  "objectTypes": [
    22
  ],
  "mapAreaId": -1,
  "sizeX": 1,
  "sizeY": 1,
  "ambientSoundDistance": 20,
  "ambientSoundIds": [
    3107,
    3108,
    3105,
    3106,
    3110,
    3111,
    3112,
    3113
  ],
  "ambientSoundRetain": 0,
  "offsetX": 0,
  "mergeNormals": false,
  "wallOrDoor": 0,
  "animationID": -1,
  "varbitID": -1,
  "ambient": 0,
  "contrast": 0,
  "actions": [
    null,
    null,
    null,
    null,
    null
  ],
  "interactType": 2,
  "mapSceneID": -1,
  "blockingMask": 0,
  "shadow": true,
  "modelSizeX": 128,
  "modelSizeHeight": 128,
  "modelSizeY": 128,
  "objectID": 0,
  "offsetHeight": 0,
  "offsetY": 0,
  "obstructsGround": false,
  "contouredGround": -1,
  "supportsItems": 1,
  "category": 0,
  "isRotated": false,
  "varpID": -1,
  "ambientSoundId": 3109,
  "aBool2111": false,
  "ambientSoundChangeTicksMin": 250,
  "ambientSoundChangeTicksMax": 500,
  "blocksProjectile": true,
  "randomizeAnimStart": false,
  "deferAnimChange": false
}