{
  "id": 20001,
  "decorDisplacement": 16,
  "isHollow": false,
  "name": "Fire",
  "objectModels": [
    2260
  ],
  "recolorToFind": [
    8128,
    7104,
    5056,
    4019,
    2987
  ],
  "mapAreaId": -1,
  "sizeX": 1,
  "sizeY": 1,
  "ambientSoundDistance": 5,
  "ambientSoundRetain": 0,
  "offsetX": 0,
  "mergeNormals": false,
  "wallOrDoor": 1,
  "animationID": 475,
  "varbitID": -1,
  "ambient": 15,
  "contrast": 375,
  "actions": [
    null,
    null,
    null,
    null,
    null
  ],
  "interactType": 0,
  "mapSceneID": -1,
  "blockingMask": 0,
  "recolorToReplace": [
    -14632,
    -15530,
    -16692,
    -16837,
    -16717
  ],
  "shadow": true,
  "modelSizeX": 128,
  "modelSizeHeight": 128,
  "modelSizeY": 128,
  "objectID": 0,
  "offsetHeight": 0,
  "offsetY": 0,
  "obstructsGround": false,
  "contouredGround": -1,
  "supportsItems": 0,
  "category": 152,
  "isRotated": false,
  "varpID": -1,
  "ambientSoundId": 2066,
  "aBool2111": false,
  "ambientSoundChangeTicksMin": 0,
  "ambientSoundChangeTicksMax": 0,
  "blocksProjectile": false,
  "randomizeAnimStart": false,
  "deferAnimChange": false
}