{
  "id": 20322,
  "decorDisplacement": 16,
  "isHollow": false,
  "name": "Vault",
  "objectModels": [
    16840
  ],
  "recolorToFind": [
    -22464,
    -22471,
    -22479,
    6684,
    5640
  ],
  "mapAreaId": -1,
  "sizeX": 2,
  "sizeY": 1,
  "ambientSoundDistance": 0,
  "ambientSoundRetain": 0,
  "offsetX": 0,
  "mergeNormals": false,
  "wallOrDoor": 1,
  "animationID": -1,
  "varbitID": -1,
  "ambient": 0,
  "contrast": 0,
  "actions": [
    null,
    null,
    null,
    null,
    null
  ],
  "interactType": 2,
  "mapSceneID": -1,
  "blockingMask": 0,
  "recolorToReplace": [
    7481,
    8493,
    8617,
    8891,
    8737
  ],
  "shadow": true,
  "modelSizeX": 128,
  "modelSizeHeight": 133,
  "modelSizeY": 128,
  "objectID": 0,
  "offsetHeight": 0,
  "offsetY": 0,
  "obstructsGround": false,
  "contouredGround": -1,
  "supportsItems": 1,
  "category": 0,
  "isRotated": false,
  "varpID": -1,
  "ambientSoundId": -1,
  "aBool2111": false,
  "ambientSoundChangeTicksMin": 0,
  "ambientSoundChangeTicksMax": 0,
  "blocksProjectile": true,
  "randomizeAnimStart": false,
  "deferAnimChange": false
}