{
  "id": 22513,
  "decorDisplacement": 16,
  "isHollow": false,
  "name": "Wilf (ghastly!)",
  "objectModels": [
    23204,
    23196
  ],
  "mapAreaId": -1,
  "sizeX": 2,
  "sizeY": 2,
  "ambientSoundDistance": 0,
  "ambientSoundRetain": 0,
  "offsetX": 0,
  "mergeNormals": false,
  "wallOrDoor": 1,
  "animationID": 5977,
  "varbitID": -1,
  "ambient": 0,
  "contrast": 0,
  "actions": [
    "Talk-to",
    null,
    null,
    null,
    null
  ],
  "interactType": 1,
  "mapSceneID": -1,
  "blockingMask": 0,
  "shadow": true,
  "modelSizeX": 128,
  "modelSizeHeight": 128,
  "modelSizeY": 128,
  "objectID": 0,
  "offsetHeight": 0,
  "offsetY": 0,
  "obstructsGround": false,
  "contouredGround": -1,
  "supportsItems": 1,
  "category": 646,
  "isRotated": false,
  "varpID": -1,
  "ambientSoundId": -1,
  "aBool2111": false,
  "ambientSoundChangeTicksMin": 0,
  "ambientSoundChangeTicksMax": 0,
  "blocksProjectile": false,
  "randomizeAnimStart": false,
  "deferAnimChange": false
}