{
  "id": 25440,
  "decorDisplacement": 16,
  "isHollow": false,
  "name": "Goblin stove",
  "objectModels": [
    26908,
    26903,
    26912,
    26917
  ],
  "recolorToFind": [
    6592,
    6583,
    6707,
    7843,
    7838,
    7962
  ],
  "mapAreaId": -1,
  "sizeX": 1,
  "sizeY": 2,
  "ambientSoundDistance": 5,
  "ambientSoundRetain": 0,
  "offsetX": 0,
  "mergeNormals": false,
  "wallOrDoor": 1,
  "animationID": 3105,
  "varbitID": -1,
  "ambient": 5,
  "contrast": 125,
  "actions": [
    "Inspect",
    null,
    null,
    null,
    null
  ],
  "interactType": 2,
  "mapSceneID": -1,
  "blockingMask": 0,
  "recolorToReplace": [
    3230,
    3226,
    3350,
    3346,
    3470,
    520
  ],
  "shadow": true,
  "modelSizeX": 128,
  "modelSizeHeight": 128,
  "modelSizeY": 128,
  "objectID": 0,
  "offsetHeight": 0,
  "offsetY": 0,
  "obstructsGround": false,
  "contouredGround": -1,
  "supportsItems": 1,
  "category": 0,
  "isRotated": false,
  "varpID": -1,
  "ambientSoundId": 2199,
  "aBool2111": false,
  "ambientSoundChangeTicksMin": 0,
  "ambientSoundChangeTicksMax": 0,
  "blocksProjectile": true,
  "randomizeAnimStart": false,
  "deferAnimChange": false
}