{
  "id": 25838,
  "decorDisplacement": 16,
  "isHollow": false,
  "name": "null",
  "objectModels": [
    25947,
    25948,
    25949
  ],
  "objectTypes": [
    0,
    1,
    9
  ],
  "recolorToFind": [
    2952,
    4750,
    4502,
    4506,
    4382,
    4387
  ],
  "mapAreaId": -1,
  "sizeX": 1,
  "sizeY": 1,
  "ambientSoundDistance": 0,
  "ambientSoundRetain": 0,
  "offsetX": 0,
  "mergeNormals": false,
  "wallOrDoor": 0,
  "animationID": -1,
  "varbitID": -1,
  "ambient": 20,
  "contrast": 375,
  "actions": [
    null,
    null,
    null,
    null,
    null
  ],
  "interactType": 2,
  "mapSceneID": -1,
  "blockingMask": 0,
  "recolorToReplace": [
    12,
    16,
    20,
    24,
    28,
    33
  ],
  "shadow": true,
  "modelSizeX": 128,
  "modelSizeHeight": 128,
  "modelSizeY": 128,
  "objectID": 0,
  "offsetHeight": 0,
  "offsetY": 0,
  "obstructsGround": false,
  "contouredGround": -1,
  "supportsItems": 1,
  "category": 0,
  "isRotated": false,
  "varpID": -1,
  "ambientSoundId": -1,
  "aBool2111": false,
  "ambientSoundChangeTicksMin": 0,
  "ambientSoundChangeTicksMax": 0,
  "blocksProjectile": true,
  "randomizeAnimStart": false,
  "deferAnimChange": false
}