{
  "id": 26282,
  "decorDisplacement": 16,
  "isHollow": false,
  "name": "<col=ff9040>Magic secateurs",
  "objectModels": [
    7303
  ],
  "recolorToFind": [
    61,
    41,
    5772
  ],
  "mapAreaId": -1,
  "sizeX": 1,
  "sizeY": 1,
  "ambientSoundDistance": 0,
  "ambientSoundRetain": 0,
  "offsetX": 0,
  "mergeNormals": false,
  "wallOrDoor": 1,
  "animationID": -1,
  "varbitID": -1,
  "ambient": 40,
  "contrast": 0,
  "actions": [
    "Pick-up",
    "Equip",
    null,
    null,
    null
  ],
  "interactType": 0,
  "mapSceneID": -1,
  "blockingMask": 0,
  "recolorToReplace": [
    22445,
    22422,
    22439
  ],
  "shadow": true,
  "modelSizeX": 150,
  "modelSizeHeight": 150,
  "modelSizeY": 150,
  "objectID": 0,
  "offsetHeight": 0,
  "offsetY": 0,
  "obstructsGround": false,
  "contouredGround": -1,
  "supportsItems": 0,
  "category": 0,
  "isRotated": false,
  "varpID": -1,
  "ambientSoundId": -1,
  "aBool2111": false,
  "ambientSoundChangeTicksMin": 0,
  "ambientSoundChangeTicksMax": 0,
  "blocksProjectile": false,
  "randomizeAnimStart": false,
  "deferAnimChange": false
}