{
  "id": 2654,
  "decorDisplacement": 16,
  "isHollow": false,
  "name": "Sinclair family fountain",
  "objectModels": [
    24520,
    24521
  ],
  "mapAreaId": -1,
  "sizeX": 2,
  "sizeY": 2,
  "ambientSoundDistance": 5,
  "ambientSoundRetain": 0,
  "offsetX": 0,
  "mergeNormals": false,
  "wallOrDoor": 1,
  "animationID": 6023,
  "varbitID": -1,
  "ambient": 20,
  "contrast": 0,
  "actions": [
    null,
    "Investigate",
    null,
    null,
    null
  ],
  "interactType": 2,
  "mapSceneID": 8,
  "blockingMask": 0,
  "shadow": true,
  "modelSizeX": 128,
  "modelSizeHeight": 128,
  "modelSizeY": 128,
  "objectID": 0,
  "offsetHeight": 0,
  "offsetY": 0,
  "obstructsGround": false,
  "contouredGround": -1,
  "supportsItems": 1,
  "category": 244,
  "isRotated": false,
  "varpID": -1,
  "ambientSoundId": 2151,
  "aBool2111": false,
  "ambientSoundChangeTicksMin": 0,
  "ambientSoundChangeTicksMax": 0,
  "blocksProjectile": true,
  "randomizeAnimStart": false,
  "deferAnimChange": false
}