{
  "id": 26812,
  "decorDisplacement": 16,
  "isHollow": false,
  "name": "Poll booth",
  "objectModels": [
    28903,
    28907
  ],
  "mapAreaId": -1,
  "sizeX": 1,
  "sizeY": 1,
  "ambientSoundDistance": 0,
  "ambientSoundRetain": 0,
  "offsetX": 0,
  "mergeNormals": false,
  "wallOrDoor": 1,
  "animationID": 7156,
  "varbitID": -1,
  "ambient": 20,
  "contrast": 125,
  "actions": [
    "Use",
    null,
    null,
    null,
    null
  ],
  "interactType": 1,
  "mapSceneID": -1,
  "blockingMask": 13,
  "shadow": true,
  "modelSizeX": 78,
  "modelSizeHeight": 78,
  "modelSizeY": 78,
  "objectID": 0,
  "offsetHeight": 0,
  "offsetY": 0,
  "obstructsGround": false,
  "contouredGround": -1,
  "supportsItems": 1,
  "category": 761,
  "isRotated": false,
  "varpID": -1,
  "ambientSoundId": -1,
  "aBool2111": false,
  "ambientSoundChangeTicksMin": 0,
  "ambientSoundChangeTicksMax": 0,
  "blocksProjectile": true,
  "randomizeAnimStart": false,
  "deferAnimChange": false
}