{
  "id": 26887,
  "decorDisplacement": 16,
  "isHollow": false,
  "name": "null",
  "mapAreaId": -1,
  "sizeX": 1,
  "sizeY": 1,
  "ambientSoundDistance": 0,
  "ambientSoundRetain": 0,
  "offsetX": 0,
  "mergeNormals": true,
  "wallOrDoor": 0,
  "animationID": -1,
  "varbitID": -1,
  "ambient": 0,
  "contrast": 0,
  "actions": [
    null,
    null,
    null,
    null,
    null
  ],
  "interactType": 0,
  "mapSceneID": -1,
  "blockingMask": 0,
  "shadow": true,
  "modelSizeX": 128,
  "modelSizeHeight": 136,
  "modelSizeY": 128,
  "objectID": 0,
  "offsetHeight": 0,
  "offsetY": 0,
  "obstructsGround": true,
  "contouredGround": 0,
  "supportsItems": 0,
  "configChangeDest": [
    26706,
    26706,
    26706,
    26706,
    26706,
    26706,
    26706,
    26706,
    26706,
    26706,
    26706,
    26706,
    26706,
    26706,
    26706,
    26706,
    26706,
    26706,
    26706,
    26706,
    26706,
    26706,
    26706,
    26706,
    26706,
    26706,
    26706,
    26706,
    26706,
    26706,
    26706,
    26706,
    26706,
    26706,
    26706,
    26706,
    26706,
    26706,
    26706,
    26706,
    26706,
    26706,
    26706,
    26706,
    26706,
    26706,
    26706,
    26706,
    26706,
    26706,
    26878,
    26878,
    26878,
    26878,
    26878,
    26878,
    26878,
    26878,
    26878,
    26878,
    26878,
    26878,
    26878,
    26878,
    26878,
    26878,
    26878,
    26878,
    26878,
    26878,
    26878,
    26878,
    26878,
    26878,
    26878,
    26878,
    -1
  ],
  "category": 0,
  "isRotated": false,
  "varpID": 139,
  "ambientSoundId": -1,
  "aBool2111": false,
  "ambientSoundChangeTicksMin": 0,
  "ambientSoundChangeTicksMax": 0,
  "blocksProjectile": false,
  "randomizeAnimStart": false,
  "deferAnimChange": false
}