{
  "id": 27202,
  "decorDisplacement": 16,
  "isHollow": false,
  "name": "Stairs",
  "objectModels": [
    7766
  ],
  "mapAreaId": -1,
  "sizeX": 3,
  "sizeY": 2,
  "ambientSoundDistance": 0,
  "ambientSoundRetain": 0,
  "offsetX": 0,
  "mergeNormals": true,
  "wallOrDoor": 1,
  "animationID": -1,
  "varbitID": -1,
  "ambient": 0,
  "contrast": 0,
  "actions": [
    "Climb",
    null,
    null,
    null,
    null
  ],
  "interactType": 1,
  "mapSceneID": 7,
  "blockingMask": 13,
  "shadow": true,
  "modelSizeX": 386,
  "modelSizeHeight": 128,
  "modelSizeY": 256,
  "objectID": 0,
  "offsetHeight": 0,
  "offsetY": 0,
  "obstructsGround": false,
  "contouredGround": 0,
  "supportsItems": 1,
  "category": 899,
  "isRotated": false,
  "varpID": -1,
  "ambientSoundId": -1,
  "aBool2111": false,
  "ambientSoundChangeTicksMin": 0,
  "ambientSoundChangeTicksMax": 0,
  "blocksProjectile": true,
  "randomizeAnimStart": false,
  "deferAnimChange": false
}