{
  "id": 28861,
  "decorDisplacement": 16,
  "isHollow": false,
  "name": "Bank chest",
  "objectModels": [
    21969
  ],
  "recolorToFind": [
    7725,
    6817,
    47,
    61,
    6812,
    6693
  ],
  "mapAreaId": -1,
  "sizeX": 1,
  "sizeY": 1,
  "ambientSoundDistance": 0,
  "ambientSoundRetain": 0,
  "offsetX": 0,
  "mergeNormals": false,
  "wallOrDoor": 1,
  "animationID": -1,
  "varbitID": -1,
  "ambient": 0,
  "contrast": 0,
  "actions": [
    "Use",
    null,
    "Collect",
    null,
    null
  ],
  "interactType": 2,
  "mapSceneID": -1,
  "blockingMask": 11,
  "recolorToReplace": [
    5532,
    5656,
    4626,
    4502,
    6682,
    6558
  ],
  "shadow": true,
  "modelSizeX": 100,
  "modelSizeHeight": 100,
  "modelSizeY": 100,
  "objectID": 0,
  "offsetHeight": 0,
  "offsetY": 0,
  "obstructsGround": false,
  "contouredGround": -1,
  "supportsItems": 1,
  "category": 237,
  "isRotated": false,
  "varpID": -1,
  "ambientSoundId": -1,
  "aBool2111": false,
  "ambientSoundChangeTicksMin": 0,
  "ambientSoundChangeTicksMax": 0,
  "blocksProjectile": true,
  "randomizeAnimStart": false,
  "deferAnimChange": false
}