{
  "id": 29158,
  "decorDisplacement": 16,
  "isHollow": false,
  "name": "Kraken display",
  "objectModels": [
    32166
  ],
  "mapAreaId": -1,
  "sizeX": 3,
  "sizeY": 3,
  "ambientSoundDistance": 0,
  "ambientSoundRetain": 0,
  "offsetX": 0,
  "mergeNormals": false,
  "wallOrDoor": 1,
  "animationID": -1,
  "varbitID": -1,
  "ambient": 0,
  "contrast": 0,
  "actions": [
    "Configure",
    "Jars",
    null,
    null,
    "Remove"
  ],
  "interactType": 2,
  "mapSceneID": -1,
  "blockingMask": 11,
  "shadow": true,
  "modelSizeX": 112,
  "modelSizeHeight": 112,
  "modelSizeY": 112,
  "objectID": 0,
  "offsetHeight": 0,
  "offsetY": 0,
  "obstructsGround": false,
  "contouredGround": -1,
  "supportsItems": 1,
  "category": 206,
  "isRotated": false,
  "varpID": -1,
  "ambientSoundId": -1,
  "aBool2111": false,
  "ambientSoundChangeTicksMin": 0,
  "ambientSoundChangeTicksMax": 0,
  "blocksProjectile": true,
  "randomizeAnimStart": false,
  "deferAnimChange": false
}