{
  "id": 29560,
  "decorDisplacement": 16,
  "isHollow": false,
  "name": "null",
  "mapAreaId": -1,
  "sizeX": 1,
  "sizeY": 1,
  "ambientSoundDistance": 0,
  "ambientSoundRetain": 0,
  "offsetX": 0,
  "mergeNormals": false,
  "wallOrDoor": 1,
  "animationID": 9845,
  "varbitID": 5374,
  "ambient": 0,
  "contrast": 0,
  "actions": [
    null,
    null,
    null,
    null,
    null
  ],
  "interactType": 1,
  "mapSceneID": -1,
  "blockingMask": 0,
  "shadow": true,
  "modelSizeX": 128,
  "modelSizeHeight": 128,
  "modelSizeY": 128,
  "objectID": 0,
  "offsetHeight": 0,
  "offsetY": 0,
  "obstructsGround": false,
  "contouredGround": -1,
  "supportsItems": 1,
  "configChangeDest": [
    29561,
    29562,
    29563,
    29564,
    29565,
    29566,
    29567,
    29568,
    29569,
    29570,
    29571,
    29572,
    29573,
    29574,
    29575,
    29576,
    29577,
    29578,
    29579,
    29580,
    29581,
    29582,
    29583,
    29584,
    29585,
    29586,
    29587,
    29588,
    29589,
    29590,
    29591,
    29592,
    29593,
    29594,
    29595,
    29596,
    29597,
    29598,
    29599,
    29600,
    29601,
    29602,
    29603,
    29604,
    29605,
    29606,
    29607,
    29608,
    29609,
    29610,
    29611,
    29612,
    29613,
    29614,
    29615,
    29616,
    29617,
    29618,
    29619,
    29620,
    29621,
    29622,
    29623,
    29624,
    -1
  ],
  "category": 522,
  "isRotated": false,
  "varpID": -1,
  "ambientSoundId": -1,
  "aBool2111": false,
  "ambientSoundChangeTicksMin": 0,
  "ambientSoundChangeTicksMax": 0,
  "blocksProjectile": true,
  "randomizeAnimStart": false,
  "deferAnimChange": false,
  "params": {
    "1612": 1
  }
}