{
  "id": 29879,
  "decorDisplacement": 16,
  "isHollow": false,
  "name": "Mystical barrier",
  "objectModels": [
    32750
  ],
  "mapAreaId": -1,
  "sizeX": 4,
  "sizeY": 1,
  "ambientSoundDistance": 3,
  "ambientSoundRetain": 0,
  "offsetX": 0,
  "mergeNormals": false,
  "wallOrDoor": 1,
  "animationID": 7503,
  "varbitID": -1,
  "ambient": 0,
  "contrast": 0,
  "actions": [
    "Pass",
    "Quick-pass",
    null,
    null,
    null
  ],
  "interactType": 1,
  "mapSceneID": -1,
  "blockingMask": 0,
  "shadow": false,
  "modelSizeX": 128,
  "modelSizeHeight": 128,
  "modelSizeY": 128,
  "objectID": 0,
  "offsetHeight": 0,
  "offsetY": 0,
  "obstructsGround": false,
  "contouredGround": 0,
  "supportsItems": 0,
  "category": 0,
  "isRotated": false,
  "varpID": -1,
  "ambientSoundId": 3139,
  "aBool2111": true,
  "ambientSoundChangeTicksMin": 0,
  "ambientSoundChangeTicksMax": 0,
  "blocksProjectile": true,
  "randomizeAnimStart": false,
  "deferAnimChange": false
}