{
  "id": 31775,
  "decorDisplacement": 16,
  "isHollow": false,
  "name": "null",
  "objectModels": [
    12053,
    12054,
    12055
  ],
  "objectTypes": [
    0,
    1,
    9
  ],
  "recolorToFind": [
    7952,
    8076,
    9098,
    5285,
    5409
  ],
  "mapAreaId": -1,
  "sizeX": 1,
  "sizeY": 1,
  "ambientSoundDistance": 0,
  "ambientSoundRetain": 0,
  "offsetX": 0,
  "mergeNormals": true,
  "wallOrDoor": 0,
  "animationID": -1,
  "varbitID": -1,
  "ambient": 20,
  "contrast": 0,
  "actions": [
    null,
    null,
    null,
    null,
    null
  ],
  "interactType": 2,
  "mapSceneID": -1,
  "blockingMask": 0,
  "recolorToReplace": [
    11024,
    11148,
    11146,
    16805,
    16922
  ],
  "shadow": true,
  "modelSizeX": 128,
  "modelSizeHeight": 128,
  "modelSizeY": 128,
  "objectID": 0,
  "offsetHeight": 0,
  "offsetY": 0,
  "obstructsGround": false,
  "contouredGround": 0,
  "supportsItems": 1,
  "category": 0,
  "isRotated": false,
  "varpID": -1,
  "ambientSoundId": -1,
  "aBool2111": false,
  "ambientSoundChangeTicksMin": 0,
  "ambientSoundChangeTicksMax": 0,
  "blocksProjectile": true,
  "randomizeAnimStart": false,
  "deferAnimChange": false
}