{
  "id": 31947,
  "decorDisplacement": 16,
  "isHollow": false,
  "name": "Ray of Light",
  "objectModels": [
    13552
  ],
  "recolorToFind": [
    7277
  ],
  "mapAreaId": -1,
  "sizeX": 4,
  "sizeY": 4,
  "ambientSoundDistance": 0,
  "ambientSoundRetain": 0,
  "offsetX": 0,
  "mergeNormals": false,
  "wallOrDoor": 1,
  "animationID": 3445,
  "varbitID": -1,
  "ambient": 0,
  "contrast": 0,
  "actions": [
    null,
    null,
    null,
    null,
    null
  ],
  "interactType": 0,
  "mapSceneID": -1,
  "blockingMask": 0,
  "recolorToReplace": [
    960
  ],
  "shadow": true,
  "modelSizeX": 168,
  "modelSizeHeight": 168,
  "modelSizeY": 168,
  "objectID": 0,
  "offsetHeight": 0,
  "offsetY": 0,
  "obstructsGround": false,
  "contouredGround": -1,
  "supportsItems": 0,
  "category": 0,
  "isRotated": false,
  "varpID": -1,
  "ambientSoundId": -1,
  "aBool2111": false,
  "ambientSoundChangeTicksMin": 0,
  "ambientSoundChangeTicksMax": 0,
  "blocksProjectile": false,
  "randomizeAnimStart": false,
  "deferAnimChange": false
}