{
  "id": 32393,
  "decorDisplacement": 16,
  "isHollow": false,
  "name": "Staircase",
  "objectModels": [
    4453
  ],
  "recolorToFind": [
    21646,
    21526
  ],
  "mapAreaId": -1,
  "sizeX": 2,
  "sizeY": 4,
  "ambientSoundDistance": 0,
  "ambientSoundRetain": 0,
  "offsetX": 0,
  "mergeNormals": true,
  "wallOrDoor": 1,
  "animationID": -1,
  "varbitID": -1,
  "ambient": 0,
  "contrast": 0,
  "actions": [
    "Climb-up",
    null,
    null,
    null,
    null
  ],
  "interactType": 2,
  "mapSceneID": 69,
  "blockingMask": 11,
  "recolorToReplace": [
    2702,
    2458
  ],
  "shadow": true,
  "modelSizeX": 128,
  "modelSizeHeight": 128,
  "modelSizeY": 128,
  "objectID": 0,
  "offsetHeight": 0,
  "offsetY": 0,
  "obstructsGround": false,
  "contouredGround": -1,
  "supportsItems": 1,
  "category": 638,
  "isRotated": false,
  "varpID": -1,
  "ambientSoundId": -1,
  "aBool2111": false,
  "ambientSoundChangeTicksMin": 0,
  "ambientSoundChangeTicksMax": 0,
  "blocksProjectile": true,
  "randomizeAnimStart": false,
  "deferAnimChange": false
}