{
  "id": 33180,
  "decorDisplacement": 16,
  "isHollow": false,
  "name": "Troll Stronghold Portal",
  "objectModels": [
    11231,
    11235
  ],
  "recolorToFind": [
    -15464,
    -15588,
    -15583,
    -15707,
    -15831
  ],
  "mapAreaId": -1,
  "sizeX": 2,
  "sizeY": 1,
  "ambientSoundDistance": 3,
  "ambientSoundRetain": 0,
  "offsetX": 0,
  "mergeNormals": false,
  "wallOrDoor": 1,
  "animationID": 3174,
  "varbitID": -1,
  "ambient": 40,
  "contrast": 0,
  "actions": [
    "Enter",
    null,
    null,
    null,
    "Remove"
  ],
  "interactType": 2,
  "mapSceneID": -1,
  "blockingMask": 0,
  "recolorToReplace": [
    1709,
    1579,
    2851,
    2716,
    2838
  ],
  "shadow": true,
  "modelSizeX": 128,
  "modelSizeHeight": 128,
  "modelSizeY": 128,
  "objectID": 0,
  "offsetHeight": 0,
  "offsetY": 0,
  "obstructsGround": false,
  "contouredGround": -1,
  "supportsItems": 1,
  "category": 206,
  "isRotated": false,
  "varpID": -1,
  "ambientSoundId": 3139,
  "aBool2111": false,
  "ambientSoundChangeTicksMin": 0,
  "ambientSoundChangeTicksMax": 0,
  "blocksProjectile": true,
  "randomizeAnimStart": false,
  "deferAnimChange": false
}