{
  "id": 33426,
  "decorDisplacement": 16,
  "isHollow": false,
  "name": "Portal Nexus",
  "objectModels": [
    36053
  ],
  "mapAreaId": -1,
  "sizeX": 2,
  "sizeY": 2,
  "ambientSoundDistance": 3,
  "ambientSoundRetain": 0,
  "offsetX": 0,
  "mergeNormals": false,
  "wallOrDoor": 1,
  "animationID": 367,
  "varbitID": -1,
  "ambient": 0,
  "contrast": 0,
  "actions": [
    "Catherby",
    "Teleport Menu",
    "Configuration",
    "Upgrade",
    "Remove"
  ],
  "interactType": 2,
  "mapSceneID": -1,
  "blockingMask": 0,
  "shadow": true,
  "modelSizeX": 96,
  "modelSizeHeight": 96,
  "modelSizeY": 96,
  "objectID": 0,
  "offsetHeight": 0,
  "offsetY": 0,
  "obstructsGround": false,
  "contouredGround": -1,
  "supportsItems": 1,
  "category": 206,
  "isRotated": false,
  "varpID": -1,
  "ambientSoundId": 3139,
  "aBool2111": false,
  "ambientSoundChangeTicksMin": 0,
  "ambientSoundChangeTicksMax": 0,
  "blocksProjectile": true,
  "randomizeAnimStart": false,
  "deferAnimChange": false
}