{
  "id": 33732,
  "decorDisplacement": 16,
  "isHollow": false,
  "name": "null",
  "mapAreaId": -1,
  "sizeX": 3,
  "sizeY": 3,
  "ambientSoundDistance": 0,
  "ambientSoundRetain": 0,
  "offsetX": 0,
  "mergeNormals": false,
  "wallOrDoor": 1,
  "animationID": -1,
  "varbitID": 7905,
  "ambient": 0,
  "contrast": 0,
  "actions": [
    null,
    null,
    null,
    null,
    null
  ],
  "interactType": 1,
  "mapSceneID": -1,
  "blockingMask": 0,
  "shadow": true,
  "modelSizeX": 128,
  "modelSizeHeight": 128,
  "modelSizeY": 128,
  "objectID": 0,
  "offsetHeight": 0,
  "offsetY": 0,
  "obstructsGround": false,
  "contouredGround": 0,
  "supportsItems": 1,
  "configChangeDest": [
    8395,
    8394,
    8393,
    8392,
    8395,
    8395,
    8395,
    8395,
    8462,
    8463,
    8464,
    8465,
    8466,
    8467,
    8468,
    8481,
    8482,
    8483,
    8484,
    8485,
    8486,
    8487,
    8488,
    8489,
    8435,
    8436,
    8437,
    8438,
    8439,
    8440,
    8441,
    8442,
    8443,
    8444,
    8445,
    8502,
    8503,
    8504,
    8505,
    8506,
    8507,
    8508,
    8509,
    8510,
    8511,
    8512,
    8513,
    8514,
    8396,
    8397,
    8398,
    8399,
    8400,
    8401,
    8402,
    8403,
    8404,
    8405,
    8406,
    8407,
    8408,
    8409,
    8410,
    8395,
    8395,
    8395,
    8395,
    8395,
    8395,
    8395,
    8395,
    8395,
    8395,
    8473,
    8474,
    8475,
    -1,
    8476,
    8395,
    8395,
    8490,
    8491,
    8492,
    8493,
    8494,
    -1,
    8495,
    8395,
    8395,
    8446,
    8447,
    8448,
    8449,
    8450,
    8451,
    8452,
    -1,
    8453,
    8395,
    8395,
    8515,
    8516,
    8517,
    8518,
    8519,
    8520,
    8521,
    8522,
    8523,
    -1,
    8524,
    8395,
    8395,
    8411,
    8412,
    8413,
    8414,
    8415,
    8416,
    8417,
    8418,
    8419,
    8420,
    8421,
    -1,
    8422,
    8395,
    8395,
    8395,
    8395,
    8395,
    8395,
    8395,
    8395,
    8395,
    8395,
    8395,
    8477,
    8478,
    8479,
    -1,
    8480,
    8395,
    8395,
    8496,
    8497,
    8498,
    8499,
    8500,
    -1,
    8501,
    8395,
    8395,
    8454,
    8455,
    8456,
    8457,
    8458,
    8459,
    8460,
    -1,
    8461,
    8395,
    8395,
    8525,
    8526,
    8527,
    8528,
    8529,
    8530,
    8531,
    8532,
    8533,
    -1,
    8534,
    8395,
    8395,
    8423,
    8424,
    8425,
    8426,
    8427,
    8428,
    8429,
    8430,
    8431,
    8432,
    8433,
    -1,
    8434,
    8395,
    8395,
    8488,
    8488,
    8488,
    8488,
    8488,
    8488,
    8395,
    8395,
    8395,
    8395,
    8395,
    8395,
    8395,
    8395,
    8395,
    8395,
    8395,
    8395,
    8395,
    8395,
    8395,
    8395,
    8395,
    8395,
    8395,
    8395,
    8395,
    8395,
    8395,
    8395,
    8395,
    8395,
    8395,
    8395,
    8395,
    8395,
    8395,
    8395,
    8395,
    8395,
    8395,
    8395,
    8395,
    8395,
    8395,
    8395,
    8395,
    8395,
    8395,
    8395,
    8395,
    8395,
    8395,
    8395,
    8395,
    8395,
    8395,
    8395,
    8395,
    8395,
    8395,
    8395,
    8395,
    8395,
    -1
  ],
  "category": 210,
  "isRotated": false,
  "varpID": -1,
  "ambientSoundId": -1,
  "aBool2111": false,
  "ambientSoundChangeTicksMin": 0,
  "ambientSoundChangeTicksMax": 0,
  "blocksProjectile": true,
  "randomizeAnimStart": false,
  "deferAnimChange": false
}