{
  "id": 34058,
  "decorDisplacement": 16,
  "isHollow": false,
  "name": "null",
  "mapAreaId": -1,
  "sizeX": 2,
  "sizeY": 3,
  "ambientSoundDistance": 0,
  "ambientSoundRetain": 0,
  "offsetX": 0,
  "mergeNormals": true,
  "wallOrDoor": 1,
  "animationID": -1,
  "varbitID": 7907,
  "ambient": 0,
  "contrast": 0,
  "actions": [
    null,
    null,
    null,
    null,
    null
  ],
  "interactType": 1,
  "mapSceneID": -1,
  "blockingMask": 0,
  "shadow": true,
  "modelSizeX": 128,
  "modelSizeHeight": 128,
  "modelSizeY": 128,
  "objectID": 0,
  "offsetHeight": 0,
  "offsetY": 0,
  "obstructsGround": false,
  "contouredGround": -1,
  "supportsItems": 1,
  "configChangeDest": [
    34046,
    34045,
    34044,
    34043,
    34046,
    34046,
    34046,
    34046,
    34199,
    34199,
    34199,
    34199,
    34199,
    34199,
    34218,
    34227,
    34245,
    34263,
    34281,
    -1,
    -1,
    -1,
    -1,
    -1,
    34142,
    34151,
    34169,
    34187,
    34201,
    34201,
    34201,
    34201,
    34201,
    34073,
    34082,
    34100,
    34118,
    34300,
    -1,
    -1,
    -1,
    34281,
    34281,
    34281,
    34281,
    34281,
    34281,
    34281,
    34281,
    34281,
    34281,
    34281,
    34281,
    34281,
    34281,
    34281,
    -1
  ],
  "category": 210,
  "isRotated": false,
  "varpID": -1,
  "ambientSoundId": -1,
  "aBool2111": false,
  "ambientSoundChangeTicksMin": 0,
  "ambientSoundChangeTicksMax": 0,
  "blocksProjectile": false,
  "randomizeAnimStart": false,
  "deferAnimChange": false
}