{
  "id": 34066,
  "decorDisplacement": 16,
  "isHollow": false,
  "name": "Dead Redwood tree",
  "objectModels": [
    36679
  ],
  "recolorToFind": [
    2609,
    2599,
    2595,
    10514,
    10520,
    10508
  ],
  "mapAreaId": -1,
  "sizeX": 3,
  "sizeY": 3,
  "ambientSoundDistance": 0,
  "ambientSoundRetain": 0,
  "offsetX": 0,
  "mergeNormals": false,
  "wallOrDoor": 1,
  "animationID": -1,
  "varbitID": -1,
  "ambient": -20,
  "contrast": 2500,
  "actions": [
    "Clear",
    "Inspect",
    null,
    "Guide",
    null
  ],
  "interactType": 2,
  "mapSceneID": -1,
  "blockingMask": 0,
  "recolorToReplace": [
    10275,
    10275,
    10275,
    -27487,
    -27487,
    -27487
  ],
  "shadow": true,
  "modelSizeX": 128,
  "modelSizeHeight": 128,
  "modelSizeY": 128,
  "objectID": 0,
  "offsetHeight": 0,
  "offsetY": 0,
  "obstructsGround": false,
  "contouredGround": -1,
  "supportsItems": 1,
  "category": 0,
  "isRotated": false,
  "varpID": -1,
  "ambientSoundId": -1,
  "aBool2111": false,
  "ambientSoundChangeTicksMin": 0,
  "ambientSoundChangeTicksMax": 0,
  "blocksProjectile": true,
  "randomizeAnimStart": false,
  "deferAnimChange": false
}