{
  "id": 34635,
  "decorDisplacement": 16,
  "isHollow": false,
  "name": "null",
  "mapAreaId": -1,
  "sizeX": 2,
  "sizeY": 2,
  "ambientSoundDistance": 0,
  "ambientSoundRetain": 0,
  "offsetX": 0,
  "mergeNormals": true,
  "wallOrDoor": 1,
  "animationID": -1,
  "varbitID": 7907,
  "ambient": 0,
  "contrast": 0,
  "actions": [
    null,
    null,
    null,
    null,
    null
  ],
  "interactType": 1,
  "mapSceneID": -1,
  "blockingMask": 0,
  "shadow": true,
  "modelSizeX": 128,
  "modelSizeHeight": 128,
  "modelSizeY": 128,
  "objectID": 0,
  "offsetHeight": 0,
  "offsetY": 0,
  "obstructsGround": false,
  "contouredGround": -1,
  "supportsItems": 1,
  "configChangeDest": [
    -1,
    -1,
    -1,
    -1,
    -1,
    -1,
    -1,
    -1,
    -1,
    -1,
    -1,
    -1,
    -1,
    -1,
    -1,
    34232,
    34250,
    34268,
    34286,
    -1,
    -1,
    -1,
    -1,
    -1,
    -1,
    34156,
    34174,
    34192,
    -1,
    -1,
    -1,
    -1,
    -1,
    -1,
    34087,
    34105,
    34123,
    34305,
    -1,
    -1,
    -1,
    34286,
    34313,
    34313,
    34286,
    34286,
    34313,
    34313,
    34286,
    34286,
    34313,
    34313,
    34286,
    34286,
    34313,
    34313,
    -1
  ],
  "category": 210,
  "isRotated": false,
  "varpID": -1,
  "ambientSoundId": -1,
  "aBool2111": false,
  "ambientSoundChangeTicksMin": 0,
  "ambientSoundChangeTicksMax": 0,
  "blocksProjectile": false,
  "randomizeAnimStart": false,
  "deferAnimChange": false,
  "params": {
    "1545": 1
  }
}