{
  "id": 34906,
  "decorDisplacement": 16,
  "isHollow": false,
  "name": "null",
  "mapAreaId": -1,
  "sizeX": 2,
  "sizeY": 2,
  "ambientSoundDistance": 0,
  "ambientSoundRetain": 0,
  "offsetX": 0,
  "mergeNormals": false,
  "wallOrDoor": 1,
  "animationID": -1,
  "varbitID": 4775,
  "ambient": 0,
  "contrast": 0,
  "actions": [
    null,
    null,
    null,
    null,
    null
  ],
  "interactType": 1,
  "mapSceneID": -1,
  "blockingMask": 0,
  "shadow": true,
  "modelSizeX": 128,
  "modelSizeHeight": 128,
  "modelSizeY": 128,
  "objectID": 0,
  "offsetHeight": 0,
  "offsetY": 0,
  "obstructsGround": false,
  "contouredGround": 0,
  "supportsItems": 1,
  "configChangeDest": [
    34910,
    34909,
    34908,
    34907,
    -1,
    -1,
    -1,
    -1,
    34911,
    34912,
    34913,
    34914,
    34915,
    34916,
    34917,
    34918,
    -1,
    -1,
    -1,
    -1,
    -1,
    -1,
    -1,
    -1,
    -1,
    -1,
    -1,
    -1,
    -1,
    33698,
    33698,
    33698,
    33698,
    33698,
    33698,
    33698,
    33698,
    33698,
    33698,
    33698,
    33698,
    33698,
    33698,
    33698,
    33698,
    33698,
    33698,
    33698,
    33698,
    33698,
    33698,
    33698,
    33698,
    33698,
    33698,
    33698,
    33698,
    33698,
    33698,
    33698,
    33698,
    33698,
    33698,
    33698,
    33698,
    33698,
    33698,
    33698,
    33698,
    33698,
    33698,
    33698,
    33698,
    33698,
    33698,
    33698,
    33698,
    33698,
    33698,
    33698,
    33698,
    33698,
    33698,
    33698,
    33698,
    33698,
    33698,
    33698,
    33698,
    33698,
    33698,
    33698,
    33698,
    33698,
    33698,
    33698,
    33698,
    33698,
    33698,
    33698,
    33698,
    33698,
    33698,
    33698,
    33698,
    33698,
    33698,
    33698,
    33698,
    33698,
    33698,
    33698,
    33698,
    33698,
    33698,
    33698,
    33698,
    33698,
    33698,
    33698,
    33698,
    33698,
    33698,
    33698,
    33698,
    33698,
    33698,
    33698,
    33698,
    33698,
    33698,
    33698,
    33698,
    33698,
    33698,
    33698,
    33698,
    33698,
    33698,
    33698,
    33698,
    33698,
    33698,
    33698,
    33698,
    33698,
    33698,
    33698,
    33698,
    33698,
    33698,
    33698,
    33698,
    33698,
    33698,
    33698,
    33698,
    33698,
    33698,
    33698,
    33698,
    33698,
    33698,
    33698,
    33698,
    33698,
    33698,
    33698,
    33698,
    33698,
    33698,
    33698,
    33698,
    33698,
    33698,
    33698,
    33698,
    33698,
    33698,
    33698,
    33698,
    33698,
    33698,
    33698,
    33698,
    33698,
    33698,
    33698,
    33698,
    33698,
    33698,
    33698,
    33698,
    33698,
    33698,
    33698,
    33698,
    33698,
    33698,
    33698,
    33698,
    33698,
    33698,
    33698,
    33698,
    33698,
    33698,
    33698,
    33698,
    33698,
    33698,
    33698,
    33698,
    33698,
    33698,
    33698,
    33698,
    33698,
    33698,
    33698,
    33698,
    33698,
    33698,
    33698,
    33698,
    33698,
    33698,
    33698,
    33698,
    33698,
    33698,
    33698,
    33698,
    33698,
    33698,
    33698,
    33698,
    33698,
    33698,
    33698,
    33698,
    33698,
    33698,
    33698,
    33698,
    33698,
    33698,
    33698,
    33698,
    33698,
    33698,
    33698,
    33698,
    33698,
    33698,
    33698,
    -1
  ],
  "category": 210,
  "isRotated": false,
  "varpID": -1,
  "ambientSoundId": -1,
  "aBool2111": false,
  "ambientSoundChangeTicksMin": 0,
  "ambientSoundChangeTicksMax": 0,
  "blocksProjectile": true,
  "randomizeAnimStart": false,
  "deferAnimChange": false
}