{
  "id": 35486,
  "decorDisplacement": 16,
  "isHollow": false,
  "name": "null",
  "objectModels": [
    38344,
    38340,
    38349
  ],
  "objectTypes": [
    10,
    2,
    3
  ],
  "recolorToFind": [
    -30407
  ],
  "mapAreaId": -1,
  "sizeX": 1,
  "sizeY": 1,
  "ambientSoundDistance": 0,
  "ambientSoundRetain": 0,
  "offsetX": 0,
  "mergeNormals": false,
  "wallOrDoor": 0,
  "animationID": -1,
  "varbitID": -1,
  "ambient": 60,
  "contrast": 2500,
  "actions": [
    null,
    null,
    null,
    null,
    null
  ],
  "interactType": 0,
  "mapSceneID": -1,
  "blockingMask": 0,
  "recolorToReplace": [
    -10304
  ],
  "shadow": false,
  "modelSizeX": 128,
  "modelSizeHeight": 128,
  "modelSizeY": 128,
  "objectID": 0,
  "offsetHeight": 0,
  "offsetY": 0,
  "obstructsGround": false,
  "contouredGround": -1,
  "supportsItems": 0,
  "category": 0,
  "isRotated": false,
  "varpID": -1,
  "ambientSoundId": -1,
  "aBool2111": false,
  "ambientSoundChangeTicksMin": 0,
  "ambientSoundChangeTicksMax": 0,
  "blocksProjectile": false,
  "randomizeAnimStart": false,
  "deferAnimChange": false
}