{
  "id": 3622,
  "retextureToFind": [
    16,
    2,
    44
  ],
  "decorDisplacement": 16,
  "isHollow": false,
  "name": "null",
  "objectModels": [
    3521,
    3520,
    3519
  ],
  "objectTypes": [
    18,
    19,
    20
  ],
  "recolorToFind": [
    6930
  ],
  "mapAreaId": -1,
  "textureToReplace": [
    5,
    23,
    18
  ],
  "sizeX": 1,
  "sizeY": 1,
  "ambientSoundDistance": 0,
  "ambientSoundRetain": 0,
  "offsetX": 0,
  "mergeNormals": true,
  "wallOrDoor": 0,
  "animationID": -1,
  "varbitID": -1,
  "ambient": 0,
  "contrast": 0,
  "actions": [
    null,
    null,
    null,
    null,
    null
  ],
  "interactType": 2,
  "mapSceneID": -1,
  "blockingMask": 0,
  "recolorToReplace": [
    7566
  ],
  "shadow": true,
  "modelSizeX": 128,
  "modelSizeHeight": 200,
  "modelSizeY": 128,
  "objectID": 0,
  "offsetHeight": 0,
  "offsetY": 0,
  "obstructsGround": false,
  "contouredGround": -1,
  "supportsItems": 1,
  "category": 0,
  "isRotated": false,
  "varpID": -1,
  "ambientSoundId": -1,
  "aBool2111": false,
  "ambientSoundChangeTicksMin": 0,
  "ambientSoundChangeTicksMax": 0,
  "blocksProjectile": true,
  "randomizeAnimStart": false,
  "deferAnimChange": false
}