{
  "id": 37816,
  "decorDisplacement": 16,
  "isHollow": false,
  "name": "null",
  "objectModels": [
    12040
  ],
  "recolorToFind": [
    9098,
    8846,
    8722,
    8598,
    8602,
    8478
  ],
  "mapAreaId": -1,
  "sizeX": 1,
  "sizeY": 1,
  "ambientSoundDistance": 4,
  "ambientSoundIds": [
    2152,
    3080,
    3081,
    2411
  ],
  "ambientSoundRetain": 0,
  "offsetX": 0,
  "mergeNormals": false,
  "wallOrDoor": 0,
  "animationID": -1,
  "varbitID": -1,
  "ambient": 20,
  "contrast": 0,
  "actions": [
    null,
    null,
    null,
    null,
    null
  ],
  "interactType": 1,
  "mapSceneID": -1,
  "blockingMask": 0,
  "recolorToReplace": [
    10762,
    10638,
    10518,
    10524,
    10526,
    10529
  ],
  "shadow": true,
  "modelSizeX": 128,
  "modelSizeHeight": 128,
  "modelSizeY": 128,
  "objectID": 0,
  "offsetHeight": 0,
  "offsetY": 0,
  "obstructsGround": false,
  "contouredGround": 0,
  "supportsItems": 1,
  "category": 0,
  "isRotated": false,
  "varpID": -1,
  "ambientSoundId": -1,
  "aBool2111": false,
  "ambientSoundChangeTicksMin": 400,
  "ambientSoundChangeTicksMax": 600,
  "blocksProjectile": true,
  "randomizeAnimStart": false,
  "deferAnimChange": false
}