{
  "id": 37976,
  "decorDisplacement": 16,
  "isHollow": false,
  "name": "null",
  "objectModels": [
    5809
  ],
  "recolorToFind": [
    6371
  ],
  "mapAreaId": -1,
  "sizeX": 1,
  "sizeY": 1,
  "ambientSoundDistance": 0,
  "ambientSoundRetain": 0,
  "offsetX": 0,
  "mergeNormals": false,
  "wallOrDoor": 0,
  "animationID": 3101,
  "varbitID": -1,
  "ambient": 60,
  "contrast": 1500,
  "actions": [
    null,
    null,
    null,
    null,
    null
  ],
  "interactType": 0,
  "mapSceneID": -1,
  "blockingMask": 0,
  "recolorToReplace": [
    13095
  ],
  "shadow": false,
  "modelSizeX": 128,
  "modelSizeHeight": 192,
  "modelSizeY": 128,
  "objectID": 0,
  "offsetHeight": 0,
  "offsetY": 0,
  "obstructsGround": false,
  "contouredGround": 0,
  "supportsItems": 0,
  "category": 0,
  "isRotated": false,
  "varpID": -1,
  "ambientSoundId": -1,
  "aBool2111": false,
  "ambientSoundChangeTicksMin": 0,
  "ambientSoundChangeTicksMax": 0,
  "blocksProjectile": false,
  "randomizeAnimStart": false,
  "deferAnimChange": false
}