{
  "id": 37996,
  "decorDisplacement": 16,
  "isHollow": false,
  "name": "Magical Fire",
  "objectModels": [
    26584
  ],
  "recolorToFind": [
    10471,
    5056,
    7104,
    8146
  ],
  "mapAreaId": -1,
  "sizeX": 1,
  "sizeY": 1,
  "ambientSoundDistance": 10,
  "ambientSoundRetain": 0,
  "offsetX": 0,
  "mergeNormals": false,
  "wallOrDoor": 1,
  "animationID": 6646,
  "varbitID": -1,
  "ambient": 60,
  "contrast": 1500,
  "actions": [
    "Stamp-out",
    null,
    null,
    null,
    null
  ],
  "interactType": 0,
  "mapSceneID": -1,
  "blockingMask": 0,
  "recolorToReplace": [
    16340,
    16196,
    16064,
    16187
  ],
  "shadow": true,
  "modelSizeX": 64,
  "modelSizeHeight": 64,
  "modelSizeY": 64,
  "objectID": 0,
  "offsetHeight": 0,
  "offsetY": 0,
  "obstructsGround": false,
  "contouredGround": -1,
  "supportsItems": 0,
  "category": 0,
  "isRotated": false,
  "varpID": -1,
  "ambientSoundId": 2066,
  "aBool2111": false,
  "ambientSoundChangeTicksMin": 0,
  "ambientSoundChangeTicksMax": 0,
  "blocksProjectile": false,
  "randomizeAnimStart": false,
  "deferAnimChange": false
}