{
  "id": 38799,
  "decorDisplacement": 16,
  "isHollow": false,
  "name": "Saradomin Brazier",
  "objectModels": [
    39795
  ],
  "recolorToFind": [
    -24680,
    -24671,
    -24661,
    -24645,
    -24630,
    -24616
  ],
  "mapAreaId": -1,
  "sizeX": 2,
  "sizeY": 1,
  "ambientSoundDistance": 0,
  "ambientSoundRetain": 0,
  "offsetX": 0,
  "mergeNormals": true,
  "wallOrDoor": 1,
  "animationID": 5598,
  "varbitID": -1,
  "ambient": 30,
  "contrast": 250,
  "actions": [
    null,
    null,
    null,
    null,
    null
  ],
  "interactType": 2,
  "mapSceneID": -1,
  "blockingMask": 0,
  "recolorToReplace": [
    -25278,
    -25272,
    -25258,
    -25375,
    -25365,
    -25491
  ],
  "shadow": true,
  "modelSizeX": 128,
  "modelSizeHeight": 128,
  "modelSizeY": 128,
  "objectID": 0,
  "offsetHeight": 0,
  "offsetY": 0,
  "obstructsGround": false,
  "contouredGround": -1,
  "supportsItems": 1,
  "category": 0,
  "isRotated": false,
  "varpID": -1,
  "ambientSoundId": -1,
  "aBool2111": false,
  "ambientSoundChangeTicksMin": 0,
  "ambientSoundChangeTicksMax": 0,
  "blocksProjectile": true,
  "randomizeAnimStart": false,
  "deferAnimChange": false
}