{
  "id": 3903,
  "decorDisplacement": 16,
  "isHollow": false,
  "name": "Flowers",
  "objectModels": [
    1658
  ],
  "recolorToFind": [
    910,
    712,
    935,
    695,
    840,
    842
  ],
  "mapAreaId": -1,
  "sizeX": 1,
  "sizeY": 1,
  "ambientSoundDistance": 0,
  "ambientSoundRetain": 0,
  "offsetX": 0,
  "mergeNormals": false,
  "wallOrDoor": 1,
  "animationID": -1,
  "varbitID": -1,
  "ambient": 0,
  "contrast": 0,
  "actions": [
    null,
    null,
    null,
    null,
    null
  ],
  "interactType": 0,
  "mapSceneID": -1,
  "blockingMask": 0,
  "recolorToReplace": [
    -9103,
    -28445,
    -25268,
    -26051,
    -26038,
    -26798
  ],
  "shadow": true,
  "modelSizeX": 170,
  "modelSizeHeight": 170,
  "modelSizeY": 170,
  "objectID": 0,
  "offsetHeight": 0,
  "offsetY": 0,
  "obstructsGround": false,
  "contouredGround": -1,
  "supportsItems": 0,
  "category": 0,
  "isRotated": false,
  "varpID": -1,
  "ambientSoundId": -1,
  "aBool2111": false,
  "ambientSoundChangeTicksMin": 0,
  "ambientSoundChangeTicksMax": 0,
  "blocksProjectile": false,
  "randomizeAnimStart": false,
  "deferAnimChange": false
}