{
  "id": 40397,
  "decorDisplacement": 16,
  "isHollow": false,
  "name": "Rock",
  "objectModels": [
    41014,
    40999
  ],
  "recolorToFind": [
    -31796,
    5444,
    5435,
    5429,
    5541,
    7463,
    8472,
    10650,
    10638,
    16532,
    10768,
    10892,
    10760,
    15238
  ],
  "mapAreaId": -1,
  "sizeX": 2,
  "sizeY": 2,
  "ambientSoundDistance": 0,
  "ambientSoundRetain": 0,
  "offsetX": 0,
  "mergeNormals": false,
  "wallOrDoor": 1,
  "animationID": -1,
  "varbitID": -1,
  "ambient": 30,
  "contrast": 250,
  "actions": [
    null,
    null,
    null,
    null,
    null
  ],
  "interactType": 1,
  "mapSceneID": 11,
  "blockingMask": 0,
  "recolorToReplace": [
    4044,
    299,
    289,
    280,
    274,
    274,
    268,
    268,
    262,
    262,
    -18269,
    -18278,
    -18158,
    -18034
  ],
  "shadow": true,
  "modelSizeX": 128,
  "modelSizeHeight": 128,
  "modelSizeY": 128,
  "objectID": 0,
  "offsetHeight": 0,
  "offsetY": 0,
  "obstructsGround": false,
  "contouredGround": 0,
  "supportsItems": 1,
  "category": 0,
  "isRotated": false,
  "varpID": -1,
  "ambientSoundId": -1,
  "aBool2111": false,
  "ambientSoundChangeTicksMin": 0,
  "ambientSoundChangeTicksMax": 0,
  "blocksProjectile": true,
  "randomizeAnimStart": false,
  "deferAnimChange": false
}