{
  "id": 40475,
  "decorDisplacement": 16,
  "isHollow": false,
  "name": "Soul Wars Portal",
  "objectModels": [
    11233,
    12636
  ],
  "recolorToFind": [
    -15464,
    -15588,
    -15583,
    -15707,
    -15831
  ],
  "mapAreaId": -1,
  "sizeX": 5,
  "sizeY": 2,
  "ambientSoundDistance": 4,
  "ambientSoundRetain": 0,
  "offsetX": 0,
  "mergeNormals": false,
  "wallOrDoor": 1,
  "animationID": 3174,
  "varbitID": -1,
  "ambient": 10,
  "contrast": 250,
  "actions": [
    "Enter",
    null,
    null,
    null,
    null
  ],
  "interactType": 1,
  "mapSceneID": -1,
  "blockingMask": 0,
  "recolorToReplace": [
    11076,
    11061,
    10935,
    9901,
    9905
  ],
  "shadow": true,
  "modelSizeX": 128,
  "modelSizeHeight": 128,
  "modelSizeY": 128,
  "objectID": 0,
  "offsetHeight": 0,
  "offsetY": 0,
  "obstructsGround": false,
  "contouredGround": -1,
  "supportsItems": 1,
  "category": 1487,
  "isRotated": false,
  "varpID": -1,
  "ambientSoundId": 3139,
  "aBool2111": false,
  "ambientSoundChangeTicksMin": 0,
  "ambientSoundChangeTicksMax": 0,
  "blocksProjectile": true,
  "randomizeAnimStart": false,
  "deferAnimChange": false
}