{
  "id": 41303,
  "decorDisplacement": 16,
  "isHollow": false,
  "name": "Reward pool",
  "objectModels": [
    41886,
    41889,
    41887
  ],
  "mapAreaId": -1,
  "sizeX": 2,
  "sizeY": 3,
  "ambientSoundDistance": 5,
  "ambientSoundRetain": 0,
  "offsetX": 0,
  "mergeNormals": false,
  "wallOrDoor": 1,
  "animationID": 8867,
  "varbitID": -1,
  "ambient": 30,
  "contrast": 500,
  "actions": [
    "Net",
    "Check",
    "Big-Search",
    null,
    null
  ],
  "interactType": 1,
  "mapSceneID": -1,
  "blockingMask": 0,
  "shadow": true,
  "modelSizeX": 128,
  "modelSizeHeight": 128,
  "modelSizeY": 128,
  "objectID": 0,
  "offsetHeight": 0,
  "offsetY": 0,
  "obstructsGround": false,
  "contouredGround": -1,
  "supportsItems": 1,
  "category": 1512,
  "isRotated": false,
  "varpID": -1,
  "ambientSoundId": 4956,
  "aBool2111": false,
  "ambientSoundChangeTicksMin": 0,
  "ambientSoundChangeTicksMax": 0,
  "blocksProjectile": false,
  "randomizeAnimStart": false,
  "deferAnimChange": false
}