{
  "id": 41948,
  "decorDisplacement": 16,
  "isHollow": false,
  "name": "<col=ffff00>Protester</col>",
  "objectModels": [
    42549
  ],
  "recolorToFind": [
    61,
    -22481,
    12,
    910
  ],
  "mapAreaId": -1,
  "sizeX": 1,
  "sizeY": 1,
  "ambientSoundDistance": 0,
  "ambientSoundRetain": 0,
  "offsetX": 0,
  "mergeNormals": false,
  "wallOrDoor": 1,
  "animationID": 9045,
  "varbitID": -1,
  "ambient": -2,
  "contrast": 850,
  "actions": [
    null,
    null,
    null,
    null,
    null
  ],
  "interactType": 1,
  "mapSceneID": 82,
  "blockingMask": 0,
  "recolorToReplace": [
    4923,
    813,
    4550,
    -5616
  ],
  "shadow": false,
  "modelSizeX": 128,
  "modelSizeHeight": 128,
  "modelSizeY": 128,
  "objectID": 0,
  "offsetHeight": 0,
  "offsetY": 0,
  "obstructsGround": false,
  "contouredGround": -1,
  "supportsItems": 1,
  "category": 0,
  "isRotated": false,
  "varpID": -1,
  "ambientSoundId": -1,
  "aBool2111": false,
  "ambientSoundChangeTicksMin": 0,
  "ambientSoundChangeTicksMax": 0,
  "blocksProjectile": false,
  "randomizeAnimStart": false,
  "deferAnimChange": false
}