{
  "id": 43006,
  "decorDisplacement": 16,
  "isHollow": false,
  "name": "Falador Waystone",
  "objectModels": [
    43391,
    43375,
    43379
  ],
  "mapAreaId": -1,
  "sizeX": 1,
  "sizeY": 1,
  "ambientSoundDistance": 0,
  "ambientSoundRetain": 0,
  "offsetX": 0,
  "mergeNormals": false,
  "wallOrDoor": 1,
  "animationID": -1,
  "varbitID": -1,
  "ambient": 25,
  "contrast": 250,
  "actions": [
    "Teleport",
    null,
    null,
    null,
    null
  ],
  "interactType": 2,
  "mapSceneID": 14,
  "blockingMask": 0,
  "shadow": true,
  "modelSizeX": 220,
  "modelSizeHeight": 220,
  "modelSizeY": 220,
  "objectID": 0,
  "offsetHeight": 0,
  "offsetY": 0,
  "obstructsGround": false,
  "contouredGround": 0,
  "supportsItems": 1,
  "category": 0,
  "isRotated": false,
  "varpID": -1,
  "ambientSoundId": -1,
  "aBool2111": false,
  "ambientSoundChangeTicksMin": 0,
  "ambientSoundChangeTicksMax": 0,
  "blocksProjectile": true,
  "randomizeAnimStart": false,
  "deferAnimChange": false
}