{
  "id": 43481,
  "decorDisplacement": 16,
  "isHollow": false,
  "name": "null",
  "objectModels": [
    43918
  ],
  "recolorToFind": [
    26432,
    26584,
    26328
  ],
  "mapAreaId": -1,
  "sizeX": 3,
  "sizeY": 3,
  "ambientSoundDistance": 3,
  "ambientSoundRetain": 0,
  "offsetX": 0,
  "mergeNormals": false,
  "wallOrDoor": 0,
  "animationID": 9260,
  "varbitID": -1,
  "ambient": 100,
  "contrast": 1875,
  "actions": [
    null,
    null,
    null,
    null,
    null
  ],
  "interactType": 0,
  "mapSceneID": -1,
  "blockingMask": 0,
  "recolorToReplace": [
    832,
    984,
    -5184
  ],
  "shadow": true,
  "modelSizeX": 160,
  "modelSizeHeight": 256,
  "modelSizeY": 160,
  "objectID": 0,
  "offsetHeight": 0,
  "offsetY": 0,
  "obstructsGround": false,
  "contouredGround": -1,
  "supportsItems": 0,
  "category": 0,
  "isRotated": false,
  "varpID": -1,
  "ambientSoundId": 3139,
  "aBool2111": false,
  "ambientSoundChangeTicksMin": 0,
  "ambientSoundChangeTicksMax": 0,
  "blocksProjectile": false,
  "randomizeAnimStart": false,
  "deferAnimChange": false
}