{
  "id": 43765,
  "decorDisplacement": 16,
  "isHollow": false,
  "name": "Portal",
  "objectModels": [
    44082
  ],
  "recolorToFind": [
    -8244,
    -12468,
    -18624
  ],
  "mapAreaId": -1,
  "sizeX": 1,
  "sizeY": 1,
  "ambientSoundDistance": 0,
  "ambientSoundRetain": 0,
  "offsetX": 0,
  "mergeNormals": false,
  "wallOrDoor": 1,
  "animationID": 8750,
  "varbitID": -1,
  "ambient": 60,
  "contrast": 2500,
  "actions": [
    "Enter",
    null,
    null,
    null,
    null
  ],
  "interactType": 1,
  "mapSceneID": -1,
  "blockingMask": 14,
  "recolorToReplace": [
    -25768,
    -25664,
    32576
  ],
  "shadow": true,
  "modelSizeX": 80,
  "modelSizeHeight": 80,
  "modelSizeY": 80,
  "objectID": 0,
  "offsetHeight": 0,
  "offsetY": 0,
  "obstructsGround": false,
  "contouredGround": -1,
  "supportsItems": 1,
  "category": 0,
  "isRotated": false,
  "varpID": -1,
  "ambientSoundId": -1,
  "aBool2111": false,
  "ambientSoundChangeTicksMin": 0,
  "ambientSoundChangeTicksMax": 0,
  "blocksProjectile": false,
  "randomizeAnimStart": false,
  "deferAnimChange": false
}