{
  "id": 43875,
  "decorDisplacement": 16,
  "isHollow": false,
  "name": "null",
  "objectModels": [
    12041
  ],
  "recolorToFind": [
    9098,
    8846,
    8722,
    8598,
    8602,
    8478
  ],
  "mapAreaId": -1,
  "sizeX": 2,
  "sizeY": 2,
  "ambientSoundDistance": 0,
  "ambientSoundRetain": 0,
  "offsetX": 0,
  "mergeNormals": false,
  "wallOrDoor": 0,
  "animationID": -1,
  "varbitID": -1,
  "ambient": -60,
  "contrast": 1400,
  "actions": [
    null,
    null,
    null,
    null,
    null
  ],
  "interactType": 1,
  "mapSceneID": -1,
  "blockingMask": 0,
  "recolorToReplace": [
    8,
    12,
    16,
    18,
    22,
    22
  ],
  "shadow": true,
  "modelSizeX": 240,
  "modelSizeHeight": 240,
  "modelSizeY": 240,
  "objectID": 0,
  "offsetHeight": 0,
  "offsetY": 0,
  "obstructsGround": false,
  "contouredGround": 0,
  "supportsItems": 1,
  "category": 0,
  "isRotated": false,
  "varpID": -1,
  "ambientSoundId": -1,
  "aBool2111": false,
  "ambientSoundChangeTicksMin": 0,
  "ambientSoundChangeTicksMax": 0,
  "blocksProjectile": true,
  "randomizeAnimStart": false,
  "deferAnimChange": false
}