{
  "id": 44927,
  "decorDisplacement": 16,
  "isHollow": false,
  "name": "Staging area steps",
  "objectModels": [
    7766
  ],
  "mapAreaId": -1,
  "sizeX": 3,
  "sizeY": 3,
  "ambientSoundDistance": 0,
  "ambientSoundRetain": 0,
  "offsetX": 0,
  "mergeNormals": false,
  "wallOrDoor": 1,
  "animationID": -1,
  "varbitID": -1,
  "ambient": 0,
  "contrast": 0,
  "actions": [
    "Use",
    "Quick-use",
    null,
    null,
    null
  ],
  "interactType": 2,
  "mapSceneID": 7,
  "blockingMask": 7,
  "shadow": true,
  "modelSizeX": 384,
  "modelSizeHeight": 384,
  "modelSizeY": 384,
  "objectID": 0,
  "offsetHeight": 0,
  "offsetY": 0,
  "obstructsGround": false,
  "contouredGround": -1,
  "supportsItems": 1,
  "category": 0,
  "isRotated": false,
  "varpID": -1,
  "ambientSoundId": -1,
  "aBool2111": false,
  "ambientSoundChangeTicksMin": 0,
  "ambientSoundChangeTicksMax": 0,
  "blocksProjectile": true,
  "randomizeAnimStart": false,
  "deferAnimChange": false
}