{
  "id": 46786,
  "decorDisplacement": 16,
  "isHollow": false,
  "name": "null",
  "objectModels": [
    44602
  ],
  "recolorToFind": [
    8394,
    -25322,
    -25446,
    -25437,
    -25442,
    -27607
  ],
  "mapAreaId": -1,
  "sizeX": 4,
  "sizeY": 4,
  "ambientSoundDistance": 0,
  "ambientSoundRetain": 0,
  "offsetX": 0,
  "mergeNormals": true,
  "wallOrDoor": 0,
  "animationID": -1,
  "varbitID": -1,
  "ambient": 30,
  "contrast": 500,
  "actions": [
    null,
    null,
    null,
    null,
    null
  ],
  "interactType": 2,
  "mapSceneID": -1,
  "blockingMask": 0,
  "recolorToReplace": [
    8633,
    6430,
    6435,
    6439,
    6435,
    6430
  ],
  "shadow": false,
  "modelSizeX": 128,
  "modelSizeHeight": 128,
  "modelSizeY": 128,
  "objectID": 0,
  "offsetHeight": 0,
  "offsetY": 0,
  "obstructsGround": false,
  "contouredGround": 0,
  "supportsItems": 1,
  "category": 0,
  "isRotated": false,
  "varpID": -1,
  "ambientSoundId": -1,
  "aBool2111": false,
  "ambientSoundChangeTicksMin": 0,
  "ambientSoundChangeTicksMax": 0,
  "blocksProjectile": true,
  "randomizeAnimStart": false,
  "deferAnimChange": false
}