{
  "id": 47078,
  "decorDisplacement": 16,
  "isHollow": false,
  "name": "Cave Entrance",
  "objectModels": [
    731
  ],
  "recolorToFind": [
    6036,
    5008,
    1932,
    904,
    900
  ],
  "mapAreaId": -1,
  "sizeX": 3,
  "sizeY": 3,
  "ambientSoundDistance": 0,
  "ambientSoundRetain": 0,
  "offsetX": 0,
  "mergeNormals": true,
  "wallOrDoor": 1,
  "animationID": -1,
  "varbitID": -1,
  "ambient": 0,
  "contrast": 0,
  "actions": [
    "Enter",
    "Peek",
    "Check-Fee",
    null,
    null
  ],
  "interactType": 2,
  "mapSceneID": -1,
  "blockingMask": 11,
  "recolorToReplace": [
    29861,
    -32482,
    -32488,
    -32496,
    -32506
  ],
  "shadow": false,
  "modelSizeX": 128,
  "modelSizeHeight": 128,
  "modelSizeY": 128,
  "objectID": 0,
  "offsetHeight": 0,
  "offsetY": 0,
  "obstructsGround": false,
  "contouredGround": -1,
  "supportsItems": 1,
  "category": 0,
  "isRotated": false,
  "varpID": -1,
  "ambientSoundId": -1,
  "aBool2111": false,
  "ambientSoundChangeTicksMin": 0,
  "ambientSoundChangeTicksMax": 0,
  "blocksProjectile": true,
  "randomizeAnimStart": false,
  "deferAnimChange": false
}