{
  "id": 47125,
  "decorDisplacement": 16,
  "isHollow": false,
  "name": "null",
  "objectModels": [
    43331,
    43332
  ],
  "objectTypes": [
    10,
    22
  ],
  "recolorToFind": [
    29656
  ],
  "mapAreaId": -1,
  "sizeX": 3,
  "sizeY": 3,
  "ambientSoundDistance": 0,
  "ambientSoundRetain": 0,
  "offsetX": 0,
  "mergeNormals": false,
  "wallOrDoor": 0,
  "animationID": 9227,
  "varbitID": -1,
  "ambient": -30,
  "contrast": 2250,
  "actions": [
    null,
    null,
    null,
    null,
    null
  ],
  "interactType": 0,
  "mapSceneID": -1,
  "blockingMask": 0,
  "recolorToReplace": [
    80
  ],
  "shadow": false,
  "modelSizeX": 190,
  "modelSizeHeight": 128,
  "modelSizeY": 190,
  "objectID": 0,
  "offsetHeight": 0,
  "offsetY": 0,
  "obstructsGround": false,
  "contouredGround": 0,
  "supportsItems": 0,
  "category": 0,
  "isRotated": false,
  "varpID": -1,
  "ambientSoundId": -1,
  "aBool2111": false,
  "ambientSoundChangeTicksMin": 0,
  "ambientSoundChangeTicksMax": 0,
  "blocksProjectile": false,
  "randomizeAnimStart": false,
  "deferAnimChange": false
}