{
  "id": 47418,
  "decorDisplacement": 16,
  "isHollow": false,
  "name": "Bed",
  "objectModels": [
    12397
  ],
  "recolorToFind": [
    6466,
    6319,
    5545,
    926,
    8377
  ],
  "mapAreaId": -1,
  "sizeX": 1,
  "sizeY": 2,
  "ambientSoundDistance": 0,
  "ambientSoundRetain": 0,
  "offsetX": 0,
  "mergeNormals": false,
  "wallOrDoor": 1,
  "animationID": -1,
  "varbitID": -1,
  "ambient": 25,
  "contrast": 0,
  "actions": [
    null,
    null,
    null,
    null,
    null
  ],
  "interactType": 2,
  "mapSceneID": -1,
  "blockingMask": 0,
  "recolorToReplace": [
    7461,
    16466,
    7706,
    8115,
    -25503
  ],
  "shadow": true,
  "modelSizeX": 128,
  "modelSizeHeight": 135,
  "modelSizeY": 128,
  "objectID": 0,
  "offsetHeight": 0,
  "offsetY": 0,
  "obstructsGround": false,
  "contouredGround": -1,
  "supportsItems": 1,
  "category": 0,
  "isRotated": false,
  "varpID": -1,
  "ambientSoundId": -1,
  "aBool2111": false,
  "ambientSoundChangeTicksMin": 0,
  "ambientSoundChangeTicksMax": 0,
  "blocksProjectile": true,
  "randomizeAnimStart": false,
  "deferAnimChange": false
}