{
  "id": 48311,
  "decorDisplacement": 16,
  "isHollow": false,
  "name": "Sunken Steeple",
  "objectModels": [
    48402
  ],
  "recolorToFind": [
    24,
    28
  ],
  "mapAreaId": -1,
  "sizeX": 9,
  "sizeY": 9,
  "ambientSoundDistance": 0,
  "ambientSoundRetain": 0,
  "offsetX": 0,
  "mergeNormals": false,
  "wallOrDoor": 1,
  "animationID": -1,
  "varbitID": -1,
  "ambient": 10,
  "contrast": 500,
  "actions": [
    null,
    null,
    null,
    null,
    null
  ],
  "interactType": 2,
  "mapSceneID": -1,
  "blockingMask": 0,
  "recolorToReplace": [
    22,
    26
  ],
  "shadow": false,
  "modelSizeX": 96,
  "modelSizeHeight": 96,
  "modelSizeY": 96,
  "objectID": 0,
  "offsetHeight": 0,
  "offsetY": 0,
  "obstructsGround": false,
  "contouredGround": -1,
  "supportsItems": 1,
  "category": 0,
  "isRotated": false,
  "varpID": -1,
  "ambientSoundId": -1,
  "aBool2111": false,
  "ambientSoundChangeTicksMin": 0,
  "ambientSoundChangeTicksMax": 0,
  "blocksProjectile": true,
  "randomizeAnimStart": false,
  "deferAnimChange": false
}