{
  "id": 49414,
  "decorDisplacement": 16,
  "isHollow": false,
  "name": "Neural Teleporter",
  "objectModels": [
    49397
  ],
  "recolorToFind": [
    -23078,
    -22836,
    -23082
  ],
  "mapAreaId": -1,
  "sizeX": 3,
  "sizeY": 1,
  "ambientSoundDistance": 3,
  "ambientSoundRetain": 0,
  "offsetX": 0,
  "mergeNormals": false,
  "wallOrDoor": 1,
  "animationID": 7301,
  "varbitID": -1,
  "ambient": 35,
  "contrast": 750,
  "actions": [
    "Enter",
    null,
    null,
    null,
    null
  ],
  "interactType": 2,
  "mapSceneID": -1,
  "blockingMask": 0,
  "recolorToReplace": [
    -23078,
    -22836,
    -23082
  ],
  "shadow": false,
  "modelSizeX": 128,
  "modelSizeHeight": 128,
  "modelSizeY": 128,
  "objectID": 0,
  "offsetHeight": 0,
  "offsetY": 0,
  "obstructsGround": false,
  "contouredGround": -1,
  "supportsItems": 1,
  "category": 1835,
  "isRotated": false,
  "varpID": -1,
  "ambientSoundId": 3139,
  "aBool2111": false,
  "ambientSoundChangeTicksMin": 0,
  "ambientSoundChangeTicksMax": 0,
  "blocksProjectile": true,
  "randomizeAnimStart": false,
  "deferAnimChange": false
}