{
  "id": 49551,
  "decorDisplacement": 16,
  "isHollow": false,
  "name": "null",
  "mapAreaId": -1,
  "sizeX": 1,
  "sizeY": 1,
  "ambientSoundDistance": 3,
  "ambientSoundRetain": 0,
  "offsetX": 0,
  "mergeNormals": false,
  "wallOrDoor": 1,
  "animationID": 7304,
  "varbitID": 15126,
  "ambient": 0,
  "contrast": 0,
  "actions": [
    null,
    null,
    null,
    null,
    null
  ],
  "interactType": 1,
  "mapSceneID": -1,
  "blockingMask": 0,
  "shadow": true,
  "modelSizeX": 128,
  "modelSizeHeight": 128,
  "modelSizeY": 128,
  "objectID": 0,
  "offsetHeight": 0,
  "offsetY": 0,
  "obstructsGround": false,
  "contouredGround": -1,
  "supportsItems": 1,
  "configChangeDest": [
    49545,
    49545,
    49545,
    49545,
    49545,
    49545,
    49545,
    49545,
    49544,
    49544,
    49544,
    49544,
    49544,
    49544,
    49544,
    49544,
    49544,
    49544,
    49544,
    49544,
    49544,
    49544,
    49544,
    49544,
    49544,
    49544,
    49544,
    49544,
    49544,
    49544,
    49544,
    49544,
    49544,
    49544,
    49544,
    49544,
    49544,
    49544,
    49544,
    49544,
    49544,
    49545
  ],
  "category": 1870,
  "isRotated": false,
  "varpID": -1,
  "ambientSoundId": 2149,
  "aBool2111": false,
  "ambientSoundChangeTicksMin": 0,
  "ambientSoundChangeTicksMax": 0,
  "blocksProjectile": false,
  "randomizeAnimStart": false,
  "deferAnimChange": false
}