{
  "id": 5009,
  "decorDisplacement": 16,
  "isHollow": false,
  "name": "Tunnel",
  "objectModels": [
    4936
  ],
  "recolorToFind": [
    6036,
    5008,
    1932,
    904,
    900
  ],
  "mapAreaId": -1,
  "sizeX": 3,
  "sizeY": 3,
  "ambientSoundDistance": 0,
  "ambientSoundRetain": 0,
  "offsetX": 0,
  "mergeNormals": true,
  "wallOrDoor": 1,
  "animationID": -1,
  "varbitID": -1,
  "ambient": 60,
  "contrast": 1750,
  "actions": [
    "Enter",
    null,
    null,
    null,
    null
  ],
  "interactType": 2,
  "mapSceneID": -1,
  "blockingMask": 0,
  "recolorToReplace": [
    7335,
    7326,
    7446,
    7566,
    8070
  ],
  "shadow": true,
  "modelSizeX": 384,
  "modelSizeHeight": 384,
  "modelSizeY": 384,
  "objectID": 0,
  "offsetHeight": 0,
  "offsetY": 0,
  "obstructsGround": false,
  "contouredGround": 0,
  "supportsItems": 1,
  "category": 0,
  "isRotated": false,
  "varpID": -1,
  "ambientSoundId": -1,
  "aBool2111": false,
  "ambientSoundChangeTicksMin": 0,
  "ambientSoundChangeTicksMax": 0,
  "blocksProjectile": true,
  "randomizeAnimStart": false,
  "deferAnimChange": false
}