{
  "id": 50696,
  "decorDisplacement": 16,
  "isHollow": false,
  "name": "null",
  "mapAreaId": -1,
  "sizeX": 1,
  "sizeY": 1,
  "ambientSoundDistance": 0,
  "ambientSoundRetain": 0,
  "offsetX": 0,
  "mergeNormals": false,
  "wallOrDoor": 1,
  "animationID": -1,
  "varbitID": 4771,
  "ambient": 0,
  "contrast": 0,
  "actions": [
    null,
    null,
    null,
    null,
    null
  ],
  "interactType": 1,
  "mapSceneID": -1,
  "blockingMask": 0,
  "shadow": true,
  "modelSizeX": 128,
  "modelSizeHeight": 128,
  "modelSizeY": 128,
  "objectID": 0,
  "offsetHeight": 0,
  "offsetY": 0,
  "obstructsGround": false,
  "contouredGround": -1,
  "supportsItems": 1,
  "configChangeDest": [
    8576,
    8575,
    8574,
    8573,
    8576,
    8576,
    8558,
    8559,
    8560,
    8561,
    8562,
    8562,
    8562,
    8580,
    8581,
    8582,
    8583,
    8584,
    8584,
    8584,
    8535,
    8536,
    8537,
    8538,
    8539,
    8539,
    8539,
    8641,
    8642,
    8643,
    8644,
    8645,
    8645,
    8645,
    8618,
    8619,
    8620,
    8621,
    8622,
    8623,
    8624,
    8624,
    8624,
    8595,
    8596,
    8597,
    8598,
    8599,
    8600,
    8601,
    8601,
    8601,
    8656,
    8657,
    8658,
    8659,
    8660,
    8661,
    8662,
    8663,
    8664,
    8664,
    8664,
    33674,
    33675,
    33676,
    33677,
    33678,
    33679,
    33680,
    8563,
    8564,
    8565,
    8566,
    8576,
    8576,
    8576,
    8585,
    8586,
    8587,
    8588,
    8576,
    8576,
    8576,
    8540,
    8541,
    8542,
    8543,
    8576,
    8576,
    8576,
    8646,
    8647,
    8648,
    8649,
    8576,
    8576,
    8576,
    8625,
    8626,
    8627,
    8628,
    8629,
    8630,
    8576,
    8576,
    8576,
    8602,
    8603,
    8604,
    8605,
    8606,
    8607,
    8576,
    8576,
    8576,
    8665,
    8666,
    8667,
    8668,
    8669,
    8670,
    8671,
    8672,
    8576,
    8576,
    8576,
    8576,
    33666,
    33667,
    33668,
    33669,
    33670,
    33671,
    33672,
    8567,
    8568,
    8569,
    33673,
    33673,
    33673,
    8576,
    8589,
    8590,
    8591,
    8576,
    8576,
    8576,
    8576,
    8544,
    8545,
    8546,
    8576,
    8576,
    8576,
    8576,
    8650,
    8651,
    8652,
    8576,
    8576,
    8576,
    8576,
    8631,
    8632,
    8633,
    8634,
    8635,
    8576,
    8576,
    8576,
    8576,
    8608,
    8609,
    8610,
    8611,
    8612,
    8576,
    8576,
    8576,
    8576,
    8673,
    8674,
    8675,
    8676,
    8677,
    8678,
    8679,
    8576,
    8576,
    8576,
    8576,
    8576,
    33687,
    33688,
    33689,
    33681,
    33682,
    33683,
    8570,
    8571,
    8572,
    33684,
    33685,
    33686,
    8576,
    8592,
    8593,
    8594,
    33690,
    33691,
    33692,
    8576,
    8547,
    8548,
    8549,
    8576,
    8576,
    8576,
    8576,
    8653,
    8654,
    8655,
    8576,
    8576,
    8576,
    8576,
    8636,
    8637,
    8638,
    8639,
    8640,
    8576,
    8576,
    8576,
    8576,
    8613,
    8614,
    8615,
    8616,
    8617,
    8576,
    8576,
    8576,
    8576,
    8680,
    8681,
    8682,
    8683,
    8684,
    8685,
    8686,
    8576,
    8576,
    8576,
    8576,
    -1
  ],
  "category": 210,
  "isRotated": false,
  "varpID": -1,
  "ambientSoundId": -1,
  "aBool2111": false,
  "ambientSoundChangeTicksMin": 0,
  "ambientSoundChangeTicksMax": 0,
  "blocksProjectile": true,
  "randomizeAnimStart": false,
  "deferAnimChange": false
}