{
  "id": 50825,
  "decorDisplacement": 16,
  "isHollow": false,
  "name": "Colosseum entrance",
  "objectModels": [
    52326
  ],
  "recolorToFind": [
    4331,
    5351,
    5338,
    5330,
    4304,
    5326,
    5318,
    5314,
    5309,
    5305,
    5301,
    5293,
    5268
  ],
  "mapAreaId": -1,
  "sizeX": 2,
  "sizeY": 2,
  "ambientSoundDistance": 0,
  "ambientSoundRetain": 0,
  "offsetX": 0,
  "mergeNormals": true,
  "wallOrDoor": 1,
  "animationID": -1,
  "varbitID": -1,
  "ambient": 10,
  "contrast": 1250,
  "actions": [
    null,
    null,
    null,
    null,
    null
  ],
  "interactType": 2,
  "mapSceneID": -1,
  "blockingMask": 0,
  "recolorToReplace": [
    7273,
    7273,
    7265,
    7260,
    7260,
    7244,
    7244,
    7232,
    7223,
    7223,
    7223,
    7219,
    7322
  ],
  "shadow": true,
  "modelSizeX": 256,
  "modelSizeHeight": 256,
  "modelSizeY": 256,
  "objectID": 0,
  "offsetHeight": 0,
  "offsetY": 0,
  "obstructsGround": false,
  "contouredGround": -1,
  "supportsItems": 1,
  "category": 0,
  "isRotated": false,
  "varpID": -1,
  "ambientSoundId": -1,
  "aBool2111": false,
  "ambientSoundChangeTicksMin": 0,
  "ambientSoundChangeTicksMax": 0,
  "blocksProjectile": true,
  "randomizeAnimStart": false,
  "deferAnimChange": false
}