{
  "id": 51054,
  "decorDisplacement": 16,
  "isHollow": false,
  "name": "Moonfire",
  "objectModels": [
    51230
  ],
  "recolorToFind": [
    8128,
    7104,
    5056,
    4019,
    2987
  ],
  "mapAreaId": -1,
  "sizeX": 1,
  "sizeY": 1,
  "ambientSoundDistance": 0,
  "ambientSoundRetain": 0,
  "offsetX": 0,
  "mergeNormals": false,
  "wallOrDoor": 1,
  "animationID": 11080,
  "varbitID": -1,
  "ambient": 100,
  "contrast": 2500,
  "actions": [
    null,
    null,
    null,
    null,
    null
  ],
  "interactType": 1,
  "mapSceneID": -1,
  "blockingMask": 0,
  "recolorToReplace": [
    -4158,
    -4158,
    -2121,
    -83,
    -98
  ],
  "shadow": false,
  "modelSizeX": 128,
  "modelSizeHeight": 128,
  "modelSizeY": 128,
  "objectID": 0,
  "offsetHeight": 0,
  "offsetY": 0,
  "obstructsGround": false,
  "contouredGround": -1,
  "supportsItems": 1,
  "category": 0,
  "isRotated": false,
  "varpID": -1,
  "ambientSoundId": -1,
  "aBool2111": false,
  "ambientSoundChangeTicksMin": 0,
  "ambientSoundChangeTicksMax": 0,
  "blocksProjectile": true,
  "randomizeAnimStart": true,
  "deferAnimChange": false
}