{
  "id": 5117,
  "decorDisplacement": 16,
  "isHollow": false,
  "name": "Statue",
  "objectModels": [
    4456,
    4457
  ],
  "recolorToFind": [
    61,
    53
  ],
  "mapAreaId": -1,
  "sizeX": 2,
  "sizeY": 2,
  "ambientSoundDistance": 0,
  "ambientSoundRetain": 0,
  "offsetX": 0,
  "mergeNormals": false,
  "wallOrDoor": 1,
  "animationID": 1533,
  "varbitID": -1,
  "ambient": 0,
  "contrast": 0,
  "actions": [
    null,
    null,
    null,
    null,
    null
  ],
  "interactType": 2,
  "mapSceneID": 11,
  "blockingMask": 0,
  "recolorToReplace": [
    21522,
    21522
  ],
  "shadow": true,
  "modelSizeX": 108,
  "modelSizeHeight": 128,
  "modelSizeY": 108,
  "objectID": 0,
  "offsetHeight": 0,
  "offsetY": 0,
  "obstructsGround": false,
  "contouredGround": -1,
  "supportsItems": 1,
  "category": 0,
  "isRotated": false,
  "varpID": -1,
  "ambientSoundId": -1,
  "aBool2111": false,
  "ambientSoundChangeTicksMin": 0,
  "ambientSoundChangeTicksMax": 0,
  "blocksProjectile": true,
  "randomizeAnimStart": false,
  "deferAnimChange": false
}