{
  "id": 51425,
  "decorDisplacement": 16,
  "isHollow": false,
  "name": "Ancient fountainhead",
  "objectModels": [
    52625
  ],
  "mapAreaId": -1,
  "sizeX": 2,
  "sizeY": 3,
  "ambientSoundDistance": 3,
  "ambientSoundRetain": 0,
  "offsetX": 0,
  "mergeNormals": false,
  "wallOrDoor": 1,
  "animationID": 5605,
  "varbitID": -1,
  "ambient": 25,
  "contrast": 625,
  "actions": [
    null,
    null,
    null,
    null,
    null
  ],
  "interactType": 1,
  "mapSceneID": -1,
  "blockingMask": 0,
  "shadow": true,
  "modelSizeX": 256,
  "modelSizeHeight": 244,
  "modelSizeY": 256,
  "objectID": 0,
  "offsetHeight": 0,
  "offsetY": 0,
  "obstructsGround": false,
  "contouredGround": -1,
  "supportsItems": 1,
  "category": 244,
  "isRotated": false,
  "varpID": -1,
  "ambientSoundId": 4077,
  "aBool2111": false,
  "ambientSoundChangeTicksMin": 0,
  "ambientSoundChangeTicksMax": 0,
  "blocksProjectile": true,
  "randomizeAnimStart": false,
  "deferAnimChange": false
}