{
  "id": 51490,
  "decorDisplacement": 16,
  "isHollow": false,
  "name": "Rocks",
  "objectModels": [
    51791,
    51772
  ],
  "objectTypes": [
    10,
    0
  ],
  "recolorToFind": [
    5400,
    5392,
    5388
  ],
  "mapAreaId": -1,
  "sizeX": 1,
  "sizeY": 1,
  "ambientSoundDistance": 0,
  "ambientSoundRetain": 0,
  "offsetX": 0,
  "mergeNormals": false,
  "wallOrDoor": 1,
  "animationID": -1,
  "varbitID": -1,
  "ambient": 20,
  "contrast": 1250,
  "actions": [
    "Mine",
    null,
    null,
    null,
    null
  ],
  "interactType": 2,
  "mapSceneID": 12,
  "blockingMask": 7,
  "recolorToReplace": [
    8,
    8,
    8
  ],
  "shadow": true,
  "modelSizeX": 128,
  "modelSizeHeight": 128,
  "modelSizeY": 128,
  "objectID": 0,
  "offsetHeight": 0,
  "offsetY": 0,
  "obstructsGround": false,
  "contouredGround": 0,
  "supportsItems": 1,
  "category": 1933,
  "isRotated": false,
  "varpID": -1,
  "ambientSoundId": -1,
  "aBool2111": false,
  "ambientSoundChangeTicksMin": 0,
  "ambientSoundChangeTicksMax": 0,
  "blocksProjectile": false,
  "randomizeAnimStart": false,
  "deferAnimChange": false
}