{
  "id": 51769,
  "retextureToFind": [
    90
  ],
  "decorDisplacement": 16,
  "isHollow": false,
  "name": "Acacia tree",
  "objectModels": [
    52429
  ],
  "recolorToFind": [
    5404,
    5400,
    5524
  ],
  "mapAreaId": -1,
  "textureToReplace": [
    123
  ],
  "sizeX": 7,
  "sizeY": 7,
  "ambientSoundDistance": 0,
  "ambientSoundRetain": 0,
  "offsetX": 0,
  "mergeNormals": false,
  "wallOrDoor": 1,
  "animationID": -1,
  "varbitID": -1,
  "ambient": 50,
  "contrast": 750,
  "actions": [
    null,
    null,
    null,
    null,
    null
  ],
  "interactType": 2,
  "mapSceneID": -1,
  "blockingMask": 0,
  "recolorToReplace": [
    5537,
    5537,
    5532
  ],
  "shadow": false,
  "modelSizeX": 212,
  "modelSizeHeight": 160,
  "modelSizeY": 212,
  "objectID": 0,
  "offsetHeight": 0,
  "offsetY": 0,
  "obstructsGround": false,
  "contouredGround": 0,
  "supportsItems": 1,
  "category": 0,
  "isRotated": false,
  "varpID": -1,
  "ambientSoundId": -1,
  "aBool2111": false,
  "ambientSoundChangeTicksMin": 0,
  "ambientSoundChangeTicksMax": 0,
  "blocksProjectile": true,
  "randomizeAnimStart": false,
  "deferAnimChange": false
}