{
  "id": 51922,
  "decorDisplacement": 32,
  "isHollow": false,
  "name": "null",
  "objectModels": [
    45061
  ],
  "objectTypes": [
    0
  ],
  "recolorToFind": [
    6470,
    6466,
    6461,
    6581
  ],
  "mapAreaId": -1,
  "sizeX": 1,
  "sizeY": 1,
  "ambientSoundDistance": 0,
  "ambientSoundRetain": 0,
  "offsetX": 0,
  "mergeNormals": true,
  "wallOrDoor": 0,
  "animationID": -1,
  "varbitID": -1,
  "ambient": 30,
  "contrast": 750,
  "actions": [
    null,
    null,
    null,
    null,
    null
  ],
  "interactType": 2,
  "mapSceneID": -1,
  "blockingMask": 0,
  "recolorToReplace": [
    5578,
    5565,
    5559,
    5565
  ],
  "shadow": true,
  "modelSizeX": 128,
  "modelSizeHeight": 138,
  "modelSizeY": 128,
  "objectID": 0,
  "offsetHeight": 65534,
  "offsetY": 0,
  "obstructsGround": false,
  "contouredGround": -1,
  "supportsItems": 1,
  "category": 0,
  "isRotated": false,
  "varpID": -1,
  "ambientSoundId": -1,
  "aBool2111": false,
  "ambientSoundChangeTicksMin": 0,
  "ambientSoundChangeTicksMax": 0,
  "blocksProjectile": true,
  "randomizeAnimStart": false,
  "deferAnimChange": false
}