{
  "id": 52643,
  "decorDisplacement": 16,
  "isHollow": false,
  "name": "Staircase",
  "objectModels": [
    51302
  ],
  "recolorToFind": [
    7349,
    7341,
    7333
  ],
  "mapAreaId": -1,
  "sizeX": 2,
  "sizeY": 3,
  "ambientSoundDistance": 0,
  "ambientSoundRetain": 0,
  "offsetX": 0,
  "mergeNormals": false,
  "wallOrDoor": 1,
  "animationID": -1,
  "varbitID": -1,
  "ambient": -30,
  "contrast": 625,
  "actions": [
    "Climb-up",
    null,
    null,
    null,
    null
  ],
  "interactType": 2,
  "mapSceneID": 7,
  "blockingMask": 11,
  "recolorToReplace": [
    39,
    33,
    22
  ],
  "shadow": true,
  "modelSizeX": 128,
  "modelSizeHeight": 256,
  "modelSizeY": 128,
  "objectID": 0,
  "offsetHeight": 0,
  "offsetY": 0,
  "obstructsGround": false,
  "contouredGround": -1,
  "supportsItems": 1,
  "category": 0,
  "isRotated": false,
  "varpID": -1,
  "ambientSoundId": -1,
  "aBool2111": false,
  "ambientSoundChangeTicksMin": 0,
  "ambientSoundChangeTicksMax": 0,
  "blocksProjectile": true,
  "randomizeAnimStart": false,
  "deferAnimChange": false
}