{
  "id": 53258,
  "decorDisplacement": 16,
  "isHollow": false,
  "name": "Crevice",
  "objectModels": [
    53136
  ],
  "objectTypes": [
    0
  ],
  "recolorToFind": [
    7442,
    7446,
    7322,
    7326,
    7331,
    7335,
    12
  ],
  "mapAreaId": -1,
  "sizeX": 1,
  "sizeY": 1,
  "ambientSoundDistance": 0,
  "ambientSoundRetain": 0,
  "offsetX": 0,
  "mergeNormals": true,
  "wallOrDoor": 1,
  "animationID": -1,
  "varbitID": -1,
  "ambient": 20,
  "contrast": 1000,
  "actions": [
    "Squeeze-Through",
    null,
    null,
    null,
    null
  ],
  "interactType": 2,
  "mapSceneID": 7,
  "blockingMask": 0,
  "recolorToReplace": [
    27144,
    26892,
    26896,
    26772,
    21656,
    16536,
    27524
  ],
  "shadow": true,
  "modelSizeX": 128,
  "modelSizeHeight": 128,
  "modelSizeY": 128,
  "objectID": 0,
  "offsetHeight": 0,
  "offsetY": 0,
  "obstructsGround": false,
  "contouredGround": 0,
  "supportsItems": 1,
  "category": 0,
  "isRotated": false,
  "varpID": -1,
  "ambientSoundId": -1,
  "aBool2111": false,
  "ambientSoundChangeTicksMin": 0,
  "ambientSoundChangeTicksMax": 0,
  "blocksProjectile": true,
  "randomizeAnimStart": false,
  "deferAnimChange": false
}