{
  "id": 54266,
  "decorDisplacement": 16,
  "isHollow": false,
  "name": "null",
  "objectModels": [
    5512,
    5513
  ],
  "objectTypes": [
    10,
    22
  ],
  "recolorToFind": [
    -22419
  ],
  "mapAreaId": -1,
  "sizeX": 1,
  "sizeY": 1,
  "ambientSoundDistance": 0,
  "ambientSoundRetain": 0,
  "offsetX": 0,
  "mergeNormals": false,
  "wallOrDoor": 0,
  "animationID": 1727,
  "varbitID": -1,
  "ambient": 30,
  "contrast": 0,
  "actions": [
    null,
    null,
    null,
    null,
    null
  ],
  "interactType": 2,
  "mapSceneID": -1,
  "blockingMask": 0,
  "recolorToReplace": [
    26545
  ],
  "shadow": false,
  "modelSizeX": 70,
  "modelSizeHeight": 70,
  "modelSizeY": 70,
  "objectID": 0,
  "offsetHeight": 0,
  "offsetY": 0,
  "obstructsGround": false,
  "contouredGround": -1,
  "supportsItems": 1,
  "category": 0,
  "isRotated": false,
  "varpID": -1,
  "ambientSoundId": -1,
  "aBool2111": false,
  "ambientSoundChangeTicksMin": 0,
  "ambientSoundChangeTicksMax": 0,
  "blocksProjectile": true,
  "randomizeAnimStart": false,
  "deferAnimChange": false
}