{
  "id": 54268,
  "decorDisplacement": 16,
  "isHollow": false,
  "name": "null",
  "objectModels": [
    15524
  ],
  "recolorToFind": [
    27856,
    28764
  ],
  "mapAreaId": -1,
  "sizeX": 1,
  "sizeY": 1,
  "ambientSoundDistance": 3,
  "ambientSoundRetain": 0,
  "offsetX": 0,
  "mergeNormals": false,
  "wallOrDoor": 0,
  "animationID": 4218,
  "varbitID": -1,
  "ambient": 30,
  "contrast": 0,
  "actions": [
    null,
    null,
    null,
    null,
    null
  ],
  "interactType": 0,
  "mapSceneID": -1,
  "blockingMask": 0,
  "recolorToReplace": [
    26545,
    26545
  ],
  "shadow": false,
  "modelSizeX": 128,
  "modelSizeHeight": 128,
  "modelSizeY": 128,
  "objectID": 0,
  "offsetHeight": 0,
  "offsetY": 0,
  "obstructsGround": false,
  "contouredGround": -1,
  "supportsItems": 0,
  "category": 0,
  "isRotated": false,
  "varpID": -1,
  "ambientSoundId": 2052,
  "aBool2111": false,
  "ambientSoundChangeTicksMin": 0,
  "ambientSoundChangeTicksMax": 0,
  "blocksProjectile": false,
  "randomizeAnimStart": false,
  "deferAnimChange": false
}