{
  "id": 54306,
  "decorDisplacement": 16,
  "isHollow": false,
  "name": "null",
  "objectModels": [
    51675,
    51716,
    51723,
    51702,
    51720
  ],
  "objectTypes": [
    10,
    0,
    1,
    2,
    9
  ],
  "recolorToFind": [
    152,
    148,
    142,
    152,
    156,
    274,
    284,
    278,
    410,
    406,
    398,
    532,
    268,
    404,
    268
  ],
  "mapAreaId": -1,
  "sizeX": 1,
  "sizeY": 1,
  "ambientSoundDistance": 0,
  "ambientSoundRetain": 0,
  "offsetX": 0,
  "mergeNormals": true,
  "wallOrDoor": 0,
  "animationID": -1,
  "varbitID": -1,
  "ambient": -40,
  "contrast": 2000,
  "actions": [
    null,
    null,
    null,
    null,
    null
  ],
  "interactType": 1,
  "mapSceneID": -1,
  "blockingMask": 0,
  "recolorToReplace": [
    -25446,
    -25326,
    -25326,
    -25442,
    -25442,
    -27380,
    -25322,
    -25326,
    -25322,
    -25326,
    -25078,
    -25078,
    -25202,
    -25322,
    -25326
  ],
  "shadow": true,
  "modelSizeX": 128,
  "modelSizeHeight": 241,
  "modelSizeY": 128,
  "objectID": 0,
  "offsetHeight": 0,
  "offsetY": 0,
  "obstructsGround": false,
  "contouredGround": 0,
  "supportsItems": 1,
  "category": 0,
  "isRotated": false,
  "varpID": -1,
  "ambientSoundId": -1,
  "aBool2111": false,
  "ambientSoundChangeTicksMin": 0,
  "ambientSoundChangeTicksMax": 0,
  "blocksProjectile": true,
  "randomizeAnimStart": false,
  "deferAnimChange": false
}