{
  "id": 54327,
  "decorDisplacement": 16,
  "isHollow": false,
  "name": "Drip",
  "objectModels": [
    15524
  ],
  "recolorToFind": [
    27856,
    28764
  ],
  "mapAreaId": -1,
  "sizeX": 1,
  "sizeY": 1,
  "ambientSoundDistance": 0,
  "ambientSoundRetain": 0,
  "offsetX": 0,
  "mergeNormals": false,
  "wallOrDoor": 1,
  "animationID": 4217,
  "varbitID": -1,
  "ambient": -30,
  "contrast": 1000,
  "actions": [
    null,
    null,
    null,
    null,
    null
  ],
  "interactType": 0,
  "mapSceneID": -1,
  "blockingMask": 0,
  "recolorToReplace": [
    -25299,
    -25299
  ],
  "shadow": false,
  "modelSizeX": 250,
  "modelSizeHeight": 250,
  "modelSizeY": 250,
  "objectID": 0,
  "offsetHeight": 0,
  "offsetY": 0,
  "obstructsGround": false,
  "contouredGround": -1,
  "supportsItems": 0,
  "category": 0,
  "isRotated": false,
  "varpID": -1,
  "ambientSoundId": -1,
  "aBool2111": false,
  "ambientSoundChangeTicksMin": 0,
  "ambientSoundChangeTicksMax": 0,
  "blocksProjectile": false,
  "randomizeAnimStart": false,
  "deferAnimChange": false
}