{
  "id": 54380,
  "decorDisplacement": 16,
  "isHollow": false,
  "name": "Medical box",
  "objectModels": [
    52395,
    54858
  ],
  "recolorToFind": [
    6443,
    6558,
    7700,
    51,
    41,
    30
  ],
  "mapAreaId": -1,
  "sizeX": 1,
  "sizeY": 1,
  "ambientSoundDistance": 0,
  "ambientSoundRetain": 0,
  "offsetX": 0,
  "mergeNormals": true,
  "wallOrDoor": 1,
  "animationID": -1,
  "varbitID": -1,
  "ambient": 10,
  "contrast": 500,
  "actions": [
    "Take-from",
    "Take-many",
    null,
    null,
    null
  ],
  "interactType": 1,
  "mapSceneID": -1,
  "blockingMask": 0,
  "recolorToReplace": [
    5400,
    5392,
    5388,
    163,
    154,
    148
  ],
  "shadow": true,
  "modelSizeX": 100,
  "modelSizeHeight": 100,
  "modelSizeY": 100,
  "objectID": 0,
  "offsetHeight": 0,
  "offsetY": 0,
  "obstructsGround": false,
  "contouredGround": -1,
  "supportsItems": 1,
  "category": 2074,
  "isRotated": false,
  "varpID": -1,
  "ambientSoundId": -1,
  "aBool2111": false,
  "ambientSoundChangeTicksMin": 0,
  "ambientSoundChangeTicksMax": 0,
  "blocksProjectile": false,
  "randomizeAnimStart": false,
  "deferAnimChange": false
}