{
  "id": 54393,
  "decorDisplacement": 16,
  "isHollow": false,
  "name": "null",
  "objectModels": [
    51891,
    51841,
    51831,
    51823
  ],
  "objectTypes": [
    0,
    1,
    3,
    9
  ],
  "recolorToFind": [
    7341,
    7349,
    8371,
    7331,
    3131,
    78,
    4890,
    76,
    3507,
    -27343,
    6701,
    7733,
    7735,
    6703,
    -27341
  ],
  "mapAreaId": -1,
  "sizeX": 1,
  "sizeY": 1,
  "ambientSoundDistance": 0,
  "ambientSoundRetain": 0,
  "offsetX": 0,
  "mergeNormals": true,
  "wallOrDoor": 0,
  "animationID": -1,
  "varbitID": -1,
  "ambient": 30,
  "contrast": 625,
  "actions": [
    null,
    null,
    null,
    null,
    null
  ],
  "interactType": 1,
  "mapSceneID": -1,
  "blockingMask": 0,
  "recolorToReplace": [
    -25442,
    -24411,
    -24411,
    -25446,
    -16339,
    -16331,
    2725,
    3131,
    -21178,
    -24401,
    2725,
    2725,
    2725,
    2725,
    -24401
  ],
  "shadow": true,
  "modelSizeX": 128,
  "modelSizeHeight": 128,
  "modelSizeY": 128,
  "objectID": 0,
  "offsetHeight": 0,
  "offsetY": 0,
  "obstructsGround": false,
  "contouredGround": 0,
  "supportsItems": 1,
  "category": 0,
  "isRotated": false,
  "varpID": -1,
  "ambientSoundId": -1,
  "aBool2111": false,
  "ambientSoundChangeTicksMin": 0,
  "ambientSoundChangeTicksMax": 0,
  "blocksProjectile": true,
  "randomizeAnimStart": false,
  "deferAnimChange": false
}