{
  "id": 54531,
  "decorDisplacement": 16,
  "isHollow": false,
  "name": "Ledge",
  "objectModels": [
    47599
  ],
  "recolorToFind": [
    80,
    64,
    55
  ],
  "mapAreaId": -1,
  "sizeX": 2,
  "sizeY": 1,
  "ambientSoundDistance": 0,
  "ambientSoundRetain": 0,
  "offsetX": 0,
  "mergeNormals": false,
  "wallOrDoor": 1,
  "animationID": -1,
  "varbitID": -1,
  "ambient": 30,
  "contrast": 250,
  "actions": [
    "Climb-down",
    null,
    null,
    null,
    null
  ],
  "interactType": 2,
  "mapSceneID": 7,
  "blockingMask": 14,
  "recolorToReplace": [
    -11318,
    -11318,
    -11318
  ],
  "shadow": true,
  "modelSizeX": 70,
  "modelSizeHeight": 50,
  "modelSizeY": 256,
  "objectID": 0,
  "offsetHeight": 0,
  "offsetY": 0,
  "obstructsGround": false,
  "contouredGround": -1,
  "supportsItems": 1,
  "category": 0,
  "isRotated": false,
  "varpID": -1,
  "ambientSoundId": -1,
  "aBool2111": false,
  "ambientSoundChangeTicksMin": 0,
  "ambientSoundChangeTicksMax": 0,
  "blocksProjectile": true,
  "randomizeAnimStart": false,
  "deferAnimChange": false
}