{
  "id": 54824,
  "decorDisplacement": 16,
  "isHollow": false,
  "name": "null",
  "objectModels": [
    54727,
    54722
  ],
  "objectTypes": [
    10,
    0
  ],
  "recolorToFind": [
    6067,
    6839,
    6841,
    6069
  ],
  "mapAreaId": -1,
  "sizeX": 1,
  "sizeY": 1,
  "ambientSoundDistance": 0,
  "ambientSoundRetain": 0,
  "offsetX": 0,
  "mergeNormals": true,
  "wallOrDoor": 0,
  "animationID": -1,
  "varbitID": -1,
  "ambient": 30,
  "contrast": 625,
  "actions": [
    null,
    null,
    null,
    null,
    null
  ],
  "interactType": 1,
  "mapSceneID": -1,
  "blockingMask": 0,
  "recolorToReplace": [
    6457,
    6457,
    6457,
    -25272
  ],
  "shadow": true,
  "modelSizeX": 128,
  "modelSizeHeight": 128,
  "modelSizeY": 128,
  "objectID": 0,
  "offsetHeight": 0,
  "offsetY": 0,
  "obstructsGround": false,
  "contouredGround": 0,
  "supportsItems": 1,
  "category": 0,
  "isRotated": false,
  "varpID": -1,
  "ambientSoundId": -1,
  "aBool2111": false,
  "ambientSoundChangeTicksMin": 0,
  "ambientSoundChangeTicksMax": 0,
  "blocksProjectile": true,
  "randomizeAnimStart": false,
  "deferAnimChange": false
}