{
  "id": 54878,
  "decorDisplacement": 16,
  "isHollow": false,
  "name": "Retort",
  "objectModels": [
    54874
  ],
  "recolorToFind": [
    -16973,
    -16989,
    -16870,
    -4307,
    -4313,
    -4322,
    -17338
  ],
  "mapAreaId": -1,
  "sizeX": 1,
  "sizeY": 1,
  "ambientSoundDistance": 0,
  "ambientSoundRetain": 0,
  "offsetX": 0,
  "mergeNormals": false,
  "wallOrDoor": 1,
  "animationID": 11643,
  "varbitID": -1,
  "ambient": 60,
  "contrast": 625,
  "actions": [
    "Concentrate-potion",
    null,
    "Check",
    null,
    null
  ],
  "interactType": 1,
  "mapSceneID": -1,
  "blockingMask": 0,
  "recolorToReplace": [
    677,
    317,
    206,
    16931,
    16701,
    16582,
    16679
  ],
  "shadow": false,
  "modelSizeX": 128,
  "modelSizeHeight": 128,
  "modelSizeY": 128,
  "objectID": 0,
  "offsetHeight": 0,
  "offsetY": 0,
  "obstructsGround": false,
  "contouredGround": 0,
  "supportsItems": 1,
  "category": 0,
  "isRotated": false,
  "varpID": -1,
  "ambientSoundId": -1,
  "aBool2111": false,
  "ambientSoundChangeTicksMin": 0,
  "ambientSoundChangeTicksMax": 0,
  "blocksProjectile": true,
  "randomizeAnimStart": false,
  "deferAnimChange": false
}