{
  "id": 54919,
  "decorDisplacement": 16,
  "isHollow": false,
  "name": "Mixing vessel (Mammoth-might mix)",
  "objectModels": [
    54866
  ],
  "recolorToFind": [
    -16973,
    -16989,
    -16870,
    -4307,
    -4313,
    -4322
  ],
  "mapAreaId": -1,
  "sizeX": 1,
  "sizeY": 1,
  "ambientSoundDistance": 0,
  "ambientSoundRetain": 0,
  "offsetX": 0,
  "mergeNormals": true,
  "wallOrDoor": 1,
  "animationID": 11628,
  "varbitID": -1,
  "ambient": 60,
  "contrast": 625,
  "actions": [
    "Take-from",
    null,
    null,
    null,
    null
  ],
  "interactType": 1,
  "mapSceneID": -1,
  "blockingMask": 0,
  "recolorToReplace": [
    -22097,
    -22111,
    -22122,
    -24013,
    -24023,
    -24031
  ],
  "shadow": false,
  "modelSizeX": 128,
  "modelSizeHeight": 128,
  "modelSizeY": 128,
  "objectID": 0,
  "offsetHeight": 0,
  "offsetY": 0,
  "obstructsGround": false,
  "contouredGround": 0,
  "supportsItems": 1,
  "category": 0,
  "isRotated": false,
  "varpID": -1,
  "ambientSoundId": -1,
  "aBool2111": false,
  "ambientSoundChangeTicksMin": 0,
  "ambientSoundChangeTicksMax": 0,
  "blocksProjectile": true,
  "randomizeAnimStart": false,
  "deferAnimChange": false
}