{
  "id": 55033,
  "decorDisplacement": 16,
  "isHollow": false,
  "name": "Table",
  "objectModels": [
    51383
  ],
  "recolorToFind": [
    5561,
    5557,
    5669,
    5656,
    5524
  ],
  "mapAreaId": -1,
  "sizeX": 2,
  "sizeY": 1,
  "ambientSoundDistance": 0,
  "ambientSoundRetain": 0,
  "offsetX": 0,
  "mergeNormals": false,
  "wallOrDoor": 1,
  "animationID": -1,
  "varbitID": -1,
  "ambient": 20,
  "contrast": 500,
  "actions": [
    null,
    null,
    null,
    null,
    null
  ],
  "interactType": 2,
  "mapSceneID": -1,
  "blockingMask": 0,
  "recolorToReplace": [
    5450,
    5568,
    5541,
    5537,
    5532
  ],
  "shadow": true,
  "modelSizeX": 112,
  "modelSizeHeight": 128,
  "modelSizeY": 112,
  "objectID": 0,
  "offsetHeight": 0,
  "offsetY": 0,
  "obstructsGround": false,
  "contouredGround": -1,
  "supportsItems": 1,
  "category": 156,
  "isRotated": false,
  "varpID": -1,
  "ambientSoundId": -1,
  "aBool2111": false,
  "ambientSoundChangeTicksMin": 0,
  "ambientSoundChangeTicksMax": 0,
  "blocksProjectile": false,
  "randomizeAnimStart": false,
  "deferAnimChange": false
}