{
  "id": 55031,
  "decorDisplacement": 16,
  "isHollow": false,
  "name": "Bookshelf",
  "objectModels": [
    7392,
    7394
  ],
  "recolorToFind": [
    5400,
    6430,
    6565,
    7834,
    7958,
    10359
  ],
  "mapAreaId": -1,
  "sizeX": 1,
  "sizeY": 1,
  "ambientSoundDistance": 0,
  "ambientSoundRetain": 0,
  "offsetX": 0,
  "mergeNormals": false,
  "wallOrDoor": 1,
  "animationID": -1,
  "varbitID": -1,
  "ambient": 25,
  "contrast": 750,
  "actions": [
    null,
    null,
    null,
    null,
    null
  ],
  "interactType": 2,
  "mapSceneID": -1,
  "blockingMask": 13,
  "recolorToReplace": [
    3350,
    3346,
    1697,
    -27359,
    21665,
    10448
  ],
  "shadow": true,
  "modelSizeX": 128,
  "modelSizeHeight": 128,
  "modelSizeY": 148,
  "objectID": 0,
  "offsetHeight": 0,
  "offsetY": 65501,
  "obstructsGround": false,
  "contouredGround": -1,
  "supportsItems": 1,
  "category": 205,
  "isRotated": false,
  "varpID": -1,
  "ambientSoundId": -1,
  "aBool2111": false,
  "ambientSoundChangeTicksMin": 0,
  "ambientSoundChangeTicksMax": 0,
  "blocksProjectile": true,
  "randomizeAnimStart": false,
  "deferAnimChange": false
}