{
  "id": 55086,
  "decorDisplacement": 16,
  "isHollow": false,
  "name": "Safe",
  "objectModels": [
    23322
  ],
  "recolorToFind": [
    7079,
    6051,
    6049,
    5916,
    5910,
    5908,
    7054
  ],
  "mapAreaId": -1,
  "sizeX": 1,
  "sizeY": 1,
  "ambientSoundDistance": 0,
  "ambientSoundRetain": 0,
  "offsetX": 0,
  "mergeNormals": false,
  "wallOrDoor": 1,
  "animationID": -1,
  "varbitID": -1,
  "ambient": 10,
  "contrast": 750,
  "actions": [
    null,
    null,
    null,
    null,
    null
  ],
  "interactType": 1,
  "mapSceneID": -1,
  "blockingMask": 0,
  "recolorToReplace": [
    7741,
    7733,
    7727,
    7719,
    7710,
    8076,
    8076
  ],
  "shadow": true,
  "modelSizeX": 112,
  "modelSizeHeight": 112,
  "modelSizeY": 112,
  "objectID": 0,
  "offsetHeight": 0,
  "offsetY": 0,
  "obstructsGround": false,
  "contouredGround": -1,
  "supportsItems": 1,
  "category": 0,
  "isRotated": false,
  "varpID": -1,
  "ambientSoundId": -1,
  "aBool2111": false,
  "ambientSoundChangeTicksMin": 0,
  "ambientSoundChangeTicksMax": 0,
  "blocksProjectile": false,
  "randomizeAnimStart": false,
  "deferAnimChange": false
}