{
  "id": 5977,
  "decorDisplacement": 16,
  "isHollow": false,
  "name": "Wall of flame",
  "objectModels": [
    6014,
    6015,
    6016
  ],
  "objectTypes": [
    0,
    1,
    2
  ],
  "recolorToFind": [
    7104,
    8128,
    5056,
    4019,
    2987
  ],
  "mapAreaId": -1,
  "sizeX": 1,
  "sizeY": 1,
  "ambientSoundDistance": 0,
  "ambientSoundRetain": 0,
  "offsetX": 0,
  "mergeNormals": false,
  "wallOrDoor": 1,
  "animationID": 476,
  "varbitID": -1,
  "ambient": 100,
  "contrast": 2500,
  "actions": [
    "Jump-through",
    null,
    null,
    null,
    null
  ],
  "interactType": 2,
  "mapSceneID": 22,
  "blockingMask": 0,
  "recolorToReplace": [
    -22572,
    -21556,
    -20563,
    -21571,
    -21602
  ],
  "shadow": true,
  "modelSizeX": 128,
  "modelSizeHeight": 512,
  "modelSizeY": 128,
  "objectID": 0,
  "offsetHeight": 0,
  "offsetY": 0,
  "obstructsGround": false,
  "contouredGround": -1,
  "supportsItems": 1,
  "category": 0,
  "isRotated": false,
  "varpID": -1,
  "ambientSoundId": -1,
  "aBool2111": false,
  "ambientSoundChangeTicksMin": 0,
  "ambientSoundChangeTicksMax": 0,
  "blocksProjectile": true,
  "randomizeAnimStart": false,
  "deferAnimChange": false
}