{
  "id": 6009,
  "decorDisplacement": 16,
  "isHollow": false,
  "name": "Blue Fire",
  "objectModels": [
    6022
  ],
  "recolorToFind": [
    7104,
    8128,
    5056,
    4019,
    2987
  ],
  "mapAreaId": -1,
  "sizeX": 1,
  "sizeY": 1,
  "ambientSoundDistance": 3,
  "ambientSoundRetain": 0,
  "offsetX": 0,
  "mergeNormals": false,
  "wallOrDoor": 1,
  "animationID": 476,
  "varbitID": -1,
  "ambient": 100,
  "contrast": 2500,
  "actions": [
    null,
    null,
    null,
    null,
    null
  ],
  "interactType": 1,
  "mapSceneID": -1,
  "blockingMask": 0,
  "recolorToReplace": [
    -22572,
    -21556,
    -20563,
    -21571,
    -21602
  ],
  "shadow": true,
  "modelSizeX": 56,
  "modelSizeHeight": 85,
  "modelSizeY": 56,
  "objectID": 0,
  "offsetHeight": 0,
  "offsetY": 0,
  "obstructsGround": false,
  "contouredGround": -1,
  "supportsItems": 1,
  "category": 0,
  "isRotated": false,
  "varpID": -1,
  "ambientSoundId": 2065,
  "aBool2111": false,
  "ambientSoundChangeTicksMin": 0,
  "ambientSoundChangeTicksMax": 0,
  "blocksProjectile": false,
  "randomizeAnimStart": false,
  "deferAnimChange": false
}