{
  "id": 6616,
  "decorDisplacement": 16,
  "isHollow": false,
  "name": "Crate",
  "objectModels": [
    7699
  ],
  "recolorToFind": [
    6443,
    6439,
    6563,
    6558,
    6682,
    6806
  ],
  "mapAreaId": -1,
  "sizeX": 1,
  "sizeY": 1,
  "ambientSoundDistance": 0,
  "ambientSoundRetain": 0,
  "offsetX": 0,
  "mergeNormals": false,
  "wallOrDoor": 1,
  "animationID": -1,
  "varbitID": -1,
  "ambient": 80,
  "contrast": 0,
  "actions": [
    "Search",
    null,
    null,
    null,
    null
  ],
  "interactType": 1,
  "mapSceneID": -1,
  "blockingMask": 0,
  "recolorToReplace": [
    5541,
    5665,
    5660,
    5784,
    5908,
    6032
  ],
  "shadow": true,
  "modelSizeX": 80,
  "modelSizeHeight": 80,
  "modelSizeY": 80,
  "objectID": 0,
  "offsetHeight": 0,
  "offsetY": 0,
  "obstructsGround": false,
  "contouredGround": -1,
  "supportsItems": 1,
  "category": 209,
  "isRotated": false,
  "varpID": -1,
  "ambientSoundId": -1,
  "aBool2111": false,
  "ambientSoundChangeTicksMin": 0,
  "ambientSoundChangeTicksMax": 0,
  "blocksProjectile": false,
  "randomizeAnimStart": false,
  "deferAnimChange": false
}