{
  "id": 7484,
  "decorDisplacement": 16,
  "isHollow": false,
  "name": "Stone Pile",
  "objectModels": [
    4476
  ],
  "recolorToFind": [
    21534,
    21530,
    21526,
    21522,
    21646,
    21642
  ],
  "mapAreaId": -1,
  "sizeX": 1,
  "sizeY": 1,
  "ambientSoundDistance": 0,
  "ambientSoundRetain": 0,
  "offsetX": 0,
  "mergeNormals": true,
  "wallOrDoor": 1,
  "animationID": -1,
  "varbitID": -1,
  "ambient": 15,
  "contrast": 250,
  "actions": [
    null,
    null,
    null,
    null,
    null
  ],
  "interactType": 2,
  "mapSceneID": -1,
  "blockingMask": 0,
  "recolorToReplace": [
    5202,
    5194,
    5186,
    5177,
    5169,
    5161
  ],
  "shadow": true,
  "modelSizeX": 128,
  "modelSizeHeight": 128,
  "modelSizeY": 128,
  "objectID": 0,
  "offsetHeight": 0,
  "offsetY": 0,
  "obstructsGround": false,
  "contouredGround": 0,
  "supportsItems": 1,
  "category": 0,
  "isRotated": false,
  "varpID": -1,
  "ambientSoundId": -1,
  "aBool2111": false,
  "ambientSoundChangeTicksMin": 0,
  "ambientSoundChangeTicksMax": 0,
  "blocksProjectile": false,
  "randomizeAnimStart": false,
  "deferAnimChange": false
}