{
  "id": 7572,
  "decorDisplacement": 16,
  "isHollow": false,
  "name": "null",
  "mapAreaId": -1,
  "sizeX": 2,
  "sizeY": 2,
  "ambientSoundDistance": 0,
  "ambientSoundRetain": 0,
  "offsetX": 0,
  "mergeNormals": false,
  "wallOrDoor": 1,
  "animationID": -1,
  "varbitID": 4771,
  "ambient": 0,
  "contrast": 0,
  "actions": [
    null,
    null,
    null,
    null,
    null
  ],
  "interactType": 1,
  "mapSceneID": -1,
  "blockingMask": 0,
  "shadow": true,
  "modelSizeX": 128,
  "modelSizeHeight": 128,
  "modelSizeY": 128,
  "objectID": 0,
  "offsetHeight": 0,
  "offsetY": 0,
  "obstructsGround": false,
  "contouredGround": -1,
  "supportsItems": 1,
  "configChangeDest": [
    7560,
    7559,
    7558,
    7557,
    7561,
    7562,
    7563,
    7564,
    7565,
    7566,
    7567,
    7568,
    7569,
    7570,
    7571,
    7560,
    7560,
    7560,
    7560,
    7560,
    7560,
    7560,
    7560,
    7560,
    7560,
    7560,
    7560,
    7560,
    7560,
    7560,
    7560,
    7560,
    7560,
    7560,
    7560,
    7560,
    7560,
    7560,
    7560,
    7560,
    7560,
    7560,
    7560,
    7560,
    7560,
    7560,
    7560,
    7560,
    7560,
    7560,
    7560,
    7560,
    7560,
    7560,
    7560,
    7560,
    7560,
    7560,
    7560,
    7560,
    7560,
    7560,
    7560,
    7560,
    7560,
    7560,
    7560,
    7560,
    7560,
    7560,
    7560,
    7560,
    7560,
    7560,
    7560,
    7560,
    7560,
    7560,
    7560,
    7560,
    7560,
    7560,
    7560,
    7560,
    7560,
    7560,
    7560,
    7560,
    7560,
    7560,
    7560,
    7560,
    7560,
    7560,
    7560,
    7560,
    7560,
    7560,
    7560,
    7560,
    7560,
    7560,
    7560,
    7560,
    7560,
    7560,
    7560,
    7560,
    7560,
    7560,
    7560,
    7560,
    7560,
    7560,
    7560,
    7560,
    7560,
    7560,
    7560,
    7560,
    7560,
    7560,
    7560,
    7560,
    7560,
    7560,
    7560,
    7560,
    7560,
    7560,
    7560,
    7560,
    7560,
    7560,
    7560,
    7560,
    7560,
    7560,
    7560,
    7560,
    7560,
    7560,
    7560,
    7560,
    7560,
    7560,
    7560,
    7560,
    7560,
    7560,
    7560,
    7560,
    7560,
    7560,
    7560,
    7560,
    7560,
    7560,
    7560,
    7560,
    7560,
    7560,
    7560,
    7560,
    7560,
    7560,
    7560,
    7560,
    7560,
    7560,
    7560,
    7560,
    7560,
    7560,
    7560,
    7560,
    7560,
    7560,
    7560,
    7560,
    7560,
    7560,
    7560,
    7560,
    7560,
    7560,
    7560,
    7560,
    7560,
    7560,
    7560,
    7560,
    7560,
    7560,
    7560,
    7560,
    7560,
    7560,
    7560,
    7560,
    7560,
    7560,
    7560,
    7560,
    7560,
    7560,
    7560,
    7560,
    7560,
    7560,
    7560,
    7560,
    7560,
    7560,
    7560,
    7560,
    7560,
    7560,
    7560,
    7560,
    7560,
    7560,
    7560,
    7560,
    7560,
    7560,
    7560,
    7560,
    7560,
    7560,
    7560,
    7560,
    7560,
    7560,
    7560,
    7560,
    7560,
    7560,
    7560,
    7560,
    7560,
    7560,
    7560,
    7560,
    7560,
    7560,
    7560,
    7560,
    7560,
    7560,
    7560,
    7560,
    7560,
    7560,
    7560,
    7560,
    -1
  ],
  "category": 210,
  "isRotated": false,
  "varpID": -1,
  "ambientSoundId": -1,
  "aBool2111": false,
  "ambientSoundChangeTicksMin": 0,
  "ambientSoundChangeTicksMax": 0,
  "blocksProjectile": true,
  "randomizeAnimStart": false,
  "deferAnimChange": false
}