{
  "id": 7838,
  "decorDisplacement": 16,
  "isHollow": false,
  "name": "null",
  "mapAreaId": -1,
  "sizeX": 1,
  "sizeY": 1,
  "ambientSoundDistance": 0,
  "ambientSoundRetain": 0,
  "offsetX": 0,
  "mergeNormals": false,
  "wallOrDoor": 1,
  "animationID": -1,
  "varbitID": 4775,
  "ambient": 0,
  "contrast": 0,
  "actions": [
    null,
    null,
    null,
    null,
    null
  ],
  "interactType": 1,
  "mapSceneID": -1,
  "blockingMask": 0,
  "shadow": true,
  "modelSizeX": 128,
  "modelSizeHeight": 128,
  "modelSizeY": 128,
  "objectID": 0,
  "offsetHeight": 0,
  "offsetY": 0,
  "obstructsGround": false,
  "contouredGround": -1,
  "supportsItems": 1,
  "configChangeDest": [
    20117,
    20120,
    20121,
    20122,
    20123,
    20124,
    20125,
    20126,
    20228,
    20870,
    20871,
    20872,
    20886,
    20887,
    20888,
    20889,
    20892,
    20893,
    20894,
    20895,
    20896,
    20897,
    20898,
    20899,
    20900,
    20901,
    20902,
    20903,
    20904,
    20905,
    20906,
    20890,
    20890,
    20907,
    20908,
    20909,
    20910,
    20911,
    20912,
    20913,
    20914,
    20915,
    20916,
    20917,
    20918,
    20919,
    20920,
    20921,
    20924,
    21281,
    21282,
    21283,
    21284,
    21285,
    21286,
    21287,
    21288,
    21289,
    21290,
    21291,
    21292,
    21293,
    21294,
    -1,
    20119,
    20119,
    20119,
    20119,
    20119,
    20119,
    20119,
    20119,
    20119,
    20119,
    20119,
    20119,
    20119,
    20119,
    20119,
    20119,
    20891,
    20891,
    20891,
    20891,
    20891,
    20891,
    20891,
    20891,
    20891,
    20891,
    20891,
    20891,
    20891,
    20891,
    20891,
    20922,
    20922,
    20119,
    20119,
    20119,
    20119,
    20119,
    20119,
    20119,
    20119,
    20119,
    20119,
    20119,
    20119,
    20119,
    20119,
    20119,
    20923,
    20923,
    20923,
    20923,
    20923,
    20923,
    20923,
    20923,
    20923,
    20923,
    20923,
    20923,
    20923,
    20923,
    20923,
    -1,
    -1,
    21295,
    21296,
    21297,
    21298,
    21668,
    21669,
    21670,
    21671,
    21672,
    21673,
    21674,
    21675,
    21676,
    21677,
    21678,
    21681,
    21682,
    21683,
    21684,
    21685,
    21686,
    21687,
    21688,
    21689,
    21690,
    21691,
    21692,
    21693,
    21694,
    21695,
    21679,
    21679,
    -1,
    -1,
    -1,
    -1,
    -1,
    -1,
    -1,
    -1,
    -1,
    -1,
    -1,
    -1,
    -1,
    -1,
    -1,
    31863,
    31864,
    31865,
    31866,
    31867,
    31868,
    31869,
    31870,
    31871,
    31872,
    31873,
    31874,
    31875,
    31876,
    31877,
    -1,
    -1,
    20119,
    20119,
    20119,
    20119,
    20119,
    20119,
    20119,
    20119,
    20119,
    20119,
    20119,
    20119,
    20119,
    20119,
    20119,
    21680,
    21680,
    21680,
    21680,
    21680,
    21680,
    21680,
    21680,
    21680,
    21680,
    21680,
    21680,
    21680,
    21680,
    21680,
    -1
  ],
  "category": 210,
  "isRotated": false,
  "varpID": -1,
  "ambientSoundId": -1,
  "aBool2111": false,
  "ambientSoundChangeTicksMin": 0,
  "ambientSoundChangeTicksMax": 0,
  "blocksProjectile": true,
  "randomizeAnimStart": false,
  "deferAnimChange": false
}