{
  "id": 7850,
  "decorDisplacement": 16,
  "isHollow": false,
  "name": "null",
  "mapAreaId": -1,
  "sizeX": 2,
  "sizeY": 2,
  "ambientSoundDistance": 0,
  "ambientSoundRetain": 0,
  "offsetX": 0,
  "mergeNormals": false,
  "wallOrDoor": 1,
  "animationID": -1,
  "varbitID": 4773,
  "ambient": 0,
  "contrast": 0,
  "actions": [
    null,
    null,
    null,
    null,
    null
  ],
  "interactType": 1,
  "mapSceneID": -1,
  "blockingMask": 0,
  "shadow": true,
  "modelSizeX": 128,
  "modelSizeHeight": 128,
  "modelSizeY": 128,
  "objectID": 0,
  "offsetHeight": 0,
  "offsetY": 0,
  "obstructsGround": false,
  "contouredGround": -1,
  "supportsItems": 1,
  "configChangeDest": [
    7846,
    7845,
    7844,
    7840,
    7846,
    7846,
    7846,
    7846,
    7867,
    7868,
    7869,
    7870,
    7871,
    7899,
    7900,
    7901,
    7902,
    7903,
    7883,
    7884,
    7885,
    7886,
    7887,
    7919,
    7920,
    7921,
    7922,
    7923,
    7851,
    7852,
    7853,
    7854,
    7855,
    9340,
    9339,
    9338,
    7915,
    33650,
    33651,
    33652,
    33653,
    33654,
    7846,
    7846,
    7846,
    7846,
    7846,
    7846,
    7846,
    7846,
    7846,
    7846,
    7846,
    7846,
    7846,
    7846,
    7846,
    7846,
    7846,
    7846,
    7846,
    7846,
    7846,
    7846,
    7846,
    7846,
    7846,
    7846,
    7846,
    7846,
    7846,
    7846,
    7872,
    7873,
    7874,
    7875,
    7846,
    7904,
    7905,
    7906,
    7907,
    7846,
    7888,
    7889,
    7890,
    7891,
    7846,
    7924,
    7925,
    7926,
    7927,
    7846,
    7856,
    7857,
    7858,
    7859,
    7846,
    7846,
    7846,
    7846,
    7846,
    33655,
    33656,
    33657,
    33658,
    7846,
    7846,
    7846,
    7846,
    7846,
    7846,
    7846,
    7846,
    7846,
    7846,
    7846,
    7846,
    7846,
    7846,
    7846,
    7846,
    7846,
    7846,
    7846,
    7846,
    7846,
    7846,
    7846,
    7846,
    7846,
    7846,
    7846,
    7846,
    7846,
    7846,
    7846,
    7846,
    7876,
    7877,
    7878,
    7846,
    7846,
    7908,
    7909,
    7910,
    7846,
    7846,
    7892,
    7893,
    7894,
    7846,
    7846,
    7928,
    7929,
    7930,
    7846,
    7846,
    7860,
    7861,
    7862,
    7846,
    7846,
    7846,
    7846,
    7846,
    7846,
    33659,
    33660,
    33661,
    7846,
    7846,
    7846,
    7846,
    7846,
    7846,
    7846,
    7846,
    7846,
    7846,
    7846,
    7846,
    7846,
    7846,
    7846,
    7846,
    7846,
    7846,
    7846,
    7846,
    7846,
    7846,
    7846,
    7846,
    7846,
    7846,
    7846,
    7846,
    7846,
    7846,
    7846,
    7846,
    7879,
    7880,
    7881,
    7882,
    7846,
    7911,
    7912,
    7913,
    7914,
    7846,
    7895,
    7896,
    7897,
    7898,
    7846,
    7931,
    7932,
    7933,
    7934,
    7846,
    7863,
    7864,
    7865,
    7866,
    7846,
    7846,
    7846,
    7846,
    7846,
    33662,
    33663,
    33664,
    33665,
    7846,
    7846,
    7846,
    7846,
    7846,
    7846,
    7846,
    7846,
    7846,
    7846,
    7846,
    7846,
    7846,
    7846,
    7846,
    7846,
    7846,
    7846,
    7846,
    7846,
    7846,
    7846,
    -1
  ],
  "category": 210,
  "isRotated": false,
  "varpID": -1,
  "ambientSoundId": -1,
  "aBool2111": false,
  "ambientSoundChangeTicksMin": 0,
  "ambientSoundChangeTicksMax": 0,
  "blocksProjectile": true,
  "randomizeAnimStart": false,
  "deferAnimChange": false
}