{
  "id": 7963,
  "decorDisplacement": 16,
  "isHollow": false,
  "name": "null",
  "mapAreaId": -1,
  "sizeX": 2,
  "sizeY": 2,
  "ambientSoundDistance": 0,
  "ambientSoundRetain": 0,
  "offsetX": 0,
  "mergeNormals": false,
  "wallOrDoor": 1,
  "animationID": -1,
  "varbitID": 4771,
  "ambient": 0,
  "contrast": 0,
  "actions": [
    null,
    null,
    null,
    null,
    null
  ],
  "interactType": 1,
  "mapSceneID": -1,
  "blockingMask": 0,
  "shadow": true,
  "modelSizeX": 128,
  "modelSizeHeight": 128,
  "modelSizeY": 128,
  "objectID": 0,
  "offsetHeight": 0,
  "offsetY": 0,
  "obstructsGround": false,
  "contouredGround": 0,
  "supportsItems": 1,
  "configChangeDest": [
    8050,
    8049,
    8048,
    8047,
    8050,
    8050,
    8050,
    8050,
    7935,
    7936,
    7937,
    7938,
    7939,
    7940,
    7941,
    7942,
    7943,
    7944,
    7945,
    7946,
    7947,
    7949,
    7950,
    7951,
    7952,
    7953,
    7954,
    7955,
    7956,
    7957,
    7958,
    7959,
    7960,
    7961,
    7948,
    7993,
    7994,
    7995,
    7996,
    7997,
    7998,
    8000,
    8001,
    8002,
    8003,
    8004,
    8005,
    8006,
    8007,
    8008,
    8009,
    8010,
    8011,
    8012,
    8013,
    8014,
    8015,
    8016,
    8017,
    8018,
    8019,
    7999,
    8050,
    8050,
    8050,
    8050,
    8050,
    8050,
    8050,
    8050,
    8050,
    8050,
    8051,
    8052,
    8053,
    8054,
    8055,
    8056,
    8057,
    8058,
    8059,
    8060,
    8061,
    8062,
    8063,
    8065,
    8066,
    8067,
    8068,
    8069,
    8070,
    8071,
    8072,
    8073,
    8074,
    8075,
    8076,
    8077,
    8064,
    8020,
    8021,
    8022,
    8023,
    8024,
    8025,
    8026,
    8027,
    8028,
    8029,
    8030,
    8031,
    8032,
    8034,
    8035,
    8036,
    8037,
    8038,
    8039,
    8040,
    8041,
    8042,
    8043,
    8044,
    8045,
    8046,
    8033,
    8050,
    8050,
    8050,
    8050,
    8050,
    8050,
    8050,
    8050,
    8050,
    8050,
    7966,
    7967,
    7968,
    7969,
    7970,
    7971,
    7972,
    7973,
    7974,
    7975,
    7976,
    7977,
    7978,
    7980,
    7981,
    7982,
    7983,
    7984,
    7985,
    7986,
    7987,
    7988,
    7989,
    7990,
    7991,
    7992,
    7979,
    8105,
    8106,
    8107,
    8108,
    8109,
    8110,
    8111,
    8112,
    8113,
    8114,
    8115,
    8116,
    8117,
    8119,
    8120,
    8121,
    8122,
    8123,
    8124,
    8125,
    8126,
    8127,
    8128,
    8129,
    8130,
    8131,
    8118,
    8050,
    8050,
    8050,
    8050,
    8050,
    8050,
    8050,
    8050,
    8050,
    8050,
    8078,
    8079,
    8080,
    8081,
    8082,
    8083,
    8084,
    8085,
    8086,
    8087,
    8088,
    8089,
    8090,
    8092,
    8093,
    8094,
    8095,
    8096,
    8097,
    8098,
    8099,
    8100,
    8101,
    8102,
    8103,
    8104,
    8091,
    34008,
    34009,
    34010,
    34011,
    34012,
    34013,
    34014,
    34015,
    34016,
    34017,
    34018,
    34019,
    34020,
    34022,
    34023,
    34024,
    34025,
    34026,
    34027,
    34028,
    34029,
    34030,
    34031,
    34032,
    34033,
    34034,
    34021,
    8050,
    8050,
    -1
  ],
  "category": 210,
  "isRotated": false,
  "varpID": -1,
  "ambientSoundId": -1,
  "aBool2111": false,
  "ambientSoundChangeTicksMin": 0,
  "ambientSoundChangeTicksMax": 0,
  "blocksProjectile": true,
  "randomizeAnimStart": false,
  "deferAnimChange": false
}