{
  "id": 8150,
  "decorDisplacement": 16,
  "isHollow": false,
  "name": "null",
  "mapAreaId": -1,
  "sizeX": 2,
  "sizeY": 2,
  "ambientSoundDistance": 0,
  "ambientSoundRetain": 0,
  "offsetX": 0,
  "mergeNormals": false,
  "wallOrDoor": 1,
  "animationID": -1,
  "varbitID": 4774,
  "ambient": 0,
  "contrast": 0,
  "actions": [
    null,
    null,
    null,
    null,
    null
  ],
  "interactType": 1,
  "mapSceneID": -1,
  "blockingMask": 0,
  "shadow": true,
  "modelSizeX": 128,
  "modelSizeHeight": 128,
  "modelSizeY": 128,
  "objectID": 0,
  "offsetHeight": 0,
  "offsetY": 0,
  "obstructsGround": false,
  "contouredGround": -1,
  "supportsItems": 1,
  "configChangeDest": [
    8135,
    8134,
    8133,
    8132,
    14209,
    26825,
    26826,
    26827,
    26828,
    26828,
    26828,
    26829,
    39748,
    39749,
    39750,
    39751,
    39751,
    39751,
    39752,
    39753,
    39754,
    39755,
    39756,
    39756,
    39756,
    39757,
    39758,
    39759,
    39760,
    39761,
    39761,
    39761,
    39762,
    39763,
    39764,
    39765,
    39766,
    39766,
    39766,
    39777,
    39778,
    39779,
    39780,
    39781,
    39781,
    39781,
    39767,
    39768,
    39769,
    39770,
    39771,
    39771,
    39771,
    39772,
    39773,
    39774,
    39775,
    39776,
    39776,
    39776,
    55347,
    55348,
    55349,
    55350,
    55351,
    55351,
    55351,
    8135,
    39782,
    39783,
    39784,
    39785,
    39786,
    39786,
    39786,
    39807,
    39808,
    39809,
    39810,
    39811,
    39811,
    39811,
    39787,
    39788,
    39789,
    39790,
    39791,
    39791,
    39791,
    39792,
    39793,
    39794,
    39795,
    39796,
    39796,
    39796,
    39797,
    39798,
    39799,
    39800,
    39801,
    39801,
    39801,
    39802,
    39803,
    39804,
    39805,
    39806,
    39806,
    39806,
    -1,
    -1,
    -1,
    -1,
    -1,
    -1,
    -1,
    -1,
    -1,
    -1,
    -1,
    -1,
    -1,
    -1,
    -1,
    -1,
    -1,
    -1,
    8144,
    8145,
    8146,
    8144,
    8145,
    8146,
    8144,
    8145,
    8146,
    8144,
    8145,
    8146,
    8144,
    8145,
    8146,
    8144,
    8145,
    8146,
    8144,
    8145,
    8146,
    8144,
    8145,
    8146,
    8144,
    8145,
    8146,
    8144,
    8145,
    8146,
    8144,
    8145,
    8146,
    8144,
    8145,
    8146,
    8144,
    8145,
    8146,
    8144,
    8145,
    8146,
    8147,
    8148,
    8149,
    8144,
    8145,
    8146,
    8135,
    8135,
    8135,
    8135,
    8135,
    8135,
    8135,
    8135,
    8135,
    8135,
    8135,
    8135,
    8135,
    8135,
    8135,
    8135,
    9044,
    9045,
    9046,
    9047,
    9048,
    9048,
    9049,
    9050,
    9051,
    9052,
    9053,
    9054,
    8135,
    8135,
    8135,
    8135,
    8135,
    8135,
    8135,
    8135,
    8135,
    8135,
    8135,
    8135,
    8135,
    8135,
    8135,
    8135,
    -1,
    8135,
    8135,
    8135,
    8135,
    8135,
    8135,
    8135,
    8135,
    8135,
    8135,
    8135,
    8135,
    8135,
    8135,
    8135,
    8135,
    8135,
    8135,
    8135,
    8135,
    8135,
    8135,
    8135,
    8135,
    8135,
    8135,
    8135,
    8135,
    8135,
    8135,
    8135,
    8135,
    8135,
    8135,
    8135,
    -1
  ],
  "category": 210,
  "isRotated": false,
  "varpID": -1,
  "ambientSoundId": -1,
  "aBool2111": false,
  "ambientSoundChangeTicksMin": 0,
  "ambientSoundChangeTicksMax": 0,
  "blocksProjectile": true,
  "randomizeAnimStart": false,
  "deferAnimChange": false
}