{
  "id": 8955,
  "decorDisplacement": 16,
  "isHollow": false,
  "name": "Flag",
  "objectModels": [
    8696
  ],
  "recolorToFind": [
    5309,
    5318,
    5322,
    5326,
    5330
  ],
  "mapAreaId": -1,
  "sizeX": 1,
  "sizeY": 1,
  "ambientSoundDistance": 3,
  "ambientSoundRetain": 0,
  "offsetX": 0,
  "mergeNormals": false,
  "wallOrDoor": 1,
  "animationID": 2360,
  "varbitID": -1,
  "ambient": 0,
  "contrast": 0,
  "actions": [
    null,
    null,
    null,
    null,
    null
  ],
  "interactType": 2,
  "mapSceneID": -1,
  "blockingMask": 0,
  "recolorToReplace": [
    5223,
    5231,
    5235,
    5239,
    7289
  ],
  "shadow": true,
  "modelSizeX": 128,
  "modelSizeHeight": 128,
  "modelSizeY": 150,
  "objectID": 0,
  "offsetHeight": 0,
  "offsetY": 0,
  "obstructsGround": false,
  "contouredGround": -1,
  "supportsItems": 1,
  "category": 0,
  "isRotated": false,
  "varpID": -1,
  "ambientSoundId": 3124,
  "aBool2111": false,
  "ambientSoundChangeTicksMin": 0,
  "ambientSoundChangeTicksMax": 0,
  "blocksProjectile": true,
  "randomizeAnimStart": false,
  "deferAnimChange": false
}