{
  "id": 8975,
  "decorDisplacement": 16,
  "isHollow": false,
  "name": "Dense runestone",
  "objectModels": [
    30836
  ],
  "mapAreaId": -1,
  "sizeX": 5,
  "sizeY": 5,
  "ambientSoundDistance": 0,
  "ambientSoundRetain": 0,
  "offsetX": 0,
  "mergeNormals": true,
  "wallOrDoor": 1,
  "animationID": -1,
  "varbitID": -1,
  "ambient": 5,
  "contrast": 0,
  "actions": [
    "Chip",
    null,
    null,
    null,
    null
  ],
  "interactType": 1,
  "mapSceneID": 12,
  "blockingMask": 0,
  "shadow": true,
  "modelSizeX": 128,
  "modelSizeHeight": 128,
  "modelSizeY": 128,
  "objectID": 0,
  "offsetHeight": 0,
  "offsetY": 0,
  "obstructsGround": false,
  "contouredGround": -1,
  "supportsItems": 1,
  "category": 0,
  "isRotated": false,
  "varpID": -1,
  "ambientSoundId": -1,
  "aBool2111": true,
  "ambientSoundChangeTicksMin": 0,
  "ambientSoundChangeTicksMax": 0,
  "blocksProjectile": true,
  "randomizeAnimStart": false,
  "deferAnimChange": false
}