{
  "id": 8988,
  "decorDisplacement": 16,
  "isHollow": false,
  "name": "Net trap",
  "objectModels": [
    19934
  ],
  "recolorToFind": [
    6682,
    6071
  ],
  "mapAreaId": -1,
  "sizeX": 1,
  "sizeY": 2,
  "ambientSoundDistance": 0,
  "ambientSoundRetain": 0,
  "offsetX": 0,
  "mergeNormals": false,
  "wallOrDoor": 1,
  "animationID": 5271,
  "varbitID": -1,
  "ambient": 0,
  "contrast": 0,
  "actions": [
    "Dismantle",
    null,
    null,
    null,
    null
  ],
  "interactType": 0,
  "mapSceneID": 68,
  "blockingMask": 0,
  "recolorToReplace": [
    5388,
    0
  ],
  "shadow": true,
  "modelSizeX": 128,
  "modelSizeHeight": 128,
  "modelSizeY": 128,
  "objectID": 0,
  "offsetHeight": 0,
  "offsetY": 0,
  "obstructsGround": false,
  "contouredGround": -1,
  "supportsItems": 0,
  "category": 191,
  "isRotated": false,
  "varpID": -1,
  "ambientSoundId": -1,
  "aBool2111": false,
  "ambientSoundChangeTicksMin": 0,
  "ambientSoundChangeTicksMax": 0,
  "blocksProjectile": false,
  "randomizeAnimStart": false,
  "deferAnimChange": false
}