{
  "id": 9032,
  "decorDisplacement": 16,
  "isHollow": false,
  "name": "Gem Rock",
  "objectModels": [
    8882
  ],
  "recolorToFind": [
    5289,
    813,
    10297,
    -30047
  ],
  "mapAreaId": -1,
  "sizeX": 1,
  "sizeY": 1,
  "ambientSoundDistance": 0,
  "ambientSoundRetain": 0,
  "offsetX": 0,
  "mergeNormals": false,
  "wallOrDoor": 1,
  "animationID": -1,
  "varbitID": -1,
  "ambient": 0,
  "contrast": 0,
  "actions": [
    "Mine",
    null,
    null,
    null,
    null
  ],
  "interactType": 1,
  "mapSceneID": 12,
  "blockingMask": 0,
  "recolorToReplace": [
    10908,
    10908,
    10908,
    -4160
  ],
  "shadow": true,
  "modelSizeX": 128,
  "modelSizeHeight": 128,
  "modelSizeY": 128,
  "objectID": 0,
  "offsetHeight": 0,
  "offsetY": 0,
  "obstructsGround": false,
  "contouredGround": 0,
  "supportsItems": 1,
  "category": 163,
  "isRotated": false,
  "varpID": -1,
  "ambientSoundId": -1,
  "aBool2111": false,
  "ambientSoundChangeTicksMin": 0,
  "ambientSoundChangeTicksMax": 0,
  "blocksProjectile": false,
  "randomizeAnimStart": false,
  "deferAnimChange": false
}