{
  "id": 37027858,
  "isIf3": true,
  "type": 4,
  "contentType": 0,
  "originalX": 108,
  "originalY": 236,
  "originalWidth": 315,
  "originalHeight": 15,
  "widthMode": 0,
  "heightMode": 0,
  "xPositionMode": 0,
  "yPositionMode": 0,
  "parentId": -1,
  "isHidden": false,
  "scrollWidth": 0,
  "scrollHeight": 0,
  "noClickThrough": false,
  "spriteId": -1,
  "textureId": 0,
  "spriteTiling": false,
  "opacity": 0,
  "borderType": 0,
  "shadowColor": 0,
  "flippedVertically": false,
  "flippedHorizontally": false,
  "modelType": 1,
  "modelId": -1,
  "offsetX2d": 0,
  "offsetY2d": 0,
  "rotationX": 0,
  "rotationY": 0,
  "rotationZ": 0,
  "modelZoom": 100,
  "animation": -1,
  "orthogonal": false,
  "modelHeightOverride": 0,
  "fontId": 495,
  "text": "Stay out",
  "lineHeight": 0,
  "xTextAlignment": 1,
  "yTextAlignment": 1,
  "textShadowed": true,
  "textColor": 16711680,
  "filled": false,
  "lineWidth": 1,
  "lineDirection": false,
  "clickMask": 2,
  "name": "",
  "actions": [
    "No"
  ],
  "dragDeadZone": 0,
  "dragDeadTime": 0,
  "dragRenderBehavior": false,
  "targetVerb": "",
  "onMouseOverListener": [
    167,
    -2147483645,
    65280
  ],
  "onMouseLeaveListener": [
    167,
    -2147483645,
    16711680
  ],
  "hasListener": true,
  "menuType": 0,
  "hoveredSiblingId": 0,
  "xPitch": 0,
  "yPitch": 0,
  "alternateText": "",
  "alternateTextColor": 0,
  "hoveredTextColor": 0,
  "alternateHoveredTextColor": 0,
  "alternateSpriteId": -1,
  "alternateModelId": -1,
  "alternateAnimation": -1,
  "spellName": "",
  "tooltip": "Ok"
}