{
  "id": 1572869,
  "isIf3": true,
  "type": 4,
  "contentType": 0,
  "originalX": 10,
  "originalY": 8,
  "originalWidth": 100,
  "originalHeight": 16,
  "widthMode": 0,
  "heightMode": 0,
  "xPositionMode": 2,
  "yPositionMode": 2,
  "parentId": 1572866,
  "isHidden": false,
  "scrollWidth": 0,
  "scrollHeight": 0,
  "noClickThrough": false,
  "spriteId": -1,
  "textureId": 0,
  "spriteTiling": false,
  "opacity": 0,
  "borderType": 0,
  "shadowColor": 0,
  "flippedVertically": false,
  "flippedHorizontally": false,
  "modelType": 1,
  "modelId": -1,
  "offsetX2d": 0,
  "offsetY2d": 0,
  "rotationX": 0,
  "rotationY": 0,
  "rotationZ": 0,
  "modelZoom": 100,
  "animation": -1,
  "orthogonal": false,
  "modelHeightOverride": 0,
  "fontId": 495,
  "text": "",
  "lineHeight": 0,
  "xTextAlignment": 2,
  "yTextAlignment": 0,
  "textShadowed": true,
  "textColor": 5066031,
  "filled": false,
  "lineWidth": 1,
  "lineDirection": false,
  "clickMask": 0,
  "name": "",
  "dragDeadZone": 0,
  "dragDeadTime": 0,
  "dragRenderBehavior": false,
  "targetVerb": "",
  "onMouseLeaveListener": [
    40,
    1572876
  ],
  "onMouseRepeatListener": [
    38,
    -2147483645,
    1572876,
    "Percentage towards maximum potential rewards. Does not include unique barrows armours/weapons.",
    5,
    512
  ],
  "hasListener": true,
  "menuType": 0,
  "hoveredSiblingId": 0,
  "xPitch": 0,
  "yPitch": 0,
  "alternateText": "",
  "alternateTextColor": 0,
  "hoveredTextColor": 0,
  "alternateHoveredTextColor": 0,
  "alternateSpriteId": -1,
  "alternateModelId": -1,
  "alternateAnimation": -1,
  "spellName": "",
  "tooltip": "Ok"
}